"","facility_type","facility_name","facility_iri","facility_distance"
"0","Cukrárna","Cukrárna Crystal","https://www.firmy.cz/detail/13272890-cukrarna-crystal-plzen-jizni-predmesti.html","628"
"1","Kino","Kino Beseda","https://www.firmy.cz/detail/12773769-kino-beseda-plzen-jizni-predmesti.html","1680"
"2","Hřiště","Dětské hřiště Čermákova","","85"
"3","Večerka","Pramen","https://www.firmy.cz/detail/13268869-pramen-plzen-jizni-predmesti.html","383"
"4","Divadlo","Divadlo pod lampou, o.p.s.","https://www.firmy.cz/detail/2418226-divadlo-pod-lampou-plzen-jizni-predmesti.html","862"
"5","Hospoda","Kancl Bar","https://www.firmy.cz/detail/13233203-kancl-bar-plzen-jizni-predmesti.html","616"
"6","Veterinář","RPVET - VETERINÁRNÍ KLINIKA A POHOTOVOST MVDr. RADEK PROTIVA a kol.","https://www.firmy.cz/detail/13318056-rpvet-veterinarni-klinika-a-pohotovost-mvdr-radek-protiva-a-kol-plzen-jizni-predmesti.html","815"
"7","Bankomat","Bankomat ČSOB","https://www.firmy.cz/detail/2578391-bankomat-csob-plzen-jizni-predmesti.html","455"
"8","Vlak","Plzeň-Jižní Předměstí","","900"
"9","Školka","Školička Babetka","https://www.firmy.cz/detail/12884846-skolicka-babetka-plzen-jizni-predmesti.html","336"
"10","Pošta","Pošta Plzeň 13 - Česká pošta, s.p.","https://www.firmy.cz/detail/216649-posta-plzen-13-plzen-jizni-predmesti.html","663"
"11","Tram","Dobrovského","","661"
"12","Lékárna","Dr. Max LÉKÁRNA","https://www.firmy.cz/detail/2570158-dr-max-lekarna-plzen-jizni-predmesti.html","564"
"13","Lékař","PRACTIMED, s.r.o.","https://www.firmy.cz/detail/2578866-practimed-plzen-jizni-predmesti.html","545"
"14","Sportoviště","LTC Slavoj Plzeň","https://www.firmy.cz/detail/720050-ltc-slavoj-plzen-plzen-jizni-predmesti.html","281"
"15","Škola","Střední odborné učiliště stavební Plzeň","https://www.firmy.cz/detail/360785-stredni-odborne-uciliste-stavebni-plzen-plzen-jizni-predmesti.html","297"
"16","Bus MHD","Čermákova","","334"
"17","Obchod","Kaufland","https://www.firmy.cz/detail/2616232-kaufland-plzen-jizni-predmesti.html","564"
"18","Restaurace","Restaurant Flora","https://www.firmy.cz/detail/328818-restaurant-flora-plzen-jizni-predmesti.html","26"
