"","facility_type","facility_name","facility_iri","facility_distance"
"0","Cukrárna","CrossCafe Plzeňská brána","https://www.firmy.cz/detail/13273632-crosscafe-plzenska-brana-beroun-mesto.html","180"
"1","Kino","Kino Beroun","https://www.firmy.cz/detail/396429-kino-beroun-beroun-mesto.html","262"
"2","Hřiště","Dětské hřiště Slapská","","176"
"3","Večerka","Zlevněnka Beroun","https://www.firmy.cz/detail/12923868-zlevnenka-beroun-beroun-centrum.html","108"
"4","Hospoda","Hospůdka U Filipa","https://www.firmy.cz/detail/13141860-hospudka-u-filipa-beroun-mesto.html","150"
"5","Veterinář","Veterinární ordinace MVDr. Petr Volf","https://www.firmy.cz/detail/746039-veterinarni-ordinace-mvdr-petr-volf-beroun-mesto.html","1545"
"6","Školka","MŠ Beroun, Tovární","https://www.firmy.cz/detail/637746-ms-beroun-tovarni-beroun-mesto.html","246"
"7","Lékárna","Dr. Max LÉKÁRNA","https://www.firmy.cz/detail/13085452-dr-max-lekarna-beroun-mesto.html","213"
"8","Pošta","Pošta Beroun 1 - Česká pošta, s.p.","https://www.firmy.cz/detail/216868-posta-beroun-1-beroun-mesto.html","307"
"9","Obchod","Květ Beroun, a.s.","https://www.firmy.cz/detail/12846052-kvet-beroun-beroun-centrum.html","207"
"10","Škola","Obchodní akademie Beroun","https://www.firmy.cz/detail/298496-obchodni-akademie-beroun-beroun-mesto.html","182"
"11","Sportoviště","Bowling Petr Hrách","https://www.firmy.cz/detail/12974994-bowling-petr-hrach-beroun-centrum.html","219"
"12","Lékař","Ordinace MUDr. Rytířové","https://www.firmy.cz/detail/12831571-ordinace-mudr-rytirove-beroun-centrum.html","62"
"13","Vlak","Beroun","","625"
"14","Bus MHD","Beroun, Na Parkáně","","207"
"15","Restaurace","Jakoby Bistro","https://www.firmy.cz/detail/13256556-jakoby-bistro-beroun-centrum.html","61"
"16","Bankomat","Bankomat MONETA Money Bank","https://www.firmy.cz/detail/602898-bankomat-moneta-money-bank-beroun-centrum.html","42"
