"","facility_type","facility_name","facility_iri","facility_distance"
"0","Cukrárna","Dorty Kadlecovi","https://www.firmy.cz/detail/13327072-dorty-kadlecovi-tremosna-zaluzi.html","1572"
"1","Hřiště","Dětské hřiště Mládežníků","","58"
"2","Večerka","COOP - TUTY","https://www.firmy.cz/detail/2160160-coop-tuty-tremosna.html","211"
"3","Hospoda","Formanka Výčep","https://www.firmy.cz/detail/13119036-formanka-vycep-tremosna.html","1182"
"4","Divadlo","Loutkové divadlo Třemošná","https://www.firmy.cz/detail/397100-loutkove-divadlo-tremosna-tremosna.html","492"
"5","Veterinář","MVDr. Zdeněk Rampich","https://www.firmy.cz/detail/435592-mvdr-zdenek-rampich-tremosna.html","835"
"6","Bankomat","Bankomat Komerční banky","https://www.firmy.cz/detail/594646-bankomat-komercni-banky-tremosna.html","187"
"7","Školka","MŠ Třemošná","https://www.firmy.cz/detail/2127872-ms-tremosna-tremosna.html","118"
"8","Pošta","Pošta Třemošná - Česká pošta, s.p.","https://www.firmy.cz/detail/216617-posta-tremosna-tremosna.html","257"
"9","Vlak","Třemošná u Plzně","","578"
"10","Tram","Bolevec","","3433"
"11","Restaurace","Restaurace Albion","https://www.firmy.cz/detail/463841-restaurace-albion-tremosna.html","111"
"12","Lékař","MUDr. Marie Cinertová","https://www.firmy.cz/detail/2266277-mudr-marie-cinertova-tremosna.html","497"
"13","Škola","ZŠ Třemošná - U Stadionu","https://www.firmy.cz/detail/2156821-zs-tremosna-u-stadionu-tremosna.html","419"
"14","Sportoviště","Tělocvičná jednota Sokol Třemošná","https://www.firmy.cz/detail/2131874-telocvicna-jednota-sokol-tremosna-tremosna.html","364"
"15","Lékárna","Lékárna Devětsil","https://www.firmy.cz/detail/13221207-lekarna-devetsil-tremosna.html","417"
"16","Bus MHD","Třemošná, sídliště","","72"
"17","Obchod","Albert Hypermarket","https://www.firmy.cz/detail/447072-albert-hypermarket-plzen-bolevec.html","4340"
