"","facility_type","facility_name","facility_iri","facility_distance"
"0","Cukrárna","Cukrárna Ollies","https://www.firmy.cz/detail/2692395-cukrarna-ollies-ostrava-vitkovice.html","1111"
"1","Kino","ETÁŽ","https://www.firmy.cz/detail/13265760-etaz-ostrava.html","1785"
"2","Přírodní zajímavost","Zábřežský bludný balvan","","1414"
"3","Hřiště","Dětské hřiště Dehtová","","603"
"4","Večerka","Rychvaldská pekárna","https://www.firmy.cz/detail/12954684-rychvaldska-pekarna-ostrava-vitkovice.html","650"
"5","Hospoda","Pivnice Rosvelda","https://www.firmy.cz/detail/13135286-pivnice-rosvelda-ostrava-vitkovice.html","669"
"6","Divadlo","Divadlo Mír","https://www.firmy.cz/detail/13092715-divadlo-mir-ostrava-vitkovice.html","818"
"7","Veterinář","MVDr. Miroslav Dvořák","https://www.firmy.cz/detail/277043-mvdr-miroslav-dvorak-ostrava-zabreh.html","1045"
"8","Bus MHD","Stará ocelárna","","133"
"9","Tram","Stará ocelárna","","57"
"10","Restaurace","Restaurace Krčma","https://www.firmy.cz/detail/12712895-restaurace-krcma-ostrava-vitkovice.html","635"
"11","Lékař","MUDr. Vojtěch Togner","https://www.firmy.cz/detail/389122-mudr-vojtech-togner-ostrava-hulvaky.html","481"
"12","Bankomat","Bankomat MONETA Money Bank","https://www.firmy.cz/detail/2697804-bankomat-moneta-money-bank-ostrava-vitkovice.html","759"
"13","Vlak","Ostrava-Vítkovice","","1193"
"14","Škola","PORG - gymnázium a ZŠ, o.p.s.","https://www.firmy.cz/detail/12730861-porg-gymnazium-a-zs-ostrava-vitkovice.html","249"
"15","Sportoviště","Tenisové kurty Sareza","https://www.firmy.cz/detail/13212059-tenisove-kurty-sareza-ostrava.html","871"
"16","Pošta","Pošta Ostrava 3 - Česká pošta, s.p.","https://www.firmy.cz/detail/2378901-posta-ostrava-3-ostrava-vitkovice.html","868"
"17","Obchod","OC FUTURUM Ostrava","https://www.firmy.cz/detail/2454785-oc-futurum-ostrava-ostrava-moravska-ostrava.html","2365"
"18","Lékárna","LÉKÁRNA PATRO, s.r.o.","https://www.firmy.cz/detail/375988-lekarna-patro-ostrava-vitkovice.html","792"
"19","Školka","MŠ Ostrava - Vítkovice, Kořenského","https://www.firmy.cz/detail/2587036-ms-ostrava-vitkovice-korenskeho-ostrava-vitkovice.html","484"
