"","facility_type","facility_name","facility_iri","facility_distance"
"0","Cukrárna","Cukrárna Dlouhá 28","https://www.firmy.cz/detail/2674510-cukrarna-dlouha-28-horni-slavkov.html","461"
"1","Kino","Městské kino Horní Slavkov","https://www.firmy.cz/detail/2426815-mestske-kino-horni-slavkov-horni-slavkov.html","253"
"2","Hřiště","Dětské hřiště Bezejmenná","","308"
"3","Večerka","JIP Potraviny","https://www.firmy.cz/detail/12922861-jip-potraviny-horni-slavkov.html","174"
"4","Hospoda","Hospůdka pod Radnicí","https://www.firmy.cz/detail/13133827-hospudka-pod-radnici-teplicka.html","3716"
"5","Veterinář","Veterinární ordinace NA FAŘE","https://www.firmy.cz/detail/2481722-veterinarni-ordinace-na-fare-horni-slavkov.html","400"
"6","Pošta","Pošta Horní Slavkov - Česká pošta, s.p.","https://www.firmy.cz/detail/216443-posta-horni-slavkov-horni-slavkov.html","593"
"7","Bus MHD","Horní Slavkov, hodinářství","","362"
"8","Restaurace","Restaurace U Muzea","https://www.firmy.cz/detail/12718655-restaurace-u-muzea-horni-slavkov.html","443"
"9","Bankomat","Bankomat České spořitelny","https://www.firmy.cz/detail/592166-bankomat-ceske-sporitelny-horni-slavkov.html","174"
"10","Sportoviště","Golf a wellness resort Cihelny","https://www.firmy.cz/detail/13031386-golf-a-wellness-resort-cihelny-karlovy-vary-cihelny.html","5040"
"11","Školka","MŠ Horní Slavkov","https://www.firmy.cz/detail/2623422-ms-horni-slavkov-horni-slavkov.html","141"
"12","Škola","ZŠ Horní Slavkov, Nádražní","https://www.firmy.cz/detail/357188-zs-horni-slavkov-nadrazni-horni-slavkov.html","337"
"13","Lékař","MUDr. Jiří Švejda","https://www.firmy.cz/detail/386208-mudr-jiri-svejda-horni-slavkov.html","229"
"14","Lékárna","BENU Lékárna","https://www.firmy.cz/detail/13297038-benu-lekarna-horni-slavkov.html","238"
"15","Vlak","Horní Slavkov-Kounice","","948"
