"","facility_type","facility_name","facility_iri","facility_distance"
"0","Cukrárna","Cukrárna u Botanika","https://www.firmy.cz/detail/13066791-cukrarna-u-botanika-teplice.html","243"
"1","Kino","Kino Květen","https://www.firmy.cz/detail/435268-kino-kveten-teplice.html","985"
"2","Přírodní zajímavost","Porcelanity u Strak","","3307"
"3","Hřiště","Dětské hřiště Novákova","","291"
"4","Večerka","Penny Market","https://www.firmy.cz/detail/2413524-penny-market-teplice.html","162"
"5","Hospoda","Pivnice Frito","https://www.firmy.cz/detail/13112395-pivnice-frito-teplice.html","369"
"6","Divadlo","Krušnohorské divadlo","https://www.firmy.cz/detail/435271-krusnohorske-divadlo-teplice.html","874"
"7","Veterinář","MVDr. Jaroslava Radoušová","https://www.firmy.cz/detail/2621440-mvdr-jaroslava-radousova-teplice.html","871"
"8","Bus MHD","Teplice, Pražská","","172"
"9","Restaurace","IMBISS","https://www.firmy.cz/detail/13114488-imbiss-teplice-prosetice.html","268"
"10","Bankomat","Bankomat ČSOB","https://www.firmy.cz/detail/597371-bankomat-csob-teplice.html","885"
"11","Lékař","MUDr. Ján Boldiš - Prosetice s.r.o.","https://www.firmy.cz/detail/13286005-mudr-jan-boldis-prosetice-s-r-o-teplice-prosetice.html","305"
"12","Škola","ZŠ Teplice, Plynárenská","https://www.firmy.cz/detail/359677-zs-teplice-plynarenska-teplice.html","244"
"13","Lékárna","Lékárna Prosetice","https://www.firmy.cz/detail/13204308-lekarna-prosetice-teplice-prosetice.html","268"
"14","Obchod","Galerie Teplice","https://www.firmy.cz/detail/12734057-galerie-teplice-teplice.html","1128"
"15","Vlak","Prosetice","","691"
"16","Sportoviště","Občanské sdružení The Sharks","https://www.firmy.cz/detail/2650490-obcanske-sdruzeni-the-sharks-teplice-prosetice.html","361"
"17","Školka","MŠ Pramínek, Teplice","https://www.firmy.cz/detail/644262-ms-praminek-teplice-teplice.html","280"
"18","Pošta","Pošta Teplice 8 - Česká pošta, s.p.","https://www.firmy.cz/detail/215425-posta-teplice-8-teplice.html","646"
