"","facility_type","facility_name","facility_iri","facility_distance"
"0","Cukrárna","Janina showroom cafe","https://www.firmy.cz/detail/13140518-janina-showroom-cafe-most.html","571"
"1","Kino","Kino Kosmos","https://www.firmy.cz/detail/401279-kino-kosmos-most.html","610"
"2","Hřiště","Dětské hřiště Antonína Sochora","","406"
"3","Večerka","Potraviny U Kubísků","https://www.firmy.cz/detail/13132594-potraviny-u-kubisku-most.html","385"
"4","Hospoda","Krušovická restaurace Konečná","https://www.firmy.cz/detail/13259251-krusovicka-restaurace-konecna-most.html","29"
"5","Divadlo","Divadlo nad Labem","https://www.firmy.cz/detail/2240673-divadlo-nad-labem-most.html","842"
"6","Veterinář","VETERINA-MOST","https://www.firmy.cz/detail/12832535-veterina-most-most.html","1162"
"7","Bankomat","Bankomat MONETA Money Bank","https://www.firmy.cz/detail/13082219-bankomat-moneta-money-bank-most.html","777"
"8","Restaurace","Veřejné stravování CZ","https://www.firmy.cz/detail/2503152-verejne-stravovani-cz-most.html","245"
"9","Škola","ZŠ profesora Zdeňka Matějčka, Most","https://www.firmy.cz/detail/2158252-zs-profesora-zdenka-matejcka-most-most.html","189"
"10","Lékárna","Dr. Max LÉKÁRNA","https://www.firmy.cz/detail/2007249-dr-max-lekarna-most.html","641"
"11","Školka","MŠ Most, Albrechtická 414","https://www.firmy.cz/detail/2378026-ms-most-albrechticka-414-most.html","391"
"12","Tram","Most, Dopravní podnik","","98"
"13","Lékař","DOPRAVNÍ PODNIK měst Mostu a Litvínova, a.s. - Zdravotnická dopravní služba","https://www.firmy.cz/detail/13275447-dopravni-podnik-mest-mostu-a-litvinova-a-s-zdravotnicka-dopravni-sluzba-most.html","329"
"14","Bus MHD","Most, Dopravní podnik","","78"
"15","Obchod","Central Most","https://www.firmy.cz/detail/2412415-central-most-most.html","971"
"16","Pošta","Pošta Most 11 - Česká pošta, s.p.","https://www.firmy.cz/detail/216959-posta-most-11-most.html","1024"
"17","Vlak","Most","","2602"
"18","Sportoviště","Pétanque aquadrom","","784"
