"","facility_type","facility_name","facility_iri","facility_distance"
"0","Cukrárna","Cukrárna Split","https://www.firmy.cz/detail/1956740-cukrarna-split-pardubice-zelene-predmesti.html","391"
"1","Kino","CineStar Pardubice","https://www.firmy.cz/detail/2109581-cinestar-pardubice-pardubice-zelene-predmesti.html","1208"
"2","Hřiště","Dětské hřiště Čihákova","","96"
"3","Večerka","Žabka","https://www.firmy.cz/detail/13331113-zabka-pardubice-zelene-predmesti.html","234"
"4","Hospoda","Pivní ráj Na Radhošti","https://www.firmy.cz/detail/13108749-pivni-raj-na-radhosti-pardubice-zelene-predmesti.html","330"
"5","Divadlo","Divadlo NerušKruh","https://www.firmy.cz/detail/13262119-divadlo-neruskruh-pardubice-zelene-predmesti.html","328"
"6","Veterinář","Veterina na Višňovce","https://www.firmy.cz/detail/12965556-veterina-na-visnovce-pardubice-zelene-predmesti.html","106"
"7","Bus MHD","Rokycanova","","219"
"8","Školka","MŠ Pardubice, Benešovo náměstí","https://www.firmy.cz/detail/1820978-ms-pardubice-benesovo-namesti-pardubice-zelene-predmesti.html","183"
"9","Sportoviště","Tenisová škola TALLENT","https://www.firmy.cz/detail/13172764-tenisova-skola-tallent-pardubice-zelene-predmesti.html","432"
"10","Vlak","Pardubice-Pardubičky","","1107"
"11","Obchod","Kaufland","https://www.firmy.cz/detail/2617039-kaufland-pardubice-zelene-predmesti.html","367"
"12","Lékař","MUDr. Marie Vaňáčová","https://www.firmy.cz/detail/386196-mudr-marie-vanacova-pardubice-zelene-predmesti.html","178"
"13","Restaurace","Hashtag food delivery Pardubice","https://www.firmy.cz/detail/13330949-hashtag-food-delivery-pardubice-pardubice-zelene-predmesti.html","281"
"14","Bankomat","Bankomat České spořitelny","https://www.firmy.cz/detail/2463189-bankomat-ceske-sporitelny-pardubice-zelene-predmesti.html","284"
"15","Lékárna","Na Višňovce","https://www.firmy.cz/detail/374492-na-visnovce-pardubice-zelene-predmesti.html","226"
"16","Škola","ZŠ Pardubice, Benešovo náměstí","https://www.firmy.cz/detail/358768-zs-pardubice-benesovo-namesti-pardubice-zelene-predmesti.html","210"
"17","Pošta","Pošta Pardubice 5 - Česká pošta, s.p.","https://www.firmy.cz/detail/215334-posta-pardubice-5-pardubice-zelene-predmesti.html","445"
