"","facility_type","facility_name","facility_iri","facility_distance"
"0","Cukrárna","Karmelka","https://www.firmy.cz/detail/12747425-karmelka-mlada-boleslav-ii.html","258"
"1","Kino","CineStar Mladá Boleslav","https://www.firmy.cz/detail/2109584-cinestar-mlada-boleslav-mlada-boleslav-ii.html","317"
"2","Přírodní zajímavost","Syslí kolonie","","1373"
"3","Hřiště","Dětské hřiště Máchova","","222"
"4","Večerka","Můjobchod U Tomíků","https://www.firmy.cz/detail/13332977-mujobchod-u-tomiku-mlada-boleslav-ii.html","124"
"5","Hospoda","Pivnice Bingo u kolejí","https://www.firmy.cz/detail/2465415-pivnice-bingo-u-koleji-mlada-boleslav-ii.html","298"
"6","Divadlo","Městské divadlo Mladá Boleslav","https://www.firmy.cz/detail/2178157-mestske-divadlo-mlada-boleslav-mlada-boleslav-ii.html","882"
"7","Veterinář","Veterinární ordinace MBvet","https://www.firmy.cz/detail/1328851-veterinarni-ordinace-mbvet-mlada-boleslav-ii.html","356"
"8","Lékař","MOJE AMBULANCE","https://www.firmy.cz/detail/2141119-moje-ambulance-mlada-boleslav-ii.html","334"
"9","Vlak","Mladá Boleslav město","","462"
"10","Bus MHD","Mladá Boleslav, Václava Klementa","","217"
"11","Školka","MŠ Pampeliška Mladá Boleslav, Nerudova","https://www.firmy.cz/detail/2116458-ms-pampeliska-mlada-boleslav-nerudova-mlada-boleslav-ii.html","257"
"12","Bankomat","Bankomat MONETA Money Bank","https://www.firmy.cz/detail/602911-bankomat-moneta-money-bank-mlada-boleslav-ii.html","164"
"13","Lékárna","Dr.Max","https://www.firmy.cz/detail/2007104-dr-max-mlada-boleslav-ii.html","229"
"14","Škola","ZŠ Mladá Boleslav, Václavkova","https://www.firmy.cz/detail/358262-zs-mlada-boleslav-vaclavkova-mlada-boleslav-ii.html","619"
"15","Sportoviště","Městská společnost sportovní a rekreační areály - sportovní hala","https://www.firmy.cz/detail/2502174-mestska-spolecnost-sportovni-a-rekreacni-arealy-sportovni-hala-mlada-boleslav-ii.html","400"
"16","Pošta","Pošta Mladá Boleslav 3 - Česká pošta, s.p.","https://www.firmy.cz/detail/217184-posta-mlada-boleslav-3-mlada-boleslav-ii.html","294"
"17","Restaurace","Jana Beňová","https://www.firmy.cz/detail/2463854-jana-benova-mlada-boleslav-ii.html","127"
"18","Obchod","Kaufland","https://www.firmy.cz/detail/738635-kaufland-mlada-boleslav-ii.html","250"
