"","facility_type","facility_name","facility_iri","facility_distance"
"0","Hřiště","Dětské hřiště Vavřinecká","https://mapy.cz/zakladni?x=16.5522013425&y=49.2217630648&z=17&source=base&id=2220746","189"
"1","Přírodní zajímavost","Přírodní zahrada U Smrku","https://mapy.cz/zakladni?x=16.58765420430356&y=49.22807918152045&z=17&source=base&id=2324158","2719"
"2","Cukrárna","Cukrárna Aida","https://www.firmy.cz/detail/13138858-cukrarna-aida-brno-komin.html","573"
"3","Hospoda","Martin Bittó","https://www.firmy.cz/detail/13126133-martin-bitto-brno-komin.html","313"
"4","Večerka","Eso Market - Pavel Hendrych - Pavel Hendrych","https://www.firmy.cz/detail/562747-eso-market-pavel-hendrych-brno-komin.html","255"
"5","Divadlo","Divadlo Strom","https://www.firmy.cz/detail/12762146-divadlo-strom-brno-zabovresky.html","2735"
"6","Veterinář","Veterinární klinika MVDr. Igora Beneše","https://www.firmy.cz/detail/302351-veterinarni-klinika-mvdr-igora-benese-brno-komin.html","739"
"7","Kino","Kino Lucerna","https://www.firmy.cz/detail/638240-kino-lucerna-brno-zabovresky.html","2877"
"8","Pošta","Pošta Brno 24 - Česká pošta, s.p.","https://www.firmy.cz/detail/431926-posta-brno-24-brno-komin.html","890"
"9","Lékař","MUDr. Jana Pavloková","https://www.firmy.cz/detail/1351017-mudr-jana-pavlokova-brno-komin.html","556"
"10","Školka","MŠ Brno, Řezáčova","https://www.firmy.cz/detail/180858-ms-brno-rezacova-brno-komin.html","501"
"11","Obchod","Obchodní centrum Javor","https://www.firmy.cz/detail/13245185-obchodni-centrum-javor-brno-bystrc.html","1525"
"12","Tram","Branka","https://mapy.cz/zakladni?x=16.5479591329&y=49.2193477922&z=17&source=pubt&id=15205720","486"
"13","Škola","Gymnázium P. Křížkovského s uměleckou profilací, s.r.o.","https://www.firmy.cz/detail/270832-gymnazium-p-krizkovskeho-s-umeleckou-profilaci-brno-komin.html","340"
"14","Vlak","Brno-Královo Pole","https://mapy.cz/zakladni?x=16.5968654566&y=49.2308379578&z=17&source=pubt&id=15211060","3439"
"15","Sportoviště","Tenisová škola TALLENT","https://www.firmy.cz/detail/722853-tenisova-skola-tallent-brno-komin.html","577"
"16","Bus MHD","Kristenova","https://mapy.cz/zakladni?x=16.5542529147279&y=49.2210613556539&z=17&source=pubt&id=15205708","342"
"17","Restaurace","Restaurace U Dvořáků","https://www.firmy.cz/detail/13326688-restaurace-u-dvoraku-brno-komin.html","572"
"18","Bankomat","Bankomat MONETA Money Bank","https://www.firmy.cz/detail/2250672-bankomat-moneta-money-bank-brno-komin.html","529"
"19","Lékárna","Lékárna Komín","https://www.firmy.cz/detail/13169266-lekarna-komin-brno-komin.html","556"
