"","facility_type","facility_name","facility_iri","facility_distance"
"0","Cukrárna","Martin Tichý - Cukrárna","https://www.firmy.cz/detail/637620-martin-tichy-cukrarna-praha-kobylisy.html","1412"
"1","Kino","Cinema City Letňany","https://www.firmy.cz/detail/2679833-cinema-city-letnany-praha-letnany.html","2910"
"2","Přírodní zajímavost","Meandry Rokytky","","3871"
"3","Hřiště","Dětské hřiště Karla Hlaváčka","","489"
"4","Večerka","Potraviny V Zahradách","https://www.firmy.cz/detail/12811465-potraviny-v-zahradach-praha.html","372"
"5","Divadlo","Divadlo Karla Hackera","https://www.firmy.cz/detail/2030639-divadlo-karla-hackera-praha-kobylisy.html","1352"
"6","Hospoda","Bar U Felixe","https://www.firmy.cz/detail/12935261-bar-u-felixe-praha-liben.html","825"
"7","Veterinář","Veterinární ordinace Svobodník","https://www.firmy.cz/detail/12879014-veterinarni-ordinace-svobodnik-praha-liben.html","821"
"8","Lékárna","Lékárna - Fakultní nemocnice na Bulovce","https://www.firmy.cz/detail/659788-lekarna-fakultni-nemocnice-na-bulovce-praha-liben.html","752"
"9","Sportoviště","Hřiště na pétanque park Václavka","","773"
"10","Škola","ZŠ Bohumila Hrabala, Praha 8","https://www.firmy.cz/detail/2258937-zs-bohumila-hrabala-praha-8-praha-liben.html","601"
"11","Lékař","MUDr. Zdeňka Bártlová","https://www.firmy.cz/detail/12742522-mudr-zdenka-bartlova-praha-liben.html","573"
"12","Bus MHD","Čertův vršek","","182"
"13","Obchod","Kaufland","https://www.firmy.cz/detail/1457859-kaufland-praha-liben.html","1180"
"14","Pošta","Pošta Praha 85 - Česká pošta, s.p.","https://www.firmy.cz/detail/658903-posta-praha-85-praha-kobylisy.html","938"
"15","Školka","Školka Kačenka","https://www.firmy.cz/detail/12938568-skolka-kacenka-praha-liben.html","232"
"16","Bankomat","Bankomat České spořitelny","https://www.firmy.cz/detail/594940-bankomat-ceske-sporitelny-praha-liben.html","735"
"17","Tram","Bulovka","","466"
"18","Restaurace","Pivovar u Bulovky","https://www.firmy.cz/detail/590733-pivovar-u-bulovky-praha-liben.html","634"
"19","Vlak","Praha-Vysočany","","1879"
"20","Metro","Ládví","","856"
