"","facility_type","facility_name","facility_iri","facility_distance"
"0","Cukrárna","Zero Goodies","https://www.firmy.cz/detail/13139385-zero-goodies-chomutov.html","140"
"1","Kino","Letní kino Chomutov","https://www.firmy.cz/detail/2644649-letni-kino-chomutov-chomutov.html","1214"
"2","Hřiště","Dětské hřiště Karolíny Světlé","","57"
"3","Večerka","Potraviny 28. října 1065","https://www.firmy.cz/detail/12813179-potraviny-28-rijna-1065-chomutov.html","170"
"4","Divadlo","Městské divadlo Chomutov","https://www.firmy.cz/detail/2644644-mestske-divadlo-chomutov-chomutov.html","366"
"5","Hospoda","Pivnice Podzemka Školní","https://www.firmy.cz/detail/13314435-pivnice-podzemka-skolni-chomutov.html","216"
"6","Veterinář","MVDr. Miloš Helebrant","https://www.firmy.cz/detail/2132064-mvdr-milos-helebrant-chomutov.html","431"
"7","Bus MHD","Zborovská","","128"
"8","Sportoviště","KULTURA A SPORT CHOMUTOV, s.r.o.","https://www.firmy.cz/detail/297308-kultura-a-sport-chomutov-chomutov.html","366"
"9","Škola","Střední průmyslová škola a Vyšší odborná škola, Chomutov","https://www.firmy.cz/detail/361929-stredni-prumyslova-skola-a-vyssi-odborna-skola-chomutov-chomutov.html","441"
"10","Bankomat","Vkladomat mBank","https://www.firmy.cz/detail/13190393-vkladomat-mbank-chomutov.html","84"
"11","Lékař","MUDr. Naděžda Lánská","https://www.firmy.cz/detail/387259-mudr-nadezda-lanska-chomutov.html","113"
"12","Pošta","Pošta Chomutov 2 - Česká pošta, s.p.","https://www.firmy.cz/detail/658734-posta-chomutov-2-chomutov.html","216"
"13","Restaurace","Hospůdka Podkova","https://www.firmy.cz/detail/13115656-hospudka-podkova-chomutov.html","143"
"14","Lékárna","Lékárna U Českého lva","https://www.firmy.cz/detail/13221884-lekarna-u-ceskeho-lva-chomutov.html","65"
"15","Školka","MŠ Chomutov, Palackého","https://www.firmy.cz/detail/1345643-ms-chomutov-palackeho-chomutov.html","462"
"16","Obchod","Galerie pošta","https://www.firmy.cz/detail/13062048-galerie-posta-chomutov.html","156"
"17","Vlak","Chomutov město","","989"
