"","facility_type","facility_name","facility_iri","facility_distance"
"0","Hřiště","Dětské hřiště Schwarzova","https://mapy.cz/zakladni?x=13.3658416188&y=49.7343485691&z=17&source=base&id=1926150","301"
"1","Hospoda","Kancl Bar","https://www.firmy.cz/detail/13233203-kancl-bar-plzen-jizni-predmesti.html","77"
"2","Večerka","Můjobchod - Potraviny Bezovka","https://www.firmy.cz/detail/12997759-mujobchod-potraviny-bezovka-plzen-jizni-predmesti.html","242"
"3","Cukrárna","Cukrárna Crystal","https://www.firmy.cz/detail/13272890-cukrarna-crystal-plzen-jizni-predmesti.html","116"
"4","Kino","Kino Beseda","https://www.firmy.cz/detail/12773769-kino-beseda-plzen-jizni-predmesti.html","1395"
"5","Divadlo","Divadlo pod lampou, o.p.s.","https://www.firmy.cz/detail/2418226-divadlo-pod-lampou-plzen-jizni-predmesti.html","645"
"6","Veterinář","RPVET - VETERINÁRNÍ KLINIKA A POHOTOVOST MVDr. RADEK PROTIVA a kol.","https://www.firmy.cz/detail/13318056-rpvet-veterinarni-klinika-a-pohotovost-mvdr-radek-protiva-a-kol-plzen-jizni-predmesti.html","563"
"7","Bus MHD","Dobrovského","https://mapy.cz/zakladni?x=13.37119961&y=49.73480988&z=17&source=pubt&id=19865023","257"
"8","Tram","Dobrovského","https://mapy.cz/zakladni?x=13.37024021&y=49.73429871&z=17&source=pubt&id=19865022","175"
"9","Restaurace","Belvedére","https://www.firmy.cz/detail/13160065-belvedere-plzen-jizni-predmesti.html","55"
"10","Lékárna","Lékárna v Bezovce","https://www.firmy.cz/detail/2332393-lekarna-v-bezovce-plzen-jizni-predmesti.html","248"
"11","Sportoviště","Orel župa Kozinova","https://www.firmy.cz/detail/2294006-orel-zupa-kozinova-plzen-jizni-predmesti.html","227"
"12","Škola","10. ZŠ Plzeň","https://www.firmy.cz/detail/356113-10-zs-plzen-plzen-jizni-predmesti.html","194"
"13","Vlak","Plzeň zastávka","https://mapy.cz/zakladni?x=13.3748885558&y=49.7367210329&z=17&source=pubt&id=15212473","588"
"14","Školka","22. MŠ Plzeň","https://www.firmy.cz/detail/1893123-22-ms-plzen-plzen-jizni-predmesti.html","177"
"15","Obchod","Kaufland","https://www.firmy.cz/detail/2616232-kaufland-plzen-jizni-predmesti.html","728"
"16","Lékař","PRACTIMED, s.r.o.","https://www.firmy.cz/detail/2578866-practimed-plzen-jizni-predmesti.html","126"
"17","Bankomat","Bankomat České spořitelny","https://www.firmy.cz/detail/593961-bankomat-ceske-sporitelny-plzen-jizni-predmesti.html","413"
"18","Pošta","Pošta Plzeň 13 - Česká pošta, s.p.","https://www.firmy.cz/detail/216649-posta-plzen-13-plzen-jizni-predmesti.html","242"
