"","facility_type","facility_name","facility_iri","facility_distance"
"0","Hřiště","Dětské hřiště Žitná","https://mapy.cz/zakladni?x=15.0585169444&y=50.7532877778&z=17&source=base&id=2005477","383"
"1","Hospoda","Hostinec u Vávrů","https://www.firmy.cz/detail/12964344-hostinec-u-vavru-liberec-vii-horni-ruzodol.html","149"
"2","Cukrárna","Káva a zmrzlina U Bláhů","https://www.firmy.cz/detail/13154039-kava-a-zmrzlina-u-blahu-liberec-iv-perstyn.html","1051"
"3","Veterinář","MVDr. Jiří Jiroudek - Veterina Oblačná","https://www.firmy.cz/detail/2135004-mvdr-jiri-jiroudek-veterina-oblacna-liberec-v-kristianov.html","961"
"4","Kino","Cinema City Liberec","https://www.firmy.cz/detail/2679906-cinema-city-liberec-liberec-iv-perstyn.html","1120"
"5","Večerka","BILLA stop & shop","https://www.firmy.cz/detail/12978165-billa-stop-shop-liberec-iii-jerab.html","494"
"6","Divadlo","Naivní divadlo Liberec","https://www.firmy.cz/detail/230860-naivni-divadlo-liberec-liberec-iv-perstyn.html","1229"
"7","Přírodní zajímavost","Opičák","https://mapy.cz/zakladni?x=15.0248686111&y=50.7720466667&z=17&source=base&id=1978555","2957"
"8","Obchod","Kaufland","https://www.firmy.cz/detail/2198571-kaufland-liberec-vii-horni-ruzodol.html","597"
"9","Bus MHD","Melantrichova","https://mapy.cz/zakladni?x=15.058924615352124&y=50.757297070938385&z=17&source=pubt&id=15204058","69"
"10","Lékař","MUDr. Marta Kleprlíková","https://www.firmy.cz/detail/13272135-mudr-marta-kleprlikova-liberec-iv-perstyn.html","133"
"11","Restaurace","Restaurace U Hroznu","https://www.firmy.cz/detail/12927878-restaurace-u-hroznu-liberec-vii-horni-ruzodol-liberec-7.html","272"
"12","Školka","MŠ Kamarád Liberec, Dělnická","https://www.firmy.cz/detail/598233-ms-kamarad-liberec-delnicka-liberec-vi-rochlice.html","330"
"13","Sportoviště","Elite Athletics training & physio center","https://www.firmy.cz/detail/13172253-elite-athletics-training-physio-center-liberec-vii-horni-ruzodol.html","272"
"14","Pošta","Pošta Liberec 6 - Česká pošta, s.p.","https://www.firmy.cz/detail/215742-posta-liberec-6-liberec-vi-rochlice.html","949"
"15","Bankomat","Bankomat České spořitelny","https://www.firmy.cz/detail/12838628-bankomat-ceske-sporitelny-liberec-vii-horni-ruzodol.html","602"
"16","Vlak","Liberec","https://mapy.cz/zakladni?x=15.0462577517&y=50.7615013305&z=17&source=pubt&id=15211938","1056"
"17","Tram","Mlýnská","https://mapy.cz/zakladni?x=15.063413862289792&y=50.76417800635915&z=17&source=pubt&id=15204063","882"
"18","Lékárna","Dr.Max","https://www.firmy.cz/detail/2525546-dr-max-liberec-vii-horni-ruzodol-liberec-7.html","597"
"19","Škola","Střední škola právní - Právní akademie, s.r.o.","https://www.firmy.cz/detail/269067-stredni-skola-pravni-pravni-akademie-liberec-vii-horni-ruzodol-liberec-7.html","185"
