"","facility_type","facility_name","facility_iri","facility_distance"
"0","Cukrárna","Fun Centrum","https://www.firmy.cz/detail/13001237-fun-centrum-marianske-lazne.html","320"
"1","Kino","Kino Slavia","https://www.firmy.cz/detail/396548-kino-slavia-marianske-lazne.html","515"
"2","Přírodní zajímavost","Kamenný proud","","2146"
"3","Hřiště","Dětské hřiště Bezručovy sady","","112"
"4","Večerka","JIP Potraviny","https://www.firmy.cz/detail/12922885-jip-potraviny-marianske-lazne.html","273"
"5","Hospoda","Pilsner Urquell Bar","https://www.firmy.cz/detail/13320443-pilsner-urquell-bar-marianske-lazne.html","382"
"6","Divadlo","Městské divadlo Mariánské Lázně","https://www.firmy.cz/detail/661401-mestske-divadlo-marianske-lazne-marianske-lazne.html","1838"
"7","Veterinář","Veterinární ordinace MVDr. Zbyněk Herman","https://www.firmy.cz/detail/321521-veterinarni-ordinace-mvdr-zbynek-herman-marianske-lazne-usovice.html","595"
"8","Škola","Základní škola JIH, Mariánské Lázně, Komenského 459","https://www.firmy.cz/detail/429939-zakladni-skola-jih-marianske-lazne-komenskeho-459-marianske-lazne.html","190"
"9","Restaurace","Restaurace Kubáň","https://www.firmy.cz/detail/13279506-restaurace-kuban-marianske-lazne.html","148"
"10","Bankomat","Bankomat MONETA Money Bank","https://www.firmy.cz/detail/602632-bankomat-moneta-money-bank-marianske-lazne.html","175"
"11","Bus MHD","Mariánské Lázně, Třešňovka","","57"
"12","Obchod","Tesco","https://www.firmy.cz/detail/12739394-tesco-marianske-lazne-usovice.html","199"
"13","Vlak","Mariánské Lázně","","565"
"14","Lékař","MUDr. Petr Hůrka","https://www.firmy.cz/detail/386843-mudr-petr-hurka-marianske-lazne.html","175"
"15","Školka","MŠ Mariánské Lázně, Na Třešňovce","https://www.firmy.cz/detail/2267316-ms-marianske-lazne-na-tresnovce-marianske-lazne.html","215"
"16","Pošta","Pošta Mariánské Lázně 1 - Česká pošta, s.p.","https://www.firmy.cz/detail/216407-posta-marianske-lazne-1-marianske-lazne.html","1174"
"17","Lékárna","LÉKÁRNA ipc TESCO Mariánské Lázně","https://www.firmy.cz/detail/12875575-lekarna-ipc-tesco-marianske-lazne-marianske-lazne-usovice.html","224"
"18","Sportoviště","Městská sportovní hala","https://www.firmy.cz/detail/13102749-mestska-sportovni-hala-marianske-lazne.html","509"
