"","facility_type","facility_name","facility_iri","facility_distance"
"0","Přírodní zajímavost","Lado u Lazeckého mlýna","https://mapy.cz/zakladni?x=13.9747625&y=49.6776633333&z=17&source=base&id=2064837","1493"
"1","Hřiště","Dětské hřiště Ve Dvoře","https://mapy.cz/zakladni?x=13.9960306308&y=49.6795928706&z=17&source=base&id=1926367","54"
"2","Večerka","BALA potraviny - KORUNA PB, s. r. o. - Céčko","https://www.firmy.cz/detail/13328071-bala-potraviny-koruna-pb-s-r-o-cecko-pribram-vii.html","116"
"3","Hospoda","Diplo 97","https://www.firmy.cz/detail/13265371-diplo-97-pribram-vii.html","538"
"4","Cukrárna","Cukrárna a kavárna RIO","https://www.firmy.cz/detail/611935-cukrarna-a-kavarna-rio-pribram-vii.html","116"
"5","Veterinář","Veterinární klinika Na Zdaboři","https://www.firmy.cz/detail/471737-veterinarni-klinika-na-zdabori-pribram-v-zdabor.html","983"
"6","Divadlo","Divadlo A. Dvořáka Příbram","https://www.firmy.cz/detail/397055-divadlo-a-dvoraka-pribram-pribram-vii.html","448"
"7","Kino","Letní kino Příbram","https://www.firmy.cz/detail/13001448-letni-kino-pribram-pribram-viii.html","943"
"8","Bus MHD","Příbram, sídl.nám.17.listopadu","https://mapy.cz/zakladni?x=13.9960118682&y=49.6789893831&z=17&source=pubt&id=15292411","68"
"9","Bankomat","Bankomat MONETA Money Bank","https://www.firmy.cz/detail/602894-bankomat-moneta-money-bank-pribram-vii.html","116"
"10","Školka","MŠ Perníková chaloupka Příbram","https://www.firmy.cz/detail/2112811-ms-pernikova-chaloupka-pribram-pribram-vii.html","171"
"11","Lékárna","BENU lékárna","https://www.firmy.cz/detail/13189200-benu-lekarna-pribram-vii.html","323"
"12","Pošta","Pošta Příbram 2 - Česká pošta, s.p.","https://www.firmy.cz/detail/217336-posta-pribram-2-pribram-vii.html","160"
"13","Škola","ZŠ, Příbram, 28. října","https://www.firmy.cz/detail/359106-zs-pribram-28-rijna-pribram-vii.html","239"
"14","Sportoviště","Sportovní hala Příbram","https://www.firmy.cz/detail/685992-sportovni-hala-pribram-pribram-vii.html","500"
"15","Vlak","Příbram sídliště","https://mapy.cz/zakladni?x=14.0011370846558&y=49.6741436271325&z=17&source=pubt&id=18286944","720"
"16","Lékař","MUDr. Eva Šeborová","https://www.firmy.cz/detail/389142-mudr-eva-seborova-pribram-vii.html","323"
"17","Restaurace","Pizza Fantastico","https://www.firmy.cz/detail/13199665-pizza-fantastico-pribram-vii.html","135"
"18","Obchod","OD STAVUS","https://www.firmy.cz/detail/12996673-od-stavus-pribram-v-zdabor.html","1055"
