"","facility_type","facility_name","facility_iri","facility_distance"
"0","Cukrárna","Cukrárna Retro","https://www.firmy.cz/detail/13111379-cukrarna-retro-liberec-i-stare-mesto.html","436"
"1","Kino","Letní kino","https://www.firmy.cz/detail/13219320-letni-kino-liberec-i-stare-mesto.html","920"
"2","Přírodní zajímavost","Opičák","","3184"
"3","Hřiště","Dětské hřiště Jiskrova","","233"
"4","Večerka","Můjobchod - Potraviny Horská","https://www.firmy.cz/detail/12998369-mujobchod-potraviny-horska-liberec-i-stare-mesto.html","139"
"5","Hospoda","U Jelena","https://www.firmy.cz/detail/13123476-u-jelena-liberec-xiv-ruprechtice.html","335"
"6","Divadlo","Divadlo F.X.Šaldy","https://www.firmy.cz/detail/396855-divadlo-f-x-saldy-liberec-i-stare-mesto.html","1255"
"7","Veterinář","MVDr. Jana Schrammová","https://www.firmy.cz/detail/13167453-mvdr-jana-schrammova-liberec-xiii-nove-pavlovice.html","928"
"8","Školka","Miniškolka AŠA","https://www.firmy.cz/detail/675839-miniskolka-asa-liberec-i-stare-mesto.html","33"
"9","Tram","Botanická zahrada","","634"
"10","Pošta","Pošta Liberec 14 - Česká pošta, s.p.","https://www.firmy.cz/detail/215521-posta-liberec-14-liberec-xiv-ruprechtice.html","742"
"11","Sportoviště","Boulder Point","https://www.firmy.cz/detail/13256605-boulder-point-liberec-xiv-ruprechtice.html","419"
"12","Obchod","Albert Hypermarket","https://www.firmy.cz/detail/12920902-albert-hypermarket-liberec-i-stare-mesto.html","709"
"13","Vlak","Liberec","","2589"
"14","Škola","ZŠ Liberec, Lesní","https://www.firmy.cz/detail/364794-zs-liberec-lesni-liberec-i-stare-mesto.html","400"
"15","Lékárna","Lékárna U Muzea","https://www.firmy.cz/detail/12861493-lekarna-u-muzea-liberec-i-stare-mesto.html","666"
"16","Lékař","MEDICA SEVER s.r.o.","https://www.firmy.cz/detail/2547807-medica-sever-s-r-o-liberec-i-stare-mesto.html","204"
"17","Bus MHD","Žižkovo náměstí","","49"
"18","Bankomat","Bankomat České spořitelny","https://www.firmy.cz/detail/593140-bankomat-ceske-sporitelny-liberec-i-stare-mesto.html","678"
"19","Restaurace","Restaurace Country","https://www.firmy.cz/detail/2409580-restaurace-country-liberec-i-stare-mesto.html","559"
