"","facility_type","facility_name","facility_iri","facility_distance"
"0","Cukrárna","Donuter Donuts","https://www.firmy.cz/detail/13308632-donuter-donuts-praha-ruzyne.html","1105"
"1","Kino","Cinema City Zličín","https://www.firmy.cz/detail/436222-cinema-city-zlicin-praha-trebonice.html","4347"
"2","Hřiště","Dětské hřiště Družicová","","88"
"3","Večerka","Delta Mart","https://www.firmy.cz/detail/13312957-delta-mart-praha-ruzyne.html","260"
"4","Hospoda","Hostinec Dívčí skok","https://www.firmy.cz/detail/1959313-hostinec-divci-skok-praha-liboc.html","1388"
"5","Divadlo","Loutky bez hranic","https://www.firmy.cz/detail/1328752-loutky-bez-hranic-praha-nebusice.html","2704"
"6","Veterinář","Veterinární klinika Delta MVDr.Michael Růžička, s.r.o.","https://www.firmy.cz/detail/2476147-veterinarni-klinika-delta-mvdr-michael-ruzicka-praha-ruzyne.html","260"
"7","Škola","ZŠ Dědina Praha 6","https://www.firmy.cz/detail/161485-zs-dedina-praha-6-praha-liboc.html","227"
"8","Bus MHD","Dědina","","186"
"9","Restaurace","Fine Bistro","https://www.firmy.cz/detail/13099550-fine-bistro-praha-ruzyne.html","266"
"10","Obchod","Amádeus Real, a.s.","https://www.firmy.cz/detail/12720563-amadeus-real-a-s-praha-ruzyne.html","286"
"11","Vlak","Praha-Ruzyně","","925"
"12","Lékárna","Lékárna Na Dědině","https://www.firmy.cz/detail/658645-lekarna-na-dedine-praha-ruzyne.html","260"
"13","Tram","Divoká Šárka","","1348"
"14","Metro","Petřiny","","2789"
"15","Školka","MŠ Šmolíkova","https://www.firmy.cz/detail/407451-ms-smolikova-praha-ruzyne.html","124"
"16","Bankomat","Bankomat Komerční banky","https://www.firmy.cz/detail/12786535-bankomat-komercni-banky-praha-ruzyne.html","250"
"17","Lékař","Praktický lékař Praha s.r.o. - MUDr. Ilona Sedláčková","https://www.firmy.cz/detail/12835908-prakticky-lekar-praha-s-r-o-mudr-ilona-sedlackova-praha-ruzyne.html","260"
"18","Sportoviště","TJ Ruzyně","https://www.firmy.cz/detail/12783986-tj-ruzyne-praha-ruzyne.html","1088"
"19","Pošta","Pošta Praha 614 - Česká pošta, s.p.","https://www.firmy.cz/detail/216721-posta-praha-614-praha-ruzyne.html","331"
