"","facility_type","facility_name","facility_iri","facility_distance"
"0","Cukrárna","Cukrárna U Evičky","https://www.firmy.cz/detail/13310010-cukrarna-u-evicky-studenka.html","1415"
"1","Hřiště","Dětské hřiště Budovatelská","","159"
"2","Večerka","HRUŠKA","https://www.firmy.cz/detail/12820129-hruska-studenka-butovice.html","293"
"3","Hospoda","MSV STUDÉNKA, s.r.o.","https://www.firmy.cz/detail/13145195-msv-studenka-studenka-butovice.html","96"
"4","Veterinář","Veterinární ordinace U Potoka","https://www.firmy.cz/detail/12706730-veterinarni-ordinace-u-potoka-studenka-butovice.html","243"
"5","Sportoviště","TJ MSV STUDÉNKA - tenisový kurt","https://www.firmy.cz/detail/13307035-tj-msv-studenka-tenisovy-kurt-studenka-butovice.html","114"
"6","Lékař","MUDr. Naďa Volná","https://www.firmy.cz/detail/13106253-mudr-nada-volna-studenka-butovice.html","247"
"7","Škola","ZŠ Studénka, Sjednocení","https://www.firmy.cz/detail/359518-zs-studenka-sjednoceni-studenka-butovice.html","318"
"8","Obchod","Tržnice Slunce","https://www.firmy.cz/detail/13309302-trznice-slunce-studenka-butovice.html","549"
"9","Školka","MŠ Studénka","https://www.firmy.cz/detail/2280195-ms-studenka-studenka-butovice.html","329"
"10","Restaurace","Hotel Vagónka - restaurace","https://www.firmy.cz/detail/13303323-hotel-vagonka-restaurace-studenka-butovice.html","270"
"11","Bankomat","MONETA Money Bank Bankomat","https://www.firmy.cz/detail/13342147-moneta-money-bank-bankomat-studenka.html","343"
"12","Pošta","Pošta Studénka 3 - Česká pošta, s.p.","https://www.firmy.cz/detail/433611-posta-studenka-3-studenka-butovice.html","549"
"13","Vlak","Studénka","","1125"
"14","Lékárna","Lékárna LEMON","https://www.firmy.cz/detail/13301550-lekarna-lemon-studenka-butovice.html","327"
"15","Bus MHD","Studénka, Butovice, Budovatelská","","233"
