"","facility_type","facility_name","facility_iri","facility_distance"
"0","Cukrárna","Kavárna Creperie","https://www.firmy.cz/detail/563710-kavarna-creperie-praha-smichov.html","1173"
"1","Kino","CineStar Anděl","https://www.firmy.cz/detail/2537565-cinestar-andel-praha-smichov.html","1123"
"2","Přírodní zajímavost","Kovářovic mez","","3555"
"3","Hřiště","Dětské hřiště Husovy sady","","294"
"4","Večerka","Tuyen Le Thi - OVOCE ZELENINA","https://www.firmy.cz/detail/2464821-tuyen-le-thi-ovoce-zelenina-praha-kosire.html","231"
"5","Hospoda","Hospůdka Knoflík","https://www.firmy.cz/detail/2253647-hospudka-knoflik-praha-smichov.html","1359"
"6","Divadlo","Divadlo Orfeus","https://www.firmy.cz/detail/413053-divadlo-orfeus-praha-kosire.html","234"
"7","Veterinář","MVDr. Jana Lukešová","https://www.firmy.cz/detail/473617-mvdr-jana-lukesova-praha-smichov.html","1110"
"8","Bus MHD","U Zvonu","","105"
"9","Restaurace","Restaurace Pod Černým vrchem","https://www.firmy.cz/detail/333475-restaurace-pod-cernym-vrchem-praha-kosire.html","285"
"10","Lékárna","Na Cihlářce","https://www.firmy.cz/detail/375354-na-cihlarce-praha-smichov.html","564"
"11","Školka","Montessori školy Andílek - mateřská škola a základní škola, o.p.s.","https://www.firmy.cz/detail/2373070-montessori-skoly-andilek-materska-skola-a-zakladni-skola-o-p-s-praha-kosire.html","300"
"12","Sportoviště","MaxLasergame, s.r.o.","https://www.firmy.cz/detail/12740237-maxlasergame-praha-smichov.html","463"
"13","Vlak","Praha-Smíchov severní nást.","","1740"
"14","Škola","ZUŠ Popelka","https://www.firmy.cz/detail/399054-zus-popelka-praha-kosire.html","184"
"15","Bankomat","Bankomat České spořitelny","https://www.firmy.cz/detail/594929-bankomat-ceske-sporitelny-praha-brevnov.html","958"
"16","Lékař","Clinuvel s.r.o. MUDr. Zuzana Jírovcová","https://www.firmy.cz/detail/2410389-clinuvel-s-r-o-mudr-zuzana-jirovcova-praha-smichov.html","315"
"17","Tram","U Zvonu","","114"
"18","Obchod","Tesco","https://www.firmy.cz/detail/733908-tesco-praha-smichov.html","1162"
"19","Metro","Anděl","","1310"
"20","Pošta","Pošta Praha 56 - Česká pošta, s.p.","https://www.firmy.cz/detail/452790-posta-praha-56-praha-kosire.html","752"
