"","facility_type","facility_name","facility_iri","facility_distance"
"0","Cukrárna","OVOCNÝ SVĚTOZOR","https://www.firmy.cz/detail/468733-ovocny-svetozor-praha-michle.html","627"
"1","Kino","HopeTV","https://www.firmy.cz/detail/672889-hopetv-praha-vinohrady.html","3826"
"2","Přírodní zajímavost","Mokřad Triangl","","4298"
"3","Hřiště","Dětské hřiště Na Líše","","198"
"4","Večerka","Potraviny Kačerov","https://www.firmy.cz/detail/12840321-potraviny-kacerov-praha.html","401"
"5","Divadlo","Divadlo Na Jezerce","https://www.firmy.cz/detail/496550-divadlo-na-jezerce-praha-nusle.html","2068"
"6","Hospoda","Hostinec U Procházků","https://www.firmy.cz/detail/573112-hostinec-u-prochazku-praha-krc.html","1715"
"7","Veterinář","Veterinární klinika Michle - MVDr. David Jíra","https://www.firmy.cz/detail/12771982-veterinarni-klinika-michle-mvdr-david-jira-praha-michle.html","425"
"8","Bankomat","Bankomat České spořitelny","https://www.firmy.cz/detail/594777-bankomat-ceske-sporitelny-praha-michle.html","355"
"9","Lékař","TeamPrevent-Santé, s.r.o.","https://www.firmy.cz/detail/658659-teamprevent-sante-s-r-o-praha-michle.html","800"
"10","Škola","ZŠ Praha 4, Na Líše","https://www.firmy.cz/detail/401394-zs-praha-4-na-lise-praha-michle.html","326"
"11","Sportoviště","Tenisová škola Advantage","https://www.firmy.cz/detail/2479684-tenisova-skola-advantage-praha-michle.html","574"
"12","Tram","Teplárna Michle","","1153"
"13","Vlak","Praha-Kačerov","","352"
"14","Školka","Miniškolka Veselé slůně","https://www.firmy.cz/detail/12933001-miniskolka-vesele-slune-praha-michle.html","195"
"15","Pošta","Pošta Praha 46 - Česká pošta, s.p.","https://www.firmy.cz/detail/2374016-posta-praha-46-praha-michle.html","746"
"16","Bus MHD","Pod Dálnicí","","211"
"17","Lékárna","Lékárna Rodvinovská, s.r.o.","https://www.firmy.cz/detail/2672018-lekarna-rodvinovska-praha-krc.html","609"
"18","Obchod","OC DBK Budějovická","https://www.firmy.cz/detail/169885-oc-dbk-budejovicka-praha-krc.html","1101"
"19","Restaurace","Krušovická Restaurace Na Michelské","https://www.firmy.cz/detail/596757-krusovicka-restaurace-na-michelske-praha-michle.html","385"
"20","Metro","Kačerov","","437"
