"","facility_type","facility_name","facility_iri","facility_distance"
"0","Cukrárna","Cukrárna Na Výsluní","https://www.firmy.cz/detail/2431397-cukrarna-na-vysluni-usti-nad-orlici.html","84"
"1","Kino","Kino Máj","https://www.firmy.cz/detail/452977-kino-maj-usti-nad-orlici.html","252"
"2","Hřiště","Dětské hřiště Smetanova","","414"
"3","Večerka","Potraviny Hickl","https://www.firmy.cz/detail/1959237-potraviny-hickl-usti-nad-orlici.html","136"
"4","Hospoda","Star Arena Letohradská 121","https://www.firmy.cz/detail/13114992-star-arena-letohradska-121-usti-nad-orlici.html","794"
"5","Divadlo","Roškotovo divadlo","https://www.firmy.cz/detail/662001-roskotovo-divadlo-usti-nad-orlici.html","252"
"6","Veterinář","Veterinární klinika","https://www.firmy.cz/detail/13092263-veterinarni-klinika-usti-nad-orlici.html","78"
"7","Školka","MŠ Klubíčko Ústí nad Orlicí","https://www.firmy.cz/detail/2152611-ms-klubicko-usti-nad-orlici-usti-nad-orlici.html","492"
"8","Bankomat","Bankomat ČSOB","https://www.firmy.cz/detail/599222-bankomat-csob-usti-nad-orlici.html","22"
"9","Bus MHD","Ústí nad Orlicí, U Václava","","190"
"10","Škola","Základní škola Ústí nad Orlicí, Komenského","https://www.firmy.cz/detail/359880-zakladni-skola-usti-nad-orlici-komenskeho-usti-nad-orlici.html","63"
"11","Lékárna","Modrá lékárna Na příkopech","https://www.firmy.cz/detail/13292381-modra-lekarna-na-prikopech-usti-nad-orlici.html","154"
"12","Obchod","Tesco","https://www.firmy.cz/detail/2195400-tesco-usti-nad-orlici.html","966"
"13","Sportoviště","FFT Bikes, z.s.","https://www.firmy.cz/detail/2315656-fft-bikes-z-s-usti-nad-orlici.html","64"
"14","Pošta","Pošta Ústí nad Orlicí 1 - Česká pošta, s.p.","https://www.firmy.cz/detail/215717-posta-usti-nad-orlici-1-usti-nad-orlici.html","453"
"15","Lékař","MUDr. Eva Hladíková","https://www.firmy.cz/detail/12772112-mudr-eva-hladikova-usti-nad-orlici.html","377"
"16","Vlak","Ústí nad Orlicí město","","528"
"17","Restaurace","Čínská restaurace Feng Yi Jiu Lou","https://www.firmy.cz/detail/13151642-cinska-restaurace-feng-yi-jiu-lou-usti-nad-orlici.html","41"
