"","facility_type","facility_name","facility_iri","facility_distance"
"0","Cukrárna","Cukrárna Dánská 2373 - SPV - středisko praktického vyučování, s.r.o.","https://www.firmy.cz/detail/203309-cukrarna-danska-2373-kladno-krocehlavy.html","479"
"1","Kino","Kino Hutník","https://www.firmy.cz/detail/396729-kino-hutnik-kladno-krocehlavy.html","1364"
"2","Hřiště","Dětské hřiště U Pražanky","","479"
"3","Večerka","Potraviny Eso","https://www.firmy.cz/detail/13223903-potraviny-eso-kladno-krocehlavy.html","237"
"4","Divadlo","Městské divadlo Kladno","https://www.firmy.cz/detail/1970001-mestske-divadlo-kladno-kladno.html","1526"
"5","Hospoda","U Černý Máry","https://www.firmy.cz/detail/13139690-u-cerny-mary-kladno-krocehlavy.html","335"
"6","Veterinář","MVDr. Petr Prokeš","https://www.firmy.cz/detail/592518-mvdr-petr-prokes-kladno-krocehlavy.html","218"
"7","Lékárna","Dr.Max LÉKÁRNA","https://www.firmy.cz/detail/13280015-dr-max-lekarna-kladno-krocehlavy.html","143"
"8","Bus MHD","Kladno, Pražská křiž.","","138"
"9","Restaurace","Original 1869 Flora","https://www.firmy.cz/detail/2357489-original-1869-flora-kladno-krocehlavy.html","153"
"10","Pošta","Pošta Kladno 6 - Česká pošta, s.p.","https://www.firmy.cz/detail/216841-posta-kladno-6-kladno-krocehlavy.html","222"
"11","Škola","Základní škola Kladno, Vodárenská 2116","https://www.firmy.cz/detail/356089-zakladni-skola-kladno-vodarenska-2116-kladno-krocehlavy.html","330"
"12","Vlak","Kladno","","988"
"13","Bankomat","Platbomat České spořitelny","https://www.firmy.cz/detail/13239393-platbomat-ceske-sporitelny-kladno-krocehlavy.html","478"
"14","Školka","ZŠ a MŠ Kladno, Jaroslava Foglara","https://www.firmy.cz/detail/12737425-zs-a-ms-kladno-jaroslava-foglara-kladno-krocehlavy.html","245"
"15","Obchod","Kaufland","https://www.firmy.cz/detail/1406115-kaufland-kladno-krocehlavy.html","549"
"16","Sportoviště","Bowling Flóra Kladno","https://www.firmy.cz/detail/13282965-bowling-flora-kladno-kladno-krocehlavy.html","153"
"17","Lékař","MUDr. Jindřich Franc","https://www.firmy.cz/detail/2319423-mudr-jindrich-franc-kladno-krocehlavy.html","269"
