"","facility_type","facility_name","facility_iri","facility_distance"
"0","Cukrárna","La Terra Coffee","https://www.firmy.cz/detail/12898977-la-terra-coffee-praha-krc.html","454"
"1","Kino","Kino Pilotů","https://www.firmy.cz/detail/12984004-kino-pilotu-praha-vrsovice.html","3346"
"2","Hřiště","Dětské hřiště U Strže","","62"
"3","Večerka","Albert Supermarket","https://www.firmy.cz/detail/12924281-albert-supermarket-praha-krc.html","161"
"4","Divadlo","Divadlo Dobeška","https://www.firmy.cz/detail/197707-divadlo-dobeska-praha-branik.html","1719"
"5","Hospoda","Hostinec U Procházků","https://www.firmy.cz/detail/573112-hostinec-u-prochazku-praha-krc.html","705"
"6","Veterinář","Veterinární klinika zelená liška","https://www.firmy.cz/detail/655752-veterinarni-klinika-zelena-liska-praha-krc.html","556"
"7","Lékárna","Dr. Max","https://www.firmy.cz/detail/12856952-dr-max-praha-krc.html","173"
"8","Obchod","OC DBK Budějovická","https://www.firmy.cz/detail/169885-oc-dbk-budejovicka-praha-krc.html","749"
"9","Bankomat","Bankomat České spořitelny","https://www.firmy.cz/detail/12738326-bankomat-ceske-sporitelny-praha-krc.html","154"
"10","Metro","Budějovická","","683"
"11","Škola","Vyšší odborná škola informačních služeb, Praha 4","https://www.firmy.cz/detail/362387-vyssi-odborna-skola-informacnich-sluzeb-praha-4-praha-krc.html","413"
"12","Lékař","MUDR. JIŘÍ BROŽ, PRAKTICKÝ LÉKAŘ","https://www.firmy.cz/detail/387599-mudr-jiri-broz-prakticky-lekar-praha-krc.html","173"
"13","Bus MHD","Ryšánka","","88"
"14","Pošta","Pošta Praha 42 - Česká pošta, s.p.","https://www.firmy.cz/detail/217484-posta-praha-42-praha-krc.html","246"
"15","Restaurace","Mattes restaurant","https://www.firmy.cz/detail/2628391-mattes-restaurant-praha-krc.html","91"
"16","Tram","Pankrác","","1171"
"17","Školka","MŠ Praha, Matěchova","https://www.firmy.cz/detail/406906-ms-praha-matechova-praha-krc.html","114"
"18","Sportoviště","Hit tenis, s.r.o.","https://www.firmy.cz/detail/157528-hit-tenis-praha-krc.html","415"
"19","Vlak","Praha-Krč","","961"
