"","facility_type","facility_name","facility_iri","facility_distance"
"0","Kino","Kino Bor","https://www.firmy.cz/detail/396539-kino-bor-bor.html","969"
"1","Hřiště","Dětské hřiště Vítězná","","940"
"2","Večerka","Potraviny Plzeňská","https://www.firmy.cz/detail/13311960-potraviny-plzenska-bor.html","169"
"3","Hospoda","Hospoda U Voráčků","https://www.firmy.cz/detail/267789-hospoda-u-voracku-bor.html","792"
"4","Veterinář","MVDr. Josef Steiner","https://www.firmy.cz/detail/2132681-mvdr-josef-steiner-bor.html","700"
"5","Pošta","Pošta Bor u Tachova - Česká pošta, s.p.","https://www.firmy.cz/detail/216506-posta-bor-u-tachova-bor.html","917"
"6","Bankomat","Bankomat MONETA Money Bank","https://www.firmy.cz/detail/13081952-bankomat-moneta-money-bank-bor.html","880"
"7","Restaurace","restaurace Hamiinvest","https://www.firmy.cz/detail/13120689-restaurace-hamiinvest-bor.html","700"
"8","Sportoviště","TJ Sokol Bor","https://www.firmy.cz/detail/2118226-tj-sokol-bor-bor.html","450"
"9","Lékař","Poliklinika Bor","https://www.firmy.cz/detail/186519-poliklinika-bor-bor.html","1020"
"10","Škola","Střední škola Bor","https://www.firmy.cz/detail/360647-stredni-skola-bor-bor.html","656"
"11","Bus MHD","Bor, statek","","396"
"12","Lékárna","Dr. Max LÉKÁRNA","https://www.firmy.cz/detail/2425491-dr-max-lekarna-bor.html","1020"
"13","Vlak","Bor","","1156"
