"","facility_type","facility_name","facility_iri","facility_distance"
"0","Hřiště","Dětské hřiště","https://mapy.cz/zakladni?x=13.637171433204628&y=50.4921232498422&z=17&source=base&id=2367203","371"
"1","Hospoda","Krušovická restaurace Konečná","https://www.firmy.cz/detail/13259251-krusovicka-restaurace-konecna-most.html","191"
"2","Cukrárna","Janina showroom cafe","https://www.firmy.cz/detail/13140518-janina-showroom-cafe-most.html","743"
"3","Večerka","Potraviny U Kubísků","https://www.firmy.cz/detail/13132594-potraviny-u-kubisku-most.html","288"
"4","Divadlo","Divadlo nad Labem","https://www.firmy.cz/detail/2240673-divadlo-nad-labem-most.html","1010"
"5","Veterinář","VETERINA-MOST","https://www.firmy.cz/detail/12832535-veterina-most-most.html","1112"
"6","Kino","Kino Kosmos","https://www.firmy.cz/detail/401279-kino-kosmos-most.html","714"
"7","Školka","MŠ Most,  Zdeňka Fibicha","https://www.firmy.cz/detail/2281898-ms-most-zdenka-fibicha-most.html","490"
"8","Lékárna","Dr. Max LÉKÁRNA","https://www.firmy.cz/detail/2007249-dr-max-lekarna-most.html","685"
"9","Lékař","MUDr. Jiřina Ceeová","https://www.firmy.cz/detail/371069-mudr-jirina-ceeova-most.html","169"
"10","Restaurace","Veřejné stravování CZ","https://www.firmy.cz/detail/2503152-verejne-stravovani-cz-most.html","86"
"11","Tram","Most, Dopravní podnik","https://mapy.cz/zakladni?x=13.6355076233&y=50.4923600501&z=17&source=pubt&id=15331701","254"
"12","Sportoviště","Automoto klub SHD Most v AČR","https://www.firmy.cz/detail/744395-automoto-klub-shd-most-v-acr-most.html","349"
"13","Vlak","Most","https://mapy.cz/zakladni?x=13.658263561&y=50.5112135393&z=17&source=pubt&id=15212192","2683"
"14","Obchod","Central Most","https://www.firmy.cz/detail/2412415-central-most-most.html","1010"
"15","Bankomat","Bankomat MONETA Money Bank","https://www.firmy.cz/detail/13082219-bankomat-moneta-money-bank-most.html","818"
"16","Škola","Livamost","https://www.firmy.cz/detail/147705-livamost-most.html","86"
"17","Pošta","Pošta Most 11 - Česká pošta, s.p.","https://www.firmy.cz/detail/216959-posta-most-11-most.html","1200"
"18","Bus MHD","Most, Pionýrů","https://mapy.cz/zakladni?x=13.6327208395207&y=50.4934774247715&z=17&source=pubt&id=15331685","22"
