"","facility_type","facility_name","facility_iri","facility_distance"
"0","Cukrárna","Cukrárna Pod Marjánkou","https://www.firmy.cz/detail/12887308-cukrarna-pod-marjankou-praha-brevnov.html","242"
"1","Kino","Cinema City Nový Smíchov","https://www.firmy.cz/detail/2679838-cinema-city-novy-smichov-praha-smichov.html","2437"
"2","Hřiště","Dětské hřiště Pod Marjánkou","","244"
"3","Večerka","Z-Market","https://www.firmy.cz/detail/12788101-z-market-praha-brevnov.html","423"
"4","Hospoda","Hostinec Drinopol","https://www.firmy.cz/detail/328447-hostinec-drinopol-praha-brevnov.html","416"
"5","Divadlo","KAŠTAN - Scéna Unijazzu","https://www.firmy.cz/detail/397273-kastan-scena-unijazzu-praha-brevnov.html","1060"
"6","Veterinář","MVDr. Josef Kubeček","https://www.firmy.cz/detail/275654-mvdr-josef-kubecek-praha-brevnov.html","397"
"7","Lékárna","Břevnovská lékárna","https://www.firmy.cz/detail/12909744-brevnovska-lekarna-praha-brevnov.html","251"
"8","Restaurace","Na Marjánce","https://www.firmy.cz/detail/2329538-na-marjance-praha-brevnov.html","269"
"9","Školka","MŠ Jílkova","https://www.firmy.cz/detail/197575-ms-jilkova-praha-brevnov.html","172"
"10","Lékař","MUDr. Renáta Ryvolová","https://www.firmy.cz/detail/385693-mudr-renata-ryvolova-praha-brevnov.html","291"
"11","Bus MHD","Kajetánka","","163"
"12","Škola","Základní škola Duhovka, s.r.o.","https://www.firmy.cz/detail/356207-zakladni-skola-duhovka-praha-brevnov.html","66"
"13","Vlak","Praha-Dejvice","","2106"
"14","Pošta","Pošta Praha 612 - Česká pošta, s.p.","https://www.firmy.cz/detail/217422-posta-praha-612-praha-stresovice.html","665"
"15","Tram","Marjánka","","242"
"16","Sportoviště","Koupaliště Petynka","https://www.firmy.cz/detail/2358159-koupaliste-petynka-praha-stresovice.html","645"
"17","Obchod","Obchodní centrum Nový Smíchov","https://www.firmy.cz/detail/579116-obchodni-centrum-novy-smichov-praha-smichov.html","2475"
"18","Bankomat","Bankomat MONETA Money Bank","https://www.firmy.cz/detail/603024-bankomat-moneta-money-bank-praha-brevnov.html","269"
"19","Metro","Bořislavka","","1469"
