"","facility_type","facility_name","facility_iri","facility_distance"
"0","Cukrárna","CrossCafe Na Dlouhé","https://www.firmy.cz/detail/13273641-crosscafe-na-dlouhe-havirov-mesto.html","204"
"1","Kino","Kino Centrum","https://www.firmy.cz/detail/12780436-kino-centrum-havirov-mesto.html","371"
"2","Hřiště","Dětské hřiště Dělnická","","75"
"3","Večerka","Večerka Dělnická 565","https://www.firmy.cz/detail/13187772-vecerka-delnicka-565-havirov-mesto.html","126"
"4","Hospoda","Bagetérie Lexi","https://www.firmy.cz/detail/12954140-bageterie-lexi-havirov-mesto.html","331"
"5","Veterinář","Veterinární ordinace u Nemocnice","https://www.firmy.cz/detail/13319420-veterinarni-ordinace-u-nemocnice-havirov-mesto.html","311"
"6","Pošta","Pošta Havířov 1 - Česká pošta, s.p.","https://www.firmy.cz/detail/431627-posta-havirov-1-havirov-mesto.html","175"
"7","Lékař","MUDr. Jana Staňurová","https://www.firmy.cz/detail/385634-mudr-jana-stanurova-havirov-mesto.html","314"
"8","Školka","MŠ Havířov - Město, U Stromovky","https://www.firmy.cz/detail/2287366-ms-havirov-mesto-u-stromovky-havirov-mesto.html","262"
"9","Obchod","Obchodní centrum Elan","https://www.firmy.cz/detail/2181587-obchodni-centrum-elan-havirov-mesto.html","203"
"10","Bus MHD","Havířov, Město, obchodní dům","","125"
"11","Lékárna","BENU Lékárna","https://www.firmy.cz/detail/12875767-benu-lekarna-havirov-mesto.html","217"
"12","Vlak","Havířov-střed","","840"
"13","Sportoviště","Městská sportovní hala Slavie","https://www.firmy.cz/detail/703110-mestska-sportovni-hala-slavie-havirov-mesto.html","233"
"14","Bankomat","Bankomat Komerční banky","https://www.firmy.cz/detail/594094-bankomat-komercni-banky-havirov-mesto.html","170"
"15","Restaurace","Restaurace Vinamet","https://www.firmy.cz/detail/13153841-restaurace-vinamet-havirov-mesto.html","149"
"16","Škola","Střední průmyslová škola elektrotechnická, Havířov","https://www.firmy.cz/detail/362589-stredni-prumyslova-skola-elektrotechnicka-havirov-havirov-mesto.html","342"
