"","facility_type","facility_name","facility_iri","facility_distance"
"0","Hřiště","Dětské hřiště Puškinovo náměstí","https://mapy.cz/zakladni?x=14.402746444600774&y=50.102721319454645&z=17&source=base&id=1927072","198"
"1","Večerka","Japa Foods","https://www.firmy.cz/detail/2291717-japa-foods-praha-bubenec.html","299"
"2","Kino","Bio Oko","https://www.firmy.cz/detail/2586117-bio-oko-praha-holesovice.html","1948"
"3","Veterinář","MVDr. Marta Schmidhalter-Pekárková DECVDI","https://www.firmy.cz/detail/2608174-mvdr-marta-schmidhalter-pekarkova-decvdi-praha-bubenec.html","429"
"4","Cukrárna","Ovocná cukrárna","https://www.firmy.cz/detail/12722437-ovocna-cukrarna-praha-bubenec.html","363"
"5","Divadlo","POTRVÁ","https://www.firmy.cz/detail/2246484-potrva-praha-dejvice.html","300"
"6","Hospoda","Restaurace Dejvické nádraží","https://www.firmy.cz/detail/568432-restaurace-dejvicke-nadrazi-praha-dejvice.html","471"
"7","Lékař","MUDr. Jaroslav Novodvorský","https://www.firmy.cz/detail/386343-mudr-jaroslav-novodvorsky-praha-bubenec.html","72"
"8","Sportoviště","TJ Sokol Praha Dejvice I.","https://www.firmy.cz/detail/589317-tj-sokol-praha-dejvice-i-praha-dejvice.html","316"
"9","Obchod","Kaufland","https://www.firmy.cz/detail/12720219-kaufland-praha-dejvice.html","1417"
"10","Tram","Hradčanská","https://mapy.cz/zakladni?x=14.4038832447&y=50.0971868836&z=17&source=pubt&id=15303757","424"
"11","Škola","Základní škola a Mateřská škola Emy Destinnové, Praha 6, náměstí Svobody 3/930","https://www.firmy.cz/detail/399067-zakladni-skola-a-materska-skola-emy-destinnove-praha-6-namesti-svobody-3-930-praha-bubenec.html","157"
"12","Lékárna","Dejvická lékárna ARNIKA","https://www.firmy.cz/detail/654778-dejvicka-lekarna-arnika-praha-dejvice.html","431"
"13","Bus MHD","Radnice Praha 6","https://mapy.cz/zakladni?x=14.40225&y=50.10048&z=17&source=pubt&id=17090438","69"
"14","Bankomat","Bankomat UniCredit Bank Czech Republic","https://www.firmy.cz/detail/1964684-bankomat-unicredit-bank-czech-republic-praha-dejvice.html","344"
"15","Metro","Hradčanská","https://mapy.cz/zakladni?x=14.4040809797&y=50.0977309106&z=17&source=pubt&id=15200607","368"
"16","Vlak","Praha-Dejvice","https://mapy.cz/zakladni?x=14.3996359142&y=50.0969651071&z=17&source=pubt&id=15212556","500"
"17","Školka","Soukromá jazyková školka BUMBLE BEE","https://www.firmy.cz/detail/318821-soukroma-jazykova-skolka-bumble-bee-praha-bubenec.html","271"
"18","Pošta","Pošta Praha 6 - Česká pošta, s.p.","https://www.firmy.cz/detail/216725-posta-praha-6-praha-dejvice.html","532"
"19","Restaurace","The PUB - Pilsner Unique Bar","https://www.firmy.cz/detail/2623249-the-pub-pilsner-unique-bar-praha-bubenec.html","108"
