"","facility_type","facility_name","facility_iri","facility_distance"
"0","Hřiště","Dětské hřiště Milešovská","https://mapy.cz/zakladni?x=14.4512639953&y=50.0784123637&z=17&source=base&id=1927055","64"
"1","Cukrárna","Pekařství a cukrárna Benea","https://www.firmy.cz/detail/2588115-pekarstvi-a-cukrarna-benea-praha-vinohrady.html","187"
"2","Hospoda","U Pižďucha","https://www.firmy.cz/detail/337127-u-pizducha-praha-zizkov.html","744"
"3","Veterinář","Veterinární klinika Fénix","https://www.firmy.cz/detail/2132602-veterinarni-klinika-fenix-praha-vinohrady.html","231"
"4","Večerka","Albert Supermarket","https://www.firmy.cz/detail/209482-albert-supermarket-praha-vinohrady.html","303"
"5","Divadlo","Hvězdné léto pod žižkovskou věží","https://www.firmy.cz/detail/13265384-hvezdne-leto-pod-zizkovskou-vezi-praha-zizkov.html","297"
"6","Kino","Cinema City Flora","https://www.firmy.cz/detail/660712-cinema-city-flora-praha-zizkov.html","754"
"7","Tram","Jiřího z Poděbrad","https://mapy.cz/zakladni?x=14.4504729223&y=50.0772522174&z=17&source=pubt&id=15300239","161"
"8","Restaurace","Restaurace U Růžového sadu","https://www.firmy.cz/detail/337336-restaurace-u-ruzoveho-sadu-praha-vinohrady.html","174"
"9","Bankomat","Bankomat Euronet","https://www.firmy.cz/detail/2372733-bankomat-euronet-praha-vinohrady.html","187"
"10","Lékař","MUDr. Milan Hudi","https://www.firmy.cz/detail/2521971-mudr-milan-hudi-praha-vinohrady.html","24"
"11","Obchod","PAVILON, a.s.","https://www.firmy.cz/detail/451685-pavilon-praha-vinohrady.html","619"
"12","Lékárna","Lékárna U krále Jiřího","https://www.firmy.cz/detail/2326652-lekarna-u-krale-jiriho-praha-vinohrady.html","208"
"13","Škola","Základní škola, Praha 3, nám. Jiřího z Poděbrad 7,8/1685","https://www.firmy.cz/detail/356148-zakladni-skola-praha-3-nam-jiriho-z-podebrad-7-8-1685-praha-vinohrady.html","101"
"14","Metro","Jiřího z Poděbrad","https://mapy.cz/zakladni?x=14.4489818169&y=50.0776375129&z=17&source=pubt&id=15200275","159"
"15","Školka","Piccole Pesti, s.r.o.","https://www.firmy.cz/detail/2521490-piccole-pesti-praha-vinohrady.html","264"
"16","Vlak","Praha hlavní nádraží","https://mapy.cz/zakladni?x=14.4369820737851&y=50.082990005918&z=17&source=pubt&id=15212548","1075"
"17","Sportoviště","Tenisová škola TALLENT","https://www.firmy.cz/detail/2591478-tenisova-skola-tallent-praha-vinohrady.html","398"
"18","Pošta","Pošta Praha 33 - Česká pošta, s.p.","https://www.firmy.cz/detail/1994123-posta-praha-33-praha-vinohrady.html","166"
"19","Bus MHD","Jiřího z Poděbrad","https://mapy.cz/zakladni?x=14.44886&y=50.07774&z=17&source=pubt&id=21974010","157"
