"","facility_type","facility_name","facility_iri","facility_distance"
"0","Cukrárna","Bridge Cafe","https://www.firmy.cz/detail/13251145-bridge-cafe-most.html","296"
"1","Kino","Kino Kosmos","https://www.firmy.cz/detail/401279-kino-kosmos-most.html","1228"
"2","Hřiště","Dětské hřiště Jana Kubelíka","","182"
"3","Večerka","MIPO Market, s.r.o.","https://www.firmy.cz/detail/2552961-mipo-market-most.html","526"
"4","Hospoda","Green deratizace","https://www.firmy.cz/detail/13119903-green-deratizace-most.html","155"
"5","Divadlo","Městské divadlo v Mostě, spol. s r.o.","https://www.firmy.cz/detail/1336052-mestske-divadlo-v-moste-most.html","879"
"6","Veterinář","VeterinaMost, s.r.o.","https://www.firmy.cz/detail/13175144-veterinamost-most.html","317"
"7","Sportoviště","SPORTOVKA BOWLING","https://www.firmy.cz/detail/2642067-sportovka-bowling-most.html","344"
"8","Bankomat","Bankomat Komerční banky","https://www.firmy.cz/detail/596425-bankomat-komercni-banky-most.html","461"
"9","Tram","Most, nádraží","","579"
"10","Restaurace","Restaurace u Káči","https://www.firmy.cz/detail/12793552-restaurace-u-kaci-most.html","155"
"11","Bus MHD","Most, Sukova blok 508","","161"
"12","Lékárna","ARNIKA","https://www.firmy.cz/detail/375341-arnika-most.html","404"
"13","Lékař","DRZORKA s.r.o.","https://www.firmy.cz/detail/13287313-drzorka-s-r-o-most.html","247"
"14","Škola","ZUŠ Most, Moskevská","https://www.firmy.cz/detail/759061-zus-most-moskevska-most.html","143"
"15","Školka","MŠ Most, Františka Kmocha","https://www.firmy.cz/detail/2281899-ms-most-frantiska-kmocha-most.html","452"
"16","Vlak","Most","","795"
"17","Pošta","Pošta Most 6 - Česká pošta, s.p.","https://www.firmy.cz/detail/215390-posta-most-6-most.html","657"
"18","Obchod","Tesco","https://www.firmy.cz/detail/649008-tesco-most.html","640"
