"","facility_type","facility_name","facility_iri","facility_distance"
"0","Hřiště","Dětské hřiště Karlův most","https://mapy.cz/zakladni?x=14.4093010991&y=50.0870997041&z=17&source=base&id=1926267","512"
"1","Večerka","Albert Supermarket","https://www.firmy.cz/detail/652908-albert-supermarket-praha.html","637"
"2","Cukrárna","Cafe Ebel","https://www.firmy.cz/detail/219795-cafe-ebel-praha-josefov.html","143"
"3","Hospoda","Batalion Café & Music Bar","https://www.firmy.cz/detail/457689-batalion-cafe-music-bar-praha-stare-mesto.html","637"
"4","Veterinář","MVDr. Katka Sviták Novozámská","https://www.firmy.cz/detail/2137713-mvdr-katka-svitak-novozamska-praha-stare-mesto.html","302"
"5","Divadlo","Umělecká scéna Říše loutek, z.s.","https://www.firmy.cz/detail/159616-umelecka-scena-rise-loutek-z-s-praha-stare-mesto.html","92"
"6","Kino","Kino Ponrepo","https://www.firmy.cz/detail/396455-kino-ponrepo-praha-stare-mesto.html","532"
"7","Tram","Staroměstská","https://mapy.cz/zakladni?x=14.4153221913&y=50.0881999069&z=17&source=pubt&id=15302640","88"
"8","Bankomat","Bankomat České spořitelny","https://www.firmy.cz/detail/594305-bankomat-ceske-sporitelny-praha-stare-mesto.html","83"
"9","Sportoviště","Pražský fotbalový svaz","https://www.firmy.cz/detail/471292-prazsky-fotbalovy-svaz-praha-josefov.html","187"
"10","Škola","Taneční konzervatoř hlavního města Prahy","https://www.firmy.cz/detail/362748-tanecni-konzervator-hlavniho-mesta-prahy-praha-stare-mesto.html","105"
"11","Vlak","Praha Masarykovo nádraží","https://mapy.cz/zakladni?x=14.4341666467721&y=50.0878957138378&z=17&source=pubt&id=15212549","1268"
"12","Restaurace","Donna Pizzeria","https://www.firmy.cz/detail/333344-donna-pizzeria-praha-stare-mesto.html","1"
"13","Lékař","doc. MUDr. Josef Dolenský, CSc.","https://www.firmy.cz/detail/1971145-doc-mudr-josef-dolensky-csc-praha-stare-mesto.html","693"
"14","Obchod","palác metro","https://www.firmy.cz/detail/143339-palac-metro-praha-stare-mesto.html","632"
"15","Bus MHD","Mariánské náměstí","https://mapy.cz/zakladni?x=14.4174218288&y=50.0873228668&z=17&source=pubt&id=15698721","91"
"16","Pošta","Pošta Praha 01 - Česká pošta, s.p.","https://www.firmy.cz/detail/217506-posta-praha-01-praha-stare-mesto.html","115"
"17","Školka","Modré nebe - Ciel Bleu, o.p.s.","https://www.firmy.cz/detail/2407355-modre-nebe-ciel-bleu-praha-josefov.html","392"
"18","Metro","Staroměstská","https://mapy.cz/zakladni?x=14.4167721171&y=50.0883055717&z=17&source=pubt&id=15200256","62"
"19","Lékárna","Dr.Max","https://www.firmy.cz/detail/2570199-dr-max-praha-stare-mesto.html","621"
