"","facility_type","facility_name","facility_iri","facility_distance"
"0","Cukrárna","Cukrárna SUM, spol. s r.o.","https://www.firmy.cz/detail/167117-cukrarna-sum-prerov-i-mesto.html","620"
"1","Kino","Kino Hvězda","https://www.firmy.cz/detail/13025002-kino-hvezda-prerov-i-mesto.html","858"
"2","Přírodní zajímavost","Ptačí rezervace Malá Lipová","","3725"
"3","Hřiště","Dětské hřiště Palackého","","445"
"4","Večerka","Tempo, obchodní družstvo","https://www.firmy.cz/detail/13000834-tempo-obchodni-druzstvo-prerov-i-mesto.html","411"
"5","Divadlo","Loutkové divadlo Sokol Přerov","https://www.firmy.cz/detail/13157581-loutkove-divadlo-sokol-prerov-prerov-i-mesto.html","774"
"6","Hospoda","Pivní bar U Vola","https://www.firmy.cz/detail/13117008-pivni-bar-u-vola-prerov-i-mesto.html","612"
"7","Veterinář","Veterinární ordinaci Engelovi s.r.o.","https://www.firmy.cz/detail/12708723-veterinarni-ordinaci-engelovi-s-r-o-prerov-i-mesto.html","815"
"8","Bus MHD","Přerov, Kojetínská TESCO","","193"
"9","Školka","Církevní mateřská škola v Přerově","https://www.firmy.cz/detail/13177461-cirkevni-materska-skola-v-prerove-prerov-i-mesto.html","454"
"10","Lékař","MUDr. Pavel Březina","https://www.firmy.cz/detail/390557-mudr-pavel-brezina-prerov-i-mesto.html","142"
"11","Obchod","Tesco","https://www.firmy.cz/detail/649016-tesco-prerov-i-mesto.html","165"
"12","Bankomat","Bankomat České spořitelny","https://www.firmy.cz/detail/593251-bankomat-ceske-sporitelny-prerov-i-mesto.html","165"
"13","Vlak","Přerov","","511"
"14","Lékárna","Lékárna U Pivovaru","https://www.firmy.cz/detail/298862-lekarna-u-pivovaru-prerov-i-mesto.html","344"
"15","Škola","ZŠ Přerov, Boženy Němcové","https://www.firmy.cz/detail/359080-zs-prerov-bozeny-nemcove-prerov-i-mesto.html","281"
"16","Sportoviště","Bowling U Madony","https://www.firmy.cz/detail/13183698-bowling-u-madony-prerov-i-mesto.html","759"
"17","Pošta","Přerov - Pošta 1 - Česká pošta, s.p.","https://www.firmy.cz/detail/431447-prerov-posta-1-prerov-i-mesto.html","479"
"18","Restaurace","Bistro Panda","https://www.firmy.cz/detail/13122134-bistro-panda-prerov-i-mesto.html","165"
