"","facility_type","facility_name","facility_iri","facility_distance"
"0","Cukrárna","MaMa's Caffé","https://www.firmy.cz/detail/13155978-mama-s-caffe-plzen-vychodni-predmesti.html","215"
"1","Kino","Kino Beseda","https://www.firmy.cz/detail/12773769-kino-beseda-plzen-jizni-predmesti.html","986"
"2","Hřiště","Dětské hřiště","","299"
"3","Večerka","Večerka MP","https://www.firmy.cz/detail/12960334-vecerka-mp-plzen-vychodni-predmesti.html","197"
"4","Hospoda","U Chřestýše","https://www.firmy.cz/detail/12969192-u-chrestyse-plzen-vychodni-predmesti.html","81"
"5","Divadlo","Divadlo Dialog","https://www.firmy.cz/detail/401465-divadlo-dialog-plzen-jizni-predmesti.html","1176"
"6","Veterinář","Veterinární ordinace Slovany","https://www.firmy.cz/detail/470912-veterinarni-ordinace-slovany-plzen-vychodni-predmesti.html","829"
"7","Restaurace","Církevní gymnázium Plzeň","https://www.firmy.cz/detail/13102560-cirkevni-gymnazium-plzen-plzen-vychodni-predmesti.html","140"
"8","Bus MHD","Mikulášská","","86"
"9","Vlak","Plzeň hlavní nádraží","","365"
"10","Obchod","Albert Hypermarket","https://www.firmy.cz/detail/12903691-albert-hypermarket-plzen-vychodni-predmesti.html","1132"
"11","Škola","Církevní gymnázium Plzeň","https://www.firmy.cz/detail/361766-cirkevni-gymnazium-plzen-plzen-vychodni-predmesti.html","98"
"12","Pošta","Pošta Plzeň 27 - Česká pošta, s.p.","https://www.firmy.cz/detail/216636-posta-plzen-27-plzen-vychodni-predmesti.html","264"
"13","Lékárna","Na Slovanské","https://www.firmy.cz/detail/376043-na-slovanske-plzen-vychodni-predmesti.html","392"
"14","Bankomat","Bankomat České spořitelny","https://www.firmy.cz/detail/593970-bankomat-ceske-sporitelny-plzen-vychodni-predmesti.html","279"
"15","Tram","Mikulášské náměstí","","178"
"16","Lékař","LV - praktický lékař s.r.o.","https://www.firmy.cz/detail/13283322-lv-prakticky-lekar-s-r-o-plzen-vychodni-predmesti.html","366"
"17","Školka","Centrum cvrček s.r.o.","https://www.firmy.cz/detail/12889345-centrum-cvrcek-s-r-o-plzen-vychodni-predmesti.html","164"
"18","Sportoviště","Bowling U Papírny","https://www.firmy.cz/detail/2418837-bowling-u-papirny-plzen-vychodni-predmesti.html","423"
