"","facility_type","facility_name","facility_iri","facility_distance"
"0","Cukrárna","Café Mendel","https://www.firmy.cz/detail/12949691-cafe-mendel-brno-stare-brno.html","1207"
"1","Kino","Brno Autokino","https://www.firmy.cz/detail/13328637-brno-autokino-brno-pisarky.html","271"
"2","Přírodní zajímavost","Koniklecová louka","","2081"
"3","Hřiště","Dětské hřiště Helgoland","","681"
"4","Večerka","Samoobsluha BRNĚNKA","https://www.firmy.cz/detail/674876-samoobsluha-brnenka-brno-stranice.html","1121"
"5","Hospoda","Zahrádka Na Střeláku","https://www.firmy.cz/detail/12991298-zahradka-na-strelaku-brno-pisarky.html","916"
"6","Divadlo","Divadlo Strom","https://www.firmy.cz/detail/12762146-divadlo-strom-brno-zabovresky.html","2006"
"7","Veterinář","MVDr. Libor Černý","https://www.firmy.cz/detail/475858-mvdr-libor-cerny-brno-stare-brno.html","538"
"8","Lékárna","Chytrá lékárna","https://www.firmy.cz/detail/13290968-chytra-lekarna-brno-pisarky.html","145"
"9","Lékař","LÉKAŘ, spol. s r.o.","https://www.firmy.cz/detail/13277966-lekar-brno-pisarky.html","201"
"10","Školka","MŠ Brno, Vinařská","https://www.firmy.cz/detail/406698-ms-brno-vinarska-brno-stare-brno.html","475"
"11","Škola","ZŠ při Dětském diagnostickém ústavu Brno","https://www.firmy.cz/detail/356494-zs-pri-detskem-diagnostickem-ustavu-brno-brno-pisarky.html","85"
"12","Bus MHD","Lipová","","92"
"13","Pošta","Pošta Brno 5 - Česká pošta, s.p.","https://www.firmy.cz/detail/1534294-posta-brno-5-brno-stranice.html","1085"
"14","Sportoviště","Tenisová škola TALLENT","https://www.firmy.cz/detail/722844-tenisova-skola-tallent-brno-pisarky.html","491"
"15","Restaurace","U Johnyho Bistro & Cafe","https://www.firmy.cz/detail/13298203-u-johnyho-bistro-cafe-brno-stare-brno.html","459"
"16","Tram","Lipová","","96"
"17","Bankomat","Bankomat Euronet","https://www.firmy.cz/detail/13056204-bankomat-euronet-brno-pisarky.html","604"
"18","Vlak","Brno hlavní nádraží","","2588"
"19","Obchod","Tesco","https://www.firmy.cz/detail/2358576-tesco-brno-bohunice.html","1805"
