"","facility_type","facility_name","facility_iri","facility_distance"
"0","Cukrárna","Cukrárna Emil Gaigher","https://www.firmy.cz/detail/12703652-cukrarna-emil-gaigher-praha-smichov.html","56"
"1","Kino","Cinema City Nový Smíchov","https://www.firmy.cz/detail/2679838-cinema-city-novy-smichov-praha-smichov.html","350"
"2","Přírodní zajímavost","Kovářovic mez","","4525"
"3","Hřiště","Dětské hřiště Hořejší nábřeží","","469"
"4","Večerka","Albert Supermarket","https://www.firmy.cz/detail/229746-albert-supermarket-praha-smichov.html","262"
"5","Hospoda","Hospůdka Knoflík","https://www.firmy.cz/detail/2253647-hospudka-knoflik-praha-smichov.html","264"
"6","Divadlo","Švandovo divadlo na Smíchově","https://www.firmy.cz/detail/230741-svandovo-divadlo-na-smichove-praha-smichov.html","653"
"7","Veterinář","MVDr. Jana Lukešová","https://www.firmy.cz/detail/473617-mvdr-jana-lukesova-praha-smichov.html","647"
"8","Metro","Anděl","","232"
"9","Obchod","Obchodní centrum Nový Smíchov","https://www.firmy.cz/detail/579116-obchodni-centrum-novy-smichov-praha-smichov.html","341"
"10","Školka","MŠ Praha 5, U Železničního mostu","https://www.firmy.cz/detail/617142-ms-praha-5-u-zeleznicniho-mostu-praha-smichov.html","645"
"11","Lékař","MUDr. Zuzana Felixová","https://www.firmy.cz/detail/389783-mudr-zuzana-felixova-praha-smichov.html","185"
"12","Lékárna","EUC Lékárna Kartouzská","https://www.firmy.cz/detail/13162323-euc-lekarna-kartouzska-praha-smichov.html","435"
"13","Tram","Zborovská","","44"
"14","Vlak","Praha-Smíchov severní nást.","","946"
"15","Pošta","Pošta Praha 5 - Česká pošta, s.p.","https://www.firmy.cz/detail/217457-posta-praha-5-praha-smichov.html","372"
"16","Škola","ZUŠ Praha 5, Štefánikova","https://www.firmy.cz/detail/427109-zus-praha-5-stefanikova-praha-smichov.html","283"
"17","Restaurace","U Buldoka","https://www.firmy.cz/detail/2241219-u-buldoka-praha-smichov.html","32"
"18","Sportoviště","LOKAL BLOK","https://www.firmy.cz/detail/620957-lokal-blok-praha-smichov.html","153"
"19","Bankomat","Bankomat ČSOB","https://www.firmy.cz/detail/599620-bankomat-csob-praha-smichov.html","156"
"20","Bus MHD","Anděl","","284"
