"","facility_type","facility_name","facility_iri","facility_distance"
"0","Hřiště","Dětské hřiště Tuniská","https://mapy.cz/zakladni?x=14.3534983333&y=50.0965880556&z=17&source=base&id=1931534","240"
"1","Večerka","Obchod - potraviny","https://www.firmy.cz/detail/13169516-obchod-potraviny-praha-vokovice.html","318"
"2","Hospoda","Plzeňská Pivnice Petřiny","https://www.firmy.cz/detail/13333379-plzenska-pivnice-petriny-praha-brevnov.html","755"
"3","Cukrárna","Polina Cake","https://www.firmy.cz/detail/13292664-polina-cake-praha-vokovice.html","360"
"4","Kino","Kino Dlabačov","https://www.firmy.cz/detail/13024517-kino-dlabacov-praha-brevnov.html","2382"
"5","Divadlo","Divadlo Tineola","https://www.firmy.cz/detail/401473-divadlo-tineola-praha-vokovice.html","454"
"6","Veterinář","MVDr. Petr Slavík","https://www.firmy.cz/detail/12825800-mvdr-petr-slavik-praha-veleslavin.html","239"
"7","Lékař","Canadian Medical - AFI","https://www.firmy.cz/detail/13262475-canadian-medical-afi-praha-vokovice.html","76"
"8","Metro","Nádraží Veleslavín","https://mapy.cz/zakladni?x=14.3476851951&y=50.0956260446&z=17&source=pubt&id=15707270","201"
"9","Škola","Základní škola speciální a Praktická škola, Praha 6, Rooseveltova 8","https://www.firmy.cz/detail/2587525-zakladni-skola-specialni-a-prakticka-skola-praha-6-rooseveltova-8-praha-vokovice.html","75"
"10","Bus MHD","Nádraží Veleslavín","https://mapy.cz/zakladni?x=14.3471507728721&y=50.0953760818&z=17&source=pubt&id=15301648","241"
"11","Tram","Nádraží Veleslavín","https://mapy.cz/zakladni?x=14.3484395742&y=50.0960583219&z=17&source=pubt&id=15693525","156"
"12","Vlak","Praha-Veleslavín","https://mapy.cz/zakladni?x=14.3462189416&y=50.0950055146&z=17&source=pubt&id=15212584","313"
"13","Školka","ZŠ a MŠ Červený vrch","https://www.firmy.cz/detail/2644942-zs-a-ms-cerveny-vrch-praha-vokovice.html","75"
"14","Lékárna","BENU Lékárna","https://www.firmy.cz/detail/13196722-benu-lekarna-praha-vokovice.html","146"
"15","Restaurace","Mamut Pizza Bistro","https://www.firmy.cz/detail/13200543-mamut-pizza-bistro-praha-veleslavin.html","183"
"16","Sportoviště","Sportovní oddíl VOK","https://www.firmy.cz/detail/2652240-sportovni-oddil-vok-praha-vokovice.html","307"
"17","Obchod","Obchodní dům Čílova","https://www.firmy.cz/detail/13157318-obchodni-dum-cilova-praha-veleslavin.html","789"
"18","Pošta","Pošta Praha 616 - Česká pošta, s.p.","https://www.firmy.cz/detail/431331-posta-praha-616-praha-veleslavin.html","687"
"19","Bankomat","Bankomat MONETA Money Bank","https://www.firmy.cz/detail/12779068-bankomat-moneta-money-bank-praha-vokovice.html","318"
