"","facility_type","facility_name","facility_iri","facility_distance"
"0","Hřiště","Dětské hřiště Bažantnice","https://mapy.cz/zakladni?x=18.56678&y=49.85057&z=17&source=base&id=2112486","456"
"1","Večerka","Můjobchod - Potraviny U Brna","https://www.firmy.cz/detail/12999328-mujobchod-potraviny-u-brna-karvina-raj.html","178"
"2","Hospoda","Pivnice U Havířa","https://www.firmy.cz/detail/13133957-pivnice-u-havira-karvina-raj.html","230"
"3","Cukrárna","Slivkafé Karviná","https://www.firmy.cz/detail/12968138-slivkafe-karvina-karvina-mizerov.html","702"
"4","Veterinář","VET ANIMALS HELP, s.r.o.","https://www.firmy.cz/detail/1954789-vet-animals-help-karvina-raj.html","536"
"5","Kino","Kino Centrum","https://www.firmy.cz/detail/396581-kino-centrum-karvina-mizerov.html","686"
"6","Restaurace","Restaurace ELEFANT B & K","https://www.firmy.cz/detail/13154600-restaurace-elefant-b-k-karvina-raj.html","113"
"7","Lékárna","Lékárna KHN v Ráji","https://www.firmy.cz/detail/12729459-lekarna-khn-v-raji-karvina-raj.html","212"
"8","Školka","ZŠ a MŠ U Lesa, Karviná","https://www.firmy.cz/detail/12978132-zs-a-ms-u-lesa-karvina-karvina-raj.html","60"
"9","Škola","Mateřská škola, základní škola a střední škola Slezské diakonie","https://www.firmy.cz/detail/2606909-materska-skola-zakladni-skola-a-stredni-skola-slezske-diakonie-karvina-raj.html","123"
"10","Bankomat","Bankomat České spořitelny","https://www.firmy.cz/detail/592988-bankomat-ceske-sporitelny-karvina-raj.html","262"
"11","Sportoviště","Oldřich Gavenda","https://www.firmy.cz/detail/2430870-oldrich-gavenda-karvina-raj.html","340"
"12","Obchod","Tesco","https://www.firmy.cz/detail/649019-tesco-karvina-raj.html","786"
"13","Lékař","MUDr. Hana Borská","https://www.firmy.cz/detail/373203-mudr-hana-borska-karvina-raj.html","0"
"14","Bus MHD","Karviná, Ráj, Kosmonautů","https://mapy.cz/zakladni?x=18.5575018775133&y=49.8518515277375&z=17&source=pubt&id=15298780","231"
"15","Pošta","Pošta Karviná 41 - Česká pošta, s.p.","https://www.firmy.cz/detail/431435-posta-karvina-41-karvina-raj.html","178"
"16","Vlak","Karviná hlavní nádraží","https://mapy.cz/zakladni?x=18.5267129183&y=49.8556585934&z=17&source=pubt&id=15211715","2474"
