"","facility_type","facility_name","facility_iri","facility_distance"
"0","Hřiště","Dětské hřiště","https://mapy.cz/zakladni?x=12.8681402331&y=50.2390171337&z=17&source=base&id=2264823","593"
"1","Přírodní zajímavost","Karlův hvozd","https://mapy.cz/zakladni?x=12.88314066464389&y=50.21667178915505&z=17&source=base&id=2344863","2111"
"2","Veterinář","MVDr. Eva Tichá","https://www.firmy.cz/detail/2656349-mvdr-eva-ticha-karlovy-vary-rybare.html","608"
"3","Večerka","Lidl","https://www.firmy.cz/detail/2374133-lidl-karlovy-vary.html","179"
"4","Hospoda","Pivnice Tequila Bar","https://www.firmy.cz/detail/13148877-pivnice-tequila-bar-karlovy-vary.html","100"
"5","Cukrárna","Cukrárna Ovo Bar Kamilka","https://www.firmy.cz/detail/13058476-cukrarna-ovo-bar-kamilka-karlovy-vary.html","526"
"6","Kino","Kino Drahomíra z.s.","https://www.firmy.cz/detail/13126576-kino-drahomira-z-s-karlovy-vary-drahovice.html","511"
"7","Divadlo","Divadlo Dagmar","https://www.firmy.cz/detail/396851-divadlo-dagmar-karlovy-vary-drahovice.html","1264"
"8","Bus MHD","Vítězná","https://mapy.cz/zakladni?x=12.873116911969111&y=50.233630170563856&z=17&source=pubt&id=15200653","119"
"9","Bankomat","Bankomat České spořitelny","https://www.firmy.cz/detail/592966-bankomat-ceske-sporitelny-karlovy-vary.html","314"
"10","Sportoviště","Sportovní unie Karlovarska z.s.","https://www.firmy.cz/detail/404208-sportovni-unie-karlovarska-z-s-karlovy-vary.html","548"
"11","Lékař","MEDICANT, s.r.o.","https://www.firmy.cz/detail/12840273-medicant-karlovy-vary.html","418"
"12","Lékárna","Dr. Max LÉKÁRNA","https://www.firmy.cz/detail/12920110-dr-max-lekarna-karlovy-vary.html","313"
"13","Vlak","Karlovy Vary","https://mapy.cz/zakladni?x=12.86668864137042&y=50.23548353110124&z=17&source=pubt&id=15698550","383"
"14","Restaurace","Restaurace La Hospoda","https://www.firmy.cz/detail/13207200-restaurace-la-hospoda-karlovy-vary.html","121"
"15","Obchod","Obchodní centrum Perla","https://www.firmy.cz/detail/13219298-obchodni-centrum-perla-karlovy-vary.html","521"
"16","Škola","ZŠ a MŠ při zdravotnických zařízeních Karlovy Vary","https://www.firmy.cz/detail/12736564-zs-a-ms-pri-zdravotnickych-zarizenich-karlovy-vary-karlovy-vary.html","337"
"17","Školka","ZŠ a MŠ při zdravotnických zařízeních Karlovy Vary","https://www.firmy.cz/detail/12736566-zs-a-ms-pri-zdravotnickych-zarizenich-karlovy-vary-karlovy-vary.html","229"
"18","Pošta","Pošta Depo Karlovy Vary 70","https://www.firmy.cz/detail/216592-posta-depo-karlovy-vary-70-karlovy-vary-rybare.html","457"
