"","facility_type","facility_name","facility_iri","facility_distance"
"0","Cukrárna","OMNI café & fit studio","https://www.firmy.cz/detail/13160252-omni-cafe-fit-studio-brno-medlanky.html","632"
"1","Kino","Kino Lucerna","https://www.firmy.cz/detail/638240-kino-lucerna-brno-zabovresky.html","3928"
"2","Přírodní zajímavost","Přírodní zahrada U Smrku","","2192"
"3","Hřiště","Dětské hřiště V Újezdech","","44"
"4","Večerka","Můjobchod - Potraviny Na Ječné","https://www.firmy.cz/detail/13317226-mujobchod-potraviny-na-jecne-brno-reckovice.html","791"
"5","Divadlo","Divadlo Špílberg","https://www.firmy.cz/detail/13227128-divadlo-spilberg-brno-reckovice.html","769"
"6","Hospoda","Hospůdka u Hřiště","https://www.firmy.cz/detail/13116651-hospudka-u-hriste-brno-medlanky.html","723"
"7","Veterinář","VETERINA - MEDLÁNKY","https://www.firmy.cz/detail/2604584-veterina-medlanky-brno-medlanky.html","239"
"8","Tram","Řečkovice","","651"
"9","Lékárna","BENU Lékárna","https://www.firmy.cz/detail/13218521-benu-lekarna-brno-reckovice.html","642"
"10","Škola","Gymnázium Brno - Řečkovice","https://www.firmy.cz/detail/362013-gymnazium-brno-reckovice-brno-reckovice.html","596"
"11","Lékař","SymbioCare, s.r.o.","https://www.firmy.cz/detail/13056752-symbiocare-brno-reckovice.html","726"
"12","Obchod","Globus Hypermarket","https://www.firmy.cz/detail/448361-globus-hypermarket-brno-ivanovice.html","2009"
"13","Školka","MŠ Brno, V Újezdech","https://www.firmy.cz/detail/2582761-ms-brno-v-ujezdech-brno-medlanky.html","232"
"14","Vlak","Brno-Řečkovice","","1575"
"15","Restaurace","Restaurace Czech Craft Beers","https://www.firmy.cz/detail/13153755-restaurace-czech-craft-beers-brno-medlanky.html","340"
"16","Bus MHD","Nadační","","53"
"17","Sportoviště","Pétanque Medlánky","","71"
"18","Pošta","Pošta Brno 21 - Česká pošta, s.p.","https://www.firmy.cz/detail/1534314-posta-brno-21-brno-reckovice.html","856"
"19","Bankomat","Bankomat MONETA Money Bank","https://www.firmy.cz/detail/2398245-bankomat-moneta-money-bank-brno-reckovice.html","794"
