"","facility_type","facility_name","facility_iri","facility_distance"
"0","Hřiště","Dětské hřiště Jilemnického","https://mapy.cz/zakladni?x=18.4208613317&y=49.7839106468&z=17&source=base&id=1929005","99"
"1","Večerka","Potraviny Na rohu","https://www.firmy.cz/detail/13338978-potraviny-na-rohu-havirov-mesto.html","365"
"2","Cukrárna","Cukrárna Lada","https://www.firmy.cz/detail/12908208-cukrarna-lada-havirov.html","489"
"3","Hospoda","Malá Jamajka","https://www.firmy.cz/detail/13121947-mala-jamajka-havirov-mesto.html","223"
"4","Veterinář","Veterinární ordinace Terra Vet","https://www.firmy.cz/detail/13330221-veterinarni-ordinace-terra-vet-havirov-mesto.html","559"
"5","Kino","Letní kino - Městské kulturní středisko Havířov","https://www.firmy.cz/detail/13072791-letni-kino-havirov.html","202"
"6","Školka","Základní škola a Mateřská škola Havířov - Město Na Nábřeží, příspěvková organizace","https://www.firmy.cz/detail/1278268-zakladni-skola-a-materska-skola-havirov-mesto-na-nabrezi-prispevkova-organizace-havirov-mesto.html","132"
"7","Sportoviště","Letní koupaliště Jindřich","https://www.firmy.cz/detail/703103-letni-koupaliste-jindrich-havirov-mesto.html","503"
"8","Restaurace","Restaurace Radnice","https://www.firmy.cz/detail/330738-restaurace-radnice-havirov-mesto.html","260"
"9","Bankomat","Bankomat ČSOB","https://www.firmy.cz/detail/636843-bankomat-csob-havirov-mesto.html","260"
"10","Obchod","Tesco","https://www.firmy.cz/detail/218205-tesco-havirov-mesto.html","774"
"11","Škola","ZUŠ Bohuslava Martinů, Havířov","https://www.firmy.cz/detail/399187-zus-bohuslava-martinu-havirov-havirov-mesto.html","75"
"12","Lékárna","BENU Lékárna","https://www.firmy.cz/detail/12875767-benu-lekarna-havirov-mesto.html","961"
"13","Vlak","Havířov","https://mapy.cz/zakladni?x=18.4125438808&y=49.7917388734&z=17&source=pubt&id=15211361","960"
"14","Pošta","Pošta Havířov 11 - Česká pošta, s.p.","https://www.firmy.cz/detail/431631-posta-havirov-11-havirov-mesto.html","199"
"15","Bus MHD","Havířov, Město, u podloubí","https://mapy.cz/zakladni?x=18.4198660630139&y=49.7857588114877&z=17&source=pubt&id=15331144","140"
"16","Lékař","Ordinace Fromed, s.r.o.","https://www.firmy.cz/detail/12862468-ordinace-fromed-havirov-mesto.html","162"
