"","facility_type","facility_name","facility_iri","facility_distance"
"0","Cukrárna","Kavárna pod Palmovkou","https://www.firmy.cz/detail/230739-kavarna-pod-palmovkou-praha-liben.html","1235"
"1","Kino","Cinema City Letňany","https://www.firmy.cz/detail/2679833-cinema-city-letnany-praha-letnany.html","2876"
"2","Přírodní zajímavost","Meandry Rokytky","","3333"
"3","Hřiště","Dětské hřiště Karla Hlaváčka","","131"
"4","Večerka","Potraviny V Zahradách","https://www.firmy.cz/detail/12811465-potraviny-v-zahradach-praha.html","529"
"5","Hospoda","Bar U Felixe","https://www.firmy.cz/detail/12935261-bar-u-felixe-praha-liben.html","425"
"6","Divadlo","Divadlo Gong","https://www.firmy.cz/detail/230751-divadlo-gong-praha-liben.html","1194"
"7","Veterinář","Veterinární ordinace Svobodník","https://www.firmy.cz/detail/12879014-veterinarni-ordinace-svobodnik-praha-liben.html","462"
"8","Bus MHD","Kundratka","","357"
"9","Škola","PORG - gymnázium a ZŠ, o.p.s.","https://www.firmy.cz/detail/272397-porg-gymnazium-a-zs-praha-liben.html","603"
"10","Školka","Školka Kačenka","https://www.firmy.cz/detail/12938568-skolka-kacenka-praha-liben.html","567"
"11","Lékárna","Dr.Max","https://www.firmy.cz/detail/12726503-dr-max-praha-liben.html","908"
"12","Sportoviště","Roman Kühnert","https://www.firmy.cz/detail/2508502-roman-kuhnert-praha-liben.html","494"
"13","Metro","Palmovka","","1211"
"14","Restaurace","Restaurace u Felixe","https://www.firmy.cz/detail/2364050-restaurace-u-felixe-praha-liben.html","425"
"15","Lékař","MUDr. Pavel Šusta","https://www.firmy.cz/detail/390332-mudr-pavel-susta-praha-liben.html","849"
"16","Pošta","Pošta Praha 85 - Česká pošta, s.p.","https://www.firmy.cz/detail/658903-posta-praha-85-praha-kobylisy.html","1428"
"17","Bankomat","Bankomat České spořitelny","https://www.firmy.cz/detail/594940-bankomat-ceske-sporitelny-praha-liben.html","1061"
"18","Obchod","Kaufland","https://www.firmy.cz/detail/1457859-kaufland-praha-liben.html","1346"
"19","Tram","Vosmíkových","","435"
"20","Vlak","Praha-Vysočany","","1365"
