"","facility_type","facility_name","facility_iri","facility_distance"
"0","Cukrárna","ŇAM ŇAM","https://www.firmy.cz/detail/12982145-nam-nam-kladno.html","79"
"1","Kino","Kino Sokol Kladno","https://www.firmy.cz/detail/13179300-kino-sokol-kladno-kladno.html","379"
"2","Přírodní zajímavost","Vodní park Čabárna","","5263"
"3","Hřiště","Dětské hřiště Nové Kladno","","522"
"4","Večerka","COOP","https://www.firmy.cz/detail/2354199-coop-kladno.html","214"
"5","Hospoda","Pivnice Sparta","https://www.firmy.cz/detail/13117004-pivnice-sparta-kladno.html","314"
"6","Divadlo","Loutkové divadlo Lampion","https://www.firmy.cz/detail/733471-loutkove-divadlo-lampion-kladno.html","799"
"7","Veterinář","Veterinární ordinace ANEŽKA","https://www.firmy.cz/detail/13013573-veterinarni-ordinace-anezka-kladno.html","36"
"8","Lékárna","Dr. Max LÉKÁRNA","https://www.firmy.cz/detail/12857002-dr-max-lekarna-kladno.html","179"
"9","Školka","MALÍČKOV s.r.o. - Soukromá anglická školka a jesle","https://www.firmy.cz/detail/2693321-malickov-s-r-o-soukroma-anglicka-skolka-a-jesle-kladno.html","349"
"10","Škola","ZŠ a MŠ Kladno, Zd. Petříka","https://www.firmy.cz/detail/356087-zs-a-ms-kladno-zd-petrika-kladno.html","66"
"11","Sportoviště","Sportovní klub Panteři Kladno","https://www.firmy.cz/detail/13273908-sportovni-klub-panteri-kladno-kladno.html","138"
"12","Bankomat","Bankomat ČSOB","https://www.firmy.cz/detail/2409879-bankomat-csob-kladno.html","231"
"13","Bus MHD","Kladno, Nemocnice","","135"
"14","Restaurace","Střední odborná škola a Střední odborné učiliště, Kladno, Dubská","https://www.firmy.cz/detail/2516246-stredni-odborna-skola-a-stredni-odborne-uciliste-kladno-dubska-kladno.html","130"
"15","Pošta","Pošta Kladno 5 - Česká pošta, s.p.","https://www.firmy.cz/detail/216835-posta-kladno-5-kladno.html","298"
"16","Lékař","MUDr. Blanka Bláhová","https://www.firmy.cz/detail/13283522-mudr-blanka-blahova-kladno.html","137"
"17","Obchod","Central Kladno","https://www.firmy.cz/detail/12966933-central-kladno-kladno.html","695"
"18","Vlak","Kladno město","","671"
