"","facility_type","facility_name","facility_iri","facility_distance"
"0","Cukrárna","Cukrárna Na Musilech 349/26","https://www.firmy.cz/detail/276302-cukrarna-na-musilech-349-26-praha-libus.html","361"
"1","Kino","Cinema City Chodov","https://www.firmy.cz/detail/13098016-cinema-city-chodov-praha-chodov.html","3550"
"2","Hřiště","Dětské hřiště Písnice-sídliště","","90"
"3","Večerka","VIVACOMEX, spol. s r.o.","https://www.firmy.cz/detail/1896113-vivacomex-praha-pisnice.html","245"
"4","Hospoda","Občerstvení U Báti","https://www.firmy.cz/detail/2175877-obcerstveni-u-bati-praha-libus.html","498"
"5","Divadlo","Loutkové divadlo Zvoneček","https://www.firmy.cz/detail/397112-loutkove-divadlo-zvonecek-praha-lhotka.html","3294"
"6","Veterinář","Veterinární nemocnice Libuš","https://www.firmy.cz/detail/601292-veterinarni-nemocnice-libus-praha-libus.html","725"
"7","Lékárna","Písnická lékárna","https://www.firmy.cz/detail/13272782-pisnicka-lekarna-praha-pisnice.html","245"
"8","Bankomat","Bankomat Komerční banky","https://www.firmy.cz/detail/13292424-bankomat-komercni-banky-praha-pisnice.html","531"
"9","Pošta","Pošta Praha 413 - Česká pošta, s.p.","https://www.firmy.cz/detail/217476-posta-praha-413-praha-libus.html","716"
"10","Obchod","OC Kunratice","https://www.firmy.cz/detail/13045926-oc-kunratice-praha-kunratice.html","1198"
"11","Lékař","MUDr. Hoa Le Thi Khánh","https://www.firmy.cz/detail/12838493-mudr-hoa-le-thi-khanh-praha-pisnice.html","245"
"12","Restaurace","Modrá ryba","https://www.firmy.cz/detail/12963717-modra-ryba-praha-pisnice.html","58"
"13","Škola","G.A.P.education, střední škola, s.r.o.","https://www.firmy.cz/detail/2097984-g-a-p-education-stredni-skola-praha-pisnice.html","221"
"14","Sportoviště","Tenisový klub Písnice","https://www.firmy.cz/detail/201182-tenisovy-klub-pisnice-praha-pisnice.html","285"
"15","Školka","Mateřská škola Mezi Domy","https://www.firmy.cz/detail/2265072-materska-skola-mezi-domy-praha-pisnice.html","136"
"16","Tram","Levského","","2051"
"17","Bus MHD","U Libušské sokolovny","","131"
"18","Metro","Chodov","","3635"
"19","Vlak","Praha-Krč","","3703"
