"","facility_type","facility_name","facility_iri","facility_distance"
"0","Cukrárna","Druhý domov","https://www.firmy.cz/detail/13024499-druhy-domov-olomouc.html","174"
"1","Kino","Letní kino Olomouc","https://www.firmy.cz/detail/13157654-letni-kino-olomouc-olomouc.html","725"
"2","Hřiště","Dětské hřiště Blanická","","218"
"3","Večerka","Můjobchod - Potraviny","https://www.firmy.cz/detail/13162480-mujobchod-potraviny-olomouc.html","121"
"4","Hospoda","Klub Hospoda Punat","https://www.firmy.cz/detail/13123967-klub-hospoda-punat-olomouc.html","190"
"5","Divadlo","Divadlo hudby","https://www.firmy.cz/detail/12933426-divadlo-hudby-olomouc.html","1009"
"6","Veterinář","Veterinární ordinace - MVDr. Vojtěch Návělek","https://www.firmy.cz/detail/268477-veterinarni-ordinace-mvdr-vojtech-navelek-olomouc.html","134"
"7","Sportoviště","Czech Lawn Tennis Club Olomouc, z.s.","https://www.firmy.cz/detail/13232234-czech-lawn-tennis-club-olomouc-z-s-olomouc-hodolany.html","398"
"8","Škola","Moravská střední škola s.r.o.","https://www.firmy.cz/detail/361674-moravska-stredni-skola-s-r-o-olomouc.html","188"
"9","Bankomat","Bankomat Fio banky","https://www.firmy.cz/detail/12935716-bankomat-fio-banky-olomouc.html","177"
"10","Školka","MŠ Olomouc, kpt. Nálepky","https://www.firmy.cz/detail/2142681-ms-olomouc-kpt-nalepky-olomouc.html","78"
"11","Obchod","SENIMO, a.s.","https://www.firmy.cz/detail/298877-senimo-olomouc.html","370"
"12","Bus MHD","U Bristolu","","313"
"13","Tram","Žižkovo nám.","","356"
"14","Pošta","Pošta Olomouc 2 - Česká pošta, s.p.","https://www.firmy.cz/detail/432281-posta-olomouc-2-olomouc-hodolany.html","575"
"15","Restaurace","CÔDÔ","https://www.firmy.cz/detail/13310375-codo-olomouc.html","156"
"16","Lékárna","Lékárna AVE","https://www.firmy.cz/detail/12877758-lekarna-ave-olomouc-hodolany.html","591"
"17","Vlak","Olomouc hlavní nádraží","","721"
"18","Lékař","TeamPrevent-Santé, s.r.o.","https://www.firmy.cz/detail/13054837-teamprevent-sante-s-r-o-olomouc.html","20"
