"","facility_type","facility_name","facility_iri","facility_distance"
"0","Cukrárna","Medová kavárna","https://www.firmy.cz/detail/12990941-medova-kavarna-roztoky.html","340"
"1","Kino","Kino Velké Přílepy","https://www.firmy.cz/detail/12895760-kino-velke-prilepy-velke-prilepy.html","4161"
"2","Hřiště","Dětské hřiště U Hřiště","","207"
"3","Večerka","Tesco Supermarket","https://www.firmy.cz/detail/2358844-tesco-supermarket-roztoky.html","903"
"4","Hospoda","Hospůdka KOZÍ BAR","https://www.firmy.cz/detail/12991645-hospudka-kozi-bar-husinec-rez.html","810"
"5","Divadlo","Loutkové divadélko Manetka","https://www.firmy.cz/detail/13228024-loutkove-divadelko-manetka-uholicky.html","2684"
"6","Veterinář","Veterinární ordinace MVDr. Michaela Riedlová","https://www.firmy.cz/detail/2387169-veterinarni-ordinace-mvdr-michaela-riedlova-roztoky.html","1212"
"7","Bus MHD","Roztoky,Přemyslovská","","159"
"8","Bankomat","Bankomat Komerční banky","https://www.firmy.cz/detail/2423216-bankomat-komercni-banky-roztoky.html","1647"
"9","Restaurace","Restaurace La Stella","https://www.firmy.cz/detail/13143535-restaurace-la-stella-roztoky.html","204"
"10","Pošta","Pošta Řež - Česká pošta, s.p.","https://www.firmy.cz/detail/659066-posta-rez-husinec-rez.html","1175"
"11","Sportoviště","Kluziště Roztoky","https://www.firmy.cz/detail/13341416-kluziste-roztoky-roztoky.html","431"
"12","Obchod","Obchodní dům Visla","https://www.firmy.cz/detail/13157344-obchodni-dum-visla-praha-bohnice.html","4835"
"13","Lékař","MUDr. Vlasta Hlavová","https://www.firmy.cz/detail/386831-mudr-vlasta-hlavova-roztoky.html","345"
"14","Škola","ZŠ Roztoky - Cihelna","https://www.firmy.cz/detail/13329319-zs-roztoky-cihelna-roztoky.html","411"
"15","Vlak","Roztoky-Žalov","","411"
"16","Lékárna","Lékárna Roztoky","https://www.firmy.cz/detail/375179-lekarna-roztoky-roztoky.html","1529"
"17","Školka","Základní škola a mateřská škola Husinec-Řež","https://www.firmy.cz/detail/725454-zakladni-skola-a-materska-skola-husinec-rez-husinec-rez.html","600"
