"","facility_type","facility_name","facility_iri","facility_distance"
"0","Cukrárna","Cukrárna Bonte","https://www.firmy.cz/detail/12771834-cukrarna-bonte-tynec-nad-sazavou.html","3135"
"1","Hřiště","Dětské hřiště Fatranská","","85"
"2","Večerka","JEDNOTA Benešov - COOP","https://www.firmy.cz/detail/2638414-jednota-benesov-coop-tynec-nad-sazavou-chrast-nad-sazavou.html","246"
"3","Hospoda","Hospoda Na Hřišti - Krhanice","https://www.firmy.cz/detail/13139455-hospoda-na-hristi-krhanice-krhanice.html","604"
"4","Divadlo","Divadlo Netopýr z.s.","https://www.firmy.cz/detail/2382076-divadlo-netopyr-z-s-tynec-nad-sazavou.html","3094"
"5","Veterinář","MVDr. Dana Kršková","https://www.firmy.cz/detail/1903637-mvdr-dana-krskova-krhanice.html","863"
"6","Bus MHD","Krhanice, žel.st.","","99"
"7","Sportoviště","Tělocvičná Jednota Sokol Krhanice","https://www.firmy.cz/detail/2129528-telocvicna-jednota-sokol-krhanice-krhanice.html","604"
"8","Restaurace","Hostinec Na poště","https://www.firmy.cz/detail/420682-hostinec-na-poste-tynec-nad-sazavou-chrast-nad-sazavou.html","274"
"9","Pošta","Pošta Krhanice - Česká pošta, s.p.","https://www.firmy.cz/detail/2591348-posta-krhanice-tynec-nad-sazavou-chrast-nad-sazavou.html","244"
"10","Vlak","Krhanice","","128"
"11","Škola","ZŠ Krhanice","https://www.firmy.cz/detail/357829-zs-krhanice-krhanice.html","693"
"12","Lékař","MUDr. Tomáš Macháček","https://www.firmy.cz/detail/387601-mudr-tomas-machacek-krhanice.html","338"
"13","Bankomat","Bankomat MONETA Money Bank","https://www.firmy.cz/detail/2395565-bankomat-moneta-money-bank-tynec-nad-sazavou.html","2928"
"14","Školka","MŠ Týnec nad Sázavou","https://www.firmy.cz/detail/2115696-ms-tynec-nad-sazavou-tynec-nad-sazavou-chrast-nad-sazavou.html","0"
"15","Lékárna","Lékárna U Mostu","https://www.firmy.cz/detail/685164-lekarna-u-mostu-tynec-nad-sazavou.html","3264"
