"","facility_type","facility_name","facility_iri","facility_distance"
"0","Cukrárna","Costa Coffee","https://www.firmy.cz/detail/2413662-costa-coffee-praha-zizkov.html","564"
"1","Kino","Cinema City Flora","https://www.firmy.cz/detail/660712-cinema-city-flora-praha-zizkov.html","537"
"2","Přírodní zajímavost","Meandry Rokytky","","4012"
"3","Hřiště","Dětské hřiště Garden Towers","","86"
"4","Večerka","PARK GROUP","https://www.firmy.cz/detail/599597-park-group-praha-zizkov.html","163"
"5","Divadlo","Hvězdné léto pod žižkovskou věží","https://www.firmy.cz/detail/13265384-hvezdne-leto-pod-zizkovskou-vezi-praha-zizkov.html","1061"
"6","Veterinář","MVDr. Václav Naxera - veterinární klinika","https://www.firmy.cz/detail/278421-mvdr-vaclav-naxera-veterinarni-klinika-praha-vinohrady.html","866"
"7","Hospoda","Pivnice Radyně","https://www.firmy.cz/detail/1957129-pivnice-radyne-praha-zizkov.html","651"
"8","Lékař","Vinohradské ambulantní zařízení","https://www.firmy.cz/detail/302645-vinohradske-ambulantni-zarizeni-praha-zizkov.html","185"
"9","Pošta","Pošta Praha 3 - Česká pošta, s.p.","https://www.firmy.cz/detail/2102474-posta-praha-3-praha-zizkov.html","265"
"10","Škola","Střední odborná škola managementu a práva, Cimburkova","https://www.firmy.cz/detail/1953436-stredni-odborna-skola-managementu-a-prava-cimburkova-praha-zizkov.html","117"
"11","Restaurace","XBowling Žižkov","https://www.firmy.cz/detail/12747345-xbowling-zizkov-praha-zizkov.html","275"
"12","Tram","Olšanská","","102"
"13","Školka","Mateřská škola Milíčův dům, Praha 3","https://www.firmy.cz/detail/1965900-materska-skola-milicuv-dum-praha-3-praha-zizkov.html","342"
"14","Bus MHD","Nákladové nádraží Žižkov","","261"
"15","Sportoviště","Tenisová škola RETURN","https://www.firmy.cz/detail/740300-tenisova-skola-return-praha-zizkov.html","501"
"16","Obchod","Tesco Extra","https://www.firmy.cz/detail/733906-tesco-extra-praha-vrsovice.html","1707"
"17","Vlak","Praha-Eden","","1939"
"18","Metro","Flora","","640"
"19","Bankomat","Bankomat ČSOB","https://www.firmy.cz/detail/599580-bankomat-csob-praha-zizkov.html","265"
"20","Lékárna","Lékárna Olšanská","https://www.firmy.cz/detail/582540-lekarna-olsanska-praha-zizkov.html","185"
