"","facility_type","facility_name","facility_iri","facility_distance"
"0","Hřiště","Dětské hřiště Rožmberská","https://mapy.cz/zakladni?x=14.541504308581354&y=50.09350223769346&z=17&source=base&id=2321237","203"
"1","Cukrárna","JEDNO KAFE s.r.o., s.r.o.","https://www.firmy.cz/detail/13144478-jedno-kafe-s-r-o-praha-hloubetin.html","1238"
"2","Večerka","Penny Market","https://www.firmy.cz/detail/207736-penny-market-praha-hloubetin.html","1196"
"3","Veterinář","Veterinární klinika Poděbradská","https://www.firmy.cz/detail/166978-veterinarni-klinika-podebradska-praha-hloubetin.html","1402"
"4","Divadlo","BR divadlo","https://www.firmy.cz/detail/13266518-br-divadlo-praha-strasnice.html","3147"
"5","Kino","CineStar Černý Most","https://www.firmy.cz/detail/2537569-cinestar-cerny-most-praha-cerny-most.html","3588"
"6","Hospoda","Hospoda Šuplík","https://www.firmy.cz/detail/13121991-hospoda-suplik-praha-kyje.html","486"
"7","Přírodní zajímavost","Meandry Rokytky","https://mapy.cz/zakladni?x=14.517104002655032&y=50.098337103299386&z=17&source=base&id=2338360","1670"
"8","Školka","Školička Domeček - Domeček Mateřská škola, s.r.o.","https://www.firmy.cz/detail/12804002-skolicka-domecek-praha-kyje.html","330"
"9","Sportoviště","Tělovýchovná jednota Kyje Praha 14","https://www.firmy.cz/detail/2246438-telovychovna-jednota-kyje-praha-14-praha-kyje.html","486"
"10","Bus MHD","Pávovské náměstí","https://mapy.cz/zakladni?x=14.540253969360188&y=50.0931660850325&z=17&source=pubt&id=15302424","209"
"11","Restaurace","Restaurace U rybníka","https://www.firmy.cz/detail/2330670-restaurace-u-rybnika-praha-kyje.html","404"
"12","Vlak","Praha-Kyje","https://mapy.cz/zakladni?x=14.5432331997&y=50.0975432851&z=17&source=pubt&id=15212571","365"
"13","Lékař","MUDr. Miroslav Pospíšil","https://www.firmy.cz/detail/382089-mudr-miroslav-pospisil-praha-kyje.html","512"
"14","Škola","ZŠ Praha 9, Šimanovská","https://www.firmy.cz/detail/356259-zs-praha-9-simanovska-praha-kyje.html","548"
"15","Metro","Hloubětín","https://mapy.cz/zakladni?x=14.5377651586&y=50.1060917514&z=17&source=pubt&id=15206921","1240"
"16","Tram","Starý Hloubětín","https://mapy.cz/zakladni?x=14.5302233325&y=50.1040288517&z=17&source=pubt&id=15300439","1217"
"17","Bankomat","Bankomat České spořitelny","https://www.firmy.cz/detail/12837487-bankomat-ceske-sporitelny-praha-hloubetin.html","1155"
"18","Obchod","Kaufland","https://www.firmy.cz/detail/13180341-kaufland-praha-hloubetin.html","1606"
"19","Pošta","Pošta Praha 94 - Česká pošta, s.p.","https://www.firmy.cz/detail/431410-posta-praha-94-praha-hloubetin.html","1163"
"20","Lékárna","Ekolékárna Hloubětín","https://www.firmy.cz/detail/12928164-ekolekarna-hloubetin-praha-hloubetin.html","1155"
