"","facility_type","facility_name","facility_iri","facility_distance"
"0","Hřiště","Dětské hřiště Měšická","https://mapy.cz/zakladni?x=14.5008801611&y=50.1219709716&z=17&source=base&id=1926953","184"
"1","Přírodní zajímavost","Meandry Rokytky","https://mapy.cz/zakladni?x=14.517104002655032&y=50.098337103299386&z=17&source=base&id=2338360","3051"
"2","Hospoda","Pivnice Boleslavka","https://www.firmy.cz/detail/13302446-pivnice-boleslavka-praha-prosek.html","580"
"3","Večerka","Smíšené zboží Jablonecká 706/26","https://www.firmy.cz/detail/12976165-smisene-zbozi-jablonecka-706-26-praha-prosek.html","108"
"4","Cukrárna","Kavárna Knoflík","https://www.firmy.cz/detail/12890167-kavarna-knoflik-praha-prosek.html","278"
"5","Veterinář","Veterinární ordinace MVDr. Marek Svoboda","https://www.firmy.cz/detail/654003-veterinarni-ordinace-mvdr-marek-svoboda-praha-prosek.html","316"
"6","Divadlo","Divadlo Pohádka","https://www.firmy.cz/detail/636143-divadlo-pohadka-praha-letnany.html","472"
"7","Kino","Cinema City Letňany","https://www.firmy.cz/detail/2679833-cinema-city-letnany-praha-letnany.html","1528"
"8","Restaurace","Restaurace Srdcovka Prosek","https://www.firmy.cz/detail/13189324-restaurace-srdcovka-prosek-praha-prosek.html","159"
"9","Sportoviště","BOHEMIANS PRAHA","https://www.firmy.cz/detail/2652487-bohemians-praha-praha-letnany.html","612"
"10","Bankomat","Bankomat ČSOB","https://www.firmy.cz/detail/599669-bankomat-csob-praha-strizkov.html","121"
"11","Pošta","Pošta Praha 9 - Česká pošta, s.p.","https://www.firmy.cz/detail/216700-posta-praha-9-praha-strizkov.html","141"
"12","Školka","Mateřská škola Novoborská","https://www.firmy.cz/detail/12807686-materska-skola-novoborska-praha.html","281"
"13","Lékař","MUDr. Dana Boučková","https://www.firmy.cz/detail/12825575-mudr-dana-bouckova-praha-prosek.html","532"
"14","Škola","Základní škola a mateřská škola Basic Praha, o.p.s.","https://www.firmy.cz/detail/12810105-zakladni-skola-a-materska-skola-basic-praha-o-p-s-praha-prosek.html","46"
"15","Obchod","Tesco","https://www.firmy.cz/detail/218194-tesco-praha-letnany.html","1290"
"16","Tram","Vysočanská","https://mapy.cz/zakladni?x=14.5028387711&y=50.1115572042&z=17&source=pubt&id=15300275","1329"
"17","Bus MHD","Novoborská","https://mapy.cz/zakladni?x=14.498318740850474&y=50.126358860488956&z=17&source=pubt&id=15304962","348"
"18","Lékárna","BENU lékárna","https://www.firmy.cz/detail/13189198-benu-lekarna-praha-prosek.html","415"
"19","Vlak","Praha-Vysočany","https://mapy.cz/zakladni?x=14.4975508502&y=50.1123429996&z=17&source=pubt&id=15698647","1224"
"20","Metro","Prosek","https://mapy.cz/zakladni?x=14.4987608971&y=50.1193140253&z=17&source=pubt&id=15206935","444"
