"","facility_type","facility_name","facility_iri","facility_distance"
"0","Hřiště","Dětské hřiště Peřinova","https://mapy.cz/zakladni?x=14.305212690557823&y=50.06481224663968&z=17&source=base&id=2335014","74"
"1","Cukrárna","OVOCNÝ SVĚTOZOR","https://www.firmy.cz/detail/13151180-ovocny-svetozor-praha-stodulky.html","732"
"2","Večerka","Lidl","https://www.firmy.cz/detail/13211335-lidl-praha-repy.html","239"
"3","Hospoda","Pivní bar","https://www.firmy.cz/detail/13148067-pivni-bar-praha-repy.html","485"
"4","Veterinář","Veterinární klinika Delta MVDr.Michael Růžička, s.r.o.","https://www.firmy.cz/detail/12957413-veterinarni-klinika-delta-mvdr-michael-ruzicka-praha-repy.html","425"
"5","Divadlo","MEZINÁRODNÍ CENTRUM TANCE","https://www.firmy.cz/detail/2465676-mezinarodni-centrum-tance-praha-stodulky.html","3161"
"6","Přírodní zajímavost","Kovářovic mez","https://mapy.cz/zakladni?x=14.36107759920759&y=50.04395254566995&z=17&source=base&id=2339664","4670"
"7","Kino","Cinema City Zličín","https://www.firmy.cz/detail/436222-cinema-city-zlicin-praha-trebonice.html","1730"
"8","Školka","MŠ Socháňova","https://www.firmy.cz/detail/457968-ms-sochanova-praha-repy.html","91"
"9","Vlak","Praha-Zličín","https://mapy.cz/zakladni?x=14.2977438277&y=50.0641750381&z=17&source=pubt&id=15212589","527"
"10","Tram","Blatiny","https://mapy.cz/zakladni?x=14.3036147187&y=50.0657106185&z=17&source=pubt&id=15302517","94"
"11","Restaurace","Bowling Manta","https://www.firmy.cz/detail/470336-bowling-manta-praha-repy.html","87"
"12","Lékař","MUDr. Peter Ritter","https://www.firmy.cz/detail/389646-mudr-peter-ritter-praha-repy.html","162"
"13","Bus MHD","Blatiny","https://mapy.cz/zakladni?x=14.302533&y=50.065655&z=17&source=pubt&id=16178256","168"
"14","Lékárna","Lékárna Makovského","https://www.firmy.cz/detail/2686056-lekarna-makovskeho-praha-repy.html","175"
"15","Metro","Zličín","https://mapy.cz/zakladni?x=14.2906764069&y=50.0537241139&z=17&source=pubt&id=15200255","1650"
"16","Sportoviště","Tenisová škola TALLENT","https://www.firmy.cz/detail/722768-tenisova-skola-tallent-praha-repy.html","162"
"17","Bankomat","Bankomat ČSOB","https://www.firmy.cz/detail/1424161-bankomat-csob-praha-repy.html","212"
"18","Pošta","Pošta Praha 618 - Česká pošta, s.p.","https://www.firmy.cz/detail/431332-posta-praha-618-praha-repy.html","294"
"19","Škola","ZŠ generálporučíka Františka Peřiny Praha 6","https://www.firmy.cz/detail/356218-zs-generalporucika-frantiska-periny-praha-6-praha-repy.html","162"
"20","Obchod","OC Řepy","https://www.firmy.cz/detail/13328774-oc-repy-praha-repy.html","294"
