"","facility_type","facility_name","facility_iri","facility_distance"
"0","Hřiště","Dětské hřiště Březinova","https://mapy.cz/zakladni?x=17.39772866546312&y=49.294425485573456&z=17&source=base&id=2340525","507"
"1","Cukrárna","Cukrárna Amadeus","https://www.firmy.cz/detail/12874984-cukrarna-amadeus-kromeriz.html","37"
"2","Večerka","Potraviny Riegrovo náměstí","https://www.firmy.cz/detail/2347789-potraviny-riegrovo-namesti-kromeriz.html","69"
"3","Veterinář","MVDr. Ivan Popelka","https://www.firmy.cz/detail/580071-mvdr-ivan-popelka-kromeriz.html","421"
"4","Hospoda","Pivobar něžný barbar","https://www.firmy.cz/detail/13266849-pivobar-nezny-barbar-kromeriz.html","66"
"5","Přírodní zajímavost","Soutok Moravy a Hané","https://mapy.cz/zakladni?x=17.3642576888&y=49.3270419665&z=17&source=base&id=2256568","3862"
"6","Divadlo","Dům kultury v Kroměříži","https://www.firmy.cz/detail/397120-dum-kultury-v-kromerizi-kromeriz.html","462"
"7","Kino","Kino Nadsklepí","https://www.firmy.cz/detail/12749352-kino-nadsklepi-kromeriz.html","180"
"8","Restaurace","Restaurace Prusinovského 113/1","https://www.firmy.cz/detail/13154965-restaurace-prusinovskeho-113-1-kromeriz.html","27"
"9","Vlak","Kroměříž","https://mapy.cz/zakladni?x=17.4029532715&y=49.3023398501&z=17&source=pubt&id=15211844","871"
"10","Pošta","Pošta Kroměříž 2 - Česká pošta, s.p.","https://www.firmy.cz/detail/216109-posta-kromeriz-2-kromeriz.html","87"
"11","Obchod","Albert Hypermarket","https://www.firmy.cz/detail/446933-albert-hypermarket-kromeriz.html","634"
"12","Bus MHD","Kroměříž, Milíčovo nám.","https://mapy.cz/zakladni?x=17.3906436141&y=49.2966605453&z=17&source=pubt&id=15297426","223"
"13","Sportoviště","Tělocvičná jednota Sokol Kroměříž","https://www.firmy.cz/detail/2138250-telocvicna-jednota-sokol-kromeriz-kromeriz.html","164"
"14","Bankomat","Bankomat ČSOB","https://www.firmy.cz/detail/599437-bankomat-csob-kromeriz.html","103"
"15","Lékař","MEDIBRUM s.r.o. - MUDr. Ema Husaříková","https://www.firmy.cz/detail/12926622-medibrum-s-r-o-mudr-ema-husarikova-kromeriz.html","351"
"16","Školka","Soukromá mateřská škola KAŠPÁREK, s.r.o.","https://www.firmy.cz/detail/13326832-soukroma-materska-skola-kasparek-kromeriz.html","314"
"17","Lékárna","Lékárna Velké náměstí","https://www.firmy.cz/detail/12901289-lekarna-velke-namesti-kromeriz.html","108"
"18","Škola","Základní umělecká škola Kroměříž","https://www.firmy.cz/detail/427424-zakladni-umelecka-skola-kromeriz-kromeriz.html","115"
