"","facility_type","facility_name","facility_iri","facility_distance"
"0","Cukrárna","Café Columna","https://www.firmy.cz/detail/12966496-cafe-columna-praha-chodov.html","451"
"1","Kino","Multikino - Premiere Cinemas Praha Hostivař","https://www.firmy.cz/detail/12745547-multikino-premiere-cinemas-praha-hostivar-praha-hostivar.html","1557"
"2","Přírodní zajímavost","Mokřad Triangl","","2381"
"3","Hřiště","Dětské hřiště Čenětická","","164"
"4","Večerka","Můjobchod - Potraviny Express","https://www.firmy.cz/detail/12891622-mujobchod-potraviny-express-praha-chodov.html","525"
"5","Hospoda","Pivnice u bazénu","https://www.firmy.cz/detail/13093884-pivnice-u-bazenu-praha-chodov.html","436"
"6","Divadlo","SKAZKA, spol. s r.o.","https://www.firmy.cz/detail/2048564-skazka-praha-hostivar.html","1294"
"7","Veterinář","Veterinární ordinace u gymnázia","https://www.firmy.cz/detail/727266-veterinarni-ordinace-u-gymnazia-praha-zabehlice.html","762"
"8","Bus MHD","Knovízská","","238"
"9","Lékárna","Lékárna Majerského","https://www.firmy.cz/detail/13162341-lekarna-majerskeho-praha-chodov.html","557"
"10","Pošta","Pošta Praha 43 - Česká pošta, s.p.","https://www.firmy.cz/detail/217483-posta-praha-43-praha-chodov.html","1090"
"11","Škola","Gymnázium, Praha 4, Postupická","https://www.firmy.cz/detail/362270-gymnazium-praha-4-postupicka-praha-zabehlice.html","702"
"12","Restaurace","BOHEMIA TOP RESTAURANT","https://www.firmy.cz/detail/12831345-bohemia-top-restaurant-praha-chodov.html","418"
"13","Lékař","ELSmedic, s.r.o.","https://www.firmy.cz/detail/12837822-elsmedic-praha-chodov.html","550"
"14","Tram","Spořilov","","1622"
"15","Bankomat","Bankomat UniCredit Bank Czech Republic","https://www.firmy.cz/detail/12934724-bankomat-unicredit-bank-czech-republic-praha-chodov.html","933"
"16","Sportoviště","Tenisová hala Top tenis","","352"
"17","Školka","MŠ Praha 4, Mírového hnutí","https://www.firmy.cz/detail/2265595-ms-praha-4-miroveho-hnuti-praha-chodov.html","543"
"18","Obchod","Iceland","https://www.firmy.cz/detail/13033563-iceland-praha-chodov.html","748"
"19","Metro","Chodov","","1486"
"20","Vlak","Praha-Zahradní Město","","2118"
