"","facility_type","facility_name","facility_iri","facility_distance"
"0","Cukrárna","Hudlísek cafe","https://www.firmy.cz/detail/12986954-hudlisek-cafe-beroun-zavodi.html","447"
"1","Kino","Kino Beroun","https://www.firmy.cz/detail/396429-kino-beroun-beroun-mesto.html","522"
"2","Hřiště","Dětské hřiště Štulovna","","204"
"3","Večerka","COOP","https://www.firmy.cz/detail/2489414-coop-beroun-mesto.html","352"
"4","Hospoda","Restaurace U Tygra","https://www.firmy.cz/detail/13120748-restaurace-u-tygra-beroun-mesto.html","362"
"5","Veterinář","Veterinární ordinace MVDr. Petr Volf","https://www.firmy.cz/detail/746039-veterinarni-ordinace-mvdr-petr-volf-beroun-mesto.html","1707"
"6","Obchod","Květ Beroun, a.s.","https://www.firmy.cz/detail/12846052-kvet-beroun-beroun-centrum.html","555"
"7","Bankomat","Bankomat České spořitelny","https://www.firmy.cz/detail/12987804-bankomat-ceske-sporitelny-beroun-mesto.html","408"
"8","Školka","Montessori Beroun Mateřská škola, s.r.o.","https://www.firmy.cz/detail/12849359-montessori-beroun-materska-skola-beroun-mesto.html","240"
"9","Škola","Gymnázium Joachima Barranda Beroun","https://www.firmy.cz/detail/361908-gymnazium-joachima-barranda-beroun-beroun-mesto.html","74"
"10","Restaurace","Hospoda Na Černém vršku","https://www.firmy.cz/detail/13110966-hospoda-na-cernem-vrsku-beroun-mesto.html","138"
"11","Pošta","Pošta Beroun 1 - Česká pošta, s.p.","https://www.firmy.cz/detail/216868-posta-beroun-1-beroun-mesto.html","462"
"12","Lékárna","BENU Lékárna","https://www.firmy.cz/detail/421923-benu-lekarna-beroun-mesto.html","527"
"13","Bus MHD","Beroun, Vítězslava Hálka I","","202"
"14","Vlak","Beroun-Závodí","","1038"
"15","Lékař","MUDr. JAROSLAVA BĚLOSTÍKOVÁ s.r.o.","https://www.firmy.cz/detail/13283059-mudr-jaroslava-belostikova-s-r-o-beroun-mesto.html","284"
"16","Sportoviště","Bowling Petr Hrách","https://www.firmy.cz/detail/12974994-bowling-petr-hrach-beroun-centrum.html","544"
