"","facility_type","facility_name","facility_iri","facility_distance"
"0","Cukrárna","Cukrárna Charlie","https://www.firmy.cz/detail/2365398-cukrarna-charlie-praha-michle.html","116"
"1","Kino","HopeTV","https://www.firmy.cz/detail/672889-hopetv-praha-vinohrady.html","1843"
"2","Hřiště","Dětské hřiště park Jezerka","","184"
"3","Večerka","Tesco Expres","https://www.firmy.cz/detail/2564843-tesco-expres-praha-nusle.html","262"
"4","Divadlo","Divadlo Na Jezerce","https://www.firmy.cz/detail/496550-divadlo-na-jezerce-praha-nusle.html","472"
"5","Hospoda","Hostinec U Parku","https://www.firmy.cz/detail/337032-hostinec-u-parku-praha-nusle.html","192"
"6","Veterinář","Veterinární ošetřovna Nusle, s.r.o.","https://www.firmy.cz/detail/2294795-veterinarni-osetrovna-nusle-praha-nusle.html","405"
"7","Školka","MŠ Praha 4, K Podjezdu","https://www.firmy.cz/detail/663384-ms-praha-4-k-podjezdu-praha-michle.html","155"
"8","Restaurace","Restaurace Na Tetíně","https://www.firmy.cz/detail/622419-restaurace-na-tetine-praha-nusle.html","115"
"9","Bus MHD","Kloboučnická","","48"
"10","Škola","Základní škola Mendíků","https://www.firmy.cz/detail/356173-zakladni-skola-mendiku-praha-michle.html","156"
"11","Lékař","MUDr. Jitka Guthová","https://www.firmy.cz/detail/380409-mudr-jitka-guthova-praha-nusle.html","47"
"12","Lékárna","Nuselská lékárna","https://www.firmy.cz/detail/598110-nuselska-lekarna-praha-nusle.html","728"
"13","Bankomat","Bankomat Komerční banky","https://www.firmy.cz/detail/596000-bankomat-komercni-banky-praha-michle.html","220"
"14","Vlak","Praha-Vršovice","","548"
"15","Sportoviště","Tělocvičná jednota Sokol Michle","https://www.firmy.cz/detail/231145-telocvicna-jednota-sokol-michle-praha-michle.html","299"
"16","Obchod","Arkády Pankrác","https://www.firmy.cz/detail/2245240-arkady-pankrac-praha-nusle.html","1384"
"17","Pošta","Pošta Praha 45 - Česká pošta, s.p.","https://www.firmy.cz/detail/217481-posta-praha-45-praha-michle.html","625"
"18","Tram","Pod Jezerkou","","189"
"19","Metro","Pražského povstání","","1236"
