"","facility_type","facility_name","facility_iri","facility_distance"
"0","Cukrárna","Café Globus","https://www.firmy.cz/detail/12877840-cafe-globus-havirov.html","1125"
"1","Kino","Kino Centrum","https://www.firmy.cz/detail/12780436-kino-centrum-havirov-mesto.html","2319"
"2","Hřiště","Dětské hřiště Mládežnická","","1306"
"3","Večerka","COOP Beskydy - Tuty","https://www.firmy.cz/detail/1940417-coop-beskydy-tuty-havirov-prostredni-sucha.html","206"
"4","Hospoda","Hospůdka U Mě","https://www.firmy.cz/detail/13108483-hospudka-u-me-havirov-prostredni-sucha.html","541"
"5","Veterinář","MVDr. Jaromír Miklík","https://www.firmy.cz/detail/1958340-mvdr-jaromir-miklik-havirov-prostredni-sucha.html","414"
"6","Sportoviště","76.ZO AVZO","https://www.firmy.cz/detail/13156999-76-zo-avzo-havirov.html","453"
"7","Bus MHD","Havířov, Prostřední Suchá, Kpt.Jasioka stánek","","201"
"8","Školka","MŠ Havířov, U Topolů","https://www.firmy.cz/detail/2261441-ms-havirov-u-topolu-havirov-prostredni-sucha.html","221"
"9","Lékař","MEDIPRAX comp s.r.o. - MUDr. Joanna Zajaczek Kolorzová","https://www.firmy.cz/detail/12862226-mediprax-comp-s-r-o-mudr-joanna-zajaczek-kolorzova-havirov-prostredni-sucha.html","291"
"10","Vlak","Havířov-Suchá","","347"
"11","Pošta","Pošta Havířov 4 - Česká pošta, s.p.","https://www.firmy.cz/detail/658850-posta-havirov-4-havirov-prostredni-sucha.html","664"
"12","Lékárna","Dr. Max LÉKÁRNA","https://www.firmy.cz/detail/2007376-dr-max-lekarna-havirov-prostredni-sucha.html","1093"
"13","Škola","Střední škola, Havířov - Prostřední Suchá","https://www.firmy.cz/detail/361231-stredni-skola-havirov-prostredni-sucha-havirov-prostredni-sucha.html","290"
"14","Restaurace","Restaurace Libera","https://www.firmy.cz/detail/2688645-restaurace-libera-havirov-prostredni-sucha.html","221"
"15","Obchod","S1 Center Havířov","https://www.firmy.cz/detail/13315339-s1-center-havirov-havirov-prostredni-sucha.html","1003"
"16","Bankomat","Bankomat ČSOB","https://www.firmy.cz/detail/599378-bankomat-csob-havirov-prostredni-sucha.html","1125"
