"","facility_type","facility_name","facility_iri","facility_distance"
"0","Cukrárna","Cukrárna u Žáků","https://www.firmy.cz/detail/1990224-cukrarna-u-zaku-brezany.html","5566"
"1","Hřiště","Dětské hřiště Božice","","616"
"2","Večerka","POTRAVINY U HŘIŠTĚ","https://www.firmy.cz/detail/13324773-potraviny-u-hriste-bozice.html","159"
"3","Hospoda","Hostinec U Kudličků","https://www.firmy.cz/detail/13273413-hostinec-u-kudlicku-bozice.html","209"
"4","Školka","ZŠ a MŠ Božice","https://www.firmy.cz/detail/728493-zs-a-ms-bozice-bozice.html","388"
"5","Lékárna","OOVL - L  U sv. Tadeáše","https://www.firmy.cz/detail/12782858-oovl-l-u-sv-tadease-bozice.html","167"
"6","Škola","ZŠ a MŠ Božice","https://www.firmy.cz/detail/356453-zs-a-ms-bozice-bozice.html","71"
"7","Lékař","MEDIRAD, spol. s r.o.","https://www.firmy.cz/detail/12743111-medirad-bozice.html","464"
"8","Pošta","Pošta Božice - Česká pošta, s.p.","https://www.firmy.cz/detail/432845-posta-bozice-bozice.html","219"
"9","Bus MHD","Božice, škola","","143"
"10","Vlak","Božice u Znojma","","1115"
