"","facility_type","facility_name","facility_iri","facility_distance"
"0","Hřiště","Dětské hřiště Zrenjaninská","https://mapy.cz/zakladni?x=13.8050563889&y=50.6360480556&z=17&source=base&id=2083887","672"
"1","Přírodní zajímavost","Porcelanity u Strak","https://mapy.cz/zakladni?x=13.8125738376&y=50.612830837&z=17&source=base&id=2170774","2525"
"2","Večerka","Potraviny U Soudu","https://www.firmy.cz/detail/13060200-potraviny-u-soudu-teplice.html","314"
"3","Cukrárna","Café Oliver","https://www.firmy.cz/detail/12971274-cafe-oliver-teplice.html","71"
"4","Veterinář","MVDr. Věra Hánová","https://www.firmy.cz/detail/2030919-mvdr-vera-hanova-teplice.html","201"
"5","Hospoda","Hospůdka Vyšehrad Teplice","https://www.firmy.cz/detail/13121903-hospudka-vysehrad-teplice-teplice.html","1239"
"6","Divadlo","Krušnohorské divadlo","https://www.firmy.cz/detail/435271-krusnohorske-divadlo-teplice.html","1084"
"7","Kino","Multikino - Premiere Cinemas Teplice","https://www.firmy.cz/detail/12861055-multikino-premiere-cinemas-teplice-teplice.html","761"
"8","Vlak","Teplice zámecká zahrada","https://mapy.cz/zakladni?x=13.8137235219&y=50.6337458629&z=17&source=pubt&id=15213036","204"
"9","Sportoviště","Sportovní hala Teplice","https://www.firmy.cz/detail/13091752-sportovni-hala-teplice-teplice.html","506"
"10","Škola","ZŠ s rozšířenou výukou tělesné výchovy Teplice, Na Stínadlech","https://www.firmy.cz/detail/359676-zs-s-rozsirenou-vyukou-telesne-vychovy-teplice-na-stinadlech-teplice.html","416"
"11","Restaurace","Mariánský dvůr","https://www.firmy.cz/detail/324381-mariansky-dvur-teplice.html","160"
"12","Obchod","Kaufland","https://www.firmy.cz/detail/13187779-kaufland-teplice.html","575"
"13","Bankomat","Bankomat Komerční banky","https://www.firmy.cz/detail/13033955-bankomat-komercni-banky-teplice.html","286"
"14","Bus MHD","Teplice, Mariánský dvůr","https://mapy.cz/zakladni?x=13.8156509254&y=50.6361786358&z=17&source=pubt&id=15240649","108"
"15","Lékař","Lékař Teplice s.r.o.","https://www.firmy.cz/detail/12973652-lekar-teplice-s-r-o-teplice.html","187"
"16","Pošta","Pošta Teplice 3 - Česká pošta, s.p.","https://www.firmy.cz/detail/215428-posta-teplice-3-teplice-retenice.html","550"
"17","Lékárna","Lékárna U Soudu","https://www.firmy.cz/detail/422381-lekarna-u-soudu-teplice.html","277"
"18","Školka","Mateřská škola Moskevské nám. 1994, Teplice","https://www.firmy.cz/detail/13044377-materska-skola-moskevske-nam-1994-teplice-teplice.html","78"
