"","facility_type","facility_name","facility_iri","facility_distance"
"0","Cukrárna","Eiscafe Delikana","https://www.firmy.cz/detail/13294607-eiscafe-delikana-karvina-frystat.html","1189"
"1","Kino","Kino Ex","https://www.firmy.cz/detail/396409-kino-ex-karvina-nove-mesto.html","477"
"2","Hřiště","Dětské hřiště Květinová","","164"
"3","Večerka","Smíšené zboží nám. Budovatelů 15","https://www.firmy.cz/detail/12905799-smisene-zbozi-nam-budovatelu-15-karvina-nove-mesto.html","92"
"4","Hospoda","Hospůdka U Binga","https://www.firmy.cz/detail/13113548-hospudka-u-binga-karvina-nove-mesto.html","380"
"5","Veterinář","Veterinární ordinace TRIAS","https://www.firmy.cz/detail/2331003-veterinarni-ordinace-trias-karvina-nove-mesto.html","1137"
"6","Bankomat","Bankomat České spořitelny","https://www.firmy.cz/detail/592981-bankomat-ceske-sporitelny-karvina-nove-mesto.html","107"
"7","Restaurace","Restaurace RVM Primaspol","https://www.firmy.cz/detail/13151530-restaurace-rvm-primaspol-karvina-nove-mesto.html","133"
"8","Pošta","Pošta Karviná 6 - Česká pošta, s.p.","https://www.firmy.cz/detail/431463-posta-karvina-6-karvina-nove-mesto.html","105"
"9","Lékárna","Lékárna U sv. Františka","https://www.firmy.cz/detail/375442-lekarna-u-sv-frantiska-karvina-nove-mesto.html","160"
"10","Škola","Střední odborná škola managementu a práva, s.r.o.","https://www.firmy.cz/detail/1953442-stredni-odborna-skola-managementu-a-prava-karvina-nove-mesto.html","159"
"11","Vlak","Karviná hlavní nádraží","","1252"
"12","Obchod","Albert Hypermarket","https://www.firmy.cz/detail/449318-albert-hypermarket-karvina-frystat.html","991"
"13","Školka","Základní škola a Mateřská škola Dělnická - U Vilíka","https://www.firmy.cz/detail/12854839-zakladni-skola-a-materska-skola-delnicka-u-vilika-karvina-nove-mesto.html","514"
"14","Bus MHD","Karviná, Nové Město, stadion házené","","248"
"15","Sportoviště","STaRS Karviná, s.r.o.","https://www.firmy.cz/detail/721386-stars-karvina-karvina-nove-mesto.html","311"
"16","Lékař","MUDr. Ludmila Tesařová","https://www.firmy.cz/detail/390358-mudr-ludmila-tesarova-karvina-nove-mesto.html","153"
