"","facility_type","facility_name","facility_iri","facility_distance"
"0","Přírodní zajímavost","Uhelná sloj v Landeku","https://mapy.cz/zakladni?x=18.2692044444&y=49.8672338889&z=17&source=base&id=1981598","3903"
"1","Hřiště","Dětské hřiště Výstaviště Černá louka","https://mapy.cz/zakladni?x=18.2942756185&y=49.8328491626&z=17&source=base&id=1929045","374"
"2","Divadlo","Stará aréna","https://www.firmy.cz/detail/12950373-stara-arena-ostrava-moravska-ostrava.html","167"
"3","Cukrárna","CrossCafe Zámecká","https://www.firmy.cz/detail/13273689-crosscafe-zamecka-ostrava-moravska-ostrava.html","23"
"4","Večerka","HRUŠKA","https://www.firmy.cz/detail/13201506-hruska-ostrava-moravska-ostrava.html","36"
"5","Hospoda","U Zrzavé Mary","https://www.firmy.cz/detail/574097-u-zrzave-mary-ostrava-moravska-ostrava.html","192"
"6","Veterinář","Veterinární ordinace - MVDr. Richard Saviola","https://www.firmy.cz/detail/477150-veterinarni-ordinace-mvdr-richard-saviola-ostrava-moravska-ostrava.html","1171"
"7","Kino","Studio Karel","https://www.firmy.cz/detail/12950378-studio-karel-ostrava-moravska-ostrava.html","167"
"8","Školka","TUČŇÁKOVA ŠKOLKA","https://www.firmy.cz/detail/2643941-tucnakova-skolka-ostrava-moravska-ostrava.html","269"
"9","Sportoviště","SKS GAMES, s.r.o.","https://www.firmy.cz/detail/12797496-sks-games-ostrava-moravska-ostrava.html","36"
"10","Škola","NEWPORT INTERNATIONAL UNIVERSITY, s.r.o.","https://www.firmy.cz/detail/586886-newport-international-university-ostrava-moravska-ostrava.html","129"
"11","Bankomat","Bankomat Sberbank CZ","https://www.firmy.cz/detail/658899-bankomat-sberbank-cz-ostrava-moravska-ostrava.html","95"
"12","Bus MHD","Most M. Sýkory","https://mapy.cz/zakladni?x=18.2939555169&y=49.836858192&z=17&source=pubt&id=15202575","362"
"13","Restaurace","Gokana Sushi Bar","https://www.firmy.cz/detail/2168869-gokana-sushi-bar-ostrava-moravska-ostrava.html","25"
"14","Vlak","Ostrava-Stodolní","https://mapy.cz/zakladni?x=18.2809778624&y=49.8344412946&z=17&source=pubt&id=15213504","651"
"15","Tram","Elektra","https://mapy.cz/zakladni?x=18.2879696894288&y=49.8342699568859&z=17&source=pubt&id=15202715","160"
"16","Lékárna","Lékárna Apavar","https://www.firmy.cz/detail/13074258-lekarna-apavar-ostrava-moravska-ostrava.html","226"
"17","Lékař","MUDr. Jarmila Fialová","https://www.firmy.cz/detail/370609-mudr-jarmila-fialova-ostrava-moravska-ostrava.html","114"
"18","Pošta","Pošta Ostrava 1 - Česká pošta, s.p.","https://www.firmy.cz/detail/452777-posta-ostrava-1-ostrava-moravska-ostrava.html","354"
"19","Obchod","Obchodní centrum LASO","https://www.firmy.cz/detail/2071391-obchodni-centrum-laso-ostrava-moravska-ostrava.html","286"
