"","facility_type","facility_name","facility_iri","facility_distance"
"0","Cukrárna","Bistro Hawranek","https://www.firmy.cz/detail/13141188-bistro-hawranek-brno-slatina.html","943"
"1","Přírodní zajímavost","Cesta rákosím","","4193"
"2","Hřiště","Dětské hřiště Vlnitá","","239"
"3","Večerka","Můjobchod - Potraviny Bodi","https://www.firmy.cz/detail/2314355-mujobchod-potraviny-bodi-brno-slatina.html","140"
"4","Hospoda","Restaurace u Vedrů","https://www.firmy.cz/detail/337828-restaurace-u-vedru-brno-slatina.html","158"
"5","Divadlo","divadlo LÍŠEŇ","https://www.firmy.cz/detail/2145854-divadlo-lisen-brno-lisen.html","3241"
"6","Veterinář","MVDr. Pavla Trnková","https://www.firmy.cz/detail/477128-mvdr-pavla-trnkova-brno-slatina.html","162"
"7","Bankomat","Bankomat Komerční banky","https://www.firmy.cz/detail/2419871-bankomat-komercni-banky-brno-slatina.html","250"
"8","Bus MHD","Langrova","","70"
"9","Škola","ZŠ a MŠ Brno, Jihomoravské náměstí","https://www.firmy.cz/detail/356507-zs-a-ms-brno-jihomoravske-namesti-brno-slatina.html","270"
"10","Pošta","Pošta Brno 27 - Česká pošta, s.p.","https://www.firmy.cz/detail/431934-posta-brno-27-brno-slatina.html","308"
"11","Lékárna","Lékárna ALTHAEA","https://www.firmy.cz/detail/13008658-lekarna-althaea-brno-slatina.html","268"
"12","Vlak","Brno-Slatina","","1082"
"13","Školka","ZŠ a MŠ Brno, Jihomoravské náměstí","https://www.firmy.cz/detail/2645683-zs-a-ms-brno-jihomoravske-namesti-brno-slatina.html","270"
"14","Sportoviště","Badmintonový club RSC Brno","https://www.firmy.cz/detail/1161585-badmintonovy-club-rsc-brno-brno-slatina.html","490"
"15","Tram","Podstránská","","1458"
"16","Restaurace","Mộc BBQ House","https://www.firmy.cz/detail/13296514-moc-bbq-house-brno-slatina.html","217"
"17","Obchod","Kaufland","https://www.firmy.cz/detail/12933951-kaufland-brno-slatina.html","1095"
"18","Lékař","MUDr. Martina Raková","https://www.firmy.cz/detail/387699-mudr-martina-rakova-brno-slatina.html","241"
