"","facility_type","facility_name","facility_iri","facility_distance"
"0","Hřiště","Dětské hřiště Sazovická","https://mapy.cz/zakladni?x=14.2837795215&y=50.0570761305&z=17&source=base&id=1926485","46"
"1","Večerka","ASU Market","https://www.firmy.cz/detail/13336453-asu-market-praha-zlicin.html","151"
"2","Hospoda","Hospůdka Na Hrázi","https://www.firmy.cz/detail/13006982-hospudka-na-hrazi-praha-sobin.html","1573"
"3","Veterinář","Veterinární klinika Delta MVDr.Michael Růžička, s.r.o.","https://www.firmy.cz/detail/12957413-veterinarni-klinika-delta-mvdr-michael-ruzicka-praha-repy.html","1699"
"4","Divadlo","Divadelní studio Bubec","https://www.firmy.cz/detail/13047862-divadelni-studio-bubec-praha-reporyje.html","2890"
"5","Cukrárna","Café Globus","https://www.firmy.cz/detail/12919098-cafe-globus-praha-trebonice.html","973"
"6","Kino","Cinema City Zličín","https://www.firmy.cz/detail/436222-cinema-city-zlicin-praha-trebonice.html","393"
"7","Restaurace","U sousedů na Zličíně","https://www.firmy.cz/detail/13159501-u-sousedu-na-zlicine-praha-zlicin.html","264"
"8","Lékárna","Dr. Max","https://www.firmy.cz/detail/2007135-dr-max-praha-trebonice.html","552"
"9","Školka","Mateřská škola Praha","https://www.firmy.cz/detail/13276820-materska-skola-praha-praha-zlicin.html","149"
"10","Bankomat","Raiffeisenbank - bankomat","https://www.firmy.cz/detail/13262713-raiffeisenbank-bankomat-praha-trebonice.html","443"
"11","Pošta","Pošta Praha 517 - Česká pošta, s.p.","https://www.firmy.cz/detail/431312-posta-praha-517-praha-zlicin.html","696"
"12","Lékař","MUDr. Marta Mikulejská","https://www.firmy.cz/detail/381863-mudr-marta-mikulejska-praha-zlicin.html","541"
"13","Vlak","Praha-Zličín","https://mapy.cz/zakladni?x=14.2977438277&y=50.0641750381&z=17&source=pubt&id=15212589","1230"
"14","Bus MHD","Nový Zličín","https://mapy.cz/zakladni?x=14.28334&y=50.05567&z=17&source=pubt&id=18450157","184"
"15","Škola","Základní škola Praha 5","https://www.firmy.cz/detail/13276817-zakladni-skola-praha-5-praha-zlicin.html","149"
"16","Tram","Sídliště Řepy","https://mapy.cz/zakladni?x=14.2980560731&y=50.0654219309&z=17&source=pubt&id=15302307","1338"
"17","Obchod","METROPOLE ZLIČÍN centrum módy a zábavy","https://www.firmy.cz/detail/448136-metropole-zlicin-centrum-mody-a-zabavy-praha-trebonice.html","438"
"18","Metro","Zličín","https://mapy.cz/zakladni?x=14.2906764069&y=50.0537241139&z=17&source=pubt&id=15200255","590"
"19","Sportoviště","Best Bowling","https://www.firmy.cz/detail/580770-best-bowling-praha-trebonice.html","409"
