"","facility_type","facility_name","facility_iri","facility_distance"
"0","Cukrárna","Studio krásy Markéta","https://www.firmy.cz/detail/12829612-studio-krasy-marketa-jablonec-nad-nisou.html","305"
"1","Kino","Letní kino Jablonec nad Nisou","https://www.firmy.cz/detail/13333339-letni-kino-jablonec-nad-nisou-jablonec-nad-nisou.html","544"
"2","Hřiště","Dětské hřiště Jizerská","","55"
"3","Večerka","Lidl","https://www.firmy.cz/detail/2374063-lidl-jablonec-nad-nisou.html","253"
"4","Hospoda","Herna Formanka","https://www.firmy.cz/detail/12826141-herna-formanka-jablonec-nad-nisou.html","310"
"5","Divadlo","Městské divadlo Jablonec nad Nisou, o.p.s.","https://www.firmy.cz/detail/396944-mestske-divadlo-jablonec-nad-nisou-jablonec-nad-nisou.html","541"
"6","Veterinář","Veterinární klinika Bedrníkovi","https://www.firmy.cz/detail/13343024-veterinarni-klinika-bedrnikovi-jablonec-nad-nisou.html","558"
"7","Školka","MŠ Jablonec nad Nisou, Nemocniční","https://www.firmy.cz/detail/12817116-ms-jablonec-nad-nisou-nemocnicni-jablonec-nad-nisou.html","234"
"8","Bus MHD","Petra Bezruče","","61"
"9","Vlak","Jablonec nad Nisou","","955"
"10","Sportoviště","DELUKO sports, s. r. o.","https://www.firmy.cz/detail/13193132-deluko-sports-s-r-o-jablonec-nad-nisou.html","531"
"11","Bankomat","Bankomat České spořitelny","https://www.firmy.cz/detail/13238781-bankomat-ceske-sporitelny-jablonec-nad-nisou.html","300"
"12","Škola","Gymnázium Dr. Antona Randy, Jablonec nad Nisou","https://www.firmy.cz/detail/362232-gymnazium-dr-antona-randy-jablonec-nad-nisou-jablonec-nad-nisou.html","138"
"13","Tram","Vratislavice nad Nisou, výhybna","","4510"
"14","Lékař","UltimaMedica, s.r.o.","https://www.firmy.cz/detail/12765784-ultimamedica-jablonec-nad-nisou.html","96"
"15","Lékárna","Nemocniční lékárna","https://www.firmy.cz/detail/421120-nemocnicni-lekarna-jablonec-nad-nisou.html","314"
"16","Obchod","Central Jablonec","https://www.firmy.cz/detail/13045427-central-jablonec-jablonec-nad-nisou.html","655"
"17","Pošta","Pošta Jablonec nad Nisou 1 - Česká pošta, s.p.","https://www.firmy.cz/detail/215524-posta-jablonec-nad-nisou-1-jablonec-nad-nisou.html","528"
"18","Restaurace","Restaurace Mladých","https://www.firmy.cz/detail/13111529-restaurace-mladych-jablonec-nad-nisou.html","310"
