"","facility_type","facility_name","facility_iri","facility_distance"
"0","Cukrárna","Kavárna v Pasáži Sofie","https://www.firmy.cz/detail/13124074-kavarna-v-pasazi-sofie-praha-modrany.html","900"
"1","Kino","Modřanský biograf","https://www.firmy.cz/detail/13272765-modransky-biograf-praha-modrany.html","1902"
"2","Hřiště","Dětské hřiště Vitošská","","213"
"3","Večerka","Koloniál JiFi","https://www.firmy.cz/detail/1952239-kolonial-jifi-praha-modrany.html","108"
"4","Hospoda","Restaurace Sázava","https://www.firmy.cz/detail/13173848-restaurace-sazava-praha-modrany.html","160"
"5","Divadlo","Divadlo Na Cikorce","https://www.firmy.cz/detail/2387865-divadlo-na-cikorce-praha-modrany.html","1222"
"6","Veterinář","Náš veterinář - MVDr. Nikola Hanáková","https://www.firmy.cz/detail/13011207-nas-veterinar-mvdr-nikola-hanakova-praha-modrany.html","1040"
"7","Lékárna","Lékárna Zárubova","https://www.firmy.cz/detail/12969934-lekarna-zarubova-praha-kamyk.html","800"
"8","Bankomat","Bankomat Fio banky","https://www.firmy.cz/detail/12936423-bankomat-fio-banky-praha-modrany.html","139"
"9","Restaurace","Pizzerie Gattino","https://www.firmy.cz/detail/13101581-pizzerie-gattino-praha-modrany.html","124"
"10","Pošta","Pošta Praha 412 - Česká pošta, s.p.","https://www.firmy.cz/detail/217477-posta-praha-412-praha-modrany.html","990"
"11","Lékař","MUDr. Miloš Bareš, s.r.o.","https://www.firmy.cz/detail/12838489-mudr-milos-bares-praha-modrany.html","612"
"12","Školka","MŠ Srdíčko v Praze 12","https://www.firmy.cz/detail/659207-ms-srdicko-v-praze-12-praha-modrany.html","221"
"13","Sportoviště","Tenisová škola Tallent","https://www.firmy.cz/detail/722759-tenisova-skola-tallent-praha-modrany.html","429"
"14","Vlak","Praha-Modřany zastávka","","1979"
"15","Obchod","Obchodní pasáž Sofie","https://www.firmy.cz/detail/217785-obchodni-pasaz-sofie-praha-modrany.html","907"
"16","Bus MHD","Modřanská rokle","","256"
"17","Metro","Budějovická","","4080"
"18","Škola","ZŠ a MŠ Angel, Praha 12","https://www.firmy.cz/detail/356176-zs-a-ms-angel-praha-12-praha-modrany.html","85"
"19","Tram","Modřanská rokle","","284"
