"","facility_type","facility_name","facility_iri","facility_distance"
"0","Cukrárna","Cukrárna Zálabská","https://www.firmy.cz/detail/248283-cukrarna-zalabska-kolin-v.html","463"
"1","Kino","Kino 99","https://www.firmy.cz/detail/396396-kino-99-kolin-iv.html","995"
"2","Hřiště","Dětské hřiště","","315"
"3","Večerka","Potraviny Svoboda","https://www.firmy.cz/detail/2332258-potraviny-svoboda-kolin-v.html","298"
"4","Hospoda","U Vodvárků","https://www.firmy.cz/detail/13134873-u-vodvarku-kolin-v.html","301"
"5","Veterinář","A.A.R. Veterinární klinika","https://www.firmy.cz/detail/2012009-a-a-r-veterinarni-klinika-kolin-ii.html","1199"
"6","Divadlo","DIVADLO Kolín","https://www.firmy.cz/detail/230785-divadlo-kolin-kolin-iv.html","915"
"7","Lékař","MUDr. Miroslav Blümel","https://www.firmy.cz/detail/13059733-mudr-miroslav-blumel-kolin-v.html","373"
"8","Restaurace","Pizza Loco","https://www.firmy.cz/detail/13257566-pizza-loco-kolin-v.html","72"
"9","Lékárna","Zálabská lékárna","https://www.firmy.cz/detail/163712-zalabska-lekarna-kolin-v.html","472"
"10","Obchod","OC Futurum Kolín","https://www.firmy.cz/detail/13126332-oc-futurum-kolin-kolin-iv.html","994"
"11","Školka","MŠ Pohádka Kolín","https://www.firmy.cz/detail/2106553-ms-pohadka-kolin-kolin-v.html","273"
"12","Bus MHD","Kolín, Tatradomy","","77"
"13","Vlak","Kolín-Zálabí","","382"
"14","Pošta","Pošta Kolín 3 - Česká pošta, s.p.","https://www.firmy.cz/detail/217244-posta-kolin-3-kolin-v.html","468"
"15","Bankomat","Bankomat Komerční banky","https://www.firmy.cz/detail/13015518-bankomat-komercni-banky-kolin-v.html","420"
"16","Škola","ZŠ Kolín, Mnichovická","https://www.firmy.cz/detail/357722-zs-kolin-mnichovicka-kolin-v.html","324"
"17","Sportoviště","Petr David","https://www.firmy.cz/detail/12845985-petr-david-kolin.html","691"
