"","facility_type","facility_name","facility_iri","facility_distance"
"0","Cukrárna","Cheecup","https://www.firmy.cz/detail/12725253-cheecup-praha-podoli.html","327"
"1","Kino","CineStar Anděl","https://www.firmy.cz/detail/2537565-cinestar-andel-praha-smichov.html","2272"
"2","Přírodní zajímavost","Kovářovic mez","","4292"
"3","Hřiště","Dětské hřiště Podolská","","101"
"4","Večerka","Koloniál - lahůdky","https://www.firmy.cz/detail/2455523-kolonial-lahudky-praha-podoli.html","33"
"5","Hospoda","BEER BAR Na Veseli","https://www.firmy.cz/detail/2553652-beer-bar-na-veseli-praha-nusle.html","1635"
"6","Divadlo","TotO Divadlo","https://www.firmy.cz/detail/2262258-toto-divadlo-praha-nusle.html","1066"
"7","Veterinář","MVDr. Lucie Boháčová","https://www.firmy.cz/detail/2646562-mvdr-lucie-bohacova-praha-podoli.html","561"
"8","Lékař","MUDr. Marcela Cesarová","https://www.firmy.cz/detail/379326-mudr-marcela-cesarova-praha-podoli.html","567"
"9","Tram","Kublov","","76"
"10","Bus MHD","Podolská vodárna","","487"
"11","Škola","ZŠ Praha 4, Nedvědovo náměstí","https://www.firmy.cz/detail/401410-zs-praha-4-nedvedovo-namesti-praha-podoli.html","412"
"12","Sportoviště","Pétanque Podolské nábřeží","","132"
"13","Bankomat","Bankomat Komerční banky","https://www.firmy.cz/detail/1348730-bankomat-komercni-banky-praha-podoli.html","498"
"14","Pošta","Pošta Praha 49 - Česká pošta, s.p.","https://www.firmy.cz/detail/217479-posta-praha-49-praha-podoli.html","505"
"15","Restaurace","Hostinec Na Staré Sokolovně","https://www.firmy.cz/detail/2037269-hostinec-na-stare-sokolovne-praha-podoli.html","33"
"16","Školka","MŠ Praha 4, Voráčovská","https://www.firmy.cz/detail/628792-ms-praha-4-voracovska-praha-podoli.html","463"
"17","Lékárna","Lékárna v Podolí, s.r.o.","https://www.firmy.cz/detail/269503-lekarna-v-podoli-praha-podoli.html","589"
"18","Vlak","Praha-Smíchov","","1121"
"19","Obchod","Arkády Pankrác","https://www.firmy.cz/detail/2245240-arkady-pankrac-praha-nusle.html","1369"
"20","Metro","Smíchovské nádraží","","975"
