"","facility_type","facility_name","facility_iri","facility_distance"
"0","Cukrárna","Cukrárna Kapucín","https://www.firmy.cz/detail/242250-cukrarna-kapucin-cheb.html","1092"
"1","Kino","Kino Svět","https://www.firmy.cz/detail/451706-kino-svet-cheb.html","1366"
"2","Hřiště","Dětské hřiště Lesní","","189"
"3","Večerka","Potraviny Ohana","https://www.firmy.cz/detail/12973205-potraviny-ohana-cheb.html","250"
"4","Hospoda","Pivnice Lucky","https://www.firmy.cz/detail/13010098-pivnice-lucky-cheb.html","1208"
"5","Divadlo","Západočeské divadlo v Chebu","https://www.firmy.cz/detail/396999-zapadoceske-divadlo-v-chebu-cheb.html","1030"
"6","Veterinář","MVDr. Miroslav Valouch","https://www.firmy.cz/detail/257206-mvdr-miroslav-valouch-cheb.html","1558"
"7","Bankomat","Bankomat České spořitelny","https://www.firmy.cz/detail/591824-bankomat-ceske-sporitelny-cheb.html","1101"
"8","Vlak","Cheb-Skalka","","371"
"9","Pošta","Pošta Cheb 4 - Česká pošta, s.p.","https://www.firmy.cz/detail/216435-posta-cheb-4-cheb.html","273"
"10","Restaurace","Hospoda Skalka","https://www.firmy.cz/detail/13136303-hospoda-skalka-cheb.html","238"
"11","Obchod","Albert Hypermarket","https://www.firmy.cz/detail/12920930-albert-hypermarket-cheb.html","1128"
"12","Bus MHD","Cheb, Skalka Přátelství","","136"
"13","Sportoviště","Tenisklub Cheb","https://www.firmy.cz/detail/299193-tenisklub-cheb-cheb.html","426"
"14","Lékař","MUDr. Daniela Kučerová","https://www.firmy.cz/detail/378582-mudr-daniela-kucerova-cheb.html","117"
"15","Lékárna","Lékárna BONATE","https://www.firmy.cz/detail/12889793-lekarna-bonate-cheb.html","778"
"16","Školka","MŠ Cheb, Do Zátiší","https://www.firmy.cz/detail/2146824-ms-cheb-do-zatisi-cheb.html","287"
"17","Škola","1. ZŠ Cheb, Americká","https://www.firmy.cz/detail/357333-1-zs-cheb-americka-cheb.html","117"
