"","facility_type","facility_name","facility_iri","facility_distance"
"0","Cukrárna","Cukrárna Na Londě","https://www.firmy.cz/detail/13145679-cukrarna-na-londe-slany.html","106"
"1","Kino","Městské kino Slaný","https://www.firmy.cz/detail/2607315-mestske-kino-slany-slany.html","269"
"2","Hřiště","Dětské hřiště Na Sadech","","222"
"3","Večerka","Můjobchod - Potraviny T&A","https://www.firmy.cz/detail/13317256-mujobchod-potraviny-t-a-slany.html","140"
"4","Hospoda","Na Růžku","https://www.firmy.cz/detail/13122221-na-ruzku-slany.html","234"
"5","Divadlo","Městské divadlo Slaný","https://www.firmy.cz/detail/653930-mestske-divadlo-slany-slany.html","243"
"6","Veterinář","MVDr. Ivan Soukup","https://www.firmy.cz/detail/12904079-mvdr-ivan-soukup-slany.html","580"
"7","Škola","ZŠ Slaný, Palackého","https://www.firmy.cz/detail/2113689-zs-slany-palackeho-slany.html","80"
"8","Sportoviště","Sportovní hala BIOS","https://www.firmy.cz/detail/13246716-sportovni-hala-bios-slany.html","223"
"9","Lékař","MUDr. Kučera Michael, MediClinic a.s.","https://www.firmy.cz/detail/12761172-mudr-kucera-michael-mediclinic-a-s-slany.html","108"
"10","Bankomat","Bankomat MONETA Money Bank","https://www.firmy.cz/detail/602917-bankomat-moneta-money-bank-slany.html","48"
"11","Obchod","Kaufland","https://www.firmy.cz/detail/1357218-kaufland-slany.html","563"
"12","Bus MHD","Slaný, Palackého","","67"
"13","Školka","ZŠ a MŠ Montessori Slaný","https://www.firmy.cz/detail/13277176-zs-a-ms-montessori-slany-slany.html","80"
"14","Pošta","Pošta Slaný 1 - Česká pošta, s.p.","https://www.firmy.cz/detail/215272-posta-slany-1-slany.html","247"
"15","Restaurace","Slánská Kozlovna","https://www.firmy.cz/detail/13321699-slanska-kozlovna-slany.html","54"
"16","Vlak","Slaný","","731"
"17","Lékárna","Dr. Max LÉKÁRNA","https://www.firmy.cz/detail/12725600-dr-max-lekarna-slany.html","63"
