"","facility_type","facility_name","facility_iri","facility_distance"
"0","Cukrárna","Prostějovská cukrárna, s.r.o.","https://www.firmy.cz/detail/13298394-prostejovska-cukrarna-brno-trnita.html","202"
"1","Kino","5D cinema Maxim","https://www.firmy.cz/detail/12734839-5d-cinema-maxim-brno-mesto.html","604"
"2","Přírodní zajímavost","Cesta rákosím","","4761"
"3","Hřiště","Dětské hřiště Zderadova","","499"
"4","Večerka","ABE market","https://www.firmy.cz/detail/13261985-abe-market-brno-trnita.html","55"
"5","Hospoda","Hospoda u Marcely","https://www.firmy.cz/detail/13138736-hospoda-u-marcely-brno-trnita.html","278"
"6","Divadlo","Divadlo na Orlí","https://www.firmy.cz/detail/12922688-divadlo-na-orli-brno-mesto.html","716"
"7","Veterinář","Veterinární klinika Gabrid","https://www.firmy.cz/detail/477125-veterinarni-klinika-gabrid-brno-trnita.html","179"
"8","Restaurace","Veg8Café","https://www.firmy.cz/detail/12975767-veg8cafe-brno-trnita.html","98"
"9","Pošta","Pošta Brno 1 - Česká pošta, s.p.","https://www.firmy.cz/detail/216017-posta-brno-1-brno-mesto.html","652"
"10","Vlak","Brno hlavní nádraží","","571"
"11","Lékař","MUDr. Libuše Gottvaldová","https://www.firmy.cz/detail/387634-mudr-libuse-gottvaldova-brno-trnita.html","340"
"12","Školka","ZŠ a MŠ Brno, Křenová","https://www.firmy.cz/detail/725953-zs-a-ms-brno-krenova-brno-trnita.html","130"
"13","Tram","Vlhká","","156"
"14","Lékárna","Dr.Max LÉKÁRNA","https://www.firmy.cz/detail/13001181-dr-max-lekarna-brno-mesto.html","551"
"15","Bankomat","Bankomat Komerční banky","https://www.firmy.cz/detail/13229592-bankomat-komercni-banky-brno-trnita.html","359"
"16","Obchod","Albert Hypermarket","https://www.firmy.cz/detail/12922456-albert-hypermarket-brno-trnita.html","491"
"17","Sportoviště","Gym&Joy - squash","https://www.firmy.cz/detail/13248950-gym-joy-squash-brno-trnita.html","150"
"18","Bus MHD","Zvonařka","","368"
"19","Škola","Gymnázium Brno, Křenová 36","https://www.firmy.cz/detail/360844-gymnazium-brno-krenova-36-brno-trnita.html","75"
