"","facility_type","facility_name","facility_iri","facility_distance"
"0","Hřiště","Dětské hřiště Písečná","https://mapy.cz/zakladni?x=13.4402075&y=50.4866413889&z=17&source=base&id=2110185","124"
"1","Večerka","Potraviny Písečná","https://www.firmy.cz/detail/13314604-potraviny-pisecna-chomutov.html","107"
"2","Hospoda","Hospoda Mustang","https://www.firmy.cz/detail/13117602-hospoda-mustang-chomutov.html","175"
"3","Veterinář","MVDr. Pavel Klier","https://www.firmy.cz/detail/2273882-mvdr-pavel-klier-chomutov.html","125"
"4","Cukrárna","Cukrárna U Čížků","https://www.firmy.cz/detail/13278821-cukrarna-u-cizku-jirkov.html","1617"
"5","Kino","KINO JIRKOV, s.r.o.","https://www.firmy.cz/detail/12963927-kino-jirkov-jirkov.html","1634"
"6","Divadlo","Městské divadlo Chomutov","https://www.firmy.cz/detail/2644644-mestske-divadlo-chomutov-chomutov.html","3037"
"7","Lékárna","U Hvězdy","https://www.firmy.cz/detail/658120-u-hvezdy-chomutov.html","140"
"8","Sportoviště","Pétanque Chomutov","https://mapy.cz/zakladni?x=13.4397211111&y=50.4876255556&z=17&source=base&id=2083495","162"
"9","Školka","MŠ Chomutov, Písečná","https://www.firmy.cz/detail/1345661-ms-chomutov-pisecna-chomutov.html","165"
"10","Pošta","Pošta Chomutov 5 - Česká pošta, s.p.","https://www.firmy.cz/detail/215279-posta-chomutov-5-chomutov.html","161"
"11","Vlak","Jirkov zastávka","https://mapy.cz/zakladni?x=13.4476318475&y=50.4855652696&z=17&source=pubt&id=15211671","653"
"12","Lékař","MUDr. Anna Bittnerová","https://www.firmy.cz/detail/12841213-mudr-anna-bittnerova-chomutov.html","107"
"13","Restaurace","Restaurace Slunce","https://www.firmy.cz/detail/13115434-restaurace-slunce-chomutov.html","182"
"14","Obchod","Kaufland","https://www.firmy.cz/detail/2616230-kaufland-otvice.html","465"
"15","Bus MHD","Písečná zdrav.stř.","https://mapy.cz/zakladni?x=13.437349299653249&y=50.48638472073493&z=17&source=pubt&id=15298057","81"
"16","Bankomat","Bankomat České spořitelny","https://www.firmy.cz/detail/591868-bankomat-ceske-sporitelny-chomutov.html","143"
"17","Škola","ZŠ Chomutov, Zahradní","https://www.firmy.cz/detail/357377-zs-chomutov-zahradni-chomutov.html","252"
