"","facility_type","facility_name","facility_iri","facility_distance"
"0","Hřiště","Dětské hřiště Merhautova","https://mapy.cz/zakladni?x=16.628693351&y=49.2161266234&z=17&source=base&id=2109960","150"
"1","Večerka","Albert Supermarket","https://www.firmy.cz/detail/446705-albert-supermarket-brno-cerna-pole.html","53"
"2","Cukrárna","Fügner Café - Radek Strážnický","https://www.firmy.cz/detail/13141491-fugner-cafe-brno-cerna-pole.html","235"
"3","Veterinář","VeriVet","https://www.firmy.cz/detail/13247412-verivet-brno-cerna-pole.html","291"
"4","Hospoda","Hostinec U Franty","https://www.firmy.cz/detail/13137779-hostinec-u-franty-brno-husovice.html","680"
"5","Divadlo","Divadlo Kufr","https://www.firmy.cz/detail/585512-divadlo-kufr-brno-husovice.html","404"
"6","Kino","Kino Art","https://www.firmy.cz/detail/451540-kino-art-brno-veveri.html","2114"
"7","Přírodní zajímavost","Přírodní zahrada U Smrku","https://mapy.cz/zakladni?x=16.58765420430356&y=49.22807918152045&z=17&source=base&id=2324158","3138"
"8","Restaurace","Pablo Eat& Shop","https://www.firmy.cz/detail/13204074-pablo-eat-shop-brno-cerna-pole.html","88"
"9","Škola","Masarykova ZŠ a MŠ Brno, Zemědělská","https://www.firmy.cz/detail/356552-masarykova-zs-a-ms-brno-zemedelska-brno-cerna-pole.html","538"
"10","Bus MHD","Merhautova","https://mapy.cz/zakladni?x=16.62758224552789&y=49.21493003166524&z=17&source=pubt&id=15205359","130"
"11","Školka","MŠ Brno, Tišnovská","https://www.firmy.cz/detail/1447258-ms-brno-tisnovska-brno-cerna-pole.html","219"
"12","Pošta","Pošta Brno 13 - Česká pošta, s.p.","https://www.firmy.cz/detail/216032-posta-brno-13-brno-cerna-pole.html","583"
"13","Sportoviště","Tělocvična Orel jednota Brno - Husovice","https://www.firmy.cz/detail/1962465-telocvicna-orel-jednota-brno-husovice-brno-husovice.html","524"
"14","Obchod","Tesco","https://www.firmy.cz/detail/429290-tesco-brno-ponava.html","1322"
"15","Tram","Štefánikova čtvrť","https://mapy.cz/zakladni?x=16.6278430125&y=49.2167359138&z=17&source=pubt&id=15205365","125"
"16","Lékárna","Lékárna Astra","https://www.firmy.cz/detail/421699-lekarna-astra-brno-cerna-pole.html","397"
"17","Lékař","MUDr. Eva Hamžová","https://www.firmy.cz/detail/385909-mudr-eva-hamzova-brno-cerna-pole.html","484"
"18","Vlak","Brno-Lesná","https://mapy.cz/zakladni?x=16.6264546944&y=49.22077435&z=17&source=pubt&id=15698556","540"
"19","Bankomat","Bankomat Komerční banky","https://www.firmy.cz/detail/13131040-bankomat-komercni-banky-brno-cerna-pole.html","88"
