"","facility_type","facility_name","facility_iri","facility_distance"
"0","Cukrárna","Anniny dorty","https://www.firmy.cz/detail/13307017-anniny-dorty-plzen-jizni-predmesti.html","1135"
"1","Kino","Kino Beseda","https://www.firmy.cz/detail/12773769-kino-beseda-plzen-jizni-predmesti.html","2506"
"2","Hřiště","Dětské hřiště Čermákova","","637"
"3","Večerka","Žabka","https://www.firmy.cz/detail/12976651-zabka-plzen-jizni-predmesti.html","989"
"4","Hospoda","Pivnice Slavia","https://www.firmy.cz/detail/12766272-pivnice-slavia-plzen-jizni-predmesti.html","1281"
"5","Divadlo","Divadlo pod lampou, o.p.s.","https://www.firmy.cz/detail/2418226-divadlo-pod-lampou-plzen-jizni-predmesti.html","1688"
"6","Veterinář","RPVET - VETERINÁRNÍ KLINIKA A POHOTOVOST MVDr. RADEK PROTIVA a kol.","https://www.firmy.cz/detail/13318056-rpvet-veterinarni-klinika-a-pohotovost-mvdr-radek-protiva-a-kol-plzen-jizni-predmesti.html","1137"
"7","Bus MHD","Goldscheiderova","","263"
"8","Lékárna","Dr. Max LÉKÁRNA","https://www.firmy.cz/detail/2570158-dr-max-lekarna-plzen-jizni-predmesti.html","658"
"9","Pošta","Pošta Plzeň 20 - Česká pošta, s.p.","https://www.firmy.cz/detail/216643-posta-plzen-20-plzen-jizni-predmesti.html","1041"
"10","Restaurace","Burger King","https://www.firmy.cz/detail/13232879-burger-king-plzen.html","608"
"11","Tram","Technická","","71"
"12","Školka","Školička Babetka","https://www.firmy.cz/detail/12884846-skolicka-babetka-plzen-jizni-predmesti.html","556"
"13","Vlak","Plzeň-Skvrňany","","1626"
"14","Škola","Střední škola informatiky a finančních služeb Plzeň","https://www.firmy.cz/detail/360887-stredni-skola-informatiky-a-financnich-sluzeb-plzen-plzen-jizni-predmesti.html","764"
"15","Bankomat","Bankomat UniCredit Bank Czech Republic","https://www.firmy.cz/detail/12934682-bankomat-unicredit-bank-czech-republic-plzen-jizni-predmesti.html","234"
"16","Sportoviště","LTC Slavoj Plzeň","https://www.firmy.cz/detail/720050-ltc-slavoj-plzen-plzen-jizni-predmesti.html","1096"
"17","Lékař","MUDr. Danuše Vovsíková","https://www.firmy.cz/detail/390304-mudr-danuse-vovsikova-plzen-jizni-predmesti.html","1004"
"18","Obchod","Kaufland","https://www.firmy.cz/detail/2616232-kaufland-plzen-jizni-predmesti.html","658"
