"","facility_type","facility_name","facility_iri","facility_distance"
"0","Cukrárna","Laura Coffee","https://www.firmy.cz/detail/2699135-laura-coffee-ostrava-hrabuvka.html","443"
"1","Kino","Kino Luna","https://www.firmy.cz/detail/2642805-kino-luna-ostrava-zabreh.html","2014"
"2","Přírodní zajímavost","Zábřežský bludný balvan","","1911"
"3","Hřiště","Dětské hřiště Pavlovova","","623"
"4","Večerka","POTRAVINY EXPRES","https://www.firmy.cz/detail/13056846-potraviny-expres-ostrava-hrabuvka.html","27"
"5","Divadlo","Divadlo U Lípy","https://www.firmy.cz/detail/2121467-divadlo-u-lipy-ostrava-zabreh.html","493"
"6","Hospoda","U Gizda","https://www.firmy.cz/detail/13149236-u-gizda-ostrava-hrabuvka.html","27"
"7","Veterinář","MVDr. Petr Stankoci - Veterinární ordinace","https://www.firmy.cz/detail/1957076-mvdr-petr-stankoci-veterinarni-ordinace-ostrava-hrabuvka.html","261"
"8","Restaurace","Restaurace Aero s místním pivovarem","https://www.firmy.cz/detail/13162148-restaurace-aero-s-mistnim-pivovarem-ostrava-hrabuvka.html","290"
"9","Lékárna","Lékárna Jih","https://www.firmy.cz/detail/12713531-lekarna-jih-ostrava-hrabuvka.html","481"
"10","Pošta","Pošta Ostrava 46","https://www.firmy.cz/detail/433384-posta-ostrava-46-ostrava-hrabuvka.html","443"
"11","Školka","MŠ Harmonie Ostrava - Hrabůvka, Šponarova","https://www.firmy.cz/detail/2296773-ms-harmonie-ostrava-hrabuvka-sponarova-ostrava-hrabuvka.html","228"
"12","Bankomat","Bankomat UniCredit Bank Czech Republic","https://www.firmy.cz/detail/12767973-bankomat-unicredit-bank-czech-republic-ostrava-hrabuvka.html","394"
"13","Lékař","MUDr. Hana Vaňáková, s.r.o.","https://www.firmy.cz/detail/13311966-mudr-hana-vanakova-ostrava-hrabuvka.html","177"
"14","Tram","ÚMOb Jih","","356"
"15","Bus MHD","Sámova","","179"
"16","Obchod","Kaufland","https://www.firmy.cz/detail/1461415-kaufland-ostrava-zabreh.html","1981"
"17","Vlak","Ostrava-Vítkovice","","1191"
"18","Sportoviště","GOLF PROMOTE, s.r.o.","https://www.firmy.cz/detail/2397665-golf-promote-ostrava-zabreh.html","866"
"19","Škola","ZUŠ Viléma Petrželky, Ostrava","https://www.firmy.cz/detail/430185-zus-vilema-petrzelky-ostrava-ostrava-hrabuvka.html","283"
