"","facility_type","facility_name","facility_iri","facility_distance"
"0","Cukrárna","Cukrárna a Kavárna Na Míráku","https://www.firmy.cz/detail/12846155-cukrarna-a-kavarna-na-miraku-mlada-boleslav.html","685"
"1","Kino","CineStar Mladá Boleslav","https://www.firmy.cz/detail/2109584-cinestar-mlada-boleslav-mlada-boleslav-ii.html","1113"
"2","Přírodní zajímavost","Syslí kolonie","","1728"
"3","Hřiště","Dětské hřiště Gellnerova","","247"
"4","Večerka","Žabka","https://www.firmy.cz/detail/12976683-zabka-mlada-boleslav-ii.html","369"
"5","Hospoda","Pivnice Eden","https://www.firmy.cz/detail/13151685-pivnice-eden-mlada-boleslav-iv.html","307"
"6","Divadlo","Městské divadlo Mladá Boleslav","https://www.firmy.cz/detail/401491-mestske-divadlo-mlada-boleslav-mlada-boleslav-ii.html","504"
"7","Veterinář","CHOVATEL L +  L  s. r. o.","https://www.firmy.cz/detail/13161784-chovatel-l-l-s-r-o-mlada-boleslav-ii.html","754"
"8","Lékárna","Lékárna Centrálka","https://www.firmy.cz/detail/375306-lekarna-centralka-mlada-boleslav-ii.html","757"
"9","Lékař","MB-medilis s.r.o.","https://www.firmy.cz/detail/13284037-mb-medilis-s-r-o-mlada-boleslav-ii.html","345"
"10","Restaurace","Pho Viet","https://www.firmy.cz/detail/13232677-pho-viet-mlada-boleslav-iv.html","105"
"11","Bus MHD","Ptácká","","62"
"12","Pošta","Pošta Mladá Boleslav 1 - Česká pošta, s.p.","https://www.firmy.cz/detail/217182-posta-mlada-boleslav-1-mlada-boleslav-ii.html","600"
"13","Obchod","BONDY CENTRUM","https://www.firmy.cz/detail/13215694-bondy-centrum-mlada-boleslav-ii.html","1073"
"14","Vlak","Mladá Boleslav město","","1105"
"15","Škola","Střední průmyslová škola, Mladá Boleslav","https://www.firmy.cz/detail/362035-stredni-prumyslova-skola-mlada-boleslav-mlada-boleslav-ii.html","289"
"16","Sportoviště","Tělocvičná jednota Sokol MB","https://www.firmy.cz/detail/449780-telocvicna-jednota-sokol-mb-mlada-boleslav-ii.html","504"
"17","Bankomat","Bankomat UniCredit Bank Czech Republic","https://www.firmy.cz/detail/2399424-bankomat-unicredit-bank-czech-republic-mlada-boleslav-ii.html","499"
"18","Školka","Střední škola, Základní škola, Mateřská škola, Dětský domov a Speciálně pedagogické centrum Mladá Boleslav","https://www.firmy.cz/detail/2575717-stredni-skola-zakladni-skola-materska-skola-detsky-domov-a-specialne-pedagogicke-centrum-mlada-boleslav-mlada-boleslav-ii.html","620"
