"","facility_type","facility_name","facility_iri","facility_distance"
"0","Cukrárna","OVOCNÝ SVĚTOZOR","https://www.firmy.cz/detail/13151180-ovocny-svetozor-praha-stodulky.html","409"
"1","Kino","Cinema City Zličín","https://www.firmy.cz/detail/436222-cinema-city-zlicin-praha-trebonice.html","2519"
"2","Přírodní zajímavost","Kovářovic mez","","3778"
"3","Hřiště","Dětské hřiště Nevanova","","149"
"4","Večerka","BILLA","https://www.firmy.cz/detail/212082-billa-praha-repy.html","623"
"5","Hospoda","Pivnice Herna Bílý Beránek","https://www.firmy.cz/detail/12946367-pivnice-herna-bily-beranek-praha-repy.html","232"
"6","Divadlo","MEZINÁRODNÍ CENTRUM TANCE","https://www.firmy.cz/detail/2465676-mezinarodni-centrum-tance-praha-stodulky.html","2430"
"7","Veterinář","VETCENTRUM Duchek s.r.o.","https://www.firmy.cz/detail/723312-vetcentrum-duchek-s-r-o-praha-stodulky.html","885"
"8","Školka","Jesle a MŠ MALÍČKOV","https://www.firmy.cz/detail/1448908-jesle-a-ms-malickov-praha-stodulky.html","98"
"9","Bus MHD","Hlušičkova","","235"
"10","Obchod","OC Řepy","https://www.firmy.cz/detail/13328774-oc-repy-praha-repy.html","736"
"11","Tram","Hlušičkova","","216"
"12","Vlak","Praha-Zličín","","1533"
"13","Škola","Pražská taneční konzervatoř a střední odborná škola, s.r.o.","https://www.firmy.cz/detail/12793880-prazska-tanecni-konzervator-a-stredni-odborna-skola-praha-repy.html","453"
"14","Pošta","Pošta Praha 618 - Česká pošta, s.p.","https://www.firmy.cz/detail/431332-posta-praha-618-praha-repy.html","736"
"15","Lékař","MUDr. David DRESLER - praktický lékař a homeopatie","https://www.firmy.cz/detail/391068-mudr-david-dresler-prakticky-lekar-a-homeopatie-praha-repy.html","887"
"16","Metro","Nemocnice Motol","","1881"
"17","Restaurace","Restaurace U Lípy","https://www.firmy.cz/detail/336708-restaurace-u-lipy-praha-stodulky.html","47"
"18","Lékárna","Dr. Max LÉKÁRNA","https://www.firmy.cz/detail/12726490-dr-max-lekarna-praha-repy.html","784"
"19","Sportoviště","Tenisová škola TALLENT","https://www.firmy.cz/detail/722768-tenisova-skola-tallent-praha-repy.html","973"
"20","Bankomat","Bankomat Euronet","https://www.firmy.cz/detail/13055468-bankomat-euronet-praha-repy.html","109"
