"","facility_type","facility_name","facility_iri","facility_distance"
"0","Cukrárna","Anniny dorty","https://www.firmy.cz/detail/13307017-anniny-dorty-plzen-jizni-predmesti.html","618"
"1","Kino","Kino Beseda","https://www.firmy.cz/detail/12773769-kino-beseda-plzen-jizni-predmesti.html","2307"
"2","Hřiště","Dětské hřiště Šimerova","","43"
"3","Večerka","BILLA","https://www.firmy.cz/detail/437729-billa-plzen-doudlevce.html","272"
"4","Hospoda","Restaurace Skupova 490/24","https://www.firmy.cz/detail/13122148-restaurace-skupova-490-24-plzen-doudlevce.html","272"
"5","Divadlo","Divadlo pod lampou, o.p.s.","https://www.firmy.cz/detail/2418226-divadlo-pod-lampou-plzen-jizni-predmesti.html","1737"
"6","Veterinář","RPVET - VETERINÁRNÍ KLINIKA A POHOTOVOST MVDr. RADEK PROTIVA a kol.","https://www.firmy.cz/detail/13318056-rpvet-veterinarni-klinika-a-pohotovost-mvdr-radek-protiva-a-kol-plzen-jizni-predmesti.html","711"
"7","Lékárna","Lékárna LUNA","https://www.firmy.cz/detail/13204230-lekarna-luna-plzen-doudlevce.html","272"
"8","Školka","55. MŠ Plzeň","https://www.firmy.cz/detail/1314185-55-ms-plzen-plzen-doudlevce.html","231"
"9","Škola","ZŠ speciální Plzeň, Skupova","https://www.firmy.cz/detail/2127815-zs-specialni-plzen-skupova-plzen-doudlevce.html","175"
"10","Vlak","Plzeň-Doudlevce","","512"
"11","Sportoviště","TK Slavia Plzeň","https://www.firmy.cz/detail/166152-tk-slavia-plzen-plzen-jizni-predmesti.html","411"
"12","Pošta","Pošta Partner Plzeň 16","https://www.firmy.cz/detail/13099337-posta-partner-plzen-16-plzen-doudlevce.html","272"
"13","Restaurace","Baarovka Original 1869","https://www.firmy.cz/detail/13140245-baarovka-original-1869-plzen-jizni-predmesti.html","344"
"14","Lékař","MUDr. Jaroslav Štimpl","https://www.firmy.cz/detail/13213816-mudr-jaroslav-stimpl-plzen-jizni-predmesti.html","443"
"15","Bus MHD","Šimerova","","58"
"16","Obchod","Kaufland","https://www.firmy.cz/detail/2616232-kaufland-plzen-jizni-predmesti.html","1137"
"17","Bankomat","Bankomat České spořitelny","https://www.firmy.cz/detail/594023-bankomat-ceske-sporitelny-plzen-doudlevce.html","272"
"18","Tram","Dvořákova","","788"
