"","facility_type","facility_name","facility_iri","facility_distance"
"0","Hřiště","Dětské hřiště Sokolovská","https://mapy.cz/zakladni?x=14.4941159253&y=50.1091505256&z=17&source=base&id=1926999","230"
"1","Přírodní zajímavost","Meandry Rokytky","https://mapy.cz/zakladni?x=14.517104002655032&y=50.098337103299386&z=17&source=base&id=2338360","1948"
"2","Cukrárna","Costa Coffee","https://www.firmy.cz/detail/12999023-costa-coffee-praha-liben.html","383"
"3","Veterinář","VETERINÁRNÍ KLINIKA VET-PET","https://www.firmy.cz/detail/12900541-veterinarni-klinika-vet-pet-praha-prosek.html","1079"
"4","Večerka","Tesco Expres","https://www.firmy.cz/detail/12883781-tesco-expres-praha-liben.html","380"
"5","Kino","Kino Aero","https://www.firmy.cz/detail/399435-kino-aero-praha-zizkov.html","2418"
"6","Hospoda","POHÁDKA","https://www.firmy.cz/detail/643952-pohadka-praha-liben.html","682"
"7","Divadlo","Divadlo Gong","https://www.firmy.cz/detail/230751-divadlo-gong-praha-liben.html","354"
"8","Bankomat","Bankomat České spořitelny","https://www.firmy.cz/detail/594943-bankomat-ceske-sporitelny-praha-liben.html","77"
"9","Lékárna","Lékárna Pharmacentrum Vysočany","https://www.firmy.cz/detail/12962793-lekarna-pharmacentrum-vysocany-praha-vysocany.html","148"
"10","Obchod","Galerie Harfa","https://www.firmy.cz/detail/2333041-galerie-harfa-praha-liben.html","363"
"11","Bus MHD","Českomoravská","https://mapy.cz/zakladni?x=14.4935637729&y=50.105975953&z=17&source=pubt&id=15302328","127"
"12","Sportoviště","FUN ARENA","https://www.firmy.cz/detail/13023439-fun-arena-praha-liben.html","115"
"13","Restaurace","Kozlovna Na Ráně","https://www.firmy.cz/detail/12791495-kozlovna-na-rane-praha-liben.html","98"
"14","Vlak","Praha-Vysočany","https://mapy.cz/zakladni?x=14.4975508502&y=50.1123429996&z=17&source=pubt&id=15698647","650"
"15","Tram","Poliklinika Vysočany","https://mapy.cz/zakladni?x=14.494791872&y=50.1088739816&z=17&source=pubt&id=15302878","217"
"16","Metro","Českomoravská","https://mapy.cz/zakladni?x=14.4930374693115&y=50.1066083335773&z=17&source=pubt&id=15709346","65"
"17","Škola","Střední škola a vyšší odborná škola umělecká a řemeslná","https://www.firmy.cz/detail/2231035-stredni-skola-a-vyssi-odborna-skola-umelecka-a-remeslna-praha-liben.html","217"
"18","Lékař","Městská nemocnice následné péče","https://www.firmy.cz/detail/159403-mestska-nemocnice-nasledne-pece-praha-vysocany.html","126"
"19","Pošta","Pošta Praha 93 - Česká pošta, s.p.","https://www.firmy.cz/detail/217419-posta-praha-93-praha-vysocany.html","596"
"20","Školka","MŠ Praha 9, Kovářská","https://www.firmy.cz/detail/1969091-ms-praha-9-kovarska-praha-liben.html","356"
