"","facility_type","facility_name","facility_iri","facility_distance"
"0","Cukrárna","21 Rock'n'Roll Cafe","https://www.firmy.cz/detail/12799751-21-rock-n-roll-cafe-olomouc-hodolany.html","109"
"1","Kino","Letní kino Olomouc","https://www.firmy.cz/detail/13157654-letni-kino-olomouc-olomouc.html","886"
"2","Hřiště","Dětské hřiště Blanická","","159"
"3","Večerka","Minimarket Masarykova třída","https://www.firmy.cz/detail/13304711-minimarket-masarykova-trida-olomouc.html","108"
"4","Hospoda","LocAle Pub","https://www.firmy.cz/detail/13165832-locale-pub-olomouc-hodolany.html","158"
"5","Divadlo","Divadlo hudby","https://www.firmy.cz/detail/12933426-divadlo-hudby-olomouc.html","1099"
"6","Veterinář","Veterinární ordinace - MVDr. Vojtěch Návělek","https://www.firmy.cz/detail/268477-veterinarni-ordinace-mvdr-vojtech-navelek-olomouc.html","337"
"7","Vlak","Olomouc hlavní nádraží","","547"
"8","Restaurace","Pizzerie Bystřička","https://www.firmy.cz/detail/13154185-pizzerie-bystricka-olomouc.html","90"
"9","Lékárna","Lékárna AVE","https://www.firmy.cz/detail/12877758-lekarna-ave-olomouc-hodolany.html","377"
"10","Lékař","MUDr. Andrea Spurná","https://www.firmy.cz/detail/2542606-mudr-andrea-spurna-olomouc-hodolany.html","188"
"11","Sportoviště","Czech Lawn Tennis Club Olomouc, z.s.","https://www.firmy.cz/detail/13232234-czech-lawn-tennis-club-olomouc-z-s-olomouc-hodolany.html","190"
"12","Školka","Pružná školka","https://www.firmy.cz/detail/12788579-pruzna-skolka-olomouc-hodolany.html","209"
"13","Bankomat","Bankomat Fio banky","https://www.firmy.cz/detail/12935716-bankomat-fio-banky-olomouc.html","90"
"14","Bus MHD","Kosmonautů","","375"
"15","Škola","ZŠ Olomouc, Zeyerova","https://www.firmy.cz/detail/358579-zs-olomouc-zeyerova-olomouc-hodolany.html","197"
"16","Obchod","SENIMO, a.s.","https://www.firmy.cz/detail/298877-senimo-olomouc.html","547"
"17","Tram","Vejdovského","","425"
"18","Pošta","Pošta Olomouc 2 - Česká pošta, s.p.","https://www.firmy.cz/detail/432281-posta-olomouc-2-olomouc-hodolany.html","434"
