"","facility_type","facility_name","facility_iri","facility_distance"
"0","Cukrárna","Café Alegre","https://www.firmy.cz/detail/2384627-cafe-alegre-praha-smichov.html","158"
"1","Kino","CineStar Anděl","https://www.firmy.cz/detail/2537565-cinestar-andel-praha-smichov.html","101"
"2","Přírodní zajímavost","Kovářovic mez","","4075"
"3","Hřiště","Dětské hřiště Mrázovka","","153"
"4","Večerka","Albert Supermarket","https://www.firmy.cz/detail/229746-albert-supermarket-praha-smichov.html","280"
"5","Hospoda","Hospůdka Knoflík","https://www.firmy.cz/detail/2253647-hospudka-knoflik-praha-smichov.html","324"
"6","Divadlo","Divadlo Orfeus","https://www.firmy.cz/detail/413053-divadlo-orfeus-praha-kosire.html","807"
"7","Veterinář","MVDr. Jana Lukešová","https://www.firmy.cz/detail/473617-mvdr-jana-lukesova-praha-smichov.html","282"
"8","Škola","GYMNÁZIUM NA ZATLANCE","https://www.firmy.cz/detail/362394-gymnazium-na-zatlance-praha-smichov.html","59"
"9","Lékárna","Nad Knížecí","https://www.firmy.cz/detail/375034-nad-knizeci-praha-smichov.html","216"
"10","Školka","NESSIE- anglická školka","https://www.firmy.cz/detail/2488322-nessie-anglicka-skolka-praha-smichov.html","536"
"11","Lékař","Poliklinika profesora Řeháka","https://www.firmy.cz/detail/395137-poliklinika-profesora-rehaka-praha-smichov.html","223"
"12","Pošta","Pošta Praha 53 - Česká pošta, s.p.","https://www.firmy.cz/detail/431282-posta-praha-53-praha-smichov.html","230"
"13","Metro","Anděl","","286"
"14","Bus MHD","Anděl","","159"
"15","Tram","Anděl","","231"
"16","Sportoviště","Ronyca","https://www.firmy.cz/detail/2651690-ronyca-praha-smichov.html","154"
"17","Bankomat","Bankomat Sberbank CZ","https://www.firmy.cz/detail/2429005-bankomat-sberbank-cz-praha-smichov.html","221"
"18","Restaurace","Delight restaurant","https://www.firmy.cz/detail/2145142-delight-restaurant-praha-smichov.html","190"
"19","Obchod","Tesco","https://www.firmy.cz/detail/733908-tesco-praha-smichov.html","232"
"20","Vlak","Praha-Smíchov severní nást.","","907"
