"","facility_type","facility_name","facility_iri","facility_distance"
"0","Hřiště","Dětské hřiště Junácká","https://mapy.cz/zakladni?x=14.3700150765&y=50.0849630527&z=17&source=base&id=1927092","143"
"1","Hospoda","Hostinec Drinopol","https://www.firmy.cz/detail/328447-hostinec-drinopol-praha-brevnov.html","197"
"2","Divadlo","KAŠTAN - Scéna Unijazzu","https://www.firmy.cz/detail/397273-kastan-scena-unijazzu-praha-brevnov.html","816"
"3","Večerka","Z-Market","https://www.firmy.cz/detail/12788101-z-market-praha-brevnov.html","181"
"4","Cukrárna","Cukrárna Pod Marjánkou","https://www.firmy.cz/detail/12887308-cukrarna-pod-marjankou-praha-brevnov.html","354"
"5","Veterinář","MVDr. Josef Kubeček","https://www.firmy.cz/detail/275654-mvdr-josef-kubecek-praha-brevnov.html","193"
"6","Kino","Cinema City Nový Smíchov","https://www.firmy.cz/detail/2679838-cinema-city-novy-smichov-praha-smichov.html","2545"
"7","Bankomat","Bankomat MONETA Money Bank","https://www.firmy.cz/detail/603024-bankomat-moneta-money-bank-praha-brevnov.html","253"
"8","Bus MHD","Kajetánka","https://mapy.cz/zakladni?x=14.372568790685248&y=50.086523627808816&z=17&source=pubt&id=15303668","127"
"9","Sportoviště","Tělocvičná jednota Sokol Praha - Břevnov","https://www.firmy.cz/detail/159402-telocvicna-jednota-sokol-praha-brevnov-praha-brevnov.html","467"
"10","Lékař","MUDr. Renáta Ryvolová","https://www.firmy.cz/detail/385693-mudr-renata-ryvolova-praha-brevnov.html","166"
"11","Pošta","Pošta Praha 69 - Česká pošta, s.p.","https://www.firmy.cz/detail/216722-posta-praha-69-praha-brevnov.html","557"
"12","Škola","ZŠ Marjánka, Praha 6","https://www.firmy.cz/detail/458969-zs-marjanka-praha-6-praha-brevnov.html","263"
"13","Tram","Drinopol","https://mapy.cz/zakladni?x=14.371539821&y=50.0839687213&z=17&source=pubt&id=15697224","169"
"14","Metro","Bořislavka","https://mapy.cz/zakladni?x=14.364847&y=50.098244&z=17&source=pubt&id=15707262","1505"
"15","Restaurace","Bernard PUB U Bílého Lva","https://www.firmy.cz/detail/2502077-bernard-pub-u-bileho-lva-praha-brevnov.html","245"
"16","Vlak","Praha-Veleslavín","https://mapy.cz/zakladni?x=14.3462189416&y=50.0950055146&z=17&source=pubt&id=15212584","2113"
"17","Školka","ZŠ a MŠ J. A. Komenského, Praha 6","https://www.firmy.cz/detail/725240-zs-a-ms-j-a-komenskeho-praha-6-praha-brevnov.html","175"
"18","Obchod","Kaufland","https://www.firmy.cz/detail/221319-kaufland-praha-brevnov.html","2491"
"19","Lékárna","Břevnovská lékárna","https://www.firmy.cz/detail/12909744-brevnovska-lekarna-praha-brevnov.html","206"
