"","facility_type","facility_name","facility_iri","facility_distance"
"0","Cukrárna","Cukrárna Komenského","https://www.firmy.cz/detail/13153299-cukrarna-komenskeho-jihlava.html","139"
"1","Kino","Amfiteátr Březinovy Sady Jihlava","https://www.firmy.cz/detail/2658908-amfiteatr-brezinovy-sady-jihlava-jihlava.html","210"
"2","Přírodní zajímavost","Pístovské mokřady","","3327"
"3","Hřiště","Dětské hřiště Hluboká","","161"
"4","Večerka","NATURAL CENTRUM","https://www.firmy.cz/detail/2608936-natural-centrum-jihlava.html","201"
"5","Hospoda","Hospůdka U Blondýny","https://www.firmy.cz/detail/13010992-hospudka-u-blondyny-jihlava.html","140"
"6","Divadlo","Horácké divadlo Jihlava","https://www.firmy.cz/detail/396913-horacke-divadlo-jihlava-jihlava.html","88"
"7","Veterinář","Veterinární ordinace Jihlava - MVDr. Marcela Cecchinato","https://www.firmy.cz/detail/12871130-veterinarni-ordinace-jihlava-mvdr-marcela-cecchinato-jihlava.html","132"
"8","Pošta","Pošta Jihlava 1 - Česká pošta, s.p.","https://www.firmy.cz/detail/215534-posta-jihlava-1-jihlava.html","173"
"9","Bankomat","Bankomat České spořitelny","https://www.firmy.cz/detail/13000399-bankomat-ceske-sporitelny-jihlava.html","149"
"10","Školka","Mateřská škola Pohádka","https://www.firmy.cz/detail/12736266-materska-skola-pohadka-jihlava.html","222"
"11","Škola","ZŠ Jihlava, Křížová","https://www.firmy.cz/detail/357527-zs-jihlava-krizova-jihlava.html","66"
"12","Vlak","Jihlava město","","819"
"13","Obchod","PRIOR ČESKÁ REPUBLIKA s.r.o.","https://www.firmy.cz/detail/1956976-prior-ceska-republika-s-r-o-jihlava.html","315"
"14","Lékař","MUDr. VOSÁHLOVÁ s.r.o.","https://www.firmy.cz/detail/13169378-mudr-vosahlova-s-r-o-jihlava.html","353"
"15","Restaurace","Restaurace Hotelu Gustav Mahler","https://www.firmy.cz/detail/1884063-restaurace-hotelu-gustav-mahler-jihlava.html","42"
"16","Lékárna","Lékárna Tilia","https://www.firmy.cz/detail/658480-lekarna-tilia-jihlava.html","353"
"17","Bus MHD","Náměstí Svobody","","149"
"18","Sportoviště","Sportovní klub Jihlava","https://www.firmy.cz/detail/12818220-sportovni-klub-jihlava-jihlava.html","724"
