"","facility_type","facility_name","facility_iri","facility_distance"
"0","Hřiště","Dětské hřiště Palackého","https://mapy.cz/zakladni?x=18.3541894726&y=49.5911428613&z=17&source=base&id=2236498","92"
"1","Večerka","Albert Supermarket","https://www.firmy.cz/detail/450162-albert-supermarket-frydlant-nad-ostravici-frydlant.html","254"
"2","Cukrárna","Miroslav Beier - CUKRÁRNA","https://www.firmy.cz/detail/1950023-miroslav-beier-cukrarna-frydlant-nad-ostravici.html","132"
"3","Veterinář","Veterinární  ambulance MVDr. Zbyněk Konvička","https://www.firmy.cz/detail/2438725-veterinarni-ambulance-mvdr-zbynek-konvicka-frydlant-nad-ostravici-frydlant.html","516"
"4","Hospoda","Restaurace Na Hřišti","https://www.firmy.cz/detail/2650855-restaurace-na-hristi-metylovice.html","2600"
"5","Školka","Jesle MRŇOUSEK","https://www.firmy.cz/detail/12992658-jesle-mrnousek-frydlant-nad-ostravici-frydlant.html","101"
"6","Bankomat","Bankomat Komerční banky","https://www.firmy.cz/detail/13325487-bankomat-komercni-banky-frydlant-nad-ostravici-frydlant.html","64"
"7","Vlak","Frýdlant nad Ostravicí","https://mapy.cz/zakladni?x=18.3545720685&y=49.5889270002&z=17&source=pubt&id=15698601","258"
"8","Pošta","Pošta Frýdlant nad Ostravicí - Česká pošta, s.p.","https://www.firmy.cz/detail/432974-posta-frydlant-nad-ostravici-frydlant-nad-ostravici-frydlant.html","494"
"9","Sportoviště","Tělocvičná jednota Sokol Frýdlant nad Ostravicí","https://www.firmy.cz/detail/2137822-telocvicna-jednota-sokol-frydlant-nad-ostravici-frydlant-nad-ostravici-frydlant.html","398"
"10","Škola","ZŠ Frýdlant nad Ostravicí, náměstí T. G. Masaryka","https://www.firmy.cz/detail/357014-zs-frydlant-nad-ostravici-namesti-t-g-masaryka-frydlant-nad-ostravici-frydlant.html","208"
"11","Restaurace","Bistro Lučina","https://www.firmy.cz/detail/13142813-bistro-lucina-frydlant-nad-ostravici-frydlant.html","204"
"12","Lékař","MUDr. Jiří Kabut","https://www.firmy.cz/detail/13049576-mudr-jiri-kabut-frydlant-nad-ostravici-frydlant.html","167"
"13","Bus MHD","Frýdlant n.Ost., žel.st.","https://mapy.cz/zakladni?x=18.35374499&y=49.5899328084&z=17&source=pubt&id=15290831","185"
"14","Lékárna","Lékárna AGEL","https://www.firmy.cz/detail/13204514-lekarna-agel-frydlant-nad-ostravici-frydlant.html","189"
