"","facility_type","facility_name","facility_iri","facility_distance"
"0","Hřiště","Dětské hřiště Bartákova","https://mapy.cz/zakladni?x=14.4389713859&y=50.0479070159&z=17&source=base&id=1926794","40"
"1","Cukrárna","Café Na půl cesty","https://www.firmy.cz/detail/610739-cafe-na-pul-cesty-praha.html","597"
"2","Večerka","NORMA","https://www.firmy.cz/detail/2182167-norma-praha-krc.html","275"
"3","Hospoda","Hostinec U Procházků","https://www.firmy.cz/detail/573112-hostinec-u-prochazku-praha-krc.html","130"
"4","Kino","HopeTV","https://www.firmy.cz/detail/672889-hopetv-praha-vinohrady.html","2804"
"5","Veterinář","Veterinární klinika zelená liška","https://www.firmy.cz/detail/655752-veterinarni-klinika-zelena-liska-praha-krc.html","337"
"6","Divadlo","Divadlo Na Jezerce","https://www.firmy.cz/detail/496550-divadlo-na-jezerce-praha-nusle.html","1170"
"7","Sportoviště","TJ Zelená Liška","https://www.firmy.cz/detail/2648782-tj-zelena-liska-praha-krc.html","170"
"8","Škola","První jazyková ZŠ v Praze 4","https://www.firmy.cz/detail/181662-prvni-jazykova-zs-v-praze-4-praha-krc.html","290"
"9","Lékař","MOJE AMBULANCE","https://www.firmy.cz/detail/12889518-moje-ambulance-praha-nusle.html","204"
"10","Tram","Pankrác","https://mapy.cz/zakladni?x=14.43908&y=50.05223&z=17&source=pubt&id=19802667","457"
"11","Vlak","Praha-Krč","https://mapy.cz/zakladni?x=14.4459680257&y=50.0341635187&z=17&source=pubt&id=15212570","1621"
"12","Bankomat","Bankomat ČSOB","https://www.firmy.cz/detail/599588-bankomat-csob-praha-krc.html","189"
"13","Školka","Rodinné Centrum HONZÍK","https://www.firmy.cz/detail/2634982-rodinne-centrum-honzik-praha-krc.html","127"
"14","Bus MHD","Krčský hřbitov","https://mapy.cz/zakladni?x=14.439625258415763&y=50.0464205340631&z=17&source=pubt&id=15304765","190"
"15","Restaurace","NOLA Restaurant & Café","https://www.firmy.cz/detail/13001250-nola-restaurant-cafe-praha-krc.html","107"
"16","Lékárna","Lékárna U sv. Pankráce","https://www.firmy.cz/detail/422787-lekarna-u-sv-pankrace-praha-nusle.html","859"
"17","Metro","Pankrác","https://mapy.cz/zakladni?x=14.4399817341&y=50.0505943709&z=17&source=pubt&id=15206986","278"
"18","Pošta","Pošta Praha 4 - Česká pošta, s.p.","https://www.firmy.cz/detail/216681-posta-praha-4-praha-krc.html","189"
"19","Obchod","Arkády Pankrác","https://www.firmy.cz/detail/2245240-arkady-pankrac-praha-nusle.html","329"
