"","facility_type","facility_name","facility_iri","facility_distance"
"0","Hřiště","Dětské hřiště u ZŠ Osvobození","https://mapy.cz/zakladni?x=15.2074011111&y=49.4353363889&z=17&source=base&id=1977747","181"
"1","Divadlo","Divadlo Lubomíra Lipského","https://www.firmy.cz/detail/12956926-divadlo-lubomira-lipskeho-pelhrimov.html","1205"
"2","Hospoda","Restaurace Vrbičky","https://www.firmy.cz/detail/13334315-restaurace-vrbicky-pelhrimov.html","131"
"3","Večerka","Penny Market","https://www.firmy.cz/detail/207829-penny-market-pelhrimov.html","423"
"4","Veterinář","MVDr. Zdeněk Vítů","https://www.firmy.cz/detail/2136622-mvdr-zdenek-vitu-pelhrimov.html","830"
"5","Cukrárna","Káva Monro, s.r.o.","https://www.firmy.cz/detail/13208982-kava-monro-pelhrimov.html","0"
"6","Kino","Kino Vesmír","https://www.firmy.cz/detail/396524-kino-vesmir-pelhrimov.html","1211"
"7","Lékař","MUDr. LUCIE KŘIVOHLAVÁ","https://www.firmy.cz/detail/13331375-mudr-lucie-krivohlava-pelhrimov.html","260"
"8","Bus MHD","Pelhřimov, Táborská","https://mapy.cz/zakladni?x=15.2068675498377&y=49.4369805338675&z=17&source=pubt&id=15235109","75"
"9","Obchod","Kaufland","https://www.firmy.cz/detail/1477282-kaufland-pelhrimov.html","368"
"10","Školka","MŠ Pelhřimov, Osvobození","https://www.firmy.cz/detail/2154019-ms-pelhrimov-osvobozeni-pelhrimov.html","128"
"11","Lékárna","Dr.Max LÉKÁRNA","https://www.firmy.cz/detail/2007215-dr-max-lekarna-pelhrimov.html","396"
"12","Škola","ZŠ Pelhřimov, Osvobození","https://www.firmy.cz/detail/358804-zs-pelhrimov-osvobozeni-pelhrimov.html","170"
"13","Restaurace","BOWLING 999, s.r.o.","https://www.firmy.cz/detail/13123730-bowling-999-pelhrimov.html","480"
"14","Vlak","Pelhřimov","https://mapy.cz/zakladni?x=15.2224746397&y=49.4196610087&z=17&source=pubt&id=15212428","2191"
"15","Bankomat","Bankomat ČSOB","https://www.firmy.cz/detail/13007555-bankomat-csob-pelhrimov.html","355"
"16","Pošta","Pošta Pelhřimov - Česká pošta, s.p.","https://www.firmy.cz/detail/215174-posta-pelhrimov-pelhrimov.html","1261"
"17","Sportoviště","Beachwell","https://www.firmy.cz/detail/12884838-beachwell-pelhrimov.html","170"
