"","facility_type","facility_name","facility_iri","facility_distance"
"0","Hřiště","Dětské hřiště K Vodojemu","https://mapy.cz/zakladni?x=17.6496507972&y=48.9751484843&z=17&source=base&id=2218967","207"
"1","Večerka","Potraviny ENAPO","https://www.firmy.cz/detail/13269151-potraviny-enapo-nivnice.html","451"
"2","Hospoda","Hospoda na růžku","https://www.firmy.cz/detail/13116975-hospoda-na-ruzku-nivnice.html","51"
"3","Lékař","MUDr. Věra Kadlčková","https://www.firmy.cz/detail/12839373-mudr-vera-kadlckova-nivnice.html","470"
"4","Škola","ZŠ J. A. Komenského, Nivnice","https://www.firmy.cz/detail/358423-zs-j-a-komenskeho-nivnice-nivnice.html","118"
"5","Lékárna","Lékárna Nivnice","https://www.firmy.cz/detail/422347-lekarna-nivnice-nivnice.html","470"
"6","Sportoviště","Orel jednota Nivnice","https://www.firmy.cz/detail/1960766-orel-jednota-nivnice-nivnice.html","539"
"7","Školka","MŠ J. A. Komenského, Nivnice","https://www.firmy.cz/detail/1986551-ms-j-a-komenskeho-nivnice-nivnice.html","562"
"8","Bus MHD","Nivnice, škola","https://mapy.cz/zakladni?x=17.6484404068&y=48.9734384205&z=17&source=pubt&id=15311363","56"
"9","Restaurace","Restaurace hotelu Savary","https://www.firmy.cz/detail/13014528-restaurace-hotelu-savary-nivnice.html","350"
"10","Pošta","Pošta Nivnice - Česká pošta, s.p.","https://www.firmy.cz/detail/433476-posta-nivnice-nivnice.html","502"
