"","facility_type","facility_name","facility_iri","facility_distance"
"0","Cukrárna","Liberecká pražírna","https://www.firmy.cz/detail/12941266-liberecka-prazirna-liberec-iv-perstyn.html","1246"
"1","Kino","Cinema City Liberec","https://www.firmy.cz/detail/2679906-cinema-city-liberec-liberec-iv-perstyn.html","1410"
"2","Přírodní zajímavost","Opičák","","3592"
"3","Hřiště","Dětské hřiště Soukenická","","81"
"4","Večerka","Pramen","https://www.firmy.cz/detail/12812260-pramen-liberec-vi-rochlice.html","159"
"5","Divadlo","Naivní divadlo Liberec","https://www.firmy.cz/detail/230860-naivni-divadlo-liberec-liberec-iv-perstyn.html","1339"
"6","Hospoda","Hospoda Tenisové kurty","https://www.firmy.cz/detail/13120734-hospoda-tenisove-kurty-liberec-vi-rochlice.html","772"
"7","Veterinář","MVDr. Jiří Jiroudek - Veterina Oblačná","https://www.firmy.cz/detail/2135004-mvdr-jiri-jiroudek-veterina-oblacna-liberec-v-kristianov.html","882"
"8","Bankomat","Bankomat České spořitelny","https://www.firmy.cz/detail/593142-bankomat-ceske-sporitelny-liberec-vi-rochlice.html","137"
"9","Lékař","MUDr. Vlastimil Vindyš","https://www.firmy.cz/detail/385899-mudr-vlastimil-vindys-liberec-vi-rochlice.html","136"
"10","Bus MHD","Sametová","","141"
"11","Tram","U Lomu","","381"
"12","Restaurace","Restaurace Centrum","https://www.firmy.cz/detail/1912232-restaurace-centrum-liberec-v-kristianov.html","665"
"13","Pošta","Pošta Liberec 6 - Česká pošta, s.p.","https://www.firmy.cz/detail/215742-posta-liberec-6-liberec-vi-rochlice.html","837"
"14","Vlak","Liberec-Rochlice","","1577"
"15","Škola","ZŠ Liberec, Broumovská","https://www.firmy.cz/detail/358011-zs-liberec-broumovska-liberec-vi-rochlice.html","197"
"16","Sportoviště","TJ PROVAS Liberec","https://www.firmy.cz/detail/2652889-tj-provas-liberec-liberec-vi-rochlice.html","107"
"17","Obchod","Obchodní centrum LBC","https://www.firmy.cz/detail/12975672-obchodni-centrum-lbc-liberec-iv-perstyn.html","1256"
"18","Lékárna","Lékárna Sano","https://www.firmy.cz/detail/12861497-lekarna-sano-liberec-vi-rochlice.html","835"
"19","Školka","MŠ Motýlek Liberec","https://www.firmy.cz/detail/407380-ms-motylek-liberec-liberec-vi-rochlice.html","329"
