"","facility_type","facility_name","facility_iri","facility_distance"
"0","Cukrárna","Cukrárna Pralinka","https://www.firmy.cz/detail/626458-cukrarna-pralinka-praha-vrsovice.html","694"
"1","Kino","Cinema City Flora","https://www.firmy.cz/detail/660712-cinema-city-flora-praha-zizkov.html","1285"
"2","Přírodní zajímavost","Mokřad Triangl","","4352"
"3","Hřiště","Dětské hřiště Slovinská","","170"
"4","Večerka","AGLO Trading","https://www.firmy.cz/detail/652274-aglo-trading-praha-vrsovice.html","374"
"5","Hospoda","Hostinec U Parku","https://www.firmy.cz/detail/337032-hostinec-u-parku-praha-nusle.html","1209"
"6","Divadlo","Divadelní společnost Josefa Dvořáka","https://www.firmy.cz/detail/396839-divadelni-spolecnost-josefa-dvoraka-praha-vrsovice.html","457"
"7","Veterinář","VETPOINT - veterinární klinika","https://www.firmy.cz/detail/162085-vetpoint-veterinarni-klinika-praha-vrsovice.html","288"
"8","Bus MHD","Koh-i-noor","","180"
"9","Bankomat","Bankomat České spořitelny","https://www.firmy.cz/detail/2464132-bankomat-ceske-sporitelny-praha-vrsovice.html","152"
"10","Restaurace","Restaurace U Pepíčka","https://www.firmy.cz/detail/272235-restaurace-u-pepicka-praha-vrsovice.html","216"
"11","Pošta","Pošta Praha 101 - Česká pošta, s.p.","https://www.firmy.cz/detail/431434-posta-praha-101-praha-vrsovice.html","271"
"12","Sportoviště","Malá lezecká stěna Kavkazská","","223"
"13","Vlak","Praha-Vršovice","","859"
"14","Lékárna","Lékárna Lemon","https://www.firmy.cz/detail/423012-lekarna-lemon-praha-vrsovice.html","245"
"15","Školka","MŠ Praha 10, Tolstého","https://www.firmy.cz/detail/2261341-ms-praha-10-tolsteho-praha-vrsovice.html","284"
"16","Tram","Čechovo náměstí","","31"
"17","Obchod","Tesco Extra","https://www.firmy.cz/detail/733906-tesco-extra-praha-vrsovice.html","705"
"18","Metro","Flora","","1086"
"19","Škola","Hotelová škola Praha 10","https://www.firmy.cz/detail/362284-hotelova-skola-praha-10-praha-vrsovice.html","89"
"20","Lékař","MUDr. Jan Haber","https://www.firmy.cz/detail/2261592-mudr-jan-haber-praha-vrsovice.html","199"
