"","facility_type","facility_name","facility_iri","facility_distance"
"0","Hřiště","Dětské hřiště Na Strážišti","https://mapy.cz/zakladni?x=13.2523963889&y=50.3832866667&z=17&source=base&id=2095254","62"
"1","Večerka","BILLA stop & shop","https://www.firmy.cz/detail/12978164-billa-stop-shop-kadan.html","655"
"2","Hospoda","Hospůdka U Boba","https://www.firmy.cz/detail/13115462-hospudka-u-boba-kadan.html","28"
"3","Kino","Lesní scéna Amfík","https://www.firmy.cz/detail/13071114-lesni-scena-amfik-kadan.html","765"
"4","Cukrárna","Cukrárna - kavárna U Zlaté konvice Kadaň","https://www.firmy.cz/detail/12815599-cukrarna-kavarna-u-zlate-konvice-kadan-kadan.html","1473"
"5","Veterinář","MVDr. Aleš Buriánek","https://www.firmy.cz/detail/2028737-mvdr-ales-burianek-kadan.html","1224"
"6","Bus MHD","Kadaň, Strážiště","https://mapy.cz/zakladni?x=13.2543519478&y=50.3822760314&z=17&source=pubt&id=15331239","196"
"7","Bankomat","Bankomat ČSOB","https://www.firmy.cz/detail/597157-bankomat-csob-kadan.html","1173"
"8","Školka","MŠ Čtyřlístek","https://www.firmy.cz/detail/1996118-ms-ctyrlistek-kadan.html","954"
"9","Restaurace","U Boba","https://www.firmy.cz/detail/13112640-u-boba-kadan.html","28"
"10","Pošta","Pošta Kadaň 1 - Česká pošta, s.p.","https://www.firmy.cz/detail/215307-posta-kadan-1-kadan.html","1173"
"11","Lékař","MEDIBIEN, s.r.o.","https://www.firmy.cz/detail/13285766-medibien-kadan.html","925"
"12","Vlak","Kadaň","https://mapy.cz/zakladni?x=13.2769930892&y=50.3818647044&z=17&source=pubt&id=15211682","1792"
"13","Škola","ZUŠ Klementa Slavického","https://www.firmy.cz/detail/429918-zus-klementa-slavickeho-kadan.html","610"
"14","Sportoviště","TJ Vodní sporty Kadaň","https://www.firmy.cz/detail/820577-tj-vodni-sporty-kadan-kadan.html","238"
"15","Obchod","Kaufland","https://www.firmy.cz/detail/1452573-kaufland-kadan.html","1680"
"16","Lékárna","Lékárna Gemini","https://www.firmy.cz/detail/2628441-lekarna-gemini-kadan.html","1505"
