"","facility_type","facility_name","facility_iri","facility_distance"
"0","Cukrárna","Cukrárna a kavárna Fantazie","https://www.firmy.cz/detail/12729670-cukrarna-a-kavarna-fantazie-plana-nad-luznici.html","100"
"1","Kino","Kino Spektrum","https://www.firmy.cz/detail/661183-kino-spektrum-sezimovo-usti.html","2884"
"2","Hřiště","Dětské hřiště","","261"
"3","Večerka","MAGA, spol. s r.o.","https://www.firmy.cz/detail/13054766-maga-plana-nad-luznici.html","100"
"4","Hospoda","PIVNICE LUŽNICE","https://www.firmy.cz/detail/13078030-pivnice-luznice-plana-nad-luznici.html","100"
"5","Veterinář","Veterinární klinika AXA","https://www.firmy.cz/detail/2606202-veterinarni-klinika-axa-plana-nad-luznici.html","197"
"6","Školka","Mateřská škola Planá nad Lužnicí, okres Tábor","https://www.firmy.cz/detail/1995076-materska-skola-plana-nad-luznici-okres-tabor-plana-nad-luznici.html","111"
"7","Restaurace","RESTAURACE LUŽNICE","https://www.firmy.cz/detail/13078031-restaurace-luznice-plana-nad-luznici.html","100"
"8","Škola","ZŠ Planá nad Lužnicí","https://www.firmy.cz/detail/364710-zs-plana-nad-luznici-plana-nad-luznici.html","152"
"9","Sportoviště","Koupaliště Za Řekou","https://www.firmy.cz/detail/12982936-koupaliste-za-rekou-plana-nad-luznici.html","336"
"10","Obchod","Albert Hypermarket","https://www.firmy.cz/detail/652991-albert-hypermarket-tabor.html","3994"
"11","Pošta","Pošta Planá nad Lužnicí - Česká pošta, s.p.","https://www.firmy.cz/detail/216920-posta-plana-nad-luznici-plana-nad-luznici.html","224"
"12","Bus MHD","Planá nad Lužnicí, nám.","","106"
"13","Lékárna","Lékárna Planá nad Lužnicí","https://www.firmy.cz/detail/374463-lekarna-plana-nad-luznici-plana-nad-luznici.html","295"
"14","Vlak","Planá nad Lužnicí","","178"
"15","Lékař","MUDr. Pavel Pastucha s.r.o.","https://www.firmy.cz/detail/13280485-mudr-pavel-pastucha-s-r-o-plana-nad-luznici.html","295"
"16","Bankomat","Bankomat České spořitelny","https://www.firmy.cz/detail/2291000-bankomat-ceske-sporitelny-plana-nad-luznici.html","225"
