"","facility_type","facility_name","facility_iri","facility_distance"
"0","Cukrárna","Thomas Johann Kafé","https://www.firmy.cz/detail/13181254-thomas-johann-kafe-hodonin.html","156"
"1","Kino","Kino Svět","https://www.firmy.cz/detail/451985-kino-svet-hodonin.html","489"
"2","Hřiště","Dětské hřiště Slunečná","","282"
"3","Večerka","Albert Supermarket","https://www.firmy.cz/detail/415595-albert-supermarket-hodonin.html","230"
"4","Hospoda","Restaurační zařízení Na Očově","https://www.firmy.cz/detail/13118928-restauracni-zarizeni-na-ocove-hodonin.html","213"
"5","Veterinář","MVDr. Daniela Plešová","https://www.firmy.cz/detail/2442810-mvdr-daniela-plesova-hodonin.html","553"
"6","Škola","Gymnázium, Obchodní akademie a Jazyková škola s právem státní jazykové zkoušky Hodonín","https://www.firmy.cz/detail/360850-gymnazium-obchodni-akademie-a-jazykova-skola-s-pravem-statni-jazykove-zkousky-hodonin-hodonin.html","93"
"7","Sportoviště","Sun&Body","https://www.firmy.cz/detail/13202700-sun-body-hodonin.html","328"
"8","Bankomat","Bankomat Komerční banky","https://www.firmy.cz/detail/13033862-bankomat-komercni-banky-hodonin.html","227"
"9","Bus MHD","Hodonín, Masarykovo nám. pojišťovna","","234"
"10","Lékař","Ordinace Hodonín, s.r.o.","https://www.firmy.cz/detail/12945566-ordinace-hodonin-hodonin.html","170"
"11","Pošta","Pošta Hodonín 1 - Česká pošta, s.p.","https://www.firmy.cz/detail/433237-posta-hodonin-1-hodonin.html","609"
"12","Restaurace","Restaurace Družba","https://www.firmy.cz/detail/13032620-restaurace-druzba-hodonin.html","175"
"13","Vlak","Hodonín","","1063"
"14","Lékárna","Lékárna","https://www.firmy.cz/detail/422924-lekarna-hodonin.html","203"
"15","Obchod","Kaufland","https://www.firmy.cz/detail/1650920-kaufland-hodonin.html","944"
"16","Školka","Mateřská škola Hodonín, Jánošíkova 3513/11, příspěvková organizace","https://www.firmy.cz/detail/2607702-materska-skola-hodonin-janosikova-3513-11-prispevkova-organizace-hodonin.html","250"
