"","facility_type","facility_name","facility_iri","facility_distance"
"0","Cukrárna","Cukrárna U Čížků","https://www.firmy.cz/detail/13278821-cukrarna-u-cizku-jirkov.html","1097"
"1","Kino","KINO JIRKOV, s.r.o.","https://www.firmy.cz/detail/12963927-kino-jirkov-jirkov.html","1020"
"2","Hřiště","Dětské hřiště Krušnohorská","","193"
"3","Večerka","Večerka Krušnohorská","https://www.firmy.cz/detail/13335325-vecerka-krusnohorska-jirkov.html","26"
"4","Hospoda","Pivnice Na Kopečku","https://www.firmy.cz/detail/479233-pivnice-na-kopecku-jirkov.html","691"
"5","Veterinář","MVDr. Magda Jašková","https://www.firmy.cz/detail/2131882-mvdr-magda-jaskova-jirkov.html","537"
"6","Školka","MŠ Pohádka","https://www.firmy.cz/detail/2405276-ms-pohadka-jirkov.html","141"
"7","Bus MHD","Jirkov, U chaty","","121"
"8","Pošta","Pošta Jirkov 3 - Česká pošta, s.p.","https://www.firmy.cz/detail/215282-posta-jirkov-3-jirkov.html","593"
"9","Sportoviště","Tenisový klub Jirkov","https://www.firmy.cz/detail/2264328-tenisovy-klub-jirkov-jirkov.html","1182"
"10","Škola","Základní škola Jirkov","https://www.firmy.cz/detail/12924909-zakladni-skola-jirkov-jirkov.html","293"
"11","Bankomat","Bankomat ČSOB","https://www.firmy.cz/detail/12965640-bankomat-csob-jirkov.html","464"
"12","Obchod","Tesco","https://www.firmy.cz/detail/455678-tesco-jirkov.html","950"
"13","Vlak","Jirkov","","1763"
"14","Restaurace","Restaurace Koliba Rustika","https://www.firmy.cz/detail/13284914-restaurace-koliba-rustika-jirkov.html","212"
"15","Lékárna","Lékárna U Zlaté koruny","https://www.firmy.cz/detail/13210788-lekarna-u-zlate-koruny-jirkov.html","812"
"16","Lékař","MUDr. Eva Vytasilová","https://www.firmy.cz/detail/386090-mudr-eva-vytasilova-jirkov.html","812"
