"","facility_type","facility_name","facility_iri","facility_distance"
"0","Cukrárna","Kavárna Dobrá trafika","https://www.firmy.cz/detail/427908-kavarna-dobra-trafika-praha-vinohrady.html","263"
"1","Kino","HopeTV","https://www.firmy.cz/detail/672889-hopetv-praha-vinohrady.html","474"
"2","Hřiště","Dětské hřiště Bezručovy sady","","352"
"3","Večerka","Potraviny Eso Market","https://www.firmy.cz/detail/2341949-potraviny-eso-market-praha-vinohrady.html","192"
"4","Hospoda","Hospoda Pohoda","https://www.firmy.cz/detail/569598-hospoda-pohoda-praha-nusle.html","987"
"5","Divadlo","Theatre ROYAL","https://www.firmy.cz/detail/805285-theatre-royal-praha-vinohrady.html","292"
"6","Veterinář","MVDr. Miroslav Měšťan","https://www.firmy.cz/detail/2487671-mvdr-miroslav-mestan-praha-vrsovice.html","380"
"7","Pošta","Pošta Praha 2 - Česká pošta, s.p.","https://www.firmy.cz/detail/217496-posta-praha-2-praha-vinohrady.html","121"
"8","Bankomat","Bankomat ČSOB","https://www.firmy.cz/detail/599568-bankomat-csob-praha-vinohrady.html","177"
"9","Sportoviště","Tenisová škola Vinohrady – Jiří Brázda","https://www.firmy.cz/detail/433988-tenisova-skola-vinohrady-jiri-brazda-praha-vinohrady.html","489"
"10","Obchod","PAVILON, a.s.","https://www.firmy.cz/detail/451685-pavilon-praha-vinohrady.html","289"
"11","Tram","Jana Masaryka","","94"
"12","Lékař","MUDr. Anna Růžičková","https://www.firmy.cz/detail/390768-mudr-anna-ruzickova-praha-vinohrady.html","211"
"13","Lékárna","U svaté Ludmily","https://www.firmy.cz/detail/374313-u-svate-ludmily-praha-vinohrady.html","403"
"14","Škola","ZŠ Praha 2, Sázavská","https://www.firmy.cz/detail/358961-zs-praha-2-sazavska-praha-vinohrady.html","47"
"15","Restaurace","Restaurace U Pošty","https://www.firmy.cz/detail/306160-restaurace-u-posty-praha-vinohrady.html","46"
"16","Bus MHD","Náměstí Míru","","222"
"17","Školka","MŠ Trojlístek, Praha 2","https://www.firmy.cz/detail/2295426-ms-trojlistek-praha-2-praha-vinohrady.html","47"
"18","Vlak","Praha hlavní nádraží","","1009"
"19","Metro","Náměstí Míru","","247"
