"","facility_type","facility_name","facility_iri","facility_distance"
"0","Cukrárna","CrossCafe Galerie Slovany","https://www.firmy.cz/detail/12858831-crosscafe-galerie-slovany-plzen-vychodni-predmesti.html","492"
"1","Kino","Kino Beseda","https://www.firmy.cz/detail/12773769-kino-beseda-plzen-jizni-predmesti.html","2681"
"2","Hřiště","Dětské hřiště Blatenská","","106"
"3","Večerka","Potraviny Večerka Koterovská","https://www.firmy.cz/detail/13332996-potraviny-vecerka-koterovska-plzen-lobzy.html","139"
"4","Hospoda","Pivnice Sladovnická","https://www.firmy.cz/detail/2603445-pivnice-sladovnicka-plzen-lobzy.html","144"
"5","Divadlo","Divadelní spolek Jezírko","https://www.firmy.cz/detail/740611-divadelni-spolek-jezirko-plzen-vychodni-predmesti.html","766"
"6","Veterinář","U Tří voříšků - MVDr. Dagmar Caltová","https://www.firmy.cz/detail/313354-u-tri-vorisku-mvdr-dagmar-caltova-plzen-bozkov.html","481"
"7","Obchod","Galerie Slovany, s.r.o.","https://www.firmy.cz/detail/2301407-galerie-slovany-plzen-vychodni-predmesti.html","471"
"8","Školka","21. MŠ Plzeň","https://www.firmy.cz/detail/1278400-21-ms-plzen-plzen-lobzy.html","95"
"9","Restaurace","Restaurace U Motlíků","https://www.firmy.cz/detail/12977497-restaurace-u-motliku-plzen-lobzy.html","236"
"10","Tram","Brojova","","39"
"11","Bus MHD","Sladová","","63"
"12","Pošta","Pošta Plzeň 7 - Česká pošta, s.p.","https://www.firmy.cz/detail/216655-posta-plzen-7-plzen-vychodni-predmesti.html","504"
"13","Škola","20. ZŠ Plzeň","https://www.firmy.cz/detail/358854-20-zs-plzen-plzen-vychodni-predmesti.html","255"
"14","Sportoviště","In Motion Academy - parkourová hala","https://www.firmy.cz/detail/13077140-in-motion-academy-parkourova-hala-plzen-vychodni-predmesti.html","637"
"15","Lékárna","Dr. Max LÉKÁRNA","https://www.firmy.cz/detail/13001301-dr-max-lekarna-plzen-vychodni-predmesti.html","415"
"16","Vlak","Plzeň-Koterov","","1087"
"17","Bankomat","Bankomat Komerční banky","https://www.firmy.cz/detail/594633-bankomat-komercni-banky-plzen-lobzy.html","291"
"18","Lékař","MUDr. Helena Filipovská","https://www.firmy.cz/detail/2111037-mudr-helena-filipovska-plzen-vychodni-predmesti.html","324"
