"","facility_type","facility_name","facility_iri","facility_distance"
"0","Hřiště","Dětské hřiště","https://mapy.cz/zakladni?x=14.4831343&y=48.981629&z=17&source=base&id=2261678","705"
"1","Hospoda","Klub malých pivovarů","https://www.firmy.cz/detail/13175122-klub-malych-pivovaru-ceske-budejovice-1.html","278"
"2","Bus MHD","Jeronýmova","https://mapy.cz/zakladni?x=14.481294788927535&y=48.97591838993602&z=17&source=pubt&id=15206581","56"
"3","Restaurace","Restaurace U Podkovy","https://www.firmy.cz/detail/13123969-restaurace-u-podkovy-ceske-budejovice-6.html","60"
"4","Večerka","Albert Supermarket - Albert Česká republika, s.r.o.","https://www.firmy.cz/detail/13342104-albert-supermarket-ceske-budejovice-6.html","143"
"5","Divadlo","SUD - studentské universitní divadlo","https://www.firmy.cz/detail/661256-sud-studentske-universitni-divadlo-ceske-budejovice-1.html","357"
"6","Pošta","Pošta České Budějovice 1 - Česká pošta, s.p.","https://www.firmy.cz/detail/452759-posta-ceske-budejovice-1-ceske-budejovice-6.html","262"
"7","Bankomat","Bankomat ČSOB","https://www.firmy.cz/detail/2409670-bankomat-csob-ceske-budejovice-6.html","111"
"8","Lékař","MUDr. Hana Nápravníková","https://www.firmy.cz/detail/12841296-mudr-hana-napravnikova-ceske-budejovice-6.html","0"
"9","Škola","Soukromá střední škola a jazyková škola s právem státní jazykové zkoušky Č. Budějovice, s.r.o.","https://www.firmy.cz/detail/309156-soukroma-stredni-skola-a-jazykova-skola-s-pravem-statni-jazykove-zkousky-c-budejovice-ceske-budejovice-6.html","32"
"10","Školka","Církevní MŠ České Budějovice, Lipenská","https://www.firmy.cz/detail/1901023-cirkevni-ms-ceske-budejovice-lipenska-ceske-budejovice-3.html","220"
"11","Sportoviště","Orel jednota České Budějovice","https://www.firmy.cz/detail/1891770-orel-jednota-ceske-budejovice-ceske-budejovice-6.html","173"
"12","Cukrárna","Knihy Kanzelsberger - kavárna","https://www.firmy.cz/detail/13144328-knihy-kanzelsberger-kavarna-ceske-budejovice.html","308"
"13","Obchod","PRIOR ČESKÁ REPUBLIKA s.r.o.","https://www.firmy.cz/detail/1956946-prior-ceska-republika-s-r-o-ceske-budejovice-6.html","231"
"14","Veterinář","MVDr. Magda Jabulková - Veterinární ordinace","https://www.firmy.cz/detail/615689-mvdr-magda-jabulkova-veterinarni-ordinace-ceske-budejovice-3.html","1249"
"15","Lékárna","BENU Lékárna","https://www.firmy.cz/detail/13003194-benu-lekarna-ceske-budejovice-6.html","125"
"16","Kino","Letní kino Háječek","https://www.firmy.cz/detail/2525711-letni-kino-hajecek-ceske-budejovice-7.html","869"
"17","Vlak","České Budějovice","https://mapy.cz/zakladni?x=14.4886071785&y=48.9744886717&z=17&source=pubt&id=15211179","550"
