"","facility_type","facility_name","facility_iri","facility_distance"
"0","Cukrárna","Cukrárna za vodou","https://www.firmy.cz/detail/13245730-cukrarna-za-vodou-bilina-mostecke-predmesti.html","1116"
"1","Kino","Letní kino Bílina","https://www.firmy.cz/detail/13071399-letni-kino-bilina-bilina.html","2304"
"2","Přírodní zajímavost","Sukcesní plocha XVII A Radovesické výsypky","","3446"
"3","Hřiště","Dětské hřiště Sídliště Za Chlumem","","199"
"4","Večerka","Večerka Johny","https://www.firmy.cz/detail/12844326-vecerka-johny-bilina-teplicke-predmesti.html","210"
"5","Hospoda","Na Ústředně","https://www.firmy.cz/detail/12908637-na-ustredne-bilina-teplicke-predmesti.html","390"
"6","Divadlo","Městské divadlo","https://www.firmy.cz/detail/13194863-mestske-divadlo-bilina.html","975"
"7","Veterinář","MVDr. Emilie Klečková","https://www.firmy.cz/detail/159830-mvdr-emilie-kleckova-bilina-prazske-predmesti.html","1423"
"8","Restaurace","Restaurace Jiskra","https://www.firmy.cz/detail/2250035-restaurace-jiskra-bilina-teplicke-predmesti.html","210"
"9","Sportoviště","Discgolf Bílina","","510"
"10","Pošta","Pošta Bílina 4 - Česká pošta, s.p.","https://www.firmy.cz/detail/215435-posta-bilina-4-bilina-teplicke-predmesti.html","302"
"11","Škola","ZŠ Bílina, Za Chlumem","https://www.firmy.cz/detail/356352-zs-bilina-za-chlumem-bilina-teplicke-predmesti.html","321"
"12","Bus MHD","Bílina, sídl.ZCH sběrna","","73"
"13","Obchod","Albert Hypermarket","https://www.firmy.cz/detail/12922454-albert-hypermarket-bilina-mostecke-predmesti.html","1042"
"14","Lékař","MUDr. Yaser Karnoub","https://www.firmy.cz/detail/390790-mudr-yaser-karnoub-bilina-teplicke-predmesti.html","92"
"15","Vlak","Bílina","","917"
"16","Bankomat","Bankomat MONETA Money Bank","https://www.firmy.cz/detail/602762-bankomat-moneta-money-bank-bilina-teplicke-predmesti.html","256"
"17","Školka","MŠ Bílina, Za Chlumem","https://www.firmy.cz/detail/2591239-ms-bilina-za-chlumem-bilina-teplicke-predmesti.html","312"
"18","Lékárna","Lékárna Altea","https://www.firmy.cz/detail/2197862-lekarna-altea-bilina-teplicke-predmesti.html","92"
