"","facility_type","facility_name","facility_iri","facility_distance"
"0","Hřiště","Dětské hřiště MŠ Janovského","https://mapy.cz/zakladni?x=14.4336580485&y=50.1037591688&z=17&source=base&id=2192568","80"
"1","Večerka","Albert Supermarket","https://www.firmy.cz/detail/229747-albert-supermarket-praha-holesovice.html","81"
"2","Cukrárna","Čokoládovna ČO-XO","https://www.firmy.cz/detail/12709444-cokoladovna-co-xo-praha-holesovice.html","60"
"3","Veterinář","Klinika Livet","https://www.firmy.cz/detail/1359507-klinika-livet-praha-holesovice.html","168"
"4","Kino","Bio Oko","https://www.firmy.cz/detail/2586117-bio-oko-praha-holesovice.html","452"
"5","Divadlo","Divadlo Alfred ve dvoře","https://www.firmy.cz/detail/396869-divadlo-alfred-ve-dvore-praha-holesovice.html","354"
"6","Hospoda","Pivnice U Pivoje","https://www.firmy.cz/detail/2231875-pivnice-u-pivoje-praha-holesovice.html","523"
"7","Školka","MŠ Praha 7, Janovského","https://www.firmy.cz/detail/207715-ms-praha-7-janovskeho-praha-holesovice.html","140"
"8","Bankomat","Bankomat UniCredit Bank Czech Republic","https://www.firmy.cz/detail/1964718-bankomat-unicredit-bank-czech-republic-praha-holesovice.html","398"
"9","Metro","Vltavská","https://mapy.cz/zakladni?x=14.4382564966&y=50.099203169&z=17&source=pubt&id=15206936","524"
"10","Škola","ZUŠ Praha 7, Šimáčkova","https://www.firmy.cz/detail/427130-zus-praha-7-simackova-praha-holesovice.html","21"
"11","Vlak","Praha-Bubny","https://mapy.cz/zakladni?x=14.4390160637&y=50.1022888272&z=17&source=pubt&id=15212553","353"
"12","Restaurace","ALVA GASTRO, s.r.o.","https://www.firmy.cz/detail/2499831-alva-gastro-praha-holesovice.html","119"
"13","Lékař","MUDr. Marcela Šajnerová","https://www.firmy.cz/detail/390542-mudr-marcela-sajnerova-praha-holesovice.html","97"
"14","Tram","Veletržní palác","https://mapy.cz/zakladni?x=14.432728837&y=50.1024085028&z=17&source=pubt&id=15301486","137"
"15","Sportoviště","Tělocvičná jednota Sokol Praha 1, R-5","https://www.firmy.cz/detail/2128305-telocvicna-jednota-sokol-praha-1-r-5-praha-holesovice.html","394"
"16","Pošta","Pošta Praha 74 - Česká pošta, s.p.","https://www.firmy.cz/detail/431348-posta-praha-74-praha-holesovice.html","814"
"17","Lékárna","Lékárna Lékařský dům","https://www.firmy.cz/detail/376974-lekarna-lekarsky-dum-praha-holesovice.html","103"
"18","Obchod","Bílá labuť","https://www.firmy.cz/detail/221990-bila-labut-praha-nove-mesto.html","1438"
"19","Bus MHD","Veletržní palác","https://mapy.cz/zakladni?x=14.433194&y=50.101475&z=17&source=pubt&id=22336076","202"
