"","facility_type","facility_name","facility_iri","facility_distance"
"0","Cukrárna","Kavárna Dobrá trafika","https://www.firmy.cz/detail/427908-kavarna-dobra-trafika-praha-vinohrady.html","63"
"1","Kino","HopeTV","https://www.firmy.cz/detail/672889-hopetv-praha-vinohrady.html","728"
"2","Hřiště","Dětské hřiště Slezská","","310"
"3","Večerka","Albert Supermarket","https://www.firmy.cz/detail/209483-albert-supermarket-praha-vinohrady.html","151"
"4","Hospoda","U Pižďucha","https://www.firmy.cz/detail/337127-u-pizducha-praha-zizkov.html","1082"
"5","Divadlo","Theatre ROYAL","https://www.firmy.cz/detail/805285-theatre-royal-praha-vinohrady.html","214"
"6","Veterinář","Veterinární klinika Panda","https://www.firmy.cz/detail/166785-veterinarni-klinika-panda-praha-vinohrady.html","453"
"7","Restaurace","Restaurace U Houmra","https://www.firmy.cz/detail/605695-restaurace-u-houmra-praha-vinohrady.html","104"
"8","Pošta","Pošta Praha 2 - Česká pošta, s.p.","https://www.firmy.cz/detail/217496-posta-praha-2-praha-vinohrady.html","165"
"9","Metro","Jiřího z Poděbrad","","360"
"10","Obchod","PAVILON, a.s.","https://www.firmy.cz/detail/451685-pavilon-praha-vinohrady.html","171"
"11","Bankomat","Bankomat ČSOB","https://www.firmy.cz/detail/599568-bankomat-csob-praha-vinohrady.html","340"
"12","Školka","MŠ Trojlístek, Praha 2","https://www.firmy.cz/detail/2295422-ms-trojlistek-praha-2-praha-vinohrady.html","38"
"13","Sportoviště","Tenisová škola Vinohrady – Jiří Brázda","https://www.firmy.cz/detail/433988-tenisova-skola-vinohrady-jiri-brazda-praha-vinohrady.html","520"
"14","Lékárna","Lékárna U krále Jiřího","https://www.firmy.cz/detail/2326652-lekarna-u-krale-jiriho-praha-vinohrady.html","366"
"15","Tram","Šumavská","","39"
"16","Škola","ZUŠ Ilji Hurníka Praha 2","https://www.firmy.cz/detail/427075-zus-ilji-hurnika-praha-2-praha-vinohrady.html","83"
"17","Bus MHD","Jiřího z Poděbrad","","393"
"18","Lékař","MUDr. Jana Krausová","https://www.firmy.cz/detail/389001-mudr-jana-krausova-praha-vinohrady.html","177"
"19","Vlak","Praha hlavní nádraží","","953"
