"","facility_type","facility_name","facility_iri","facility_distance"
"0","Cukrárna","Helen's coffee Hůrka","https://www.firmy.cz/detail/13278629-helen-s-coffee-hurka-praha-stodulky.html","1610"
"1","Kino","Cinema City Zličín","https://www.firmy.cz/detail/436222-cinema-city-zlicin-praha-trebonice.html","4185"
"2","Přírodní zajímavost","Kovářovic mez","","1797"
"3","Hřiště","Dětské hřiště Přecechtělova","","41"
"4","Večerka","Rodopi","https://www.firmy.cz/detail/13094257-rodopi-praha-stodulky.html","123"
"5","Hospoda","Pivnice Fantasie","https://www.firmy.cz/detail/13209457-pivnice-fantasie-praha-stodulky.html","200"
"6","Divadlo","MEZINÁRODNÍ CENTRUM TANCE","https://www.firmy.cz/detail/2465676-mezinarodni-centrum-tance-praha-stodulky.html","1147"
"7","Veterinář","Veterinární klinika Na Vyhlídce, s.r.o.","https://www.firmy.cz/detail/13012801-veterinarni-klinika-na-vyhlidce-praha-stodulky.html","1291"
"8","Obchod","Centrum Velká Ohrada","https://www.firmy.cz/detail/13184856-centrum-velka-ohrada-praha-stodulky.html","178"
"9","Lékárna","LÉKÁRNA ipc Janského","https://www.firmy.cz/detail/13090595-lekarna-ipc-janskeho-praha-stodulky.html","271"
"10","Metro","Lužiny","","1076"
"11","Vlak","Praha-Holyně","","768"
"12","Bankomat","Bankomat MONETA Money Bank","https://www.firmy.cz/detail/13219574-bankomat-moneta-money-bank-praha-stodulky.html","187"
"13","Sportoviště","Tenisová škola TALLENT","https://www.firmy.cz/detail/722763-tenisova-skola-tallent-praha-stodulky.html","155"
"14","Tram","Sídliště Barrandov","","2120"
"15","Lékař","MUDr. Eva Čábelová","https://www.firmy.cz/detail/387039-mudr-eva-cabelova-praha-stodulky.html","271"
"16","Bus MHD","Velká Ohrada","","225"
"17","Restaurace","Pizza To Go","https://www.firmy.cz/detail/2643043-pizza-to-go-praha-stodulky.html","178"
"18","Pošta","Pošta Praha 519 - Česká pošta, s.p.","https://www.firmy.cz/detail/2591102-posta-praha-519-praha-stodulky.html","271"
"19","Školka","Soukromá mateřská škola KORÁLEK, spol. s r.o.","https://www.firmy.cz/detail/576791-soukroma-materska-skola-koralek-praha-stodulky.html","221"
"20","Škola","Základní škola, Praha 13, Klausova 2450","https://www.firmy.cz/detail/359000-zakladni-skola-praha-13-klausova-2450-praha-stodulky.html","155"
