"","facility_type","facility_name","facility_iri","facility_distance"
"0","Cukrárna","Suri Cafe","https://www.firmy.cz/detail/13298853-suri-cafe-ostrava-zabreh.html","942"
"1","Kino","Kino Luna","https://www.firmy.cz/detail/2642805-kino-luna-ostrava-zabreh.html","1009"
"2","Přírodní zajímavost","Zábřežský bludný balvan","","1593"
"3","Hřiště","Dětské hřiště Pavlovova","","678"
"4","Večerka","Večerka Narcis","https://www.firmy.cz/detail/12712879-vecerka-narcis-ostrava-zabreh.html","89"
"5","Hospoda","Hospůdka u Hanzyho","https://www.firmy.cz/detail/13146165-hospudka-u-hanzyho-ostrava-zabreh.html","463"
"6","Divadlo","Divadlo U Lípy","https://www.firmy.cz/detail/2121467-divadlo-u-lipy-ostrava-zabreh.html","1090"
"7","Veterinář","MVDr. Petr Stankoci - Veterinární ordinace","https://www.firmy.cz/detail/1957076-mvdr-petr-stankoci-veterinarni-ordinace-ostrava-hrabuvka.html","786"
"8","Sportoviště","Aerobik klub Ostrava","https://www.firmy.cz/detail/12897480-aerobik-klub-ostrava-ostrava-zabreh.html","164"
"9","Bankomat","Bankomat MONETA Money Bank","https://www.firmy.cz/detail/12780482-bankomat-moneta-money-bank-ostrava-zabreh.html","814"
"10","Lékař","MUDr. Karla Kaňová","https://www.firmy.cz/detail/12864466-mudr-karla-kanova-ostrava-zabreh.html","108"
"11","Pošta","Pošta Ostrava 4 - Česká pošta, s.p.","https://www.firmy.cz/detail/433394-posta-ostrava-4-ostrava-zabreh.html","193"
"12","Lékárna","Lékárna Ambra","https://www.firmy.cz/detail/13207168-lekarna-ambra-ostrava-zabreh.html","108"
"13","Škola","ZŠ Ostrava-Zábřeh, Chrjukinova 12","https://www.firmy.cz/detail/358730-zs-ostrava-zabreh-chrjukinova-12-ostrava-zabreh.html","102"
"14","Obchod","Kaufland","https://www.firmy.cz/detail/1461415-kaufland-ostrava-zabreh.html","1159"
"15","Bus MHD","Náměstí SNP","","229"
"16","Školka","MŠ Harmonie Ostrava - Hrabůvka, Mitušova","https://www.firmy.cz/detail/2296778-ms-harmonie-ostrava-hrabuvka-mitusova-ostrava-hrabuvka.html","713"
"17","Vlak","Ostrava-Vítkovice","","1882"
"18","Restaurace","Cihelna Na Náměstí","https://www.firmy.cz/detail/13015432-cihelna-na-namesti-ostrava-zabreh.html","113"
"19","Tram","Rodimcevova","","407"
