"","facility_type","facility_name","facility_iri","facility_distance"
"0","Hřiště","Dětské hřiště Skalice","https://mapy.cz/zakladni?x=14.1373561546&y=50.5647590236&z=17&source=base&id=2258371","1181"
"1","Přírodní zajímavost","Lokalita výskytu bledule jarní","https://mapy.cz/zakladni?x=14.2042599987&y=50.5914890301&z=17&source=base&id=2059023","5187"
"2","Večerka","Smíšenka Litoměřická 133","https://www.firmy.cz/detail/13251211-smisenka-litomericka-133-zitenice.html","554"
"3","Hospoda","Hospůdka u Ládi","https://www.firmy.cz/detail/13311656-hospudka-u-ladi-zitenice.html","593"
"4","Veterinář","Veterinární ordinace Pod Mostnou horou - MVDr. Marcela Matzkeová","https://www.firmy.cz/detail/2136745-veterinarni-ordinace-pod-mostnou-horou-litomerice-predmesti.html","2144"
"5","Divadlo","Divadlo K. H. Máchy","https://www.firmy.cz/detail/660498-divadlo-k-h-machy-litomerice-mesto.html","3214"
"6","Kino","Kino Máj","https://www.firmy.cz/detail/660520-kino-maj-litomerice-predmesti.html","2783"
"7","Cukrárna","Cukrárna Harlekýn","https://www.firmy.cz/detail/12828032-cukrarna-harlekyn-litomerice-predmesti.html","2541"
"8","Restaurace","Restaurace U Hřiště","https://www.firmy.cz/detail/13115371-restaurace-u-hriste-zitenice.html","732"
"9","Školka","Mateřská škola Žitenice","https://www.firmy.cz/detail/729525-materska-skola-zitenice-zitenice.html","422"
"10","Lékař","Všeobecný praktický lékař MAIP, s.r.o.","https://www.firmy.cz/detail/13276813-vseobecny-prakticky-lekar-maip-litomerice-pokratice.html","2081"
"11","Bus MHD","Žitenice, Skalická","https://mapy.cz/zakladni?x=14.1543080814418&y=50.5583699502965&z=17&source=pubt&id=15334324","215"
"12","Obchod","Kaufland","https://www.firmy.cz/detail/738637-kaufland-litomerice-predmesti.html","2543"
"13","Bankomat","Bankomat MONETA Money Bank","https://www.firmy.cz/detail/2697007-bankomat-moneta-money-bank-litomerice-pokratice.html","2248"
"14","Sportoviště","Střelnice Skalice","https://mapy.cz/zakladni?x=14.1466455556&y=50.5724672222&z=17&source=base&id=2068681","1529"
"15","Vlak","Litoměřice hor.nádr.","https://mapy.cz/zakladni?x=14.1314453821212&y=50.541017549105526&z=17&source=pubt&id=15698419","2454"
"16","Pošta","Pošta Žitenice - Česká pošta, s.p.","https://www.firmy.cz/detail/215412-posta-zitenice-zitenice.html","583"
"17","Lékárna","Lékárna Nad Kapličkou","https://www.firmy.cz/detail/2692543-lekarna-nad-kaplickou-litomerice-pokratice.html","2052"
"18","Škola","ZŠ Litoměřice, Ladova","https://www.firmy.cz/detail/358063-zs-litomerice-ladova-litomerice-pokratice.html","2102"
