"","facility_type","facility_name","facility_iri","facility_distance"
"0","Cukrárna","Cukrárna Charlie","https://www.firmy.cz/detail/2365398-cukrarna-charlie-praha-michle.html","479"
"1","Kino","HopeTV","https://www.firmy.cz/detail/672889-hopetv-praha-vinohrady.html","1998"
"2","Hřiště","Dětské hřiště park Jezerka","","137"
"3","Večerka","Tesco Expres","https://www.firmy.cz/detail/2564843-tesco-expres-praha-nusle.html","587"
"4","Hospoda","BEER BAR Na Veseli","https://www.firmy.cz/detail/2553652-beer-bar-na-veseli-praha-nusle.html","222"
"5","Divadlo","Divadlo Na Jezerce","https://www.firmy.cz/detail/496550-divadlo-na-jezerce-praha-nusle.html","194"
"6","Veterinář","Veterinární ošetřovna Nusle, s.r.o.","https://www.firmy.cz/detail/2294795-veterinarni-osetrovna-nusle-praha-nusle.html","571"
"7","Lékař","MUDr. Jitka Guthová","https://www.firmy.cz/detail/380409-mudr-jitka-guthova-praha-nusle.html","599"
"8","Sportoviště","Hřiště na pétanque Na Jezerce","","132"
"9","Bus MHD","Jezerka","","143"
"10","Škola","ZŠ a MŠ Praha 4, Sdružení","https://www.firmy.cz/detail/356181-zs-a-ms-praha-4-sdruzeni-praha-nusle.html","201"
"11","Školka","ZŠ a MŠ Praha 4, Sdružení","https://www.firmy.cz/detail/2533278-zs-a-ms-praha-4-sdruzeni-praha-nusle.html","201"
"12","Bankomat","Bankomat Komerční banky","https://www.firmy.cz/detail/596000-bankomat-komercni-banky-praha-michle.html","427"
"13","Metro","Pankrác","","661"
"14","Obchod","Arkády Pankrác","https://www.firmy.cz/detail/2245240-arkady-pankrac-praha-nusle.html","793"
"15","Tram","Na Veselí","","226"
"16","Pošta","Pošta Praha 45 - Česká pošta, s.p.","https://www.firmy.cz/detail/217481-posta-praha-45-praha-michle.html","709"
"17","Restaurace","Restaurace U Pečeného kolena","https://www.firmy.cz/detail/335771-restaurace-u-peceneho-kolena-praha-michle.html","375"
"18","Lékárna","Lékárna U sv. Pankráce","https://www.firmy.cz/detail/422787-lekarna-u-sv-pankrace-praha-nusle.html","626"
"19","Vlak","Praha-Vršovice","","952"
