"","facility_type","facility_name","facility_iri","facility_distance"
"0","Cukrárna","Café Alegre","https://www.firmy.cz/detail/2384627-cafe-alegre-praha-smichov.html","512"
"1","Kino","CineStar Anděl","https://www.firmy.cz/detail/2537565-cinestar-andel-praha-smichov.html","531"
"2","Přírodní zajímavost","Kovářovic mez","","3637"
"3","Hřiště","Dětské hřiště U Nikolajky","","128"
"4","Večerka","Albert Supermarket","https://www.firmy.cz/detail/209468-albert-supermarket-praha-smichov.html","563"
"5","Divadlo","Divadlo Orfeus","https://www.firmy.cz/detail/413053-divadlo-orfeus-praha-kosire.html","693"
"6","Hospoda","Hospůdka Knoflík","https://www.firmy.cz/detail/2253647-hospudka-knoflik-praha-smichov.html","669"
"7","Veterinář","MVDr. Jana Lukešová","https://www.firmy.cz/detail/473617-mvdr-jana-lukesova-praha-smichov.html","297"
"8","Lékař","MUDR. KATEŘINA PELECHOVÁ - PRAKTICKÁ LÉKAŘKA","https://www.firmy.cz/detail/385760-mudr-katerina-pelechova-prakticka-lekarka-praha-smichov.html","306"
"9","Pošta","Pošta Praha 53 - Česká pošta, s.p.","https://www.firmy.cz/detail/431282-posta-praha-53-praha-smichov.html","269"
"10","Restaurace","Restaurace Na Ztracené","https://www.firmy.cz/detail/2219256-restaurace-na-ztracene-praha-smichov.html","145"
"11","Škola","Obchodní institut","https://www.firmy.cz/detail/272001-obchodni-institut-praha-smichov.html","94"
"12","Tram","Bertramka","","540"
"13","Metro","Anděl","","524"
"14","Obchod","Tesco","https://www.firmy.cz/detail/733908-tesco-praha-smichov.html","669"
"15","Lékárna","Nad Knížecí","https://www.firmy.cz/detail/375034-nad-knizeci-praha-smichov.html","338"
"16","Školka","NESSIE- anglická školka","https://www.firmy.cz/detail/2488322-nessie-anglicka-skolka-praha-smichov.html","332"
"17","Vlak","Praha-Smíchov severní nást.","","872"
"18","Sportoviště","Sport Mrázovka","https://www.firmy.cz/detail/2673921-sport-mrazovka-praha-smichov.html","161"
"19","Bankomat","Bankomat Sberbank CZ","https://www.firmy.cz/detail/2429005-bankomat-sberbank-cz-praha-smichov.html","559"
"20","Bus MHD","Santoška","","244"
