"","facility_type","facility_name","facility_iri","facility_distance"
"0","Cukrárna","Cukrárna U Reinvaldů","https://www.firmy.cz/detail/12911251-cukrarna-u-reinvaldu-podebrady-i.html","16"
"1","Kino","Zámecký biograf","https://www.firmy.cz/detail/2697562-zamecky-biograf-podebrady-i.html","180"
"2","Hřiště","Dětské hřiště","","210"
"3","Večerka","Albert Supermarket","https://www.firmy.cz/detail/229753-albert-supermarket-podebrady-ii.html","161"
"4","Divadlo","Divadlo Na Kovárně","https://www.firmy.cz/detail/2697557-divadlo-na-kovarne-podebrady-i.html","131"
"5","Hospoda","Pivnice U Zelené žáby","https://www.firmy.cz/detail/13204957-pivnice-u-zelene-zaby-podebrady-i.html","83"
"6","Veterinář","MVDr. Zbyněk Lonský","https://www.firmy.cz/detail/2137554-mvdr-zbynek-lonsky-podebrady-iii.html","758"
"7","Obchod","Tesco","https://www.firmy.cz/detail/12750637-tesco-podebrady-kluk.html","1618"
"8","Bankomat","Bankomat ČSOB","https://www.firmy.cz/detail/13025754-bankomat-csob-podebrady-i.html","78"
"9","Školka","MŠ Poděbrady, Studentská","https://www.firmy.cz/detail/2113766-ms-podebrady-studentska-podebrady-ii.html","251"
"10","Lékař","MUDr. Jaroslava Lórenczová","https://www.firmy.cz/detail/12836434-mudr-jaroslava-lorenczova-podebrady.html","179"
"11","Škola","Gymnázium Jiřího z Poděbrad","https://www.firmy.cz/detail/149256-gymnazium-jiriho-z-podebrad-podebrady-ii.html","329"
"12","Sportoviště","BOXING PODĚBRADY","https://www.firmy.cz/detail/13089622-boxing-podebrady-podebrady-ii.html","337"
"13","Vlak","Poděbrady","","899"
"14","Lékárna","Lázeňská lékárna","https://www.firmy.cz/detail/12953419-lazenska-lekarna-podebrady-i.html","110"
"15","Pošta","Pošta Poděbrady 1 - Česká pošta, s.p.","https://www.firmy.cz/detail/1357087-posta-podebrady-1-podebrady-iii.html","414"
"16","Bus MHD","Poděbrady, škola","","319"
"17","Restaurace","Bistro a Grill ""Sotto Ponte""","https://www.firmy.cz/detail/13010158-bistro-a-grill-sotto-ponte-podebrady-i.html","70"
