"","facility_type","facility_name","facility_iri","facility_distance"
"0","Cukrárna","Kamila Lakomá - Cukrárna Kamila","https://www.firmy.cz/detail/13109789-kamila-lakoma-cukrarna-kamila-nove-mesto-nad-metuji.html","93"
"1","Kino","Kino 70","https://www.firmy.cz/detail/12955067-kino-70-nove-mesto-nad-metuji.html","844"
"2","Hřiště","Dětské hřiště Zámecký park","","86"
"3","Večerka","Verner potraviny","https://www.firmy.cz/detail/2344697-verner-potraviny-nove-mesto-nad-metuji.html","73"
"4","Hospoda","Hospoda na Bačce","https://www.firmy.cz/detail/13063875-hospoda-na-bacce-pribyslav.html","3535"
"5","Veterinář","Veterinární ordinace Na Skalách - MVDr. Stanislav Počta, Ph. D.","https://www.firmy.cz/detail/2129271-veterinarni-ordinace-na-skalach-mvdr-stanislav-pocta-ph-d-nove-mesto-nad-metuji.html","893"
"6","Vlak","Nové Město nad Metují","","1389"
"7","Lékař","MUDr. Gabriela Meisnerová Štětinová","https://www.firmy.cz/detail/13286060-mudr-gabriela-meisnerova-stetinova-nove-mesto-nad-metuji.html","722"
"8","Sportoviště","Tělocvičná jednota Sokol Nové Město nad Metují","https://www.firmy.cz/detail/1956216-telocvicna-jednota-sokol-nove-mesto-nad-metuji-nove-mesto-nad-metuji.html","692"
"9","Škola","ZUŠ Bedřicha Smetany Nové Město nad Metují","https://www.firmy.cz/detail/427294-zus-bedricha-smetany-nove-mesto-nad-metuji-nove-mesto-nad-metuji.html","18"
"10","Pošta","Pošta Nové Město nad Metují 1 - Česká pošta, s.p.","https://www.firmy.cz/detail/215653-posta-nove-mesto-nad-metuji-1-nove-mesto-nad-metuji.html","177"
"11","Bus MHD","Nové Město nad Metují, Husovo nám.","","16"
"12","Bankomat","Bankomat ČSOB","https://www.firmy.cz/detail/599189-bankomat-csob-nove-mesto-nad-metuji.html","220"
"13","Lékárna","Lékárna Nové Město nad Metují","https://www.firmy.cz/detail/13210001-lekarna-nove-mesto-nad-metuji-nove-mesto-nad-metuji.html","220"
"14","Školka","MŠ Nové Město nad Metují, Pod Výrovem","https://www.firmy.cz/detail/2388896-ms-nove-mesto-nad-metuji-pod-vyrovem-nove-mesto-nad-metuji.html","366"
"15","Restaurace","Restaurant Dům č. 14","https://www.firmy.cz/detail/2346098-restaurant-dum-c-14-nove-mesto-nad-metuji.html","25"
