"","facility_type","facility_name","facility_iri","facility_distance"
"0","Cukrárna","mamacoffee","https://www.firmy.cz/detail/2515188-mamacoffee-praha-nove-mesto.html","86"
"1","Kino","Kino 35 Francouzský institut v Praze","https://www.firmy.cz/detail/682514-kino-35-francouzsky-institut-v-praze-praha-nove-mesto.html","157"
"2","Přírodní zajímavost","Kovářovic mez","","5865"
"3","Hřiště","Dětské hřiště Františkánská zahrada","","437"
"4","Večerka","MANNI MINI MARKET","https://www.firmy.cz/detail/2511345-manni-mini-market-praha-nove-mesto.html","142"
"5","Hospoda","Batalion Café & Music Bar","https://www.firmy.cz/detail/457689-batalion-cafe-music-bar-praha-stare-mesto.html","538"
"6","Divadlo","Divadlo v Řeznické, o.p.s.","https://www.firmy.cz/detail/2173304-divadlo-v-reznicke-praha-nove-mesto.html","73"
"7","Veterinář","Veterinární klinika Na Hrádku - MVDr. Ľubica Nečasová","https://www.firmy.cz/detail/633528-veterinarni-klinika-na-hradku-mvdr-lubica-necasova-praha-nove-mesto.html","800"
"8","Pošta","Pošta Praha 1 - Česká pošta, s.p.","https://www.firmy.cz/detail/216682-posta-praha-1-praha-nove-mesto.html","626"
"9","Restaurace","Miyabi restaurant","https://www.firmy.cz/detail/2564926-miyabi-restaurant-praha-nove-mesto.html","23"
"10","Lékař","MUDr. Jitka Sedláčková","https://www.firmy.cz/detail/387710-mudr-jitka-sedlackova-praha-nove-mesto.html","129"
"11","Bus MHD","Ve Smečkách","","258"
"12","Lékárna","Lékárna Jungmannova","https://www.firmy.cz/detail/304714-lekarna-jungmannova-praha-nove-mesto.html","204"
"13","Škola","ZŠ Praha 1, Vodičkova","https://www.firmy.cz/detail/358946-zs-praha-1-vodickova-praha-nove-mesto.html","132"
"14","Vlak","Praha hlavní nádraží","","1109"
"15","Tram","Vodičkova","","115"
"16","Metro","Národní třída","","226"
"17","Obchod","Quadrio","https://www.firmy.cz/detail/2042979-quadrio-praha-nove-mesto.html","396"
"18","Školka","MŠ Praha 2, Na Rybníčku","https://www.firmy.cz/detail/731793-ms-praha-2-na-rybnicku-praha-nove-mesto.html","309"
"19","Sportoviště","Vinland Golf Club","https://www.firmy.cz/detail/2406923-vinland-golf-club-praha-nove-mesto.html","313"
"20","Bankomat","Bankomat Sberbank CZ","https://www.firmy.cz/detail/658904-bankomat-sberbank-cz-praha-nove-mesto.html","119"
