"","facility_type","facility_name","facility_iri","facility_distance"
"0","Hřiště","Dětské hřiště Zahrádky","https://mapy.cz/zakladni?x=14.52041924561854&y=50.107198978341444&z=17&source=base&id=2222731","194"
"1","Přírodní zajímavost","Meandry Rokytky","https://mapy.cz/zakladni?x=14.517104002655032&y=50.098337103299386&z=17&source=base&id=2338360","873"
"2","Večerka","BILLA stop & shop","https://www.firmy.cz/detail/12978198-billa-stop-shop-praha.html","414"
"3","Veterinář","Veterinární klinika Poděbradská","https://www.firmy.cz/detail/166978-veterinarni-klinika-podebradska-praha-hloubetin.html","376"
"4","Cukrárna","Ala Coffee","https://www.firmy.cz/detail/13083429-ala-coffee-praha-vysocany.html","1368"
"5","Hospoda","Hospoda Šuplík","https://www.firmy.cz/detail/13121991-hospoda-suplik-praha-kyje.html","2223"
"6","Divadlo","Divadlo Gong","https://www.firmy.cz/detail/230751-divadlo-gong-praha-liben.html","2366"
"7","Kino","Cinema City Letňany","https://www.firmy.cz/detail/2679833-cinema-city-letnany-praha-letnany.html","3720"
"8","Bankomat","Bankomat České spořitelny","https://www.firmy.cz/detail/595007-bankomat-ceske-sporitelny-praha-vysocany.html","701"
"9","Metro","Kolbenova","https://mapy.cz/zakladni?x=14.5152075718&y=50.1103396175&z=17&source=pubt&id=15200161","695"
"10","Škola","Střední odborná škola uměleckořemeslná, s.r.o.","https://www.firmy.cz/detail/272164-stredni-odborna-skola-umeleckoremeslna-praha-vysocany.html","638"
"11","Sportoviště","Discgolf Rokytka","https://mapy.cz/zakladni?x=14.5165041089&y=50.1056942584&z=17&source=base&id=2263690","365"
"12","Lékárna","Lékárna Poděbradská","https://www.firmy.cz/detail/13317284-lekarna-podebradska-praha-vysocany.html","439"
"13","Restaurace","Café Bar U Zastávky","https://www.firmy.cz/detail/2359856-cafe-bar-u-zastavky-praha-vysocany.html","350"
"14","Tram","Nademlejnská","https://mapy.cz/zakladni?x=14.5241094119&y=50.1038186037&z=17&source=pubt&id=15304895","268"
"15","Lékař","Poliklinika Kolbenova","https://www.firmy.cz/detail/12837303-poliklinika-kolbenova-praha-vysocany.html","804"
"16","Bus MHD","Starý Hloubětín","https://mapy.cz/zakladni?x=14.5293&y=50.10431&z=17&source=pubt&id=18010356","567"
"17","Školka","Mateřská škola Nademlejnská","https://www.firmy.cz/detail/12924068-materska-skola-nademlejnska-praha-hloubetin.html","558"
"18","Obchod","Nákupní Centrum Fénix Vysočanská","https://www.firmy.cz/detail/613133-nakupni-centrum-fenix-vysocanska-praha-vysocany.html","1520"
"19","Vlak","Praha-Libeň","https://mapy.cz/zakladni?x=14.50137421&y=50.1009760028&z=17&source=pubt&id=15212572","1534"
"20","Pošta","Pošta Praha 94 - Česká pošta, s.p.","https://www.firmy.cz/detail/431410-posta-praha-94-praha-hloubetin.html","1189"
