"","facility_type","facility_name","facility_iri","facility_distance"
"0","Cukrárna","Janina showroom cafe","https://www.firmy.cz/detail/13140518-janina-showroom-cafe-most.html","271"
"1","Kino","Kino Kosmos","https://www.firmy.cz/detail/401279-kino-kosmos-most.html","354"
"2","Hřiště","Dětské hřiště Antonína Sochora","","143"
"3","Večerka","Potraviny Česká 7","https://www.firmy.cz/detail/13250618-potraviny-ceska-7-most.html","412"
"4","Hospoda","Krušovická restaurace Konečná","https://www.firmy.cz/detail/13259251-krusovicka-restaurace-konecna-most.html","335"
"5","Divadlo","Divadlo nad Labem","https://www.firmy.cz/detail/2240673-divadlo-nad-labem-most.html","524"
"6","Veterinář","Veterinka U Tlapiček","https://www.firmy.cz/detail/12758413-veterinka-u-tlapicek-most.html","953"
"7","Restaurace","Restaurace Mamut","https://www.firmy.cz/detail/13252417-restaurace-mamut-most.html","335"
"8","Tram","Most, Čs.mládeže","","289"
"9","Bus MHD","Most, 10.ZŠ","","43"
"10","Sportoviště","Pétanque aquadrom","","457"
"11","Lékárna","Dr. Max LÉKÁRNA","https://www.firmy.cz/detail/2007249-dr-max-lekarna-most.html","498"
"12","Vlak","Most","","2329"
"13","Pošta","Pošta Most 11 - Česká pošta, s.p.","https://www.firmy.cz/detail/216959-posta-most-11-most.html","731"
"14","Školka","MŠ Most, Antonína Sochora","https://www.firmy.cz/detail/1336419-ms-most-antonina-sochora-most.html","150"
"15","Lékař","DOPRAVNÍ PODNIK měst Mostu a Litvínova, a.s. - Zdravotnická dopravní služba","https://www.firmy.cz/detail/13275447-dopravni-podnik-mest-mostu-a-litvinova-a-s-zdravotnicka-dopravni-sluzba-most.html","481"
"16","Bankomat","Bankomat MONETA Money Bank","https://www.firmy.cz/detail/13082219-bankomat-moneta-money-bank-most.html","616"
"17","Obchod","Albert Hypermarket","https://www.firmy.cz/detail/2146438-albert-hypermarket-most.html","787"
"18","Škola","10. ZŠ Most","https://www.firmy.cz/detail/430287-10-zs-most-most.html","95"
