"","facility_type","facility_name","facility_iri","facility_distance"
"0","Cukrárna","Polina Cake","https://www.firmy.cz/detail/13292664-polina-cake-praha-vokovice.html","376"
"1","Kino","Kino Dlabačov","https://www.firmy.cz/detail/13024517-kino-dlabacov-praha-brevnov.html","2580"
"2","Hřiště","Dětské hřiště K Červenému vrchu","","101"
"3","Večerka","Obchod - potraviny","https://www.firmy.cz/detail/13169516-obchod-potraviny-praha-vokovice.html","144"
"4","Divadlo","Divadlo Tineola","https://www.firmy.cz/detail/401473-divadlo-tineola-praha-vokovice.html","339"
"5","Hospoda","Plzeňská Pivnice Petřiny","https://www.firmy.cz/detail/13333379-plzenska-pivnice-petriny-praha-brevnov.html","920"
"6","Metro","Nádraží Veleslavín","","164"
"7","Lékárna","BENU Lékárna","https://www.firmy.cz/detail/13196722-benu-lekarna-praha-vokovice.html","155"
"8","Tram","Nádraží Veleslavín","","116"
"9","Restaurace","Restaurace U Řezníka Praha","https://www.firmy.cz/detail/13303369-restaurace-u-reznika-praha-praha-vokovice.html","144"
"10","Školka","Mateřská škola Vokovická","https://www.firmy.cz/detail/598527-materska-skola-vokovicka-praha-vokovice.html","52"
"11","Bus MHD","Nádraží Veleslavín","","113"
"12","Obchod","Obchodní dům Čílova","https://www.firmy.cz/detail/13157318-obchodni-dum-cilova-praha-veleslavin.html","916"
"13","Sportoviště","Sportovní oddíl VOK","https://www.firmy.cz/detail/2652240-sportovni-oddil-vok-praha-vokovice.html","183"
"14","Škola","ZŠ Vokovice, Praha 6","https://www.firmy.cz/detail/362285-zs-vokovice-praha-6-praha-vokovice.html","183"
"15","Bankomat","Bankomat Euronet","https://www.firmy.cz/detail/13056224-bankomat-euronet-praha-veleslavin.html","277"
"16","Pošta","Pošta Praha 616 - Česká pošta, s.p.","https://www.firmy.cz/detail/431331-posta-praha-616-praha-veleslavin.html","844"
"17","Vlak","Praha-Veleslavín","","289"
"18","Lékař","Canadian Medical - AFI","https://www.firmy.cz/detail/13262475-canadian-medical-afi-praha-vokovice.html","176"
