"","facility_type","facility_name","facility_iri","facility_distance"
"0","Hřiště","Dětské hřiště Ukrajinská","https://mapy.cz/zakladni?x=13.6037897222&y=50.5998686111&z=17&source=base&id=2081372","72"
"1","Večerka","Potraviny Studentská 2122","https://www.firmy.cz/detail/13061674-potraviny-studentska-2122-litvinov-horni-litvinov.html","436"
"2","Cukrárna","Čokolatérie u Karoliny","https://www.firmy.cz/detail/13019191-cokolaterie-u-karoliny-litvinov-horni-litvinov.html","434"
"3","Hospoda","Zájezdní hostinec Bukový háj Litvínov","https://www.firmy.cz/detail/12999110-zajezdni-hostinec-bukovy-haj-litvinov-litvinov-chuderin.html","346"
"4","Veterinář","Veterinární ordinace Most - Litvínov, s.r.o.","https://www.firmy.cz/detail/12722742-veterinarni-ordinace-most-litvinov-litvinov-horni-litvinov.html","855"
"5","Kino","3D kino Citadela Litvínov","https://www.firmy.cz/detail/13236248-3d-kino-citadela-litvinov-litvinov-horni-litvinov.html","1990"
"6","Divadlo","Docela velké divadlo","https://www.firmy.cz/detail/402086-docela-velke-divadlo-litvinov-horni-litvinov.html","599"
"7","Sportoviště","Sportovní hala Tenba","https://www.firmy.cz/detail/12714849-sportovni-hala-tenba-litvinov-horni-litvinov.html","270"
"8","Tram","Litvínov, Obchodní dům","https://mapy.cz/zakladni?x=13.612680108&y=50.5975706809&z=17&source=pubt&id=15331771","719"
"9","Restaurace","Restaurace Podkrušnohorská 	308","https://www.firmy.cz/detail/13139463-restaurace-podkrusnohorska-308-litvinov-horni-litvinov.html","152"
"10","Bankomat","Bankomat České spořitelny","https://www.firmy.cz/detail/13165926-bankomat-ceske-sporitelny-litvinov-horni-litvinov.html","201"
"11","Školka","ZŠ a MŠ Litvínov, Soukenická","https://www.firmy.cz/detail/2447397-zs-a-ms-litvinov-soukenicka-litvinov-horni-litvinov.html","287"
"12","Pošta","Pošta Litvínov 3 - Česká pošta, s.p.","https://www.firmy.cz/detail/216938-posta-litvinov-3-litvinov-chuderin.html","440"
"13","Obchod","Tesco","https://www.firmy.cz/detail/12729388-tesco-litvinov-horni-litvinov.html","197"
"14","Vlak","Litvínov","https://mapy.cz/zakladni?x=13.6102567045&y=50.592967851&z=17&source=pubt&id=15211991","890"
"15","Škola","Střední odborná škola pro ochranu a obnovu životního prostředí - Schola Humanitas Litvínov","https://www.firmy.cz/detail/163963-stredni-odborna-skola-pro-ochranu-a-obnovu-zivotniho-prostredi-schola-humanitas-litvinov-litvinov-horni-litvinov.html","63"
"16","Bus MHD","Litvínov, Bílý sloup","https://mapy.cz/zakladni?x=13.6022882246393&y=50.5992125667805&z=17&source=pubt&id=15332075","57"
"17","Lékař","USMC s.r.o.","https://www.firmy.cz/detail/13283378-usmc-s-r-o-litvinov-horni-litvinov.html","315"
"18","Lékárna","BENU Lékárna","https://www.firmy.cz/detail/12729604-benu-lekarna-litvinov-horni-litvinov.html","201"
