"","facility_type","facility_name","facility_iri","facility_distance"
"0","Cukrárna","Cukrárna Diana","https://www.firmy.cz/detail/1990334-cukrarna-diana-opava-predmesti.html","4187"
"1","Kino","Kino Mír","https://www.firmy.cz/detail/2297240-kino-mir-opava-mesto.html","4965"
"2","Přírodní zajímavost","Louka u kruháče","","3849"
"3","Hřiště","Dětské hřiště Ludvíka Svobody","","249"
"4","Večerka","TEMPO, obchodní družstvo","https://www.firmy.cz/detail/13315025-tempo-obchodni-druzstvo-slavkov.html","274"
"5","Hospoda","Hospůdka  Tágo","https://www.firmy.cz/detail/13119758-hospudka-tago-otice.html","1920"
"6","Divadlo","Slezské divadlo Opava","https://www.firmy.cz/detail/230941-slezske-divadlo-opava-opava-mesto.html","4930"
"7","Veterinář","MVDr. Renáta Hlavová","https://www.firmy.cz/detail/674399-mvdr-renata-hlavova-opava-predmesti.html","3648"
"8","Sportoviště","LaserTag Opava","https://www.firmy.cz/detail/13208851-lasertag-opava-slavkov.html","203"
"9","Bus MHD","Slavkov, škola","","244"
"10","Pošta","Pošta Slavkov u Opavy - Česká pošta, s.p.","https://www.firmy.cz/detail/432642-posta-slavkov-u-opavy-slavkov.html","353"
"11","Obchod","Kaufland","https://www.firmy.cz/detail/12835404-kaufland-opava-predmesti.html","2787"
"12","Bankomat","Bankomat České spořitelny","https://www.firmy.cz/detail/12987607-bankomat-ceske-sporitelny-opava-predmesti.html","2787"
"13","Škola","ZŠ a MŠ Slavkov","https://www.firmy.cz/detail/359371-zs-a-ms-slavkov-slavkov.html","327"
"14","Lékař","Praktik-Cihlářová, s.r.o.","https://www.firmy.cz/detail/13283838-praktik-cihlarova-slavkov.html","353"
"15","Restaurace","PIZZA NAPOLEON","https://www.firmy.cz/detail/12883340-pizza-napoleon-slavkov.html","298"
"16","Lékárna","BENU Lékárna","https://www.firmy.cz/detail/12875760-benu-lekarna-opava-predmesti.html","2828"
"17","Školka","ZŠ a MŠ Slavkov","https://www.firmy.cz/detail/738550-zs-a-ms-slavkov-slavkov.html","415"
"18","Vlak","Slavkov u Opavy","","721"
