"","facility_type","facility_name","facility_iri","facility_distance"
"0","Cukrárna","Kavárna v Pasáži Sofie","https://www.firmy.cz/detail/13124074-kavarna-v-pasazi-sofie-praha-modrany.html","820"
"1","Kino","Modřanský biograf","https://www.firmy.cz/detail/13272765-modransky-biograf-praha-modrany.html","1117"
"2","Hřiště","Dětské hřiště Petržílova","","131"
"3","Večerka","Potraviny K Vystrkovu 1883/14","https://www.firmy.cz/detail/2537180-potraviny-k-vystrkovu-1883-14-praha-modrany.html","600"
"4","Hospoda","Komořanská Pivnice","https://www.firmy.cz/detail/13316727-komoranska-pivnice-praha-modrany.html","1019"
"5","Divadlo","Divadlo Na Cikorce","https://www.firmy.cz/detail/2387865-divadlo-na-cikorce-praha-modrany.html","1579"
"6","Veterinář","Vethope s.r.o. - veterinární klinika","https://www.firmy.cz/detail/12949094-vethope-s-r-o-veterinarni-klinika-praha-modrany.html","360"
"7","Tram","Čechova čtvrť","","671"
"8","Restaurace","Sasy.re pizzeria","https://www.firmy.cz/detail/13303651-sasy-re-pizzeria-praha-modrany.html","492"
"9","Škola","Soukromá základní umělecká škola Music Art, v.o.s.","https://www.firmy.cz/detail/296503-soukroma-zakladni-umelecka-skola-music-art-praha-modrany.html","385"
"10","Lékař","ARNICA centre, s.r.o.","https://www.firmy.cz/detail/2688025-arnica-centre-praha-modrany.html","804"
"11","Vlak","Praha-Modřany zastávka","","1224"
"12","Bus MHD","Platónova","","93"
"13","Bankomat","Bankomat ČSOB","https://www.firmy.cz/detail/636689-bankomat-csob-praha-modrany.html","771"
"14","Sportoviště","Sportovní klub LTC Modřany 2005 o.s.","https://www.firmy.cz/detail/1946008-sportovni-klub-ltc-modrany-2005-o-s-praha.html","762"
"15","Obchod","Obchodní pasáž Sofie","https://www.firmy.cz/detail/217785-obchodni-pasaz-sofie-praha-modrany.html","818"
"16","Pošta","Pošta Praha 412 - Česká pošta, s.p.","https://www.firmy.cz/detail/217477-posta-praha-412-praha-modrany.html","807"
"17","Školka","1st Baby School - Mateřská škola s.r.o.","https://www.firmy.cz/detail/13316202-1st-baby-school-materska-skola-s-r-o-praha-modrany.html","330"
"18","Lékárna","Magistra Lékárna U Polikliniky","https://www.firmy.cz/detail/12969014-magistra-lekarna-u-polikliniky-praha-modrany.html","810"
"19","Metro","Roztyly","","6072"
