"","facility_type","facility_name","facility_iri","facility_distance"
"0","Cukrárna","Jacob's Donuts","https://www.firmy.cz/detail/13328024-jacob-s-donuts-opava-predmesti.html","302"
"1","Přírodní zajímavost","Bludný balvan","","1023"
"2","Kino","CineStar Opava","https://www.firmy.cz/detail/12765227-cinestar-opava-opava-mesto.html","390"
"3","Hřiště","Dětské hřiště Popská","","712"
"4","Večerka","HRUŠKA - KOMFOR","https://www.firmy.cz/detail/12947058-hruska-komfor-opava-predmesti.html","137"
"5","Hospoda","U Vočka","https://www.firmy.cz/detail/13113392-u-vocka-opava-predmesti.html","160"
"6","Divadlo","Slezské divadlo Opava","https://www.firmy.cz/detail/230941-slezske-divadlo-opava-opava-mesto.html","607"
"7","Veterinář","MVDr. Lenka Bořecká","https://www.firmy.cz/detail/2660210-mvdr-lenka-borecka-opava-mesto.html","673"
"8","Pošta","Pošta Opava 1 - Česká pošta, s.p.","https://www.firmy.cz/detail/432548-posta-opava-1-opava-mesto.html","332"
"9","Lékař","MUDr. Sylva Chvílová","https://www.firmy.cz/detail/387984-mudr-sylva-chvilova-opava-predmesti.html","30"
"10","Bus MHD","Opava, Mařádkova","","100"
"11","Lékárna","Lékárna POLIKLINIKA, s.r.o.","https://www.firmy.cz/detail/421921-lekarna-poliklinika-opava-predmesti.html","417"
"12","Bankomat","Bankomat Komerční banky","https://www.firmy.cz/detail/594152-bankomat-komercni-banky-opava-mesto.html","381"
"13","Školka","MŠ Sluníčko Opava, Krnovská","https://www.firmy.cz/detail/1988553-ms-slunicko-opava-krnovska-opava-predmesti.html","72"
"14","Sportoviště","Sportcentrum Opava","https://www.firmy.cz/detail/13317498-sportcentrum-opava-opava-predmesti.html","302"
"15","Vlak","Opava západ","","715"
"16","Obchod","OC Breda & Weinstein","https://www.firmy.cz/detail/12735258-oc-breda-weinstein-opava-mesto.html","373"
"17","Restaurace","Restaurace U Minervy","https://www.firmy.cz/detail/678121-restaurace-u-minervy-opava-predmesti.html","96"
"18","Škola","ZŠ Opava, Mařádkova","https://www.firmy.cz/detail/358610-zs-opava-maradkova-opava-predmesti.html","105"
