"","facility_type","facility_name","facility_iri","facility_distance"
"0","Cukrárna","InKafe","https://www.firmy.cz/detail/13123842-inkafe-praha-hostivar.html","628"
"1","Kino","Multikino - Premiere Cinemas Praha Hostivař","https://www.firmy.cz/detail/12745547-multikino-premiere-cinemas-praha-hostivar-praha-hostivar.html","2034"
"2","Přírodní zajímavost","Mokřad Triangl","","1983"
"3","Hřiště","Dětské hřiště Kytínská","","362"
"4","Večerka","NORMA","https://www.firmy.cz/detail/13254751-norma-praha-hostivar.html","560"
"5","Hospoda","Občerstvení Horolezecká 867/1","https://www.firmy.cz/detail/2457833-obcerstveni-horolezecka-867-1-praha-hostivar.html","552"
"6","Divadlo","Loutkové divadlo Frydolín","https://www.firmy.cz/detail/397086-loutkove-divadlo-frydolin-praha-hostivar.html","719"
"7","Veterinář","MVDr. Lukáš Naxera - veterinární klinika","https://www.firmy.cz/detail/657788-mvdr-lukas-naxera-veterinarni-klinika-praha-dolni-mecholupy.html","346"
"8","Lékárna","Hostivařská lékárna s.r.o.","https://www.firmy.cz/detail/13208850-hostivarska-lekarna-s-r-o-praha-hostivar.html","747"
"9","Bankomat","Bankomat Fio banky","https://www.firmy.cz/detail/2678013-bankomat-fio-banky-praha-hostivar.html","640"
"10","Pošta","Pošta Praha 102 - Česká pošta, s.p.","https://www.firmy.cz/detail/431437-posta-praha-102-praha-hostivar.html","670"
"11","Lékař","Ordinace Hostivař MuDr. Taťána Tomaňová","https://www.firmy.cz/detail/13193457-ordinace-hostivar-mudr-tatana-tomanova-praha-hostivar.html","507"
"12","Bus MHD","Továrny Hostivař","","159"
"13","Tram","Nádraží Hostivař","","642"
"14","Restaurace","Restaurace Gatteo","https://www.firmy.cz/detail/12833029-restaurace-gatteo-praha-hostivar.html","162"
"15","Vlak","Praha-Hostivař","","522"
"16","Škola","Střední škola automobilní a informatiky","https://www.firmy.cz/detail/360786-stredni-skola-automobilni-a-informatiky-praha-hostivar.html","507"
"17","Obchod","Štěrboholy Retail Park","https://www.firmy.cz/detail/13185713-sterboholy-retail-park-praha.html","1252"
"18","Metro","Skalka","","2949"
"19","Sportoviště","Tělovýchovná jednota Zentiva Praha 10","https://www.firmy.cz/detail/2648803-telovychovna-jednota-zentiva-praha-10-praha-dolni-mecholupy.html","482"
"20","Školka","MŠ Praha 10, Horolezecká","https://www.firmy.cz/detail/1968803-ms-praha-10-horolezecka-praha-hostivar.html","488"
