"","facility_type","facility_name","facility_iri","facility_distance"
"0","Cukrárna","Cukrárna U Bena","https://www.firmy.cz/detail/2604925-cukrarna-u-bena-teplice.html","346"
"1","Kino","Kino Květen","https://www.firmy.cz/detail/435268-kino-kveten-teplice.html","824"
"2","Přírodní zajímavost","Odkaliště Proboštov","","3526"
"3","Hřiště","Dětské hřiště Palackého","","304"
"4","Večerka","Potraviny U nádraží","https://www.firmy.cz/detail/13330330-potraviny-u-nadrazi-teplice.html","317"
"5","Hospoda","Hospůdka U Veselýho Mandlu","https://www.firmy.cz/detail/13079074-hospudka-u-veselyho-mandlu-teplice.html","303"
"6","Divadlo","Krušnohorské divadlo","https://www.firmy.cz/detail/435271-krusnohorske-divadlo-teplice.html","718"
"7","Veterinář","MVDr. Jaroslava Radoušová","https://www.firmy.cz/detail/2621440-mvdr-jaroslava-radousova-teplice.html","457"
"8","Bankomat","Bankomat České spořitelny","https://www.firmy.cz/detail/596275-bankomat-ceske-sporitelny-teplice.html","117"
"9","Škola","ZŠ s rozšířeným vyučováním cizích jazyků Teplice","https://www.firmy.cz/detail/359675-zs-s-rozsirenym-vyucovanim-cizich-jazyku-teplice-teplice-trnovany.html","349"
"10","Lékárna","Dr. Max LÉKÁRNA","https://www.firmy.cz/detail/12857066-dr-max-lekarna-teplice.html","378"
"11","Restaurace","Restaurace V8","https://www.firmy.cz/detail/13152229-restaurace-v8-teplice.html","146"
"12","Sportoviště","Pétanque Teplice","","631"
"13","Vlak","Teplice v Čechách","","369"
"14","Bus MHD","Teplice, Masarykova","","120"
"15","Obchod","Albert Hypermarket","https://www.firmy.cz/detail/12928948-albert-hypermarket-teplice.html","788"
"16","Pošta","Pošta Teplice 2 - Česká pošta, s.p.","https://www.firmy.cz/detail/215427-posta-teplice-2-teplice.html","300"
"17","Školka","PROFI ŠKOLKA","https://www.firmy.cz/detail/13176880-profi-skolka-teplice.html","165"
"18","Lékař","PÁCALTOVÁ HANA MUDr.","https://www.firmy.cz/detail/390721-pacaltova-hana-mudr-teplice.html","76"
