"","facility_type","facility_name","facility_iri","facility_distance"
"0","Přírodní zajímavost","Zábřežský bludný balvan","https://mapy.cz/zakladni?x=18.2405209436&y=49.8063021231&z=17&source=base&id=2110132","1408"
"1","Hřiště","Dětské hřiště Petruškova","https://mapy.cz/zakladni?x=18.2251483333&y=49.7940266667&z=17&source=base&id=2068446","811"
"2","Večerka","HRUŠKA","https://www.firmy.cz/detail/12819592-hruska-ostrava-zabreh.html","137"
"3","Hospoda","Hospůdka u Hanzyho","https://www.firmy.cz/detail/13146165-hospudka-u-hanzyho-ostrava-zabreh.html","218"
"4","Veterinář","MVDr. Petr Stankoci - Veterinární ordinace","https://www.firmy.cz/detail/1957076-mvdr-petr-stankoci-veterinarni-ordinace-ostrava-hrabuvka.html","1094"
"5","Cukrárna","Suri Cafe","https://www.firmy.cz/detail/13298853-suri-cafe-ostrava-zabreh.html","756"
"6","Divadlo","Divadlo U Lípy","https://www.firmy.cz/detail/2121467-divadlo-u-lipy-ostrava-zabreh.html","1289"
"7","Kino","Kino Luna","https://www.firmy.cz/detail/2642805-kino-luna-ostrava-zabreh.html","886"
"8","Sportoviště","Aerobic Team KN Ostrava","https://www.firmy.cz/detail/624622-aerobic-team-kn-ostrava-ostrava-zabreh.html","102"
"9","Obchod","Kaufland","https://www.firmy.cz/detail/1461415-kaufland-ostrava-zabreh.html","822"
"10","Bus MHD","Náměstí SNP","https://mapy.cz/zakladni?x=18.2368507481&y=49.791581202&z=17&source=pubt&id=15202778","261"
"11","Tram","Rodimcevova","https://mapy.cz/zakladni?x=18.2381315187761&y=49.7954927137383&z=17&source=pubt&id=15201853","213"
"12","Vlak","Ostrava-Vítkovice","https://mapy.cz/zakladni?x=18.2619838541&y=49.8015603213&z=17&source=pubt&id=15212382","2020"
"13","Restaurace","Posezení U Romana","https://www.firmy.cz/detail/13235405-posezeni-u-romana-ostrava-zabreh.html","218"
"14","Lékař","MUDr. Marcela Prokopová","https://www.firmy.cz/detail/388974-mudr-marcela-prokopova-ostrava-zabreh.html","117"
"15","Školka","Soukromá základní škola a mateřská škola, s.r.o.","https://www.firmy.cz/detail/2320297-soukroma-zakladni-skola-a-materska-skola-ostrava-zabreh.html","516"
"16","Lékárna","Lékárna Sano Zábřeh","https://www.firmy.cz/detail/13204516-lekarna-sano-zabreh-ostrava-zabreh.html","137"
"17","Škola","Střední škola uměleckých řemesel, s.r.o.","https://www.firmy.cz/detail/361678-stredni-skola-umeleckych-remesel-ostrava-zabreh.html","102"
"18","Pošta","Pošta Ostrava 4 - Česká pošta, s.p.","https://www.firmy.cz/detail/433394-posta-ostrava-4-ostrava-zabreh.html","236"
"19","Bankomat","Bankomat MONETA Money Bank","https://www.firmy.cz/detail/12780482-bankomat-moneta-money-bank-ostrava-zabreh.html","581"
