"","facility_type","facility_name","facility_iri","facility_distance"
"0","Cukrárna","Cukrárna Beruška","https://www.firmy.cz/detail/13117149-cukrarna-beruska-krupka-bohosudov.html","726"
"1","Kino","Městské kino Krupka","https://www.firmy.cz/detail/1314855-mestske-kino-krupka-krupka.html","1068"
"2","Přírodní zajímavost","Prameniště a mokřady Vinohradského potoka","","1362"
"3","Hřiště","Dětské hřiště Revoluční","","157"
"4","Večerka","Tesco Supermarket","https://www.firmy.cz/detail/2195876-tesco-supermarket-krupka-marsov.html","348"
"5","Hospoda","Hospůdka Pohoda","https://www.firmy.cz/detail/13178717-hospudka-pohoda-krupka.html","989"
"6","Veterinář","HEJAKRAL","https://www.firmy.cz/detail/470891-hejakral-krupka-bohosudov.html","308"
"7","Restaurace","Restaurant Pod Kaštany","https://www.firmy.cz/detail/12979047-restaurant-pod-kastany-krupka-marsov.html","178"
"8","Bus MHD","Krupka, Bohosudov, Komenského","","218"
"9","Školka","MŠ Písnička Krupka, Dukelských hrdinů 295","https://www.firmy.cz/detail/153742-ms-pisnicka-krupka-dukelskych-hrdinu-295-krupka-marsov.html","93"
"10","Bankomat","Bankomat MONETA Money Bank","https://www.firmy.cz/detail/2394656-bankomat-moneta-money-bank-krupka-marsov.html","342"
"11","Sportoviště","Sport Krupka s.r.o. - Sportovní areál","https://www.firmy.cz/detail/602453-sport-krupka-s-r-o-sportovni-areal-krupka.html","1466"
"12","Lékárna","Lékárna Krupka Maršov","https://www.firmy.cz/detail/12920250-lekarna-krupka-marsov-krupka-marsov.html","352"
"13","Obchod","Olympia Teplice","https://www.firmy.cz/detail/12704834-olympia-teplice-teplice-sobedruhy.html","3065"
"14","Vlak","Krupka-Bohosudov","","1547"
"15","Lékař","MUDr. Dagmar Druckerová","https://www.firmy.cz/detail/387264-mudr-dagmar-druckerova-krupka-marsov.html","314"
"16","Škola","ZŠ a Střední škola Krupka, Karla Čapka","https://www.firmy.cz/detail/357853-zs-a-stredni-skola-krupka-karla-capka-krupka-marsov.html","314"
"17","Pošta","Pošta Krupka 1 - Česká pošta, s.p.","https://www.firmy.cz/detail/215448-posta-krupka-1-krupka-marsov.html","283"
