"","facility_type","facility_name","facility_iri","facility_distance"
"0","Cukrárna","Pekařství a cukrárna Benea","https://www.firmy.cz/detail/2588115-pekarstvi-a-cukrarna-benea-praha-vinohrady.html","211"
"1","Kino","Cinema City Flora","https://www.firmy.cz/detail/660712-cinema-city-flora-praha-zizkov.html","600"
"2","Hřiště","Dětské hřiště Milešovská","","113"
"3","Večerka","Albert Supermarket","https://www.firmy.cz/detail/209482-albert-supermarket-praha-vinohrady.html","134"
"4","Divadlo","Hvězdné léto pod žižkovskou věží","https://www.firmy.cz/detail/13265384-hvezdne-leto-pod-zizkovskou-vezi-praha-zizkov.html","354"
"5","Hospoda","U Pižďucha","https://www.firmy.cz/detail/337127-u-pizducha-praha-zizkov.html","857"
"6","Veterinář","Veterinární klinika Fénix","https://www.firmy.cz/detail/2132602-veterinarni-klinika-fenix-praha-vinohrady.html","194"
"7","Škola","Základní škola, Praha 3, Perunova","https://www.firmy.cz/detail/2392606-zakladni-skola-praha-3-perunova-praha-vinohrady.html","254"
"8","Bus MHD","Jiřího z Poděbrad","","285"
"9","Restaurace","Restaurant Fenix","https://www.firmy.cz/detail/328768-restaurant-fenix-praha-vinohrady.html","109"
"10","Lékárna","U Robina","https://www.firmy.cz/detail/658538-u-robina-praha-vinohrady.html","295"
"11","Školka","Mateřská škola, Praha 3, Perunova","https://www.firmy.cz/detail/358972-materska-skola-praha-3-perunova-praha-vinohrady.html","254"
"12","Obchod","PAVILON, a.s.","https://www.firmy.cz/detail/451685-pavilon-praha-vinohrady.html","763"
"13","Metro","Jiřího z Poděbrad","","258"
"14","Vlak","Praha hlavní nádraží","","1250"
"15","Tram","Jiřího z Poděbrad","","194"
"16","Bankomat","Bankomat Komerční banky","https://www.firmy.cz/detail/595969-bankomat-komercni-banky-praha-vinohrady.html","115"
"17","Sportoviště","Tenisová škola TALLENT","https://www.firmy.cz/detail/2591478-tenisova-skola-tallent-praha-vinohrady.html","254"
"18","Pošta","Pošta Praha 33 - Česká pošta, s.p.","https://www.firmy.cz/detail/1994123-posta-praha-33-praha-vinohrady.html","56"
"19","Lékař","MUDr. Milan Hudi","https://www.firmy.cz/detail/2521971-mudr-milan-hudi-praha-vinohrady.html","196"
