"","facility_type","facility_name","facility_iri","facility_distance"
"0","Cukrárna","Zelenkova cukrárna","https://www.firmy.cz/detail/12984527-zelenkova-cukrarna-praha-horni-mecholupy.html","566"
"1","Kino","ÚČKO Kino","https://www.firmy.cz/detail/12965466-ucko-kino-praha-uhrineves.html","3125"
"2","Přírodní zajímavost","Mokřad Triangl","","4096"
"3","Hřiště","Dětské hřiště Modenská","","91"
"4","Večerka","Můjobchod - Potraviny Janovská","https://www.firmy.cz/detail/12997178-mujobchod-potraviny-janovska-praha-horni-mecholupy.html","178"
"5","Divadlo","Loutkové divadlo Frydolín","https://www.firmy.cz/detail/397086-loutkove-divadlo-frydolin-praha-hostivar.html","2766"
"6","Hospoda","Snack Bar V Domě","https://www.firmy.cz/detail/13144885-snack-bar-v-dome-praha-horni-mecholupy.html","913"
"7","Veterinář","H-VET spol. s r.o.","https://www.firmy.cz/detail/457903-h-vet-spol-s-r-o-praha-horni-mecholupy.html","770"
"8","Lékař","MUDr. Helena Sedláková","https://www.firmy.cz/detail/2697764-mudr-helena-sedlakova-praha-horni-mecholupy.html","178"
"9","Obchod","Kaufland","https://www.firmy.cz/detail/13019504-kaufland-praha-horni-mecholupy.html","349"
"10","Pošta","Pošta Praha 111","https://www.firmy.cz/detail/13129012-posta-praha-111-praha-horni-mecholupy.html","566"
"11","Bus MHD","Janovská","","34"
"12","Školka","MŠ Praha 10, Parmská","https://www.firmy.cz/detail/407173-ms-praha-10-parmska-praha-horni-mecholupy.html","220"
"13","Škola","ZŠ Praha 10, Veronské náměstí","https://www.firmy.cz/detail/358949-zs-praha-10-veronske-namesti-praha-horni-mecholupy.html","305"
"14","Metro","Háje","","2983"
"15","Tram","Nádraží Hostivař","","2466"
"16","Lékárna","Lékárna Janovská s.r.o.","https://www.firmy.cz/detail/374837-lekarna-janovska-s-r-o-praha-horni-mecholupy.html","178"
"17","Vlak","Praha-Horní Měcholupy","","734"
"18","Bankomat","Bankomat Air Bank","https://www.firmy.cz/detail/13033247-bankomat-air-bank-praha.html","347"
"19","Sportoviště","Tělocvičná jednota Sokol Petrovice I.","https://www.firmy.cz/detail/2128376-telocvicna-jednota-sokol-petrovice-i-praha-petrovice.html","956"
"20","Restaurace","Restaurace Dobrá společnost","https://www.firmy.cz/detail/13060661-restaurace-dobra-spolecnost-praha-horni-mecholupy.html","244"
