"","facility_type","facility_name","facility_iri","facility_distance"
"0","Cukrárna","Strop Café","https://www.firmy.cz/detail/466699-strop-cafe-praha-vinohrady.html","339"
"1","Kino","Kino 35 Francouzský institut v Praze","https://www.firmy.cz/detail/682514-kino-35-francouzsky-institut-v-praze-praha-nove-mesto.html","362"
"2","Hřiště","Dětské hřiště Františkánská zahrada","","699"
"3","Večerka","Tesco Expres","https://www.firmy.cz/detail/2358796-tesco-expres-praha-vinohrady.html","205"
"4","Hospoda","Batalion Café & Music Bar","https://www.firmy.cz/detail/457689-batalion-cafe-music-bar-praha-stare-mesto.html","852"
"5","Divadlo","Činoherní klub, z.ú.","https://www.firmy.cz/detail/396907-cinoherni-klub-z-u-praha-nove-mesto.html","263"
"6","Veterinář","Veterinární ambulance Help","https://www.firmy.cz/detail/178079-veterinarni-ambulance-help-praha-vinohrady.html","492"
"7","Lékař","Klinika GHC Praha","https://www.firmy.cz/detail/432809-klinika-ghc-praha-praha-nove-mesto.html","140"
"8","Škola","Vyšší odborná škola zdravotnická Suverenního řádu maltézských rytířů Praha, Ječná","https://www.firmy.cz/detail/362670-vyssi-odborna-skola-zdravotnicka-suverenniho-radu-maltezskych-rytiru-praha-jecna-praha-nove-mesto.html","320"
"9","Tram","I. P. Pavlova","","203"
"10","Restaurace","Sushi Islands","https://www.firmy.cz/detail/1999727-sushi-islands-praha-vinohrady.html","87"
"11","Bus MHD","Muzeum","","240"
"12","Lékárna","BENU Lékárna","https://www.firmy.cz/detail/13189195-benu-lekarna-praha-vinohrady.html","255"
"13","Vlak","Praha hlavní nádraží","","786"
"14","Školka","MŠ Praha 2, Na Rybníčku","https://www.firmy.cz/detail/731793-ms-praha-2-na-rybnicku-praha-nove-mesto.html","333"
"15","Bankomat","Bankomat České spořitelny","https://www.firmy.cz/detail/594232-bankomat-ceske-sporitelny-praha-nove-mesto.html","241"
"16","Sportoviště","Tenisová škola TALLENT","https://www.firmy.cz/detail/722752-tenisova-skola-tallent-praha-vinohrady.html","500"
"17","Pošta","Pošta Praha 24 - Česká pošta, s.p.","https://www.firmy.cz/detail/431217-posta-praha-24-praha-vinohrady.html","384"
"18","Metro","Muzeum","","125"
"19","Obchod","DESIRRED","https://www.firmy.cz/detail/483472-desirred-praha-nove-mesto.html","595"
