"","facility_type","facility_name","facility_iri","facility_distance"
"0","Cukrárna","Panetteria Maya","https://www.firmy.cz/detail/276877-panetteria-maya-most.html","637"
"1","Kino","Kino Kosmos","https://www.firmy.cz/detail/401279-kino-kosmos-most.html","483"
"2","Hřiště","Dětské hřiště Tyršova","","70"
"3","Večerka","Potraviny U Kubísků","https://www.firmy.cz/detail/13132594-potraviny-u-kubisku-most.html","220"
"4","Hospoda","Pivnice Na Trhu","https://www.firmy.cz/detail/13113975-pivnice-na-trhu-most.html","356"
"5","Divadlo","Městské divadlo v Mostě, spol. s r.o.","https://www.firmy.cz/detail/1336052-mestske-divadlo-v-moste-most.html","711"
"6","Veterinář","VETERINA-MOST","https://www.firmy.cz/detail/12832535-veterina-most-most.html","651"
"7","Restaurace","Restaurace Severka","https://www.firmy.cz/detail/12979825-restaurace-severka-most.html","25"
"8","Školka","MŠ Most,  Zdeňka Fibicha","https://www.firmy.cz/detail/2281898-ms-most-zdenka-fibicha-most.html","72"
"9","Lékárna","Dr. Max LÉKÁRNA","https://www.firmy.cz/detail/2007249-dr-max-lekarna-most.html","304"
"10","Bankomat","Bankomat MONETA Money Bank","https://www.firmy.cz/detail/13082219-bankomat-moneta-money-bank-most.html","407"
"11","Bus MHD","Most, Čs.mládeže","","362"
"12","Obchod","Central Most","https://www.firmy.cz/detail/2412415-central-most-most.html","577"
"13","Škola","Vyšší odborná škola ekonomická, sociální a zdravotnická, Obchodní akademie, Střední pedagogická škola a Střední zdravotnická škola Most","https://www.firmy.cz/detail/362148-vyssi-odborna-skola-ekonomicka-socialni-a-zdravotnicka-obchodni-akademie-stredni-pedagogicka-skola-a-stredni-zdravotnicka-skola-most-most.html","145"
"14","Lékař","MUDr. Jiřina Ceeová","https://www.firmy.cz/detail/371069-mudr-jirina-ceeova-most.html","399"
"15","Sportoviště","SportCenter Most s.r.o.","https://www.firmy.cz/detail/13235550-sportcenter-most-s-r-o-most.html","804"
"16","Tram","Most, Čs.mládeže","","223"
"17","Vlak","Most","","2280"
"18","Pošta","Pošta Most 1 - Česká pošta, s.p.","https://www.firmy.cz/detail/216966-posta-most-1-most.html","997"
