"","facility_type","facility_name","facility_iri","facility_distance"
"0","Cukrárna","TRIO MALÝ HÁJ","https://www.firmy.cz/detail/13182793-trio-maly-haj-praha-dolni-mecholupy.html","2475"
"1","Kino","CineStar Černý Most","https://www.firmy.cz/detail/2537569-cinestar-cerny-most-praha-cerny-most.html","2816"
"2","Přírodní zajímavost","Meandry Rokytky","","4395"
"3","Hřiště","Dětské hřiště zámecký park","","296"
"4","Večerka","BILLA","https://www.firmy.cz/detail/12784297-billa-praha-dolni-pocernice.html","376"
"5","Hospoda","Jana Junková","https://www.firmy.cz/detail/13150659-jana-junkova-praha-hostavice.html","1246"
"6","Divadlo","Přírodní divadlo Dády Stoklasy","https://www.firmy.cz/detail/13159295-prirodni-divadlo-dady-stoklasy-praha-horni-pocernice.html","3251"
"7","Veterinář","VetGoby s.r.o.","https://www.firmy.cz/detail/2672986-vetgoby-s-r-o-praha-cerny-most.html","2059"
"8","Lékárna","Lékárna v Dolních Počernicích","https://www.firmy.cz/detail/13247202-lekarna-v-dolnich-pocernicich-praha-dolni-pocernice.html","224"
"9","Pošta","Pošta Praha 912 - Česká pošta, s.p.","https://www.firmy.cz/detail/431397-posta-praha-912-praha-dolni-pocernice.html","542"
"10","Školka","MŠ Duha","https://www.firmy.cz/detail/2283585-ms-duha-praha-dolni-pocernice.html","105"
"11","Bus MHD","Svatoňovická","","67"
"12","Lékař","MUDr. Hana Nováková","https://www.firmy.cz/detail/388613-mudr-hana-novakova-praha-dolni-pocernice.html","105"
"13","Škola","ZŠ Praha - Dolní Počernice, Národních hrdinů","https://www.firmy.cz/detail/356251-zs-praha-dolni-pocernice-narodnich-hrdinu-praha-dolni-pocernice.html","733"
"14","Sportoviště","Hala Dolní Počernice","https://www.firmy.cz/detail/13068645-hala-dolni-pocernice-praha-dolni-pocernice.html","411"
"15","Vlak","Praha-Dolní Počernice","","569"
"16","Metro","Rajská zahrada","","2666"
"17","Obchod","CENTRUM ČERNÝ MOST, a.s.","https://www.firmy.cz/detail/415615-centrum-cerny-most-praha-cerny-most.html","2629"
"18","Restaurace","Snack Bar U Koníčků","https://www.firmy.cz/detail/13082953-snack-bar-u-konicku-praha-dolni-pocernice.html","248"
"19","Tram","Lehovec","","3129"
"20","Bankomat","Bankomat ČSOB","https://www.firmy.cz/detail/2410163-bankomat-csob-praha-dolni-pocernice.html","542"
