"","facility_type","facility_name","facility_iri","facility_distance"
"0","Cukrárna","Sněz mě! dorty na zakázku","https://www.firmy.cz/detail/13140047-snez-me-dorty-na-zakazku-ceske-budejovice-7.html","2828"
"1","Kino","Kino Kotva","https://www.firmy.cz/detail/2525705-kino-kotva-ceske-budejovice-7.html","4239"
"2","Hřiště","Dětské hřiště Letní","","161"
"3","Večerka","Flop","https://www.firmy.cz/detail/12909121-flop-vcelna.html","354"
"4","Hospoda","Klára Macháčková","https://www.firmy.cz/detail/2543757-klara-machackova-vcelna.html","288"
"5","Veterinář","Veterinární ordinace MVDr. Veroniky Křížové","https://www.firmy.cz/detail/13220355-veterinarni-ordinace-mvdr-veroniky-krizove-ceske-budejovice-7.html","2375"
"6","Škola","ZŠ Boršov nad Vltavou","https://www.firmy.cz/detail/356442-zs-borsov-nad-vltavou-borsov-nad-vltavou-porici.html","1348"
"7","Školka","MŠ Včelná","https://www.firmy.cz/detail/2233954-ms-vcelna-vcelna.html","924"
"8","Pošta","Pošta Boršov nad Vltavou - Česká pošta, s.p.","https://www.firmy.cz/detail/432004-posta-borsov-nad-vltavou-borsov-nad-vltavou-porici.html","958"
"9","Sportoviště","SK Planá, z.s.","https://www.firmy.cz/detail/2648858-sk-plana-z-s-plana.html","1413"
"10","Restaurace","Restaurace U Kaštanu","https://www.firmy.cz/detail/12962906-restaurace-u-kastanu-vcelna.html","794"
"11","Lékař","Ordinace MUDr. Marie Heřmanová & MUDr. Viktória Rucká","https://www.firmy.cz/detail/13281832-ordinace-mudr-marie-hermanova-mudr-viktoria-rucka-ceske-budejovice-7.html","1420"
"12","Vlak","Včelná","","835"
"13","Lékárna","Lékárna Před špitálem","https://www.firmy.cz/detail/2125844-lekarna-pred-spitalem-ceske-budejovice-7.html","3366"
"14","Bankomat","Bankomat ČSOB","https://www.firmy.cz/detail/12966201-bankomat-csob-ceske-budejovice-7.html","3372"
"15","Bus MHD","Včelná, Pod tratí","","254"
