"","facility_type","facility_name","facility_iri","facility_distance"
"0","Cukrárna","Cukrárna Pod Marjánkou","https://www.firmy.cz/detail/12887308-cukrarna-pod-marjankou-praha-brevnov.html","1935"
"1","Kino","CineStar Anděl","https://www.firmy.cz/detail/2537565-cinestar-andel-praha-smichov.html","2383"
"2","Hřiště","Dětské hřiště Nad Turbovou","","286"
"3","Přírodní zajímavost","Kovářovic mez","","2761"
"4","Večerka","Farmářský obchůdek","https://www.firmy.cz/detail/12811625-farmarsky-obchudek-praha.html","224"
"5","Divadlo","Divadlo Orfeus","https://www.firmy.cz/detail/413053-divadlo-orfeus-praha-kosire.html","1530"
"6","Hospoda","Restaurace Na zámyšli","https://www.firmy.cz/detail/12888232-restaurace-na-zamysli-praha-kosire.html","428"
"7","Veterinář","Veterinární klinika - MVDr. Pavel Santar, MVDr. Miloš Sedlář","https://www.firmy.cz/detail/596786-veterinarni-klinika-mvdr-pavel-santar-mvdr-milos-sedlar-praha-kosire.html","757"
"8","Bus MHD","Pod školou","","61"
"9","Vlak","Praha-Cibulka","","608"
"10","Tram","Kavalírka","","256"
"11","Lékař","VÁCLAVKA, spol. s r.o.","https://www.firmy.cz/detail/201959-vaclavka-praha-kosire.html","272"
"12","Lékárna","Lékárna Melissa","https://www.firmy.cz/detail/272051-lekarna-melissa-praha-kosire.html","183"
"13","Škola","ZŠ Praha 5, Nepomucká","https://www.firmy.cz/detail/356189-zs-praha-5-nepomucka-praha-kosire.html","118"
"14","Metro","Jinonice","","1552"
"15","Sportoviště","Squashpark Cibulka","https://www.firmy.cz/detail/471744-squashpark-cibulka-praha-kosire.html","363"
"16","Restaurace","Restaurace Ladronka","https://www.firmy.cz/detail/248946-restaurace-ladronka-praha-smichov.html","194"
"17","Pošta","Pošta Praha 56 - Česká pošta, s.p.","https://www.firmy.cz/detail/452790-posta-praha-56-praha-kosire.html","550"
"18","Školka","Studio Lentilka – soukromá školka","https://www.firmy.cz/detail/12801104-studio-lentilka-soukroma-skolka-praha-smichov.html","267"
"19","Obchod","Kaufland","https://www.firmy.cz/detail/221319-kaufland-praha-brevnov.html","2300"
"20","Bankomat","Bankomat Komerční banky","https://www.firmy.cz/detail/1348764-bankomat-komercni-banky-praha-kosire.html","269"
