"","facility_type","facility_name","facility_iri","facility_distance"
"0","Cukrárna","Happy Pops Café  - Prague Cakepop Shop & Café","https://www.firmy.cz/detail/2697476-happy-pops-cafe-prague-cakepop-shop-cafe-praha-nusle.html","276"
"1","Kino","HopeTV","https://www.firmy.cz/detail/672889-hopetv-praha-vinohrady.html","1810"
"2","Hřiště","Dětské hřiště Lopatecká","","116"
"3","Večerka","Tesco Expres","https://www.firmy.cz/detail/2600796-tesco-expres-praha-nusle.html","292"
"4","Hospoda","BEER BAR Na Veseli","https://www.firmy.cz/detail/2553652-beer-bar-na-veseli-praha-nusle.html","840"
"5","Divadlo","TotO Divadlo","https://www.firmy.cz/detail/2262258-toto-divadlo-praha-nusle.html","301"
"6","Veterinář","MVDr. Lucie Boháčová","https://www.firmy.cz/detail/2646562-mvdr-lucie-bohacova-praha-podoli.html","359"
"7","Bus MHD","Klikovka","","25"
"8","Lékař","MUDr. Marcela Cesarová","https://www.firmy.cz/detail/379326-mudr-marcela-cesarova-praha-podoli.html","301"
"9","Školka","MŠ Praha 4, Voráčovská","https://www.firmy.cz/detail/628792-ms-praha-4-voracovska-praha-podoli.html","403"
"10","Tram","Pražského povstání","","346"
"11","Sportoviště","Sportovní areál - Tělovýchovná jednota Pankrác","https://www.firmy.cz/detail/222212-sportovni-areal-telovychovna-jednota-pankrac-praha-nusle.html","133"
"12","Škola","Vyšší odborná škola zdravotnická a Střední zdravotnická škola","https://www.firmy.cz/detail/360989-vyssi-odborna-skola-zdravotnicka-a-stredni-zdravotnicka-skola-praha-nusle.html","349"
"13","Bankomat","Bankomat ČSOB","https://www.firmy.cz/detail/599589-bankomat-csob-praha-nusle.html","260"
"14","Lékárna","Lékárna U sv. Pankráce","https://www.firmy.cz/detail/422787-lekarna-u-sv-pankrace-praha-nusle.html","474"
"15","Restaurace","Restaurace U Smrťáka","https://www.firmy.cz/detail/12709979-restaurace-u-smrtaka-praha-nusle.html","397"
"16","Metro","Pražského povstání","","295"
"17","Obchod","Arkády Pankrác","https://www.firmy.cz/detail/2245240-arkady-pankrac-praha-nusle.html","898"
"18","Vlak","Praha-Vršovice","","1527"
"19","Pošta","Pošta Praha 49 - Česká pošta, s.p.","https://www.firmy.cz/detail/217479-posta-praha-49-praha-podoli.html","650"
