"","facility_type","facility_name","facility_iri","facility_distance"
"0","Hřiště","Dětské hřiště Vavřinecká","https://mapy.cz/zakladni?x=16.5522013425&y=49.2217630648&z=17&source=base&id=2220746","448"
"1","Přírodní zajímavost","Přírodní zahrada U Smrku","https://mapy.cz/zakladni?x=16.58765420430356&y=49.22807918152045&z=17&source=base&id=2324158","3084"
"2","Večerka","Smíšené zboží U Helči","https://www.firmy.cz/detail/12753476-smisene-zbozi-u-helci-brno-komin.html","523"
"3","Cukrárna","Cukrárna Aida","https://www.firmy.cz/detail/13138858-cukrarna-aida-brno-komin.html","458"
"4","Hospoda","Hospůdka Turbína","https://www.firmy.cz/detail/13041074-hospudka-turbina-brno-komin.html","390"
"5","Divadlo","Divadlo Strom","https://www.firmy.cz/detail/12762146-divadlo-strom-brno-zabovresky.html","2755"
"6","Veterinář","Veterinární klinika MVDr. Igora Beneše","https://www.firmy.cz/detail/302351-veterinarni-klinika-mvdr-igora-benese-brno-komin.html","303"
"7","Kino","Kino Lucerna","https://www.firmy.cz/detail/638240-kino-lucerna-brno-zabovresky.html","2927"
"8","Lékárna","Lékárna Komín","https://www.firmy.cz/detail/13169266-lekarna-komin-brno-komin.html","433"
"9","Sportoviště","Klub turistů a lyžařů Brno","https://www.firmy.cz/detail/13084806-klub-turistu-a-lyzaru-brno-brno-komin.html","237"
"10","Bus MHD","Branka","https://mapy.cz/zakladni?x=16.5472592188&y=49.2194157142&z=17&source=pubt&id=15205719","22"
"11","Obchod","Obchodní centrum Javor","https://www.firmy.cz/detail/13245185-obchodni-centrum-javor-brno-bystrc.html","1433"
"12","Tram","Branka","https://mapy.cz/zakladni?x=16.5473033239&y=49.2193924962&z=17&source=pubt&id=15723837","18"
"13","Škola","Gymnázium P. Křížkovského s uměleckou profilací, s.r.o.","https://www.firmy.cz/detail/270832-gymnazium-p-krizkovskeho-s-umeleckou-profilaci-brno-komin.html","643"
"14","Školka","MŠ Brno, Absolonova","https://www.firmy.cz/detail/695003-ms-brno-absolonova-brno-komin.html","809"
"15","Vlak","Brno-Královo Pole","https://mapy.cz/zakladni?x=16.5968654566&y=49.2308379578&z=17&source=pubt&id=15211060","3817"
"16","Restaurace","Restaurace MJ Holiday","https://www.firmy.cz/detail/13150985-restaurace-mj-holiday-brno-komin.html","468"
"17","Pošta","Pošta Brno 24 - Česká pošta, s.p.","https://www.firmy.cz/detail/431926-posta-brno-24-brno-komin.html","914"
"18","Bankomat","Bankomat ČSOB","https://www.firmy.cz/detail/2409578-bankomat-csob-brno-komin.html","458"
"19","Lékař","MUDr. Jana Pavloková","https://www.firmy.cz/detail/1351017-mudr-jana-pavlokova-brno-komin.html","433"
