"","facility_type","facility_name","facility_iri","facility_distance"
"0","Cukrárna","Café Globus","https://www.firmy.cz/detail/13089383-cafe-globus-chotikov.html","1952"
"1","Kino","Cinema City Plzeň","https://www.firmy.cz/detail/2246853-cinema-city-plzen-plzen-jizni-predmesti.html","3346"
"2","Hřiště","Dětské hřiště Kaznějovská","","143"
"3","Večerka","Pramen","https://www.firmy.cz/detail/12845101-pramen-plzen-bolevec.html","127"
"4","Hospoda","Balaton","https://www.firmy.cz/detail/13140252-balaton-plzen-bolevec.html","127"
"5","Divadlo","Nové divadlo Plzeň","https://www.firmy.cz/detail/12956345-nove-divadlo-plzen-plzen-jizni-predmesti.html","3344"
"6","Veterinář","Zvěrolékařství - MVDr. Jitka Drozdová","https://www.firmy.cz/detail/462522-zverolekarstvi-mvdr-jitka-drozdova-plzen-bolevec.html","221"
"7","Lékař","MUDr. Olga Staňková","https://www.firmy.cz/detail/387313-mudr-olga-stankova-plzen-bolevec.html","51"
"8","Lékárna","Bolevecká lékárna","https://www.firmy.cz/detail/12710681-bolevecka-lekarna-plzen-bolevec.html","44"
"9","Pošta","Pošta Plzeň 11 - Česká pošta, s.p.","https://www.firmy.cz/detail/216651-posta-plzen-11-plzen-bolevec.html","61"
"10","Škola","ZUŠ Plzeň, U Jam","https://www.firmy.cz/detail/759477-zus-plzen-u-jam-plzen-bolevec.html","191"
"11","Tram","Košutka","","397"
"12","Školka","90. MŠ Plzeň","https://www.firmy.cz/detail/666866-90-ms-plzen-plzen-bolevec.html","222"
"13","Sportoviště","SK JUPITER","https://www.firmy.cz/detail/12755496-sk-jupiter-plzen-bolevec.html","112"
"14","Bankomat","Bankomat České spořitelny","https://www.firmy.cz/detail/594005-bankomat-ceske-sporitelny-plzen-bolevec.html","455"
"15","Vlak","Plzeň-Bolevec","","1031"
"16","Restaurace","Bolevecká pizzerie","https://www.firmy.cz/detail/671513-bolevecka-pizzerie-plzen-bolevec.html","63"
"17","Bus MHD","Košutka","","394"
"18","Obchod","Albert Hypermarket","https://www.firmy.cz/detail/447072-albert-hypermarket-plzen-bolevec.html","513"
