"","facility_type","facility_name","facility_iri","facility_distance"
"0","Cukrárna","MaMa's Caffé","https://www.firmy.cz/detail/13155978-mama-s-caffe-plzen-vychodni-predmesti.html","395"
"1","Kino","Kino Beseda","https://www.firmy.cz/detail/12773769-kino-beseda-plzen-jizni-predmesti.html","800"
"2","Hřiště","Dětské hřiště","","290"
"3","Večerka","PONT Market","https://www.firmy.cz/detail/456965-pont-market-plzen-vychodni-predmesti.html","243"
"4","Hospoda","U Chřestýše","https://www.firmy.cz/detail/12969192-u-chrestyse-plzen-vychodni-predmesti.html","271"
"5","Divadlo","Divadlo Dialog","https://www.firmy.cz/detail/401465-divadlo-dialog-plzen-jizni-predmesti.html","993"
"6","Veterinář","Veterinární ordinace Slovany","https://www.firmy.cz/detail/470912-veterinarni-ordinace-slovany-plzen-vychodni-predmesti.html","1014"
"7","Restaurace","MK Catering, s.r.o.","https://www.firmy.cz/detail/13151046-mk-catering-plzen-vychodni-predmesti.html","128"
"8","Bus MHD","Mikulášská","","92"
"9","Lékárna","Lékárna U Nádraží","https://www.firmy.cz/detail/1950949-lekarna-u-nadrazi-plzen-vychodni-predmesti.html","345"
"10","Bankomat","Bankomat České spořitelny","https://www.firmy.cz/detail/593974-bankomat-ceske-sporitelny-plzen-vychodni-predmesti.html","227"
"11","Lékař","EUC Klinika Plzeň, s.r.o.","https://www.firmy.cz/detail/269917-euc-klinika-plzen-plzen-vychodni-predmesti.html","488"
"12","Sportoviště","Hopsina Plzeň","https://www.firmy.cz/detail/13265999-hopsina-plzen-plzen-vychodni-predmesti.html","379"
"13","Obchod","Albert Hypermarket","https://www.firmy.cz/detail/12903691-albert-hypermarket-plzen-vychodni-predmesti.html","1176"
"14","Školka","Centrum Cvrček","https://www.firmy.cz/detail/13343453-centrum-cvrcek-plzen-vychodni-predmesti.html","354"
"15","Škola","Gymnázium Plzeň, Mikulášské náměstí","https://www.firmy.cz/detail/362137-gymnazium-plzen-mikulasske-namesti-plzen-vychodni-predmesti.html","202"
"16","Pošta","Pošta Plzeň 27 - Česká pošta, s.p.","https://www.firmy.cz/detail/216636-posta-plzen-27-plzen-vychodni-predmesti.html","170"
"17","Tram","Mikulášské náměstí","","228"
"18","Vlak","Plzeň hlavní nádraží","","260"
