"","facility_type","facility_name","facility_iri","facility_distance"
"0","Cukrárna","Motýlek - kavárna s dětskou hernou","https://www.firmy.cz/detail/13224449-motylek-kavarna-s-detskou-hernou-pribram-vii.html","246"
"1","Kino","Letní kino Příbram","https://www.firmy.cz/detail/13001448-letni-kino-pribram-pribram-viii.html","395"
"2","Přírodní zajímavost","Lado u Lazeckého mlýna","","1862"
"3","Hřiště","Dětské hřiště Školní","","207"
"4","Večerka","Albert Supermarket","https://www.firmy.cz/detail/229758-albert-supermarket-pribram-viii.html","83"
"5","Hospoda","Pivnice Kostka","https://www.firmy.cz/detail/13011921-pivnice-kostka-pribram-vii.html","786"
"6","Divadlo","Divadlo A. Dvořáka Příbram","https://www.firmy.cz/detail/397055-divadlo-a-dvoraka-pribram-pribram-vii.html","620"
"7","Veterinář","MVDr. Miroslava Valterová","https://www.firmy.cz/detail/402434-mvdr-miroslava-valterova-pribram-iii.html","1009"
"8","Restaurace","Restaurace Ravak","https://www.firmy.cz/detail/2603851-restaurace-ravak-pribram-viii.html","0"
"9","Lékárna","BENU Lékárna","https://www.firmy.cz/detail/2027915-benu-lekarna-pribram-viii.html","0"
"10","Lékař","MUDr. Zdeňka Havrlíková","https://www.firmy.cz/detail/390679-mudr-zdenka-havrlikova-pribram-viii.html","0"
"11","Školka","Mateřská škola, Příbram VII, Bratří Čapků 278","https://www.firmy.cz/detail/2124236-materska-skola-pribram-vii-bratri-capku-278-pribram-vii.html","207"
"12","Bus MHD","Příbram, Školní III.poliklinika","","56"
"13","Pošta","Pošta Příbram 5 - Česká pošta, s.p.","https://www.firmy.cz/detail/216133-posta-pribram-5-pribram-viii.html","337"
"14","Bankomat","Bankomat České spořitelny","https://www.firmy.cz/detail/595043-bankomat-ceske-sporitelny-pribram-viii.html","73"
"15","Vlak","Příbram sídliště","","182"
"16","Škola","Základní škola, Příbram VII, Bratří Čapků 279","https://www.firmy.cz/detail/13045830-zakladni-skola-pribram-vii-bratri-capku-279-pribram-vii.html","262"
"17","Sportoviště","Oxygen Příbram","https://www.firmy.cz/detail/448458-oxygen-pribram-pribram-viii.html","90"
"18","Obchod","OD STAVUS","https://www.firmy.cz/detail/12996673-od-stavus-pribram-v-zdabor.html","982"
