"","facility_type","facility_name","facility_iri","facility_distance"
"0","Cukrárna","Café Globus","https://www.firmy.cz/detail/13088991-cafe-globus-chomutov.html","303"
"1","Kino","Letní kino Chomutov","https://www.firmy.cz/detail/2644649-letni-kino-chomutov-chomutov.html","2220"
"2","Hřiště","Dětské hřiště Matěje Kopeckého","","436"
"3","Večerka","Potraviny Han","https://www.firmy.cz/detail/13340649-potraviny-han-chomutov.html","254"
"4","Hospoda","Hostinec Sokolovna","https://www.firmy.cz/detail/13325931-hostinec-sokolovna-chomutov.html","164"
"5","Divadlo","Městské divadlo Chomutov","https://www.firmy.cz/detail/2644644-mestske-divadlo-chomutov-chomutov.html","1428"
"6","Veterinář","MVDr. Miloš Helebrant","https://www.firmy.cz/detail/2132064-mvdr-milos-helebrant-chomutov.html","982"
"7","Sportoviště","Tělocvičná jednota Sokol Chomutov","https://www.firmy.cz/detail/2132068-telocvicna-jednota-sokol-chomutov-chomutov.html","244"
"8","Lékař","MUDr. František Rouče","https://www.firmy.cz/detail/387374-mudr-frantisek-rouce-chomutov.html","979"
"9","Škola","Střední škola ESOZ Chomutov","https://www.firmy.cz/detail/276869-stredni-skola-esoz-chomutov-chomutov.html","183"
"10","Bus MHD","Kadaňská, kaplička","","33"
"11","Školka","ZŠ speciální a MŠ Chomutov, Palachova","https://www.firmy.cz/detail/1318923-zs-specialni-a-ms-chomutov-palachova-chomutov.html","448"
"12","Restaurace","Restaurace U Josefa","https://www.firmy.cz/detail/572359-restaurace-u-josefa-chomutov.html","119"
"13","Obchod","Globus Hypermarket","https://www.firmy.cz/detail/448350-globus-hypermarket-chomutov.html","303"
"14","Pošta","Pošta Depo Chomutov 70","https://www.firmy.cz/detail/13162842-posta-depo-chomutov-70-chomutov.html","358"
"15","Bankomat","Bankomat Fio banky","https://www.firmy.cz/detail/2678117-bankomat-fio-banky-chomutov.html","238"
"16","Lékárna","Lékárna U Okřídleného býka","https://www.firmy.cz/detail/12962589-lekarna-u-okridleneho-byka-chomutov.html","1006"
"17","Vlak","Chomutov","","334"
