"","facility_type","facility_name","facility_iri","facility_distance"
"0","Cukrárna","Cukrárna Slánská 1706/2","https://www.firmy.cz/detail/12795118-cukrarna-slanska-1706-2-praha.html","956"
"1","Kino","Cinema City Zličín","https://www.firmy.cz/detail/436222-cinema-city-zlicin-praha-trebonice.html","1805"
"2","Hřiště","Dětské hřiště Španielova","","65"
"3","Přírodní zajímavost","Kovářovic mez","","4920"
"4","Večerka","Tesco Expres","https://www.firmy.cz/detail/2414025-tesco-expres-praha-repy.html","209"
"5","Hospoda","Klub u Sklíčka","https://www.firmy.cz/detail/2220080-klub-u-sklicka-praha-repy.html","399"
"6","Divadlo","MEZINÁRODNÍ CENTRUM TANCE","https://www.firmy.cz/detail/2465676-mezinarodni-centrum-tance-praha-stodulky.html","3428"
"7","Veterinář","Veterinární klinika OK-VET","https://www.firmy.cz/detail/439625-veterinarni-klinika-ok-vet-praha-repy.html","452"
"8","Školka","MŠ Pastelka Praha","https://www.firmy.cz/detail/2133733-ms-pastelka-praha-praha-repy.html","66"
"9","Lékárna","Lékárna Makovského","https://www.firmy.cz/detail/2686056-lekarna-makovskeho-praha-repy.html","226"
"10","Tram","Blatiny","","192"
"11","Restaurace","Original Šenkovna","https://www.firmy.cz/detail/12981888-original-senkovna-praha-repy.html","166"
"12","Bus MHD","Blatiny","","189"
"13","Pošta","Pošta Praha 618 - Česká pošta, s.p.","https://www.firmy.cz/detail/431332-posta-praha-618-praha-repy.html","528"
"14","Škola","ZUŠ Blatiny Praha 6, Španielova","https://www.firmy.cz/detail/398968-zus-blatiny-praha-6-spanielova-praha-repy.html","262"
"15","Obchod","NAMIR CZ","https://www.firmy.cz/detail/670448-namir-cz-praha-repy.html","444"
"16","Sportoviště","Tenisová škola TALLENT","https://www.firmy.cz/detail/722768-tenisova-skola-tallent-praha-repy.html","433"
"17","Bankomat","Bankomat České spořitelny","https://www.firmy.cz/detail/13220709-bankomat-ceske-sporitelny-praha-repy.html","236"
"18","Metro","Zličín","","1756"
"19","Lékař","MUDr. Peter Ritter","https://www.firmy.cz/detail/389646-mudr-peter-ritter-praha-repy.html","278"
"20","Vlak","Praha-Zličín","","513"
