"","facility_type","facility_name","facility_iri","facility_distance"
"0","Cukrárna","mamacoffee","https://www.firmy.cz/detail/2515188-mamacoffee-praha-nove-mesto.html","247"
"1","Kino","Kino 35 Francouzský institut v Praze","https://www.firmy.cz/detail/682514-kino-35-francouzsky-institut-v-praze-praha-nove-mesto.html","109"
"2","Hřiště","Dětské hřiště Františkánská zahrada","","525"
"3","Večerka","MANNI MINI MARKET","https://www.firmy.cz/detail/2511345-manni-mini-market-praha-nove-mesto.html","44"
"4","Hospoda","Batalion Café & Music Bar","https://www.firmy.cz/detail/457689-batalion-cafe-music-bar-praha-stare-mesto.html","654"
"5","Divadlo","Divadlo v Řeznické, o.p.s.","https://www.firmy.cz/detail/2173304-divadlo-v-reznicke-praha-nove-mesto.html","107"
"6","Veterinář","Veterinární klinika Na Hrádku - MVDr. Ľubica Nečasová","https://www.firmy.cz/detail/633528-veterinarni-klinika-na-hradku-mvdr-lubica-necasova-praha-nove-mesto.html","784"
"7","Tram","Vodičkova","","259"
"8","Restaurace","Miyabi restaurant","https://www.firmy.cz/detail/2564926-miyabi-restaurant-praha-nove-mesto.html","150"
"9","Pošta","Česká pošta, s.p.","https://www.firmy.cz/detail/198930-ceska-posta-praha-nove-mesto.html","629"
"10","Obchod","DESIRRED","https://www.firmy.cz/detail/483472-desirred-praha-nove-mesto.html","528"
"11","Bankomat","Bankomat Euronet","https://www.firmy.cz/detail/2372726-bankomat-euronet-praha-nove-mesto.html","258"
"12","Metro","Muzeum","","358"
"13","Lékař","Klinika GHC Praha","https://www.firmy.cz/detail/432809-klinika-ghc-praha-praha-nove-mesto.html","209"
"14","Školka","MŠ Praha 2, Na Rybníčku","https://www.firmy.cz/detail/731793-ms-praha-2-na-rybnicku-praha-nove-mesto.html","168"
"15","Sportoviště","Vinland Golf Club","https://www.firmy.cz/detail/2406923-vinland-golf-club-praha-nove-mesto.html","481"
"16","Lékárna","Nemocniční lékárna VFN v Praze,odd.výdeje pro veřejnost III","https://www.firmy.cz/detail/2650769-nemocnicni-lekarna-vfn-v-praze-odd-vydeje-pro-verejnost-iii-praha-nove-mesto.html","327"
"17","Škola","Akademické gymnázium, škola hlavního města Prahy, Praha 1, Štěpánská 22","https://www.firmy.cz/detail/228896-akademicke-gymnazium-skola-hlavniho-mesta-prahy-praha-1-stepanska-22-praha-nove-mesto.html","73"
"18","Bus MHD","Ve Smečkách","","88"
"19","Vlak","Praha hlavní nádraží","","1020"
