"","facility_type","facility_name","facility_iri","facility_distance"
"0","Cukrárna","Cukrárna v Penzionu Na Figleně","https://www.firmy.cz/detail/13136889-cukrarna-v-penzionu-na-figlene-slatinice.html","2813"
"1","Přírodní zajímavost","Státní lom","","4998"
"2","Hřiště","Dětské hřiště Třebčínská","","515"
"3","Večerka","HRUŠKA","https://www.firmy.cz/detail/13201431-hruska-lutin.html","479"
"4","Hospoda","Litovelská pivnice","https://www.firmy.cz/detail/13117080-litovelska-pivnice-lutin-trebcin.html","1949"
"5","Veterinář","MVDr. Petra Šinová","https://www.firmy.cz/detail/2622890-mvdr-petra-sinova-olsany-u-prostejova.html","3682"
"6","Vlak","Třebčín","","1747"
"7","Škola","ZŠ a MŠ Lutín","https://www.firmy.cz/detail/358150-zs-a-ms-lutin-lutin.html","347"
"8","Sportoviště","Obec Slatinice - Tenis","https://www.firmy.cz/detail/13079463-obec-slatinice-tenis-slatinice.html","2652"
"9","Restaurace","Restaurace Neptun","https://www.firmy.cz/detail/13103696-restaurace-neptun-lutin.html","486"
"10","Bankomat","Bankomat České spořitelny","https://www.firmy.cz/detail/13170312-bankomat-ceske-sporitelny-lutin.html","479"
"11","Lékárna","Lékárna Lutín","https://www.firmy.cz/detail/422291-lekarna-lutin-lutin.html","503"
"12","Bus MHD","Lutín, ObÚ","","298"
"13","Lékař","MEDICOM`S spol. s r.o.","https://www.firmy.cz/detail/658533-medicom-s-spol-s-r-o-lutin.html","503"
"14","Pošta","Pošta Lutín - Česká pošta, s.p.","https://www.firmy.cz/detail/432380-posta-lutin-lutin.html","430"
"15","Školka","ZŠ a MŠ Lutín","https://www.firmy.cz/detail/724699-zs-a-ms-lutin-lutin.html","896"
