"","facility_type","facility_name","facility_iri","facility_distance"
"0","Cukrárna","ZRNÍČKO","https://www.firmy.cz/detail/13197193-zrnicko-cesky-brod.html","370"
"1","Kino","Kino Kulturní dům Svět","https://www.firmy.cz/detail/13157881-kino-kulturni-dum-svet-cesky-brod.html","777"
"2","Přírodní zajímavost","lom Chrástnice","","3743"
"3","Hřiště","Dětské hřiště Sadová","","322"
"4","Večerka","Potraviny Žitomířská 360","https://www.firmy.cz/detail/12927832-potraviny-zitomirska-360-cesky-brod.html","110"
"5","Hospoda","Hospoda Tuchoraz","https://www.firmy.cz/detail/13010215-hospoda-tuchoraz-tuchoraz.html","2765"
"6","Veterinář","MVDr. Jaroslav Talacko","https://www.firmy.cz/detail/275855-mvdr-jaroslav-talacko-cesky-brod.html","325"
"7","Lékař","MUDr. Lenka Živanská","https://www.firmy.cz/detail/391035-mudr-lenka-zivanska-cesky-brod.html","45"
"8","Lékárna","SANTÉ","https://www.firmy.cz/detail/13204327-sante-cesky-brod.html","466"
"9","Pošta","Pošta Český Brod - Česká pošta, s.p.","https://www.firmy.cz/detail/217401-posta-cesky-brod-cesky-brod.html","391"
"10","Bankomat","Bankomat ČSOB","https://www.firmy.cz/detail/12965542-bankomat-csob-cesky-brod.html","379"
"11","Obchod","Obchod A-Z 551","https://www.firmy.cz/detail/13334053-obchod-a-z-551-cesky-brod.html","490"
"12","Bus MHD","Český Brod, nem.","","124"
"13","Školka","Mateřská škola Český Brod, Kollárova 71, okres Kolín","https://www.firmy.cz/detail/13060855-materska-skola-cesky-brod-kollarova-71-okres-kolin-cesky-brod.html","376"
"14","Škola","ZŠ a praktická škola Český Brod","https://www.firmy.cz/detail/577330-zs-a-prakticka-skola-cesky-brod-cesky-brod.html","115"
"15","Restaurace","Restaurace U Bedrníčků","https://www.firmy.cz/detail/12833133-restaurace-u-bedrnicku-cesky-brod.html","34"
"16","Vlak","Český Brod","","925"
"17","Sportoviště","Tělocvičná jednota Sokol Český Brod","https://www.firmy.cz/detail/2128700-telocvicna-jednota-sokol-cesky-brod-cesky-brod.html","294"
