"","facility_type","facility_name","facility_iri","facility_distance"
"0","Cukrárna","Cukrárna Venezia","https://www.firmy.cz/detail/12998728-cukrarna-venezia-jablonec-nad-nisou.html","1680"
"1","Kino","Letní kino Jablonec nad Nisou","https://www.firmy.cz/detail/13333339-letni-kino-jablonec-nad-nisou-jablonec-nad-nisou.html","1834"
"2","Hřiště","Dětské hřiště F. L. Čelakovského","","165"
"3","Večerka","Malá Jizera","https://www.firmy.cz/detail/2204146-mala-jizera-jablonec-nad-nisou-mseno-nad-nisou.html","135"
"4","Hospoda","Hospůdka U Sirotků","https://www.firmy.cz/detail/13114210-hospudka-u-sirotku-jablonec-nad-nisou-rynovice.html","456"
"5","Divadlo","Městské divadlo Jablonec nad Nisou, o.p.s.","https://www.firmy.cz/detail/396944-mestske-divadlo-jablonec-nad-nisou-jablonec-nad-nisou.html","2099"
"6","Veterinář","Veterinární klinika VETCARE - MVDr. Martina Jirásková","https://www.firmy.cz/detail/1988151-veterinarni-klinika-vetcare-mvdr-martina-jiraskova-jablonec-nad-nisou-mseno-nad-nisou.html","80"
"7","Sportoviště","Areál volnočasových aktivit - SPORT Jablonec nad Nisou","https://www.firmy.cz/detail/12813627-areal-volnocasovych-aktivit-sport-jablonec-nad-nisou-jablonec-nad-nisou.html","260"
"8","Restaurace","Zlatý Jelen","https://www.firmy.cz/detail/308289-zlaty-jelen-jablonec-nad-nisou-mseno-nad-nisou.html","249"
"9","Škola","ZŠ Jablonec nad Nisou - Mšeno, Mozartova","https://www.firmy.cz/detail/357447-zs-jablonec-nad-nisou-mseno-mozartova-jablonec-nad-nisou-mseno-nad-nisou.html","583"
"10","Školka","MŠ Jablonec nad Nisou, Mechová","https://www.firmy.cz/detail/2549229-ms-jablonec-nad-nisou-mechova-jablonec-nad-nisou-mseno-nad-nisou.html","498"
"11","Bus MHD","Mšeno, U Jelena","","157"
"12","Vlak","Jablonec nad Nisou dolní nádraží","","2005"
"13","Lékař","MUDr. Hrádková Martina, MediClinic a.s.","https://www.firmy.cz/detail/12832551-mudr-hradkova-martina-mediclinic-a-s-jablonec-nad-nisou-mseno-nad-nisou.html","656"
"14","Obchod","Kaufland","https://www.firmy.cz/detail/1448716-kaufland-jablonec-nad-nisou-mseno-nad-nisou.html","776"
"15","Lékárna","Dr. Max LÉKÁRNA","https://www.firmy.cz/detail/13095610-dr-max-lekarna-jablonec-nad-nisou-mseno-nad-nisou.html","656"
"16","Pošta","Pošta Jablonec nad Nisou 4 - Česká pošta, s.p.","https://www.firmy.cz/detail/215528-posta-jablonec-nad-nisou-4-jablonec-nad-nisou-rynovice.html","910"
"17","Tram","Vratislavice nad Nisou, výhybna","","4033"
"18","Bankomat","Bankomat České spořitelny","https://www.firmy.cz/detail/592419-bankomat-ceske-sporitelny-jablonec-nad-nisou-mseno-nad-nisou.html","741"
