"","facility_type","facility_name","facility_iri","facility_distance"
"0","Cukrárna","RUBEŠKAFÉ","https://www.firmy.cz/detail/12914139-rubeskafe-praha-vysocany.html","726"
"1","Kino","Kino Aero","https://www.firmy.cz/detail/399435-kino-aero-praha-zizkov.html","2272"
"2","Přírodní zajímavost","Meandry Rokytky","","2203"
"3","Hřiště","Dětské hřiště U Školičky","","128"
"4","Večerka","Tesco Expres","https://www.firmy.cz/detail/12883781-tesco-expres-praha-liben.html","112"
"5","Hospoda","POHÁDKA","https://www.firmy.cz/detail/643952-pohadka-praha-liben.html","476"
"6","Divadlo","Divadlo Gong","https://www.firmy.cz/detail/230751-divadlo-gong-praha-liben.html","87"
"7","Veterinář","Veterinární ordinace Svobodník","https://www.firmy.cz/detail/12879014-veterinarni-ordinace-svobodnik-praha-liben.html","1016"
"8","Školka","MŠ Praha 9, Kovářská","https://www.firmy.cz/detail/1969091-ms-praha-9-kovarska-praha-liben.html","106"
"9","Lékař","MUDr. Marie Dušková","https://www.firmy.cz/detail/389655-mudr-marie-duskova-praha-vysocany.html","367"
"10","Tram","Divadlo Gong","","101"
"11","Vlak","Praha-Vysočany","","795"
"12","Lékárna","Lékárna Cithara","https://www.firmy.cz/detail/12969935-lekarna-cithara-praha-liben.html","328"
"13","Bus MHD","Českomoravská","","235"
"14","Restaurace","Pizzeria Ristorante Cerreto","https://www.firmy.cz/detail/2240158-pizzeria-ristorante-cerreto-praha-liben.html","44"
"15","Bankomat","Bankomat České spořitelny","https://www.firmy.cz/detail/594943-bankomat-ceske-sporitelny-praha-liben.html","246"
"16","Sportoviště","LazerFun, s.r.o.","https://www.firmy.cz/detail/13006473-lazerfun-praha-liben.html","180"
"17","Obchod","Galerie Harfa","https://www.firmy.cz/detail/2333041-galerie-harfa-praha-liben.html","350"
"18","Metro","Českomoravská","","244"
"19","Škola","Střední škola a vyšší odborná škola umělecká a řemeslná","https://www.firmy.cz/detail/2231035-stredni-skola-a-vyssi-odborna-skola-umelecka-a-remeslna-praha-liben.html","238"
"20","Pošta","Pošta Praha 93 - Česká pošta, s.p.","https://www.firmy.cz/detail/217419-posta-praha-93-praha-vysocany.html","845"
