"","facility_type","facility_name","facility_iri","facility_distance"
"0","Cukrárna","OVOCNÝ SVĚTOZOR","https://www.firmy.cz/detail/13151180-ovocny-svetozor-praha-stodulky.html","723"
"1","Kino","Cinema City Zličín","https://www.firmy.cz/detail/436222-cinema-city-zlicin-praha-trebonice.html","1575"
"2","Přírodní zajímavost","Kovářovic mez","","4617"
"3","Hřiště","Dětské hřiště Vondroušova","","54"
"4","Večerka","Lidl","https://www.firmy.cz/detail/13211335-lidl-praha-repy.html","273"
"5","Hospoda","Pivní bar","https://www.firmy.cz/detail/13148067-pivni-bar-praha-repy.html","467"
"6","Divadlo","Divadelní studio Bubec","https://www.firmy.cz/detail/13047862-divadelni-studio-bubec-praha-reporyje.html","3053"
"7","Veterinář","Veterinární klinika Delta MVDr.Michael Růžička, s.r.o.","https://www.firmy.cz/detail/12957413-veterinarni-klinika-delta-mvdr-michael-ruzicka-praha-repy.html","291"
"8","Školka","MŠ Socháňova","https://www.firmy.cz/detail/457968-ms-sochanova-praha-repy.html","140"
"9","Bankomat","Bankomat České spořitelny","https://www.firmy.cz/detail/13220709-bankomat-ceske-sporitelny-praha-repy.html","274"
"10","Lékárna","Lékárna Makovského","https://www.firmy.cz/detail/2686056-lekarna-makovskeho-praha-repy.html","228"
"11","Lékař","MUDr. Peter Ritter","https://www.firmy.cz/detail/389646-mudr-peter-ritter-praha-repy.html","174"
"12","Obchod","OC Řepy","https://www.firmy.cz/detail/13328774-oc-repy-praha-repy.html","349"
"13","Restaurace","Bowling Manta","https://www.firmy.cz/detail/470336-bowling-manta-praha-repy.html","240"
"14","Vlak","Praha-Zličín","","468"
"15","Bus MHD","Blatiny","","240"
"16","Sportoviště","Tenisová škola TALLENT","https://www.firmy.cz/detail/722768-tenisova-skola-tallent-praha-repy.html","100"
"17","Škola","ZŠ generálporučíka Františka Peřiny Praha 6","https://www.firmy.cz/detail/356218-zs-generalporucika-frantiska-periny-praha-6-praha-repy.html","100"
"18","Tram","Blatiny","","217"
"19","Metro","Zličín","","1483"
"20","Pošta","Pošta Praha 618 - Česká pošta, s.p.","https://www.firmy.cz/detail/431332-posta-praha-618-praha-repy.html","349"
