"","facility_type","facility_name","facility_iri","facility_distance"
"0","Cukrárna","Cukrárna Amarena","https://www.firmy.cz/detail/12939985-cukrarna-amarena-praha-letnany.html","662"
"1","Kino","Cinema City Letňany","https://www.firmy.cz/detail/2679833-cinema-city-letnany-praha-letnany.html","892"
"2","Přírodní zajímavost","Meandry Rokytky","","4012"
"3","Hřiště","Dětské hřiště Makedonská","","246"
"4","Večerka","Potraviny Jitka Špinková","https://www.firmy.cz/detail/2333101-potraviny-jitka-spinkova-praha-strizkov.html","373"
"5","Hospoda","Pivnice Boleslavka","https://www.firmy.cz/detail/13302446-pivnice-boleslavka-praha-prosek.html","860"
"6","Divadlo","Divadlo Pohádka","https://www.firmy.cz/detail/636143-divadlo-pohadka-praha-letnany.html","692"
"7","Veterinář","Veterinární výjezdová služba - MVDr. Iveta Lubeníková","https://www.firmy.cz/detail/177908-veterinarni-vyjezdova-sluzba-mvdr-iveta-lubenikova-praha-strizkov.html","553"
"8","Bankomat","Bankomat UniCredit Bank Czech Republic","https://www.firmy.cz/detail/12987156-bankomat-unicredit-bank-czech-republic-praha-strizkov.html","373"
"9","Lékař","MUDr. Jana Jourová","https://www.firmy.cz/detail/387866-mudr-jana-jourova-praha-strizkov.html","373"
"10","Metro","Střížkov","","617"
"11","Obchod","Tesco","https://www.firmy.cz/detail/218194-tesco-praha-letnany.html","665"
"12","Bus MHD","Poliklinika Prosek","","345"
"13","Lékárna","Lékárna Prosek","https://www.firmy.cz/detail/12773344-lekarna-prosek-praha-strizkov.html","373"
"14","Školka","Mateřská škola Šluknovská","https://www.firmy.cz/detail/12807736-materska-skola-sluknovska-praha.html","393"
"15","Škola","ZŠ Praha 9, Novoborská","https://www.firmy.cz/detail/401423-zs-praha-9-novoborska-praha-strizkov.html","482"
"16","Sportoviště","BOHEMIANS PRAHA","https://www.firmy.cz/detail/2652487-bohemians-praha-praha-letnany.html","462"
"17","Restaurace","Restaurace Hurricane Factory","https://www.firmy.cz/detail/13096825-restaurace-hurricane-factory-praha-letnany.html","584"
"18","Pošta","Pošta Praha 9 - Česká pošta, s.p.","https://www.firmy.cz/detail/216700-posta-praha-9-praha-strizkov.html","872"
"19","Vlak","Praha-Vysočany","","2114"
"20","Tram","Třebenická","","947"
