"","facility_type","facility_name","facility_iri","facility_distance"
"0","Hřiště","Dětské hřiště Horní Drahovice","https://mapy.cz/zakladni?x=12.881609031217193&y=50.23466052997557&z=17&source=base&id=1926207","445"
"1","Přírodní zajímavost","Karlův hvozd","https://mapy.cz/zakladni?x=12.88314066464389&y=50.21667178915505&z=17&source=base&id=2344863","1656"
"2","Veterinář","MVDr. Eva Tichá","https://www.firmy.cz/detail/2656349-mvdr-eva-ticha-karlovy-vary-rybare.html","1182"
"3","Večerka","Večerka Amethyst","https://www.firmy.cz/detail/13325177-vecerka-amethyst-karlovy-vary.html","458"
"4","Hospoda","Pivnice Tequila Bar","https://www.firmy.cz/detail/13148877-pivnice-tequila-bar-karlovy-vary.html","477"
"5","Cukrárna","Cukrárna Ovo Bar Kamilka","https://www.firmy.cz/detail/13058476-cukrarna-ovo-bar-kamilka-karlovy-vary.html","251"
"6","Kino","Kino Čas","https://www.firmy.cz/detail/13125984-kino-cas-karlovy-vary.html","431"
"7","Divadlo","Divadlo Dagmar","https://www.firmy.cz/detail/396851-divadlo-dagmar-karlovy-vary-drahovice.html","789"
"8","Lékař","MEDICANT, s.r.o.","https://www.firmy.cz/detail/12840273-medicant-karlovy-vary.html","217"
"9","Bus MHD","Nemocnice","https://mapy.cz/zakladni?x=12.875488615246832&y=50.23158902613612&z=17&source=pubt&id=15200645","207"
"10","Sportoviště","Bazén Thermal","https://www.firmy.cz/detail/1351355-bazen-thermal-karlovy-vary.html","284"
"11","Škola","ZŠ a MŠ při zdravotnických zařízeních Karlovy Vary","https://www.firmy.cz/detail/12736564-zs-a-ms-pri-zdravotnickych-zarizenich-karlovy-vary-karlovy-vary.html","245"
"12","Lékárna","SALVUS","https://www.firmy.cz/detail/604601-salvus-karlovy-vary.html","217"
"13","Vlak","Karlovy Vary","https://mapy.cz/zakladni?x=12.86668864137042&y=50.23548353110124&z=17&source=pubt&id=15698550","953"
"14","Obchod","Obchodní centrum Perla","https://www.firmy.cz/detail/13219298-obchodni-centrum-perla-karlovy-vary.html","493"
"15","Bankomat","Bankomat Komerční banky","https://www.firmy.cz/detail/592267-bankomat-komercni-banky-karlovy-vary.html","201"
"16","Školka","ZŠ a MŠ při zdravotnických zařízeních Karlovy Vary","https://www.firmy.cz/detail/12736566-zs-a-ms-pri-zdravotnickych-zarizenich-karlovy-vary-karlovy-vary.html","392"
"17","Pošta","Pošta Karlovy Vary 1 - Česká pošta, s.p.","https://www.firmy.cz/detail/217581-posta-karlovy-vary-1-karlovy-vary.html","400"
"18","Restaurace","Smíchovský pavilon","https://www.firmy.cz/detail/12752013-smichovsky-pavilon-karlovy-vary-drahovice.html","153"
