"","facility_type","facility_name","facility_iri","facility_distance"
"0","Cukrárna","Cukrárna Sladký ráj","https://www.firmy.cz/detail/12889213-cukrarna-sladky-raj-chabarovice.html","2568"
"1","Kino","Kino Chlumec","https://www.firmy.cz/detail/12895394-kino-chlumec-chlumec.html","354"
"2","Přírodní zajímavost","Stradovský mokřad","","875"
"3","Hřiště","Dětské hřiště Stradovská","","181"
"4","Večerka","Son Lai Duc LDS - VEČERKA","https://www.firmy.cz/detail/12895413-son-lai-duc-lds-vecerka-chlumec.html","399"
"5","Hospoda","U Havrana","https://www.firmy.cz/detail/13143835-u-havrana-chlumec.html","505"
"6","Veterinář","MVDr. Jiřina Vincencová","https://www.firmy.cz/detail/12728172-mvdr-jirina-vincencova-chlumec.html","55"
"7","Bankomat","Bankomat České spořitelny","https://www.firmy.cz/detail/591839-bankomat-ceske-sporitelny-chlumec.html","354"
"8","Lékař","MUDr. Dušan Malenčik","https://www.firmy.cz/detail/13107941-mudr-dusan-malencik-chlumec.html","617"
"9","Bus MHD","Chlumec, Zalužanská","","46"
"10","Pošta","Pošta Chlumec u Ústí nad Labem - Česká pošta, s.p.","https://www.firmy.cz/detail/215949-posta-chlumec-u-usti-nad-labem-chlumec.html","664"
"11","Škola","ZŠ Chlumec","https://www.firmy.cz/detail/357344-zs-chlumec-chlumec.html","326"
"12","Restaurace","U HASIČE","https://www.firmy.cz/detail/12895424-u-hasice-chlumec.html","340"
"13","Sportoviště","SK BOX Chlumec","https://www.firmy.cz/detail/2699306-sk-box-chlumec-chlumec.html","354"
"14","Školka","MŠ Pohádka Chlumec","https://www.firmy.cz/detail/752001-ms-pohadka-chlumec-chlumec.html","222"
"15","Vlak","Krupka-Bohosudov","","4667"
"16","Obchod","Obchodní Centrum Tamda","https://www.firmy.cz/detail/13265748-obchodni-centrum-tamda-usti-nad-labem-vseborice.html","3621"
"17","Lékárna","Lékárna Krupka Maršov","https://www.firmy.cz/detail/12920250-lekarna-krupka-marsov-krupka-marsov.html","3468"
