"","facility_type","facility_name","facility_iri","facility_distance"
"0","Cukrárna","Cukrárna Lada","https://www.firmy.cz/detail/12908208-cukrarna-lada-havirov.html","253"
"1","Kino","Kino Centrum","https://www.firmy.cz/detail/12780436-kino-centrum-havirov-mesto.html","670"
"2","Hřiště","Dětské hřiště Školní park","","74"
"3","Večerka","HRUŠKA","https://www.firmy.cz/detail/12819366-hruska-havirov-mesto.html","70"
"4","Hospoda","Hostinec U Lopaty","https://www.firmy.cz/detail/13148778-hostinec-u-lopaty-havirov-mesto.html","88"
"5","Veterinář","Veterinární ordinace Terra Vet","https://www.firmy.cz/detail/13330221-veterinarni-ordinace-terra-vet-havirov-mesto.html","193"
"6","Obchod","Obchodní centrum Elan","https://www.firmy.cz/detail/2181587-obchodni-centrum-elan-havirov-mesto.html","467"
"7","Restaurace","Pizzerie DeMarco","https://www.firmy.cz/detail/2532252-pizzerie-demarco-havirov-mesto.html","227"
"8","Školka","MŠ Havířov, Místní","https://www.firmy.cz/detail/2513460-ms-havirov-mistni-havirov-mesto.html","42"
"9","Bus MHD","Havířov, Město, Magistrát","","298"
"10","Lékárna","BENU Lékárna","https://www.firmy.cz/detail/12875767-benu-lekarna-havirov-mesto.html","479"
"11","Škola","Základní škola Havířov - Město Gorkého 1/329 okres Karviná","https://www.firmy.cz/detail/357050-zakladni-skola-havirov-mesto-gorkeho-1-329-okres-karvina-havirov-mesto.html","217"
"12","Lékař","MUDr. Danuše Tenčíková, s.r.o.","https://www.firmy.cz/detail/12830944-mudr-danuse-tencikova-havirov-mesto.html","230"
"13","Pošta","Pošta Havířov 12 - Česká pošta, s.p.","https://www.firmy.cz/detail/431633-posta-havirov-12-havirov-mesto.html","390"
"14","Sportoviště","Discgolf Stromovka","","288"
"15","Bankomat","Bankomat České spořitelny","https://www.firmy.cz/detail/592112-bankomat-ceske-sporitelny-havirov-mesto.html","268"
"16","Vlak","Havířov-střed","","949"
