"","facility_type","facility_name","facility_iri","facility_distance"
"0","Cukrárna","Cukrárna u Lidušky","https://www.firmy.cz/detail/13298785-cukrarna-u-lidusky-stochov.html","3502"
"1","Kino","Kino Stochov","https://www.firmy.cz/detail/677735-kino-stochov-stochov.html","3490"
"2","Hřiště","Dětské hřiště Křivoklátská","","237"
"3","Večerka","Potraviny BALA MINI","https://www.firmy.cz/detail/13288949-potraviny-bala-mini-nove-straseci.html","266"
"4","Hospoda","Výčep Práce","https://www.firmy.cz/detail/13118005-vycep-prace-nove-straseci.html","285"
"5","Divadlo","Spolek pro kulturní činnost NoStraDivadlo","https://www.firmy.cz/detail/2380044-spolek-pro-kulturni-cinnost-nostradivadlo-nove-straseci.html","424"
"6","Vlak","Rynholec","","1690"
"7","Lékárna","U ČESKÉ KORUNY","https://www.firmy.cz/detail/2346811-u-ceske-koruny-nove-straseci.html","334"
"8","Škola","Základní škola a mateřská škola J. A. Komenského v Novém Strašecí","https://www.firmy.cz/detail/296274-zakladni-skola-a-materska-skola-j-a-komenskeho-v-novem-straseci-nove-straseci.html","701"
"9","Restaurace","Restaurant Jansa","https://www.firmy.cz/detail/711613-restaurant-jansa-nove-straseci.html","418"
"10","Lékař","MUDr. Pavel Foitl","https://www.firmy.cz/detail/12839455-mudr-pavel-foitl-nove-straseci.html","341"
"11","Sportoviště","Sportoviště Kocourek","https://www.firmy.cz/detail/2643352-sportoviste-kocourek-nove-straseci.html","718"
"12","Školka","MŠ Zahradní - Základní škola a mateřská škola J. A. Komenského v Novém Strašecí","https://www.firmy.cz/detail/2231051-ms-zahradni-nove-straseci.html","391"
"13","Pošta","Pošta Nové Strašecí - Česká pošta, s.p.","https://www.firmy.cz/detail/431752-posta-nove-straseci-nove-straseci.html","705"
"14","Bankomat","Bankomat MONETA Money Bank","https://www.firmy.cz/detail/13082272-bankomat-moneta-money-bank-nove-straseci.html","773"
"15","Bus MHD","Nové Strašecí, poliklinika","","262"
