"","facility_type","facility_name","facility_iri","facility_distance"
"0","Cukrárna","Cukrárna Linda","https://www.firmy.cz/detail/2137814-cukrarna-linda-hostivice.html","841"
"1","Kino","Cinema City Zličín","https://www.firmy.cz/detail/436222-cinema-city-zlicin-praha-trebonice.html","4298"
"2","Hřiště","Dětské hřiště Za Zahradami","","236"
"3","Večerka","Spojka Hostivice","https://www.firmy.cz/detail/13343161-spojka-hostivice-hostivice.html","705"
"4","Hospoda","Hostivický statek","https://www.firmy.cz/detail/13323679-hostivicky-statek-hostivice.html","884"
"5","Veterinář","Veterinární klinika Červený vrch, s.r.o.","https://www.firmy.cz/detail/12729416-veterinarni-klinika-cerveny-vrch-hostivice.html","1071"
"6","Bus MHD","Hostivice, Litovice","","163"
"7","Školka","MŠ Hostivice","https://www.firmy.cz/detail/1311604-ms-hostivice-hostivice.html","488"
"8","Pošta","Pošta Hostivice - Česká pošta, s.p.","https://www.firmy.cz/detail/216673-posta-hostivice-hostivice.html","730"
"9","Metro","Zličín","","4500"
"10","Škola","ZŠ Hostivice","https://www.firmy.cz/detail/357225-zs-hostivice-hostivice.html","561"
"11","Bankomat","Bankomat ČSOB","https://www.firmy.cz/detail/12774563-bankomat-csob-hostivice.html","424"
"12","Lékárna","Dr. Max","https://www.firmy.cz/detail/12973126-dr-max-hostivice.html","575"
"13","Lékař","FARMED, s.r.o.","https://www.firmy.cz/detail/13285567-farmed-hostivice.html","568"
"14","Sportoviště","Tělovýchovná jednota Hostivice","https://www.firmy.cz/detail/265484-telovychovna-jednota-hostivice-hostivice.html","359"
"15","Tram","Sídliště Řepy","","4230"
"16","Vlak","Hostivice-U hřbitova","","1011"
"17","Obchod","Tesco","https://www.firmy.cz/detail/12741893-tesco-hostivice.html","424"
"18","Restaurace","Restaurant Fort Roxy","https://www.firmy.cz/detail/2072520-restaurant-fort-roxy-hostivice.html","185"
