"","facility_type","facility_name","facility_iri","facility_distance"
"0","Cukrárna","Cukrárna Magnolie","https://www.firmy.cz/detail/1963341-cukrarna-magnolie-orlova-lutyne.html","1273"
"1","Kino","Kino O","https://www.firmy.cz/detail/12958491-kino-o-orlova-lutyne.html","940"
"2","Hřiště","Dětské hřiště Olmovec","","87"
"3","Přírodní zajímavost","Lužní les v Lyngu","","4696"
"4","Večerka","COOP Beskydy - Tuty","https://www.firmy.cz/detail/1940440-coop-beskydy-tuty-orlova-lutyne.html","83"
"5","Hospoda","Hospůdka GOOL","https://www.firmy.cz/detail/13108387-hospudka-gool-orlova-lutyne.html","371"
"6","Veterinář","MVDr. Marian Konieczny","https://www.firmy.cz/detail/1958343-mvdr-marian-konieczny-orlova-lutyne.html","497"
"7","Restaurace","Restaurace Orel","https://www.firmy.cz/detail/13146765-restaurace-orel-orlova-lutyne.html","82"
"8","Školka","MŠ 1. Máje Orlová","https://www.firmy.cz/detail/2381669-ms-1-maje-orlova-orlova-lutyne.html","100"
"9","Bankomat","Bankomat MONETA Money Bank","https://www.firmy.cz/detail/1691513-bankomat-moneta-money-bank-orlova-lutyne.html","82"
"10","Bus MHD","Orlová, Lutyně, nákup.stř.","","127"
"11","Lékárna","Dr. Max LÉKÁRNA","https://www.firmy.cz/detail/12856742-dr-max-lekarna-orlova-lutyne.html","192"
"12","Obchod","OC Fastmall","https://www.firmy.cz/detail/13262255-oc-fastmall-orlova-lutyne.html","500"
"13","Škola","ZŠ Orlová - Lutyně, K. Dvořáčka","https://www.firmy.cz/detail/358631-zs-orlova-lutyne-k-dvoracka-orlova-lutyne.html","194"
"14","Lékař","PL pro D ZZ a ambulance, s.r.o.","https://www.firmy.cz/detail/13107931-pl-pro-d-zz-a-ambulance-orlova-lutyne.html","284"
"15","Pošta","Pošta Orlová 6 - Česká pošta, s.p.","https://www.firmy.cz/detail/431480-posta-orlova-6-orlova-lutyne.html","83"
"16","Vlak","Dětmarovice","","3339"
"17","Sportoviště","Koulovna","https://www.firmy.cz/detail/13298197-koulovna-orlova-lutyne.html","940"
