"","facility_type","facility_name","facility_iri","facility_distance"
"0","Cukrárna","Cukrárna U Jelínků","https://www.firmy.cz/detail/2566913-cukrarna-u-jelinku-milovice-mlada.html","983"
"1","Kino","Letní kino Lysá nad Labem","https://www.firmy.cz/detail/13071133-letni-kino-lysa-nad-labem-lysa-nad-labem.html","3341"
"2","Přírodní zajímavost","Tůně a mokřady Josefov","","780"
"3","Hřiště","Dětské hřiště Relax park","","153"
"4","Večerka","BILLA","https://www.firmy.cz/detail/13214923-billa-milovice-mlada.html","80"
"5","Hospoda","Pivnice RKDM","https://www.firmy.cz/detail/12972580-pivnice-rkdm-milovice-mlada.html","958"
"6","Veterinář","MVDr. Vladimír Pišl","https://www.firmy.cz/detail/2141306-mvdr-vladimir-pisl-milovice-mlada.html","813"
"7","Škola","Základní škola Juventa","https://www.firmy.cz/detail/12940822-zakladni-skola-juventa-milovice-mlada.html","426"
"8","Bus MHD","Milovice, Telecom","","87"
"9","Sportoviště","Relax park","","145"
"10","Restaurace","Restaurace Milten","https://www.firmy.cz/detail/12822794-restaurace-milten-milovice-mlada.html","208"
"11","Lékař","MUDr. Oldřich Baumgartner","https://www.firmy.cz/detail/13027139-mudr-oldrich-baumgartner-milovice-mlada.html","396"
"12","Bankomat","Bankomat Komerční banky","https://www.firmy.cz/detail/13338829-bankomat-komercni-banky-milovice-mlada.html","440"
"13","Vlak","Milovice","","1349"
"14","Lékárna","Lékárna v Italské","https://www.firmy.cz/detail/2606433-lekarna-v-italske-milovice-mlada.html","1123"
"15","Pošta","Pošta Milovice nad Labem 3 - Česká pošta, s.p.","https://www.firmy.cz/detail/217394-posta-milovice-nad-labem-3-milovice-mlada.html","473"
"16","Obchod","Obchodní centrum Lysá","https://www.firmy.cz/detail/2340418-obchodni-centrum-lysa-lysa-nad-labem.html","3555"
"17","Školka","Mateřská škola Kostička, příspěvková organizace, Milovice - Mladá","https://www.firmy.cz/detail/12940673-materska-skola-kosticka-prispevkova-organizace-milovice-mlada-milovice-mlada.html","205"
