"","facility_type","facility_name","facility_iri","facility_distance"
"0","Cukrárna","OVOCNÝ SVĚTOZOR","https://www.firmy.cz/detail/468731-ovocny-svetozor-praha-nove-mesto.html","330"
"1","Kino","Cinema City Slovanský dům","https://www.firmy.cz/detail/2679893-cinema-city-slovansky-dum-praha-nove-mesto.html","796"
"2","Hřiště","Dětské hřiště park Lannova","","252"
"3","Večerka","Lidl","https://www.firmy.cz/detail/2637881-lidl-praha-nove-mesto.html","231"
"4","Divadlo","Mezinárodní balet Praha, o.p.s.","https://www.firmy.cz/detail/636675-mezinarodni-balet-praha-praha-nove-mesto.html","99"
"5","Hospoda","Pivnice U Pivoje","https://www.firmy.cz/detail/2231875-pivnice-u-pivoje-praha-holesovice.html","816"
"6","Veterinář","MVDr. Miroslav Řehák","https://www.firmy.cz/detail/406439-mvdr-miroslav-rehak-praha-holesovice.html","780"
"7","Lékárna","LÉKÁRNA ipc Palladium","https://www.firmy.cz/detail/2345303-lekarna-ipc-palladium-praha-nove-mesto.html","399"
"8","Lékař","Canadian Medical - Palác YMCA","https://www.firmy.cz/detail/607590-canadian-medical-palac-ymca-praha-nove-mesto.html","400"
"9","Sportoviště","EDIMEX, spol. s r.o.","https://www.firmy.cz/detail/2136043-edimex-praha-nove-mesto.html","455"
"10","Bankomat","Bankomat UniCredit Bank Czech Republic","https://www.firmy.cz/detail/1964785-bankomat-unicredit-bank-czech-republic-praha-nove-mesto.html","253"
"11","Škola","ZUŠ Praha 1, Biskupská","https://www.firmy.cz/detail/427069-zus-praha-1-biskupska-praha-nove-mesto.html","99"
"12","Školka","Mateřská škola Revoluční","https://www.firmy.cz/detail/197629-materska-skola-revolucni-praha-nove-mesto.html","462"
"13","Tram","Těšnov","","173"
"14","Pošta","Pošta Praha 05 - Česká pošta, s.p.","https://www.firmy.cz/detail/431198-posta-praha-05-praha-stare-mesto.html","635"
"15","Restaurace","Restaurace Sansho","https://www.firmy.cz/detail/2625203-restaurace-sansho-praha-nove-mesto.html","66"
"16","Metro","Florenc","","304"
"17","Vlak","Praha Masarykovo nádraží","","464"
"18","Bus MHD","Petrské náměstí","","148"
"19","Obchod","Bílá labuť","https://www.firmy.cz/detail/221990-bila-labut-praha-nove-mesto.html","205"
