"","facility_type","facility_name","facility_iri","facility_distance"
"0","Cukrárna","Cukrárna u Alči","https://www.firmy.cz/detail/13242059-cukrarna-u-alci-ostrava-moravska-ostrava.html","237"
"1","Kino","Kino vesmír","https://www.firmy.cz/detail/12980428-kino-vesmir-ostrava-moravska-ostrava.html","1713"
"2","Přírodní zajímavost","Uhelná sloj v Landeku","","1963"
"3","Hřiště","Dětské hřiště Maroldova","","315"
"4","Večerka","Rychvaldská pekárna","https://www.firmy.cz/detail/12869235-rychvaldska-pekarna-ostrava-privoz.html","47"
"5","Hospoda","Hospůdka Mája","https://www.firmy.cz/detail/13128482-hospudka-maja-ostrava-privoz.html","84"
"6","Divadlo","Loutkový svět","https://www.firmy.cz/detail/13033024-loutkovy-svet-ostrava-moravska-ostrava.html","1462"
"7","Veterinář","VETPARK Ostrava, s.r.o.","https://www.firmy.cz/detail/13308555-vetpark-ostrava-ostrava-moravska-ostrava.html","970"
"8","Školka","MŠ Ostrava, Špálova","https://www.firmy.cz/detail/1971890-ms-ostrava-spalova-ostrava-privoz.html","209"
"9","Lékárna","Lékárna U Madony","https://www.firmy.cz/detail/154236-lekarna-u-madony-ostrava-privoz.html","182"
"10","Obchod","Outlet Arena Moravia","https://www.firmy.cz/detail/13181729-outlet-arena-moravia-ostrava-privoz.html","1775"
"11","Bus MHD","Sad B. Němcové","","187"
"12","Tram","Náměstí S. Čecha","","106"
"13","Restaurace","Restaurant Loft","https://www.firmy.cz/detail/12936319-restaurant-loft-ostrava-privoz.html","58"
"14","Pošta","Pošta Ostrava 2","https://www.firmy.cz/detail/433391-posta-ostrava-2-ostrava-privoz.html","511"
"15","Sportoviště","Corkers Ostrava z.s.","https://www.firmy.cz/detail/770703-corkers-ostrava-z-s-ostrava-moravska-ostrava.html","571"
"16","Bankomat","Bankomat Komerční banky","https://www.firmy.cz/detail/594286-bankomat-komercni-banky-ostrava-moravska-ostrava.html","133"
"17","Škola","Lidová konzervatoř a Múzická škola Ostrava","https://www.firmy.cz/detail/2640976-lidova-konzervator-a-muzicka-skola-ostrava-ostrava-privoz.html","260"
"18","Lékař","DHB MEDIPRAKTIK s.r.o.","https://www.firmy.cz/detail/12864485-dhb-medipraktik-s-r-o-ostrava-privoz.html","159"
"19","Vlak","Ostrava hlavní nádraží","","609"
