"","facility_type","facility_name","facility_iri","facility_distance"
"0","Hřiště","Dětské hřiště Náměstí Odboje","https://mapy.cz/zakladni?x=16.5728008934&y=49.2402507324&z=17&source=base&id=1927843","144"
"1","Přírodní zajímavost","Přírodní zahrada U Smrku","https://mapy.cz/zakladni?x=16.58765420430356&y=49.22807918152045&z=17&source=base&id=2324158","1836"
"2","Večerka","Můjobchod - Potraviny Na Ječné","https://www.firmy.cz/detail/13317226-mujobchod-potraviny-na-jecne-brno-reckovice.html","662"
"3","Veterinář","VETERINA - MEDLÁNKY","https://www.firmy.cz/detail/2604584-veterina-medlanky-brno-medlanky.html","361"
"4","Hospoda","Hospůdka u Hřiště","https://www.firmy.cz/detail/13116651-hospudka-u-hriste-brno-medlanky.html","378"
"5","Divadlo","Divadlo Špílberg","https://www.firmy.cz/detail/13227128-divadlo-spilberg-brno-reckovice.html","655"
"6","Kino","Kino Lucerna","https://www.firmy.cz/detail/638240-kino-lucerna-brno-zabovresky.html","3572"
"7","Cukrárna","OMNI café & fit studio","https://www.firmy.cz/detail/13160252-omni-cafe-fit-studio-brno-medlanky.html","331"
"8","Tram","Filkukova","https://mapy.cz/zakladni?x=16.5817488791534&y=49.2435788510534&z=17&source=pubt&id=15205567","674"
"9","Škola","ZŠ Brno, Hudcova","https://www.firmy.cz/detail/356500-zs-brno-hudcova-brno-medlanky.html","466"
"10","Restaurace","Restaurace U Němců","https://www.firmy.cz/detail/2627288-restaurace-u-nemcu-brno-medlanky.html","49"
"11","Lékař","MUDr. Sklenská, s.r.o.","https://www.firmy.cz/detail/12942326-mudr-sklenska-s-r-o-brno-reckovice.html","717"
"12","Pošta","Pošta Brno 21 - Česká pošta, s.p.","https://www.firmy.cz/detail/1534314-posta-brno-21-brno-reckovice.html","884"
"13","Školka","MŠ Brno, V Újezdech","https://www.firmy.cz/detail/2582761-ms-brno-v-ujezdech-brno-medlanky.html","140"
"14","Sportoviště","Multifunkční hřiště Medlánky","https://www.firmy.cz/detail/13298617-multifunkcni-hriste-medlanky-brno.html","222"
"15","Bankomat","Bankomat MONETA Money Bank","https://www.firmy.cz/detail/2398245-bankomat-moneta-money-bank-brno-reckovice.html","867"
"16","Lékárna","BENU Lékárna","https://www.firmy.cz/detail/13218521-benu-lekarna-brno-reckovice.html","711"
"17","Vlak","Brno-Řečkovice","https://mapy.cz/zakladni?x=16.5904418327&y=49.2506916222&z=17&source=pubt&id=15211061","1624"
"18","Bus MHD","V Újezdech","https://mapy.cz/zakladni?x=16.5732252834814&y=49.2418461934172&z=17&source=pubt&id=15206112","37"
"19","Obchod","Globus Hypermarket","https://www.firmy.cz/detail/448361-globus-hypermarket-brno-ivanovice.html","2291"
