"","facility_type","facility_name","facility_iri","facility_distance"
"0","Cukrárna","Strop Café","https://www.firmy.cz/detail/466699-strop-cafe-praha-vinohrady.html","166"
"1","Kino","HopeTV","https://www.firmy.cz/detail/672889-hopetv-praha-vinohrady.html","451"
"2","Hřiště","Dětské hřiště Riegrovy sady","","639"
"3","Večerka","Smíšené zboží Londýnská 309","https://www.firmy.cz/detail/2460894-smisene-zbozi-londynska-309-praha-vinohrady.html","284"
"4","Hospoda","U Pižďucha","https://www.firmy.cz/detail/337127-u-pizducha-praha-zizkov.html","1208"
"5","Divadlo","Divadlo na Vinohradech","https://www.firmy.cz/detail/230745-divadlo-na-vinohradech-praha-vinohrady.html","111"
"6","Veterinář","Veterinární ambulance Help","https://www.firmy.cz/detail/178079-veterinarni-ambulance-help-praha-vinohrady.html","180"
"7","Pošta","Pošta Praha 24 - Česká pošta, s.p.","https://www.firmy.cz/detail/431217-posta-praha-24-praha-vinohrady.html","133"
"8","Tram","Italská","","113"
"9","Restaurace","Indická restaurace EVEREST","https://www.firmy.cz/detail/2249492-indicka-restaurace-everest-praha-vinohrady.html","65"
"10","Metro","Náměstí Míru","","198"
"11","Škola","Střední škola ekonomická se sportovním zaměřením, s.r.o.","https://www.firmy.cz/detail/361492-stredni-skola-ekonomicka-se-sportovnim-zamerenim-praha-vinohrady.html","169"
"12","Obchod","PAVILON, a.s.","https://www.firmy.cz/detail/451685-pavilon-praha-vinohrady.html","412"
"13","Bus MHD","Římská","","95"
"14","Bankomat","Bankomat Komerční banky","https://www.firmy.cz/detail/595958-bankomat-komercni-banky-praha-vinohrady.html","137"
"15","Lékárna","U svaté Ludmily","https://www.firmy.cz/detail/374313-u-svate-ludmily-praha-vinohrady.html","317"
"16","Sportoviště","Tenisová škola Vinohrady – Jiří Brázda","https://www.firmy.cz/detail/433988-tenisova-skola-vinohrady-jiri-brazda-praha-vinohrady.html","161"
"17","Školka","MŠ Čtyřlístek, Praha 2, Římská","https://www.firmy.cz/detail/671299-ms-ctyrlistek-praha-2-rimska-praha-vinohrady.html","48"
"18","Vlak","Praha hlavní nádraží","","663"
"19","Lékař","MUDr. Olga Horáková","https://www.firmy.cz/detail/386966-mudr-olga-horakova-praha-vinohrady.html","97"
