"","facility_type","facility_name","facility_iri","facility_distance"
"0","Hřiště","Dětské hřiště Hájkova","https://mapy.cz/zakladni?x=13.5419689895&y=50.3285626895&z=17&source=base&id=2192951","311"
"1","Hospoda","Pivnice Lucerna","https://www.firmy.cz/detail/2467771-pivnice-lucerna-zatec.html","445"
"2","Divadlo","Jitřenka - loutkové divadlo","https://www.firmy.cz/detail/13096125-jitrenka-loutkove-divadlo-zatec.html","120"
"3","Večerka","DALMATINO","https://www.firmy.cz/detail/13316458-dalmatino-zatec.html","102"
"4","Kino","Kino Žatec","https://www.firmy.cz/detail/12846605-kino-zatec-zatec.html","163"
"5","Veterinář","MVDr. Břetislav Frýba","https://www.firmy.cz/detail/203866-mvdr-bretislav-fryba-zatec.html","364"
"6","Cukrárna","Cukrárna Květa","https://www.firmy.cz/detail/2033539-cukrarna-kveta-zatec.html","78"
"7","Bankomat","Bankomat Komerční banky","https://www.firmy.cz/detail/2423205-bankomat-komercni-banky-zatec.html","15"
"8","Bus MHD","Žatec, Kovářská","https://mapy.cz/zakladni?x=13.5415450520798&y=50.3241194540693&z=17&source=pubt&id=15239412","453"
"9","Sportoviště","Stadion Mládí","https://www.firmy.cz/detail/12853188-stadion-mladi-zatec.html","500"
"10","Restaurace","TURBO PIZZA","https://www.firmy.cz/detail/13326223-turbo-pizza-zatec.html","22"
"11","Vlak","Žatec","https://mapy.cz/zakladni?x=13.5552451266&y=50.3366189087&z=17&source=pubt&id=15213416","1247"
"12","Lékárna","Lékárna Na náměstí","https://www.firmy.cz/detail/12822918-lekarna-na-namesti-zatec.html","135"
"13","Pošta","Pošta Žatec 1 - Česká pošta, s.p.","https://www.firmy.cz/detail/215299-posta-zatec-1-zatec.html","275"
"14","Škola","ZŠ a MŠ, Žatec, Dvořákova","https://www.firmy.cz/detail/360265-zs-a-ms-zatec-dvorakova-zatec.html","100"
"15","Lékař","TH AMBULANCE, s.r.o.","https://www.firmy.cz/detail/12768933-th-ambulance-zatec.html","135"
"16","Obchod","Kaufland","https://www.firmy.cz/detail/1457849-kaufland-zatec.html","1253"
"17","Školka","MŠ Žatec, Fügnerova","https://www.firmy.cz/detail/731375-ms-zatec-fugnerova-zatec.html","243"
