"","facility_type","facility_name","facility_iri","facility_distance"
"0","Cukrárna","Čokoládovna ČO-XO","https://www.firmy.cz/detail/12709444-cokoladovna-co-xo-praha-holesovice.html","647"
"1","Kino","Bio Oko","https://www.firmy.cz/detail/2586117-bio-oko-praha-holesovice.html","1025"
"2","Hřiště","Dětské hřiště MŠ Janovského","","545"
"3","Večerka","Albert Supermarket","https://www.firmy.cz/detail/229747-albert-supermarket-praha-holesovice.html","639"
"4","Hospoda","Pivnice U Pivoje","https://www.firmy.cz/detail/2231875-pivnice-u-pivoje-praha-holesovice.html","1108"
"5","Divadlo","Goja music hall","https://www.firmy.cz/detail/658122-goja-music-hall-praha.html","399"
"6","Veterinář","Klinika Livet","https://www.firmy.cz/detail/1359507-klinika-livet-praha-holesovice.html","423"
"7","Sportoviště","INGOLF, s.r.o.","https://www.firmy.cz/detail/1355272-ingolf-praha-holesovice.html","247"
"8","Bus MHD","Nádraží Holešovice","","194"
"9","Škola","Bratrská škola - církevní základní škola","https://www.firmy.cz/detail/356227-bratrska-skola-cirkevni-zakladni-skola-praha-holesovice.html","208"
"10","Školka","MŠ Praha 7, Janovského","https://www.firmy.cz/detail/207715-ms-praha-7-janovskeho-praha-holesovice.html","540"
"11","Lékárna","Lékárna Lékařský dům","https://www.firmy.cz/detail/376974-lekarna-lekarsky-dum-praha-holesovice.html","563"
"12","Vlak","Praha-Holešovice zastávka","","220"
"13","Tram","Nádraží Holešovice","","172"
"14","Restaurace","McDonald ́s","https://www.firmy.cz/detail/430307-mcdonald-s-praha.html","215"
"15","Lékař","Sportmed","https://www.firmy.cz/detail/404244-sportmed-praha-holesovice.html","77"
"16","Metro","Nádraží Holešovice","","243"
"17","Obchod","Bílá labuť","https://www.firmy.cz/detail/221990-bila-labut-praha-nove-mesto.html","1999"
"18","Pošta","Pošta Praha 74 - Česká pošta, s.p.","https://www.firmy.cz/detail/431348-posta-praha-74-praha-holesovice.html","832"
"19","Bankomat","Bankomat České spořitelny","https://www.firmy.cz/detail/594900-bankomat-ceske-sporitelny-praha-holesovice.html","283"
