"","facility_type","facility_name","facility_iri","facility_distance"
"0","Cukrárna","Buena Vista Club","https://www.firmy.cz/detail/2072468-buena-vista-club-plzen-jizni-predmesti.html","22"
"1","Kino","Cinema City Plzeň","https://www.firmy.cz/detail/2246853-cinema-city-plzen-plzen-jizni-predmesti.html","186"
"2","Hřiště","Dětské hřiště Puškinova","","196"
"3","Večerka","Albert Supermarket","https://www.firmy.cz/detail/2246433-albert-supermarket-plzen-jizni-predmesti.html","187"
"4","Hospoda","Parlament rock club","https://www.firmy.cz/detail/13135689-parlament-rock-club-plzen-jizni-predmesti.html","138"
"5","Divadlo","Nové divadlo Plzeň","https://www.firmy.cz/detail/12956345-nove-divadlo-plzen-plzen-jizni-predmesti.html","261"
"6","Veterinář","Medicus veterinarius, s.r.o.","https://www.firmy.cz/detail/1908178-medicus-veterinarius-plzen-jizni-predmesti.html","419"
"7","Sportoviště","fit studio aerobic Robert Narovec","https://www.firmy.cz/detail/12913038-fit-studio-aerobic-robert-narovec-plzen-jizni-predmesti.html","342"
"8","Bankomat","Bankomat Komerční banky","https://www.firmy.cz/detail/13213794-bankomat-komercni-banky-plzen-jizni-predmesti.html","152"
"9","Bus MHD","Divadlo J. K. Tyla","","256"
"10","Lékárna","Dr. Max LÉKÁRNA","https://www.firmy.cz/detail/12856901-dr-max-lekarna-plzen-jizni-predmesti.html","215"
"11","Restaurace","ACW SALOON","https://www.firmy.cz/detail/2628659-acw-saloon-plzen-jizni-predmesti.html","0"
"12","Tram","Palackého náměstí","","100"
"13","Vlak","Plzeň-Jižní Předměstí","","854"
"14","Školka","49. MŠ Plzeň","https://www.firmy.cz/detail/360431-49-ms-plzen-plzen-jizni-predmesti.html","197"
"15","Obchod","Obchodní centrum Plzeň Plaza","https://www.firmy.cz/detail/13089722-obchodni-centrum-plzen-plaza-plzen-jizni-predmesti.html","215"
"16","Lékař","MUDr. Dagmar Minářová PL, s.r.o.","https://www.firmy.cz/detail/12796591-mudr-dagmar-minarova-pl-plzen.html","234"
"17","Škola","Bezpečnostně právní akademie Plzeň, s.r.o., střední škola","https://www.firmy.cz/detail/361549-bezpecnostne-pravni-akademie-plzen-s-r-o-stredni-skola-plzen-jizni-predmesti.html","346"
"18","Pošta","Pošta Plzeň 1 - Česká pošta, s.p.","https://www.firmy.cz/detail/452750-posta-plzen-1-plzen-vnitrni-mesto.html","416"
