"","facility_type","facility_name","facility_iri","facility_distance"
"0","Cukrárna","Lahůdky Laštůvka, s.r.o.","https://www.firmy.cz/detail/12925660-lahudky-lastuvka-pardubice-zelene-predmesti.html","105"
"1","Kino","CineStar Pardubice","https://www.firmy.cz/detail/2109581-cinestar-pardubice-pardubice-zelene-predmesti.html","272"
"2","Hřiště","Dětské hřiště Atrium","","347"
"3","Večerka","Žabka","https://www.firmy.cz/detail/13275086-zabka-pardubice-zelene-predmesti.html","25"
"4","Divadlo","Východočeské divadlo Pardubice","https://www.firmy.cz/detail/396998-vychodoceske-divadlo-pardubice-pardubice-zelene-predmesti.html","344"
"5","Hospoda","Excelent Pub","https://www.firmy.cz/detail/13111691-excelent-pub-pardubice-zelene-predmesti.html","92"
"6","Veterinář","Veterina na Višňovce","https://www.firmy.cz/detail/12965556-veterina-na-visnovce-pardubice-zelene-predmesti.html","1053"
"7","Bankomat","Bankomat UniCredit Bank Czech Republic","https://www.firmy.cz/detail/1964674-bankomat-unicredit-bank-czech-republic-pardubice-zelene-predmesti.html","91"
"8","Školka","MŠ Pardubice, K Polabinám","https://www.firmy.cz/detail/1880709-ms-pardubice-k-polabinam-pardubice-zelene-predmesti.html","556"
"9","Bus MHD","Třída Míru","","11"
"10","Obchod","OC Atrium Palác Pardubice","https://www.firmy.cz/detail/12940305-oc-atrium-palac-pardubice-pardubice-zelene-predmesti.html","295"
"11","Lékař","MUDr. Markéta Marešová","https://www.firmy.cz/detail/2553207-mudr-marketa-maresova-pardubice-zelene-predmesti.html","332"
"12","Restaurace","Restaurace Šangrila","https://www.firmy.cz/detail/13340704-restaurace-sangrila-pardubice-zelene-predmesti.html","25"
"13","Vlak","Pardubice hlavní nádraží","","1285"
"14","Lékárna","BENU Lékárna","https://www.firmy.cz/detail/658782-benu-lekarna-pardubice-zelene-predmesti.html","60"
"15","Škola","Základní škola Pardubice, Bratranců Veverkových 866","https://www.firmy.cz/detail/358769-zakladni-skola-pardubice-bratrancu-veverkovych-866-pardubice-zelene-predmesti.html","143"
"16","Pošta","Pošta Pardubice 1 - Česká pošta, s.p.","https://www.firmy.cz/detail/452739-posta-pardubice-1-pardubice-zelene-predmesti.html","137"
"17","Sportoviště","Aerobic centrum","https://www.firmy.cz/detail/467445-aerobic-centrum-pardubice-zelene-predmesti.html","221"
