"","facility_type","facility_name","facility_iri","facility_distance"
"0","Cukrárna","Coffee City s.r.o.","https://www.firmy.cz/detail/13213158-coffee-city-s-r-o-plzen-severni-predmesti.html","52"
"1","Kino","Cinema City Plzeň","https://www.firmy.cz/detail/2246853-cinema-city-plzen-plzen-jizni-predmesti.html","2112"
"2","Hřiště","Dětské hřiště Vinice","","200"
"3","Večerka","Potraviny a Večerka Vinice","https://www.firmy.cz/detail/13324070-potraviny-a-vecerka-vinice-plzen-severni-predmesti.html","119"
"4","Hospoda","Hospoda V Lomech 1032/9a","https://www.firmy.cz/detail/13117575-hospoda-v-lomech-1032-9a-plzen-bolevec.html","1080"
"5","Divadlo","Nové divadlo Plzeň","https://www.firmy.cz/detail/12956345-nove-divadlo-plzen-plzen-jizni-predmesti.html","2294"
"6","Veterinář","MUDr. Štefan Bányay","https://www.firmy.cz/detail/1962551-mudr-stefan-banyay-plzen-severni-predmesti.html","100"
"7","Lékárna","Lékárna Médeia","https://www.firmy.cz/detail/374686-lekarna-medeia-plzen-severni-predmesti.html","175"
"8","Bus MHD","Hodonínská","","56"
"9","Lékař","MUDr. Jitka Štěpánková","https://www.firmy.cz/detail/13189335-mudr-jitka-stepankova-plzen-severni-predmesti.html","587"
"10","Škola","7. ZŠ a MŠ Plzeň","https://www.firmy.cz/detail/399048-7-zs-a-ms-plzen-plzen-severni-predmesti.html","318"
"11","Bankomat","Bankomat České spořitelny","https://www.firmy.cz/detail/594003-bankomat-ceske-sporitelny-plzen-severni-predmesti.html","425"
"12","Tram","U Družby","","1129"
"13","Pošta","Pošta Plzeň 10 - Česká pošta, s.p.","https://www.firmy.cz/detail/216652-posta-plzen-10-plzen-severni-predmesti.html","591"
"14","Sportoviště","Squash U Rytíře Lochoty","https://www.firmy.cz/detail/13100242-squash-u-rytire-lochoty-plzen-bolevec.html","1308"
"15","Restaurace","Starobrněnská pivnice","https://www.firmy.cz/detail/13117798-starobrnenska-pivnice-plzen-severni-predmesti.html","485"
"16","Školka","81. MŠ Plzeň","https://www.firmy.cz/detail/360451-81-ms-plzen-plzen-severni-predmesti.html","196"
"17","Vlak","Plzeň-Zadní Skvrňany","","2395"
"18","Obchod","Globus Hypermarket","https://www.firmy.cz/detail/448331-globus-hypermarket-chotikov.html","1599"
