"","facility_type","facility_name","facility_iri","facility_distance"
"0","Cukrárna","Cukrárna Smile","https://www.firmy.cz/detail/155066-cukrarna-smile-brno-bystrc.html","391"
"1","Kino","Kino Lucerna","https://www.firmy.cz/detail/638240-kino-lucerna-brno-zabovresky.html","4411"
"2","Přírodní zajímavost","Přírodní zahrada U Smrku","","4350"
"3","Hřiště","Dětské hřiště Opálkova","","344"
"4","Večerka","Albert Supermarket","https://www.firmy.cz/detail/446704-albert-supermarket-brno-bystrc.html","200"
"5","Hospoda","Domeček","https://www.firmy.cz/detail/13124946-domecek-brno-bystrc.html","409"
"6","Divadlo","Divadlo Strom","https://www.firmy.cz/detail/12762146-divadlo-strom-brno-zabovresky.html","4238"
"7","Veterinář","Veterina U Zoo","https://www.firmy.cz/detail/688758-veterina-u-zoo-brno-bystrc.html","636"
"8","Restaurace","Mimóza club","https://www.firmy.cz/detail/420321-mimoza-club-brno-bystrc.html","122"
"9","Bus MHD","Vondrákova","","257"
"10","Obchod","Obchodní centrum Javor","https://www.firmy.cz/detail/13245185-obchodni-centrum-javor-brno-bystrc.html","266"
"11","Lékař","MUDr. RENATA VESELÁ, s.r.o.","https://www.firmy.cz/detail/13033946-mudr-renata-vesela-brno-bystrc.html","266"
"12","Sportoviště","Studio BE HAPPY! - Jitka Pokorná","https://www.firmy.cz/detail/13252958-studio-be-happy-jitka-pokorna-brno-bystrc.html","45"
"13","Lékárna","HES Pharma s.r.o., Lékárna Bystrc","https://www.firmy.cz/detail/13289354-hes-pharma-s-r-o-lekarna-bystrc-brno-bystrc.html","266"
"14","Tram","Zoologická zahrada","","525"
"15","Školka","Mateřská škola Pramínek","https://www.firmy.cz/detail/431845-materska-skola-praminek-brno-bystrc.html","356"
"16","Bankomat","Bankomat Komerční banky","https://www.firmy.cz/detail/1354738-bankomat-komercni-banky-brno-bystrc.html","263"
"17","Škola","Základní škola Pramínek, o. p. s.","https://www.firmy.cz/detail/356491-zakladni-skola-praminek-o-p-s-brno-bystrc.html","356"
"18","Pošta","Pošta Brno 9 - Česká pošta, s.p.","https://www.firmy.cz/detail/1534303-posta-brno-9-brno-bystrc.html","231"
"19","Vlak","Brno-Řečkovice","","5429"
