"","facility_type","facility_name","facility_iri","facility_distance"
"0","Cukrárna","Cukrárna - kavárna U Zlaté konvice Kadaň","https://www.firmy.cz/detail/12815599-cukrarna-kavarna-u-zlate-konvice-kadan-kadan.html","1471"
"1","Kino","Kino Hvězda","https://www.firmy.cz/detail/2344098-kino-hvezda-kadan.html","793"
"2","Hřiště","Dětské hřiště Chomutovská","","78"
"3","Večerka","Sonyshop, s.r.o.","https://www.firmy.cz/detail/13248753-sonyshop-kadan.html","69"
"4","Hospoda","Pub Česká hospoda","https://www.firmy.cz/detail/2539992-pub-ceska-hospoda-kadan.html","306"
"5","Veterinář","MVDr. Michaela Čuprová","https://www.firmy.cz/detail/12935192-mvdr-michaela-cuprova-kadan.html","1368"
"6","Bankomat","Bankomat České spořitelny","https://www.firmy.cz/detail/12987532-bankomat-ceske-sporitelny-kadan.html","583"
"7","Restaurace","Labyrint klub bowling","https://www.firmy.cz/detail/431862-labyrint-klub-bowling-kadan.html","347"
"8","Školka","ZŠ a MŠ při nemocnici, Kadaň","https://www.firmy.cz/detail/1311224-zs-a-ms-pri-nemocnici-kadan-kadan.html","168"
"9","Pošta","Pošta Kadaň 1 - Česká pošta, s.p.","https://www.firmy.cz/detail/215307-posta-kadan-1-kadan.html","875"
"10","Vlak","Kadaň-Bystřice","","724"
"11","Lékárna","Lékárna U pelikána","https://www.firmy.cz/detail/2628439-lekarna-u-pelikana-kadan.html","236"
"12","Škola","ZŠ a MŠ při nemocnici, Kadaň","https://www.firmy.cz/detail/357575-zs-a-ms-pri-nemocnici-kadan-kadan.html","168"
"13","Sportoviště","Pavel Špelda","https://www.firmy.cz/detail/644554-pavel-spelda-kadan.html","131"
"14","Lékař","Ambulance praktického lékaře - Nemocnice Kadaň","https://www.firmy.cz/detail/2648864-ambulance-praktickeho-lekare-nemocnice-kadan-kadan.html","234"
"15","Obchod","Kaufland","https://www.firmy.cz/detail/1452573-kaufland-kadan.html","751"
"16","Bus MHD","Kadaň, Chomutovská, sídl.B","","113"
