"","facility_type","facility_name","facility_iri","facility_distance"
"0","Hřiště","Dětské hřiště Kaštánek","https://mapy.cz/zakladni?x=14.4227265687&y=50.1029067119&z=17&source=base&id=1927071","220"
"1","Večerka","BILLA","https://www.firmy.cz/detail/212076-billa-praha-holesovice.html","108"
"2","Cukrárna","Erhartova cukrárna","https://www.firmy.cz/detail/2121271-erhartova-cukrarna-praha-holesovice.html","157"
"3","Veterinář","MVDr. Aleš Hlásný","https://www.firmy.cz/detail/1967608-mvdr-ales-hlasny-praha-bubenec.html","59"
"4","Divadlo","Pidivadlo","https://www.firmy.cz/detail/397282-pidivadlo-praha-holesovice.html","341"
"5","Hospoda","Pivnice U Pivoje","https://www.firmy.cz/detail/2231875-pivnice-u-pivoje-praha-holesovice.html","531"
"6","Kino","Bio Oko","https://www.firmy.cz/detail/2586117-bio-oko-praha-holesovice.html","460"
"7","Bus MHD","Korunovační","https://mapy.cz/zakladni?x=14.42036&y=50.10037&z=17&source=pubt&id=18450156","267"
"8","Vlak","Praha-Bubny","https://mapy.cz/zakladni?x=14.4390160637&y=50.1022888272&z=17&source=pubt&id=15212553","1084"
"9","Restaurace","Pizza Einstein","https://www.firmy.cz/detail/1944822-pizza-einstein-praha-bubenec.html","127"
"10","Škola","ZŠ Praha 7, Korunovační 8","https://www.firmy.cz/detail/359010-zs-praha-7-korunovacni-8-praha-bubenec.html","289"
"11","Bankomat","Bankomat Komerční banky","https://www.firmy.cz/detail/596055-bankomat-komercni-banky-praha-holesovice.html","105"
"12","Lékař","MUDr. Eva Křečková","https://www.firmy.cz/detail/1952580-mudr-eva-kreckova-praha-holesovice.html","236"
"13","Tram","Letenské náměstí","https://mapy.cz/zakladni?x=14.424114816&y=50.0999579604&z=17&source=pubt&id=15303626","126"
"14","Školka","Smiling Baby School s.r.o.","https://www.firmy.cz/detail/2640521-smiling-baby-school-s-r-o-praha-bubenec.html","309"
"15","Pošta","Pošta Praha 7 - Česká pošta, s.p.","https://www.firmy.cz/detail/216716-posta-praha-7-praha-holesovice.html","160"
"16","Obchod","PALLADIUM Praha","https://www.firmy.cz/detail/2238095-palladium-praha-praha-nove-mesto.html","1395"
"17","Metro","Vltavská","https://mapy.cz/zakladni?x=14.4381917409&y=50.0990612005&z=17&source=pubt&id=15206937","1042"
"18","Sportoviště","Tenisová škola TALLENT","https://www.firmy.cz/detail/722773-tenisova-skola-tallent-praha-bubenec.html","289"
"19","Lékárna","Lékárna Veletržní, s.r.o.","https://www.firmy.cz/detail/581497-lekarna-veletrzni-praha-bubenec.html","120"
