"","facility_type","facility_name","facility_iri","facility_distance"
"0","Cukrárna","KAFÉRNA","https://www.firmy.cz/detail/12954175-kaferna-pisek-vnitrni-mesto.html","88"
"1","Kino","Kino Portyč","https://www.firmy.cz/detail/13061398-kino-portyc-pisek-prazske-predmesti.html","427"
"2","Hřiště","Dětské hřiště - Tylova","","237"
"3","Večerka","BEZ. spolkový obchod váženým zbožím","https://www.firmy.cz/detail/13299792-bez-spolkovy-obchod-vazenym-zbozim-pisek-vnitrni-mesto.html","197"
"4","Hospoda","Green pub","https://www.firmy.cz/detail/12927585-green-pub-pisek-vnitrni-mesto.html","135"
"5","Divadlo","Divadlo Fráni Šrámka","https://www.firmy.cz/detail/12983574-divadlo-frani-sramka-pisek-budejovicke-predmesti.html","246"
"6","Veterinář","MVDr. Simona Petrová","https://www.firmy.cz/detail/2059321-mvdr-simona-petrova-pisek-vnitrni-mesto.html","211"
"7","Bus MHD","Písek, Velké nám.","","13"
"8","Sportoviště","Laser arena Písek","https://www.firmy.cz/detail/12928075-laser-arena-pisek-pisek-vnitrni-mesto.html","86"
"9","Lékárna","Lékárna U sv. Anny","https://www.firmy.cz/detail/12776518-lekarna-u-sv-anny-pisek-vnitrni-mesto.html","45"
"10","Lékař","MUDr. Milan Bečka","https://www.firmy.cz/detail/383915-mudr-milan-becka-pisek-vnitrni-mesto.html","45"
"11","Škola","Vyšší odborná škola restaurátorská, s.r.o.","https://www.firmy.cz/detail/361526-vyssi-odborna-skola-restauratorska-pisek-vnitrni-mesto.html","105"
"12","Obchod","Galerie Písek","https://www.firmy.cz/detail/13061127-galerie-pisek-pisek-budejovicke-predmesti.html","789"
"13","Restaurace","Pizzeria San Marco","https://www.firmy.cz/detail/2239827-pizzeria-san-marco-pisek-vnitrni-mesto.html","29"
"14","Školka","Anglická školka Abacus English Preschool","https://www.firmy.cz/detail/13310534-anglicka-skolka-abacus-english-preschool-pisek-vnitrni-mesto.html","195"
"15","Vlak","Písek jih","","782"
"16","Pošta","Pošta Písek 1 - Česká pošta, s.p.","https://www.firmy.cz/detail/1424184-posta-pisek-1-pisek-budejovicke-predmesti.html","312"
"17","Bankomat","Raiffeisenbank - bankomat","https://www.firmy.cz/detail/631136-raiffeisenbank-bankomat-pisek-vnitrni-mesto.html","25"
