"","facility_type","facility_name","facility_iri","facility_distance"
"0","Cukrárna","KRAVÁLNA","https://www.firmy.cz/detail/13264126-kravalna-brno-zidenice.html","237"
"1","Kino","Letní kino Brno na Dvoře MdB","https://www.firmy.cz/detail/13308736-letni-kino-brno-na-dvore-mdb-brno-cerna-pole.html","3975"
"2","Přírodní zajímavost","Cesta rákosím","","1281"
"3","Hřiště","Dětské hřiště Bzenecká","","81"
"4","Večerka","BILLA","https://www.firmy.cz/detail/450601-billa-brno-zidenice.html","252"
"5","Hospoda","Sportovní centrum Hattrick","https://www.firmy.cz/detail/13147510-sportovni-centrum-hattrick-brno-zidenice.html","276"
"6","Divadlo","Divadlo Kufr","https://www.firmy.cz/detail/585512-divadlo-kufr-brno-husovice.html","2369"
"7","Veterinář","Veterinární klinika ANIMED","https://www.firmy.cz/detail/12901173-veterinarni-klinika-animed-brno-zidenice.html","259"
"8","Školka","Mateřská škola Prušánecká 8","https://www.firmy.cz/detail/1446903-materska-skola-prusanecka-8-brno-zidenice.html","83"
"9","Škola","Gymnázium Globe, s.r.o.","https://www.firmy.cz/detail/361598-gymnazium-globe-brno-zidenice.html","353"
"10","Lékárna","Dr.Max LÉKÁRNA","https://www.firmy.cz/detail/13280056-dr-max-lekarna-brno-zidenice.html","266"
"11","Restaurace","Pizzerie K1","https://www.firmy.cz/detail/13120927-pizzerie-k1-brno-zidenice.html","104"
"12","Bankomat","Bankomat Air Bank","https://www.firmy.cz/detail/13101293-bankomat-air-bank-brno-zidenice.html","230"
"13","Obchod","Líšeňské centrum obchodu a služeb, s.r.o.","https://www.firmy.cz/detail/2510623-lisenske-centrum-obchodu-a-sluzeb-brno-lisen.html","1027"
"14","Lékař","PRAKTIMED, s.r.o.","https://www.firmy.cz/detail/13285815-praktimed-brno-zidenice.html","290"
"15","Sportoviště","Tenis Cup","https://www.firmy.cz/detail/13059526-tenis-cup-brno-lisen.html","771"
"16","Tram","Novolíšeňská","","886"
"17","Bus MHD","Prušánecká","","147"
"18","Pošta","Pošta Brno 29 - Česká pošta, s.p.","https://www.firmy.cz/detail/216048-posta-brno-29-brno-zidenice.html","237"
"19","Vlak","Brno-Židenice","","1903"
