"","facility_type","facility_name","facility_iri","facility_distance"
"0","Cukrárna","Cukrárna U Čížků","https://www.firmy.cz/detail/13278821-cukrarna-u-cizku-jirkov.html","2070"
"1","Kino","Letní kino Chomutov","https://www.firmy.cz/detail/2644649-letni-kino-chomutov-chomutov.html","1729"
"2","Hřiště","Dětské hřiště sídliště Zahradní","","83"
"3","Večerka","Tesco Supermarket","https://www.firmy.cz/detail/455670-tesco-supermarket-chomutov.html","382"
"4","Hospoda","Hospoda Mustang","https://www.firmy.cz/detail/13117602-hospoda-mustang-chomutov.html","643"
"5","Divadlo","Městské divadlo Chomutov","https://www.firmy.cz/detail/2644644-mestske-divadlo-chomutov-chomutov.html","2566"
"6","Veterinář","MVDr. Pavel Klier","https://www.firmy.cz/detail/2273882-mvdr-pavel-klier-chomutov.html","583"
"7","Bankomat","Bankomat České spořitelny","https://www.firmy.cz/detail/591868-bankomat-ceske-sporitelny-chomutov.html","417"
"8","Restaurace","Hospoda - restaurace Morava","https://www.firmy.cz/detail/13232966-hospoda-restaurace-morava-chomutov.html","449"
"9","Sportoviště","Pétanque Chomutov","","660"
"10","Bus MHD","Zahradní TIP","","60"
"11","Obchod","Kaufland","https://www.firmy.cz/detail/2616230-kaufland-otvice.html","840"
"12","Škola","ZŠ Chomutov, Zahradní","https://www.firmy.cz/detail/357377-zs-chomutov-zahradni-chomutov.html","426"
"13","Pošta","Pošta Chomutov 5 - Česká pošta, s.p.","https://www.firmy.cz/detail/215279-posta-chomutov-5-chomutov.html","397"
"14","Školka","MŠ Chomutov, Zahradní","https://www.firmy.cz/detail/1345672-ms-chomutov-zahradni-chomutov.html","213"
"15","Lékař","MUDr. Anna Bittnerová","https://www.firmy.cz/detail/12841213-mudr-anna-bittnerova-chomutov.html","552"
"16","Lékárna","U Hvězdy","https://www.firmy.cz/detail/658120-u-hvezdy-chomutov.html","574"
"17","Vlak","Jirkov zastávka","","1080"
