"","facility_type","facility_name","facility_iri","facility_distance"
"0","Cukrárna","Kavárna Viola","https://www.firmy.cz/detail/12915023-kavarna-viola-podebrady-iii.html","861"
"1","Kino","Zámecký biograf","https://www.firmy.cz/detail/2697562-zamecky-biograf-podebrady-i.html","1157"
"2","Hřiště","Dětské hřiště","","219"
"3","Večerka","Penny Market","https://www.firmy.cz/detail/207804-penny-market-podebrady-ii.html","366"
"4","Divadlo","Divadlo Na Kovárně","https://www.firmy.cz/detail/2697557-divadlo-na-kovarne-podebrady-i.html","1087"
"5","Hospoda","Restaurace Krystal","https://www.firmy.cz/detail/2459085-restaurace-krystal-podebrady-ii.html","607"
"6","Veterinář","MVDr. Petr Coufal","https://www.firmy.cz/detail/2139119-mvdr-petr-coufal-podebrady-iii.html","1108"
"7","Bus MHD","Poděbrady, u mlékárny","","539"
"8","Školka","MŠ Poděbrady, Palachova","https://www.firmy.cz/detail/2622627-ms-podebrady-palachova-podebrady-ii.html","537"
"9","Bankomat","Bankomat České spořitelny","https://www.firmy.cz/detail/594042-bankomat-ceske-sporitelny-podebrady-iii.html","536"
"10","Restaurace","U Marka","https://www.firmy.cz/detail/12915032-u-marka-podebrady.html","436"
"11","Sportoviště","Bc. Alena Bedrnová","https://www.firmy.cz/detail/12850169-bc-alena-bedrnova-podebrady-iv.html","596"
"12","Lékař","MUDr. Alena Fričová","https://www.firmy.cz/detail/386327-mudr-alena-fricova-podebrady-ii.html","430"
"13","Vlak","Poděbrady","","547"
"14","Obchod","Tesco","https://www.firmy.cz/detail/12750637-tesco-podebrady-kluk.html","2286"
"15","Škola","SZeŠ a SOŠ Poděbrady","https://www.firmy.cz/detail/362089-szes-a-sos-podebrady-podebrady-ii.html","215"
"16","Pošta","Pošta Poděbrady 1 - Česká pošta, s.p.","https://www.firmy.cz/detail/1357087-posta-podebrady-1-podebrady-iii.html","1047"
"17","Lékárna","Lázeňská lékárna","https://www.firmy.cz/detail/12953419-lazenska-lekarna-podebrady-i.html","973"
