"","facility_type","facility_name","facility_iri","facility_distance"
"0","Hřiště","Dětské hřiště Lovecká chata","https://mapy.cz/zakladni?x=17.2028312359&y=49.6559080684&z=17&source=base&id=2192037","2727"
"1","Večerka","DODOSHOP","https://www.firmy.cz/detail/13140472-dodoshop-stepanov.html","53"
"2","Hospoda","Rybářská hospoda-Tipsport","https://www.firmy.cz/detail/13143292-rybarska-hospoda-tipsport-stepanov.html","193"
"3","Cukrárna","Zmrzlina Štarnov","https://www.firmy.cz/detail/2158863-zmrzlina-starnov-starnov.html","3739"
"4","Kino","Kino Štěpánov","https://www.firmy.cz/detail/675946-kino-stepanov-stepanov.html","978"
"5","Škola","ZUŠ Žerotín - Štěpánov","https://www.firmy.cz/detail/12987849-zus-zerotin-stepanov-stepanov.html","191"
"6","Školka","MŠ Štěpánov, Sídliště","https://www.firmy.cz/detail/2101232-ms-stepanov-sidliste-stepanov.html","268"
"7","Lékař","velmi praktický s.r.o.","https://www.firmy.cz/detail/13282650-velmi-prakticky-s-r-o-stepanov.html","253"
"8","Restaurace","Restaurace Sokolovna","https://www.firmy.cz/detail/334692-restaurace-sokolovna-stepanov.html","753"
"9","Vlak","Štěpánov","https://mapy.cz/zakladni?x=17.2210978757&y=49.6710399123&z=17&source=pubt&id=15213000","600"
"10","Pošta","Pošta Štěpánov u Olomouce - Česká pošta, s.p.","https://www.firmy.cz/detail/432323-posta-stepanov-u-olomouce-stepanov.html","1031"
"11","Sportoviště","Tělovýchovná jednota Štěpánov u Olomouce","https://www.firmy.cz/detail/1336045-telovychovna-jednota-stepanov-u-olomouce-stepanov.html","616"
"12","Lékárna","Lékárna Štěpánov","https://www.firmy.cz/detail/13259474-lekarna-stepanov-stepanov.html","253"
"13","Bankomat","Bankomat České spořitelny","https://www.firmy.cz/detail/596210-bankomat-ceske-sporitelny-stepanov.html","996"
"14","Bus MHD","Štěpánov, u Salvie","https://mapy.cz/zakladni?x=17.2263105678376&y=49.6767082339259&z=17&source=pubt&id=15284726","139"
