"","facility_type","facility_name","facility_iri","facility_distance"
"0","Hřiště","Dětské hřiště Purkyňova","https://mapy.cz/zakladni?x=17.8810851895&y=49.9322066452&z=17&source=base&id=2131673","477"
"1","Přírodní zajímavost","Bludný balvan","https://mapy.cz/zakladni?x=17.9055405556&y=49.9362436111&z=17&source=base&id=2112615","1559"
"2","Hospoda","Pohostinství U Antona","https://www.firmy.cz/detail/2024860-pohostinstvi-u-antona-opava-predmesti.html","392"
"3","Večerka","HRUŠKA","https://www.firmy.cz/detail/12820463-hruska-opava-predmesti.html","72"
"4","Veterinář","Veterinární klinika Palackého","https://www.firmy.cz/detail/1555337-veterinarni-klinika-palackeho-opava-predmesti.html","710"
"5","Cukrárna","Cukrárna Diana","https://www.firmy.cz/detail/1990334-cukrarna-diana-opava-predmesti.html","963"
"6","Kino","Kino Mír","https://www.firmy.cz/detail/2297240-kino-mir-opava-mesto.html","1572"
"7","Divadlo","Slezské divadlo Opava","https://www.firmy.cz/detail/230941-slezske-divadlo-opava-opava-mesto.html","1511"
"8","Škola","ZŠ Opava, Englišova 82","https://www.firmy.cz/detail/358606-zs-opava-englisova-82-opava-predmesti.html","313"
"9","Bus MHD","Opava, Městský hřbitov","https://mapy.cz/zakladni?x=17.8849274584&y=49.9283531234&z=17&source=pubt&id=15308660","172"
"10","Restaurace","Koliba na statku","https://www.firmy.cz/detail/12928115-koliba-na-statku-opava.html","500"
"11","Lékař","Léčebné a rehabilitační centrum, s.r.o.","https://www.firmy.cz/detail/144559-lecebne-a-rehabilitacni-centrum-opava-predmesti.html","349"
"12","Pošta","Pošta Opava 2 - Česká pošta, s.p.","https://www.firmy.cz/detail/432556-posta-opava-2-opava-predmesti.html","1031"
"13","Sportoviště","Okresní rada Asociace školních sportovních klubů České republiky Opava","https://www.firmy.cz/detail/12991283-okresni-rada-asociace-skolnich-sportovnich-klubu-ceske-republiky-opava-opava-predmesti.html","313"
"14","Vlak","Opava západ","https://mapy.cz/zakladni?x=17.8886594795&y=49.9384408304&z=17&source=pubt&id=15212354","997"
"15","Obchod","Albert Hypermarket","https://www.firmy.cz/detail/447025-albert-hypermarket-opava-predmesti.html","672"
"16","Školka","MŠ Eliška, Opava","https://www.firmy.cz/detail/2150466-ms-eliska-opava-opava-predmesti.html","128"
"17","Bankomat","Bankomat České spořitelny","https://www.firmy.cz/detail/593750-bankomat-ceske-sporitelny-opava-predmesti.html","648"
"18","Lékárna","Lékárna LEMON","https://www.firmy.cz/detail/13301545-lekarna-lemon-opava-predmesti.html","672"
