"","facility_type","facility_name","facility_iri","facility_distance"
"0","Hřiště","Dětské hřiště Na Vozovce","https://mapy.cz/zakladni?x=17.2354304301&y=49.5924520416&z=17&source=base&id=2177213","285"
"1","Večerka","COOP","https://www.firmy.cz/detail/12857971-coop-olomouc-nova-ulice.html","329"
"2","Hospoda","Hospůdka U Kuděje","https://www.firmy.cz/detail/13124006-hospudka-u-kudeje-olomouc-nova-ulice.html","318"
"3","Kino","Kino METROPOL","https://www.firmy.cz/detail/12773593-kino-metropol-olomouc.html","1016"
"4","Veterinář","Veterinární klinika Špruček, s.r.o.","https://www.firmy.cz/detail/12934299-veterinarni-klinika-sprucek-olomouc.html","542"
"5","Divadlo","Divadlo Tramtarie","https://www.firmy.cz/detail/594401-divadlo-tramtarie-olomouc-nova-ulice.html","716"
"6","Cukrárna","Katrin cake&coffee","https://www.firmy.cz/detail/13121486-katrin-cake-coffee-olomouc-nova-ulice.html","396"
"7","Bus MHD","Foerstrova pošta","https://mapy.cz/zakladni?x=17.2354855333&y=49.5915263263&z=17&source=pubt&id=15203098","304"
"8","Škola","ZUŠ Iši Krejčího Olomouc","https://www.firmy.cz/detail/398970-zus-isi-krejciho-olomouc-olomouc-nova-ulice.html","72"
"9","Lékař","MOJE AMBULANCE","https://www.firmy.cz/detail/2141118-moje-ambulance-olomouc-nova-ulice.html","184"
"10","Restaurace","Restaurace Leguán","https://www.firmy.cz/detail/343565-restaurace-leguan-olomouc-nova-ulice.html","230"
"11","Bankomat","Bankomat ČSOB","https://www.firmy.cz/detail/599270-bankomat-csob-olomouc-nova-ulice.html","361"
"12","Sportoviště","Lezecké centrum PAJKLAND","https://www.firmy.cz/detail/419167-lezecke-centrum-pajkland-olomouc-nova-ulice.html","234"
"13","Vlak","Olomouc město","https://mapy.cz/zakladni?x=17.241190942&y=49.5941205238&z=17&source=pubt&id=15212337","216"
"14","Školka","MŠ Olomouc, Mozartova","https://www.firmy.cz/detail/13047505-ms-olomouc-mozartova-olomouc-nova-ulice.html","302"
"15","Pošta","Pošta Olomouc 4 - Česká pošta, s.p.","https://www.firmy.cz/detail/13029623-posta-olomouc-4-olomouc-nova-ulice.html","301"
"16","Tram","Nádraží Město","https://mapy.cz/zakladni?x=17.24167589878935&y=49.59517465446446&z=17&source=pubt&id=15203077","333"
"17","Obchod","OD TIMPO, s.r.o.","https://www.firmy.cz/detail/642623-od-timpo-olomouc-nova-ulice.html","736"
"18","Lékárna","Lékárna REMEDIA s.r.o.","https://www.firmy.cz/detail/13204266-lekarna-remedia-s-r-o-olomouc-nova-ulice.html","396"
