"","facility_type","facility_name","facility_iri","facility_distance"
"0","Cukrárna","Cukrárna U Háje","https://www.firmy.cz/detail/1950720-cukrarna-u-haje-praha-kobylisy.html","1001"
"1","Kino","Bio Oko","https://www.firmy.cz/detail/2586117-bio-oko-praha-holesovice.html","2989"
"2","Hřiště","Dětské hřiště Za Čimickým hájem","","301"
"3","Večerka","Žabka","https://www.firmy.cz/detail/12976598-zabka-praha-troja.html","37"
"4","Divadlo","Divadlo Za plotem","https://www.firmy.cz/detail/396897-divadlo-za-plotem-praha-bohnice.html","1222"
"5","Hospoda","Pivnice V Solu","https://www.firmy.cz/detail/13093708-pivnice-v-solu-praha-troja.html","852"
"6","Veterinář","Veterinární ordinace Prima-vet","https://www.firmy.cz/detail/12739483-veterinarni-ordinace-prima-vet-praha-bohnice.html","669"
"7","Lékař","MUDr. Zdeňka Kořínková","https://www.firmy.cz/detail/386763-mudr-zdenka-korinkova-praha-kobylisy.html","1140"
"8","Škola","Základní škola, Praha 8, Glowackého 6","https://www.firmy.cz/detail/356243-zakladni-skola-praha-8-glowackeho-6-praha-troja.html","286"
"9","Metro","Kobylisy","","1474"
"10","Sportoviště","Pétanque Glowackého","","141"
"11","Lékárna","Dr. Max","https://www.firmy.cz/detail/13001326-dr-max-praha-bohnice.html","733"
"12","Bus MHD","Podhajská pole","","249"
"13","Obchod","Nákupní centrum ODRA","https://www.firmy.cz/detail/221986-nakupni-centrum-odra-praha-bohnice.html","733"
"14","Školka","Mateřská a základní škola Sofia School","https://www.firmy.cz/detail/12779023-materska-a-zakladni-skola-sofia-school-praha-bohnice.html","359"
"15","Restaurace","Restaurace Club Troja","https://www.firmy.cz/detail/13136133-restaurace-club-troja-praha-bohnice.html","395"
"16","Pošta","Pošta Praha 81","https://www.firmy.cz/detail/431382-posta-praha-81-praha-troja.html","953"
"17","Tram","Nad Trojou","","898"
"18","Bankomat","Bankomat ČSOB","https://www.firmy.cz/detail/12979652-bankomat-csob-praha-bohnice.html","747"
"19","Vlak","Praha-Holešovice","","1898"
