"","facility_type","facility_name","facility_iri","facility_distance"
"0","Cukrárna","Cukrárna Aida","https://www.firmy.cz/detail/13138858-cukrarna-aida-brno-komin.html","292"
"1","Přírodní zajímavost","Přírodní zahrada U Smrku","","2812"
"2","Kino","Kino Lucerna","https://www.firmy.cz/detail/638240-kino-lucerna-brno-zabovresky.html","2739"
"3","Hřiště","Dětské hřiště Vavřinecká","","191"
"4","Večerka","Potraviny Duha","https://www.firmy.cz/detail/13320959-potraviny-duha-brno-komin.html","266"
"5","Hospoda","Hospůdka Turbína","https://www.firmy.cz/detail/13041074-hospudka-turbina-brno-komin.html","351"
"6","Divadlo","Divadlo Strom","https://www.firmy.cz/detail/12762146-divadlo-strom-brno-zabovresky.html","2579"
"7","Veterinář","Veterinární klinika MVDr. Igora Beneše","https://www.firmy.cz/detail/302351-veterinarni-klinika-mvdr-igora-benese-brno-komin.html","570"
"8","Pošta","Pošta Brno 24 - Česká pošta, s.p.","https://www.firmy.cz/detail/431926-posta-brno-24-brno-komin.html","712"
"9","Tram","Branka","","233"
"10","Bus MHD","Lísky","","116"
"11","Obchod","Obchodní centrum Javor","https://www.firmy.cz/detail/13245185-obchodni-centrum-javor-brno-bystrc.html","1605"
"12","Sportoviště","Klub turistů a lyžařů Brno","https://www.firmy.cz/detail/13084806-klub-turistu-a-lyzaru-brno-brno-komin.html","255"
"13","Lékař","MUDr. Jana Pavloková","https://www.firmy.cz/detail/1351017-mudr-jana-pavlokova-brno-komin.html","269"
"14","Lékárna","Lékárna Komín","https://www.firmy.cz/detail/13169266-lekarna-komin-brno-komin.html","269"
"15","Bankomat","Bankomat MONETA Money Bank","https://www.firmy.cz/detail/2250672-bankomat-moneta-money-bank-brno-komin.html","284"
"16","Restaurace","Restaurace U Dvořáků","https://www.firmy.cz/detail/13326688-restaurace-u-dvoraku-brno-komin.html","311"
"17","Školka","ZŠ a MŠ Brno, Pastviny","https://www.firmy.cz/detail/2542310-zs-a-ms-brno-pastviny-brno-komin.html","544"
"18","Vlak","Brno-Královo Pole","","3544"
"19","Škola","Gymnázium P. Křížkovského s uměleckou profilací, s.r.o.","https://www.firmy.cz/detail/270832-gymnazium-p-krizkovskeho-s-umeleckou-profilaci-brno-komin.html","369"
