"","facility_type","facility_name","facility_iri","facility_distance"
"0","Hřiště","Dětské hřiště Bolevecká","https://mapy.cz/zakladni?x=13.370791508&y=49.7605284787&z=17&source=base&id=2236385","217"
"1","Cukrárna","Pekárna cukrárna U Marka","https://www.firmy.cz/detail/205003-pekarna-cukrarna-u-marka-plzen-severni-predmesti.html","671"
"2","Večerka","BILLA stop & shop","https://www.firmy.cz/detail/13102089-billa-stop-shop-plzen-severni-predmesti.html","102"
"3","Hospoda","U Sv. Rocha","https://www.firmy.cz/detail/13110857-u-sv-rocha-plzen-severni-predmesti.html","946"
"4","Divadlo","Nové divadlo Plzeň","https://www.firmy.cz/detail/12956345-nove-divadlo-plzen-plzen-jizni-predmesti.html","1075"
"5","Kino","Cinema City Plzeň","https://www.firmy.cz/detail/2246853-cinema-city-plzen-plzen-jizni-predmesti.html","1077"
"6","Veterinář","MVDr. Ladislav Kuncl - Veterinární klinika Kleisslova","https://www.firmy.cz/detail/264568-mvdr-ladislav-kuncl-veterinarni-klinika-kleisslova-plzen-severni-predmesti.html","272"
"7","Lékárna","DIA lékárna","https://www.firmy.cz/detail/599668-dia-lekarna-plzen-severni-predmesti.html","102"
"8","Tram","Pod Záhorskem","https://mapy.cz/zakladni?x=13.372090480743726&y=49.75786973062227&z=17&source=pubt&id=15697825","105"
"9","Bus MHD","Lékařská fakulta","https://mapy.cz/zakladni?x=13.3700652354172&y=49.76074925921172&z=17&source=pubt&id=15697537","265"
"10","Restaurace","Restaurace Ve Vilách","https://www.firmy.cz/detail/465897-restaurace-ve-vilach-plzen-severni-predmesti.html","555"
"11","Bankomat","Bankomat Air Bank","https://www.firmy.cz/detail/13100814-bankomat-air-bank-plzen-severni-predmesti.html","745"
"12","Vlak","Plzeň hlavní nádraží","https://mapy.cz/zakladni?x=13.3880581834&y=49.743543864&z=17&source=pubt&id=15698529","2044"
"13","Školka","17. ZŠ a MŠ Plzeň","https://www.firmy.cz/detail/1958179-17-zs-a-ms-plzen-plzen-severni-predmesti.html","608"
"14","Sportoviště","SK SPORTCENTRUM ROUDNÁ z.s.","https://www.firmy.cz/detail/2264222-sk-sportcentrum-roudna-z-s-plzen.html","571"
"15","Škola","17. ZŠ a MŠ Plzeň","https://www.firmy.cz/detail/358861-17-zs-a-ms-plzen-plzen-severni-predmesti.html","641"
"16","Pošta","Pošta Plzeň 10 - Česká pošta, s.p.","https://www.firmy.cz/detail/216652-posta-plzen-10-plzen-severni-predmesti.html","1166"
"17","Obchod","Kaufland","https://www.firmy.cz/detail/459269-kaufland-plzen-severni-predmesti.html","777"
"18","Lékař","MUDr. Jiřina Křivánková","https://www.firmy.cz/detail/759390-mudr-jirina-krivankova-plzen-severni-predmesti.html","225"
