"","facility_type","facility_name","facility_iri","facility_distance"
"0","Cukrárna","hamko cz s. r. o.","https://www.firmy.cz/detail/2637752-hamko-cz-s-r-o-praha-nusle.html","171"
"1","Kino","HopeTV","https://www.firmy.cz/detail/672889-hopetv-praha-vinohrady.html","1169"
"2","Hřiště","Dětské hřiště Božetěchova","","81"
"3","Večerka","Smíšené zboží Táborská 23","https://www.firmy.cz/detail/2467827-smisene-zbozi-taborska-23-praha-nusle.html","158"
"4","Hospoda","Hospoda Pohoda","https://www.firmy.cz/detail/569598-hospoda-pohoda-praha-nusle.html","360"
"5","Divadlo","Divadlo Na Fidlovačce","https://www.firmy.cz/detail/396872-divadlo-na-fidlovacce-praha-nusle.html","225"
"6","Veterinář","Veterinární klinika Nusle","https://www.firmy.cz/detail/640960-veterinarni-klinika-nusle-praha-nusle.html","100"
"7","Bus MHD","Vyšehrad","","589"
"8","Škola","Gymnázium Praha 4, Na Vítězné pláni","https://www.firmy.cz/detail/360757-gymnazium-praha-4-na-vitezne-plani-praha-nusle.html","144"
"9","Lékárna","Nuselská lékárna","https://www.firmy.cz/detail/598110-nuselska-lekarna-praha-nusle.html","332"
"10","Lékař","MUDr. Nina PACHOLÍKOVÁ - Všeobecný lékař","https://www.firmy.cz/detail/390043-mudr-nina-pacholikova-vseobecny-lekar-praha-nusle.html","139"
"11","Vlak","Praha-Vršovice","","812"
"12","Bankomat","Bankomat Komerční banky","https://www.firmy.cz/detail/595973-bankomat-komercni-banky-praha-nusle.html","283"
"13","Školka","MŠ Prospect","https://www.firmy.cz/detail/679634-ms-prospect-praha-nusle.html","75"
"14","Restaurace","Restaurace u Bansethů","https://www.firmy.cz/detail/684629-restaurace-u-bansethu-praha-nusle.html","224"
"15","Tram","Palouček","","122"
"16","Metro","Vyšehrad","","435"
"17","Pošta","Pošta Praha 416 - Česká pošta, s.p.","https://www.firmy.cz/detail/217473-posta-praha-416-praha-nusle.html","285"
"18","Obchod","Arkády Pankrác","https://www.firmy.cz/detail/2245240-arkady-pankrac-praha-nusle.html","1325"
"19","Sportoviště","Tělocvičná jednota Sokol Nusle Praha","https://www.firmy.cz/detail/2128396-telocvicna-jednota-sokol-nusle-praha-praha-nusle.html","262"
