"","facility_type","facility_name","facility_iri","facility_distance"
"0","Cukrárna","Art Café","https://www.firmy.cz/detail/12919900-art-cafe-olomouc-povel.html","389"
"1","Kino","5D cinema Maxim","https://www.firmy.cz/detail/12950601-5d-cinema-maxim-olomouc.html","1106"
"2","Hřiště","Dětské hřiště Zikova","","32"
"3","Večerka","Můj obchod - Minimarket Werichova","https://www.firmy.cz/detail/13262824-muj-obchod-minimarket-werichova-olomouc-nove-sady.html","144"
"4","Hospoda","Hospůdka u Médi","https://www.firmy.cz/detail/13299464-hospudka-u-medi-olomouc-nove-sady.html","317"
"5","Divadlo","Divadlo na Šantovce, o.p.s.","https://www.firmy.cz/detail/12833588-divadlo-na-santovce-olomouc.html","1156"
"6","Veterinář","Veterinární ordinace OrdinaVet","https://www.firmy.cz/detail/12984041-veterinarni-ordinace-ordinavet-olomouc-povel.html","413"
"7","Lékárna","Lékárna Rena Olomouc, s.r.o.","https://www.firmy.cz/detail/12838828-lekarna-rena-olomouc-olomouc-nove-sady.html","182"
"8","Škola","Fakultní základní škola dr. Milady Horákové a Mateřská škola Olomouc, Rožňavská 21, příspěvková organizace","https://www.firmy.cz/detail/358587-fakultni-zakladni-skola-dr-milady-horakove-a-materska-skola-olomouc-roznavska-21-prispevkova-organizace-olomouc-nove-sady.html","238"
"9","Restaurace","Amici Pizza & Burgers","https://www.firmy.cz/detail/13276315-amici-pizza-burgers-olomouc-nove-sady.html","198"
"10","Obchod","Albert Hypermarket","https://www.firmy.cz/detail/12924402-albert-hypermarket-olomouc.html","1097"
"11","Bankomat","Bankomat ČSOB","https://www.firmy.cz/detail/599275-bankomat-csob-olomouc-nove-sady.html","198"
"12","Tram","Trnkova","","425"
"13","Bus MHD","U Rybářského stavu","","351"
"14","Lékař","Ordinace MUDr. Homolková a MUDr. Zatloukalová, s.r.o.","https://www.firmy.cz/detail/13046790-ordinace-mudr-homolkova-a-mudr-zatloukalova-olomouc-nove-sady.html","174"
"15","Sportoviště","TJ MILO Olomouc, z.s.","https://www.firmy.cz/detail/1335442-tj-milo-olomouc-z-s-olomouc-nove-sady.html","631"
"16","Školka","Fakultní základní škola dr. Milady Horákové a Mateřská škola Olomouc, Rožňavská 21, příspěvková organizace","https://www.firmy.cz/detail/731600-fakultni-zakladni-skola-dr-milady-horakove-a-materska-skola-olomouc-roznavska-21-prispevkova-organizace-olomouc-nove-sady.html","194"
"17","Pošta","Pošta Olomouc 12 - Česká pošta, s.p.","https://www.firmy.cz/detail/215270-posta-olomouc-12-olomouc-povel.html","666"
"18","Vlak","Olomouc-Nové Sady","","879"
