"","facility_type","facility_name","facility_iri","facility_distance"
"0","Cukrárna","Čauky mňauky cafe","https://www.firmy.cz/detail/13057787-cauky-mnauky-cafe-ostrava-moravska-ostrava.html","70"
"1","Kino","Kino vesmír","https://www.firmy.cz/detail/12980428-kino-vesmir-ostrava-moravska-ostrava.html","354"
"2","Přírodní zajímavost","Uhelná sloj v Landeku","","3281"
"3","Hřiště","Dětské hřiště Veleslavínova","","207"
"4","Večerka","VEGA PROVITA","https://www.firmy.cz/detail/649689-vega-provita-ostrava-moravska-ostrava.html","102"
"5","Hospoda","Hobit club","https://www.firmy.cz/detail/1989230-hobit-club-ostrava-moravska-ostrava.html","256"
"6","Divadlo","Divadlo 12","https://www.firmy.cz/detail/13216354-divadlo-12-ostrava-moravska-ostrava.html","419"
"7","Veterinář","VETPARK Ostrava, s.r.o.","https://www.firmy.cz/detail/13308555-vetpark-ostrava-ostrava-moravska-ostrava.html","1083"
"8","Školka","ZŠ a MŠ Ostrava, Ostrčilova 10","https://www.firmy.cz/detail/728186-zs-a-ms-ostrava-ostrcilova-10-ostrava-moravska-ostrava.html","271"
"9","Bus MHD","Konzervatoř","","169"
"10","Škola","Janáčkova konzervatoř v Ostravě","https://www.firmy.cz/detail/360963-janackova-konzervator-v-ostrave-ostrava-moravska-ostrava.html","208"
"11","Restaurace","Restaurace Evropa & Café bar","https://www.firmy.cz/detail/13015710-restaurace-evropa-cafe-bar-ostrava-moravska-ostrava.html","43"
"12","Pošta","Pošta Ostrava 1 - Česká pošta, s.p.","https://www.firmy.cz/detail/452777-posta-ostrava-1-ostrava-moravska-ostrava.html","346"
"13","Lékař","ADL medservice s.r.o. - ordinace praktického lékaře","https://www.firmy.cz/detail/2542119-adl-medservice-s-r-o-ordinace-praktickeho-lekare-ostrava-moravska-ostrava.html","291"
"14","Obchod","Obchodní centrum LASO","https://www.firmy.cz/detail/2071391-obchodni-centrum-laso-ostrava-moravska-ostrava.html","656"
"15","Vlak","Ostrava-Stodolní","","638"
"16","Bankomat","Bankomat České spořitelny","https://www.firmy.cz/detail/593832-bankomat-ceske-sporitelny-ostrava-moravska-ostrava.html","150"
"17","Sportoviště","Fatima Dance a Fitness","https://www.firmy.cz/detail/13183290-fatima-dance-a-fitness-ostrava-moravska-ostrava.html","209"
"18","Lékárna","U Jindřicha","https://www.firmy.cz/detail/375421-u-jindricha-ostrava-moravska-ostrava.html","297"
"19","Tram","Důl Jindřich","","106"
