"","facility_type","facility_name","facility_iri","facility_distance"
"0","Hřiště","Dětské hřiště Kralovická","https://mapy.cz/zakladni?x=13.3650162945&y=49.7775754306&z=17&source=base&id=2162726","101"
"1","Cukrárna","Café Globus","https://www.firmy.cz/detail/13089383-cafe-globus-chotikov.html","1162"
"2","Večerka","Penny Market","https://www.firmy.cz/detail/207781-penny-market-plzen-bolevec.html","290"
"3","Hospoda","Pivnice Žlutická","https://www.firmy.cz/detail/13153993-pivnice-zluticka-plzen-bolevec.html","304"
"4","Divadlo","Nové divadlo Plzeň","https://www.firmy.cz/detail/12956345-nove-divadlo-plzen-plzen-jizni-predmesti.html","3303"
"5","Veterinář","Zvěrolékařství - MVDr. Jitka Drozdová","https://www.firmy.cz/detail/462522-zverolekarstvi-mvdr-jitka-drozdova-plzen-bolevec.html","816"
"6","Kino","Cinema City Plzeň","https://www.firmy.cz/detail/2246853-cinema-city-plzen-plzen-jizni-predmesti.html","3250"
"7","Škola","4. ZŠ Plzeň","https://www.firmy.cz/detail/399046-4-zs-plzen-plzen-bolevec.html","134"
"8","Bus MHD","Severka","https://mapy.cz/zakladni?x=13.366521761389&y=49.7755882023364&z=17&source=pubt&id=19173719","343"
"9","Pošta","Pošta Plzeň 11 - Česká pošta, s.p.","https://www.firmy.cz/detail/216651-posta-plzen-11-plzen-bolevec.html","733"
"10","Obchod","Albert Hypermarket","https://www.firmy.cz/detail/447072-albert-hypermarket-plzen-bolevec.html","277"
"11","Lékárna","Dr. Max LÉKÁRNA","https://www.firmy.cz/detail/12888946-dr-max-lekarna-plzen-bolevec.html","344"
"12","Sportoviště","Hokejbalová hala","https://www.firmy.cz/detail/13150149-hokejbalova-hala-plzen-bolevec.html","253"
"13","Lékař","MUDr. Božena Križanová","https://www.firmy.cz/detail/391065-mudr-bozena-krizanova-plzen-bolevec.html","380"
"14","Tram","Plzeňka","https://mapy.cz/zakladni?x=13.36921978&y=49.77820969&z=17&source=pubt&id=19791146","317"
"15","Vlak","Plzeň-Bolevec","https://mapy.cz/zakladni?x=13.3857558577&y=49.785793554&z=17&source=pubt&id=15212475","1709"
"16","Školka","7. MŠ Plzeň","https://www.firmy.cz/detail/360446-7-ms-plzen-plzen-bolevec.html","126"
"17","Restaurace","Wok Express","https://www.firmy.cz/detail/13147497-wok-express-plzen-bolevec.html","277"
"18","Bankomat","Bankomat České spořitelny","https://www.firmy.cz/detail/594005-bankomat-ceske-sporitelny-plzen-bolevec.html","340"
