"","facility_type","facility_name","facility_iri","facility_distance"
"0","Hřiště","Dětské hřiště Klegova","https://mapy.cz/zakladni?x=18.2626247056&y=49.7869661527&z=17&source=base&id=2118382","275"
"1","Přírodní zajímavost","Zábřežský bludný balvan","https://mapy.cz/zakladni?x=18.2405209436&y=49.8063021231&z=17&source=base&id=2110132","2671"
"2","Hospoda","Tankovna U Haldy","https://www.firmy.cz/detail/13205243-tankovna-u-haldy-ostrava-hrabuvka.html","99"
"3","Večerka","HRUŠKA","https://www.firmy.cz/detail/12863538-hruska-ostrava-hrabuvka.html","99"
"4","Kino","Kino Luna","https://www.firmy.cz/detail/2642805-kino-luna-ostrava-zabreh.html","2742"
"5","Veterinář","MVDr. Oldřich Barvenčík","https://www.firmy.cz/detail/443783-mvdr-oldrich-barvencik-ostrava-hrabuvka.html","307"
"6","Cukrárna","Cukrárna Parizz","https://www.firmy.cz/detail/12863161-cukrarna-parizz-ostrava-hrabuvka.html","476"
"7","Divadlo","Divadlo U Lípy","https://www.firmy.cz/detail/2121467-divadlo-u-lipy-ostrava-zabreh.html","1192"
"8","Tram","Hrabůvka kostel","https://mapy.cz/zakladni?x=18.2666178539&y=49.7863860985&z=17&source=pubt&id=15202634","251"
"9","Restaurace","Kozlovna U Ježka","https://www.firmy.cz/detail/13089512-kozlovna-u-jezka-ostrava-hrabuvka.html","114"
"10","Sportoviště","TJ Metasport, spolek","https://www.firmy.cz/detail/759502-tj-metasport-spolek-ostrava-hrabuvka.html","656"
"11","Lékař","MUDr. Irena Ladiniková","https://www.firmy.cz/detail/386334-mudr-irena-ladinikova-ostrava-hrabuvka.html","574"
"12","Vlak","Ostrava-Vítkovice","https://mapy.cz/zakladni?x=18.2619838541&y=49.8015603213&z=17&source=pubt&id=15212382","1470"
"13","Lékárna","Lékárna Bella","https://www.firmy.cz/detail/2114885-lekarna-bella-ostrava-hrabuvka.html","357"
"14","Škola","Základní škola logopedická, s.r.o.","https://www.firmy.cz/detail/2529242-zakladni-skola-logopedicka-ostrava-hrabuvka.html","180"
"15","Bus MHD","Hrabůvka kostel","https://mapy.cz/zakladni?x=18.2665152107&y=49.7865127012&z=17&source=pubt&id=15202799","236"
"16","Pošta","Pošta Ostrava 5 - Česká pošta, s.p.","https://www.firmy.cz/detail/433398-posta-ostrava-5-ostrava-hrabuvka.html","377"
"17","Obchod","MAKRO Cash & Carry","https://www.firmy.cz/detail/325616-makro-cash-carry-ostrava-hrabova.html","1482"
"18","Bankomat","Bankomat České spořitelny","https://www.firmy.cz/detail/593842-bankomat-ceske-sporitelny-ostrava-hrabuvka.html","404"
"19","Školka","MŠ Ostrava - Hrabůvka, Klegova","https://www.firmy.cz/detail/2375391-ms-ostrava-hrabuvka-klegova-ostrava-hrabuvka.html","171"
