"","facility_type","facility_name","facility_iri","facility_distance"
"0","Cukrárna","Cukrárna MIPO","https://www.firmy.cz/detail/12944921-cukrarna-mipo-most.html","86"
"1","Kino","Kino Kosmos","https://www.firmy.cz/detail/401279-kino-kosmos-most.html","849"
"2","Hřiště","Dětské hřiště Kpt. Jaroše","","192"
"3","Večerka","Levné potraviny","https://www.firmy.cz/detail/12878242-levne-potraviny-most.html","181"
"4","Hospoda","Pivnice Mařenka","https://www.firmy.cz/detail/2520685-pivnice-marenka-most.html","132"
"5","Divadlo","Divadlo nad Labem","https://www.firmy.cz/detail/2240673-divadlo-nad-labem-most.html","324"
"6","Veterinář","Veterinka U Tlapiček","https://www.firmy.cz/detail/12758413-veterinka-u-tlapicek-most.html","370"
"7","Bus MHD","Most, Kahan","","141"
"8","Pošta","Pošta Most 11 - Česká pošta, s.p.","https://www.firmy.cz/detail/216959-posta-most-11-most.html","97"
"9","Lékař","MUDr. Yvetta Fidlerová","https://www.firmy.cz/detail/385591-mudr-yvetta-fidlerova-most.html","134"
"10","Školka","MŠ Most, Lidická","https://www.firmy.cz/detail/1336422-ms-most-lidicka-most.html","223"
"11","Obchod","Retail Park Most","https://www.firmy.cz/detail/13195413-retail-park-most-most.html","691"
"12","Restaurace","Asia Restaurant","https://www.firmy.cz/detail/13108594-asia-restaurant-most.html","97"
"13","Lékárna","Dr. Max LÉKÁRNA","https://www.firmy.cz/detail/2007251-dr-max-lekarna-most.html","134"
"14","Sportoviště","Sportovní areál Albrechtická","https://www.firmy.cz/detail/12744143-sportovni-areal-albrechticka-most.html","401"
"15","Škola","15. ZŠ Most","https://www.firmy.cz/detail/356098-15-zs-most-most.html","187"
"16","Tram","Most, Velebudická","","521"
"17","Bankomat","Bankomat ČSOB","https://www.firmy.cz/detail/12776893-bankomat-csob-most.html","97"
"18","Vlak","Most","","2254"
