"","facility_type","facility_name","facility_iri","facility_distance"
"0","Hřiště","Dětské hřiště Tyršův sad","https://mapy.cz/zakladni?x=16.6021305556&y=49.2024236111&z=17&source=base&id=2087248","208"
"1","Večerka","Koloniál","https://www.firmy.cz/detail/13211209-kolonial-brno-veveri.html","136"
"2","Cukrárna","Kavárna SANTIAGO","https://www.firmy.cz/detail/12945996-kavarna-santiago-brno-veveri.html","69"
"3","Veterinář","JK VET","https://www.firmy.cz/detail/13212090-jk-vet-brno-veveri.html","237"
"4","Hospoda","Pivní Šenk Čtyři růže","https://www.firmy.cz/detail/2072338-pivni-senk-ctyri-ruze-brno-veveri.html","104"
"5","Divadlo","Studio Devítka","https://www.firmy.cz/detail/12922705-studio-devitka-brno-mesto.html","440"
"6","Přírodní zajímavost","Přírodní zahrada U Smrku","https://mapy.cz/zakladni?x=16.58765420430356&y=49.22807918152045&z=17&source=base&id=2324158","3238"
"7","Kino","Kino Art","https://www.firmy.cz/detail/451540-kino-art-brno-veveri.html","428"
"8","Vlak","Brno hlavní nádraží","https://mapy.cz/zakladni?x=16.6128016943&y=49.1905819126&z=17&source=pubt&id=15211057","1351"
"9","Škola","ZUŠ Smetanova","https://www.firmy.cz/detail/399203-zus-smetanova-brno-veveri.html","48"
"10","Bus MHD","Smetanova","https://mapy.cz/zakladni?x=16.602306411045078&y=49.20122280442277&z=17&source=pubt&id=15205523","75"
"11","Lékárna","Chytrá lékárna","https://www.firmy.cz/detail/13290969-chytra-lekarna-brno-veveri.html","39"
"12","Sportoviště","Majda agency, s.r.o.","https://www.firmy.cz/detail/2326146-majda-agency-brno-veveri.html","177"
"13","Tram","Grohova","https://mapy.cz/zakladni?x=16.599765597615&y=49.2011607408148&z=17&source=pubt&id=15205517","188"
"14","Školka","ZŠ a MŠ Brno, Lidická","https://www.firmy.cz/detail/12819030-zs-a-ms-brno-lidicka-brno-cerna-pole.html","421"
"15","Obchod","Obchodní dům Vágner","https://www.firmy.cz/detail/305250-obchodni-dum-vagner-brno-mesto.html","529"
"16","Restaurace","Restaurace Vegalite","https://www.firmy.cz/detail/2628707-restaurace-vegalite-brno-veveri.html","30"
"17","Bankomat","Bankomat Komerční banky","https://www.firmy.cz/detail/12786362-bankomat-komercni-banky-brno-veveri.html","55"
"18","Lékař","MUDr. Věra Přibylová","https://www.firmy.cz/detail/386011-mudr-vera-pribylova-brno-veveri.html","39"
"19","Pošta","Pošta Brno 11 - Česká pošta, s.p.","https://www.firmy.cz/detail/216030-posta-brno-11-brno-veveri.html","521"
