"","facility_type","facility_name","facility_iri","facility_distance"
"0","Cukrárna","Cukrárna Sladká Monika","https://www.firmy.cz/detail/484261-cukrarna-sladka-monika-praha-zizkov.html","38"
"1","Kino","Spoiler - Filmový klub, z.s.","https://www.firmy.cz/detail/396379-spoiler-filmovy-klub-z-s-praha-zizkov.html","279"
"2","Hřiště","Dětské hřiště Rajská zahrada","","89"
"3","Večerka","Potraviny Kubelíkova","https://www.firmy.cz/detail/2470833-potraviny-kubelikova-praha-zizkov.html","241"
"4","Hospoda","U Pižďucha","https://www.firmy.cz/detail/337127-u-pizducha-praha-zizkov.html","333"
"5","Divadlo","Žižkovské divadlo Járy Cimrmana","https://www.firmy.cz/detail/232453-zizkovske-divadlo-jary-cimrmana-praha-zizkov.html","461"
"6","Veterinář","Veterinární klinika Panda","https://www.firmy.cz/detail/166785-veterinarni-klinika-panda-praha-vinohrady.html","382"
"7","Lékárna","Lékarna Na Žižkově","https://www.firmy.cz/detail/423199-lekarna-na-zizkove-praha-zizkov.html","279"
"8","Škola","ZŠ a MŠ Jaroslava Seiferta Praha 3","https://www.firmy.cz/detail/358976-zs-a-ms-jaroslava-seiferta-praha-3-praha-zizkov.html","215"
"9","Školka","MŠ Praha 3, Vozová","https://www.firmy.cz/detail/646835-ms-praha-3-vozova-praha-zizkov.html","174"
"10","Vlak","Praha hlavní nádraží","","540"
"11","Lékař","POLIKLINIKA AGEL","https://www.firmy.cz/detail/377761-poliklinika-agel-praha-vinohrady.html","542"
"12","Sportoviště","Vysokoškolská tělovýchovná jednota Ekonom Praha","https://www.firmy.cz/detail/736421-vysokoskolska-telovychovna-jednota-ekonom-praha-praha-zizkov.html","279"
"13","Bus MHD","Park Rajská zahrada","","49"
"14","Bankomat","Bankomat Euronet","https://www.firmy.cz/detail/1348079-bankomat-euronet-praha-zizkov.html","237"
"15","Obchod","PAVILON, a.s.","https://www.firmy.cz/detail/451685-pavilon-praha-vinohrady.html","711"
"16","Metro","Jiřího z Poděbrad","","677"
"17","Restaurace","Restaurace Morava","https://www.firmy.cz/detail/616728-restaurace-morava-praha-zizkov.html","210"
"18","Tram","Viktoria Žižkov","","220"
"19","Pošta","Pošta Praha 35 - Česká pošta, s.p.","https://www.firmy.cz/detail/217488-posta-praha-35-praha-zizkov.html","578"
