"","facility_type","facility_name","facility_iri","facility_distance"
"0","Cukrárna","Porubská Kafrárna","https://www.firmy.cz/detail/13187874-porubska-kafrarna-ostrava-poruba.html","355"
"1","Kino","5D cinema Maxim","https://www.firmy.cz/detail/12950606-5d-cinema-maxim-ostrava-zabreh.html","6001"
"2","Hřiště","Dětské hřiště Na Robinsonce","","322"
"3","Večerka","Penny Market","https://www.firmy.cz/detail/2413866-penny-market-ostrava-pustkovec.html","289"
"4","Divadlo","Porubské divadlo","https://www.firmy.cz/detail/2543038-porubske-divadlo-ostrava-poruba.html","2522"
"5","Hospoda","Hospoda U Táty","https://www.firmy.cz/detail/13120479-hospoda-u-taty-ostrava-pustkovec.html","392"
"6","Veterinář","VETERINA HRUBÝ","https://www.firmy.cz/detail/1946395-veterina-hruby-ostrava-pustkovec.html","738"
"7","Obchod","REKTOR, s.r.o.","https://www.firmy.cz/detail/12978812-rektor-ostrava-poruba.html","941"
"8","Škola","ZŠ, Ostrava-Poruba, Jana Šoupala","https://www.firmy.cz/detail/358702-zs-ostrava-poruba-jana-soupala-ostrava-poruba.html","116"
"9","Bankomat","Bankomat MONETA Money Bank","https://www.firmy.cz/detail/2260216-bankomat-moneta-money-bank-ostrava-poruba.html","368"
"10","Vlak","Ostrava-Třebovice","","1553"
"11","Lékárna","Lékárna U DUHY","https://www.firmy.cz/detail/1962141-lekarna-u-duhy-ostrava-poruba.html","185"
"12","Restaurace","Restaurace Frisco","https://www.firmy.cz/detail/12975024-restaurace-frisco-ostrava-poruba.html","153"
"13","Lékař","MUDr. Taťána Luberová","https://www.firmy.cz/detail/390505-mudr-tatana-luberova-ostrava-poruba.html","185"
"14","Pošta","Pošta Ostrava 37 - Česká pošta, s.p.","https://www.firmy.cz/detail/433363-posta-ostrava-37-ostrava-poruba.html","529"
"15","Tram","Bedřicha Nikodéma","","630"
"16","Sportoviště","Fitano Club","https://www.firmy.cz/detail/441823-fitano-club-ostrava-poruba.html","325"
"17","Bus MHD","Jana Šoupala","","197"
"18","Školka","MŠ Jana Šoupala, Ostrava-Poruba","https://www.firmy.cz/detail/13045545-ms-jana-soupala-ostrava-poruba-ostrava-poruba.html","94"
