"","facility_type","facility_name","facility_iri","facility_distance"
"0","Přírodní zajímavost","Uhelná sloj v Landeku","https://mapy.cz/zakladni?x=18.2692044444&y=49.8672338889&z=17&source=base&id=1981598","3189"
"1","Hřiště","Dětské hřiště Veleslavínova","https://mapy.cz/zakladni?x=18.2876946785&y=49.8402616123&z=17&source=base&id=2132093","129"
"2","Cukrárna","Čauky mňauky cafe","https://www.firmy.cz/detail/13057787-cauky-mnauky-cafe-ostrava-moravska-ostrava.html","215"
"3","Kino","Kino vesmír","https://www.firmy.cz/detail/12980428-kino-vesmir-ostrava-moravska-ostrava.html","451"
"4","Hospoda","Hobit club","https://www.firmy.cz/detail/1989230-hobit-club-ostrava-moravska-ostrava.html","194"
"5","Divadlo","Divadlo 12","https://www.firmy.cz/detail/13216354-divadlo-12-ostrava-moravska-ostrava.html","494"
"6","Večerka","Albert Supermarket","https://www.firmy.cz/detail/447049-albert-supermarket-ostrava-moravska-ostrava.html","204"
"7","Veterinář","VETPARK Ostrava, s.r.o.","https://www.firmy.cz/detail/13308555-vetpark-ostrava-ostrava-moravska-ostrava.html","944"
"8","Bus MHD","Husův sad","https://mapy.cz/zakladni?x=18.28759778406143&y=49.83901186258199&z=17&source=pubt&id=16396189","218"
"9","Lékárna","U Jindřicha","https://www.firmy.cz/detail/375421-u-jindricha-ostrava-moravska-ostrava.html","275"
"10","Restaurace","Zdravý bar Medicaliento","https://www.firmy.cz/detail/13298237-zdravy-bar-medicaliento-ostrava-moravska-ostrava.html","43"
"11","Škola","1st International School of Ostrava - mezinárodní gymnázium, s.r.o.","https://www.firmy.cz/detail/2515470-1st-international-school-of-ostrava-mezinarodni-gymnazium-ostrava-moravska-ostrava.html","106"
"12","Školka","ZŠ a MŠ Ostrava, Ostrčilova 10","https://www.firmy.cz/detail/728186-zs-a-ms-ostrava-ostrcilova-10-ostrava-moravska-ostrava.html","157"
"13","Sportoviště","Fatima Dance a Fitness","https://www.firmy.cz/detail/13183290-fatima-dance-a-fitness-ostrava-moravska-ostrava.html","303"
"14","Bankomat","Bankomat České spořitelny","https://www.firmy.cz/detail/593832-bankomat-ceske-sporitelny-ostrava-moravska-ostrava.html","234"
"15","Obchod","Obchodní centrum LASO","https://www.firmy.cz/detail/2071391-obchodni-centrum-laso-ostrava-moravska-ostrava.html","674"
"16","Vlak","Ostrava-Stodolní","https://mapy.cz/zakladni?x=18.2809778624&y=49.8344412946&z=17&source=pubt&id=15213504","783"
"17","Tram","Důl Jindřich","https://mapy.cz/zakladni?x=18.2837396192&y=49.8400174862&z=17&source=pubt&id=15202713","179"
"18","Lékař","MUDr. Jana Zegzulková","https://www.firmy.cz/detail/367279-mudr-jana-zegzulkova-ostrava-moravska-ostrava.html","278"
"19","Pošta","Pošta Ostrava 1 - Česká pošta, s.p.","https://www.firmy.cz/detail/452777-posta-ostrava-1-ostrava-moravska-ostrava.html","380"
