"","facility_type","facility_name","facility_iri","facility_distance"
"0","Cukrárna","Cukrárna Amarilis","https://www.firmy.cz/detail/2570922-cukrarna-amarilis-praha-haje.html","746"
"1","Kino","Multikino - Premiere Cinemas Praha Hostivař","https://www.firmy.cz/detail/12745547-multikino-premiere-cinemas-praha-hostivar-praha-hostivar.html","2818"
"2","Přírodní zajímavost","Mokřad Triangl","","3599"
"3","Hřiště","Dětské hřiště Milíčov","","188"
"4","Večerka","BILLA stop & shop","https://www.firmy.cz/detail/12978194-billa-stop-shop-praha-haje.html","375"
"5","Hospoda","Hospoda Severka","https://www.firmy.cz/detail/13240896-hospoda-severka-praha-chodov.html","1424"
"6","Divadlo","SKAZKA, spol. s r.o.","https://www.firmy.cz/detail/2048564-skazka-praha-hostivar.html","2017"
"7","Veterinář","Gabriela Povýšilová","https://www.firmy.cz/detail/2636914-gabriela-povysilova-praha-haje.html","634"
"8","Bus MHD","Jižní Město","","261"
"9","Metro","Háje","","808"
"10","Sportoviště","Tenisová škola TALLENT","https://www.firmy.cz/detail/722757-tenisova-skola-tallent-praha-haje.html","553"
"11","Bankomat","Bankomat Fio banky","https://www.firmy.cz/detail/12979081-bankomat-fio-banky-praha-haje.html","545"
"12","Pošta","Pošta Praha 419 - Česká pošta, s.p.","https://www.firmy.cz/detail/217471-posta-praha-419-praha-haje.html","513"
"13","Lékař","Palas Athena","https://www.firmy.cz/detail/658283-palas-athena-praha-haje.html","647"
"14","Lékárna","Lékárna Pharmacentrum Háje","https://www.firmy.cz/detail/13320550-lekarna-pharmacentrum-haje-praha-haje.html","766"
"15","Škola","ZUŠ Jižní Město, Praha 4, Křtinská","https://www.firmy.cz/detail/427088-zus-jizni-mesto-praha-4-krtinska-praha-haje.html","498"
"16","Restaurace","Branimir Opačak","https://www.firmy.cz/detail/13113567-branimir-opacak-praha-haje.html","389"
"17","Tram","Nádraží Hostivař","","2365"
"18","Obchod","Obchodní centrum Háje","https://www.firmy.cz/detail/13272506-obchodni-centrum-haje-praha-haje.html","742"
"19","Vlak","Praha-Hostivař","","2562"
"20","Školka","MŠ Praha 4, Janouchova","https://www.firmy.cz/detail/2265684-ms-praha-4-janouchova-praha-haje.html","160"
