"","facility_type","facility_name","facility_iri","facility_distance"
"0","Hřiště","Dětské hřiště Voskovcova","https://mapy.cz/zakladni?x=14.367761834&y=50.0290419259&z=17&source=base&id=1926556","478"
"1","Večerka","Večerka Werichova","https://www.firmy.cz/detail/13279876-vecerka-werichova-praha-hlubocepy.html","347"
"2","Hospoda","Club bar Korlin","https://www.firmy.cz/detail/13111066-club-bar-korlin-praha-hlubocepy.html","566"
"3","Veterinář","Veterinární klinika Anima, spol. s r.o.","https://www.firmy.cz/detail/2390292-veterinarni-klinika-anima-praha-hlubocepy.html","247"
"4","Cukrárna","La Zmrzka","https://www.firmy.cz/detail/13326421-la-zmrzka-praha-hlubocepy.html","339"
"5","Divadlo","Divadlo Glans","https://www.firmy.cz/detail/2343652-divadlo-glans-praha-stodulky.html","2428"
"6","Kino","AutoKino Ledárny","https://www.firmy.cz/detail/13312696-autokino-ledarny-praha.html","3335"
"7","Přírodní zajímavost","Kovářovic mez","https://mapy.cz/zakladni?x=14.36107759920759&y=50.04395254566995&z=17&source=base&id=2339664","1686"
"8","Tram","Sídliště Barrandov","https://mapy.cz/zakladni?x=14.3678167167&y=50.0314553421&z=17&source=pubt&id=15304793","565"
"9","Pošta","Pošta Partner - Praha 500","https://www.firmy.cz/detail/13291767-posta-partner-praha-500-praha-hlubocepy.html","256"
"10","Vlak","Praha-Holyně","https://mapy.cz/zakladni?x=14.3484573687&y=50.0328044166&z=17&source=pubt&id=15212561","1007"
"11","Škola","Soukromá základní umělecká škola Music Art, v.o.s.","https://www.firmy.cz/detail/2215750-soukroma-zakladni-umelecka-skola-music-art-praha-hlubocepy.html","512"
"12","Bus MHD","Smaragdová","https://mapy.cz/zakladni?x=14.3606610487547&y=50.0264446504738&z=17&source=pubt&id=15304952","262"
"13","Školka","MŠ Barrandov","https://www.firmy.cz/detail/12817240-ms-barrandov-praha-hlubocepy.html","757"
"14","Metro","Nové Butovice","https://mapy.cz/zakladni?x=14.3532972324&y=50.0508205626&z=17&source=pubt&id=15200249","2512"
"15","Lékárna","Lékárna Poliklinika Barrandov","https://www.firmy.cz/detail/13001866-lekarna-poliklinika-barrandov-praha-hlubocepy.html","1105"
"16","Restaurace","Cik Cak Restaurant","https://www.firmy.cz/detail/13103802-cik-cak-restaurant-praha-hlubocepy.html","287"
"17","Bankomat","Bankomat České spořitelny","https://www.firmy.cz/detail/594882-bankomat-ceske-sporitelny-praha-hlubocepy.html","1016"
"18","Obchod","Centrum Velká Ohrada","https://www.firmy.cz/detail/13184856-centrum-velka-ohrada-praha-stodulky.html","1898"
"19","Sportoviště","Tenisová hala Barrandov","https://www.firmy.cz/detail/13068559-tenisova-hala-barrandov-praha-hlubocepy.html","616"
"20","Lékař","MUDr. Ivo EZECHIÁŠ","https://www.firmy.cz/detail/386656-mudr-ivo-ezechias-praha-hlubocepy.html","1102"
