"","facility_type","facility_name","facility_iri","facility_distance"
"0","Cukrárna","Kavárna Knoflík","https://www.firmy.cz/detail/12890167-kavarna-knoflik-praha-prosek.html","142"
"1","Kino","Cinema City Letňany","https://www.firmy.cz/detail/2679833-cinema-city-letnany-praha-letnany.html","1780"
"2","Přírodní zajímavost","Meandry Rokytky","","2704"
"3","Hřiště","Dětské hřiště Ctěnická","","53"
"4","Večerka","BILLA stop & shop","https://www.firmy.cz/detail/12978193-billa-stop-shop-praha.html","78"
"5","Divadlo","Divadlo Pohádka","https://www.firmy.cz/detail/636143-divadlo-pohadka-praha-letnany.html","724"
"6","Hospoda","Pivnice Boleslavka","https://www.firmy.cz/detail/13302446-pivnice-boleslavka-praha-prosek.html","878"
"7","Veterinář","Veterinární ordinace MVDr. Marek Svoboda","https://www.firmy.cz/detail/654003-veterinarni-ordinace-mvdr-marek-svoboda-praha-prosek.html","363"
"8","Sportoviště","Veřejné hřiště na míčové hry Pískovcová","","502"
"9","Škola","Základní škola a mateřská škola Basic Praha, o.p.s.","https://www.firmy.cz/detail/12810105-zakladni-skola-a-materska-skola-basic-praha-o-p-s-praha-prosek.html","319"
"10","Pošta","Pošta Praha 9 - Česká pošta, s.p.","https://www.firmy.cz/detail/216700-posta-praha-9-praha-strizkov.html","492"
"11","Bankomat","Bankomat MONETA Money Bank","https://www.firmy.cz/detail/2675418-bankomat-moneta-money-bank-praha-prosek.html","246"
"12","Lékař","MOJE AMBULANCE","https://www.firmy.cz/detail/2697903-moje-ambulance-praha-prosek.html","343"
"13","Metro","Prosek","","323"
"14","Obchod","Nákupní Centrum Fénix Vysočanská","https://www.firmy.cz/detail/613133-nakupni-centrum-fenix-vysocanska-praha-vysocany.html","1176"
"15","Lékárna","Lékárna Prosek Point","https://www.firmy.cz/detail/13247200-lekarna-prosek-point-praha-prosek.html","246"
"16","Vlak","Praha-Vysočany","","1014"
"17","Tram","Vysočanská","","1032"
"18","Školka","Rodinné Centrum HONZÍK","https://www.firmy.cz/detail/12892783-rodinne-centrum-honzik-praha-prosek.html","373"
"19","Bus MHD","Nový Prosek","","91"
"20","Restaurace","McDonald's","https://www.firmy.cz/detail/13181064-mcdonald-s-praha-prosek.html","238"
