"","facility_type","facility_name","facility_iri","facility_distance"
"0","Cukrárna","Cukrářství DUO","https://www.firmy.cz/detail/12771026-cukrarstvi-duo-usti-nad-labem-vseborice.html","376"
"1","Kino","Letní kino Ústí nad Labem","https://www.firmy.cz/detail/2556284-letni-kino-usti-nad-labem-usti-nad-labem.html","3526"
"2","Hřiště","Dětské hřiště","","144"
"3","Večerka","Smíšené zboží Na Kohoutě 13","https://www.firmy.cz/detail/12908929-smisene-zbozi-na-kohoute-13-usti-nad-labem-bukov.html","140"
"4","Divadlo","Severočeské divadlo, s.r.o.","https://www.firmy.cz/detail/12720983-severoceske-divadlo-usti-nad-labem-centrum.html","3792"
"5","Hospoda","Hospoda Junior","https://www.firmy.cz/detail/13272261-hospoda-junior-usti-nad-labem-bukov.html","292"
"6","Veterinář","VETERINÁRNÍ ORDINACE TUMA MVDr. & KRÁL MVDr.","https://www.firmy.cz/detail/2136940-veterinarni-ordinace-tuma-mvdr-kral-mvdr-usti-nad-labem-bukov.html","885"
"7","Restaurace","Restaurace Union","https://www.firmy.cz/detail/13117843-restaurace-union-usti-nad-labem-bukov.html","318"
"8","Škola","ZŠ Ústí nad Labem, Školní","https://www.firmy.cz/detail/12849533-zs-usti-nad-labem-skolni-usti-nad-labem-bukov.html","301"
"9","Sportoviště","Josef Wolf","https://www.firmy.cz/detail/12895655-josef-wolf-usti-nad-labem.html","559"
"10","Bus MHD","Dukelských hrdinů","","137"
"11","Školka","MŠ Sluníčko","https://www.firmy.cz/detail/155725-ms-slunicko-usti-nad-labem-bukov.html","334"
"12","Vlak","Ústí nad Labem západ","","3765"
"13","Lékárna","Dr. Max LÉKÁRNA","https://www.firmy.cz/detail/12884305-dr-max-lekarna-usti-nad-labem-vseborice.html","411"
"14","Pošta","Pošta Ústí nad Labem 10 - Česká pošta, s.p.","https://www.firmy.cz/detail/215932-posta-usti-nad-labem-10-usti-nad-labem-vseborice.html","411"
"15","Obchod","Kaufland","https://www.firmy.cz/detail/12700918-kaufland-usti-nad-labem-vseborice.html","411"
"16","Bankomat","Bankomat MONETA Money Bank","https://www.firmy.cz/detail/2696977-bankomat-moneta-money-bank-usti-nad-labem-vseborice.html","394"
"17","Lékař","MEDIVEL, s.r.o.","https://www.firmy.cz/detail/12889584-medivel-usti-nad-labem-bukov.html","569"
