"","facility_type","facility_name","facility_iri","facility_distance"
"0","Cukrárna","Café Midi","https://www.firmy.cz/detail/13011651-cafe-midi-brandys-nad-labem-stara-boleslav-brandys-nad-labem.html","77"
"1","Kino","Kino Brandýs nad Labem","https://www.firmy.cz/detail/12968784-kino-brandys-nad-labem-brandys-nad-labem-stara-boleslav-brandys-nad-labem.html","62"
"2","Hřiště","Dětské hřiště","","74"
"3","Večerka","Zváženo","https://www.firmy.cz/detail/13327130-zvazeno-brandys-nad-labem-stara-boleslav-brandys-nad-labem.html","62"
"4","Hospoda","Hospoda U Mnicha","https://www.firmy.cz/detail/2235382-hospoda-u-mnicha-brandys-nad-labem-stara-boleslav-brandys-nad-labem.html","76"
"5","Divadlo","Divadlo BlaMa","https://www.firmy.cz/detail/12760937-divadlo-blama-novy-vestec.html","4177"
"6","Veterinář","Veterinární nemocnice  Brandýs – VetPark,  MVDr. Dominik Vlach","https://www.firmy.cz/detail/402461-veterinarni-nemocnice-brandys-vetpark-mvdr-dominik-vlach-brandys-nad-labem-stara-boleslav-brandys-nad-labem.html","291"
"7","Lékárna","Dr. Max","https://www.firmy.cz/detail/12856992-dr-max-brandys-nad-labem-stara-boleslav-brandys-nad-labem.html","96"
"8","Lékař","MUDr. Pavlína Lichtenberková","https://www.firmy.cz/detail/13272779-mudr-pavlina-lichtenberkova-brandys-nad-labem-stara-boleslav-brandys-nad-labem.html","450"
"9","Restaurace","Brandejská hospoda","https://www.firmy.cz/detail/13235950-brandejska-hospoda-brandys-nad-labem-stara-boleslav-brandys-nad-labem.html","13"
"10","Bankomat","Bankomat Komerční banky","https://www.firmy.cz/detail/13033343-bankomat-komercni-banky-brandys-nad-labem-stara-boleslav-brandys-nad-labem.html","34"
"11","Sportoviště","Tělocvičná jednota Sokol Brandýs nad Labem","https://www.firmy.cz/detail/2128441-telocvicna-jednota-sokol-brandys-nad-labem-brandys-nad-labem-stara-boleslav-brandys-nad-labem.html","552"
"12","Obchod","Kaufland","https://www.firmy.cz/detail/12982561-kaufland-brandys-nad-labem-stara-boleslav-brandys-nad-labem.html","1098"
"13","Školka","Miniškolka Sluníčko - Jana Popperová","https://www.firmy.cz/detail/12801883-miniskolka-slunicko-brandys-nad-labem-stara-boleslav.html","82"
"14","Pošta","Pošta Brandýs nad Labem-Stará Boleslav 1 - Česká pošta, s.p.","https://www.firmy.cz/detail/217389-posta-brandys-nad-labem-stara-boleslav-1-brandys-nad-labem-stara-boleslav-brandys-nad-labem.html","303"
"15","Bus MHD","Brandýs n.L.-St.Bol., Nám.","","100"
"16","Vlak","Brandýs nad Labem","","425"
"17","Škola","ZUŠ Brandýs n. L. - Stará Boleslav","https://www.firmy.cz/detail/399107-zus-brandys-n-l-stara-boleslav-brandys-nad-labem-stara-boleslav-brandys-nad-labem.html","231"
