"","facility_type","facility_name","facility_iri","facility_distance"
"0","Hřiště","Dětské hřiště park Na Prameništi","https://mapy.cz/zakladni?x=14.2865571056&y=50.0617647629&z=17&source=base&id=1927131","269"
"1","Večerka","Zličínské dobroty","https://www.firmy.cz/detail/13303419-zlicinske-dobroty-praha-zlicin.html","561"
"2","Veterinář","Veterinární klinika OK-VET","https://www.firmy.cz/detail/439625-veterinarni-klinika-ok-vet-praha-repy.html","1185"
"3","Hospoda","Klub u Sklíčka","https://www.firmy.cz/detail/2220080-klub-u-sklicka-praha-repy.html","906"
"4","Divadlo","Divadelní studio Bubec","https://www.firmy.cz/detail/13047862-divadelni-studio-bubec-praha-reporyje.html","3432"
"5","Cukrárna","Café Globus","https://www.firmy.cz/detail/12919098-cafe-globus-praha-trebonice.html","1388"
"6","Kino","Cinema City Zličín","https://www.firmy.cz/detail/436222-cinema-city-zlicin-praha-trebonice.html","1082"
"7","Bankomat","Bankomat České spořitelny","https://www.firmy.cz/detail/13220709-bankomat-ceske-sporitelny-praha-repy.html","1017"
"8","Lékař","MUDr. Jaromír Janeček","https://www.firmy.cz/detail/389389-mudr-jaromir-janecek-praha-zlicin.html","67"
"9","Bus MHD","Halenkovská","https://mapy.cz/zakladni?x=14.2868883236&y=50.0628422649&z=17&source=pubt&id=15304614","147"
"10","Metro","Zličín","https://mapy.cz/zakladni?x=14.2906764069&y=50.0537241139&z=17&source=pubt&id=15200255","1179"
"11","Obchod","NAMIR CZ","https://www.firmy.cz/detail/670448-namir-cz-praha-repy.html","926"
"12","Tram","Sídliště Řepy","https://mapy.cz/zakladni?x=14.2980560731&y=50.0654219309&z=17&source=pubt&id=15302307","772"
"13","Školka","MŠ, Hevlínská","https://www.firmy.cz/detail/13021918-ms-hevlinska-praha.html","93"
"14","Sportoviště","Sportovní centrum Řepy","https://www.firmy.cz/detail/13329840-sportovni-centrum-repy-praha-repy.html","673"
"15","Vlak","Praha-Zličín","https://mapy.cz/zakladni?x=14.2977438277&y=50.0641750381&z=17&source=pubt&id=15212589","736"
"16","Restaurace","U sousedů na Zličíně","https://www.firmy.cz/detail/13159501-u-sousedu-na-zlicine-praha-zlicin.html","620"
"17","Pošta","Pošta Praha 517 - Česká pošta, s.p.","https://www.firmy.cz/detail/431312-posta-praha-517-praha-zlicin.html","108"
"18","Lékárna","Lékárna Makovského","https://www.firmy.cz/detail/2686056-lekarna-makovskeho-praha-repy.html","1080"
"19","Škola","ZŠ a MŠ Praha 5, Nedašovská","https://www.firmy.cz/detail/1969024-zs-a-ms-praha-5-nedasovska-praha-zlicin.html","590"
