"","facility_type","facility_name","facility_iri","facility_distance"
"0","Cukrárna","Cukrárna Lada","https://www.firmy.cz/detail/12908208-cukrarna-lada-havirov.html","127"
"1","Kino","Letní kino - Městské kulturní středisko Havířov","https://www.firmy.cz/detail/13072791-letni-kino-havirov.html","552"
"2","Hřiště","Dětské hřiště Sadová","","252"
"3","Večerka","PEKAŘI a spol.","https://www.firmy.cz/detail/2608288-pekari-a-spol-havirov-mesto.html","31"
"4","Hospoda","Hostinec U Lopaty","https://www.firmy.cz/detail/13148778-hostinec-u-lopaty-havirov-mesto.html","391"
"5","Veterinář","Veterinární ordinace Terra Vet","https://www.firmy.cz/detail/13330221-veterinarni-ordinace-terra-vet-havirov-mesto.html","202"
"6","Škola","Základní škola a Mateřská škola Havířov - Město Na Nábřeží, příspěvková organizace","https://www.firmy.cz/detail/357052-zakladni-skola-a-materska-skola-havirov-mesto-na-nabrezi-prispevkova-organizace-havirov-mesto.html","260"
"7","Lékárna","BENU Lékárna","https://www.firmy.cz/detail/12875767-benu-lekarna-havirov-mesto.html","599"
"8","Sportoviště","Discgolf Stromovka","","593"
"9","Školka","MŠ Havířov, Sadová","https://www.firmy.cz/detail/12902530-ms-havirov-sadova-havirov-mesto.html","280"
"10","Vlak","Havířov-střed","","1254"
"11","Obchod","Obchodní centrum Elan","https://www.firmy.cz/detail/2181587-obchodni-centrum-elan-havirov-mesto.html","597"
"12","Bankomat","Bankomat České spořitelny","https://www.firmy.cz/detail/592112-bankomat-ceske-sporitelny-havirov-mesto.html","41"
"13","Restaurace","Pizzerie DeMarco","https://www.firmy.cz/detail/2532252-pizzerie-demarco-havirov-mesto.html","82"
"14","Lékař","Mgr. Zdeňka Obtulovičová","https://www.firmy.cz/detail/368798-mgr-zdenka-obtulovicova-havirov-mesto.html","197"
"15","Pošta","Pošta Havířov 11 - Česká pošta, s.p.","https://www.firmy.cz/detail/431631-posta-havirov-11-havirov-mesto.html","187"
"16","Bus MHD","Havířov, Město, Magistrát","","62"
