"","facility_type","facility_name","facility_iri","facility_distance"
"0","Cukrárna","Cukrárna U Nadi","https://www.firmy.cz/detail/13334185-cukrarna-u-nadi-teplice-trnovany.html","304"
"1","Kino","Kino Květen","https://www.firmy.cz/detail/435268-kino-kveten-teplice.html","1692"
"2","Přírodní zajímavost","Porcelanity u Nechvalic a Nových Dvorů","","3345"
"3","Hřiště","Dětské hřiště Josefa Hory","","157"
"4","Večerka","COOP - TUTY","https://www.firmy.cz/detail/12901178-coop-tuty-teplice-trnovany.html","309"
"5","Divadlo","Krušnohorské divadlo","https://www.firmy.cz/detail/435271-krusnohorske-divadlo-teplice.html","1559"
"6","Hospoda","Hvjezda","https://www.firmy.cz/detail/13106108-hvjezda-teplice-trnovany.html","282"
"7","Veterinář","Veterinární klinika - MVDr. Foltýn René","https://www.firmy.cz/detail/13143505-veterinarni-klinika-mvdr-foltyn-rene-teplice-trnovany.html","446"
"8","Pošta","Pošta Teplice 4 - Česká pošta, s.p.","https://www.firmy.cz/detail/215431-posta-teplice-4-teplice-trnovany.html","229"
"9","Bus MHD","Teplice, Fráni Šrámka","","57"
"10","Sportoviště","TJ Lokomotiva Teplice, z.s.","https://www.firmy.cz/detail/195215-tj-lokomotiva-teplice-z-s-teplice.html","217"
"11","Bankomat","Bankomat ČSOB","https://www.firmy.cz/detail/12965685-bankomat-csob-teplice-trnovany.html","282"
"12","Lékař","MUDr. Jakeš Radovan, MediClinic a.s.","https://www.firmy.cz/detail/12761176-mudr-jakes-radovan-mediclinic-a-s-teplice-trnovany.html","282"
"13","Restaurace","Restaurace rajče","https://www.firmy.cz/detail/13111014-restaurace-rajce-teplice.html","150"
"14","Lékárna","Na Hvězdě","https://www.firmy.cz/detail/184765-na-hvezde-teplice-trnovany.html","270"
"15","Vlak","Teplice v Čechách","","1402"
"16","Školka","Základní škola a Mateřská škola Teplice, Koperníkova 2592","https://www.firmy.cz/detail/12766186-zakladni-skola-a-materska-skola-teplice-kopernikova-2592-teplice.html","217"
"17","Obchod","Kaufland","https://www.firmy.cz/detail/1545724-kaufland-teplice-trnovany.html","1269"
"18","Škola","Základní škola a Mateřská škola Teplice, Koperníkova 2592","https://www.firmy.cz/detail/359672-zakladni-skola-a-materska-skola-teplice-kopernikova-2592-teplice.html","217"
