"","facility_type","facility_name","facility_iri","facility_distance"
"0","Cukrárna","Laura Coffee","https://www.firmy.cz/detail/2699135-laura-coffee-ostrava-hrabuvka.html","982"
"1","Kino","Kino Luna","https://www.firmy.cz/detail/2642805-kino-luna-ostrava-zabreh.html","1269"
"2","Přírodní zajímavost","Zábřežský bludný balvan","","1652"
"3","Hřiště","Dětské hřiště Pavlovova","","498"
"4","Večerka","Večerka Narcis","https://www.firmy.cz/detail/12712879-vecerka-narcis-ostrava-zabreh.html","367"
"5","Hospoda","J.I. Sprint","https://www.firmy.cz/detail/13146191-j-i-sprint-ostrava-hrabuvka.html","406"
"6","Divadlo","Divadlo U Lípy","https://www.firmy.cz/detail/2121467-divadlo-u-lipy-ostrava-zabreh.html","862"
"7","Veterinář","MVDr. Petr Stankoci - Veterinární ordinace","https://www.firmy.cz/detail/1957076-mvdr-petr-stankoci-veterinarni-ordinace-ostrava-hrabuvka.html","499"
"8","Lékař","MUDr. Jan Lichnovský","https://www.firmy.cz/detail/394731-mudr-jan-lichnovsky-ostrava-zabreh.html","93"
"9","Obchod","Kaufland","https://www.firmy.cz/detail/1461415-kaufland-ostrava-zabreh.html","1376"
"10","Restaurace","Restaurant Buena Vista","https://www.firmy.cz/detail/12717391-restaurant-buena-vista-ostrava-zabreh.html","93"
"11","Školka","MŠ Harmonie Ostrava - Hrabůvka, Mitušova","https://www.firmy.cz/detail/2296778-ms-harmonie-ostrava-hrabuvka-mitusova-ostrava-hrabuvka.html","429"
"12","Tram","ÚMOb Jih","","463"
"13","Bus MHD","Hotel Bělský les","","284"
"14","Bankomat","Bankomat Komerční banky","https://www.firmy.cz/detail/594202-bankomat-komercni-banky-ostrava-hrabuvka.html","864"
"15","Vlak","Ostrava-Vítkovice","","1677"
"16","Škola","ZŠ Ostrava-Zábřeh, Chrjukinova 12","https://www.firmy.cz/detail/358730-zs-ostrava-zabreh-chrjukinova-12-ostrava-zabreh.html","310"
"17","Sportoviště","Aerobik klub Ostrava","https://www.firmy.cz/detail/12897480-aerobik-klub-ostrava-ostrava-zabreh.html","424"
"18","Pošta","Pošta Ostrava 4 - Česká pošta, s.p.","https://www.firmy.cz/detail/433394-posta-ostrava-4-ostrava-zabreh.html","481"
"19","Lékárna","Lékárna Ambra","https://www.firmy.cz/detail/13207168-lekarna-ambra-ostrava-zabreh.html","397"
