"","facility_type","facility_name","facility_iri","facility_distance"
"0","Cukrárna","Kavárna Husova 198/2","https://www.firmy.cz/detail/12749791-kavarna-husova-198-2-koprivnice.html","471"
"1","Kino","Kino Kopřivnice","https://www.firmy.cz/detail/12964264-kino-koprivnice-koprivnice.html","913"
"2","Hřiště","Dětské hřiště u parku Edvarda Beneše","","602"
"3","Večerka","Penny Market","https://www.firmy.cz/detail/2413871-penny-market-koprivnice.html","358"
"4","Hospoda","Pivnice hotelu Stadion","https://www.firmy.cz/detail/12949225-pivnice-hotelu-stadion-koprivnice.html","348"
"5","Veterinář","VETERINA LAKOMÝ","https://www.firmy.cz/detail/708008-veterina-lakomy-koprivnice.html","1400"
"6","Školka","Ignáce Šustaly - MŠ Kopřivnice","https://www.firmy.cz/detail/2156837-ignace-sustaly-koprivnice.html","639"
"7","Lékař","MUDr. Jakl Josef, s.r.o.","https://www.firmy.cz/detail/13024308-mudr-jakl-josef-koprivnice.html","437"
"8","Obchod","Kaufland","https://www.firmy.cz/detail/1534391-kaufland-koprivnice.html","991"
"9","Škola","Vyšší odborná škola, Střední odborná škola a Střední odborné učiliště, Kopřivnice","https://www.firmy.cz/detail/360941-vyssi-odborna-skola-stredni-odborna-skola-a-stredni-odborne-uciliste-koprivnice-koprivnice.html","356"
"10","Vlak","Kopřivnice","","473"
"11","Sportoviště","Město Kopřivnice - Volejbal","https://www.firmy.cz/detail/13084503-mesto-koprivnice-volejbal-koprivnice.html","293"
"12","Bus MHD","Kopřivnice, střední školy","","264"
"13","Lékárna","BENU Lékárna","https://www.firmy.cz/detail/13072265-benu-lekarna-koprivnice.html","496"
"14","Bankomat","Bankomat České spořitelny","https://www.firmy.cz/detail/593046-bankomat-ceske-sporitelny-koprivnice.html","693"
"15","Pošta","Pošta Kopřivnice - Česká pošta, s.p.","https://www.firmy.cz/detail/433613-posta-koprivnice-koprivnice.html","693"
"16","Restaurace","Restaurace Laguna","https://www.firmy.cz/detail/13091581-restaurace-laguna-koprivnice.html","304"
