"","facility_type","facility_name","facility_iri","facility_distance"
"0","Cukrárna","Cukrárna Oáza","https://www.firmy.cz/detail/278585-cukrarna-oaza-krnov-pod-bezrucovym-vrchem.html","987"
"1","Kino","Kino Mír 70","https://www.firmy.cz/detail/2585148-kino-mir-70-krnov-pod-cvilinem.html","684"
"2","Přírodní zajímavost","Bývalá pískovna Cvilín","","2783"
"3","Hřiště","Dětské hřiště Jesenická","","677"
"4","Večerka","HRUŠKA","https://www.firmy.cz/detail/12820537-hruska-krnov-pod-bezrucovym-vrchem.html","206"
"5","Divadlo","Městské divadlo Krnov","https://www.firmy.cz/detail/661546-mestske-divadlo-krnov-krnov-pod-bezrucovym-vrchem.html","525"
"6","Hospoda","Pivnice U Prezidenta","https://www.firmy.cz/detail/2456065-pivnice-u-prezidenta-krnov-pod-bezrucovym-vrchem.html","195"
"7","Veterinář","Veterinární ordinace Žeryk","https://www.firmy.cz/detail/2096453-veterinarni-ordinace-zeryk-krnov-pod-bezrucovym-vrchem.html","245"
"8","Lékárna","Dr. Max LÉKÁRNA","https://www.firmy.cz/detail/13280183-dr-max-lekarna-krnov-pod-bezrucovym-vrchem.html","427"
"9","Vlak","Krnov","","493"
"10","Restaurace","Villa Cafe","https://www.firmy.cz/detail/13105204-villa-cafe-krnov-pod-bezrucovym-vrchem.html","93"
"11","Pošta","Pošta Krnov 2 - Česká pošta, s.p.","https://www.firmy.cz/detail/432339-posta-krnov-2-krnov-pod-bezrucovym-vrchem.html","314"
"12","Bankomat","Bankomat České spořitelny","https://www.firmy.cz/detail/593072-bankomat-ceske-sporitelny-krnov-pod-bezrucovym-vrchem.html","427"
"13","Škola","Střední umělecká škola varhanářská o.p.s.","https://www.firmy.cz/detail/361650-stredni-umelecka-skola-varhanarska-o-p-s-krnov-pod-bezrucovym-vrchem.html","177"
"14","Sportoviště","Discgolf Krnov","","549"
"15","Školka","MŠ Krnov, Karla Čapka","https://www.firmy.cz/detail/407501-ms-krnov-karla-capka-krnov-pod-bezrucovym-vrchem.html","269"
"16","Lékař","MUDr. Petr Mylek","https://www.firmy.cz/detail/13017533-mudr-petr-mylek-krnov-pod-bezrucovym-vrchem.html","310"
"17","Bus MHD","Krnov, Lázně","","259"
"18","Obchod","Albert Hypermarket","https://www.firmy.cz/detail/446932-albert-hypermarket-krnov-pod-bezrucovym-vrchem.html","424"
