"","facility_type","facility_name","facility_iri","facility_distance"
"0","Cukrárna","Cukrárna Dánská 2373 - SPV - středisko praktického vyučování, s.r.o.","https://www.firmy.cz/detail/203309-cukrarna-danska-2373-kladno-krocehlavy.html","168"
"1","Kino","Kino Hutník","https://www.firmy.cz/detail/396729-kino-hutnik-kladno-krocehlavy.html","1414"
"2","Hřiště","Dětské hřiště Švédská","","430"
"3","Večerka","Večerka Wednesbury","https://www.firmy.cz/detail/13288807-vecerka-wednesbury-kladno-krocehlavy.html","489"
"4","Hospoda","Na základně","https://www.firmy.cz/detail/570154-na-zakladne-kladno-krocehlavy.html","125"
"5","Divadlo","Městské divadlo Kladno","https://www.firmy.cz/detail/1970001-mestske-divadlo-kladno-kladno.html","1804"
"6","Veterinář","MVDr. Alice Franková - veterinární ordinace","https://www.firmy.cz/detail/169405-mvdr-alice-frankova-veterinarni-ordinace-kladno-krocehlavy.html","206"
"7","Sportoviště","Bowling Flóra Kladno","https://www.firmy.cz/detail/13282965-bowling-flora-kladno-kladno-krocehlavy.html","260"
"8","Škola","1. Kladenská soukromá střední odborná škola (1.KŠPA), s.r.o.","https://www.firmy.cz/detail/361480-1-kladenska-soukroma-stredni-odborna-skola-1-kspa-kladno-krocehlavy.html","312"
"9","Obchod","Kaufland","https://www.firmy.cz/detail/1406115-kaufland-kladno-krocehlavy.html","359"
"10","Lékárna","Dr.Max LÉKÁRNA","https://www.firmy.cz/detail/13280015-dr-max-lekarna-kladno-krocehlavy.html","248"
"11","Restaurace","Kevin Sushi bar","https://www.firmy.cz/detail/12973226-kevin-sushi-bar-kladno-krocehlavy.html","191"
"12","Pošta","Pošta Kladno 6 - Česká pošta, s.p.","https://www.firmy.cz/detail/216841-posta-kladno-6-kladno-krocehlavy.html","173"
"13","Lékař","MUDr. Olga Šustová","https://www.firmy.cz/detail/387840-mudr-olga-sustova-kladno-krocehlavy.html","257"
"14","Vlak","Kladno","","711"
"15","Bus MHD","Kladno, Okrsek 2","","142"
"16","Školka","MŠ Kladno, Vrchlického","https://www.firmy.cz/detail/731283-ms-kladno-vrchlickeho-kladno-krocehlavy.html","156"
"17","Bankomat","Platbomat České spořitelny","https://www.firmy.cz/detail/13239393-platbomat-ceske-sporitelny-kladno-krocehlavy.html","334"
