"","facility_type","facility_name","facility_iri","facility_distance"
"0","Cukrárna","Kavárna Creperie","https://www.firmy.cz/detail/2037440-kavarna-creperie-praha-vysocany.html","1034"
"1","Kino","Cinema City Letňany","https://www.firmy.cz/detail/2679833-cinema-city-letnany-praha-letnany.html","2925"
"2","Přírodní zajímavost","Meandry Rokytky","","1506"
"3","Hřiště","Dětské hřiště Moravcových","","48"
"4","Večerka","Best Price Mall","https://www.firmy.cz/detail/13325553-best-price-mall-praha-vysocany.html","192"
"5","Divadlo","Divadlo Pohádka","https://www.firmy.cz/detail/636143-divadlo-pohadka-praha-letnany.html","1992"
"6","Hospoda","Hospoda U Zdi","https://www.firmy.cz/detail/13217099-hospoda-u-zdi-praha-liben.html","2010"
"7","Veterinář","Veterinární klinika Poděbradská","https://www.firmy.cz/detail/166978-veterinarni-klinika-podebradska-praha-hloubetin.html","1149"
"8","Vlak","Praha-Vysočany","","1289"
"9","Metro","Kolbenova","","171"
"10","Lékař","Poliklinika Kolbenova","https://www.firmy.cz/detail/12837303-poliklinika-kolbenova-praha-vysocany.html","231"
"11","Restaurace","Stazione Felicita","https://www.firmy.cz/detail/13310141-stazione-felicita-praha-vysocany.html","159"
"12","Škola","ZŠ Špitálská","https://www.firmy.cz/detail/359024-zs-spitalska-praha-vysocany.html","811"
"13","Sportoviště","Discgolf Rokytka","","688"
"14","Školka","Mateřská škola Pod Krocínkou","https://www.firmy.cz/detail/641843-materska-skola-pod-krocinkou-praha-vysocany.html","572"
"15","Pošta","Pošta Praha 93 - Česká pošta, s.p.","https://www.firmy.cz/detail/217419-posta-praha-93-praha-vysocany.html","1078"
"16","Tram","Kolbenova","","136"
"17","Bankomat","Bankomat České spořitelny","https://www.firmy.cz/detail/595007-bankomat-ceske-sporitelny-praha-vysocany.html","161"
"18","Bus MHD","Pod Krocínkou","","343"
"19","Obchod","Nákupní Centrum Fénix Vysočanská","https://www.firmy.cz/detail/613133-nakupni-centrum-fenix-vysocanska-praha-vysocany.html","1015"
"20","Lékárna","Lékárna Poděbradská","https://www.firmy.cz/detail/13317284-lekarna-podebradska-praha-vysocany.html","1034"
