"","facility_type","facility_name","facility_iri","facility_distance"
"0","Cukrárna","Kavárna Zámecké café","https://www.firmy.cz/detail/2002117-kavarna-zamecke-cafe-litvinov-horni-litvinov.html","3256"
"1","Přírodní zajímavost","Nebeské schody","","3779"
"2","Hřiště","Dětské hřiště Luční","","283"
"3","Večerka","Smíšené zboží Partner","https://www.firmy.cz/detail/13060010-smisene-zbozi-partner-litvinov-janov.html","80"
"4","Hospoda","CLUB DUSTIN HERNA","https://www.firmy.cz/detail/13147782-club-dustin-herna-litvinov-hamr.html","710"
"5","Divadlo","Docela velké divadlo","https://www.firmy.cz/detail/402086-docela-velke-divadlo-litvinov-horni-litvinov.html","3596"
"6","Veterinář","MVDr. Pavel Gabriel","https://www.firmy.cz/detail/2170186-mvdr-pavel-gabriel-litvinov-chuderin.html","1993"
"7","Lékárna","BENU Lékárna","https://www.firmy.cz/detail/12729604-benu-lekarna-litvinov-horni-litvinov.html","2954"
"8","Sportoviště","Tělovýchovná jednota Kopisty","https://www.firmy.cz/detail/2648760-telovychovna-jednota-kopisty-litvinov-janov.html","472"
"9","Restaurace","Restaurace Přátelství 106","https://www.firmy.cz/detail/13133487-restaurace-pratelstvi-106-litvinov-janov.html","107"
"10","Bankomat","Bankomat ČSOB","https://www.firmy.cz/detail/597359-bankomat-csob-litvinov-hamr.html","655"
"11","Bus MHD","Janov, škola","","123"
"12","Školka","Mateřská škola Sluníčko","https://www.firmy.cz/detail/725453-materska-skola-slunicko-litvinov-janov.html","146"
"13","Obchod","RETAIL PARK LITVÍNOV","https://www.firmy.cz/detail/13210428-retail-park-litvinov-litvinov-horni-litvinov.html","2974"
"14","Vlak","Litvínov","","3429"
"15","Lékař","MUDr. Jitka Prýmasová","https://www.firmy.cz/detail/386568-mudr-jitka-prymasova-litvinov-hamr.html","800"
"16","Pošta","Pošta Litvínov 8 - Česká pošta, s.p.","https://www.firmy.cz/detail/216948-posta-litvinov-8-litvinov-hamr.html","672"
"17","Škola","ZŠ a MŠ Litvínov - Janov","https://www.firmy.cz/detail/358085-zs-a-ms-litvinov-janov-litvinov-janov.html","174"
"18","Tram","Litvínov, Báňské stavby","","3028"
