"","facility_type","facility_name","facility_iri","facility_distance"
"0","Cukrárna","Černý kafe coffee | bar","https://www.firmy.cz/detail/13229229-cerny-kafe-coffee-bar-ceske-budejovice-7.html","276"
"1","Kino","Kino Kotva","https://www.firmy.cz/detail/2525705-kino-kotva-ceske-budejovice-7.html","353"
"2","Hřiště","Dětské hřiště","","162"
"3","Večerka","Supermarket Trefa","https://www.firmy.cz/detail/2170176-supermarket-trefa-ceske-budejovice-7.html","277"
"4","Hospoda","U Malého jezu","https://www.firmy.cz/detail/13112998-u-maleho-jezu-ceske-budejovice-7.html","571"
"5","Divadlo","Jihočeské divadlo","https://www.firmy.cz/detail/230815-jihoceske-divadlo-ceske-budejovice-1.html","924"
"6","Veterinář","MVDr. Stanislav Kollar","https://www.firmy.cz/detail/471379-mvdr-stanislav-kollar-ceske-budejovice-7.html","353"
"7","Pošta","Pošta České Budějovice 3 - Česká pošta, s.p.","https://www.firmy.cz/detail/215216-posta-ceske-budejovice-3-ceske-budejovice-7.html","221"
"8","Školka","MŠ České Budějovice, E.Pittera","https://www.firmy.cz/detail/1696413-ms-ceske-budejovice-e-pittera-ceske-budejovice-7.html","279"
"9","Lékař","Ambulance praktického lékaře - Nemocnice České Budějovice","https://www.firmy.cz/detail/2650785-ambulance-praktickeho-lekare-nemocnice-ceske-budejovice-ceske-budejovice-7.html","113"
"10","Bankomat","Bankomat České spořitelny","https://www.firmy.cz/detail/591954-bankomat-ceske-sporitelny-ceske-budejovice-7.html","256"
"11","Sportoviště","Golf Klub Klasik","https://www.firmy.cz/detail/690780-golf-klub-klasik-ceske-budejovice-7.html","78"
"12","Lékárna","Dr. Max","https://www.firmy.cz/detail/2525211-dr-max-ceske-budejovice-7.html","350"
"13","Bus MHD","Grünwaldova","","129"
"14","Škola","ZŠ České Budějovice, Matice školské","https://www.firmy.cz/detail/356739-zs-ceske-budejovice-matice-skolske-ceske-budejovice-7.html","207"
"15","Restaurace","Sklípek U Dvou koček","https://www.firmy.cz/detail/2108126-sklipek-u-dvou-kocek-ceske-budejovice-7.html","86"
"16","Obchod","Galerie Dvořák, a.s.","https://www.firmy.cz/detail/2301381-galerie-dvorak-ceske-budejovice-1.html","1045"
"17","Vlak","České Budějovice jižní zastávka","","606"
