"","facility_type","facility_name","facility_iri","facility_distance"
"0","Cukrárna","Retro cukrárna Mutěnice","https://www.firmy.cz/detail/13208950-retro-cukrarna-mutenice-mutenice.html","140"
"1","Přírodní zajímavost","Ptačí park Kosteliska","","4946"
"2","Hřiště","Dětské hřiště Lipová","","479"
"3","Večerka","Enapo","https://www.firmy.cz/detail/13133089-enapo-mutenice.html","94"
"4","Hospoda","Café Bar Retro","https://www.firmy.cz/detail/12725273-cafe-bar-retro-mutenice.html","550"
"5","Veterinář","MVDr. Kateřina Jedličková","https://www.firmy.cz/detail/13022250-mvdr-katerina-jedlickova-mutenice.html","839"
"6","Bankomat","Bankomat Komerční banky","https://www.firmy.cz/detail/13295880-bankomat-komercni-banky-mutenice.html","216"
"7","Lékař","MUDr. Pavel Matula","https://www.firmy.cz/detail/388254-mudr-pavel-matula-mutenice.html","640"
"8","Bus MHD","Mutěnice, křiž.","","192"
"9","Škola","ZŠ a MŠ Mutěnice","https://www.firmy.cz/detail/358355-zs-a-ms-mutenice-mutenice.html","988"
"10","Restaurace","Restaurace Mutěnka","https://www.firmy.cz/detail/12917995-restaurace-mutenka-mutenice.html","101"
"11","Vlak","Mutěnice","","630"
"12","Pošta","Pošta Mutěnice - Česká pošta, s.p.","https://www.firmy.cz/detail/433271-posta-mutenice-mutenice.html","197"
"13","Lékárna","Lékárna Mutěnice","https://www.firmy.cz/detail/422467-lekarna-mutenice-mutenice.html","640"
"14","Školka","ZŠ a MŠ Mutěnice","https://www.firmy.cz/detail/1303496-zs-a-ms-mutenice-mutenice.html","774"
