"","facility_type","facility_name","facility_iri","facility_distance"
"0","Cukrárna","Martin café","https://www.firmy.cz/detail/13289128-martin-cafe-novy-jicin.html","459"
"1","Kino","Městské kulturní středisko Nový Jičín - Letní kino","https://www.firmy.cz/detail/13070482-mestske-kulturni-stredisko-novy-jicin-letni-kino-novy-jicin.html","603"
"2","Přírodní zajímavost","Pikritový lom u Straníku","","4927"
"3","Hřiště","Dětské hřiště Rybníčky","","188"
"4","Večerka","HRUŠKA - Potraviny  PLUS","https://www.firmy.cz/detail/2565601-hruska-potraviny-plus-novy-jicin.html","107"
"5","Hospoda","Hostinec Pomněnka","https://www.firmy.cz/detail/324450-hostinec-pomnenka-novy-jicin.html","203"
"6","Divadlo","Beskydské divadlo","https://www.firmy.cz/detail/643853-beskydske-divadlo-novy-jicin.html","643"
"7","Veterinář","EuroBioMa, spol. s r.o. Nový Jičín.","https://www.firmy.cz/detail/445451-eurobioma-spol-s-r-o-novy-jicin-novy-jicin.html","417"
"8","Bus MHD","Nový Jičín, Máchova","","123"
"9","Restaurace","Restaurace ZUUM Group","https://www.firmy.cz/detail/13117434-restaurace-zuum-group-novy-jicin.html","142"
"10","Vlak","Nový Jičín město","","905"
"11","Pošta","Pošta Nový Jičín 1 - Česká pošta, s.p.","https://www.firmy.cz/detail/433606-posta-novy-jicin-1-novy-jicin.html","325"
"12","Lékárna","Mendelova lékárna s.r.o.","https://www.firmy.cz/detail/659698-mendelova-lekarna-s-r-o-novy-jicin.html","248"
"13","Školka","MŠ Trojlístek, Nový Jičín - Máchova","https://www.firmy.cz/detail/2292443-ms-trojlistek-novy-jicin-machova-novy-jicin.html","204"
"14","Obchod","Albert Hypermarket","https://www.firmy.cz/detail/12920931-albert-hypermarket-novy-jicin.html","859"
"15","Škola","Odborné učiliště a Praktická škola Nový Jičín","https://www.firmy.cz/detail/360938-odborne-uciliste-a-prakticka-skola-novy-jicin-novy-jicin.html","297"
"16","Lékař","Mich Med, s.r.o.","https://www.firmy.cz/detail/12863018-mich-med-novy-jicin.html","114"
"17","Bankomat","Bankomat MONETA Money Bank","https://www.firmy.cz/detail/603443-bankomat-moneta-money-bank-novy-jicin.html","479"
"18","Sportoviště","Pilates Renata","https://www.firmy.cz/detail/12711152-pilates-renata-novy-jicin.html","602"
