"","facility_type","facility_name","facility_iri","facility_distance"
"0","Cukrárna","Cukrárna U Jelínků","https://www.firmy.cz/detail/2566913-cukrarna-u-jelinku-milovice-mlada.html","948"
"1","Kino","Letní kino Lysá nad Labem","https://www.firmy.cz/detail/13071133-letni-kino-lysa-nad-labem-lysa-nad-labem.html","3083"
"2","Přírodní zajímavost","Tůně a mokřady Josefov","","725"
"3","Hřiště","Dětské hřiště","","72"
"4","Večerka","JEDNOTA, spotřební družstvo v Nymburce - COOP","https://www.firmy.cz/detail/726906-jednota-spotrebni-druzstvo-v-nymburce-coop-milovice-mlada.html","211"
"5","Hospoda","Pivnice RKDM","https://www.firmy.cz/detail/12972580-pivnice-rkdm-milovice-mlada.html","981"
"6","Veterinář","MVDr. Vladimír Pišl","https://www.firmy.cz/detail/2141306-mvdr-vladimir-pisl-milovice-mlada.html","766"
"7","Pošta","Pošta Milovice nad Labem 3 - Česká pošta, s.p.","https://www.firmy.cz/detail/217394-posta-milovice-nad-labem-3-milovice-mlada.html","568"
"8","Bankomat","Bankomat Komerční banky","https://www.firmy.cz/detail/13338829-bankomat-komercni-banky-milovice-mlada.html","511"
"9","Vlak","Milovice","","1349"
"10","Restaurace","Restaurace Milten","https://www.firmy.cz/detail/12822794-restaurace-milten-milovice-mlada.html","469"
"11","Lékař","MUDr. Oldřich Baumgartner","https://www.firmy.cz/detail/13027139-mudr-oldrich-baumgartner-milovice-mlada.html","373"
"12","Sportoviště","Relax park","","194"
"13","Škola","Základní škola Juventa","https://www.firmy.cz/detail/12940822-zakladni-skola-juventa-milovice-mlada.html","242"
"14","Školka","MŠ Sluníčko, Milovice - Mladá","https://www.firmy.cz/detail/1342080-ms-slunicko-milovice-mlada-milovice-mlada.html","399"
"15","Obchod","Obchodní centrum Lysá","https://www.firmy.cz/detail/2340418-obchodni-centrum-lysa-lysa-nad-labem.html","3273"
"16","Lékárna","Lékárna v Italské","https://www.firmy.cz/detail/2606433-lekarna-v-italske-milovice-mlada.html","1069"
"17","Bus MHD","Milovice, Telecom","","272"
