"","facility_type","facility_name","facility_iri","facility_distance"
"0","Cukrárna","Cukrárna Luja","https://www.firmy.cz/detail/265597-cukrarna-luja-praha-nusle.html","244"
"1","Kino","HopeTV","https://www.firmy.cz/detail/672889-hopetv-praha-vinohrady.html","1493"
"2","Hřiště","Dětské hřiště park Jezerka","","413"
"3","Večerka","Tesco Expres","https://www.firmy.cz/detail/2564843-tesco-expres-praha-nusle.html","176"
"4","Divadlo","Divadlo Na Jezerce","https://www.firmy.cz/detail/496550-divadlo-na-jezerce-praha-nusle.html","580"
"5","Hospoda","Hostinec U Parku","https://www.firmy.cz/detail/337032-hostinec-u-parku-praha-nusle.html","372"
"6","Veterinář","Veterinární ošetřovna Nusle, s.r.o.","https://www.firmy.cz/detail/2294795-veterinarni-osetrovna-nusle-praha-nusle.html","250"
"7","Bankomat","Bankomat MONETA Money Bank","https://www.firmy.cz/detail/2396328-bankomat-moneta-money-bank-praha-nusle.html","420"
"8","Restaurace","Lucky Cina","https://www.firmy.cz/detail/2641252-lucky-cina-praha-nusle.html","35"
"9","Škola","ZUŠ Praha 4, Svatoslavova","https://www.firmy.cz/detail/427094-zus-praha-4-svatoslavova-praha-nusle.html","353"
"10","Tram","Horky","","184"
"11","Školka","Školička Radost","https://www.firmy.cz/detail/2651089-skolicka-radost-praha-vrsovice.html","325"
"12","Pošta","Pošta Praha 416 - Česká pošta, s.p.","https://www.firmy.cz/detail/217473-posta-praha-416-praha-nusle.html","692"
"13","Obchod","Arkády Pankrác","https://www.firmy.cz/detail/2245240-arkady-pankrac-praha-nusle.html","1531"
"14","Lékař","MUDr. Jitka Guthová","https://www.firmy.cz/detail/380409-mudr-jitka-guthova-praha-nusle.html","308"
"15","Bus MHD","Kloboučnická","","247"
"16","Lékárna","Nuselská lékárna","https://www.firmy.cz/detail/598110-nuselska-lekarna-praha-nusle.html","475"
"17","Vlak","Praha-Vršovice","","205"
"18","Metro","Pražského povstání","","1217"
"19","Sportoviště","Bowling v továrně","https://www.firmy.cz/detail/12984456-bowling-v-tovarne-praha-nusle.html","454"
