"","facility_type","facility_name","facility_iri","facility_distance"
"0","Cukrárna","Vymazlená kavárna","https://www.firmy.cz/detail/12911633-vymazlena-kavarna-havlickuv-brod.html","807"
"1","Kino","Městské kino Ostrov","https://www.firmy.cz/detail/396776-mestske-kino-ostrov-havlickuv-brod.html","1125"
"2","Hřiště","Dětské hřiště Práčat","","304"
"3","Večerka","COOP TIP","https://www.firmy.cz/detail/1899129-coop-tip-havlickuv-brod.html","332"
"4","Divadlo","Městské divadlo a kino Ostrov","https://www.firmy.cz/detail/12957050-mestske-divadlo-a-kino-ostrov-havlickuv-brod.html","1125"
"5","Hospoda","SH ČMS - Sbor dobrovolných hasičů Břevnice","https://www.firmy.cz/detail/13138483-sh-cms-sbor-dobrovolnych-hasicu-brevnice-brevnice.html","2674"
"6","Veterinář","Veterinární ambulance HB, spol. s r.o.","https://www.firmy.cz/detail/12740359-veterinarni-ambulance-hb-havlickuv-brod.html","729"
"7","Bus MHD","Havlíčkův Brod, Žižkov II","","225"
"8","Restaurace","Restaurace Vysočina","https://www.firmy.cz/detail/13134343-restaurace-vysocina-havlickuv-brod.html","354"
"9","Obchod","Albert Hypermarket","https://www.firmy.cz/detail/446747-albert-hypermarket-havlickuv-brod.html","720"
"10","Lékař","MUDr. Marta Kopecká, s.r.o.","https://www.firmy.cz/detail/12845894-mudr-marta-kopecka-havlickuv-brod.html","1155"
"11","Škola","Základní škola Havlíčkův Brod, Konečná 1884","https://www.firmy.cz/detail/357066-zakladni-skola-havlickuv-brod-konecna-1884-havlickuv-brod.html","210"
"12","Školka","Mateřská škola Havlíčkův Brod","https://www.firmy.cz/detail/13326034-materska-skola-havlickuv-brod-havlickuv-brod.html","242"
"13","Vlak","Havlíčkův Brod","","1327"
"14","Sportoviště","VZO TSČ ČR, pobočný spolek Havl. Brod, Kyjovská č.p. 1024","https://www.firmy.cz/detail/13157223-vzo-tsc-cr-pobocny-spolek-havl-brod-kyjovska-c-p-1024-havlickuv-brod.html","403"
"15","Pošta","Pošta Havlíčkův Brod 1 - Česká pošta, s.p.","https://www.firmy.cz/detail/215765-posta-havlickuv-brod-1-havlickuv-brod.html","1194"
"16","Bankomat","Bankomat České spořitelny","https://www.firmy.cz/detail/592124-bankomat-ceske-sporitelny-havlickuv-brod.html","688"
"17","Lékárna","AVE Healthcare, s.r.o.","https://www.firmy.cz/detail/13339972-ave-healthcare-havlickuv-brod.html","720"
