"","facility_type","facility_name","facility_iri","facility_distance"
"0","Cukrárna","Cukrářská výrobna Mima","https://www.firmy.cz/detail/248429-cukrarska-vyrobna-mima-beroun-zavodi.html","434"
"1","Kino","Kino Beroun","https://www.firmy.cz/detail/396429-kino-beroun-beroun-mesto.html","1245"
"2","Hřiště","Dětské hřiště Hostímská","","658"
"3","Večerka","Eso Market - Tomáš Potůček","https://www.firmy.cz/detail/2566648-eso-market-tomas-potucek-beroun-zavodi.html","450"
"4","Hospoda","Hospůdka U Filipa","https://www.firmy.cz/detail/13141860-hospudka-u-filipa-beroun-mesto.html","1238"
"5","Veterinář","MVDr. Petr Dvořák","https://www.firmy.cz/detail/2124605-mvdr-petr-dvorak-beroun-zavodi.html","1127"
"6","Škola","ZŠ Beroun - Závodí","https://www.firmy.cz/detail/356336-zs-beroun-zavodi-beroun-zavodi.html","387"
"7","Školka","MŠ Školička Kytička","https://www.firmy.cz/detail/13044854-ms-skolicka-kyticka-beroun-zavodi.html","415"
"8","Lékárna","SENIMED-Lékárna Nemocnice Beroun","https://www.firmy.cz/detail/12978466-senimed-lekarna-nemocnice-beroun-beroun-zavodi.html","841"
"9","Restaurace","Restaurace Na Marjánce","https://www.firmy.cz/detail/420291-restaurace-na-marjance-beroun-zavodi.html","345"
"10","Lékař","Praktický lékař pro dospělé - Rehabilitační nemocnice Beroun","https://www.firmy.cz/detail/13031780-prakticky-lekar-pro-dospele-rehabilitacni-nemocnice-beroun-beroun-zavodi.html","792"
"11","Pošta","Pošta Beroun 1 - Česká pošta, s.p.","https://www.firmy.cz/detail/216868-posta-beroun-1-beroun-mesto.html","1209"
"12","Vlak","Beroun-Závodí","","285"
"13","Obchod","Květ Beroun, a.s.","https://www.firmy.cz/detail/12846052-kvet-beroun-beroun-centrum.html","1138"
"14","Bankomat","Bankomat Komerční banky","https://www.firmy.cz/detail/596098-bankomat-komercni-banky-beroun-centrum.html","967"
"15","Bus MHD","Beroun, Brožíkova","","375"
"16","Sportoviště","TJ LOKOMOTIVA BEROUN z. s.","https://www.firmy.cz/detail/13077408-tj-lokomotiva-beroun-z-s-beroun.html","843"
