"","facility_type","facility_name","facility_iri","facility_distance"
"0","Cukrárna","Cukrárna Magnolie","https://www.firmy.cz/detail/1963341-cukrarna-magnolie-orlova-lutyne.html","1360"
"1","Kino","Letní kino - Dům kultury města Orlové","https://www.firmy.cz/detail/13072798-letni-kino-orlova.html","1228"
"2","Hřiště","Rákosníčkovo dětské hřiště","","1038"
"3","Večerka","Penny Market","https://www.firmy.cz/detail/2238115-penny-market-orlova-poruba.html","330"
"4","Hospoda","Pivnice Centrum","https://www.firmy.cz/detail/12840796-pivnice-centrum-orlova-lutyne.html","1223"
"5","Veterinář","Veterinární klinika ANIVET - MVDr. Zbyněk Horák","https://www.firmy.cz/detail/2631495-veterinarni-klinika-anivet-mvdr-zbynek-horak-orlova-lutyne.html","913"
"6","Lékař","MUDr. Martin Kartárik","https://www.firmy.cz/detail/388191-mudr-martin-kartarik-orlova-lutyne.html","999"
"7","Pošta","Pošta Orlová 3 - Česká pošta, s.p.","https://www.firmy.cz/detail/431477-posta-orlova-3-orlova-poruba.html","1055"
"8","Sportoviště","Tenisový klub Slavia Orlová, z.s.","https://www.firmy.cz/detail/166418-tenisovy-klub-slavia-orlova-z-s-orlova-lutyne.html","939"
"9","Obchod","PRIOR ČESKÁ REPUBLIKA s.r.o.","https://www.firmy.cz/detail/1957099-prior-ceska-republika-s-r-o-orlova-lutyne.html","1395"
"10","Bus MHD","Orlová, Poruba, samoobsluha","","209"
"11","Škola","ZŠ Orlová-Lutyně, Slezská","https://www.firmy.cz/detail/12843315-zs-orlova-lutyne-slezska-orlova.html","522"
"12","Bankomat","Bankomat Komerční banky","https://www.firmy.cz/detail/594117-bankomat-komercni-banky-orlova-lutyne.html","878"
"13","Restaurace","Restaurace Siem","https://www.firmy.cz/detail/12959041-restaurace-siem-orlova-lutyne.html","887"
"14","Lékárna","Lékárna Salvátor","https://www.firmy.cz/detail/13266185-lekarna-salvator-orlova-lutyne.html","1058"
"15","Školka","MŠ Orlík Orlová","https://www.firmy.cz/detail/13266724-ms-orlik-orlova-orlova-poruba.html","336"
