"","facility_type","facility_name","facility_iri","facility_distance"
"0","Cukrárna","Ovocná cukrárna","https://www.firmy.cz/detail/12722437-ovocna-cukrarna-praha-bubenec.html","499"
"1","Kino","Bio Oko","https://www.firmy.cz/detail/2586117-bio-oko-praha-holesovice.html","2689"
"2","Hřiště","Dětské hřiště Lotyšská","","298"
"3","Večerka","ESO Potraviny","https://www.firmy.cz/detail/12801408-eso-potraviny-praha-bubenec.html","122"
"4","Hospoda","U Pošty","https://www.firmy.cz/detail/573057-u-posty-praha-dejvice.html","773"
"5","Divadlo","Dejvické divadlo, o.p.s.","https://www.firmy.cz/detail/396832-dejvicke-divadlo-praha-dejvice.html","114"
"6","Veterinář","MVDr. Marta Schmidhalter-Pekárková DECVDI","https://www.firmy.cz/detail/2608174-mvdr-marta-schmidhalter-pekarkova-decvdi-praha-bubenec.html","533"
"7","Sportoviště","České vysoké učení technické v Praze - Kolejní hřiště Bubeneč","https://www.firmy.cz/detail/2220529-ceske-vysoke-uceni-technicke-v-praze-kolejni-hriste-bubenec-praha-bubenec.html","293"
"8","Obchod","Kaufland","https://www.firmy.cz/detail/12720219-kaufland-praha-dejvice.html","675"
"9","Škola","Základní škola a Mateřská škola Antonína Čermáka, Praha 6","https://www.firmy.cz/detail/359005-zakladni-skola-a-materska-skola-antonina-cermaka-praha-6-praha-bubenec.html","326"
"10","Restaurace","Pivnice U Švejka","https://www.firmy.cz/detail/337671-pivnice-u-svejka-praha-dejvice.html","89"
"11","Bus MHD","Lotyšská","","131"
"12","Školka","Základní škola a Mateřská škola Antonína Čermáka, Praha 6","https://www.firmy.cz/detail/2627154-zakladni-skola-a-materska-skola-antonina-cermaka-praha-6-praha-bubenec.html","326"
"13","Bankomat","Bankomat Komerční banky","https://www.firmy.cz/detail/1348939-bankomat-komercni-banky-praha-bubenec.html","273"
"14","Lékárna","Lékárna Studentský dům","https://www.firmy.cz/detail/374583-lekarna-studentsky-dum-praha-dejvice.html","359"
"15","Tram","Zelená","","170"
"16","Metro","Dejvická","","565"
"17","Vlak","Praha-Podbaba","","753"
"18","Pošta","Pošta Praha 6 - Česká pošta, s.p.","https://www.firmy.cz/detail/216725-posta-praha-6-praha-dejvice.html","800"
"19","Lékař","MUDr. Petr Hermann","https://www.firmy.cz/detail/387174-mudr-petr-hermann-praha-dejvice.html","84"
