"","facility_type","facility_name","facility_iri","facility_distance"
"0","Hřiště","Dětské hřiště Popská","https://mapy.cz/zakladni?x=17.901452857474&y=49.937696310593836&z=17&source=base&id=2339443","228"
"1","Přírodní zajímavost","Bludný balvan","https://mapy.cz/zakladni?x=17.9055405556&y=49.9362436111&z=17&source=base&id=2112615","255"
"2","Cukrárna","FoxCoffee","https://www.firmy.cz/detail/13139048-foxcoffee-opava-mesto.html","220"
"3","Večerka","TEMPO, obchodní družstvo","https://www.firmy.cz/detail/752246-tempo-obchodni-druzstvo-opava-mesto.html","140"
"4","Veterinář","MVDr. Lenka Bořecká","https://www.firmy.cz/detail/2660210-mvdr-lenka-borecka-opava-mesto.html","300"
"5","Hospoda","Pivnice U Dvou dobráků","https://www.firmy.cz/detail/13289467-pivnice-u-dvou-dobraku-opava-mesto.html","179"
"6","Kino","Kino Mír","https://www.firmy.cz/detail/2297240-kino-mir-opava-mesto.html","262"
"7","Divadlo","Slezské divadlo Opava","https://www.firmy.cz/detail/230941-slezske-divadlo-opava-opava-mesto.html","212"
"8","Bus MHD","Opava, Dolní náměstí","https://mapy.cz/zakladni?x=17.9054592178896&y=49.9391381921269&z=17&source=pubt&id=15308601","108"
"9","Bankomat","Bankomat Euronet","https://www.firmy.cz/detail/13055613-bankomat-euronet-opava-mesto.html","65"
"10","Obchod","OC Breda & Weinstein","https://www.firmy.cz/detail/12735258-oc-breda-weinstein-opava-mesto.html","428"
"11","Lékař","MUDr. Ludmila Opatřilová","https://www.firmy.cz/detail/385758-mudr-ludmila-opatrilova-opava-mesto.html","252"
"12","Pošta","Pošta Opava 1 - Česká pošta, s.p.","https://www.firmy.cz/detail/432548-posta-opava-1-opava-mesto.html","466"
"13","Restaurace","Restaurace U Krbu","https://www.firmy.cz/detail/2453854-restaurace-u-krbu-opava-mesto.html","44"
"14","Škola","Střední škola hotelnictví a služeb a Vyšší odborná škola, Opava, příspěvková organizace","https://www.firmy.cz/detail/12722569-stredni-skola-hotelnictvi-a-sluzeb-a-vyssi-odborna-skola-opava-prispevkova-organizace-opava-mesto.html","237"
"15","Vlak","Opava východ","https://mapy.cz/zakladni?x=17.9085361&y=49.9345089689&z=17&source=pubt&id=15212353","525"
"16","Lékárna","Dr.Max LÉKÁRNA","https://www.firmy.cz/detail/13270216-dr-max-lekarna-opava-mesto.html","110"
"17","Školka","MŠ křesťanská Opava","https://www.firmy.cz/detail/623318-ms-krestanska-opava-opava-mesto.html","180"
"18","Sportoviště","Orel jednota Opava","https://www.firmy.cz/detail/1962759-orel-jednota-opava-opava-mesto.html","241"
