"","facility_type","facility_name","facility_iri","facility_distance"
"0","Cukrárna","Helen ́s coffee, s.r.o.","https://www.firmy.cz/detail/13196122-helen-s-coffee-praha-stodulky.html","811"
"1","Přírodní zajímavost","Kovářovic mez","","2784"
"2","Kino","Cinema City Zličín","https://www.firmy.cz/detail/436222-cinema-city-zlicin-praha-trebonice.html","2636"
"3","Hřiště","Rákosníčkovo hřiště Praha 13","","146"
"4","Večerka","Mix Markt","https://www.firmy.cz/detail/13303094-mix-markt-praha-stodulky.html","0"
"5","Hospoda","Bernard Pub U Jezera","https://www.firmy.cz/detail/13020276-bernard-pub-u-jezera-praha-stodulky.html","234"
"6","Divadlo","MEZINÁRODNÍ CENTRUM TANCE","https://www.firmy.cz/detail/2465676-mezinarodni-centrum-tance-praha-stodulky.html","1115"
"7","Veterinář","VETCENTRUM Duchek s.r.o.","https://www.firmy.cz/detail/723312-vetcentrum-duchek-s-r-o-praha-stodulky.html","1289"
"8","Bus MHD","Luka","","83"
"9","Bankomat","Vkladomat mBank","https://www.firmy.cz/detail/13133100-vkladomat-mbank-praha-stodulky.html","18"
"10","Metro","Luka","","41"
"11","Škola","Základní škola praktická a Základní škola speciální Lužiny","https://www.firmy.cz/detail/802518-zakladni-skola-prakticka-a-zakladni-skola-specialni-luziny-praha-stodulky.html","301"
"12","Lékárna","BENU Lékárna","https://www.firmy.cz/detail/12933395-benu-lekarna-praha-stodulky.html","53"
"13","Pošta","Česká pošta Praha 54 - Česká pošta, s.p.","https://www.firmy.cz/detail/13030020-ceska-posta-praha-54-praha-stodulky.html","755"
"14","Lékař","MUDr. Janka Tóthová","https://www.firmy.cz/detail/13107414-mudr-janka-tothova-praha-stodulky.html","94"
"15","Vlak","Praha-Řeporyje","","1747"
"16","Sportoviště","KINGKOM, s.r.o.","https://www.firmy.cz/detail/12776299-kingkom-praha-stodulky.html","249"
"17","Školka","MŠ Pastelka, Praha","https://www.firmy.cz/detail/578688-ms-pastelka-praha-praha-stodulky.html","127"
"18","Restaurace","Baluka restaurace & gurmánský svět","https://www.firmy.cz/detail/13332098-baluka-restaurace-gurmansky-svet-praha-stodulky.html","0"
"19","Obchod","Obchodní Pasáž Luka Living","https://www.firmy.cz/detail/13206790-obchodni-pasaz-luka-living-praha-stodulky.html","3"
"20","Tram","Hlušičkova","","2044"
