"","facility_type","facility_name","facility_iri","facility_distance"
"0","Cukrárna","Restaurace a kavárna  BO ASI !","https://www.firmy.cz/detail/12961112-restaurace-a-kavarna-bo-asi-ostrava-marianske-hory.html","765"
"1","Kino","Kino Art","https://www.firmy.cz/detail/456913-kino-art-ostrava-moravska-ostrava.html","466"
"2","Přírodní zajímavost","Zábřežský bludný balvan","","3285"
"3","Hřiště","Dětské hřiště náměstí Jiřího Myrona","","237"
"4","Večerka","COOP - BUDOUCNOST, spotřební družstvo v Ostravě","https://www.firmy.cz/detail/230669-coop-ostrava-moravska-ostrava.html","175"
"5","Hospoda","Restaurace Na Šalamouně","https://www.firmy.cz/detail/13149925-restaurace-na-salamoune-ostrava-moravska-ostrava.html","416"
"6","Divadlo","Divadlo Petra Bezruče","https://www.firmy.cz/detail/475774-divadlo-petra-bezruce-ostrava-moravska-ostrava.html","480"
"7","Veterinář","Veterinární ordinace - MVDr. Richard Saviola","https://www.firmy.cz/detail/477150-veterinarni-ordinace-mvdr-richard-saviola-ostrava-moravska-ostrava.html","462"
"8","Bus MHD","Na Jízdárně","","131"
"9","Sportoviště","Bumper Games","https://www.firmy.cz/detail/12906857-bumper-games-ostrava-moravska-ostrava.html","241"
"10","Školka","Mikrojesle a Dětská skupina MiniSovičky","https://www.firmy.cz/detail/13211669-mikrojesle-a-detska-skupina-minisovicky-ostrava.html","89"
"11","Lékař","MUDR. HORVÁTH-PRAKTIK, s.r.o.","https://www.firmy.cz/detail/12822618-mudr-horvath-praktik-ostrava-moravska-ostrava.html","194"
"12","Tram","Don Bosco","","377"
"13","Restaurace","Restaurace KENKEN","https://www.firmy.cz/detail/13233342-restaurace-kenken-ostrava-moravska-ostrava.html","148"
"14","Škola","Střední škola elektrotechnická Ostrava","https://www.firmy.cz/detail/361237-stredni-skola-elektrotechnicka-ostrava-ostrava-moravska-ostrava.html","185"
"15","Obchod","Kaufland","https://www.firmy.cz/detail/1534393-kaufland-ostrava-moravska-ostrava.html","560"
"16","Bankomat","Bankomat České spořitelny","https://www.firmy.cz/detail/13169998-bankomat-ceske-sporitelny-ostrava-moravska-ostrava.html","340"
"17","Lékárna","Lékárna VESALION","https://www.firmy.cz/detail/12797712-lekarna-vesalion-ostrava-moravska-ostrava.html","493"
"18","Vlak","Ostrava střed","","731"
"19","Pošta","Pošta Ostrava 41 - Česká pošta, s.p.","https://www.firmy.cz/detail/433369-posta-ostrava-41-ostrava-moravska-ostrava.html","341"
