"","facility_type","facility_name","facility_iri","facility_distance"
"0","Hřiště","Dětské hřiště Valčíkova","https://mapy.cz/zakladni?x=15.7551638889&y=50.0462416667&z=17&source=base&id=2059012","86"
"1","Večerka","Můjobchod - Potraviny Večerka","https://www.firmy.cz/detail/12998796-mujobchod-potraviny-vecerka-pardubice-polabiny.html","254"
"2","Kino","Letní kino Pardubice","https://www.firmy.cz/detail/13332119-letni-kino-pardubice-pardubice.html","941"
"3","Hospoda","Rychlé občerstvení Petr Horák","https://www.firmy.cz/detail/12842544-rychle-obcerstveni-petr-horak-pardubice-polabiny.html","230"
"4","Cukrárna","Na pergole, s.r.o.","https://www.firmy.cz/detail/13117856-na-pergole-pardubice-polabiny.html","436"
"5","Veterinář","MVDr. Martin Plecháček","https://www.firmy.cz/detail/308056-mvdr-martin-plechacek-pardubice-trnova.html","495"
"6","Divadlo","Divadlo 29","https://www.firmy.cz/detail/13236989-divadlo-29-pardubice-stare-mesto.html","1976"
"7","Pošta","Pošta Pardubice 9 - Česká pošta, s.p.","https://www.firmy.cz/detail/215336-posta-pardubice-9-pardubice-polabiny.html","454"
"8","Škola","ZŠ Pardubice - Polabiny, Npor. Eliáše","https://www.firmy.cz/detail/358784-zs-pardubice-polabiny-npor-eliase-pardubice-polabiny.html","230"
"9","Lékárna","Na Trojce","https://www.firmy.cz/detail/308062-na-trojce-pardubice-polabiny.html","254"
"10","Obchod","Kaufland","https://www.firmy.cz/detail/1350832-kaufland-pardubice-rosice.html","281"
"11","Bankomat","Bankomat České spořitelny","https://www.firmy.cz/detail/593878-bankomat-ceske-sporitelny-pardubice-polabiny.html","230"
"12","Restaurace","Restaurant Fregata","https://www.firmy.cz/detail/13319503-restaurant-fregata-pardubice-polabiny.html","80"
"13","Lékař","Praktik Polabiny, s.r.o.","https://www.firmy.cz/detail/13285792-praktik-polabiny-pardubice-polabiny.html","207"
"14","Vlak","Pardubice-Rosice nad Labem","https://mapy.cz/zakladni?x=15.7427404432&y=50.0454293828&z=17&source=pubt&id=15212414","807"
"15","Školka","MŠ Zvoneček Pardubice","https://www.firmy.cz/detail/1278795-ms-zvonecek-pardubice-pardubice-polabiny.html","295"
"16","Bus MHD","Polabiny, Bělehradská","https://mapy.cz/zakladni?x=15.7552794636&y=50.0468752138&z=17&source=pubt&id=15201316","131"
"17","Sportoviště","Jana Masopustová","https://www.firmy.cz/detail/12822855-jana-masopustova-pardubice-polabiny.html","254"
