"","facility_type","facility_name","facility_iri","facility_distance"
"0","Cukrárna","DRING CAFFE","https://www.firmy.cz/detail/13264488-dring-caffe-brno-cernovice.html","445"
"1","Kino","5D cinema Maxim","https://www.firmy.cz/detail/12734839-5d-cinema-maxim-brno-mesto.html","2151"
"2","Přírodní zajímavost","Cesta rákosím","","4220"
"3","Hřiště","Dětské hřiště Kneslova","","177"
"4","Večerka","Večerka Spáčilova","https://www.firmy.cz/detail/13292924-vecerka-spacilova-brno-cernovice.html","169"
"5","Hospoda","Pivnice U Papáji","https://www.firmy.cz/detail/13111641-pivnice-u-papaji-brno-trnita.html","1218"
"6","Divadlo","Divadlo Neslyším","https://www.firmy.cz/detail/406578-divadlo-neslysim-brno-zabrdovice.html","1947"
"7","Veterinář","EXOVET","https://www.firmy.cz/detail/2136544-exovet-brno-cernovice.html","453"
"8","Škola","ZŠ Brno, Kneslova","https://www.firmy.cz/detail/356510-zs-brno-kneslova-brno-cernovice.html","178"
"9","Sportoviště","Tenis Černovice","https://www.firmy.cz/detail/2385260-tenis-cernovice-brno-cernovice.html","564"
"10","Tram","Židovský hřbitov","","688"
"11","Školka","Mateřská škola, Brno, Kneslova 7","https://www.firmy.cz/detail/13073043-materska-skola-brno-kneslova-7-brno-cernovice.html","233"
"12","Pošta","Pošta Brno 18 - Česká pošta, s.p.","https://www.firmy.cz/detail/216037-posta-brno-18-brno-cernovice.html","274"
"13","Vlak","Brno-Černovice","","781"
"14","Lékárna","Psychiatrická nemocnice Brno - Ústavní lékárna","https://www.firmy.cz/detail/395533-psychiatricka-nemocnice-brno-ustavni-lekarna-brno-cernovice.html","192"
"15","Restaurace","Vinárna U Šafránků","https://www.firmy.cz/detail/2315129-vinarna-u-safranku-brno-cernovice.html","355"
"16","Lékař","MUDr. Věra Kosíková","https://www.firmy.cz/detail/389693-mudr-vera-kosikova-brno-cernovice.html","297"
"17","Bankomat","Bankomat Fio banky","https://www.firmy.cz/detail/2678036-bankomat-fio-banky-brno-cernovice.html","220"
"18","Obchod","Vinamo","https://www.firmy.cz/detail/13302114-vinamo-brno-cernovice.html","824"
"19","Bus MHD","Psychiatrická nemocnice","","275"
