"","facility_type","facility_name","facility_iri","facility_distance"
"0","Cukrárna","Cukrárna Ollies","https://www.firmy.cz/detail/12720535-cukrarna-ollies-ostrava-poruba.html","167"
"1","Kino","5D cinema Maxim","https://www.firmy.cz/detail/12950606-5d-cinema-maxim-ostrava-zabreh.html","5118"
"2","Hřiště","Dětské hřiště Školní","","48"
"3","Večerka","HRUŠKA","https://www.firmy.cz/detail/12819328-hruska-ostrava-poruba.html","141"
"4","Hospoda","HOSPODA NA JEDNO","https://www.firmy.cz/detail/12927042-hospoda-na-jedno-ostrava-poruba.html","227"
"5","Divadlo","Porubské divadlo","https://www.firmy.cz/detail/2543038-porubske-divadlo-ostrava-poruba.html","1773"
"6","Veterinář","Veterinární klinika Yorika","https://www.firmy.cz/detail/712067-veterinarni-klinika-yorika-ostrava-poruba.html","115"
"7","Škola","ZŠ Porubská 832 - ZŠ Ostrava-Poruba, Porubská","https://www.firmy.cz/detail/358709-zs-porubska-832-ostrava-poruba.html","133"
"8","Bus MHD","Poruba, Alšovo náměstí","","109"
"9","Lékárna","BENU Lékárna","https://www.firmy.cz/detail/13292553-benu-lekarna-ostrava-poruba.html","130"
"10","Pošta","Pošta Ostrava 8 - Česká pošta, s.p.","https://www.firmy.cz/detail/433404-posta-ostrava-8-ostrava-poruba.html","239"
"11","Tram","Poruba vozovna","","410"
"12","Restaurace","Marná Sláva - Pizza Poruba","https://www.firmy.cz/detail/13261919-marna-slava-pizza-poruba-ostrava-poruba.html","105"
"13","Bankomat","Vkladomat mBank","https://www.firmy.cz/detail/13221747-vkladomat-mbank-ostrava-poruba.html","63"
"14","Sportoviště","Sportovní a rekreační zařízení města Ostravy","https://www.firmy.cz/detail/423310-sportovni-a-rekreacni-zarizeni-mesta-ostravy-ostrava-poruba.html","298"
"15","Lékař","Ambulance Věžičky","https://www.firmy.cz/detail/12805989-ambulance-vezicky-ostrava-poruba.html","264"
"16","Obchod","REKTOR, s.r.o.","https://www.firmy.cz/detail/12978812-rektor-ostrava-poruba.html","1148"
"17","Vlak","Ostrava-Třebovice","","2198"
"18","Školka","MŠ Čtyřlístek, Ostrava-Poruba","https://www.firmy.cz/detail/12738465-ms-ctyrlistek-ostrava-poruba-ostrava-poruba.html","63"
