"","facility_type","facility_name","facility_iri","facility_distance"
"0","Cukrárna","Café Telč","https://www.firmy.cz/detail/12975120-cafe-telc-telc-vnitrni-mesto.html","1040"
"1","Hřiště","Dětské hřiště Tobiáškova","","730"
"2","Večerka","COOP TIP","https://www.firmy.cz/detail/12959674-coop-tip-telc-stare-mesto.html","103"
"3","Hospoda","Telčský pivovar s.r.o.","https://www.firmy.cz/detail/13169976-telcsky-pivovar-s-r-o-telc-podoli.html","965"
"4","Veterinář","MVDr. Zdeněk Andreas","https://www.firmy.cz/detail/475833-mvdr-zdenek-andreas-telc-stare-mesto.html","191"
"5","Vlak","Telč-Staré Město","","456"
"6","Školka","MŠ Telč","https://www.firmy.cz/detail/2152621-ms-telc-telc-stare-mesto.html","902"
"7","Lékař","MUDr. Jaroslav Řičánek","https://www.firmy.cz/detail/389952-mudr-jaroslav-ricanek-telc-stare-mesto.html","317"
"8","Restaurace","Restaurace Egypt","https://www.firmy.cz/detail/13114148-restaurace-egypt-telc-stare-mesto.html","351"
"9","Sportoviště","Tenisový kurt","https://www.firmy.cz/detail/13075143-tenisovy-kurt-telc-stepnice.html","2055"
"10","Obchod","MultiMarket Telč, spol. s r.o.","https://www.firmy.cz/detail/303554-multimarket-telc-telc-podoli.html","1024"
"11","Pošta","Pošta Telč - Česká pošta, s.p.","https://www.firmy.cz/detail/433168-posta-telc-telc-podoli.html","1164"
"12","Škola","ZŠ Telč, Masarykova 141","https://www.firmy.cz/detail/359666-zs-telc-masarykova-141-telc-podoli.html","1036"
"13","Bankomat","Bankomat České spořitelny","https://www.firmy.cz/detail/13238996-bankomat-ceske-sporitelny-telc-podoli.html","1024"
"14","Lékárna","Lékárna U Sv.Anny","https://www.firmy.cz/detail/659307-lekarna-u-sv-anny-telc-podoli.html","1080"
"15","Bus MHD","Telč, ČSAD rozc.","","273"
