"","facility_type","facility_name","facility_iri","facility_distance"
"0","Cukrárna","Pikolino","https://www.firmy.cz/detail/13271448-pikolino-jihlava.html","47"
"1","Kino","Kino Dukla","https://www.firmy.cz/detail/12792238-kino-dukla-jihlava.html","215"
"2","Přírodní zajímavost","Pístovské mokřady","","2959"
"3","Hřiště","Dětské hřiště U Brány","","84"
"4","Večerka","Levné potraviny - DKS Morava s.r.o.","https://www.firmy.cz/detail/13026425-levne-potraviny-dks-morava-s-r-o-jihlava.html","132"
"5","Hospoda","Hospoda pod věží","https://www.firmy.cz/detail/13141183-hospoda-pod-vezi-jihlava.html","63"
"6","Divadlo","Horácké divadlo Jihlava","https://www.firmy.cz/detail/396913-horacke-divadlo-jihlava-jihlava.html","308"
"7","Veterinář","Veterinární ordinace Jihlava - MVDr. Marcela Cecchinato","https://www.firmy.cz/detail/12871130-veterinarni-ordinace-jihlava-mvdr-marcela-cecchinato-jihlava.html","267"
"8","Škola","Gymnázium Jihlava","https://www.firmy.cz/detail/362295-gymnazium-jihlava-jihlava.html","266"
"9","Sportoviště","Kuželna Cháb","https://www.firmy.cz/detail/12886690-kuzelna-chab-jihlava.html","597"
"10","Bankomat","Bankomat České spořitelny","https://www.firmy.cz/detail/592930-bankomat-ceske-sporitelny-jihlava.html","11"
"11","Restaurace","Pizzeria-Ristorante Venezia","https://www.firmy.cz/detail/634860-pizzeria-ristorante-venezia-jihlava.html","13"
"12","Pošta","Pošta Jihlava 1 - Česká pošta, s.p.","https://www.firmy.cz/detail/215534-posta-jihlava-1-jihlava.html","214"
"13","Lékárna","Lékárna Tilia","https://www.firmy.cz/detail/658480-lekarna-tilia-jihlava.html","41"
"14","Lékař","MUDr. VOSÁHLOVÁ s.r.o.","https://www.firmy.cz/detail/13169378-mudr-vosahlova-s-r-o-jihlava.html","41"
"15","Obchod","PRIOR ČESKÁ REPUBLIKA s.r.o.","https://www.firmy.cz/detail/1956976-prior-ceska-republika-s-r-o-jihlava.html","265"
"16","Školka","Mateřská škola Zvoněnka, Dvořákova 11","https://www.firmy.cz/detail/1889501-materska-skola-zvonenka-dvorakova-11-jihlava.html","235"
"17","Vlak","Jihlava město","","957"
"18","Bus MHD","Hradební","","160"
