"","facility_type","facility_name","facility_iri","facility_distance"
"0","Cukrárna","Cukrárna Simona","https://www.firmy.cz/detail/234267-cukrarna-simona-praha-lhotka.html","187"
"1","Kino","AutoKino Ledárny","https://www.firmy.cz/detail/13312696-autokino-ledarny-praha.html","1954"
"2","Hřiště","Dětské hřiště Nad Koupadly","","198"
"3","Večerka","BILLA","https://www.firmy.cz/detail/212094-billa-praha-branik.html","242"
"4","Hospoda","Karel MLEJNEK","https://www.firmy.cz/detail/13136401-karel-mlejnek-praha-branik.html","1059"
"5","Divadlo","Loutkové divadlo Zvoneček","https://www.firmy.cz/detail/397112-loutkove-divadlo-zvonecek-praha-lhotka.html","187"
"6","Veterinář","Vitalii Havryliuk, Veterinární lékař","https://www.firmy.cz/detail/13192396-vitalii-havryliuk-veterinarni-lekar-praha-branik.html","0"
"7","Bus MHD","V Zátiší","","214"
"8","Obchod","OC Novo Plaza","https://www.firmy.cz/detail/2135100-oc-novo-plaza-praha-branik.html","243"
"9","Restaurace","Pizzeria La Bussola","https://www.firmy.cz/detail/12927828-pizzeria-la-bussola-praha-branik.html","123"
"10","Škola","ZŠ Filosofská s rozšířenou výukou jazyků - Základní škola s rozšířenou výukou jazyků, Praha 4, Filosofská 3","https://www.firmy.cz/detail/2145875-zs-filosofska-s-rozsirenou-vyukou-jazyku-praha-branik.html","136"
"11","Lékárna","BENU lékárna","https://www.firmy.cz/detail/13212827-benu-lekarna-praha-branik.html","216"
"12","Pošta","Pošta Praha 418 - Česká pošta, s.p.","https://www.firmy.cz/detail/431231-posta-praha-418-praha-lhotka.html","319"
"13","Školka","Dětská skupina Ježek","https://www.firmy.cz/detail/13191761-detska-skupina-jezek-praha-branik.html","216"
"14","Metro","Budějovická","","2519"
"15","Lékař","CODUM, s.r.o.","https://www.firmy.cz/detail/12841704-codum-praha-branik.html","146"
"16","Bankomat","Bankomat Fio banky","https://www.firmy.cz/detail/2678030-bankomat-fio-banky-praha-branik.html","246"
"17","Tram","Nádraží Braník","","1824"
"18","Vlak","Praha-Krč","","1550"
"19","Sportoviště","Biotop Lhotka","https://www.firmy.cz/detail/13160461-biotop-lhotka-praha.html","499"
