"","facility_type","facility_name","facility_iri","facility_distance"
"0","Cukrárna","Cukrárna Přílepy","https://www.firmy.cz/detail/13298704-cukrarna-prilepy-velke-prilepy.html","1718"
"1","Kino","Kino Velké Přílepy","https://www.firmy.cz/detail/12895760-kino-velke-prilepy-velke-prilepy.html","1700"
"2","Hřiště","Dětské hřiště Náves","","396"
"3","Večerka","Potraviny Lenka Kettnerová","https://www.firmy.cz/detail/2331291-potraviny-lenka-kettnerova-velke-prilepy.html","1514"
"4","Hospoda","Hostinec U Zámku","https://www.firmy.cz/detail/12997135-hostinec-u-zamku-uholicky.html","417"
"5","Divadlo","Loutkové divadélko Manetka","https://www.firmy.cz/detail/13228024-loutkove-divadelko-manetka-uholicky.html","447"
"6","Veterinář","MVDr. Eva Černochová","https://www.firmy.cz/detail/2138935-mvdr-eva-cernochova-statenice-cerny-vul.html","985"
"7","Bus MHD","Úholičky, Na Habří","","42"
"8","Lékař","MUDr. Lenka Fejfarová","https://www.firmy.cz/detail/13285056-mudr-lenka-fejfarova-uholicky.html","80"
"9","Restaurace","Restaurace Na statku","https://www.firmy.cz/detail/13143237-restaurace-na-statku-uholicky.html","385"
"10","Školka","MŠ Úholičky","https://www.firmy.cz/detail/13080055-ms-uholicky-uholicky.html","80"
"11","Vlak","Úholičky","","1785"
"12","Sportoviště","Sportovní centrum Markéta Wright","https://www.firmy.cz/detail/13194099-sportovni-centrum-marketa-wright-statenice-cerny-vul.html","1013"
"13","Lékárna","Lékárna Horoměřice","https://www.firmy.cz/detail/422550-lekarna-horomerice-horomerice.html","2888"
"14","Pošta","Pošta Velké Přílepy - Česká pošta, s.p.","https://www.firmy.cz/detail/217430-posta-velke-prilepy-velke-prilepy.html","1854"
"15","Škola","Základní škola Hnízdo v Úněticích","https://www.firmy.cz/detail/13047169-zakladni-skola-hnizdo-v-uneticich-unetice.html","1447"
"16","Bankomat","Bankomat ČSOB","https://www.firmy.cz/detail/12965674-bankomat-csob-velke-prilepy.html","1748"
"17","Obchod","POP Airport","https://www.firmy.cz/detail/13309037-pop-airport-tuchomerice.html","5246"
