"","facility_type","facility_name","facility_iri","facility_distance"
"0","Hřiště","Žlutá lentilka","https://mapy.cz/zakladni?x=14.506766930223874&y=50.14118685226475&z=17&source=base&id=2215953","114"
"1","Večerka","Žabka","https://www.firmy.cz/detail/12976629-zabka-praha-letnany.html","70"
"2","Hospoda","Pivnice Boleslavka","https://www.firmy.cz/detail/13302446-pivnice-boleslavka-praha-prosek.html","2177"
"3","Divadlo","Divadlo Pohádka","https://www.firmy.cz/detail/636143-divadlo-pohadka-praha-letnany.html","1503"
"4","Veterinář","Veterinární ordinace Svobodník","https://www.firmy.cz/detail/12879016-veterinarni-ordinace-svobodnik-praha-letnany.html","138"
"5","Cukrárna","Costa Coffee","https://www.firmy.cz/detail/2670656-costa-coffee-praha-letnany.html","489"
"6","Kino","Cinema City Letňany","https://www.firmy.cz/detail/2679833-cinema-city-letnany-praha-letnany.html","502"
"7","Lékárna","BELLIS, v.o.s.","https://www.firmy.cz/detail/375321-bellis-praha-letnany.html","110"
"8","Bus MHD","Poliklinika Frýdecká","https://mapy.cz/zakladni?x=14.508687378406936&y=50.138813656867086&z=17&source=pubt&id=15301761","184"
"9","Vlak","Praha-Čakovice","https://mapy.cz/zakladni?x=14.5193859204&y=50.1489307424&z=17&source=pubt&id=15212555","1285"
"10","Lékař","MUDr. Vladimír Kraus","https://www.firmy.cz/detail/2211569-mudr-vladimir-kraus-praha-letnany.html","62"
"11","Metro","Letňany","https://mapy.cz/zakladni?x=14.5157636082262&y=50.1256649022&z=17&source=pubt&id=15200285","1728"
"12","Bankomat","Bankomat MONETA Money Bank","https://www.firmy.cz/detail/13131540-bankomat-moneta-money-bank-praha-letnany.html","346"
"13","Škola","Základní škola Fryčovická","https://www.firmy.cz/detail/356261-zakladni-skola-frycovicka-praha-letnany.html","287"
"14","Pošta","Pošta Praha 99 - Česká pošta, s.p.","https://www.firmy.cz/detail/216695-posta-praha-99-praha-letnany.html","664"
"15","Tram","Sídliště Ďáblice","https://mapy.cz/zakladni?x=14.4797513603&y=50.1327561559&z=17&source=pubt&id=15304972","2144"
"16","Obchod","OC Letňany","https://www.firmy.cz/detail/13027865-oc-letnany-praha-letnany.html","617"
"17","Restaurace","Pizzeria Fresco","https://www.firmy.cz/detail/13030685-pizzeria-fresco-praha-letnany.html","70"
"18","Sportoviště","Sportovní hřiště Lentilka","https://mapy.cz/zakladni?x=14.5065352533&y=50.14067189&z=17&source=base&id=1927449","80"
"19","Školka","MŠ Místecká","https://www.firmy.cz/detail/13222708-ms-mistecka-praha-letnany.html","62"
