"","facility_type","facility_name","facility_iri","facility_distance"
"0","Cukrárna","Cukrárna Mocca","https://www.firmy.cz/detail/12947216-cukrarna-mocca-teplice.html","135"
"1","Přírodní zajímavost","Porcelanity u Strak","","3011"
"2","Kino","Multikino - Premiere Cinemas Teplice","https://www.firmy.cz/detail/12861055-multikino-premiere-cinemas-teplice-teplice.html","114"
"3","Hřiště","Dětské hřiště Zámecká zahrada","","632"
"4","Večerka","Lidl","https://www.firmy.cz/detail/13341158-lidl-teplice.html","95"
"5","Hospoda","Hospůdka Vyšehrad Teplice","https://www.firmy.cz/detail/13121903-hospudka-vysehrad-teplice-teplice.html","606"
"6","Veterinář","MVDr. Věra Hánová","https://www.firmy.cz/detail/2030919-mvdr-vera-hanova-teplice.html","570"
"7","Divadlo","Krušnohorské divadlo","https://www.firmy.cz/detail/435271-krusnohorske-divadlo-teplice.html","426"
"8","Bankomat","Bankomat Air Bank","https://www.firmy.cz/detail/12874345-bankomat-air-bank-teplice.html","115"
"9","Škola","Gymnázium Teplice","https://www.firmy.cz/detail/362446-gymnazium-teplice-teplice.html","174"
"10","Bus MHD","Teplice, Alejní","","31"
"11","Školka","MŠ Čtyřlístek Teplice","https://www.firmy.cz/detail/770536-ms-ctyrlistek-teplice-teplice.html","181"
"12","Lékař","MUDr. Petr Najman","https://www.firmy.cz/detail/12842554-mudr-petr-najman-teplice.html","330"
"13","Obchod","Galerie Teplice","https://www.firmy.cz/detail/12734057-galerie-teplice-teplice.html","132"
"14","Pošta","Pošta Teplice 1 - Česká pošta, s.p.","https://www.firmy.cz/detail/215426-posta-teplice-1-teplice.html","245"
"15","Vlak","Teplice zámecká zahrada","","854"
"16","Restaurace","Restaurace náměstí Svobody 	3316","https://www.firmy.cz/detail/13149707-restaurace-namesti-svobody-3316-teplice.html","132"
"17","Sportoviště","Lanový park Teplice","https://www.firmy.cz/detail/13199196-lanovy-park-teplice-teplice.html","143"
"18","Lékárna","Dr.Max LÉKÁRNA","https://www.firmy.cz/detail/13280004-dr-max-lekarna-teplice.html","119"
