"","facility_type","facility_name","facility_iri","facility_distance"
"0","Cukrárna","Cukrárna Mocca","https://www.firmy.cz/detail/12947216-cukrarna-mocca-teplice.html","341"
"1","Kino","Multikino - Premiere Cinemas Teplice","https://www.firmy.cz/detail/12861055-multikino-premiere-cinemas-teplice-teplice.html","546"
"2","Hřiště","Dětské hřiště Zrenjaninská","","818"
"3","Přírodní zajímavost","Porcelanity u Strak","","2797"
"4","Večerka","Potraviny U Soudu","https://www.firmy.cz/detail/13060200-potraviny-u-soudu-teplice.html","300"
"5","Hospoda","Hospůdka Vyšehrad Teplice","https://www.firmy.cz/detail/13121903-hospudka-vysehrad-teplice-teplice.html","958"
"6","Divadlo","Krušnohorské divadlo","https://www.firmy.cz/detail/435271-krusnohorske-divadlo-teplice.html","869"
"7","Veterinář","MVDr. Věra Hánová","https://www.firmy.cz/detail/2030919-mvdr-vera-hanova-teplice.html","127"
"8","Bankomat","Bankomat MONETA Money Bank","https://www.firmy.cz/detail/13219782-bankomat-moneta-money-bank-teplice.html","278"
"9","Lékař","MUDr. Julie Rauchová","https://www.firmy.cz/detail/2453678-mudr-julie-rauchova-teplice.html","236"
"10","Obchod","Kaufland","https://www.firmy.cz/detail/13187779-kaufland-teplice.html","317"
"11","Lékárna","Lékárna U Soudu","https://www.firmy.cz/detail/422381-lekarna-u-soudu-teplice.html","236"
"12","Sportoviště","Sportovní hala Teplice","https://www.firmy.cz/detail/13091752-sportovni-hala-teplice-teplice.html","296"
"13","Škola","ZŠ s rozšířenou výukou tělesné výchovy, Teplice, Maxe Švabinského","https://www.firmy.cz/detail/359674-zs-s-rozsirenou-vyukou-telesne-vychovy-teplice-maxe-svabinskeho-teplice.html","164"
"14","Pošta","Pošta Teplice 1 - Česká pošta, s.p.","https://www.firmy.cz/detail/215426-posta-teplice-1-teplice.html","611"
"15","Vlak","Teplice zámecká zahrada","","494"
"16","Restaurace","Mariánský dvůr","https://www.firmy.cz/detail/324381-mariansky-dvur-teplice.html","168"
"17","Školka","MŠ Kaštánek, Teplice","https://www.firmy.cz/detail/2273064-ms-kastanek-teplice-teplice.html","270"
"18","Bus MHD","Teplice, Mariánský dvůr","","187"
