"","facility_type","facility_name","facility_iri","facility_distance"
"0","Cukrárna","Cukrárna Crystal","https://www.firmy.cz/detail/13272890-cukrarna-crystal-plzen-jizni-predmesti.html","386"
"1","Kino","Kino Beseda","https://www.firmy.cz/detail/12773769-kino-beseda-plzen-jizni-predmesti.html","1150"
"2","Hřiště","Dětské hřiště Přeštická","","272"
"3","Večerka","Můjobchod - Potraviny Bezovka","https://www.firmy.cz/detail/12997759-mujobchod-potraviny-bezovka-plzen-jizni-predmesti.html","263"
"4","Divadlo","Divadlo pod lampou, o.p.s.","https://www.firmy.cz/detail/2418226-divadlo-pod-lampou-plzen-jizni-predmesti.html","557"
"5","Hospoda","Pivnice U Korbele","https://www.firmy.cz/detail/13123461-pivnice-u-korbele-plzen-jizni-predmesti.html","143"
"6","Veterinář","Psí salón BELLA","https://www.firmy.cz/detail/12759736-psi-salon-bella-plzen-jizni-predmesti.html","537"
"7","Sportoviště","Orel župa Kozinova","https://www.firmy.cz/detail/2294006-orel-zupa-kozinova-plzen-jizni-predmesti.html","159"
"8","Vlak","Plzeň zastávka","","285"
"9","Lékárna","Lékárna FN Plzeň Bory","https://www.firmy.cz/detail/13296501-lekarna-fn-plzen-bory-plzen-jizni-predmesti.html","134"
"10","Lékař","Praktik Bory s.r.o.","https://www.firmy.cz/detail/13290678-praktik-bory-s-r-o-plzen-jizni-predmesti.html","209"
"11","Škola","10. ZŠ Plzeň","https://www.firmy.cz/detail/356113-10-zs-plzen-plzen-jizni-predmesti.html","225"
"12","Pošta","Pošta Plzeň 13 - Česká pošta, s.p.","https://www.firmy.cz/detail/216649-posta-plzen-13-plzen-jizni-predmesti.html","263"
"13","Bankomat","Bankomat České spořitelny","https://www.firmy.cz/detail/593961-bankomat-ceske-sporitelny-plzen-jizni-predmesti.html","160"
"14","Restaurace","Restaurace U Čížků","https://www.firmy.cz/detail/13309823-restaurace-u-cizku-plzen-jizni-predmesti.html","55"
"15","Tram","Dobrovského","","235"
"16","Obchod","Kaufland","https://www.firmy.cz/detail/2616232-kaufland-plzen-jizni-predmesti.html","1060"
"17","Školka","22. MŠ Plzeň","https://www.firmy.cz/detail/1893120-22-ms-plzen-plzen-jizni-predmesti.html","324"
"18","Bus MHD","Dobrovského","","175"
