"","facility_type","facility_name","facility_iri","facility_distance"
"0","Cukrárna","Cukrárna Amarilis","https://www.firmy.cz/detail/2570922-cukrarna-amarilis-praha-haje.html","490"
"1","Kino","Multikino - Premiere Cinemas Praha Hostivař","https://www.firmy.cz/detail/12745547-multikino-premiere-cinemas-praha-hostivar-praha-hostivar.html","2890"
"2","Přírodní zajímavost","Mokřad Triangl","","3734"
"3","Hřiště","Dětské hřiště Hlavatého","","81"
"4","Večerka","MOVA Market Háje, s.r.o.","https://www.firmy.cz/detail/13295486-mova-market-haje-praha-haje.html","78"
"5","Hospoda","Hospoda Severka","https://www.firmy.cz/detail/13240896-hospoda-severka-praha-chodov.html","1048"
"6","Divadlo","SKAZKA, spol. s r.o.","https://www.firmy.cz/detail/2048564-skazka-praha-hostivar.html","2026"
"7","Veterinář","Gabriela Povýšilová","https://www.firmy.cz/detail/2636914-gabriela-povysilova-praha-haje.html","728"
"8","Škola","ZUŠ Jižní Město, Praha 4, Křtinská","https://www.firmy.cz/detail/427088-zus-jizni-mesto-praha-4-krtinska-praha-haje.html","88"
"9","Bankomat","Bankomat Fio banky","https://www.firmy.cz/detail/12979081-bankomat-fio-banky-praha-haje.html","245"
"10","Obchod","Obchodní centrum Háje","https://www.firmy.cz/detail/13272506-obchodni-centrum-haje-praha-haje.html","471"
"11","Sportoviště","Tenisová škola TALLENT","https://www.firmy.cz/detail/722757-tenisova-skola-tallent-praha-haje.html","177"
"12","Restaurace","Branimir Opačak","https://www.firmy.cz/detail/13113567-branimir-opacak-praha-haje.html","78"
"13","Tram","Hostivařská","","2587"
"14","Lékárna","Lékárna Pharmacentrum Háje","https://www.firmy.cz/detail/13320550-lekarna-pharmacentrum-haje-praha-haje.html","469"
"15","Školka","MŠ Praha 4, K Milíčovu","https://www.firmy.cz/detail/12731538-ms-praha-4-k-milicovu-praha-haje.html","177"
"16","Metro","Háje","","501"
"17","Lékař","Palas Athena","https://www.firmy.cz/detail/658283-palas-athena-praha-haje.html","454"
"18","Pošta","Pošta Praha 419 - Česká pošta, s.p.","https://www.firmy.cz/detail/217471-posta-praha-419-praha-haje.html","270"
"19","Bus MHD","Horčičkova","","258"
"20","Vlak","Praha-Hostivař","","2840"
