"","facility_type","facility_name","facility_iri","facility_distance"
"0","Cukrárna","Cukrárna Osek","https://www.firmy.cz/detail/13325911-cukrarna-osek-osek-nad-becvou.html","3886"
"1","Kino","Kino Hvězda","https://www.firmy.cz/detail/13025002-kino-hvezda-prerov-i-mesto.html","5060"
"2","Hřiště","Dětské hřiště Sportovní","","509"
"3","Večerka","COOP","https://www.firmy.cz/detail/12857984-coop-radslavice.html","91"
"4","Hospoda","Pohostinství Na Koupališti","https://www.firmy.cz/detail/13122542-pohostinstvi-na-koupalisti-radslavice.html","551"
"5","Veterinář","MVDr. Miloslava Lakomá","https://www.firmy.cz/detail/1961255-mvdr-miloslava-lakoma-prosenice.html","2751"
"6","Bus MHD","Radslavice, náves","","205"
"7","Lékárna","Repharm, a.s.","https://www.firmy.cz/detail/13223968-repharm-prerov-i-mesto.html","3611"
"8","Sportoviště","SK Radslavice, z.s.","https://www.firmy.cz/detail/13080606-sk-radslavice-z-s-radslavice.html","748"
"9","Lékař","MUDr. Lubomír Kremzer, s.r.o.","https://www.firmy.cz/detail/13294971-mudr-lubomir-kremzer-radslavice.html","205"
"10","Obchod","Kaufland","https://www.firmy.cz/detail/13100840-kaufland-prerov-i-mesto.html","4199"
"11","Pošta","Pošta Radslavice - Česká pošta, s.p.","https://www.firmy.cz/detail/431469-posta-radslavice-radslavice.html","205"
"12","Bankomat","Bankomat ČSOB","https://www.firmy.cz/detail/599288-bankomat-csob-prerov-i-mesto.html","3620"
"13","Škola","ZŠ a Slaměníkova MŠ Radslavice","https://www.firmy.cz/detail/359142-zs-a-slamenikova-ms-radslavice-radslavice.html","431"
"14","Restaurace","Restaurace - areál sportu Kozlovice","https://www.firmy.cz/detail/12969266-restaurace-areal-sportu-kozlovice-prerov-iv-kozlovice.html","2112"
"15","Školka","ZŠ a Slaměníkova MŠ Radslavice","https://www.firmy.cz/detail/2497486-zs-a-slamenikova-ms-radslavice-radslavice.html","579"
"16","Vlak","Prosenice","","3596"
