"","facility_type","facility_name","facility_iri","facility_distance"
"0","Cukrárna","Cukrárna Dolce Vita","https://www.firmy.cz/detail/13016450-cukrarna-dolce-vita-kladno.html","239"
"1","Kino","Kino Sokol Kladno","https://www.firmy.cz/detail/13179300-kino-sokol-kladno-kladno.html","29"
"2","Hřiště","Dětské hřiště Zádušní","","323"
"3","Přírodní zajímavost","Vodní park Čabárna","","4910"
"4","Večerka","Řeznictví a uzenářství Masné krámy","https://www.firmy.cz/detail/2603913-reznictvi-a-uzenarstvi-masne-kramy-kladno.html","72"
"5","Divadlo","Loutkové divadlo Lampion","https://www.firmy.cz/detail/733471-loutkove-divadlo-lampion-kladno.html","489"
"6","Hospoda","Pivnice Sparta","https://www.firmy.cz/detail/13117004-pivnice-sparta-kladno.html","465"
"7","Veterinář","Veterinární ordinace ANEŽKA","https://www.firmy.cz/detail/13013573-veterinarni-ordinace-anezka-kladno.html","362"
"8","Lékárna","Lékárna Centrum","https://www.firmy.cz/detail/189597-lekarna-centrum-kladno.html","62"
"9","Škola","ZŠ Kladno, Vašatova","https://www.firmy.cz/detail/357653-zs-kladno-vasatova-kladno.html","90"
"10","Restaurace","Restaurace Brick House","https://www.firmy.cz/detail/13298180-restaurace-brick-house-kladno.html","73"
"11","Vlak","Kladno-Ostrovec","","665"
"12","Pošta","Pošta Kladno 5 - Česká pošta, s.p.","https://www.firmy.cz/detail/216835-posta-kladno-5-kladno.html","67"
"13","Sportoviště","Diamond Angels Academy","https://www.firmy.cz/detail/12740434-diamond-angels-academy-kladno.html","176"
"14","Lékař","LENIPELI s.r.o.","https://www.firmy.cz/detail/12835771-lenipeli-s-r-o-kladno.html","140"
"15","Bus MHD","Kladno, Nám. Svobody","","77"
"16","Bankomat","Bankomat Komerční banky","https://www.firmy.cz/detail/596125-bankomat-komercni-banky-kladno.html","62"
"17","Školka","MALÍČKOV s.r.o. - Soukromá anglická školka a jesle","https://www.firmy.cz/detail/2693321-malickov-s-r-o-soukroma-anglicka-skolka-a-jesle-kladno.html","633"
"18","Obchod","Central Kladno","https://www.firmy.cz/detail/12966933-central-kladno-kladno.html","605"
