"","facility_type","facility_name","facility_iri","facility_distance"
"0","Cukrárna","Martin café","https://www.firmy.cz/detail/13289128-martin-cafe-novy-jicin.html","463"
"1","Kino","Kino Květen","https://www.firmy.cz/detail/12971159-kino-kveten-novy-jicin.html","634"
"2","Přírodní zajímavost","Pikritový lom u Straníku","","5149"
"3","Hřiště","Hřiště Bezručova","","117"
"4","Večerka","HRUŠKA - Potraviny  PLUS","https://www.firmy.cz/detail/2565601-hruska-potraviny-plus-novy-jicin.html","128"
"5","Hospoda","Hostinec Pomněnka","https://www.firmy.cz/detail/324450-hostinec-pomnenka-novy-jicin.html","426"
"6","Divadlo","Beskydské divadlo","https://www.firmy.cz/detail/643853-beskydske-divadlo-novy-jicin.html","750"
"7","Veterinář","EuroBioMa, spol. s r.o. Nový Jičín.","https://www.firmy.cz/detail/445451-eurobioma-spol-s-r-o-novy-jicin-novy-jicin.html","304"
"8","Restaurace","King pizza","https://www.firmy.cz/detail/13236512-king-pizza-novy-jicin.html","248"
"9","Lékárna","Mendelova lékárna s.r.o.","https://www.firmy.cz/detail/659698-mendelova-lekarna-s-r-o-novy-jicin.html","291"
"10","Sportoviště","Tělovýchovná jednota Nový Jičín","https://www.firmy.cz/detail/13077440-telovychovna-jednota-novy-jicin-novy-jicin.html","1002"
"11","Škola","ZŠ speciální Nový Jičín","https://www.firmy.cz/detail/13064493-zs-specialni-novy-jicin-novy-jicin.html","201"
"12","Obchod","Albert Hypermarket","https://www.firmy.cz/detail/12920931-albert-hypermarket-novy-jicin.html","699"
"13","Vlak","Nový Jičín město","","811"
"14","Pošta","Pošta Nový Jičín 1 - Česká pošta, s.p.","https://www.firmy.cz/detail/433606-posta-novy-jicin-1-novy-jicin.html","454"
"15","Bankomat","Bankomat MONETA Money Bank","https://www.firmy.cz/detail/603443-bankomat-moneta-money-bank-novy-jicin.html","466"
"16","Lékař","Mich Med, s.r.o.","https://www.firmy.cz/detail/12863018-mich-med-novy-jicin.html","216"
"17","Školka","MŠ Trojlístek, Nový Jičín - Máchova","https://www.firmy.cz/detail/2292443-ms-trojlistek-novy-jicin-machova-novy-jicin.html","105"
"18","Bus MHD","Nový Jičín, Bezručova","","69"
