"","facility_type","facility_name","facility_iri","facility_distance"
"0","Cukrárna","Kafé Nejenpro","https://www.firmy.cz/detail/13208266-kafe-nejenpro-ostrava-poruba.html","335"
"1","Kino","Retrostar kino Polanka","https://www.firmy.cz/detail/12892972-retrostar-kino-polanka-ostrava-polanka-nad-odrou.html","4522"
"2","Přírodní zajímavost","Polanský bludný balvan","","4546"
"3","Hřiště","Dětské hřiště Matěje Kopeckého","","227"
"4","Večerka","HRUŠKA","https://www.firmy.cz/detail/12820398-hruska-ostrava-poruba.html","287"
"5","Hospoda","HOSPODA NA JEDNO","https://www.firmy.cz/detail/12927042-hospoda-na-jedno-ostrava-poruba.html","52"
"6","Divadlo","Porubské divadlo","https://www.firmy.cz/detail/2543038-porubske-divadlo-ostrava-poruba.html","1973"
"7","Veterinář","Veterinární klinika Yorika","https://www.firmy.cz/detail/712067-veterinarni-klinika-yorika-ostrava-poruba.html","174"
"8","Restaurace","Jack's Burger Bar","https://www.firmy.cz/detail/13101990-jack-s-burger-bar-ostrava-poruba.html","83"
"9","Tram","Hlavní třída","","330"
"10","Pošta","Pošta Ostrava 33 - Česká pošta, s.p.","https://www.firmy.cz/detail/433341-posta-ostrava-33-ostrava-poruba.html","308"
"11","Lékárna","BENU Lékárna","https://www.firmy.cz/detail/13292553-benu-lekarna-ostrava-poruba.html","199"
"12","Bus MHD","Poruba, Alšovo náměstí","","75"
"13","Školka","MŠ Čtyřlístek, Ostrava-Poruba","https://www.firmy.cz/detail/12738465-ms-ctyrlistek-ostrava-poruba-ostrava-poruba.html","307"
"14","Lékař","Ambulance Věžičky","https://www.firmy.cz/detail/12805989-ambulance-vezicky-ostrava-poruba.html","353"
"15","Sportoviště","Sportovní a rekreační zařízení města Ostravy","https://www.firmy.cz/detail/423310-sportovni-a-rekreacni-zarizeni-mesta-ostravy-ostrava-poruba.html","553"
"16","Škola","ZŠ Ostrava-Poruba, Komenského","https://www.firmy.cz/detail/358706-zs-ostrava-poruba-komenskeho-ostrava-poruba.html","361"
"17","Bankomat","Bankomat UniCredit Bank Czech Republic","https://www.firmy.cz/detail/1964670-bankomat-unicredit-bank-czech-republic-ostrava-poruba.html","70"
"18","Obchod","REKTOR, s.r.o.","https://www.firmy.cz/detail/12978812-rektor-ostrava-poruba.html","1143"
"19","Vlak","Ostrava-Třebovice","","2452"
