"","facility_type","facility_name","facility_iri","facility_distance"
"0","Cukrárna","Cukrárna Amarena","https://www.firmy.cz/detail/12939985-cukrarna-amarena-praha-letnany.html","852"
"1","Kino","Cinema City Letňany","https://www.firmy.cz/detail/2679833-cinema-city-letnany-praha-letnany.html","1082"
"2","Přírodní zajímavost","Meandry Rokytky","","3911"
"3","Hřiště","Dětské hřiště Makedonská","","102"
"4","Večerka","Potraviny Jitka Špinková","https://www.firmy.cz/detail/2333101-potraviny-jitka-spinkova-praha-strizkov.html","188"
"5","Hospoda","Pivnice Boleslavka","https://www.firmy.cz/detail/13302446-pivnice-boleslavka-praha-prosek.html","681"
"6","Divadlo","Divadlo Pohádka","https://www.firmy.cz/detail/636143-divadlo-pohadka-praha-letnany.html","699"
"7","Veterinář","Veterinární výjezdová služba - MVDr. Iveta Lubeníková","https://www.firmy.cz/detail/177908-veterinarni-vyjezdova-sluzba-mvdr-iveta-lubenikova-praha-strizkov.html","448"
"8","Lékárna","Lékárna Prosek","https://www.firmy.cz/detail/12773344-lekarna-prosek-praha-strizkov.html","188"
"9","Škola","ZŠ Praha 9, Novoborská","https://www.firmy.cz/detail/401423-zs-praha-9-novoborska-praha-strizkov.html","451"
"10","Obchod","Kaufland","https://www.firmy.cz/detail/1457859-kaufland-praha-liben.html","779"
"11","Pošta","Pošta Praha 9 - Česká pošta, s.p.","https://www.firmy.cz/detail/216700-posta-praha-9-praha-strizkov.html","762"
"12","Tram","Třebenická","","823"
"13","Vlak","Praha-Vysočany","","1970"
"14","Bankomat","Bankomat UniCredit Bank Czech Republic","https://www.firmy.cz/detail/12987156-bankomat-unicredit-bank-czech-republic-praha-strizkov.html","188"
"15","Metro","Střížkov","","423"
"16","Lékař","MUDr. Jana Jourová","https://www.firmy.cz/detail/387866-mudr-jana-jourova-praha-strizkov.html","188"
"17","Restaurace","Pizza Gusto Giusto s.r.o.","https://www.firmy.cz/detail/13259587-pizza-gusto-giusto-s-r-o-praha-strizkov.html","501"
"18","Bus MHD","Poliklinika Prosek","","169"
"19","Školka","Mateřská škola Šluknovská","https://www.firmy.cz/detail/12807736-materska-skola-sluknovska-praha.html","290"
"20","Sportoviště","BOHEMIANS PRAHA","https://www.firmy.cz/detail/2652487-bohemians-praha-praha-letnany.html","493"
