"","facility_type","facility_name","facility_iri","facility_distance"
"0","Cukrárna","Slivkafé Karviná","https://www.firmy.cz/detail/12968138-slivkafe-karvina-karvina-mizerov.html","1066"
"1","Kino","Filmový klub Karviná","https://www.firmy.cz/detail/664777-filmovy-klub-karvina-karvina-mizerov.html","1066"
"2","Hřiště","Dětské hřiště Školská","","216"
"3","Večerka","Lidl","https://www.firmy.cz/detail/1955432-lidl-karvina-raj.html","365"
"4","Hospoda","Hospůdka Na Pokroku","https://www.firmy.cz/detail/13108960-hospudka-na-pokroku-karvina-raj.html","389"
"5","Veterinář","VET ANIMALS HELP, s.r.o.","https://www.firmy.cz/detail/1954789-vet-animals-help-karvina-raj.html","127"
"6","Bus MHD","Karviná, Ráj, sídliště","","161"
"7","Lékař","MUDr. Dorota Lacinová","https://www.firmy.cz/detail/12777042-mudr-dorota-lacinova-karvina-raj.html","357"
"8","Restaurace","Restaurace Ovečka","https://www.firmy.cz/detail/12973771-restaurace-ovecka-karvina-raj.html","464"
"9","Školka","ZŠ a MŠ U Lesa, Karviná","https://www.firmy.cz/detail/12978132-zs-a-ms-u-lesa-karvina-karvina-raj.html","471"
"10","Pošta","Pošta Karviná 9 - Česká pošta, s.p.","https://www.firmy.cz/detail/2378879-posta-karvina-9-karvina-raj.html","377"
"11","Lékárna","Dr. Max LÉKÁRNA","https://www.firmy.cz/detail/12856713-dr-max-lekarna-karvina-raj.html","377"
"12","Bankomat","Bankomat České spořitelny","https://www.firmy.cz/detail/2290018-bankomat-ceske-sporitelny-karvina-raj.html","242"
"13","Škola","Základní škola a Mateřská škola Školská, Karviná, příspěvková organizace","https://www.firmy.cz/detail/357631-zakladni-skola-a-materska-skola-skolska-karvina-prispevkova-organizace-karvina-raj.html","143"
"14","Vlak","Karviná hlavní nádraží","","2481"
"15","Sportoviště","Oldřich Gavenda","https://www.firmy.cz/detail/2430870-oldrich-gavenda-karvina-raj.html","199"
"16","Obchod","Tesco","https://www.firmy.cz/detail/649019-tesco-karvina-raj.html","406"
