"","facility_type","facility_name","facility_iri","facility_distance"
"0","Cukrárna","Čokoládovna ČO-XO","https://www.firmy.cz/detail/12709444-cokoladovna-co-xo-praha-holesovice.html","74"
"1","Hřiště","Dětské hřiště MŠ Janovského","","148"
"2","Kino","Bio Oko","https://www.firmy.cz/detail/2586117-bio-oko-praha-holesovice.html","444"
"3","Večerka","Albert Supermarket","https://www.firmy.cz/detail/229747-albert-supermarket-praha-holesovice.html","15"
"4","Hospoda","Pivnice U Pivoje","https://www.firmy.cz/detail/2231875-pivnice-u-pivoje-praha-holesovice.html","502"
"5","Divadlo","Divadlo Radar","https://www.firmy.cz/detail/397234-divadlo-radar-praha-holesovice.html","332"
"6","Veterinář","Klinika Livet","https://www.firmy.cz/detail/1359507-klinika-livet-praha-holesovice.html","203"
"7","Škola","ZUŠ Praha 7, Šimáčkova","https://www.firmy.cz/detail/427130-zus-praha-7-simackova-praha-holesovice.html","89"
"8","Lékař","MUDr. Marcela Šajnerová","https://www.firmy.cz/detail/390542-mudr-marcela-sajnerova-praha-holesovice.html","36"
"9","Pošta","Pošta Praha 74 - Česká pošta, s.p.","https://www.firmy.cz/detail/431348-posta-praha-74-praha-holesovice.html","771"
"10","Školka","MŠ Praha 7, Janovského","https://www.firmy.cz/detail/207715-ms-praha-7-janovskeho-praha-holesovice.html","208"
"11","Restaurace","Stejkárna","https://www.firmy.cz/detail/2593375-stejkarna-praha-holesovice.html","106"
"12","Sportoviště","Bowling RADAVA","https://www.firmy.cz/detail/13032274-bowling-radava-praha-holesovice.html","577"
"13","Obchod","Bílá labuť","https://www.firmy.cz/detail/221990-bila-labut-praha-nove-mesto.html","1385"
"14","Metro","Vltavská","","456"
"15","Tram","Veletržní palác","","155"
"16","Vlak","Praha-Bubny","","299"
"17","Bankomat","Bankomat Oberbank AG","https://www.firmy.cz/detail/12719168-bankomat-oberbank-ag-praha-holesovice.html","226"
"18","Bus MHD","Řezáčovo náměstí","","272"
"19","Lékárna","Lékárna Lékařský dům","https://www.firmy.cz/detail/376974-lekarna-lekarsky-dum-praha-holesovice.html","171"
