"","facility_type","facility_name","facility_iri","facility_distance"
"0","Cukrárna","Sušenkárna","https://www.firmy.cz/detail/13273595-susenkarna-plzen-jizni-predmesti.html","516"
"1","Kino","Kino Beseda","https://www.firmy.cz/detail/12773769-kino-beseda-plzen-jizni-predmesti.html","875"
"2","Hřiště","Dětské hřiště Korandova","","311"
"3","Večerka","Můjobchod - Potraviny Skrétova","https://www.firmy.cz/detail/12997766-mujobchod-potraviny-skretova-plzen-jizni-predmesti.html","223"
"4","Hospoda","Hospůdka V Bendovce","https://www.firmy.cz/detail/13179013-hospudka-v-bendovce-plzen-jizni-predmesti.html","128"
"5","Divadlo","Divadlo pod lampou, o.p.s.","https://www.firmy.cz/detail/2418226-divadlo-pod-lampou-plzen-jizni-predmesti.html","405"
"6","Veterinář","Medicus veterinarius, s.r.o.","https://www.firmy.cz/detail/1908178-medicus-veterinarius-plzen-jizni-predmesti.html","455"
"7","Školka","16. MŠ Plzeň, Korandova","https://www.firmy.cz/detail/360410-16-ms-plzen-korandova-plzen-jizni-predmesti.html","311"
"8","Tram","Masarykovo náměstí","","422"
"9","Bus MHD","Jižní Předměstí","","114"
"10","Restaurace","Restaurace Zlatá Koruna","https://www.firmy.cz/detail/13210456-restaurace-zlata-koruna-plzen-jizni-predmesti.html","96"
"11","Škola","Střední odborná škola obchodu, užitého umění a designu, Plzeň","https://www.firmy.cz/detail/360809-stredni-odborna-skola-obchodu-uziteho-umeni-a-designu-plzen-plzen-jizni-predmesti.html","143"
"12","Sportoviště","Tenisová škola TALLENT","https://www.firmy.cz/detail/722814-tenisova-skola-tallent-plzen-jizni-predmesti.html","557"
"13","Obchod","Obchodní centrum Plzeň Plaza","https://www.firmy.cz/detail/13089722-obchodni-centrum-plzen-plaza-plzen-jizni-predmesti.html","981"
"14","Lékař","MUDr. Miloš Krupička","https://www.firmy.cz/detail/368426-mudr-milos-krupicka-plzen-jizni-predmesti.html","241"
"15","Lékárna","Lékárna BENU Plzeň","https://www.firmy.cz/detail/13204060-lekarna-benu-plzen-plzen-jizni-predmesti.html","241"
"16","Vlak","Plzeň-Jižní Předměstí","","180"
"17","Bankomat","Bankomat České spořitelny","https://www.firmy.cz/detail/594021-bankomat-ceske-sporitelny-plzen-jizni-predmesti.html","459"
"18","Pošta","Pošta Plzeň 4 - Česká pošta, s.p.","https://www.firmy.cz/detail/216658-posta-plzen-4-plzen-jizni-predmesti.html","753"
