"","facility_type","facility_name","facility_iri","facility_distance"
"0","Cukrárna","Pall a Chinky","https://www.firmy.cz/detail/12918492-pall-a-chinky-prostejov.html","921"
"1","Kino","Kino Metro 70","https://www.firmy.cz/detail/13118959-kino-metro-70-prostejov.html","1359"
"2","Hřiště","Dětské hřiště Šárka","","218"
"3","Večerka","Adam potraviny","https://www.firmy.cz/detail/12785773-adam-potraviny-prostejov.html","127"
"4","Divadlo","Divadlo Point","https://www.firmy.cz/detail/13207554-divadlo-point-prostejov.html","195"
"5","Hospoda","Peter's pub","https://www.firmy.cz/detail/13012429-peter-s-pub-prostejov.html","303"
"6","Veterinář","Veterinární klinika Veterix","https://www.firmy.cz/detail/2113245-veterinarni-klinika-veterix-prostejov.html","526"
"7","Bus MHD","Prostějov, Dolní FTL","","209"
"8","Lékárna","Lékárna Šárka","https://www.firmy.cz/detail/12804229-lekarna-sarka-prostejov.html","448"
"9","Sportoviště","Sokolská Župa Prostějovská","https://www.firmy.cz/detail/403953-sokolska-zupa-prostejovska-prostejov.html","815"
"10","Škola","ART ECON - Vyšší odborná škola, s.r.o.","https://www.firmy.cz/detail/361656-art-econ-vyssi-odborna-skola-s-r-o-prostejov.html","195"
"11","Obchod","Kaufland","https://www.firmy.cz/detail/1532041-kaufland-prostejov.html","912"
"12","Bankomat","Bankomat Komerční banky","https://www.firmy.cz/detail/594338-bankomat-komercni-banky-prostejov.html","496"
"13","Vlak","Prostějov hlavní nádraží","","509"
"14","Pošta","Pošta Prostějov 8 - Česká pošta, s.p.","https://www.firmy.cz/detail/431301-posta-prostejov-8-prostejov.html","585"
"15","Lékař","Prostějovská preventivní, s.r.o.","https://www.firmy.cz/detail/13103975-prostejovska-preventivni-prostejov.html","269"
"16","Školka","ZŠ a MŠ Prostějov, Kollárova ul. 4","https://www.firmy.cz/detail/725164-zs-a-ms-prostejov-kollarova-ul-4-prostejov.html","121"
"17","Restaurace","Pizza La Putica","https://www.firmy.cz/detail/2679160-pizza-la-putica-prostejov.html","376"
