"","facility_type","facility_name","facility_iri","facility_distance"
"0","Cukrárna","FoxCoffee","https://www.firmy.cz/detail/13139048-foxcoffee-opava-mesto.html","99"
"1","Kino","Kino Mír","https://www.firmy.cz/detail/2297240-kino-mir-opava-mesto.html","121"
"2","Přírodní zajímavost","Bludný balvan","","374"
"3","Hřiště","Dětské hřiště Popská","","176"
"4","Večerka","TEMPO, obchodní družstvo","https://www.firmy.cz/detail/752246-tempo-obchodni-druzstvo-opava-mesto.html","76"
"5","Hospoda","Pivnice Admirál","https://www.firmy.cz/detail/13120505-pivnice-admiral-opava-mesto.html","190"
"6","Divadlo","Slezské divadlo Opava","https://www.firmy.cz/detail/230941-slezske-divadlo-opava-opava-mesto.html","78"
"7","Veterinář","MVDr. Lenka Bořecká","https://www.firmy.cz/detail/2660210-mvdr-lenka-borecka-opava-mesto.html","271"
"8","Lékař","MUDr. Ludmila Opatřilová","https://www.firmy.cz/detail/385758-mudr-ludmila-opatrilova-opava-mesto.html","267"
"9","Sportoviště","Orel jednota Opava","https://www.firmy.cz/detail/1962759-orel-jednota-opava-opava-mesto.html","101"
"10","Obchod","OC Breda & Weinstein","https://www.firmy.cz/detail/12735258-oc-breda-weinstein-opava-mesto.html","290"
"11","Vlak","Opava východ","","657"
"12","Restaurace","RYBA DO RUKY","https://www.firmy.cz/detail/13327994-ryba-do-ruky-opava-mesto.html","79"
"13","Bankomat","Bankomat Equa bank","https://www.firmy.cz/detail/13237599-bankomat-equa-bank-opava-mesto.html","74"
"14","Škola","ZUŠ Opava - výtvarný obor","https://www.firmy.cz/detail/427778-zus-opava-vytvarny-obor-opava-mesto.html","179"
"15","Školka","MŠ křesťanská Opava","https://www.firmy.cz/detail/623318-ms-krestanska-opava-opava-mesto.html","120"
"16","Lékárna","BENU Lékárna U Divadla","https://www.firmy.cz/detail/461205-benu-lekarna-u-divadla-opava-mesto.html","43"
"17","Pošta","Pošta Opava 1 - Česká pošta, s.p.","https://www.firmy.cz/detail/432548-posta-opava-1-opava-mesto.html","327"
"18","Bus MHD","Opava, Divadlo","","139"
