"","facility_type","facility_name","facility_iri","facility_distance"
"0","Cukrárna","Cukrárna Lucius","https://www.firmy.cz/detail/12889475-cukrarna-lucius-syrovice.html","4137"
"1","Přírodní zajímavost","Mokřady Na Dolinách","","1321"
"2","Hřiště","Dětské hřiště u Štikovce","","493"
"3","Večerka","Smíšené zboží U rybníka","https://www.firmy.cz/detail/12711131-smisene-zbozi-u-rybnika-orechov.html","781"
"4","Hospoda","Obecní hospoda Ořechov","https://www.firmy.cz/detail/13198200-obecni-hospoda-orechov-orechov.html","304"
"5","Veterinář","MVDr. Veronika Fajtová","https://www.firmy.cz/detail/12936793-mvdr-veronika-fajtova-orechov.html","1143"
"6","Pošta","Pošta Ořechov u Brna - Česká pošta, s.p.","https://www.firmy.cz/detail/216071-posta-orechov-u-brna-orechov.html","452"
"7","Lékárna","Lékárna EUPHRASIA s.r.o.","https://www.firmy.cz/detail/2589146-lekarna-euphrasia-s-r-o-orechov.html","946"
"8","Škola","ZUŠ Ořechov","https://www.firmy.cz/detail/430019-zus-orechov-orechov.html","169"
"9","Restaurace","Restarace Trio","https://www.firmy.cz/detail/12995551-restarace-trio-orechov.html","298"
"10","Bus MHD","Ořechov, Jeřábkova","","101"
"11","Bankomat","Bankomat Fio banky","https://www.firmy.cz/detail/13236216-bankomat-fio-banky-orechov.html","406"
"12","Vlak","Silůvky","","3673"
"13","Sportoviště","Orel jednota Ořechov - Bowling","https://www.firmy.cz/detail/2160470-orel-jednota-orechov-bowling-orechov.html","985"
"14","Školka","ZŠ a MŠ Ořechov","https://www.firmy.cz/detail/12847388-zs-a-ms-orechov-orechov.html","128"
"15","Lékař","OREA medcare s.r.o.","https://www.firmy.cz/detail/13171985-orea-medcare-s-r-o-orechov.html","980"
