"","facility_type","facility_name","facility_iri","facility_distance"
"0","Cukrárna","Cukrárna Crystal","https://www.firmy.cz/detail/13272890-cukrarna-crystal-plzen-jizni-predmesti.html","434"
"1","Kino","Kino Beseda","https://www.firmy.cz/detail/12773769-kino-beseda-plzen-jizni-predmesti.html","1064"
"2","Hřiště","Dětské hřiště Přeštická","","244"
"3","Večerka","Můjobchod - Potraviny Bezovka","https://www.firmy.cz/detail/12997759-mujobchod-potraviny-bezovka-plzen-jizni-predmesti.html","201"
"4","Divadlo","Divadlo pod lampou, o.p.s.","https://www.firmy.cz/detail/2418226-divadlo-pod-lampou-plzen-jizni-predmesti.html","442"
"5","Hospoda","Pivnice U Korbele","https://www.firmy.cz/detail/13123461-pivnice-u-korbele-plzen-jizni-predmesti.html","210"
"6","Veterinář","Psí salón BELLA","https://www.firmy.cz/detail/12759736-psi-salon-bella-plzen-jizni-predmesti.html","428"
"7","Lékař","Praktik Bory s.r.o.","https://www.firmy.cz/detail/13290678-praktik-bory-s-r-o-plzen-jizni-predmesti.html","181"
"8","Vlak","Plzeň zastávka","","226"
"9","Školka","22. MŠ Plzeň","https://www.firmy.cz/detail/1893123-22-ms-plzen-plzen-jizni-predmesti.html","309"
"10","Tram","Dobrovského","","168"
"11","Pošta","Pošta Plzeň 13 - Česká pošta, s.p.","https://www.firmy.cz/detail/216649-posta-plzen-13-plzen-jizni-predmesti.html","201"
"12","Bus MHD","Dobrovského","","121"
"13","Sportoviště","Orel župa Kozinova","https://www.firmy.cz/detail/2294006-orel-zupa-kozinova-plzen-jizni-predmesti.html","242"
"14","Obchod","Kaufland","https://www.firmy.cz/detail/2616232-kaufland-plzen-jizni-predmesti.html","1091"
"15","Lékárna","Lékárna FN Plzeň Bory","https://www.firmy.cz/detail/13296501-lekarna-fn-plzen-bory-plzen-jizni-predmesti.html","199"
"16","Škola","Střední průmyslová škola stavební Plzeň","https://www.firmy.cz/detail/362131-stredni-prumyslova-skola-stavebni-plzen-plzen-jizni-predmesti.html","288"
"17","Restaurace","Restaurace U Čížků","https://www.firmy.cz/detail/13309823-restaurace-u-cizku-plzen-jizni-predmesti.html","60"
"18","Bankomat","Bankomat České spořitelny","https://www.firmy.cz/detail/593961-bankomat-ceske-sporitelny-plzen-jizni-predmesti.html","55"
