"","facility_type","facility_name","facility_iri","facility_distance"
"0","Cukrárna","Kavárna Svět","https://www.firmy.cz/detail/13257114-kavarna-svet-louny.html","115"
"1","Kino","Kino Svět Louny","https://www.firmy.cz/detail/2411773-kino-svet-louny-louny.html","128"
"2","Přírodní zajímavost","Lenešická tůňka","","4258"
"3","Hřiště","Dětské hřiště Jana Švermy","","531"
"4","Večerka","Makovička - Bezobalový obchod","https://www.firmy.cz/detail/13186934-makovicka-bezobalovy-obchod-louny.html","156"
"5","Hospoda","XXL Pub","https://www.firmy.cz/detail/12844770-xxl-pub-louny.html","816"
"6","Divadlo","Vrchlického divadlo","https://www.firmy.cz/detail/397157-vrchlickeho-divadlo-louny.html","309"
"7","Veterinář","MVDr. Lenka Majerová","https://www.firmy.cz/detail/12833277-mvdr-lenka-majerova-louny.html","172"
"8","Restaurace","Restaurace dePresso","https://www.firmy.cz/detail/1896431-restaurace-depresso-louny.html","46"
"9","Školka","Mateřská škola Louny, Fügnerova 1371","https://www.firmy.cz/detail/2458525-materska-skola-louny-fugnerova-1371-louny.html","320"
"10","Pošta","Pošta Louny 1 - Česká pošta, s.p.","https://www.firmy.cz/detail/432269-posta-louny-1-louny.html","262"
"11","Obchod","Kaufland","https://www.firmy.cz/detail/1406112-kaufland-louny.html","1544"
"12","Sportoviště","RED klub Louny","https://www.firmy.cz/detail/619072-red-klub-louny-louny.html","136"
"13","Bankomat","Bankomat Euronet","https://www.firmy.cz/detail/13055586-bankomat-euronet-louny.html","103"
"14","Lékárna","Lékárna U sv. Mikuláše","https://www.firmy.cz/detail/475556-lekarna-u-sv-mikulase-louny.html","168"
"15","Škola","Speciální základní škola, Louny","https://www.firmy.cz/detail/12723313-specialni-zakladni-skola-louny-louny.html","194"
"16","Bus MHD","Louny, sokolovna","","56"
"17","Lékař","MUDr. Olga Fialová - Medpraxa s.r.o.","https://www.firmy.cz/detail/12821898-mudr-olga-fialova-medpraxa-s-r-o-louny.html","351"
"18","Vlak","Louny město","","658"
