"","facility_type","facility_name","facility_iri","facility_distance"
"0","Cukrárna","La Nature","https://www.firmy.cz/detail/12973684-la-nature-neratovice.html","235"
"1","Kino","Městské kino SD Neratovice","https://www.firmy.cz/detail/455067-mestske-kino-sd-neratovice-neratovice.html","327"
"2","Hřiště","Dětské hřiště V Hájích","","90"
"3","Večerka","Potraviny Mládežnická","https://www.firmy.cz/detail/13289977-potraviny-mladeznicka-neratovice.html","194"
"4","Hospoda","Hospoda Fraja","https://www.firmy.cz/detail/2207620-hospoda-fraja-neratovice.html","171"
"5","Divadlo","Divadelní spolek 1. neratovická divadelní společnost","https://www.firmy.cz/detail/1821364-divadelni-spolek-1-neratovicka-divadelni-spolecnost-neratovice.html","327"
"6","Veterinář","Veterinární ordinace – Neratovice","https://www.firmy.cz/detail/13220742-veterinarni-ordinace-neratovice-neratovice.html","501"
"7","Vlak","Neratovice město","","41"
"8","Lékař","Dům Kněžny Emmy - domov pro seniory","https://www.firmy.cz/detail/386169-dum-knezny-emmy-domov-pro-seniory-neratovice.html","358"
"9","Bankomat","Bankomat Komerční banky","https://www.firmy.cz/detail/596271-bankomat-komercni-banky-neratovice.html","167"
"10","Restaurace","Pizzerie Piazza","https://www.firmy.cz/detail/12894386-pizzerie-piazza-neratovice.html","163"
"11","Škola","SOŠ a SOU Neratovice","https://www.firmy.cz/detail/362713-sos-a-sou-neratovice-neratovice.html","129"
"12","Lékárna","Dorea","https://www.firmy.cz/detail/375180-dorea-neratovice.html","184"
"13","Pošta","Pošta Neratovice - Česká pošta, s.p.","https://www.firmy.cz/detail/216769-posta-neratovice-neratovice.html","343"
"14","Bus MHD","Neratovice, Nám.Republiky","","230"
"15","Školka","MŠ Harmonie Neratovice - Zahrádka","https://www.firmy.cz/detail/1987465-ms-harmonie-neratovice-zahradka-neratovice.html","150"
"16","Sportoviště","Tělovýchovná jednota Neratovice","https://www.firmy.cz/detail/2249447-telovychovna-jednota-neratovice-neratovice.html","244"
