"","facility_type","facility_name","facility_iri","facility_distance"
"0","Cukrárna","CrossCafe Knihovna","https://www.firmy.cz/detail/13273638-crosscafe-knihovna-hradec-kralove.html","1121"
"1","Kino","Letní kino Širák","https://www.firmy.cz/detail/396345-letni-kino-sirak-hradec-kralove.html","1412"
"2","Přírodní zajímavost","Slepé rameno Orlice u loděnice","","3584"
"3","Hřiště","Dětské hřiště Jungmannova","","190"
"4","Večerka","HRUŠKA","https://www.firmy.cz/detail/12820292-hruska-hradec-kralove-prazske-predmesti.html","109"
"5","Hospoda","Pivní bar Psí bouda","https://www.firmy.cz/detail/12913241-pivni-bar-psi-bouda-hradec-kralove-prazske-predmesti.html","49"
"6","Divadlo","Zora Ulbertová","https://www.firmy.cz/detail/657739-zora-ulbertova-hradec-kralove-prazske-predmesti.html","646"
"7","Veterinář","Veterinární centrum VIVA","https://www.firmy.cz/detail/321295-veterinarni-centrum-viva-hradec-kralove-prazske-predmesti.html","569"
"8","Pošta","Pošta Hradec Králové 5 - Česká pošta, s.p.","https://www.firmy.cz/detail/217221-posta-hradec-kralove-5-hradec-kralove-prazske-predmesti.html","616"
"9","Školka","MŠ Kamarád Hradec Králové, Veverkova","https://www.firmy.cz/detail/1691058-ms-kamarad-hradec-kralove-veverkova-hradec-kralove-prazske-predmesti.html","93"
"10","Restaurace","Restaurace Metuje","https://www.firmy.cz/detail/331403-restaurace-metuje-hradec-kralove-prazske-predmesti.html","109"
"11","Sportoviště","Tenis - Centrum DTJ HK","https://www.firmy.cz/detail/413174-tenis-centrum-dtj-hk-hradec-kralove.html","282"
"12","Vlak","Hradec Králové-Kukleny","","1372"
"13","Bankomat","Bankomat ČSOB","https://www.firmy.cz/detail/1358998-bankomat-csob-hradec-kralove-novy-hradec-kralove.html","663"
"14","Obchod","AUPARK Hradec Králové, s.r.o.","https://www.firmy.cz/detail/13342517-aupark-hradec-kralove-hradec-kralove-prazske-predmesti.html","1308"
"15","Lékárna","Lékárna Alma","https://www.firmy.cz/detail/270553-lekarna-alma-hradec-kralove-prazske-predmesti.html","598"
"16","Bus MHD","Metuje","","47"
"17","Škola","Základní škola a Mateřská škola Prointepo, s.r.o.","https://www.firmy.cz/detail/1890835-zakladni-skola-a-materska-skola-prointepo-hradec-kralove-prazske-predmesti.html","262"
"18","Lékař","SANUS","https://www.firmy.cz/detail/190786-sanus-hradec-kralove.html","568"
