"","facility_type","facility_name","facility_iri","facility_distance"
"0","Cukrárna","Cukrárna Lucius","https://www.firmy.cz/detail/12889475-cukrarna-lucius-syrovice.html","283"
"1","Přírodní zajímavost","Biotop Bratčice","","2283"
"2","Hřiště","Dětské hřiště Syrovice","","374"
"3","Večerka","Potraviny B+L","https://www.firmy.cz/detail/13320983-potraviny-b-l-syrovice.html","283"
"4","Hospoda","Pivovarská pivnice Bratčice","https://www.firmy.cz/detail/13030009-pivovarska-pivnice-bratcice-bratcice.html","2740"
"5","Veterinář","MVDr. Veronika Fajtová","https://www.firmy.cz/detail/12936793-mvdr-veronika-fajtova-orechov.html","3753"
"6","Bus MHD","Syrovice, MŠ","","131"
"7","Školka","ZŠ a MŠ Bratčice","https://www.firmy.cz/detail/739791-zs-a-ms-bratcice-bratcice.html","2310"
"8","Lékař","OREA medcare s.r.o.","https://www.firmy.cz/detail/13171985-orea-medcare-s-r-o-orechov.html","3673"
"9","Pošta","Pošta Syrovice - Česká pošta, s.p.","https://www.firmy.cz/detail/432101-posta-syrovice-syrovice.html","262"
"10","Restaurace","Bistro Juwe","https://www.firmy.cz/detail/13125366-bistro-juwe-syrovice.html","852"
"11","Lékárna","Lékárna EUPHRASIA s.r.o.","https://www.firmy.cz/detail/2589146-lekarna-euphrasia-s-r-o-orechov.html","3738"
"12","Bankomat","Bankomat Fio banky","https://www.firmy.cz/detail/13236216-bankomat-fio-banky-orechov.html","4082"
"13","Škola","ZŠ a MŠ Syrovice","https://www.firmy.cz/detail/356269-zs-a-ms-syrovice-syrovice.html","171"
"14","Vlak","Rajhrad","","4456"
"15","Sportoviště","Orel jednota Ořechov - Bowling","https://www.firmy.cz/detail/2160470-orel-jednota-orechov-bowling-orechov.html","3801"
