"","facility_type","facility_name","facility_iri","facility_distance"
"0","Cukrárna","Café Coffee Day","https://www.firmy.cz/detail/650529-cafe-coffee-day-praha-smichov.html","555"
"1","Kino","CineStar Anděl","https://www.firmy.cz/detail/2537565-cinestar-andel-praha-smichov.html","592"
"2","Přírodní zajímavost","Kovářovic mez","","4083"
"3","Hřiště","Dětské hřiště Holečkova","","274"
"4","Večerka","Tuyen Le Thi - OVOCE ZELENINA","https://www.firmy.cz/detail/2464821-tuyen-le-thi-ovoce-zelenina-praha-kosire.html","451"
"5","Hospoda","Hospůdka Knoflík","https://www.firmy.cz/detail/2253647-hospudka-knoflik-praha-smichov.html","835"
"6","Divadlo","Divadlo Orfeus","https://www.firmy.cz/detail/413053-divadlo-orfeus-praha-kosire.html","437"
"7","Veterinář","MVDr. Jana Lukešová","https://www.firmy.cz/detail/473617-mvdr-jana-lukesova-praha-smichov.html","758"
"8","Pošta","Pošta Praha 53 - Česká pošta, s.p.","https://www.firmy.cz/detail/431282-posta-praha-53-praha-smichov.html","688"
"9","Školka","ZŠ a MŠ Praha 5, Grafická","https://www.firmy.cz/detail/2416925-zs-a-ms-praha-5-graficka-praha-smichov.html","326"
"10","Bankomat","Bankomat ČSOB","https://www.firmy.cz/detail/636703-bankomat-csob-praha-smichov.html","585"
"11","Lékárna","EUC Lékárna Kartouzská","https://www.firmy.cz/detail/13162323-euc-lekarna-kartouzska-praha-smichov.html","521"
"12","Tram","Bertramka","","194"
"13","Bus MHD","Holečkova","","72"
"14","Sportoviště","MaxLasergame, s.r.o.","https://www.firmy.cz/detail/12740237-maxlasergame-praha-smichov.html","231"
"15","Restaurace","Restaurace Pod Černým vrchem","https://www.firmy.cz/detail/333475-restaurace-pod-cernym-vrchem-praha-kosire.html","435"
"16","Lékař","MUDr. Lucie Jordáková","https://www.firmy.cz/detail/387284-mudr-lucie-jordakova-praha-smichov.html","482"
"17","Obchod","Obchodní centrum Nový Smíchov","https://www.firmy.cz/detail/579116-obchodni-centrum-novy-smichov-praha-smichov.html","565"
"18","Škola","ZŠ a MŠ Praha 5, Grafická","https://www.firmy.cz/detail/356194-zs-a-ms-praha-5-graficka-praha-smichov.html","100"
"19","Vlak","Praha-Smíchov severní nást.","","1430"
"20","Metro","Anděl","","767"
