"","facility_type","facility_name","facility_iri","facility_distance"
"0","Cukrárna","Cukrárna Petra","https://www.firmy.cz/detail/12838351-cukrarna-petra-ostrava-hrabuvka.html","357"
"1","Kino","Kino Luna","https://www.firmy.cz/detail/2642805-kino-luna-ostrava-zabreh.html","2758"
"2","Přírodní zajímavost","Zábřežský bludný balvan","","3281"
"3","Hřiště","Dětské hřiště Krestova","","277"
"4","Večerka","HRUŠKA","https://www.firmy.cz/detail/12820534-hruska-ostrava-hrabuvka.html","413"
"5","Hospoda","Pivnice Sekáč","https://www.firmy.cz/detail/168021-pivnice-sekac-ostrava-hrabuvka.html","346"
"6","Divadlo","Divadlo U Lípy","https://www.firmy.cz/detail/2121467-divadlo-u-lipy-ostrava-zabreh.html","1842"
"7","Veterinář","MVDr. Oldřich Barvenčík","https://www.firmy.cz/detail/443783-mvdr-oldrich-barvencik-ostrava-hrabuvka.html","1079"
"8","Bus MHD","Hrabůvka, Poli­klinika","","513"
"9","Škola","ZŠ a MŠ Ostrava-Hrabůvka, Krestova","https://www.firmy.cz/detail/358678-zs-a-ms-ostrava-hrabuvka-krestova-ostrava-hrabuvka.html","105"
"10","Tram","Hrabůvka, Poli­klinika","","510"
"11","Školka","Mateřská škola PRIGO","https://www.firmy.cz/detail/12860152-materska-skola-prigo-ostrava-hrabuvka.html","221"
"12","Bankomat","Bankomat Air Bank","https://www.firmy.cz/detail/13100803-bankomat-air-bank-ostrava-hrabuvka.html","445"
"13","Vlak","Ostrava-Kunčice","","2254"
"14","Restaurace","La Vida Restaurant","https://www.firmy.cz/detail/13326636-la-vida-restaurant-ostrava-hrabuvka.html","232"
"15","Lékař","MUDr. Irena Ladiniková","https://www.firmy.cz/detail/386334-mudr-irena-ladinikova-ostrava-hrabuvka.html","679"
"16","Sportoviště","T.J. Lokomotiva Frýdek - Místek","https://www.firmy.cz/detail/2655189-t-j-lokomotiva-frydek-mistek-ostrava-dubina.html","941"
"17","Obchod","MAKRO Cash & Carry","https://www.firmy.cz/detail/325616-makro-cash-carry-ostrava-hrabova.html","701"
"18","Pošta","Pošta Ostrava 5 - Česká pošta, s.p.","https://www.firmy.cz/detail/433398-posta-ostrava-5-ostrava-hrabuvka.html","479"
"19","Lékárna","Lékárna Bella","https://www.firmy.cz/detail/2114885-lekarna-bella-ostrava-hrabuvka.html","502"
