"","facility_type","facility_name","facility_iri","facility_distance"
"0","Hřiště","Dětské hřiště Dolnocholupická","https://mapy.cz/zakladni?x=14.4089472573&y=50.0003321221&z=17&source=base&id=1926623","90"
"1","Veterinář","Vethope s.r.o. - veterinární klinika","https://www.firmy.cz/detail/12949094-vethope-s-r-o-veterinarni-klinika-praha-modrany.html","321"
"2","Cukrárna","Cukrárna Snídejte šampaňské","https://www.firmy.cz/detail/2628551-cukrarna-snidejte-sampanske-praha-modrany.html","531"
"3","Kino","Modřanský biograf","https://www.firmy.cz/detail/13272765-modransky-biograf-praha-modrany.html","559"
"4","Večerka","Potraviny K Vystrkovu 1883/14","https://www.firmy.cz/detail/2537180-potraviny-k-vystrkovu-1883-14-praha-modrany.html","35"
"5","Hospoda","Komořanská Pivnice","https://www.firmy.cz/detail/13316727-komoranska-pivnice-praha-modrany.html","962"
"6","Divadlo","Divadlo Na Cikorce","https://www.firmy.cz/detail/2387865-divadlo-na-cikorce-praha-modrany.html","1454"
"7","Bus MHD","K Vystrkovu","https://mapy.cz/zakladni?x=14.4080359889&y=49.9996866205&z=17&source=pubt&id=15730836","84"
"8","Bankomat","Bankomat České spořitelny","https://www.firmy.cz/detail/594810-bankomat-ceske-sporitelny-praha-modrany.html","675"
"9","Sportoviště","Miroslava Benešová","https://www.firmy.cz/detail/467489-miroslava-benesova-praha-modrany.html","258"
"10","Lékař","ARNICA centre, s.r.o.","https://www.firmy.cz/detail/2688025-arnica-centre-praha-modrany.html","736"
"11","Tram","Čechova čtvrť","https://mapy.cz/zakladni?x=14.4096335024&y=50.002234502&z=17&source=pubt&id=15305341","301"
"12","Vlak","Praha-Modřany zastávka","https://mapy.cz/zakladni?x=14.4031168361&y=50.0039862735&z=17&source=pubt&id=15212573","658"
"13","Škola","Soukromá základní umělecká škola Music Art, v.o.s.","https://www.firmy.cz/detail/12840117-soukroma-zakladni-umelecka-skola-music-art-praha-modrany.html","416"
"14","Lékárna","Lékárna Vltava","https://www.firmy.cz/detail/2510909-lekarna-vltava-praha-modrany.html","453"
"15","Školka","1st Baby School - Mateřská škola s.r.o.","https://www.firmy.cz/detail/13316202-1st-baby-school-materska-skola-s-r-o-praha-modrany.html","428"
"16","Obchod","Obchodní pasáž Sofie","https://www.firmy.cz/detail/217785-obchodni-pasaz-sofie-praha-modrany.html","938"
"17","Restaurace","Restaurace U Fišmistrů","https://www.firmy.cz/detail/2606681-restaurace-u-fismistru-praha-modrany.html","199"
"18","Pošta","Pošta Praha 412 - Česká pošta, s.p.","https://www.firmy.cz/detail/217477-posta-praha-412-praha-modrany.html","872"
