"","facility_type","facility_name","facility_iri","facility_distance"
"0","Hřiště","Dětské hřiště Šmeralova","https://mapy.cz/zakladni?x=14.3156144395&y=50.2455831444&z=17&source=base&id=1927335","283"
"1","Večerka","BALA potraviny -  NOVYS","https://www.firmy.cz/detail/2645972-bala-potraviny-novys-kralupy-nad-vltavou-lobecek.html","322"
"2","Cukrárna","Cukrárna a kavárna Natali","https://www.firmy.cz/detail/12931851-cukrarna-a-kavarna-natali-kralupy-nad-vltavou-lobecek.html","322"
"3","Veterinář","Veterinární klinika Mada","https://www.firmy.cz/detail/2136774-veterinarni-klinika-mada-kralupy-nad-vltavou.html","943"
"4","Hospoda","Restaurace Chemik","https://www.firmy.cz/detail/329709-restaurace-chemik-kralupy-nad-vltavou-lobecek.html","356"
"5","Kino","Kino Vltava","https://www.firmy.cz/detail/396488-kino-vltava-kralupy-nad-vltavou-lobecek.html","381"
"6","Divadlo","Divadelní soubor ""Scéna"" v Kralupech N/ Vlt.","https://www.firmy.cz/detail/397172-divadelni-soubor-scena-v-kralupech-n-vlt-kralupy-nad-vltavou-lobecek.html","382"
"7","Bus MHD","Kralupy nad Vltavou, Třebízského škola","https://mapy.cz/zakladni?x=14.3200126807&y=50.2441573651&z=17&source=pubt&id=15288188","76"
"8","Sportoviště","Horolezecký oddíl Kralupy","https://www.firmy.cz/detail/13076999-horolezecky-oddil-kralupy-kralupy-nad-vltavou.html","560"
"9","Restaurace","Café Restaurant Kotva","https://www.firmy.cz/detail/589572-cafe-restaurant-kotva-kralupy-nad-vltavou.html","223"
"10","Lékárna","BENU lékárna","https://www.firmy.cz/detail/13204195-benu-lekarna-kralupy-nad-vltavou-lobecek.html","480"
"11","Bankomat","Bankomat Air Bank","https://www.firmy.cz/detail/13101295-bankomat-air-bank-kralupy-nad-vltavou-lobecek.html","348"
"12","Lékař","MUDr. Hana Švejdová","https://www.firmy.cz/detail/12798762-mudr-hana-svejdova-kralupy-nad-vltavou-lobecek.html","482"
"13","Školka","Centrum D8 - AZ školka","https://www.firmy.cz/detail/12963902-centrum-d8-az-skolka-kralupy-nad-vltavou-lobecek.html","52"
"14","Pošta","Pošta Kralupy nad Vltavou 3 - Česká pošta, s.p.","https://www.firmy.cz/detail/216802-posta-kralupy-nad-vltavou-3-kralupy-nad-vltavou-lobecek.html","378"
"15","Vlak","Kralupy nad Vltavou","https://mapy.cz/zakladni?x=14.3135489859&y=50.2383895996&z=17&source=pubt&id=15211820","814"
"16","Obchod","Tesco","https://www.firmy.cz/detail/653529-tesco-kralupy-nad-vltavou-lobecek.html","937"
"17","Škola","ZŠ a MŠ Kralupy nad Vltavou, Třebízského","https://www.firmy.cz/detail/357813-zs-a-ms-kralupy-nad-vltavou-trebizskeho-kralupy-nad-vltavou.html","111"
