"","facility_type","facility_name","facility_iri","facility_distance"
"0","Cukrárna","Kavárna Bublina","https://www.firmy.cz/detail/13121572-kavarna-bublina-chodov.html","666"
"1","Kino","Kino Malá Scéna","https://www.firmy.cz/detail/457673-kino-mala-scena-chodov.html","203"
"2","Hřiště","Dětské hřiště","","276"
"3","Večerka","Penny Market","https://www.firmy.cz/detail/207770-penny-market-chodov.html","100"
"4","Hospoda","Pivnice Skleník","https://www.firmy.cz/detail/2032205-pivnice-sklenik-chodov.html","254"
"5","Veterinář","Veterinární ordinace NA FAŘE","https://www.firmy.cz/detail/2099952-veterinarni-ordinace-na-fare-chodov.html","666"
"6","Lékař","PRAKTIK CHODOV, s.r.o.","https://www.firmy.cz/detail/12840576-praktik-chodov-chodov.html","316"
"7","Bankomat","Bankomat ČSOB","https://www.firmy.cz/detail/596935-bankomat-csob-chodov.html","201"
"8","Škola","ZŠ Chodov, Husova","https://www.firmy.cz/detail/357356-zs-chodov-husova-chodov.html","112"
"9","Bus MHD","Chodov, sídliště","","170"
"10","Pošta","Pošta Chodov u Karlových Var 1 - Česká pošta, s.p.","https://www.firmy.cz/detail/216442-posta-chodov-u-karlovych-var-1-chodov.html","201"
"11","Lékárna","Lékárna u polikliniky","https://www.firmy.cz/detail/2613880-lekarna-u-polikliniky-chodov.html","712"
"12","Školka","MŠ Chodov","https://www.firmy.cz/detail/2128617-ms-chodov-chodov.html","247"
"13","Obchod","MAKRO Cash & Carry","https://www.firmy.cz/detail/689558-makro-cash-carry-jenisov-pod-rohem.html","5162"
"14","Sportoviště","Bowling klub Chodov","https://www.firmy.cz/detail/2457855-bowling-klub-chodov-chodov.html","447"
"15","Vlak","Chodov","","1613"
"16","Restaurace","Restaurace Sparta","https://www.firmy.cz/detail/13150007-restaurace-sparta-chodov.html","163"
