"","facility_type","facility_name","facility_iri","facility_distance"
"0","Cukrárna","Cukrárna Ollies","https://www.firmy.cz/detail/2692395-cukrarna-ollies-ostrava-vitkovice.html","645"
"1","Kino","ETÁŽ","https://www.firmy.cz/detail/13265760-etaz-ostrava.html","1611"
"2","Přírodní zajímavost","Zábřežský bludný balvan","","1832"
"3","Hřiště","Dětské hřiště Erbenova","","547"
"4","Večerka","Potraviny u Marka","https://www.firmy.cz/detail/13112416-potraviny-u-marka-ostrava-vitkovice.html","175"
"5","Hospoda","U RIFLe","https://www.firmy.cz/detail/12769254-u-rifle-ostrava-vitkovice.html","248"
"6","Divadlo","Divadlo Mír","https://www.firmy.cz/detail/13092715-divadlo-mir-ostrava-vitkovice.html","406"
"7","Veterinář","Veterinární klinika Vítkovice","https://www.firmy.cz/detail/165444-veterinarni-klinika-vitkovice-ostrava-vitkovice.html","941"
"8","Bankomat","Bankomat České spořitelny","https://www.firmy.cz/detail/593854-bankomat-ceske-sporitelny-ostrava-vitkovice.html","435"
"9","Školka","MŠ Ostrava - Vítkovice, Prokopa Velikého","https://www.firmy.cz/detail/749089-ms-ostrava-vitkovice-prokopa-velikeho-ostrava-vitkovice.html","409"
"10","Vlak","Ostrava-Vítkovice","","938"
"11","Sportoviště","tendon BLOK","https://www.firmy.cz/detail/2637470-tendon-blok-ostrava-vitkovice.html","549"
"12","Pošta","Pošta Ostrava 3 - Česká pošta, s.p.","https://www.firmy.cz/detail/2378901-posta-ostrava-3-ostrava-vitkovice.html","421"
"13","Škola","ZŠ Ostrava - Vítkovice, Šalounova","https://www.firmy.cz/detail/358721-zs-ostrava-vitkovice-salounova-ostrava-vitkovice.html","136"
"14","Tram","Stará ocelárna","","504"
"15","Restaurace","MIGA Sushi","https://www.firmy.cz/detail/13276061-miga-sushi-ostrava-vitkovice.html","134"
"16","Bus MHD","Lidická","","225"
"17","Lékař","MUDr. Markéta Kubatá","https://www.firmy.cz/detail/12830442-mudr-marketa-kubata-ostrava-vitkovice.html","205"
"18","Lékárna","Lékárna AGEL","https://www.firmy.cz/detail/2582967-lekarna-agel-ostrava-vitkovice.html","613"
"19","Obchod","Kaufland","https://www.firmy.cz/detail/1534393-kaufland-ostrava-moravska-ostrava.html","2359"
