"","facility_type","facility_name","facility_iri","facility_distance"
"0","Hřiště","Dětské hřiště Pardubické Předměstí","https://mapy.cz/zakladni?x=15.564538210633145&y=50.0367836112203&z=17&source=base&id=1927959","205"
"1","Přírodní zajímavost","Trilobit","https://mapy.cz/zakladni?x=15.5529333333&y=49.9986833333&z=17&source=base&id=2210548","4130"
"2","Večerka","Pramen","https://www.firmy.cz/detail/12813729-pramen-prelouc.html","170"
"3","Veterinář","VETMEDIKON s.r.o.","https://www.firmy.cz/detail/13035652-vetmedikon-s-r-o-prelouc.html","243"
"4","Hospoda","Pivnice a herna Montana","https://www.firmy.cz/detail/13146842-pivnice-a-herna-montana-prelouc.html","341"
"5","Cukrárna","Cukrárna Duo","https://www.firmy.cz/detail/682717-cukrarna-duo-prelouc.html","397"
"6","Kino","Kulturní a informační centrum města Přelouče - Letní kino","https://www.firmy.cz/detail/2651606-kulturni-a-informacni-centrum-mesta-prelouce-letni-kino-prelouc.html","248"
"7","Škola","Gymnázium a Střední odborná škola Přelouč","https://www.firmy.cz/detail/2667147-gymnazium-a-stredni-odborna-skola-prelouc-prelouc.html","178"
"8","Bankomat","Bankomat ČSOB","https://www.firmy.cz/detail/599220-bankomat-csob-prelouc.html","309"
"9","Bus MHD","Přelouč, Račanská","https://mapy.cz/zakladni?x=15.5657577490603&y=50.035470002306&z=17&source=pubt&id=15229435","206"
"10","Lékárna","EUC Lékárna Přelouč","https://www.firmy.cz/detail/12964533-euc-lekarna-prelouc-prelouc.html","243"
"11","Obchod","Tesco","https://www.firmy.cz/detail/12741987-tesco-prelouc.html","724"
"12","Pošta","Pošta Přelouč - Česká pošta, s.p.","https://www.firmy.cz/detail/432774-posta-prelouc-prelouc.html","309"
"13","Lékař","EUC Klinika Přelouč","https://www.firmy.cz/detail/213257-euc-klinika-prelouc-prelouc.html","265"
"14","Sportoviště","Tennis club Přelouč","https://www.firmy.cz/detail/752851-tennis-club-prelouc-prelouc.html","539"
"15","Restaurace","Restaurace Na Sídlišti","https://www.firmy.cz/detail/13117485-restaurace-na-sidlisti-prelouc.html","237"
"16","Vlak","Přelouč","https://mapy.cz/zakladni?x=15.5744892698&y=50.0396205965&z=17&source=pubt&id=15212616","959"
"17","Školka","MŠ Přelouč, Kladenská","https://www.firmy.cz/detail/12890694-ms-prelouc-kladenska-prelouc.html","313"
