"","facility_type","facility_name","facility_iri","facility_distance"
"0","Hřiště","Dětské hřiště Násedlovice","","71"
"1","Večerka","Jednota, spotřební družstvo v Hodoníně - COOP","https://www.firmy.cz/detail/2171692-jednota-spotrebni-druzstvo-v-hodonine-coop-nasedlovice.html","285"
"2","Hospoda","Hospoda U hřiště","https://www.firmy.cz/detail/13118880-hospoda-u-hriste-zeletice.html","3686"
"3","Veterinář","Veterinární ordinace u Mikeše, MVDr. Krahulová","https://www.firmy.cz/detail/12792029-veterinarni-ordinace-u-mikese-mvdr-krahulova-nenkovice.html","4030"
"4","Pošta","Pošta Násedlovice - Česká pošta, s.p.","https://www.firmy.cz/detail/433315-posta-nasedlovice-nasedlovice.html","51"
"5","Lékař","MUDr. Petr Macek","https://www.firmy.cz/detail/12750191-mudr-petr-macek-nasedlovice.html","142"
"6","Bus MHD","Násedlovice","","86"
"7","Lékárna","OOVL - L U Zlaté koruny","https://www.firmy.cz/detail/658840-oovl-l-u-zlate-koruny-zarosice.html","3209"
"8","Školka","MŠ Násedlovice","https://www.firmy.cz/detail/407145-ms-nasedlovice-nasedlovice.html","142"
"9","Škola","ZŠ a MŠ Žarošice","https://www.firmy.cz/detail/360263-zs-a-ms-zarosice-zarosice.html","2953"
"10","Sportoviště","TJ Sokol Želetice","https://www.firmy.cz/detail/1319434-tj-sokol-zeletice-zeletice.html","3790"
"11","Restaurace","HOSPODA U VASE","https://www.firmy.cz/detail/13108837-hospoda-u-vase-nasedlovice.html","235"
