"","facility_type","facility_name","facility_iri","facility_distance"
"0","Cukrárna","ZigZag Caffé Music Bar","https://www.firmy.cz/detail/13121055-zigzag-caffe-music-bar-karlovy-vary.html","907"
"1","Kino","Kino Drahomíra z.s.","https://www.firmy.cz/detail/13126576-kino-drahomira-z-s-karlovy-vary-drahovice.html","794"
"2","Přírodní zajímavost","Karlův hvozd","","2588"
"3","Hřiště","Dětské hřiště","","118"
"4","Večerka","Můjobchod - Potraviny MAX","https://www.firmy.cz/detail/12998018-mujobchod-potraviny-max-karlovy-vary-rybare.html","302"
"5","Hospoda","Pivnice Na Růžáku","https://www.firmy.cz/detail/13121924-pivnice-na-ruzaku-karlovy-vary-rybare.html","101"
"6","Divadlo","Divadlo Kapsa","https://www.firmy.cz/detail/2276352-divadlo-kapsa-karlovy-vary-rybare.html","1340"
"7","Veterinář","MVDr. Eva Tichá","https://www.firmy.cz/detail/2656349-mvdr-eva-ticha-karlovy-vary-rybare.html","339"
"8","Školka","2. MŠ Karlovy Vary - Krušnohorská","https://www.firmy.cz/detail/2072227-2-ms-karlovy-vary-krusnohorska-karlovy-vary-rybare.html","139"
"9","Lékárna","LÉKÁRNA ipc Na Růžovém vrchu","https://www.firmy.cz/detail/657990-lekarna-ipc-na-ruzovem-vrchu-karlovy-vary-rybare.html","327"
"10","Bankomat","Bankomat Euronet","https://www.firmy.cz/detail/13055646-bankomat-euronet-karlovy-vary.html","708"
"11","Pošta","Pošta Karlovy Vary 10 - Česká pošta, s.p.","https://www.firmy.cz/detail/2378989-posta-karlovy-vary-10-karlovy-vary-rybare.html","331"
"12","Lékař","NEMOS AMBULANCE, s.r.o.","https://www.firmy.cz/detail/12757454-nemos-ambulance-karlovy-vary-rybare.html","325"
"13","Vlak","Karlovy Vary","","305"
"14","Bus MHD","Růžový vrch sídliště","","109"
"15","Sportoviště","Sportovní unie Karlovarska z.s.","https://www.firmy.cz/detail/404208-sportovni-unie-karlovarska-z-s-karlovy-vary.html","926"
"16","Obchod","Obchodní centrum Perla","https://www.firmy.cz/detail/13219298-obchodni-centrum-perla-karlovy-vary.html","973"
"17","Škola","ZŠ Karlovy Vary, Krušnohorská","https://www.firmy.cz/detail/396321-zs-karlovy-vary-krusnohorska-karlovy-vary-rybare.html","210"
"18","Restaurace","Restaurace Krušnohorská 743","https://www.firmy.cz/detail/13110602-restaurace-krusnohorska-743-karlovy-vary-rybare.html","74"
