"","facility_type","facility_name","facility_iri","facility_distance"
"0","Cukrárna","Zmrzlinárna v Horní","https://www.firmy.cz/detail/13311485-zmrzlinarna-v-horni-cesky-krumlov-vnitrni-mesto.html","554"
"1","Kino","Kino Luna","https://www.firmy.cz/detail/12875377-kino-luna-cesky-krumlov-latran.html","809"
"2","Hřiště","Dětské hřiště","","276"
"3","Večerka","PONT Market","https://www.firmy.cz/detail/13281231-pont-market-cesky-krumlov-horni-brana.html","193"
"4","Hospoda","Pivnice Penzion Tilia","https://www.firmy.cz/detail/13148386-pivnice-penzion-tilia-cesky-krumlov-horni-brana.html","364"
"5","Divadlo","Městské divadlo Český Krumlov","https://www.firmy.cz/detail/322174-mestske-divadlo-cesky-krumlov-cesky-krumlov-horni-brana.html","371"
"6","Veterinář","MVDr. Jiří Bicek","https://www.firmy.cz/detail/2108900-mvdr-jiri-bicek-cesky-krumlov-horni-brana.html","438"
"7","Restaurace","Bistro Madetka","https://www.firmy.cz/detail/13169790-bistro-madetka-cesky-krumlov-horni-brana.html","234"
"8","Vlak","Český Krumlov","","1435"
"9","Bankomat","Bankomat České spořitelny","https://www.firmy.cz/detail/12987803-bankomat-ceske-sporitelny-cesky-krumlov-horni-brana.html","65"
"10","Obchod","Tesco","https://www.firmy.cz/detail/2195388-tesco-cesky-krumlov-domoradice.html","1681"
"11","Sportoviště","Českokrumlovské tělovýchovné a sportovní sdružení","https://www.firmy.cz/detail/294258-ceskokrumlovske-telovychovne-a-sportovni-sdruzeni-cesky-krumlov-horni-brana.html","165"
"12","Bus MHD","Český Krumlov, Horní Brána","","304"
"13","Pošta","Pošta Český Krumlov 1 - Česká pošta, s.p.","https://www.firmy.cz/detail/217047-posta-cesky-krumlov-1-cesky-krumlov-latran.html","645"
"14","Lékař","Ambulance praktického lékaře - Nemocnice Český Krumlov","https://www.firmy.cz/detail/2656683-ambulance-praktickeho-lekare-nemocnice-cesky-krumlov-cesky-krumlov-horni-brana.html","234"
"15","Školka","MŠ Český Krumlov, Za soudem","https://www.firmy.cz/detail/1995045-ms-cesky-krumlov-za-soudem-cesky-krumlov-plesivec.html","621"
"16","Škola","ZŠ Český Krumlov, Kaplická","https://www.firmy.cz/detail/399081-zs-cesky-krumlov-kaplicka-cesky-krumlov-horni-brana.html","165"
"17","Lékárna","Lékárna Nemocnice Český Krumlov","https://www.firmy.cz/detail/2307831-lekarna-nemocnice-cesky-krumlov-cesky-krumlov-horni-brana.html","210"
