"","facility_type","facility_name","facility_iri","facility_distance"
"0","Hřiště","Dětské hřiště Rybňany","https://mapy.cz/zakladni?x=13.5987180259&y=50.3290764697&z=17&source=base&id=2219401","1511"
"1","Hospoda","Restaurace Postoloprtská 180","https://www.firmy.cz/detail/13140086-restaurace-postoloprtska-180-stankovice.html","1586"
"2","Cukrárna","Cukrárna Amélie","https://www.firmy.cz/detail/13113416-cukrarna-amelie-zatec.html","3430"
"3","Přírodní zajímavost","V Rákosí","https://mapy.cz/zakladni?x=13.6218199351&y=50.3398148291&z=17&source=base&id=2131169","2288"
"4","Večerka","Potraviny Postoloprtská","https://www.firmy.cz/detail/13334046-potraviny-postoloprtska-stankovice.html","1569"
"5","Divadlo","Jitřenka - loutkové divadlo","https://www.firmy.cz/detail/13096125-jitrenka-loutkove-divadlo-zatec.html","3493"
"6","Veterinář","MVDr. Břetislav Frýba","https://www.firmy.cz/detail/203866-mvdr-bretislav-fryba-zatec.html","3759"
"7","Kino","Kino Žatec","https://www.firmy.cz/detail/12846605-kino-zatec-zatec.html","3634"
"8","Bus MHD","Staňkovice, Tvršice","https://mapy.cz/zakladni?x=13.5896540097725&y=50.3411350246889&z=17&source=pubt&id=15239634","27"
"9","Vlak","Tvršice","https://mapy.cz/zakladni?x=13.5972100236&y=50.3406836441&z=17&source=pubt&id=15213104","540"
"10","Bankomat","Bankomat České spořitelny","https://www.firmy.cz/detail/596738-bankomat-ceske-sporitelny-zatec.html","3453"
"11","Školka","ZŠ a MŠ Staňkovice","https://www.firmy.cz/detail/436565-zs-a-ms-stankovice-stankovice.html","1617"
"12","Lékař","MUDr. Josef Beneš, s.r.o.","https://www.firmy.cz/detail/12731827-mudr-josef-benes-stankovice.html","1347"
"13","Lékárna","Lékárna Na náměstí","https://www.firmy.cz/detail/12822918-lekarna-na-namesti-zatec.html","3472"
"14","Restaurace","Hostinec Stekník","https://www.firmy.cz/detail/13168277-hostinec-steknik-zaluzice-steknik.html","2849"
"15","Obchod","Kaufland","https://www.firmy.cz/detail/1457849-kaufland-zatec.html","4737"
"16","Škola","ZŠ a MŠ Staňkovice","https://www.firmy.cz/detail/359433-zs-a-ms-stankovice-stankovice.html","1605"
"17","Pošta","Pošta Staňkovice u Žatce - Česká pošta, s.p.","https://www.firmy.cz/detail/215269-posta-stankovice-u-zatce-stankovice.html","1326"
"18","Sportoviště","Hopman team Žatec","https://www.firmy.cz/detail/13289869-hopman-team-zatec-zatec.html","3232"
