"","facility_type","facility_name","facility_iri","facility_distance"
"0","Cukrárna","Pekařství Lidická 659","https://www.firmy.cz/detail/12807394-pekarstvi-lidicka-659-pohorelice.html","629"
"1","Hřiště","Dětské hřiště","","363"
"2","Večerka","COOP - Jednota, spotřební družstvo v Mikulově","https://www.firmy.cz/detail/2345297-coop-jednota-spotrebni-druzstvo-v-mikulove-pohorelice.html","40"
"3","Veterinář","MVDr. Hynek Siksta","https://www.firmy.cz/detail/1327728-mvdr-hynek-siksta-pohorelice.html","583"
"4","Hospoda","Hostinec U Kašpárků","https://www.firmy.cz/detail/13135546-hostinec-u-kasparku-pohorelice.html","376"
"5","Bus MHD","Pohořelice, MěÚ","","340"
"6","Pošta","Pošta Pohořelice - Česká pošta, s.p.","https://www.firmy.cz/detail/432583-posta-pohorelice-pohorelice.html","913"
"7","Bankomat","Platbomat České spořitelny","https://www.firmy.cz/detail/594047-platbomat-ceske-sporitelny-pohorelice.html","328"
"8","Restaurace","Bella pizza&pasta","https://www.firmy.cz/detail/13271639-bella-pizza-pasta-pohorelice.html","375"
"9","Sportoviště","Pétanque Pohořelice","","175"
"10","Škola","ZŠ a MŠ Pohořelice, Lidická - ZŠ a MŠ Pohořelice","https://www.firmy.cz/detail/2644732-zs-a-ms-pohorelice-lidicka-pohorelice.html","729"
"11","Školka","MŠ Pohořelice","https://www.firmy.cz/detail/13306737-ms-pohorelice-pohorelice.html","149"
"12","Lékař","Doktor Pohořelice, s.r.o.","https://www.firmy.cz/detail/13282714-doktor-pohorelice-s-r-o-pohorelice.html","979"
"13","Lékárna","Lékárna Cyrmex","https://www.firmy.cz/detail/12817136-lekarna-cyrmex-pohorelice.html","919"
