"","facility_type","facility_name","facility_iri","facility_distance"
"0","Cukrárna","Sluneční cukrárna","https://www.firmy.cz/detail/2139751-slunecni-cukrarna-praha-zbraslav.html","193"
"1","Kino","Letní Kino Kamínka","https://www.firmy.cz/detail/13066174-letni-kino-kaminka-praha-zbraslav.html","451"
"2","Hřiště","Dětské hřiště Paškova","","116"
"3","Večerka","Albert Supermarket","https://www.firmy.cz/detail/652915-albert-supermarket-praha-zbraslav.html","202"
"4","Hospoda","Solární studio","https://www.firmy.cz/detail/13121637-solarni-studio-praha-radotin.html","2584"
"5","Divadlo","Divadlo Jana Kašky","https://www.firmy.cz/detail/12978086-divadlo-jana-kasky-praha-zbraslav.html","1310"
"6","Veterinář","MVDr. Kateřina Hýková","https://www.firmy.cz/detail/2137638-mvdr-katerina-hykova-praha-zbraslav.html","1263"
"7","Lékař","Nová poliklinika Zbraslav","https://www.firmy.cz/detail/12967802-nova-poliklinika-zbraslav-praha-zbraslav.html","286"
"8","Tram","Čechova čtvrť","","4327"
"9","Pošta","Pošta Praha 516 - Česká pošta, s.p.","https://www.firmy.cz/detail/216727-posta-praha-516-praha-zbraslav.html","208"
"10","Bus MHD","Sídliště Zbraslav","","127"
"11","Školka","Soukromá MŠ OPUS, obecně prospěšná společnost","https://www.firmy.cz/detail/1953830-soukroma-ms-opus-praha-zbraslav.html","309"
"12","Sportoviště","Ing. Radka Hanáková","https://www.firmy.cz/detail/673913-ing-radka-hanakova-praha-zbraslav.html","178"
"13","Restaurace","Restaurace U Žemličků","https://www.firmy.cz/detail/12772687-restaurace-u-zemlicku-praha-zbraslav.html","94"
"14","Lékárna","Lékárna Slunce","https://www.firmy.cz/detail/12730449-lekarna-slunce-praha-zbraslav.html","256"
"15","Vlak","Praha-Zbraslav","","1199"
"16","Škola","ZŠ Vladislava Vančury, Praha - Zbraslav","https://www.firmy.cz/detail/2488186-zs-vladislava-vancury-praha-zbraslav-praha-zbraslav.html","379"
"17","Obchod","Obchodní pasáž Sofie","https://www.firmy.cz/detail/217785-obchodni-pasaz-sofie-praha-modrany.html","4952"
"18","Bankomat","Bankomat České spořitelny","https://www.firmy.cz/detail/12837770-bankomat-ceske-sporitelny-praha-zbraslav.html","209"
