"","facility_type","facility_name","facility_iri","facility_distance"
"0","Hřiště","Dětské hřiště Džbánov","https://mapy.cz/zakladni?x=16.161001892&y=49.9180471584&z=17&source=base&id=2131867","2774"
"1","Večerka","Konzum","https://www.firmy.cz/detail/2133572-konzum-hrusova.html","303"
"2","Cukrárna","Kavárna Nopek","https://www.firmy.cz/detail/676921-kavarna-nopek-vysoke-myto-litomyslske-predmesti.html","4507"
"3","Divadlo","Loutkové divadlo Srdíčko Vysoké Mýto","https://www.firmy.cz/detail/2364824-loutkove-divadlo-srdicko-vysoke-myto-vysoke-myto-litomyslske-predmesti.html","4829"
"4","Hospoda","Hospoda Cerekvický Medvídek","https://www.firmy.cz/detail/13180887-hospoda-cerekvicky-medvidek-cerekvice-nad-loucnou.html","1699"
"5","Veterinář","MVDr. Josef Cacek","https://www.firmy.cz/detail/1943968-mvdr-josef-cacek-ceske-hermanice.html","4272"
"6","Bus MHD","Hrušová","https://mapy.cz/zakladni?x=16.1955277689024&y=49.9138106001348&z=17&source=pubt&id=15231147","326"
"7","Restaurace","Kulturní centrum Hrušová","https://www.firmy.cz/detail/13119222-kulturni-centrum-hrusova-hrusova.html","344"
"8","Školka","MŠ Cerekvice nad Loučnou","https://www.firmy.cz/detail/13047126-ms-cerekvice-nad-loucnou-cerekvice-nad-loucnou.html","2013"
"9","Sportoviště","Tělocvičná jednota Sokol Hrušová","https://www.firmy.cz/detail/2134913-telocvicna-jednota-sokol-hrusova-hrusova.html","428"
"10","Obchod","Tesco","https://www.firmy.cz/detail/12742010-tesco-vysoke-myto-litomyslske-predmesti.html","3916"
"11","Pošta","Pošta Partner Cerekvice nad Loučnou","https://www.firmy.cz/detail/13207520-posta-partner-cerekvice-nad-loucnou-cerekvice-nad-loucnou.html","2187"
"12","Škola","ZŠ Cerekvice nad Loučnou","https://www.firmy.cz/detail/356647-zs-cerekvice-nad-loucnou-cerekvice-nad-loucnou.html","1601"
"13","Vlak","Hrušová","https://mapy.cz/zakladni?x=16.1966131667&y=49.9111784006&z=17&source=pubt&id=15211516","497"
"14","Bankomat","Bankomat České spořitelny","https://www.firmy.cz/detail/2609999-bankomat-ceske-sporitelny-vysoke-myto-litomyslske-predmesti.html","3916"
"15","Lékárna","Dr. Max","https://www.firmy.cz/detail/2648281-dr-max-vysoke-myto-litomyslske-predmesti.html","3916"
"16","Lékař","MUDr. Miloš Sláma","https://www.firmy.cz/detail/386015-mudr-milos-slama-cerekvice-nad-loucnou.html","2350"
