"","facility_type","facility_name","facility_iri","facility_distance"
"0","Cukrárna","Cukrárna Brodského","https://www.firmy.cz/detail/13220484-cukrarna-brodskeho-praha-chodov.html","1022"
"1","Kino","Multikino - Premiere Cinemas Praha Hostivař","https://www.firmy.cz/detail/12745547-multikino-premiere-cinemas-praha-hostivar-praha-hostivar.html","989"
"2","Hřiště","Dětské hřiště Berlínská","","65"
"3","Přírodní zajímavost","Mokřad Triangl","","1945"
"4","Večerka","Albert Supermarket","https://www.firmy.cz/detail/2354162-albert-supermarket-praha-hostivar.html","241"
"5","Hospoda","Hospůdka V Ofsajdu","https://www.firmy.cz/detail/13115302-hospudka-v-ofsajdu-praha-chodov.html","1135"
"6","Divadlo","SKAZKA, spol. s r.o.","https://www.firmy.cz/detail/2048564-skazka-praha-hostivar.html","376"
"7","Veterinář","Mgr. Luboš Votoček","https://www.firmy.cz/detail/2454493-mgr-lubos-votocek-praha-chodov.html","923"
"8","Školka","MŠ dánského typu, Praha 10","https://www.firmy.cz/detail/626576-ms-danskeho-typu-praha-10-praha-hostivar.html","292"
"9","Metro","Háje","","1736"
"10","Lékárna","Lékárna Majerského","https://www.firmy.cz/detail/13162341-lekarna-majerskeho-praha-chodov.html","726"
"11","Obchod","Nákupní centrum Košík","https://www.firmy.cz/detail/221987-nakupni-centrum-kosik-praha-hostivar.html","469"
"12","Restaurace","TEODORO Ristorante","https://www.firmy.cz/detail/13035920-teodoro-ristorante-praha-hostivar.html","228"
"13","Pošta","Pošta Praha 107 - Česká pošta, s.p.","https://www.firmy.cz/detail/658873-posta-praha-107-praha-hostivar.html","1030"
"14","Sportoviště","Hřiště na pétanque","","111"
"15","Bus MHD","K Obecním hájovnám","","156"
"16","Škola","ZŠ Hostivař","https://www.firmy.cz/detail/356130-zs-hostivar-praha-hostivar.html","712"
"17","Tram","Obchodní centrum Hostivař","","1107"
"18","Lékař","MUDr. Milena Hofmanová","https://www.firmy.cz/detail/390081-mudr-milena-hofmanova-praha-hostivar.html","227"
"19","Vlak","Praha-Hostivař","","2074"
"20","Bankomat","Bankomat Air Bank","https://www.firmy.cz/detail/13057642-bankomat-air-bank-praha-hostivar.html","1022"
