"","facility_type","facility_name","facility_iri","facility_distance"
"0","Cukrárna","Café KÖNIG - prádelna","https://www.firmy.cz/detail/13191053-cafe-konig-pradelna-plzen-lobzy.html","177"
"1","Kino","Kino Beseda","https://www.firmy.cz/detail/12773769-kino-beseda-plzen-jizni-predmesti.html","2369"
"2","Hřiště","Dětské hřiště Partyzánská II.","","124"
"3","Večerka","Lidl","https://www.firmy.cz/detail/2636150-lidl-plzen-doubravka.html","272"
"4","Hospoda","Pivnice U Pietasu","https://www.firmy.cz/detail/288596-pivnice-u-pietasu-plzen-lobzy.html","307"
"5","Divadlo","Divadlo Alfa","https://www.firmy.cz/detail/231293-divadlo-alfa-plzen-lobzy.html","160"
"6","Veterinář","MVDr. Gabriela Lejčková - VETKVAM.cz","https://www.firmy.cz/detail/13029603-mvdr-gabriela-lejckova-vetkvam-cz-plzen-lobzy.html","370"
"7","Bankomat","Bankomat ČSOB","https://www.firmy.cz/detail/597027-bankomat-csob-plzen-lobzy.html","420"
"8","Škola","28. ZŠ Plzeň","https://www.firmy.cz/detail/358865-28-zs-plzen-plzen-lobzy.html","374"
"9","Bus MHD","Letná","","110"
"10","Lékárna","BENU Lékárna","https://www.firmy.cz/detail/13207337-benu-lekarna-plzen-vychodni-predmesti.html","606"
"11","Pošta","Pošta Plzeň 12 - Česká pošta, s.p.","https://www.firmy.cz/detail/216650-posta-plzen-12-plzen-lobzy.html","420"
"12","Sportoviště","Tělocvičná jednota Sokol Plzeň Letná","https://www.firmy.cz/detail/2118832-telocvicna-jednota-sokol-plzen-letna-plzen-lobzy.html","278"
"13","Restaurace","Restaurace U Petrů","https://www.firmy.cz/detail/2176490-restaurace-u-petru-plzen-lobzy.html","58"
"14","Školka","6. MŠ Plzeň","https://www.firmy.cz/detail/360440-6-ms-plzen-plzen-lobzy.html","218"
"15","Lékař","MUDr. Irena Kaslová","https://www.firmy.cz/detail/388038-mudr-irena-kaslova-plzen-doubravka.html","893"
"16","Vlak","Plzeň-Doubravka","","1235"
"17","Obchod","Obchodní dům AAA","https://www.firmy.cz/detail/649915-obchodni-dum-aaa-plzen-lobzy.html","143"
"18","Tram","U Duhy","","1571"
