"","facility_type","facility_name","facility_iri","facility_distance"
"0","Cukrárna","Bread gap - fresh sandwiches","https://www.firmy.cz/detail/12709423-bread-gap-fresh-sandwiches-praha-mala-strana.html","207"
"1","Kino","Kino Ponrepo","https://www.firmy.cz/detail/396455-kino-ponrepo-praha-stare-mesto.html","1322"
"2","Hřiště","Dětské hřiště Vlašská","","271"
"3","Večerka","Potraviny Karmelitská 270","https://www.firmy.cz/detail/2219817-potraviny-karmelitska-270-praha-mala-strana.html","265"
"4","Divadlo","Divadlo Inspirace","https://www.firmy.cz/detail/2210309-divadlo-inspirace-praha-mala-strana.html","167"
"5","Hospoda","U hrocha","https://www.firmy.cz/detail/336158-u-hrocha-praha-mala-strana.html","298"
"6","Veterinář","MVDr. Katka Sviták Novozámská","https://www.firmy.cz/detail/2137713-mvdr-katka-svitak-novozamska-praha-stare-mesto.html","1180"
"7","Lékař","MUDr. Miroslava Chromá - praktický lékař pro dospělé","https://www.firmy.cz/detail/385911-mudr-miroslava-chroma-prakticky-lekar-pro-dospele-praha-mala-strana.html","45"
"8","Škola","Akademie múzických umění v Praze","https://www.firmy.cz/detail/362817-akademie-muzickych-umeni-v-praze-praha-mala-strana.html","154"
"9","Bankomat","Bankomat České spořitelny","https://www.firmy.cz/detail/594284-bankomat-ceske-sporitelny-praha-mala-strana.html","338"
"10","Sportoviště","Česká obec sokolská","https://www.firmy.cz/detail/177172-ceska-obec-sokolska-praha-mala-strana.html","541"
"11","Lékárna","Lék.Nem.Milosrd.sester sv.K.Boromejského v Praze","https://www.firmy.cz/detail/2307552-lek-nem-milosrd-sester-sv-k-boromejskeho-v-praze-praha-mala-strana.html","286"
"12","Školka","MŠ Praha 1, Hellichova","https://www.firmy.cz/detail/406822-ms-praha-1-hellichova-praha-mala-strana.html","404"
"13","Metro","Malostranská","","769"
"14","Bus MHD","Šporkova","","162"
"15","Pošta","Pošta Praha 012 - Česká pošta, s.p.","https://www.firmy.cz/detail/217498-posta-praha-012-praha-hradcany.html","325"
"16","Obchod","palác metro","https://www.firmy.cz/detail/143339-palac-metro-praha-stare-mesto.html","1397"
"17","Vlak","Praha-Dejvice","","1076"
"18","Restaurace","Aquarius Restaurant","https://www.firmy.cz/detail/1695638-aquarius-restaurant-praha-mala-strana.html","59"
"19","Tram","Malostranské náměstí","","302"
