"","facility_type","facility_name","facility_iri","facility_distance"
"0","Hřiště","Dětské hřiště Trávník","https://mapy.cz/zakladni?x=16.4408&y=49.90118&z=17&source=base&id=2336482","440"
"1","Hospoda","Hospůdka U Gregarů","https://www.firmy.cz/detail/13111215-hospudka-u-gregaru-ceska-trebova.html","316"
"2","Veterinář","Veterinární klinika u nádraží","https://www.firmy.cz/detail/2136152-veterinarni-klinika-u-nadrazi-ceska-trebova.html","115"
"3","Večerka","DAS Potraviny","https://www.firmy.cz/detail/1941254-das-potraviny-ceska-trebova.html","101"
"4","Kino","Kino Svět","https://www.firmy.cz/detail/396476-kino-svet-ceska-trebova.html","58"
"5","Cukrárna","Lahůdky na Starém náměstí","https://www.firmy.cz/detail/13123261-lahudky-na-starem-namesti-ceska-trebova.html","326"
"6","Pošta","Pošta Česká Třebová 2 - Česká pošta, s.p.","https://www.firmy.cz/detail/215715-posta-ceska-trebova-2-ceska-trebova.html","243"
"7","Vlak","Česká Třebová","https://mapy.cz/zakladni?x=16.4463582279&y=49.8972470283&z=17&source=pubt&id=15211176","179"
"8","Restaurace","Nádražní restaurace Česká Třebová","https://www.firmy.cz/detail/13235650-nadrazni-restaurace-ceska-trebova-ceska-trebova.html","157"
"9","Lékárna","Lékárna AGEL","https://www.firmy.cz/detail/12802141-lekarna-agel-ceska-trebova.html","189"
"10","Lékař","POLIKLINIKA AGEL","https://www.firmy.cz/detail/477686-poliklinika-agel-ceska-trebova.html","189"
"11","Škola","ZŠ Česká Třebová, Komenského","https://www.firmy.cz/detail/2698515-zs-ceska-trebova-komenskeho-ceska-trebova.html","115"
"12","Sportoviště","Tělocvičná jednota Sokol Česká Třebová","https://www.firmy.cz/detail/1880648-telocvicna-jednota-sokol-ceska-trebova-ceska-trebova.html","787"
"13","Obchod","OC Česká Třebová","https://www.firmy.cz/detail/13339181-oc-ceska-trebova-ceska-trebova-parnik.html","1512"
"14","Bankomat","Bankomat ČSOB","https://www.firmy.cz/detail/599202-bankomat-csob-ceska-trebova.html","145"
"15","Bus MHD","Česká Třebová, hudební škola","https://mapy.cz/zakladni?x=16.4399573689&y=49.9002166708&z=17&source=pubt&id=15231387","441"
"16","Školka","MŠ Česká Třebová, Vinohrady","https://www.firmy.cz/detail/2384533-ms-ceska-trebova-vinohrady-ceska-trebova.html","299"
