"","facility_type","facility_name","facility_iri","facility_distance"
"0","Cukrárna","Cukrárna Linda","https://www.firmy.cz/detail/2137814-cukrarna-linda-hostivice.html","832"
"1","Kino","Cinema City Zličín","https://www.firmy.cz/detail/436222-cinema-city-zlicin-praha-trebonice.html","4248"
"2","Hřiště","Dětské hřiště Za Zahradami","","207"
"3","Večerka","Spojka Hostivice","https://www.firmy.cz/detail/13343161-spojka-hostivice-hostivice.html","715"
"4","Hospoda","Hostivický statek","https://www.firmy.cz/detail/13323679-hostivicky-statek-hostivice.html","870"
"5","Veterinář","Veterinární klinika Červený vrch, s.r.o.","https://www.firmy.cz/detail/12729416-veterinarni-klinika-cerveny-vrch-hostivice.html","1076"
"6","Obchod","Tesco","https://www.firmy.cz/detail/12741893-tesco-hostivice.html","454"
"7","Škola","ZŠ Hostivice","https://www.firmy.cz/detail/357225-zs-hostivice-hostivice.html","553"
"8","Školka","MŠ Hostivice","https://www.firmy.cz/detail/1311604-ms-hostivice-hostivice.html","491"
"9","Pošta","Pošta Hostivice - Česká pošta, s.p.","https://www.firmy.cz/detail/216673-posta-hostivice-hostivice.html","738"
"10","Sportoviště","Tělovýchovná jednota Hostivice","https://www.firmy.cz/detail/265484-telovychovna-jednota-hostivice-hostivice.html","342"
"11","Restaurace","Restaurant Fort Roxy","https://www.firmy.cz/detail/2072520-restaurant-fort-roxy-hostivice.html","133"
"12","Lékárna","Dr. Max","https://www.firmy.cz/detail/12973126-dr-max-hostivice.html","590"
"13","Vlak","Hostivice-U hřbitova","","1040"
"14","Tram","Sídliště Řepy","","4199"
"15","Bus MHD","Hostivice, Litovice","","116"
"16","Metro","Zličín","","4451"
"17","Lékař","FARMED, s.r.o.","https://www.firmy.cz/detail/13285567-farmed-hostivice.html","586"
"18","Bankomat","Bankomat ČSOB","https://www.firmy.cz/detail/12774563-bankomat-csob-hostivice.html","454"
