"","facility_type","facility_name","facility_iri","facility_distance"
"0","Cukrárna","Karlovarské trdlo","https://www.firmy.cz/detail/13122218-karlovarske-trdlo-karlovy-vary.html","281"
"1","Kino","Letní KINO - Karlovy Vary","https://www.firmy.cz/detail/13330018-letni-kino-karlovy-vary-karlovy-vary.html","820"
"2","Přírodní zajímavost","Karlův hvozd","","557"
"3","Hřiště","Dětské hřiště Tylova","","265"
"4","Večerka","Mini Market U Divadla","https://www.firmy.cz/detail/13325174-mini-market-u-divadla-karlovy-vary.html","267"
"5","Hospoda","Pivnice Drahomíra","https://www.firmy.cz/detail/668384-pivnice-drahomira-karlovy-vary-drahovice.html","1601"
"6","Divadlo","Karlovarské městské divadlo, o.p.s.","https://www.firmy.cz/detail/12756821-karlovarske-mestske-divadlo-o-p-s-karlovy-vary.html","313"
"7","Veterinář","MVDr. Eva Tichá","https://www.firmy.cz/detail/2656349-mvdr-eva-ticha-karlovy-vary-rybare.html","2320"
"8","Lékárna","CENTRAL APOTHEKE","https://www.firmy.cz/detail/13203922-central-apotheke-karlovy-vary.html","327"
"9","Školka","ZŠ a MŠ při zdravotnických zařízeních Karlovy Vary","https://www.firmy.cz/detail/12736566-zs-a-ms-pri-zdravotnickych-zarizenich-karlovy-vary-karlovy-vary.html","1618"
"10","Bankomat","Bankomat Komerční banky","https://www.firmy.cz/detail/13207596-bankomat-komercni-banky-karlovy-vary.html","276"
"11","Bus MHD","Lanovka Imperial","","128"
"12","Škola","ZŠ jazyků Karlovy Vary","https://www.firmy.cz/detail/357610-zs-jazyku-karlovy-vary-karlovy-vary.html","132"
"13","Sportoviště","Sportcentrum Imperial","https://www.firmy.cz/detail/2658628-sportcentrum-imperial-karlovy-vary.html","206"
"14","Lékař","Barak & Debora s.r.o.","https://www.firmy.cz/detail/12840327-barak-debora-s-r-o-karlovy-vary.html","251"
"15","Pošta","Pošta Karlovy Vary 1 - Česká pošta, s.p.","https://www.firmy.cz/detail/217581-posta-karlovy-vary-1-karlovy-vary.html","1218"
"16","Obchod","Obchodní centrum Perla","https://www.firmy.cz/detail/13219298-obchodni-centrum-perla-karlovy-vary.html","1355"
"17","Vlak","Karlovy Vary dolní nádraží","","1891"
"18","Restaurace","Restaurace Prezident","https://www.firmy.cz/detail/12814480-restaurace-prezident-karlovy-vary.html","121"
