"","facility_type","facility_name","facility_iri","facility_distance"
"0","Cukrárna","Cukrárna Ollies","https://www.firmy.cz/detail/12720535-cukrarna-ollies-ostrava-poruba.html","499"
"1","Kino","5D cinema Maxim","https://www.firmy.cz/detail/12950606-5d-cinema-maxim-ostrava-zabreh.html","4532"
"2","Přírodní zajímavost","Polanský bludný balvan","","4673"
"3","Hřiště","Dětské hřiště Španielova","","78"
"4","Večerka","HRUŠKA","https://www.firmy.cz/detail/12820385-hruska-ostrava-poruba.html","137"
"5","Hospoda","Bunkr 02","https://www.firmy.cz/detail/13122600-bunkr-02-ostrava-poruba.html","156"
"6","Divadlo","Porubské divadlo","https://www.firmy.cz/detail/2543038-porubske-divadlo-ostrava-poruba.html","1117"
"7","Veterinář","Veterinární klinika Yorika","https://www.firmy.cz/detail/712067-veterinarni-klinika-yorika-ostrava-poruba.html","780"
"8","Pošta","Pošta Ostrava 8 - Česká pošta, s.p.","https://www.firmy.cz/detail/433404-posta-ostrava-8-ostrava-poruba.html","428"
"9","Tram","Telekomunikační škola","","399"
"10","Škola","Mateřská, základní a střední škola Monty School Ostrava","https://www.firmy.cz/detail/2465005-materska-zakladni-a-stredni-skola-monty-school-ostrava-ostrava-poruba.html","207"
"11","Restaurace","Rusty Bell Pub, irish pub","https://www.firmy.cz/detail/12726181-rusty-bell-pub-irish-pub-ostrava-poruba.html","201"
"12","Bankomat","Bankomat MONETA Money Bank","https://www.firmy.cz/detail/12728594-bankomat-moneta-money-bank-ostrava-poruba.html","276"
"13","Bus MHD","Nezvalovo náměstí","","294"
"14","Lékárna","Lékárna Apromed","https://www.firmy.cz/detail/422080-lekarna-apromed-ostrava-poruba.html","289"
"15","Obchod","Albert Hypermarket","https://www.firmy.cz/detail/12928419-albert-hypermarket-ostrava-poruba.html","500"
"16","Školka","MŠ Pohádka, Nezvalovo nám. 856, Ostrava - Poruba","https://www.firmy.cz/detail/2059637-ms-pohadka-nezvalovo-nam-856-ostrava-poruba-ostrava-poruba.html","157"
"17","Lékař","MUDr. Rosypalová, s.r.o.","https://www.firmy.cz/detail/12829607-mudr-rosypalova-ostrava-poruba.html","264"
"18","Sportoviště","Sportovní a rekreační zařízení města Ostravy","https://www.firmy.cz/detail/423310-sportovni-a-rekreacni-zarizeni-mesta-ostravy-ostrava-poruba.html","400"
"19","Vlak","Ostrava-Třebovice","","1827"
