"","facility_type","facility_name","facility_iri","facility_distance"
"0","Cukrárna","Kavárna Knoflík","https://www.firmy.cz/detail/12890167-kavarna-knoflik-praha-prosek.html","449"
"1","Kino","Cinema City Letňany","https://www.firmy.cz/detail/2679833-cinema-city-letnany-praha-letnany.html","2147"
"2","Přírodní zajímavost","Meandry Rokytky","","2634"
"3","Hřiště","Dětské hřiště Pískovcová","","216"
"4","Večerka","BILLA","https://www.firmy.cz/detail/450502-billa-praha-prosek.html","282"
"5","Divadlo","Divadlo Pohádka","https://www.firmy.cz/detail/636143-divadlo-pohadka-praha-letnany.html","1097"
"6","Hospoda","Bar U Felixe","https://www.firmy.cz/detail/12935261-bar-u-felixe-praha-liben.html","1458"
"7","Veterinář","VETERINÁRNÍ KLINIKA VET-PET","https://www.firmy.cz/detail/12900541-veterinarni-klinika-vet-pet-praha-prosek.html","336"
"8","Bankomat","Bankomat UniCredit Bank Czech Republic","https://www.firmy.cz/detail/13053918-bankomat-unicredit-bank-czech-republic-praha.html","207"
"9","Restaurace","Restaurace U Pejšů","https://www.firmy.cz/detail/287868-restaurace-u-pejsu-praha-prosek.html","84"
"10","Školka","Školička Na Vyhlídce","https://www.firmy.cz/detail/2262357-skolicka-na-vyhlidce-praha-prosek.html","252"
"11","Vlak","Praha-Vysočany","","631"
"12","Bus MHD","Prosecká","","69"
"13","Obchod","Nákupní Centrum Fénix Vysočanská","https://www.firmy.cz/detail/613133-nakupni-centrum-fenix-vysocanska-praha-vysocany.html","930"
"14","Sportoviště","Tělocvičná jednota Sokol Prosek","https://www.firmy.cz/detail/2128193-telocvicna-jednota-sokol-prosek-praha-prosek.html","115"
"15","Tram","Vysočanská","","847"
"16","Pošta","Pošta Praha 9 - Česká pošta, s.p.","https://www.firmy.cz/detail/216700-posta-praha-9-praha-strizkov.html","641"
"17","Lékárna","BENU lékárna","https://www.firmy.cz/detail/13189198-benu-lekarna-praha-prosek.html","271"
"18","Škola","ZUŠ Praha 9, U Prosecké školy","https://www.firmy.cz/detail/427140-zus-praha-9-u-prosecke-skoly-praha-prosek.html","287"
"19","Lékař","MOJE AMBULANCE","https://www.firmy.cz/detail/2697903-moje-ambulance-praha-prosek.html","235"
"20","Metro","Prosek","","165"
