"","facility_type","facility_name","facility_iri","facility_distance"
"0","Hřiště","Dětské hřiště u Janáčkova divadla","https://mapy.cz/zakladni?x=16.6129100199&y=49.1980693309&z=17&source=base&id=2217199","155"
"1","Večerka","Tesco Expres","https://www.firmy.cz/detail/12883780-tesco-expres-brno-mesto.html","175"
"2","Cukrárna","SAMPALERO dětská kavárna","https://www.firmy.cz/detail/13037417-sampalero-detska-kavarna-brno-mesto.html","104"
"3","Veterinář","JK VET","https://www.firmy.cz/detail/13212090-jk-vet-brno-veveri.html","702"
"4","Hospoda","Pivní burza","https://www.firmy.cz/detail/12980786-pivni-burza-brno-mesto.html","266"
"5","Divadlo","Mahenovo divadlo","https://www.firmy.cz/detail/661284-mahenovo-divadlo-brno-mesto.html","95"
"6","Přírodní zajímavost","Přírodní zahrada U Smrku","https://mapy.cz/zakladni?x=16.58765420430356&y=49.22807918152045&z=17&source=base&id=2324158","3961"
"7","Kino","Univerzitní kino Scala","https://www.firmy.cz/detail/13188410-univerzitni-kino-scala-brno-mesto.html","400"
"8","Restaurace","Kohout na víně","https://www.firmy.cz/detail/2660706-kohout-na-vine-brno-mesto.html","87"
"9","Školka","MŠ Brno, Jánská","https://www.firmy.cz/detail/431894-ms-brno-janska-brno-mesto.html","236"
"10","Sportoviště","Senior Tennis Club, a.s.","https://www.firmy.cz/detail/187140-senior-tennis-club-brno-mesto.html","32"
"11","Bankomat","Bankomat Air Bank","https://www.firmy.cz/detail/13202374-bankomat-air-bank-brno-mesto.html","163"
"12","Lékař","MUDr. Martin Urbánek","https://www.firmy.cz/detail/13266408-mudr-martin-urbanek-brno-mesto.html","32"
"13","Bus MHD","Janáčkovo divadlo","https://mapy.cz/zakladni?x=16.610307&y=49.197997&z=17&source=pubt&id=15206190","278"
"14","Vlak","Brno hlavní nádraží","https://mapy.cz/zakladni?x=16.6128016943&y=49.1905819126&z=17&source=pubt&id=15211057","689"
"15","Pošta","Pošta Brno 1 - Česká pošta, s.p.","https://www.firmy.cz/detail/216017-posta-brno-1-brno-mesto.html","271"
"16","Tram","Malinovského náměstí","https://mapy.cz/zakladni?x=16.6129525447&y=49.1961307948&z=17&source=pubt&id=15206122","85"
"17","Škola","Střední odborná škola EDUCAnet Brno, o.p.s.","https://www.firmy.cz/detail/361591-stredni-odborna-skola-educanet-brno-o-p-s-brno-bohunice.html","236"
"18","Lékárna","Lékárna Na Cejlu","https://www.firmy.cz/detail/12790561-lekarna-na-cejlu-brno-zabrdovice.html","195"
"19","Obchod","Obchodní dům KLÁŠTER","https://www.firmy.cz/detail/664474-obchodni-dum-klaster-brno-mesto.html","367"
