"","facility_type","facility_name","facility_iri","facility_distance"
"0","Cukrárna","BEJBIŠTĚ","https://www.firmy.cz/detail/12943104-bejbiste-chrudim-iv.html","1935"
"1","Kino","Leťák Chrudim","https://www.firmy.cz/detail/13071118-letak-chrudim-chrudim-iv.html","1926"
"2","Hřiště","Dětské hřiště Na Výsluní","","1550"
"3","Večerka","BILLA stop & shop","https://www.firmy.cz/detail/12978159-billa-stop-shop-chrudim.html","1455"
"4","Divadlo","Loutkářský soubor Ahoj Chrudim, občanské sdružení","https://www.firmy.cz/detail/2303599-loutkarsky-soubor-ahoj-chrudim-obcanske-sdruzeni-chrudim-ii.html","1780"
"5","Hospoda","David Mikuláš","https://www.firmy.cz/detail/13114026-david-mikulas-chrudim-iv.html","1826"
"6","Veterinář","MVDr. Petr Stránský","https://www.firmy.cz/detail/592749-mvdr-petr-stransky-chrudim-ii.html","1861"
"7","Bankomat","Bankomat Komerční banky","https://www.firmy.cz/detail/594425-bankomat-komercni-banky-chrudim-iv.html","2008"
"8","Lékárna","Dr.Max LÉKÁRNA","https://www.firmy.cz/detail/2270234-dr-max-lekarna-chrudim-iv.html","2169"
"9","Vlak","Chrudim město","","1497"
"10","Bus MHD","Chrudim, Vestec","","103"
"11","Pošta","Pošta Chrudim 5 - Česká pošta, s.p.","https://www.firmy.cz/detail/215821-posta-chrudim-5-chrudim-iv.html","1999"
"12","Lékař","MUDr. Petr Michal","https://www.firmy.cz/detail/13182522-mudr-petr-michal-chrudim-iv.html","1644"
"13","Sportoviště","FK G 12 Chrudim, z.s.","https://www.firmy.cz/detail/2651394-fk-g-12-chrudim-z-s-chrudim-iv.html","1398"
"14","Škola","Střední škola zemědělská a Vyšší odborná škola Chrudim","https://www.firmy.cz/detail/2205216-stredni-skola-zemedelska-a-vyssi-odborna-skola-chrudim-chrudim-iv.html","1777"
"15","Restaurace","Restaurace U Kapličky","https://www.firmy.cz/detail/13282697-restaurace-u-kaplicky-chrudim-iv.html","1298"
"16","Obchod","Albert Hypermarket","https://www.firmy.cz/detail/446725-albert-hypermarket-chrudim-ii.html","2148"
"17","Školka","MŠ Chrudim, Dr. Jana Malíka","https://www.firmy.cz/detail/1973753-ms-chrudim-dr-jana-malika-chrudim-ii.html","2013"
