"","facility_type","facility_name","facility_iri","facility_distance"
"0","Přírodní zajímavost","Uhelná sloj v Landeku","https://mapy.cz/zakladni?x=18.2692044444&y=49.8672338889&z=17&source=base&id=1981598","3807"
"1","Hřiště","Dětské hřiště Husův sad","https://mapy.cz/zakladni?x=18.2890704332&y=49.8387094694&z=17&source=base&id=2113285","351"
"2","Cukrárna","Waflárna - Bistro Na Zámecké","https://www.firmy.cz/detail/13216534-waflarna-bistro-na-zamecke-ostrava-moravska-ostrava.html","82"
"3","Kino","Kino vesmír","https://www.firmy.cz/detail/12980428-kino-vesmir-ostrava-moravska-ostrava.html","196"
"4","Divadlo","Divadlo Jiřího Myrona","https://www.firmy.cz/detail/401503-divadlo-jiriho-myrona-ostrava-moravska-ostrava.html","112"
"5","Večerka","HRUŠKA","https://www.firmy.cz/detail/13201506-hruska-ostrava-moravska-ostrava.html","67"
"6","Hospoda","U Zrzavé Mary","https://www.firmy.cz/detail/574097-u-zrzave-mary-ostrava-moravska-ostrava.html","186"
"7","Veterinář","Veterinární ordinace - MVDr. Richard Saviola","https://www.firmy.cz/detail/477150-veterinarni-ordinace-mvdr-richard-saviola-ostrava-moravska-ostrava.html","1160"
"8","Tram","Elektra","https://mapy.cz/zakladni?x=18.2878042282215&y=49.8348549484861&z=17&source=pubt&id=15202716","136"
"9","Bankomat","Bankomat ČSOB","https://www.firmy.cz/detail/599413-bankomat-csob-ostrava-moravska-ostrava.html","122"
"10","Lékárna","BENU Lékárna","https://www.firmy.cz/detail/2234016-benu-lekarna-ostrava-moravska-ostrava.html","190"
"11","Obchod","Obchodní centrum LASO","https://www.firmy.cz/detail/2071391-obchodni-centrum-laso-ostrava-moravska-ostrava.html","280"
"12","Školka","MŠ Ostrava, Dvořákova","https://www.firmy.cz/detail/2333638-ms-ostrava-dvorakova-ostrava-moravska-ostrava.html","277"
"13","Lékař","MUDr. Jarmila Fialová","https://www.firmy.cz/detail/370609-mudr-jarmila-fialova-ostrava-moravska-ostrava.html","55"
"14","Pošta","Pošta Ostrava 1 - Česká pošta, s.p.","https://www.firmy.cz/detail/452777-posta-ostrava-1-ostrava-moravska-ostrava.html","265"
"15","Sportoviště","SKS GAMES, s.r.o.","https://www.firmy.cz/detail/12797496-sks-games-ostrava-moravska-ostrava.html","67"
"16","Bus MHD","Most M. Sýkory","https://mapy.cz/zakladni?x=18.2939555169&y=49.836858192&z=17&source=pubt&id=15202575","360"
"17","Vlak","Ostrava-Stodolní","https://mapy.cz/zakladni?x=18.2809778624&y=49.8344412946&z=17&source=pubt&id=15213504","614"
"18","Restaurace","Restaurace Bar 2‰","https://www.firmy.cz/detail/13015686-restaurace-bar-2-ostrava-moravska-ostrava.html","56"
"19","Škola","NEWPORT INTERNATIONAL UNIVERSITY, s.r.o.","https://www.firmy.cz/detail/586886-newport-international-university-ostrava-moravska-ostrava.html","67"
