"","facility_type","facility_name","facility_iri","facility_distance"
"0","Hřiště","Dětské hřiště Svitákova","https://mapy.cz/zakladni?x=14.3035341667&y=50.0467433333&z=17&source=base&id=1929109","56"
"1","Večerka","Potraviny Svitákova 7","https://www.firmy.cz/detail/13163774-potraviny-svitakova-7-praha-stodulky.html","81"
"2","Veterinář","Veterinární klinika Delta MVDr.Michael Růžička, s.r.o.","https://www.firmy.cz/detail/12957413-veterinarni-klinika-delta-mvdr-michael-ruzicka-praha-repy.html","1648"
"3","Cukrárna","La Zmrzka","https://www.firmy.cz/detail/13065320-la-zmrzka-praha-stodulky.html","119"
"4","Hospoda","G Pivnice Stodůlky","https://www.firmy.cz/detail/13146250-g-pivnice-stodulky-praha-stodulky.html","577"
"5","Divadlo","Divadelní studio Bubec","https://www.firmy.cz/detail/13047862-divadelni-studio-bubec-praha-reporyje.html","1256"
"6","Přírodní zajímavost","Kovářovic mez","https://mapy.cz/zakladni?x=14.36107759920759&y=50.04395254566995&z=17&source=base&id=2339664","4132"
"7","Kino","Cinema City Zličín","https://www.firmy.cz/detail/436222-cinema-city-zlicin-praha-trebonice.html","1371"
"8","Bus MHD","Stodůlky","https://mapy.cz/zakladni?x=14.3075724196&y=50.0466730604&z=17&source=pubt&id=16447453","302"
"9","Bankomat","Bankomat Komerční banky","https://www.firmy.cz/detail/13323939-bankomat-komercni-banky-praha-stodulky.html","206"
"10","Sportoviště","JumpPark Zličín","https://www.firmy.cz/detail/13066617-jumppark-zlicin-praha-trebonice.html","1134"
"11","Škola","MŠ a ZŠ speciální Diakonie ČCE Praha","https://www.firmy.cz/detail/13343847-ms-a-zs-specialni-diakonie-cce-praha-praha-stodulky.html","478"
"12","Restaurace","Kolkovna Stodůlky","https://www.firmy.cz/detail/12733983-kolkovna-stodulky-praha-stodulky.html","197"
"13","Tram","Slánská","https://mapy.cz/zakladni?x=14.3085323654&y=50.0645460542&z=17&source=pubt&id=15303706","1958"
"14","Lékař","MUDr. Dagmar Bělská","https://www.firmy.cz/detail/386753-mudr-dagmar-belska-praha-stodulky.html","802"
"15","Metro","Stodůlky","https://mapy.cz/zakladni?x=14.3050062943&y=50.0465812395&z=17&source=pubt&id=15200591","134"
"16","Pošta","Pošta Praha 515 - Česká pošta, s.p.","https://www.firmy.cz/detail/216728-posta-praha-515-praha-stodulky.html","374"
"17","Lékárna","Lékárna Stodůlky","https://www.firmy.cz/detail/13101091-lekarna-stodulky-praha-stodulky.html","802"
"18","Vlak","Praha-Řeporyje","https://mapy.cz/zakladni?x=14.30978173483885&y=50.032250840754294&z=17&source=pubt&id=15212576","1728"
"19","Obchod","Homepark Zličín","https://www.firmy.cz/detail/13177905-homepark-zlicin-praha-trebonice.html","484"
"20","Školka","MŠ Večerníček, Praha 13","https://www.firmy.cz/detail/646823-ms-vecernicek-praha-13-praha-stodulky.html","534"
