"","facility_type","facility_name","facility_iri","facility_distance"
"0","Cukrárna","Cukrárna Sladká dílna","https://www.firmy.cz/detail/13333187-cukrarna-sladka-dilna-praha-veleslavin.html","384"
"1","Kino","Kino Dlabačov","https://www.firmy.cz/detail/13024517-kino-dlabacov-praha-brevnov.html","2418"
"2","Hřiště","Dětské hřiště Nad Alejí","","105"
"3","Večerka","Můjobchod - Potraviny B&T","https://www.firmy.cz/detail/12997219-mujobchod-potraviny-b-t-praha-brevnov.html","96"
"4","Hospoda","PIVNÍ BAR Skřítek","https://www.firmy.cz/detail/13114640-pivni-bar-skritek-praha-brevnov.html","113"
"5","Divadlo","KAŠTAN - Scéna Unijazzu","https://www.firmy.cz/detail/397273-kastan-scena-unijazzu-praha-brevnov.html","1057"
"6","Veterinář","Veterinární klinika Červený vrch, s.r.o.","https://www.firmy.cz/detail/595558-veterinarni-klinika-cerveny-vrch-praha-veleslavin.html","376"
"7","Lékárna","Lékárna Hvězda Petřiny","https://www.firmy.cz/detail/583640-lekarna-hvezda-petriny-praha-veleslavin.html","367"
"8","Bankomat","Bankomat Euronet","https://www.firmy.cz/detail/604335-bankomat-euronet-praha-brevnov.html","279"
"9","Bus MHD","Nad Markétou","","196"
"10","Školka","MŠ Volavkova","https://www.firmy.cz/detail/470617-ms-volavkova-praha-brevnov.html","123"
"11","Škola","ZUŠ Praha 6, Nad Alejí","https://www.firmy.cz/detail/427124-zus-praha-6-nad-aleji-praha-brevnov.html","67"
"12","Metro","Petřiny","","123"
"13","Tram","Petřiny","","306"
"14","Sportoviště","Staša Matějovská","https://www.firmy.cz/detail/12748803-stasa-matejovska-praha-brevnov.html","289"
"15","Obchod","Obchodní dům Čílova","https://www.firmy.cz/detail/13157318-obchodni-dum-cilova-praha-veleslavin.html","374"
"16","Pošta","Pošta Praha 616 - Česká pošta, s.p.","https://www.firmy.cz/detail/431331-posta-praha-616-praha-veleslavin.html","469"
"17","Vlak","Praha-Veleslavín","","1046"
"18","Restaurace","Restaurace Nad Alejí","https://www.firmy.cz/detail/13114622-restaurace-nad-aleji-praha-brevnov.html","113"
"19","Lékař","MUDr. Věra Pudláková, s.r.o.","https://www.firmy.cz/detail/12835877-mudr-vera-pudlakova-praha-brevnov.html","934"
