"","facility_type","facility_name","facility_iri","facility_distance"
"0","Cukrárna","Kavárna Bublina","https://www.firmy.cz/detail/13121572-kavarna-bublina-chodov.html","686"
"1","Kino","Kino Malá Scéna","https://www.firmy.cz/detail/457673-kino-mala-scena-chodov.html","164"
"2","Hřiště","Dětské hřiště","","235"
"3","Večerka","Penny Market","https://www.firmy.cz/detail/207770-penny-market-chodov.html","127"
"4","Hospoda","Pivnice Skleník","https://www.firmy.cz/detail/2032205-pivnice-sklenik-chodov.html","218"
"5","Veterinář","Veterinární ordinace NA FAŘE","https://www.firmy.cz/detail/2099952-veterinarni-ordinace-na-fare-chodov.html","686"
"6","Pošta","Pošta Chodov u Karlových Var 1 - Česká pošta, s.p.","https://www.firmy.cz/detail/216442-posta-chodov-u-karlovych-var-1-chodov.html","241"
"7","Sportoviště","Bowling klub Chodov","https://www.firmy.cz/detail/2457855-bowling-klub-chodov-chodov.html","501"
"8","Bankomat","Bankomat ČSOB","https://www.firmy.cz/detail/596935-bankomat-csob-chodov.html","241"
"9","Škola","Základní umělecká škola Chodov, okres Sokolov","https://www.firmy.cz/detail/429439-zakladni-umelecka-skola-chodov-okres-sokolov-chodov.html","145"
"10","Bus MHD","Chodov, sídliště","","204"
"11","Lékař","PRAKTIK CHODOV, s.r.o.","https://www.firmy.cz/detail/12840576-praktik-chodov-chodov.html","369"
"12","Lékárna","Lékárna u polikliniky","https://www.firmy.cz/detail/2613880-lekarna-u-polikliniky-chodov.html","704"
"13","Restaurace","Restaurace Sparta","https://www.firmy.cz/detail/13150007-restaurace-sparta-chodov.html","207"
"14","Vlak","Chodov","","1616"
"15","Obchod","MAKRO Cash & Carry","https://www.firmy.cz/detail/689558-makro-cash-carry-jenisov-pod-rohem.html","5188"
"16","Školka","MŠ Chodov","https://www.firmy.cz/detail/2128617-ms-chodov-chodov.html","202"
