"","facility_type","facility_name","facility_iri","facility_distance"
"0","Cukrárna","mamacoffee","https://www.firmy.cz/detail/2515188-mamacoffee-praha-nove-mesto.html","169"
"1","Kino","Kino 35 Francouzský institut v Praze","https://www.firmy.cz/detail/682514-kino-35-francouzsky-institut-v-praze-praha-nove-mesto.html","251"
"2","Hřiště","Dětské hřiště Františkánská zahrada","","300"
"3","Přírodní zajímavost","Kovářovic mez","","5924"
"4","Večerka","BILLA","https://www.firmy.cz/detail/2070650-billa-praha-nove-mesto.html","201"
"5","Hospoda","Batalion Café & Music Bar","https://www.firmy.cz/detail/457689-batalion-cafe-music-bar-praha-stare-mesto.html","379"
"6","Divadlo","Divadlo Kalich","https://www.firmy.cz/detail/158149-divadlo-kalich-praha-nove-mesto.html","23"
"7","Veterinář","MVDr. Katka Sviták Novozámská","https://www.firmy.cz/detail/2137713-mvdr-katka-svitak-novozamska-praha-stare-mesto.html","700"
"8","Škola","ZŠ Praha 1, Vodičkova","https://www.firmy.cz/detail/358946-zs-praha-1-vodickova-praha-nove-mesto.html","87"
"9","Lékárna","Lékárna Jungmannova","https://www.firmy.cz/detail/304714-lekarna-jungmannova-praha-nove-mesto.html","40"
"10","Restaurace","Hlávkův Dvůr","https://www.firmy.cz/detail/2372478-hlavkuv-dvur-praha-nove-mesto.html","96"
"11","Bus MHD","Ve Smečkách","","406"
"12","Vlak","Praha hlavní nádraží","","1107"
"13","Obchod","Quadrio","https://www.firmy.cz/detail/2042979-quadrio-praha-nove-mesto.html","239"
"14","Sportoviště","Vinland Golf Club","https://www.firmy.cz/detail/2406923-vinland-golf-club-praha-nove-mesto.html","174"
"15","Lékař","MUDr. Jitka Sedláčková","https://www.firmy.cz/detail/387710-mudr-jitka-sedlackova-praha-nove-mesto.html","97"
"16","Školka","MŠ Praha 1, Národní","https://www.firmy.cz/detail/407385-ms-praha-1-narodni-praha-stare-mesto.html","334"
"17","Pošta","Pošta Praha 1 - Česká pošta, s.p.","https://www.firmy.cz/detail/216682-posta-praha-1-praha-nove-mesto.html","543"
"18","Bankomat","Bankomat České spořitelny","https://www.firmy.cz/detail/594214-bankomat-ceske-sporitelny-praha-nove-mesto.html","50"
"19","Tram","Vodičkova","","60"
"20","Metro","Národní třída","","158"
