"","facility_type","facility_name","facility_iri","facility_distance"
"0","Cukrárna","Jazz café","https://www.firmy.cz/detail/12971229-jazz-cafe-liberec-xxiii-doubi.html","825"
"1","Kino","CineStar Liberec","https://www.firmy.cz/detail/2423444-cinestar-liberec-liberec-xxiii-doubi.html","932"
"2","Hřiště","Dětské hřiště Česká","","497"
"3","Přírodní zajímavost","Nový prales","","4003"
"4","Večerka","Potraviny Proletářská","https://www.firmy.cz/detail/13330151-potraviny-proletarska-liberec-xxiii-doubi.html","54"
"5","Hospoda","Restaurace Hodkovická 61","https://www.firmy.cz/detail/13123997-restaurace-hodkovicka-61-liberec-xxiii-doubi.html","762"
"6","Divadlo","Spojáček","https://www.firmy.cz/detail/2112674-spojacek-liberec-xxv-vesec.html","597"
"7","Veterinář","VETERINARIA, s.r.o.","https://www.firmy.cz/detail/640594-veterinaria-liberec-xxiii-doubi.html","559"
"8","Obchod","MAKRO Cash & Carry","https://www.firmy.cz/detail/674332-makro-cash-carry-liberec-xxiii-doubi.html","500"
"9","Bus MHD","Doubí pošta","","20"
"10","Tram","Lékárna","","2315"
"11","Bankomat","Bankomat ČSOB","https://www.firmy.cz/detail/13034977-bankomat-csob-liberec-xxiii-doubi.html","500"
"12","Restaurace","Restaurace Kiki bar","https://www.firmy.cz/detail/13322393-restaurace-kiki-bar-liberec-xxv-vesec.html","406"
"13","Lékárna","Lékárna NISA","https://www.firmy.cz/detail/12861495-lekarna-nisa-liberec-xxiii-doubi.html","932"
"14","Školka","Mateřská škola DOMINO, s.r.o.","https://www.firmy.cz/detail/2611303-materska-skola-domino-liberec-xxiii-doubi.html","114"
"15","Vlak","Liberec-Rochlice","","1407"
"16","Škola","ZŠ Liberec, Kaplického","https://www.firmy.cz/detail/357992-zs-liberec-kaplickeho-liberec-xxiii-doubi.html","486"
"17","Pošta","Pošta Liberec 25 - Česká pošta, s.p.","https://www.firmy.cz/detail/432014-posta-liberec-25-liberec-xxv-vesec.html","590"
"18","Lékař","MEDICA SEVER s.r.o.","https://www.firmy.cz/detail/12831795-medica-sever-s-r-o-liberec-xxv-vesec.html","435"
"19","Sportoviště","Tělovýchovná jednota Sokol Doubí","https://www.firmy.cz/detail/168634-telovychovna-jednota-sokol-doubi-liberec-xxv-vesec.html","406"
