"","facility_type","facility_name","facility_iri","facility_distance"
"0","Cukrárna","Cukrárna na  náměstí Míru 17","https://www.firmy.cz/detail/2256453-cukrarna-na-namesti-miru-17-jablonne-v-podjestedi.html","836"
"1","Přírodní zajímavost","Mokřady Jablonné","","1244"
"2","Hřiště","Dětské hřiště Rynoltice","","4071"
"3","Večerka","Pramen","https://www.firmy.cz/detail/13167126-pramen-jablonne-v-podjestedi.html","698"
"4","Hospoda","Pivnice Rosina","https://www.firmy.cz/detail/13010362-pivnice-rosina-jablonne-v-podjestedi.html","584"
"5","Veterinář","Duovet s.r.o.","https://www.firmy.cz/detail/13156995-duovet-s-r-o-jablonne-v-podjestedi.html","723"
"6","Škola","ZŠ a ZUŠ Jablonné v Podještědí","https://www.firmy.cz/detail/357453-zs-a-zus-jablonne-v-podjestedi-jablonne-v-podjestedi-markvartice.html","136"
"7","Bankomat","Bankomat České spořitelny","https://www.firmy.cz/detail/13265216-bankomat-ceske-sporitelny-jablonne-v-podjestedi.html","643"
"8","Vlak","Jablonné v Podještědí","","807"
"9","Restaurace","Lenka Bílková - Restaurace","https://www.firmy.cz/detail/13111107-lenka-bilkova-restaurace-jablonne-v-podjestedi.html","406"
"10","Školka","MŠ Studánka Jablonné v Podještědí, Liberecká","https://www.firmy.cz/detail/2272798-ms-studanka-jablonne-v-podjestedi-liberecka-jablonne-v-podjestedi-markvartice.html","67"
"11","Sportoviště","Koupaliště Jablonné v Podještědí","https://www.firmy.cz/detail/13033458-koupaliste-jablonne-v-podjestedi-jablonne-v-podjestedi-markvartice.html","582"
"12","Bus MHD","Jablonné v Podještědí, škola","","271"
"13","Lékař","MUDr. Ivana Adamcová","https://www.firmy.cz/detail/381065-mudr-ivana-adamcova-jablonne-v-podjestedi-markvartice.html","136"
"14","Lékárna","Lékárna Svaté Zdislavy","https://www.firmy.cz/detail/374935-lekarna-svate-zdislavy-jablonne-v-podjestedi.html","829"
"15","Pošta","Pošta Jablonné v Podještědí - Česká pošta, s.p.","https://www.firmy.cz/detail/215478-posta-jablonne-v-podjestedi-jablonne-v-podjestedi.html","723"
