"","facility_type","facility_name","facility_iri","facility_distance"
"0","Cukrárna","Panetteria Maya","https://www.firmy.cz/detail/276877-panetteria-maya-most.html","791"
"1","Kino","Kino Kosmos","https://www.firmy.cz/detail/401279-kino-kosmos-most.html","585"
"2","Hřiště","Dětské hřiště Tyršova","","145"
"3","Večerka","Potraviny U Kubísků","https://www.firmy.cz/detail/13132594-potraviny-u-kubisku-most.html","67"
"4","Hospoda","Krušovická restaurace Konečná","https://www.firmy.cz/detail/13259251-krusovicka-restaurace-konecna-most.html","454"
"5","Divadlo","Městské divadlo v Mostě, spol. s r.o.","https://www.firmy.cz/detail/1336052-mestske-divadlo-v-moste-most.html","864"
"6","Veterinář","VETERINA-MOST","https://www.firmy.cz/detail/12832535-veterina-most-most.html","763"
"7","Lékař","MUDr. Jiřina Ceeová","https://www.firmy.cz/detail/371069-mudr-jirina-ceeova-most.html","248"
"8","Restaurace","Restaurace Neprakta","https://www.firmy.cz/detail/13264072-restaurace-neprakta-most.html","67"
"9","Tram","Most, Čs.mládeže","","245"
"10","Pošta","Pošta Most 1 - Česká pošta, s.p.","https://www.firmy.cz/detail/216966-posta-most-1-most.html","1151"
"11","Bus MHD","Most, Čs.mládeže","","306"
"12","Sportoviště","SportCenter Most s.r.o.","https://www.firmy.cz/detail/13235550-sportcenter-most-s-r-o-most.html","896"
"13","Školka","MŠ Most,  Zdeňka Fibicha","https://www.firmy.cz/detail/2281898-ms-most-zdenka-fibicha-most.html","205"
"14","Lékárna","Dr. Max LÉKÁRNA","https://www.firmy.cz/detail/2007249-dr-max-lekarna-most.html","444"
"15","Škola","Vyšší odborná škola ekonomická, sociální a zdravotnická, Obchodní akademie, Střední pedagogická škola a Střední zdravotnická škola Most","https://www.firmy.cz/detail/362148-vyssi-odborna-skola-ekonomicka-socialni-a-zdravotnicka-obchodni-akademie-stredni-pedagogicka-skola-a-stredni-zdravotnicka-skola-most-most.html","272"
"16","Bankomat","Bankomat MONETA Money Bank","https://www.firmy.cz/detail/13082219-bankomat-moneta-money-bank-most.html","557"
"17","Vlak","Most","","2434"
"18","Obchod","Central Most","https://www.firmy.cz/detail/2412415-central-most-most.html","731"
