"","facility_type","facility_name","facility_iri","facility_distance"
"0","Cukrárna","CoolCukra Cukrárna","https://www.firmy.cz/detail/13227891-coolcukra-cukrarna-frydek-mistek-frydek.html","161"
"1","Kino","5D cinema Maxim","https://www.firmy.cz/detail/12950607-5d-cinema-maxim-frydek-mistek-frydek.html","1431"
"2","Přírodní zajímavost","Bludné balvany ve Frýdeckém lese","","1713"
"3","Hřiště","Dětské hřiště Nad Lipinou","","314"
"4","Večerka","POTRAVINY NOVÁK, veřejná obchodní společnost","https://www.firmy.cz/detail/294119-potraviny-novak-frydek-mistek-frydek.html","269"
"5","Hospoda","Hospůdka U Podkovy","https://www.firmy.cz/detail/2570593-hospudka-u-podkovy-frydek-mistek-frydek.html","208"
"6","Divadlo","Divadlo Nová scéna Vlast","https://www.firmy.cz/detail/661522-divadlo-nova-scena-vlast-frydek-mistek-mistek.html","1770"
"7","Veterinář","MVDr. Barbora Jurišicová","https://www.firmy.cz/detail/2472433-mvdr-barbora-jurisicova-sviadnov.html","1330"
"8","Restaurace","Kozlovna na Špici","https://www.firmy.cz/detail/13234864-kozlovna-na-spici-frydek-mistek-frydek.html","161"
"9","Pošta","Pošta Frýdek-Místek 13 - Česká pošta, s.p.","https://www.firmy.cz/detail/432959-posta-frydek-mistek-13-frydek-mistek-frydek.html","268"
"10","Škola","ZŠ a MŠ Naděje Frýdek-Místek","https://www.firmy.cz/detail/12973364-zs-a-ms-nadeje-frydek-mistek-frydek-mistek-frydek.html","177"
"11","Bus MHD","Frýdek-Místek, Frýdek, sídliště","","38"
"12","Sportoviště","Motokáry v hale FM, s.r.o.","https://www.firmy.cz/detail/12919016-motokary-v-hale-fm-frydek-mistek-frydek.html","309"
"13","Školka","Základní škola a mateřská škola Frýdek-Místek, El. Krásnohorské 2254","https://www.firmy.cz/detail/2159317-zakladni-skola-a-materska-skola-frydek-mistek-el-krasnohorske-2254-frydek-mistek-frydek.html","300"
"14","Bankomat","Bankomat ČSOB","https://www.firmy.cz/detail/636693-bankomat-csob-frydek-mistek-frydek.html","268"
"15","Vlak","Lískovec u Frýdku","","1118"
"16","Obchod","Kaufland","https://www.firmy.cz/detail/738648-kaufland-frydek-mistek-frydek.html","762"
"17","Lékař","MUDr. Klára Galdunová","https://www.firmy.cz/detail/12825612-mudr-klara-galdunova-frydek-mistek.html","386"
"18","Lékárna","Lékárna U Mariánského kostela","https://www.firmy.cz/detail/1990510-lekarna-u-marianskeho-kostela-frydek-mistek-frydek.html","386"
