"","facility_type","facility_name","facility_iri","facility_distance"
"0","Cukrárna","Cukrárna Lada","https://www.firmy.cz/detail/12915655-cukrarna-lada-havirov-sumbark.html","226"
"1","Kino","Letní kino - Městské kulturní středisko Havířov","https://www.firmy.cz/detail/13072791-letni-kino-havirov.html","2070"
"2","Hřiště","Dětské hřiště Jedlová","","185"
"3","Večerka","Potraviny Jedlová","https://www.firmy.cz/detail/13330132-potraviny-jedlova-havirov-sumbark.html","125"
"4","Hospoda","Pivnice u Papina","https://www.firmy.cz/detail/2357026-pivnice-u-papina-havirov-sumbark.html","239"
"5","Veterinář","Veterinární ordinace Vaculíkovi","https://www.firmy.cz/detail/1958348-veterinarni-ordinace-vaculikovi-havirov-sumbark.html","806"
"6","Škola","ZŠ Havířov - Šumbark, Moravská","https://www.firmy.cz/detail/357062-zs-havirov-sumbark-moravska-havirov-sumbark.html","170"
"7","Lékárna","Lékárna Léčebné centrum","https://www.firmy.cz/detail/2202513-lekarna-lecebne-centrum-havirov-sumbark.html","1202"
"8","Sportoviště","Sportovní klub stolního tenisu Baník Havířov, z.s.","https://www.firmy.cz/detail/176025-sportovni-klub-stolniho-tenisu-banik-havirov-z-s-havirov-sumbark.html","1026"
"9","Restaurace","Hospůdka KRABICE","https://www.firmy.cz/detail/13114345-hospudka-krabice-havirov-sumbark.html","587"
"10","Lékař","PRACTICOM s.r.o.","https://www.firmy.cz/detail/2288772-practicom-s-r-o-havirov-sumbark.html","301"
"11","Bus MHD","Havířov, Šumbark, 2.etapa Letní","","152"
"12","Pošta","Pošta Havířov 7 - Česká pošta, s.p.","https://www.firmy.cz/detail/431643-posta-havirov-7-havirov-sumbark.html","432"
"13","Bankomat","Bankomat Komerční banky","https://www.firmy.cz/detail/594097-bankomat-komercni-banky-havirov-sumbark.html","395"
"14","Školka","MŠ Havířov - Šumbark Moravská","https://www.firmy.cz/detail/2333571-ms-havirov-sumbark-moravska-havirov-sumbark.html","260"
"15","Obchod","Tesco","https://www.firmy.cz/detail/218205-tesco-havirov-mesto.html","1301"
"16","Vlak","Havířov","","1364"
