"","facility_type","facility_name","facility_iri","facility_distance"
"0","Cukrárna","Cukrárna MiniVEGA","https://www.firmy.cz/detail/13214110-cukrarna-minivega-hnojnik.html","4787"
"1","Hřiště","Dětské hřiště Řeka","","2028"
"2","Večerka","Potraviny Bea","https://www.firmy.cz/detail/13135734-potraviny-bea-reka.html","63"
"3","Hospoda","Hospůdka U lomu","https://www.firmy.cz/detail/13321610-hospudka-u-lomu-reka.html","153"
"4","Veterinář","MVDr. Igor Sušovský","https://www.firmy.cz/detail/2008269-mvdr-igor-susovsky-horni-tosanovice.html","4879"
"5","Pošta","Pošta Smilovice u Třince - Česká pošta, s.p.","https://www.firmy.cz/detail/433041-posta-smilovice-u-trince-smilovice.html","2222"
"6","Bus MHD","Řeka, hotel Řeka","","20"
"7","Lékař","MUDr. Barbara Malyszová","https://www.firmy.cz/detail/389467-mudr-barbara-malyszova-reka.html","1414"
"8","Vlak","Střítež u Českého Těšína","","4200"
"9","Školka","MŠ Smilovice, Řeka","https://www.firmy.cz/detail/2543192-ms-smilovice-reka-reka.html","888"
"10","Škola","ZŠ a MŠ Smilovice","https://www.firmy.cz/detail/359395-zs-a-ms-smilovice-smilovice.html","2132"
"11","Restaurace","Restaurace a penzion Grunt","https://www.firmy.cz/detail/13260689-restaurace-a-penzion-grunt-reka.html","584"
"12","Lékárna","Lékárna Mgr. Jana Zielonková","https://www.firmy.cz/detail/305728-lekarna-mgr-jana-zielonkova-hnojnik.html","4912"
"13","Sportoviště","Koupaliště Hotel Javor","https://www.firmy.cz/detail/13169302-koupaliste-hotel-javor-reka.html","235"
