"","facility_type","facility_name","facility_iri","facility_distance"
"0","Cukrárna","Ala Coffee","https://www.firmy.cz/detail/13083429-ala-coffee-praha-vysocany.html","419"
"1","Kino","Kino Aero","https://www.firmy.cz/detail/399435-kino-aero-praha-zizkov.html","2997"
"2","Přírodní zajímavost","Meandry Rokytky","","895"
"3","Hřiště","Dětské hřiště Pod Harfou","","126"
"4","Večerka","SLADKANINA","https://www.firmy.cz/detail/13231141-sladkanina-praha-vysocany.html","57"
"5","Hospoda","Hospoda U Zdi","https://www.firmy.cz/detail/13217099-hospoda-u-zdi-praha-liben.html","1316"
"6","Divadlo","Divadlo Gong","https://www.firmy.cz/detail/230751-divadlo-gong-praha-liben.html","1438"
"7","Veterinář","Veterinární klinika Poděbradská","https://www.firmy.cz/detail/166978-veterinarni-klinika-podebradska-praha-hloubetin.html","1301"
"8","Obchod","Nákupní Centrum Fénix Vysočanská","https://www.firmy.cz/detail/613133-nakupni-centrum-fenix-vysocanska-praha-vysocany.html","844"
"9","Lékárna","Lékárna Fenix","https://www.firmy.cz/detail/642631-lekarna-fenix-praha-vysocany.html","883"
"10","Restaurace","Pizzerie - ristorante Violete","https://www.firmy.cz/detail/2653499-pizzerie-ristorante-violete-praha-vysocany.html","146"
"11","Metro","Vysočanská","","832"
"12","Škola","Střední škola - Centrum odborné přípravy technickohospodářské","https://www.firmy.cz/detail/361311-stredni-skola-centrum-odborne-pripravy-technickohospodarske-praha-vysocany.html","362"
"13","Pošta","Pošta Praha 93 - Česká pošta, s.p.","https://www.firmy.cz/detail/217419-posta-praha-93-praha-vysocany.html","803"
"14","Bus MHD","Nádraží Libeň","","371"
"15","Tram","Kabešova","","174"
"16","Lékař","Hodis s.r.o.","https://www.firmy.cz/detail/2643290-hodis-s-r-o-praha-vysocany.html","563"
"17","Bankomat","Bankomat Fio banky","https://www.firmy.cz/detail/2678126-bankomat-fio-banky-praha-vysocany.html","542"
"18","Vlak","Praha-Libeň","","587"
"19","Sportoviště","CREVISTON, a.s.","https://www.firmy.cz/detail/13084341-creviston-praha-vysocany.html","406"
"20","Školka","Mateřská škola U Vysočanského pivovaru","https://www.firmy.cz/detail/13045497-materska-skola-u-vysocanskeho-pivovaru-praha-vysocany.html","483"
