"","facility_type","facility_name","facility_iri","facility_distance"
"0","Hřiště","Dětské hřiště","https://mapy.cz/zakladni?x=14.4706884044&y=50.3557952739&z=17&source=base&id=2241318","298"
"1","Cukrárna","Kavárna Marlen","https://www.firmy.cz/detail/12971204-kavarna-marlen-melnik.html","598"
"2","Večerka","ŠEPRA CZ","https://www.firmy.cz/detail/684507-sepra-cz-melnik.html","513"
"3","Veterinář","MVDr. Mojmír Dvořák","https://www.firmy.cz/detail/275836-mvdr-mojmir-dvorak-melnik.html","39"
"4","Hospoda","Posezení u Milouše","https://www.firmy.cz/detail/13010509-posezeni-u-milouse-melnik.html","667"
"5","Škola","ZŠ Mělník, Jungmannovy sady","https://www.firmy.cz/detail/358198-zs-melnik-jungmannovy-sady-melnik.html","504"
"6","Školka","Mateřská škola Čtyřlístek, Mělník, příspěvková organizace","https://www.firmy.cz/detail/2268273-materska-skola-ctyrlistek-melnik-prispevkova-organizace-melnik.html","461"
"7","Sportoviště","Letní koupaliště Mělník","https://www.firmy.cz/detail/12946766-letni-koupaliste-melnik-melnik.html","496"
"8","Bankomat","Bankomat Air Bank","https://www.firmy.cz/detail/13101272-bankomat-air-bank-melnik.html","203"
"9","Lékař","MUDr. Kateřina Hartlová, s.r.o.","https://www.firmy.cz/detail/13277035-mudr-katerina-hartlova-melnik.html","353"
"10","Restaurace","LISMA, s.r.o.","https://www.firmy.cz/detail/13313995-lisma-melnik.html","304"
"11","Obchod","Kaufland","https://www.firmy.cz/detail/1357221-kaufland-melnik.html","214"
"12","Lékárna","Dr. Max","https://www.firmy.cz/detail/2007098-dr-max-melnik.html","235"
"13","Bus MHD","Mělník, Zádušní","https://mapy.cz/zakladni?x=14.4712753594&y=50.3579214489&z=17&source=pubt&id=15707070","63"
"14","Vlak","Mělník","https://mapy.cz/zakladni?x=14.4923753222&y=50.3530248503&z=17&source=pubt&id=15212105","1575"
"15","Pošta","Pošta Depo Mělník 70","https://www.firmy.cz/detail/13162827-posta-depo-melnik-70-melnik.html","417"
