"","facility_type","facility_name","facility_iri","facility_distance"
"0","Hřiště","Dětské hřiště Stonava","https://mapy.cz/zakladni?x=18.537723067560535&y=49.80897783147181&z=17&source=base&id=2345146","3072"
"1","Večerka","HRUŠKA","https://www.firmy.cz/detail/12820493-hruska-albrechtice.html","119"
"2","Hospoda","Pivní bar Miczka","https://www.firmy.cz/detail/13116974-pivni-bar-miczka-albrechtice.html","120"
"3","Veterinář","Veterinární ordinace Albrechtice - MVDr. Martin Zelinka","https://www.firmy.cz/detail/1986216-veterinarni-ordinace-albrechtice-mvdr-martin-zelinka-albrechtice.html","63"
"4","Cukrárna","Kavárna Lucie","https://www.firmy.cz/detail/12779603-kavarna-lucie-terlicko-horni-terlicko.html","4490"
"5","Lékárna","Lékárna Ve Středisku","https://www.firmy.cz/detail/339172-lekarna-ve-stredisku-albrechtice.html","278"
"6","Bankomat","Bankomat ČSOB","https://www.firmy.cz/detail/12963852-bankomat-csob-albrechtice.html","348"
"7","Školka","ZŠ a MŠ Albrechtice","https://www.firmy.cz/detail/725190-zs-a-ms-albrechtice-albrechtice.html","691"
"8","Bus MHD","Albrechtice, sídliště","https://mapy.cz/zakladni?x=18.5231430132245&y=49.7806165144205&z=17&source=pubt&id=15285289","312"
"9","Sportoviště","Hospůdka U Dubu - hřiště","https://www.firmy.cz/detail/13245904-hospudka-u-dubu-hriste-albrechtice.html","916"
"10","Vlak","Albrechtice u Českého Těšína","https://mapy.cz/zakladni?x=18.5246287738&y=49.7929217522&z=17&source=pubt&id=15210905","1087"
"11","Škola","ZŠ a MŠ Albrechtice","https://www.firmy.cz/detail/356275-zs-a-ms-albrechtice-albrechtice.html","691"
"12","Lékař","MUDr. Jaroslava Wichrová","https://www.firmy.cz/detail/381949-mudr-jaroslava-wichrova-albrechtice.html","278"
"13","Restaurace","Restaurace Ami","https://www.firmy.cz/detail/13110242-restaurace-ami-albrechtice.html","211"
"14","Pošta","Pošta Albrechtice u Českého Těšína - Česká pošta, s.p.","https://www.firmy.cz/detail/431545-posta-albrechtice-u-ceskeho-tesina-albrechtice.html","370"
