"","facility_type","facility_name","facility_iri","facility_distance"
"0","Cukrárna","Cukrárna Ivana Dolejšová","https://www.firmy.cz/detail/13044497-cukrarna-ivana-dolejsova-mesto-touskov.html","1273"
"1","Kino","Kulturní Centrum Město Touškov","https://www.firmy.cz/detail/2636963-kulturni-centrum-mesto-touskov-touskov-mesto-touskov.html","1296"
"2","Hřiště","Dětské hřiště Kozolupy","","568"
"3","Večerka","COOP - JEDNOTA, spotřební družstvo Plasy","https://www.firmy.cz/detail/2160323-coop-jednota-spotrebni-druzstvo-plasy-kozolupy.html","673"
"4","Hospoda","Hostinec na hřišti","https://www.firmy.cz/detail/13177556-hostinec-na-hristi-kozolupy.html","388"
"5","Veterinář","MVDr. Daniela Smolíková","https://www.firmy.cz/detail/602829-mvdr-daniela-smolikova-vejprnice.html","4494"
"6","Škola","ZŠ a MŠ Kozolupy","https://www.firmy.cz/detail/357790-zs-a-ms-kozolupy-kozolupy.html","636"
"7","Pošta","Pošta Kozolupy - Česká pošta, s.p.","https://www.firmy.cz/detail/216523-posta-kozolupy-kozolupy.html","412"
"8","Restaurace","Restaurace Ramona","https://www.firmy.cz/detail/2537493-restaurace-ramona-kozolupy.html","335"
"9","Bus MHD","Kozolupy, u Jána","","85"
"10","Vlak","Kozolupy","","771"
"11","Lékárna","Lékárna Devětsil","https://www.firmy.cz/detail/659412-lekarna-devetsil-touskov-mesto-touskov.html","1637"
"12","Lékař","LINE Plus, s.r.o.","https://www.firmy.cz/detail/12864214-line-plus-kozolupy.html","51"
"13","Bankomat","Bankomat ČSOB","https://www.firmy.cz/detail/223358-bankomat-csob-mesto-touskov.html","1440"
"14","Sportoviště","Koupaliště Malesice","","2842"
"15","Školka","ZŠ a MŠ Kozolupy","https://www.firmy.cz/detail/726356-zs-a-ms-kozolupy-kozolupy.html","614"
