"","facility_type","facility_name","facility_iri","facility_distance"
"0","Hřiště","Dětské hřiště","https://mapy.cz/zakladni?x=14.3036189479&y=50.0464055126&z=17&source=base&id=2132145","186"
"1","Hospoda","G Pivnice Stodůlky","https://www.firmy.cz/detail/13146250-g-pivnice-stodulky-praha-stodulky.html","729"
"2","Večerka","Potraviny Svitákova 7","https://www.firmy.cz/detail/13163774-potraviny-svitakova-7-praha-stodulky.html","181"
"3","Veterinář","Veterinární klinika Delta MVDr.Michael Růžička, s.r.o.","https://www.firmy.cz/detail/12957413-veterinarni-klinika-delta-mvdr-michael-ruzicka-praha-repy.html","1861"
"4","Cukrárna","La Zmrzka","https://www.firmy.cz/detail/13065320-la-zmrzka-praha-stodulky.html","166"
"5","Divadlo","Divadelní studio Bubec","https://www.firmy.cz/detail/13047862-divadelni-studio-bubec-praha-reporyje.html","1140"
"6","Kino","Cinema City Zličín","https://www.firmy.cz/detail/436222-cinema-city-zlicin-praha-trebonice.html","1381"
"7","Přírodní zajímavost","Kovářovic mez","https://mapy.cz/zakladni?x=14.36107759920759&y=50.04395254566995&z=17&source=base&id=2339664","4266"
"8","Školka","MŠ Večerníček, Praha 13","https://www.firmy.cz/detail/646823-ms-vecernicek-praha-13-praha-stodulky.html","758"
"9","Pošta","Pošta Praha 515 - Česká pošta, s.p.","https://www.firmy.cz/detail/216728-posta-praha-515-praha-stodulky.html","526"
"10","Lékárna","Dr. Max LÉKÁRNA","https://www.firmy.cz/detail/13344084-dr-max-lekarna-praha-trebonice.html","907"
"11","Restaurace","Kolkovna Stodůlky","https://www.firmy.cz/detail/12733983-kolkovna-stodulky-praha-stodulky.html","378"
"12","Sportoviště","JumpPark Zličín","https://www.firmy.cz/detail/13066617-jumppark-zlicin-praha-trebonice.html","1255"
"13","Metro","Stodůlky","https://mapy.cz/zakladni?x=14.3050062943&y=50.0465812395&z=17&source=pubt&id=15200591","283"
"14","Bankomat","Bankomat Komerční banky","https://www.firmy.cz/detail/13323939-bankomat-komercni-banky-praha-stodulky.html","341"
"15","Tram","Slánská","https://mapy.cz/zakladni?x=14.3085323654&y=50.0645460542&z=17&source=pubt&id=15303706","2173"
"16","Bus MHD","Stodůlky","https://mapy.cz/zakladni?x=14.3076689555&y=50.0462649335&z=17&source=pubt&id=15300285","456"
"17","Obchod","Homepark Zličín","https://www.firmy.cz/detail/13177905-homepark-zlicin-praha-trebonice.html","496"
"18","Lékař","MUDr. Dagmar Bělská","https://www.firmy.cz/detail/386753-mudr-dagmar-belska-praha-stodulky.html","929"
"19","Škola","MŠ a ZŠ speciální Diakonie ČCE Praha","https://www.firmy.cz/detail/13343847-ms-a-zs-specialni-diakonie-cce-praha-praha-stodulky.html","698"
"20","Vlak","Praha-Řeporyje","https://mapy.cz/zakladni?x=14.30978173483885&y=50.032250840754294&z=17&source=pubt&id=15212576","1596"
