"","facility_type","facility_name","facility_iri","facility_distance"
"0","Cukrárna","Cukrárna u Moniky","https://www.firmy.cz/detail/13101337-cukrarna-u-moniky-krasna-lipa.html","145"
"1","Kino","Kino Krásná Lípa","https://www.firmy.cz/detail/396503-kino-krasna-lipa-krasna-lipa.html","489"
"2","Hřiště","Dětské hřiště Nemocniční","","190"
"3","Večerka","Potraviny Vorlíček","https://www.firmy.cz/detail/13265338-potraviny-vorlicek-krasna-lipa.html","220"
"4","Hospoda","Hostinec Kyjovská Terasa","https://www.firmy.cz/detail/13201437-hostinec-kyjovska-terasa-krasna-lipa-kyjov.html","3181"
"5","Veterinář","MVDr. Václav Žáček","https://www.firmy.cz/detail/2103996-mvdr-vaclav-zacek-rumburk-1.html","5440"
"6","Školka","Mateřská škola Sluníčko","https://www.firmy.cz/detail/2640333-materska-skola-slunicko-krasna-lipa.html","201"
"7","Vlak","Krásná Lípa","","473"
"8","Sportoviště","Město Krásná Lípa - Tenis","https://www.firmy.cz/detail/13078982-mesto-krasna-lipa-tenis-krasna-lipa.html","486"
"9","Lékárna","Lékárna Krásná Lípa","https://www.firmy.cz/detail/2614936-lekarna-krasna-lipa-krasna-lipa.html","175"
"10","Pošta","Pošta Krásná Lípa u Rumburka - Česká pošta, s.p.","https://www.firmy.cz/detail/215400-posta-krasna-lipa-u-rumburka-krasna-lipa.html","232"
"11","Bus MHD","Krásná Lípa, žel.st.","","240"
"12","Bankomat","Bankomat ČSOB","https://www.firmy.cz/detail/597162-bankomat-csob-krasna-lipa.html","248"
"13","Restaurace","Pivovar Falkenštejn","https://www.firmy.cz/detail/12855855-pivovar-falkenstejn-krasna-lipa.html","201"
"14","Obchod","RATIO Obchodní dům","https://www.firmy.cz/detail/594296-ratio-obchodni-dum-rumburk-1.html","5398"
"15","Lékař","MUDr. Gabriela Rezková","https://www.firmy.cz/detail/12842393-mudr-gabriela-rezkova-krasna-lipa.html","200"
"16","Škola","ZŠ Krásná Lípa","https://www.firmy.cz/detail/357822-zs-krasna-lipa-krasna-lipa.html","324"
