"","facility_type","facility_name","facility_iri","facility_distance"
"0","Hřiště","Dětské hřiště Riegrovy sady","https://mapy.cz/zakladni?x=14.4433221533&y=50.0808093628&z=17&source=base&id=1927438","433"
"1","Cukrárna","Kavárna Kaaba","https://www.firmy.cz/detail/594970-kavarna-kaaba-praha-vinohrady.html","240"
"2","Hospoda","U Pižďucha","https://www.firmy.cz/detail/337127-u-pizducha-praha-zizkov.html","1014"
"3","Veterinář","Veterinární ambulance Help","https://www.firmy.cz/detail/178079-veterinarni-ambulance-help-praha-vinohrady.html","275"
"4","Večerka","Albert Supermarket","https://www.firmy.cz/detail/209483-albert-supermarket-praha-vinohrady.html","203"
"5","Divadlo","Theatre ROYAL","https://www.firmy.cz/detail/805285-theatre-royal-praha-vinohrady.html","140"
"6","Kino","HopeTV","https://www.firmy.cz/detail/672889-hopetv-praha-vinohrady.html","618"
"7","Pošta","Pošta Praha 24 - Česká pošta, s.p.","https://www.firmy.cz/detail/431217-posta-praha-24-praha-vinohrady.html","380"
"8","Restaurace","CELEBRITY CAFE","https://www.firmy.cz/detail/2389207-celebrity-cafe-praha-vinohrady.html","41"
"9","Lékař","MUDr. Zuzana Kobesová","https://www.firmy.cz/detail/382939-mudr-zuzana-kobesova-praha-vinohrady.html","90"
"10","Vlak","Praha hlavní nádraží","https://mapy.cz/zakladni?x=14.4369820737851&y=50.082990005918&z=17&source=pubt&id=15212548","643"
"11","Bus MHD","Na Smetance","https://mapy.cz/zakladni?x=14.43770293882334&y=50.07989601387909&z=17&source=pubt&id=15300818","309"
"12","Bankomat","Bankomat ČSOB","https://www.firmy.cz/detail/599568-bankomat-csob-praha-vinohrady.html","239"
"13","Tram","Vinohradská tržnice","https://mapy.cz/zakladni?x=14.4413072139&y=50.0771120637&z=17&source=pubt&id=15301359","104"
"14","Obchod","PAVILON, a.s.","https://www.firmy.cz/detail/451685-pavilon-praha-vinohrady.html","186"
"15","Škola","Střední škola ekonomická se sportovním zaměřením, s.r.o.","https://www.firmy.cz/detail/361492-stredni-skola-ekonomicka-se-sportovnim-zamerenim-praha-vinohrady.html","83"
"16","Lékárna","U svaté Ludmily","https://www.firmy.cz/detail/374313-u-svate-ludmily-praha-vinohrady.html","488"
"17","Metro","Náměstí Míru","https://mapy.cz/zakladni?x=14.4378789107&y=50.0754549502&z=17&source=pubt&id=15200269","277"
"18","Školka","MŠ Praha 2, Šumavská","https://www.firmy.cz/detail/646153-ms-praha-2-sumavska-praha-vinohrady.html","287"
"19","Sportoviště","Tenisová škola Vinohrady – Jiří Brázda","https://www.firmy.cz/detail/433988-tenisova-skola-vinohrady-jiri-brazda-praha-vinohrady.html","168"
