"","facility_type","facility_name","facility_iri","facility_distance"
"0","Cukrárna","Cukrárna Charlie","https://www.firmy.cz/detail/2365398-cukrarna-charlie-praha-michle.html","444"
"1","Kino","HopeTV","https://www.firmy.cz/detail/672889-hopetv-praha-vinohrady.html","1773"
"2","Hřiště","Dětské hřiště park Jezerka","","263"
"3","Večerka","Tesco Expres","https://www.firmy.cz/detail/2564843-tesco-expres-praha-nusle.html","438"
"4","Divadlo","Divadlo Na Jezerce","https://www.firmy.cz/detail/496550-divadlo-na-jezerce-praha-nusle.html","85"
"5","Hospoda","BEER BAR Na Veseli","https://www.firmy.cz/detail/2553652-beer-bar-na-veseli-praha-nusle.html","208"
"6","Veterinář","Veterinární ošetřovna Nusle, s.r.o.","https://www.firmy.cz/detail/2294795-veterinarni-osetrovna-nusle-praha-nusle.html","379"
"7","Bankomat","Bankomat Komerční banky","https://www.firmy.cz/detail/596000-bankomat-komercni-banky-praha-michle.html","454"
"8","Školka","ZŠ a MŠ Praha 4, Sdružení","https://www.firmy.cz/detail/2533278-zs-a-ms-praha-4-sdruzeni-praha-nusle.html","386"
"9","Obchod","Arkády Pankrác","https://www.firmy.cz/detail/2245240-arkady-pankrac-praha-nusle.html","929"
"10","Restaurace","Restaurace Chapadlo","https://www.firmy.cz/detail/466255-restaurace-chapadlo-praha-nusle.html","427"
"11","Lékárna","Nuselská lékárna","https://www.firmy.cz/detail/598110-nuselska-lekarna-praha-nusle.html","548"
"12","Metro","Pražského povstání","","697"
"13","Pošta","Pošta Praha 416 - Česká pošta, s.p.","https://www.firmy.cz/detail/217473-posta-praha-416-praha-nusle.html","807"
"14","Škola","ZŠ a MŠ Praha 4, Sdružení","https://www.firmy.cz/detail/356181-zs-a-ms-praha-4-sdruzeni-praha-nusle.html","386"
"15","Vlak","Praha-Vršovice","","774"
"16","Lékař","MUDr. Jitka Guthová","https://www.firmy.cz/detail/380409-mudr-jitka-guthova-praha-nusle.html","527"
"17","Sportoviště","Hřiště na pétanque Na Jezerce","","117"
"18","Bus MHD","Jezerka","","96"
"19","Tram","Na Veselí","","239"
