"","facility_type","facility_name","facility_iri","facility_distance"
"0","Cukrárna","P Cafe","https://www.firmy.cz/detail/13145116-p-cafe-zdar-nad-sazavou-1.html","511"
"1","Kino","Kino VYSOČINA","https://www.firmy.cz/detail/12911277-kino-vysocina-zdar-nad-sazavou-3.html","1050"
"2","Hřiště","Dětské hřiště Nezvalova","","21"
"3","Večerka","BALA potraviny","https://www.firmy.cz/detail/2230875-bala-potraviny-zdar-nad-sazavou-4.html","111"
"4","Hospoda","Krčma U Opilého Draka","https://www.firmy.cz/detail/12996744-krcma-u-opileho-draka-zdar-nad-sazavou-1.html","597"
"5","Divadlo","Městské divadlo Žďár nad Sázavou","https://www.firmy.cz/detail/2538523-mestske-divadlo-zdar-nad-sazavou-zdar-nad-sazavou-1.html","565"
"6","Veterinář","MVDr. Petr Johanides","https://www.firmy.cz/detail/275999-mvdr-petr-johanides-zdar-nad-sazavou-1.html","1047"
"7","Škola","ZŠ Žďár nad Sázavou, Švermova","https://www.firmy.cz/detail/360281-zs-zdar-nad-sazavou-svermova-zdar-nad-sazavou-4.html","299"
"8","Restaurace","Bar Dobré časy","https://www.firmy.cz/detail/12882188-bar-dobre-casy-zdar-nad-sazavou-1.html","399"
"9","Pošta","Pošta Žďár nad Sázavou 1 - Česká pošta, s.p.","https://www.firmy.cz/detail/216266-posta-zdar-nad-sazavou-1-zdar-nad-sazavou-1.html","690"
"10","Školka","MŠ Žďár nad Sázavou - Vančurova","https://www.firmy.cz/detail/614508-ms-zdar-nad-sazavou-vancurova-zdar-nad-sazavou-4.html","174"
"11","Sportoviště","Lyžařské a běžecké tratě - SPORTIS","https://www.firmy.cz/detail/13183531-lyzarske-a-bezecke-trate-sportis-zdar-nad-sazavou-1.html","450"
"12","Obchod","Obchodní dům Convent","https://www.firmy.cz/detail/13265166-obchodni-dum-convent-zdar-nad-sazavou-1.html","342"
"13","Lékař","Poliklinika Žďár nad Sázavou","https://www.firmy.cz/detail/210037-poliklinika-zdar-nad-sazavou-zdar-nad-sazavou-4.html","566"
"14","Bankomat","Bankomat České spořitelny","https://www.firmy.cz/detail/596743-bankomat-ceske-sporitelny-zdar-nad-sazavou-1.html","342"
"15","Vlak","Žďár nad Sázavou","","1165"
"16","Lékárna","Dr. Max","https://www.firmy.cz/detail/13001335-dr-max-zdar-nad-sazavou-1.html","342"
"17","Bus MHD","Žďár nad Sázavou, Novoměstská","","144"
