"","facility_type","facility_name","facility_iri","facility_distance"
"0","Hřiště","Dětské hřiště Tyršova","https://mapy.cz/zakladni?x=17.1317065962&y=49.0071196714&z=17&source=base&id=1928679","446"
"1","Cukrárna","Longus - kavárna a cukrárna","https://www.firmy.cz/detail/13261569-longus-kavarna-a-cukrarna-kyjov.html","417"
"2","Večerka","Lidl","https://www.firmy.cz/detail/2372969-lidl-kyjov.html","152"
"3","Veterinář","MVDr. Jiří Lunga","https://www.firmy.cz/detail/2075343-mvdr-jiri-lunga-kyjov.html","89"
"4","Hospoda","Pivnice Budvarka","https://www.firmy.cz/detail/254790-pivnice-budvarka-kyjov.html","602"
"5","Kino","Kino Panorama","https://www.firmy.cz/detail/451989-kino-panorama-kyjov.html","358"
"6","Školka","MŠ Kyjov, Nádražní","https://www.firmy.cz/detail/2101550-ms-kyjov-nadrazni-kyjov.html","812"
"7","Bus MHD","Kyjov, sklárna","https://mapy.cz/zakladni?x=17.1292856942&y=49.0045297756&z=17&source=pubt&id=15221919","324"
"8","Obchod","Obchodní centrum ADAMES","https://www.firmy.cz/detail/13074816-obchodni-centrum-adames-kyjov.html","817"
"9","Bankomat","Bankomat České spořitelny","https://www.firmy.cz/detail/593099-bankomat-ceske-sporitelny-kyjov.html","167"
"10","Lékař","MUDr. Bělíková Vojtěška s.r.o.","https://www.firmy.cz/detail/13046778-mudr-belikova-vojteska-s-r-o-kyjov.html","268"
"11","Pošta","Pošta Kyjov 1 - Česká pošta, s.p.","https://www.firmy.cz/detail/433425-posta-kyjov-1-kyjov.html","480"
"12","Škola","ZUŠ Kyjov","https://www.firmy.cz/detail/360557-zus-kyjov-kyjov.html","271"
"13","Vlak","Kyjov zastávka","https://mapy.cz/zakladni?x=17.1240456395&y=49.0031298933&z=17&source=pubt&id=15211891","371"
"14","Restaurace","Pizzerie U Martina s.r.o.","https://www.firmy.cz/detail/2604835-pizzerie-u-martina-s-r-o-kyjov.html","358"
"15","Sportoviště","Koupaliště Kyjov","https://www.firmy.cz/detail/12946837-koupaliste-kyjov-kyjov-netcice.html","943"
"16","Lékárna","Dr.Max LÉKÁRNA","https://www.firmy.cz/detail/2646472-dr-max-lekarna-kyjov.html","62"
