"","facility_type","facility_name","facility_iri","facility_distance"
"0","Hřiště","Dětské hřiště J. Veselého","","146"
"1","Večerka","Můjobchod - Potraviny AP","https://www.firmy.cz/detail/13317262-mujobchod-potraviny-ap-lazne-bohdanec.html","304"
"2","Hospoda","Hospoda v Černé u Bohdanče","https://www.firmy.cz/detail/13118915-hospoda-v-cerne-u-bohdance-cerna-u-bohdance.html","2281"
"3","Veterinář","Veterinární ordinace - MVDr. Hana Fialová","https://www.firmy.cz/detail/2621150-veterinarni-ordinace-mvdr-hana-fialova-lazne-bohdanec.html","745"
"4","Restaurace","Pizzeria La Bujoni","https://www.firmy.cz/detail/13301064-pizzeria-la-bujoni-lazne-bohdanec.html","304"
"5","Lékař","VESELÁ-AMBULANCE s.r.o.","https://www.firmy.cz/detail/12832937-vesela-ambulance-s-r-o-lazne-bohdanec.html","1040"
"6","Bankomat","Bankomat České spořitelny","https://www.firmy.cz/detail/592378-bankomat-ceske-sporitelny-lazne-bohdanec.html","304"
"7","Pošta","Pošta Lázně Bohdaneč - Česká pošta, s.p.","https://www.firmy.cz/detail/215344-posta-lazne-bohdanec-lazne-bohdanec.html","254"
"8","Bus MHD","Lázně Bohdaneč, náměstí","","208"
"9","Lékárna","Lékárna Na Lužci","https://www.firmy.cz/detail/12952112-lekarna-na-luzci-lazne-bohdanec.html","1040"
"10","Škola","Základní škola a mateřská škola Lázně Bohdaneč","https://www.firmy.cz/detail/13029094-zakladni-skola-a-materska-skola-lazne-bohdanec-lazne-bohdanec.html","245"
"11","Školka","ZŠ a MŠ Živanice","https://www.firmy.cz/detail/723709-zs-a-ms-zivanice-zivanice.html","2514"
"12","Sportoviště","Tělocvičná jednota Sokol Lázně Bohdaneč","https://www.firmy.cz/detail/2134931-telocvicna-jednota-sokol-lazne-bohdanec-lazne-bohdanec.html","227"
