"","facility_type","facility_name","facility_iri","facility_distance"
"0","Cukrárna","Cukrárna U Bláhů","https://www.firmy.cz/detail/12715089-cukrarna-u-blahu-dolany.html","1547"
"1","Přírodní zajímavost","Teplá díra","","4241"
"2","Hřiště","Dětské hřiště Véska","","1489"
"3","Večerka","Smíšené zboží Šuba & spol","https://www.firmy.cz/detail/2326323-smisene-zbozi-suba-spol-dolany.html","1534"
"4","Hospoda","Hostinec Skalice","https://www.firmy.cz/detail/13039293-hostinec-skalice-dolany-veska.html","1136"
"5","Veterinář","MVDr. Jan Horký","https://www.firmy.cz/detail/1971135-mvdr-jan-horky-dolany.html","27"
"6","Lékárna","Na středisku","https://www.firmy.cz/detail/421954-na-stredisku-bohunovice.html","3613"
"7","Bankomat","Bankomat Fio banky","https://www.firmy.cz/detail/13162773-bankomat-fio-banky-olomouc.html","2668"
"8","Lékař","MUDr. Jana Janhubová","https://www.firmy.cz/detail/12987672-mudr-jana-janhubova-dolany.html","1124"
"9","Vlak","Bohuňovice","","4249"
"10","Pošta","Pošta Dolany u Olomouce - Česká pošta, s.p.","https://www.firmy.cz/detail/432325-posta-dolany-u-olomouce-dolany.html","1585"
"11","Restaurace","Taverna Dionysos","https://www.firmy.cz/detail/1961730-taverna-dionysos-dolany.html","663"
"12","Bus MHD","Dolany, Pod Kartouzkou","","609"
"13","Sportoviště","Fotbalový klub Véska, občanské sdružení","https://www.firmy.cz/detail/1346570-fotbalovy-klub-veska-obcanske-sdruzeni-dolany-veska.html","1478"
"14","Školka","MŠ Véska","https://www.firmy.cz/detail/2639564-ms-veska-dolany-veska.html","1219"
"15","Škola","ZUŠ Žerotín - Dolany","https://www.firmy.cz/detail/12987847-zus-zerotin-dolany-dolany.html","1585"
