"","facility_type","facility_name","facility_iri","facility_distance"
"0","Cukrárna","Mamacoffee","https://www.firmy.cz/detail/2109500-mamacoffee-praha-vinohrady.html","868"
"1","Kino","HopeTV","https://www.firmy.cz/detail/672889-hopetv-praha-vinohrady.html","837"
"2","Hřiště","Dětské hřiště park Folimanka","","126"
"3","Večerka","Lidl","https://www.firmy.cz/detail/2374462-lidl-praha-nove-mesto.html","312"
"4","Hospoda","Hostinec U Suchý Dásně","https://www.firmy.cz/detail/679683-hostinec-u-suchy-dasne-praha-nove-mesto.html","766"
"5","Divadlo","Divadlo Na Fidlovačce","https://www.firmy.cz/detail/396872-divadlo-na-fidlovacce-praha-nusle.html","759"
"6","Veterinář","Veterinární klinika Na Hrádku - MVDr. Ľubica Nečasová","https://www.firmy.cz/detail/633528-veterinarni-klinika-na-hradku-mvdr-lubica-necasova-praha-nove-mesto.html","648"
"7","Bus MHD","Praha, Karlov","","316"
"8","Obchod","PAVILON, a.s.","https://www.firmy.cz/detail/451685-pavilon-praha-vinohrady.html","1511"
"9","Lékárna","Lékárna Jaromírova","https://www.firmy.cz/detail/2371593-lekarna-jaromirova-praha-nusle.html","355"
"10","Pošta","Pošta Praha 23 - Česká pošta, s.p.","https://www.firmy.cz/detail/431214-posta-praha-23-praha-vinohrady.html","866"
"11","Restaurace","BASTION PRAGUE RESTAURANT","https://www.firmy.cz/detail/2679795-bastion-prague-restaurant-praha-nove-mesto.html","40"
"12","Tram","Ostrčilovo náměstí","","319"
"13","Lékař","MUDr. Petr König","https://www.firmy.cz/detail/380946-mudr-petr-konig-praha-vinohrady.html","494"
"14","Bankomat","Bankomat České spořitelny","https://www.firmy.cz/detail/2463972-bankomat-ceske-sporitelny-praha-nove-mesto.html","314"
"15","Škola","Soukromá vyšší odborná škola zdravotnická pro dentální hygienistky, s.r.o.","https://www.firmy.cz/detail/362672-soukroma-vyssi-odborna-skola-zdravotnicka-pro-dentalni-hygienistky-praha-nusle.html","177"
"16","Vlak","Praha-Smíchov severní nást.","","1490"
"17","Sportoviště","Tenisový klub Vyšehrad","https://www.firmy.cz/detail/1945153-tenisovy-klub-vysehrad-praha-nusle.html","504"
"18","Školka","MŠ Mama Luna","https://www.firmy.cz/detail/2630611-ms-mama-luna-praha-nusle.html","211"
"19","Metro","Vyšehrad","","602"
