"","facility_type","facility_name","facility_iri","facility_distance"
"0","Cukrárna","Cukrářství Duo","https://www.firmy.cz/detail/1963308-cukrarstvi-duo-usti-nad-labem-krasne-brezno.html","294"
"1","Kino","Cinema City Ústí nad Labem","https://www.firmy.cz/detail/2679909-cinema-city-usti-nad-labem-usti-nad-labem-centrum.html","2988"
"2","Hřiště","Dětské hřiště Krčínova","","454"
"3","Večerka","Potraviny Drážďanská 159","https://www.firmy.cz/detail/13061336-potraviny-drazdanska-159-usti-nad-labem-krasne-brezno.html","310"
"4","Hospoda","Restaurace Imbiss","https://www.firmy.cz/detail/2659184-restaurace-imbiss-usti-nad-labem-krasne-brezno.html","131"
"5","Divadlo","Činoherní studio města Ústí nad Labem","https://www.firmy.cz/detail/13085276-cinoherni-studio-mesta-usti-nad-labem-usti-nad-labem-strekov.html","2387"
"6","Veterinář","MVDr. Lubomír Vojtek","https://www.firmy.cz/detail/274104-mvdr-lubomir-vojtek-usti-nad-labem-krasne-brezno.html","1273"
"7","Lékárna","Lékárna REMEDIUM","https://www.firmy.cz/detail/227558-lekarna-remedium-usti-nad-labem-krasne-brezno.html","557"
"8","Školka","Mateřská škola Motýlek, Ústí nad Labem, Keplerova 782/26","https://www.firmy.cz/detail/196347-materska-skola-motylek-usti-nad-labem-keplerova-782-26-usti-nad-labem-krasne-brezno.html","581"
"9","Restaurace","Restaurace Hraničář","https://www.firmy.cz/detail/12888834-restaurace-hranicar-usti-nad-labem-krasne-brezno.html","326"
"10","Bus MHD","Pekařská","","62"
"11","Lékař","MUDr. Martina Hrtánková","https://www.firmy.cz/detail/387082-mudr-martina-hrtankova-usti-nad-labem-krasne-brezno.html","557"
"12","Vlak","Ústí nad Labem sever","","95"
"13","Bankomat","Bankomat České spořitelny","https://www.firmy.cz/detail/2291342-bankomat-ceske-sporitelny-usti-nad-labem-krasne-brezno.html","555"
"14","Sportoviště","TJ Chemička Ústí nad Labem - oddíl házená","https://www.firmy.cz/detail/211276-tj-chemicka-usti-nad-labem-oddil-hazena-usti-nad-labem-krasne-brezno.html","507"
"15","Pošta","Pošta Ústí nad Labem 7 - Česká pošta, s.p.","https://www.firmy.cz/detail/215960-posta-usti-nad-labem-7-usti-nad-labem-krasne-brezno.html","699"
"16","Obchod","Obchodní centrum Sever","https://www.firmy.cz/detail/13265743-obchodni-centrum-sever-usti-nad-labem-centrum.html","2795"
"17","Škola","Střední průmyslová škola stavební a Střední odborná škola stavební a technická, Ústí nad Labem","https://www.firmy.cz/detail/361388-stredni-prumyslova-skola-stavebni-a-stredni-odborna-skola-stavebni-a-technicka-usti-nad-labem-usti-nad-labem-krasne-brezno.html","399"
