"","facility_type","facility_name","facility_iri","facility_distance"
"0","Cukrárna","Kavárna Kovárna","https://www.firmy.cz/detail/13123205-kavarna-kovarna-ledec-nad-sazavou.html","474"
"1","Hřiště","Dětské hřiště","","178"
"2","Přírodní zajímavost","Ledečský kras","","738"
"3","Večerka","Potraviny Marie Majerové 	96","https://www.firmy.cz/detail/13056319-potraviny-marie-majerove-96-ledec-nad-sazavou.html","89"
"4","Hospoda","Hospoda Nahoře","https://www.firmy.cz/detail/13115579-hospoda-nahore-kozli.html","3629"
"5","Veterinář","Veterinární ošetřovna MVDr. Pavel Vrbka","https://www.firmy.cz/detail/1895297-veterinarni-osetrovna-mvdr-pavel-vrbka-ledec-nad-sazavou.html","805"
"6","Lékárna","Dr. Max LÉKÁRNA","https://www.firmy.cz/detail/13001279-dr-max-lekarna-ledec-nad-sazavou.html","260"
"7","Restaurace","Restaurace Habrecká 	450","https://www.firmy.cz/detail/13138887-restaurace-habrecka-450-ledec-nad-sazavou.html","260"
"8","Škola","Základní umělecká škola Ledeč nad Sázavou","https://www.firmy.cz/detail/12764296-zakladni-umelecka-skola-ledec-nad-sazavou-ledec-nad-sazavou.html","437"
"9","Lékař","K-medik, s.r.o.","https://www.firmy.cz/detail/13293618-k-medik-ledec-nad-sazavou.html","260"
"10","Bankomat","Bankomat České spořitelny","https://www.firmy.cz/detail/593123-bankomat-ceske-sporitelny-ledec-nad-sazavou.html","631"
"11","Vlak","Ledeč nad Sázavou","","352"
"12","Školka","MŠ Ledeč nad Sázavou, Stínadla","https://www.firmy.cz/detail/2278829-ms-ledec-nad-sazavou-stinadla-ledec-nad-sazavou.html","113"
"13","Sportoviště","Víceúčelové sportoviště Ledeč nad Sázavou","https://www.firmy.cz/detail/12896065-viceucelove-sportoviste-ledec-nad-sazavou-ledec-nad-sazavou.html","511"
"14","Pošta","Pošta Ledeč nad Sázavou - Česká pošta, s.p.","https://www.firmy.cz/detail/215782-posta-ledec-nad-sazavou-ledec-nad-sazavou.html","442"
"15","Bus MHD","Ledeč nad Sázavou, sídliště","","237"
