"","facility_type","facility_name","facility_iri","facility_distance"
"0","Cukrárna","21 Rock'n'Roll Cafe","https://www.firmy.cz/detail/12799751-21-rock-n-roll-cafe-olomouc-hodolany.html","110"
"1","Kino","Letní kino Olomouc","https://www.firmy.cz/detail/13157654-letni-kino-olomouc-olomouc.html","1036"
"2","Hřiště","Dětské hřiště Blanická","","119"
"3","Večerka","Můjobchod - Potraviny","https://www.firmy.cz/detail/13162480-mujobchod-potraviny-olomouc.html","271"
"4","Divadlo","Divadlo hudby","https://www.firmy.cz/detail/12933426-divadlo-hudby-olomouc.html","1270"
"5","Hospoda","LocAle Pub","https://www.firmy.cz/detail/13165832-locale-pub-olomouc-hodolany.html","56"
"6","Veterinář","Veterinární ordinace - MVDr. Vojtěch Návělek","https://www.firmy.cz/detail/268477-veterinarni-ordinace-mvdr-vojtech-navelek-olomouc.html","370"
"7","Sportoviště","Czech Lawn Tennis Club Olomouc, z.s.","https://www.firmy.cz/detail/13232234-czech-lawn-tennis-club-olomouc-z-s-olomouc-hodolany.html","105"
"8","Pošta","Pošta Olomouc 2 - Česká pošta, s.p.","https://www.firmy.cz/detail/432281-posta-olomouc-2-olomouc-hodolany.html","263"
"9","Tram","Hlavní nádraží","","374"
"10","Bankomat","Bankomat Fio banky","https://www.firmy.cz/detail/12935716-bankomat-fio-banky-olomouc.html","255"
"11","Obchod","SENIMO, a.s.","https://www.firmy.cz/detail/298877-senimo-olomouc.html","519"
"12","Bus MHD","Hlavní nádraží","","200"
"13","Vlak","Olomouc hlavní nádraží","","395"
"14","Školka","Mateřská škola Olomouc, Blanická","https://www.firmy.cz/detail/641231-materska-skola-olomouc-blanicka-olomouc-hodolany.html","62"
"15","Škola","ZŠ Olomouc, Zeyerova","https://www.firmy.cz/detail/358579-zs-olomouc-zeyerova-olomouc-hodolany.html","254"
"16","Lékař","MUDr. Andrea Spurná","https://www.firmy.cz/detail/2542606-mudr-andrea-spurna-olomouc-hodolany.html","65"
"17","Restaurace","Amici Pizza & Burgers","https://www.firmy.cz/detail/13276320-amici-pizza-burgers-olomouc-hodolany.html","36"
"18","Lékárna","Lékárna AVE","https://www.firmy.cz/detail/12877758-lekarna-ave-olomouc-hodolany.html","277"
