"","facility_type","facility_name","facility_iri","facility_distance"
"0","Cukrárna","Vinotéka & Cukrárna Provence","https://www.firmy.cz/detail/13334698-vinoteka-cukrarna-provence-vsetin.html","823"
"1","Kino","Kino Vatra","https://www.firmy.cz/detail/1271652-kino-vatra-vsetin.html","926"
"2","Hřiště","Dětské hřiště Družstevní","","167"
"3","Večerka","COOP JEDNOTA","https://www.firmy.cz/detail/2571160-coop-jednota-vsetin.html","57"
"4","Hospoda","Restaurace Benátky 904","https://www.firmy.cz/detail/13117951-restaurace-benatky-904-vsetin.html","503"
"5","Divadlo","Loutkové divadélko Kohútek","https://www.firmy.cz/detail/1909094-loutkove-divadelko-kohutek-vsetin.html","816"
"6","Veterinář","Veterinární ordinace MVDr. Robert Just","https://www.firmy.cz/detail/13099632-veterinarni-ordinace-mvdr-robert-just-vsetin.html","473"
"7","Školka","MŠ Vsetín, Benátky","https://www.firmy.cz/detail/2294476-ms-vsetin-benatky-vsetin.html","131"
"8","Lékárna","Lékárna","https://www.firmy.cz/detail/305786-lekarna-vsetin.html","748"
"9","Lékař","MUDr. Josef Machala","https://www.firmy.cz/detail/385535-mudr-josef-machala-vsetin.html","398"
"10","Sportoviště","Jan Tichý - Sportovní trenér","https://www.firmy.cz/detail/13214834-jan-tichy-sportovni-trener-vsetin.html","204"
"11","Restaurace","Restaurace Amerika Rybníky","https://www.firmy.cz/detail/13233197-restaurace-amerika-rybniky-vsetin.html","68"
"12","Pošta","Pošta Vsetín 1 - Česká pošta, s.p.","https://www.firmy.cz/detail/216330-posta-vsetin-1-vsetin.html","797"
"13","Bus MHD","Vsetín, Rybníky, Družstevní","","141"
"14","Vlak","Vsetín","","1010"
"15","Škola","Střední odborná škola Josefa Sousedíka Vsetín","https://www.firmy.cz/detail/361228-stredni-odborna-skola-josefa-sousedika-vsetin-vsetin.html","188"
"16","Bankomat","Bankomat Fio banky","https://www.firmy.cz/detail/13089769-bankomat-fio-banky-vsetin.html","720"
"17","Obchod","Smetanova obchodní galerie","https://www.firmy.cz/detail/13226731-smetanova-obchodni-galerie-vsetin.html","1057"
