"","facility_type","facility_name","facility_iri","facility_distance"
"0","Cukrárna","Kavárna Piazza","https://www.firmy.cz/detail/2447036-kavarna-piazza-bruntal.html","646"
"1","Kino","Kino Centrum Bruntál","https://www.firmy.cz/detail/13157478-kino-centrum-bruntal-bruntal.html","352"
"2","Přírodní zajímavost","Lom u Marburku","","1553"
"3","Hřiště","Dětské hřiště nám. 1. máje","","93"
"4","Večerka","Potraviny a občerstvení","https://www.firmy.cz/detail/13271895-potraviny-a-obcerstveni-bruntal.html","118"
"5","Hospoda","Roští - Hospoda v parku","https://www.firmy.cz/detail/13000099-rosti-hospoda-v-parku-bruntal.html","490"
"6","Divadlo","Městské divadlo Bruntál","https://www.firmy.cz/detail/661545-mestske-divadlo-bruntal-bruntal.html","826"
"7","Veterinář","Veterinární služby Bruntál, s.r.o.","https://www.firmy.cz/detail/12793814-veterinarni-sluzby-bruntal-bruntal.html","64"
"8","Vlak","Bruntál","","1273"
"9","Sportoviště","TS Bruntál - sportovní hala","https://www.firmy.cz/detail/12807318-ts-bruntal-sportovni-hala-bruntal.html","273"
"10","Škola","Základní škola Bruntál, Školní 2","https://www.firmy.cz/detail/339698-zakladni-skola-bruntal-skolni-2-bruntal.html","199"
"11","Lékárna","Zelená lékárna","https://www.firmy.cz/detail/374535-zelena-lekarna-bruntal.html","577"
"12","Obchod","Obchodní dům KOALA, spol. s r.o.","https://www.firmy.cz/detail/283594-obchodni-dum-koala-bruntal.html","658"
"13","Bus MHD","Bruntál, Seliko","","30"
"14","Lékař","MUDr. Jan Vaněk","https://www.firmy.cz/detail/388464-mudr-jan-vanek-bruntal.html","679"
"15","Restaurace","Bowling Nikita","https://www.firmy.cz/detail/13316745-bowling-nikita-bruntal.html","117"
"16","Pošta","Pošta Bruntál 1 - Česká pošta, s.p.","https://www.firmy.cz/detail/432142-posta-bruntal-1-bruntal.html","562"
"17","Bankomat","Bankomat České spořitelny","https://www.firmy.cz/detail/12736371-bankomat-ceske-sporitelny-bruntal.html","453"
"18","Školka","MŠ Bruntál, Pionýrská","https://www.firmy.cz/detail/2333055-ms-bruntal-pionyrska-bruntal.html","256"
