"","facility_type","facility_name","facility_iri","facility_distance"
"0","Cukrárna","Cukrárna a kavárna RIO","https://www.firmy.cz/detail/611935-cukrarna-a-kavarna-rio-pribram-vii.html","276"
"1","Kino","Letní kino Příbram","https://www.firmy.cz/detail/13001448-letni-kino-pribram-pribram-viii.html","919"
"2","Přírodní zajímavost","Lado u Lazeckého mlýna","","1263"
"3","Hřiště","Dětské hřiště Mostecká","","176"
"4","Večerka","Potraviny CBA","https://www.firmy.cz/detail/13320953-potraviny-cba-pribram-vii.html","163"
"5","Hospoda","Pivnice Kostka","https://www.firmy.cz/detail/13011921-pivnice-kostka-pribram-vii.html","246"
"6","Divadlo","Divadlo A. Dvořáka Příbram","https://www.firmy.cz/detail/397055-divadlo-a-dvoraka-pribram-pribram-vii.html","790"
"7","Veterinář","Veterinární klinika Na Zdaboři","https://www.firmy.cz/detail/471737-veterinarni-klinika-na-zdabori-pribram-v-zdabor.html","623"
"8","Školka","MŠ Klubíčko Příbram","https://www.firmy.cz/detail/2120173-ms-klubicko-pribram-pribram-vii.html","146"
"9","Lékárna","Lékárna Devětsil","https://www.firmy.cz/detail/12906051-lekarna-devetsil-pribram-v-zdabor.html","429"
"10","Restaurace","VINÁRNA U BUŠKA - Romana Dandová","https://www.firmy.cz/detail/13011919-vinarna-u-buska-pribram-vii.html","115"
"11","Bus MHD","Příbram, sídl.Kladenská","","171"
"12","Sportoviště","Triatlon Team Příbram","https://www.firmy.cz/detail/13062877-triatlon-team-pribram-pribram-viii.html","417"
"13","Škola","Základní škola, Příbram VII, Bratří Čapků 279","https://www.firmy.cz/detail/13045830-zakladni-skola-pribram-vii-bratri-capku-279-pribram-vii.html","353"
"14","Lékař","Ordinace praktického a závodního lékaře 3 - Oblastní nemocnice Příbram","https://www.firmy.cz/detail/12995783-ordinace-praktickeho-a-zavodniho-lekare-3-oblastni-nemocnice-pribram-pribram-v-zdabor.html","361"
"15","Bankomat","Bankomat MONETA Money Bank","https://www.firmy.cz/detail/602894-bankomat-moneta-money-bank-pribram-vii.html","276"
"16","Vlak","Příbram sídliště","","705"
"17","Pošta","Pošta Příbram 5 - Česká pošta, s.p.","https://www.firmy.cz/detail/216133-posta-pribram-5-pribram-viii.html","311"
"18","Obchod","OD STAVUS","https://www.firmy.cz/detail/12996673-od-stavus-pribram-v-zdabor.html","707"
