"","facility_type","facility_name","facility_iri","facility_distance"
"0","Hřiště","Dětské hřiště Rooseveltova","https://mapy.cz/zakladni?x=14.3955520944&y=50.1028531833&z=17&source=base&id=2117557","147"
"1","Cukrárna","Ovocná cukrárna","https://www.firmy.cz/detail/12722437-ovocna-cukrarna-praha-bubenec.html","158"
"2","Večerka","Albert Supermarket","https://www.firmy.cz/detail/12716259-albert-supermarket-praha-bubenec.html","122"
"3","Divadlo","Divadlo Semafor, o.p.s.","https://www.firmy.cz/detail/2361125-divadlo-semafor-praha-dejvice.html","299"
"4","Veterinář","MVDr. Marta Schmidhalter-Pekárková DECVDI","https://www.firmy.cz/detail/2608174-mvdr-marta-schmidhalter-pekarkova-decvdi-praha-bubenec.html","31"
"5","Hospoda","U Pošty","https://www.firmy.cz/detail/573057-u-posty-praha-dejvice.html","313"
"6","Kino","Bio Oko","https://www.firmy.cz/detail/2586117-bio-oko-praha-holesovice.html","2386"
"7","Lékárna","BENU Lékárna","https://www.firmy.cz/detail/2024839-benu-lekarna-praha-bubenec.html","78"
"8","Bus MHD","Dejvická","https://mapy.cz/zakladni?x=14.394979773&y=50.1013972329&z=17&source=pubt&id=15305361","140"
"9","Lékař","MUDr. Michal Lazák - praktický lékař","https://www.firmy.cz/detail/390639-mudr-michal-lazak-prakticky-lekar-praha-bubenec.html","78"
"10","Školka","Mateřská škola Terronská","https://www.firmy.cz/detail/197577-materska-skola-terronska-praha-bubenec.html","266"
"11","Škola","ZŠ a MŠ náměstí Svobody","https://www.firmy.cz/detail/356210-zs-a-ms-namesti-svobody-praha-bubenec.html","239"
"12","Metro","Dejvická","https://mapy.cz/zakladni?x=14.394140978&y=50.1007590642&z=17&source=pubt&id=15200263","225"
"13","Tram","Vítězné náměstí","https://mapy.cz/zakladni?x=14.3955543527&y=50.0999164239&z=17&source=pubt&id=15305573","230"
"14","Vlak","Praha-Dejvice","https://mapy.cz/zakladni?x=14.3996359142&y=50.0969651071&z=17&source=pubt&id=15212556","576"
"15","Restaurace","Restaurace Kulaťák","https://www.firmy.cz/detail/2466854-restaurace-kulatak-praha-bubenec.html","150"
"16","Pošta","Pošta Praha 6 - Česká pošta, s.p.","https://www.firmy.cz/detail/216725-posta-praha-6-praha-dejvice.html","335"
"17","Bankomat","Bankomat České spořitelny","https://www.firmy.cz/detail/2610206-bankomat-ceske-sporitelny-praha-bubenec.html","78"
"18","Obchod","Kaufland","https://www.firmy.cz/detail/12720219-kaufland-praha-dejvice.html","1157"
"19","Sportoviště","České vysoké učení technické v Praze - Kolejní hřiště Bubeneč","https://www.firmy.cz/detail/2220529-ceske-vysoke-uceni-technicke-v-praze-kolejni-hriste-bubenec-praha-bubenec.html","381"
