"","facility_type","facility_name","facility_iri","facility_distance"
"0","Cukrárna","Cukrárna Amarilis","https://www.firmy.cz/detail/13334795-cukrarna-amarilis-praha-zizkov.html","544"
"1","Kino","Kino Aero","https://www.firmy.cz/detail/399435-kino-aero-praha-zizkov.html","81"
"2","Hřiště","Dětské hřiště Viklefova","","175"
"3","Přírodní zajímavost","Meandry Rokytky","","3334"
"4","Večerka","Lidl","https://www.firmy.cz/detail/2374393-lidl-praha-zizkov.html","195"
"5","Hospoda","Pivnice Radyně","https://www.firmy.cz/detail/1957129-pivnice-radyne-praha-zizkov.html","403"
"6","Divadlo","Divadlo Kámen","https://www.firmy.cz/detail/197593-divadlo-kamen-praha-karlin.html","700"
"7","Veterinář","MVDr. Eva Šeráková","https://www.firmy.cz/detail/477968-mvdr-eva-serakova-praha-vysocany.html","1036"
"8","Tram","Ohrada","","194"
"9","Školka","Mateřská škola, Praha 3, Jeseniova 98/2593","https://www.firmy.cz/detail/646832-materska-skola-praha-3-jeseniova-98-2593-praha-zizkov.html","108"
"10","Škola","ZŠ Praha 3, Jeseniova","https://www.firmy.cz/detail/358968-zs-praha-3-jeseniova-praha-zizkov.html","190"
"11","Lékař","MUDr. Stanislav Švadlena","https://www.firmy.cz/detail/430642-mudr-stanislav-svadlena-praha-zizkov.html","209"
"12","Pošta","Pošta Praha 3 - Česká pošta, s.p.","https://www.firmy.cz/detail/2102474-posta-praha-3-praha-zizkov.html","635"
"13","Vlak","Praha-Libeň","","2422"
"14","Lékárna","Místní Lékárna Na Vápence","https://www.firmy.cz/detail/375016-mistni-lekarna-na-vapence-praha-zizkov.html","179"
"15","Metro","Invalidovna","","1018"
"16","Sportoviště","Golf Klub Čechie","https://www.firmy.cz/detail/2385500-golf-klub-cechie-praha-karlin.html","721"
"17","Bankomat","Bankomat České spořitelny","https://www.firmy.cz/detail/594748-bankomat-ceske-sporitelny-praha-zizkov.html","290"
"18","Bus MHD","Biskupcova","","260"
"19","Restaurace","Restaurace Záležitost","https://www.firmy.cz/detail/332912-restaurace-zalezitost-praha-zizkov.html","169"
"20","Obchod","Kaufland","https://www.firmy.cz/detail/1545721-kaufland-praha-liben.html","1437"
