"","facility_type","facility_name","facility_iri","facility_distance"
"0","Hřiště","Dětské hřiště Charkovská","https://mapy.cz/zakladni?x=18.1823861&y=49.8346103&z=17&source=base&id=2234060","32"
"1","Přírodní zajímavost","Zábřežský bludný balvan","https://mapy.cz/zakladni?x=18.2405209436&y=49.8063021231&z=17&source=base&id=2110132","5202"
"2","Večerka","Smíšené zboží SEVAL","https://www.firmy.cz/detail/2460917-smisene-zbozi-seval-ostrava-poruba.html","205"
"3","Hospoda","Hospůdka u Evika","https://www.firmy.cz/detail/13141367-hospudka-u-evika-ostrava-pustkovec.html","707"
"4","Veterinář","MVDr. Dušan Vacula","https://www.firmy.cz/detail/1915594-mvdr-dusan-vacula-ostrava-poruba.html","417"
"5","Cukrárna","Cukrárna Ollies","https://www.firmy.cz/detail/12720535-cukrarna-ollies-ostrava-poruba.html","870"
"6","Divadlo","Porubské divadlo","https://www.firmy.cz/detail/2543038-porubske-divadlo-ostrava-poruba.html","1376"
"7","Kino","5D cinema Maxim","https://www.firmy.cz/detail/12950606-5d-cinema-maxim-ostrava-zabreh.html","4863"
"8","Škola","ZŠ pro sluchově postižené a MŠ pro sluchově postižené, Ostrava-Poruba","https://www.firmy.cz/detail/1334503-zs-pro-sluchove-postizene-a-ms-pro-sluchove-postizene-ostrava-poruba-ostrava-poruba.html","283"
"9","Obchod","Albert Hypermarket","https://www.firmy.cz/detail/12928419-albert-hypermarket-ostrava-poruba.html","746"
"10","Sportoviště","Orel jednota Ostrava-Třebovice","https://www.firmy.cz/detail/1963395-orel-jednota-ostrava-trebovice-ostrava-trebovice.html","622"
"11","Bus MHD","Bajkalská","https://mapy.cz/zakladni?x=18.184853828738568&y=49.83516990019169&z=17&source=pubt&id=15201945","157"
"12","Lékárna","Lékárna U Ludmily","https://www.firmy.cz/detail/375083-lekarna-u-ludmily-ostrava-poruba.html","213"
"13","Školka","Mateřská škola Žilinská 1321","https://www.firmy.cz/detail/13006026-materska-skola-zilinska-1321-ostrava-poruba.html","230"
"14","Restaurace","La Strada","https://www.firmy.cz/detail/13114891-la-strada-ostrava-poruba.html","121"
"15","Tram","Sokolovská","https://mapy.cz/zakladni?x=18.1878471269&y=49.8335406975&z=17&source=pubt&id=15201846","380"
"16","Pošta","Pošta Ostrava 34 - Česká pošta, s.p.","https://www.firmy.cz/detail/433343-posta-ostrava-34-ostrava-poruba.html","213"
"17","Bankomat","Bankomat České spořitelny","https://www.firmy.cz/detail/593850-bankomat-ceske-sporitelny-ostrava-poruba.html","195"
"18","Lékař","Zdravotní centrum Halmedic, s.r.o.","https://www.firmy.cz/detail/12863416-zdravotni-centrum-halmedic-ostrava-poruba.html","213"
"19","Vlak","Ostrava-Třebovice","https://mapy.cz/zakladni?x=18.1956703177&y=49.8420594647&z=17&source=pubt&id=15212381","1236"
