"","facility_type","facility_name","facility_iri","facility_distance"
"0","Cukrárna","Cukrárna Emil Gaigher","https://www.firmy.cz/detail/12703652-cukrarna-emil-gaigher-praha-smichov.html","268"
"1","Kino","Cinema City Nový Smíchov","https://www.firmy.cz/detail/2679838-cinema-city-novy-smichov-praha-smichov.html","432"
"2","Přírodní zajímavost","Kovářovic mez","","4751"
"3","Hřiště","Dětské hřiště Dětský ostrov","","463"
"4","Večerka","Cukrárna - lahůdky 21","https://www.firmy.cz/detail/2450631-cukrarna-lahudky-21-praha-smichov.html","373"
"5","Divadlo","Švandovo divadlo na Smíchově","https://www.firmy.cz/detail/230741-svandovo-divadlo-na-smichove-praha-smichov.html","571"
"6","Hospoda","Hospůdka Knoflík","https://www.firmy.cz/detail/2253647-hospudka-knoflik-praha-smichov.html","489"
"7","Veterinář","Veterinární klinika Na Hrádku - MVDr. Ľubica Nečasová","https://www.firmy.cz/detail/633528-veterinarni-klinika-na-hradku-mvdr-lubica-necasova-praha-nove-mesto.html","805"
"8","Sportoviště","BestFit Studio Smíchov","https://www.firmy.cz/detail/12700206-bestfit-studio-smichov-praha-smichov.html","31"
"9","Restaurace","U Starého lva","https://www.firmy.cz/detail/2627351-u-stareho-lva-praha-smichov.html","153"
"10","Metro","Karlovo náměstí","","412"
"11","Tram","Zborovská","","155"
"12","Škola","Smíchovská střední průmyslová škola","https://www.firmy.cz/detail/362417-smichovska-stredni-prumyslova-skola-praha-smichov.html","292"
"13","Bus MHD","Arbesovo náměstí","","370"
"14","Pošta","Pošta Praha 5 - Česká pošta, s.p.","https://www.firmy.cz/detail/217457-posta-praha-5-praha-smichov.html","277"
"15","Bankomat","Bankomat Komerční banky","https://www.firmy.cz/detail/596020-bankomat-komercni-banky-praha-smichov.html","338"
"16","Vlak","Praha-Smíchov severní nást.","","1126"
"17","Lékař","MUDr. Zuzana Felixová","https://www.firmy.cz/detail/389783-mudr-zuzana-felixova-praha-smichov.html","344"
"18","Školka","Mateřská škola Pštrossova","https://www.firmy.cz/detail/197736-materska-skola-pstrossova-praha-nove-mesto.html","692"
"19","Obchod","Obchodní centrum Nový Smíchov","https://www.firmy.cz/detail/579116-obchodni-centrum-novy-smichov-praha-smichov.html","491"
"20","Lékárna","EUC Lékárna Kartouzská","https://www.firmy.cz/detail/13162323-euc-lekarna-kartouzska-praha-smichov.html","523"
