"","facility_type","facility_name","facility_iri","facility_distance"
"0","Cukrárna","Café Globus","https://www.firmy.cz/detail/13089087-cafe-globus-olomouc-repcin.html","683"
"1","Kino","CineStar Olomouc","https://www.firmy.cz/detail/661181-cinestar-olomouc-olomouc-repcin.html","831"
"2","Hřiště","Dětské hřiště Svatoplukova","","275"
"3","Večerka","Potraviny U Renči","https://www.firmy.cz/detail/13113867-potraviny-u-renci-olomouc-nova-ulice.html","688"
"4","Hospoda","Moravská hospoda","https://www.firmy.cz/detail/13134102-moravska-hospoda-olomouc-repcin.html","612"
"5","Divadlo","Divadlo Tramtarie","https://www.firmy.cz/detail/594401-divadlo-tramtarie-olomouc-nova-ulice.html","1151"
"6","Veterinář","Veterinární klinika MVDr. Michael Mazoch, s.r.o.","https://www.firmy.cz/detail/12906915-veterinarni-klinika-mvdr-michael-mazoch-s-r-o-olomouc-neredin.html","695"
"7","Bus MHD","Řepčín, Svatoplukova","","260"
"8","Školka","MŠ Olomouc, Na trati","https://www.firmy.cz/detail/723786-ms-olomouc-na-trati-olomouc-repcin.html","229"
"9","Restaurace","Pizzerie Benissimo","https://www.firmy.cz/detail/2419710-pizzerie-benissimo-olomouc-hejcin.html","106"
"10","Vlak","Olomouc-Hejčín","","321"
"11","Lékař","Ordinace Neředín - Mazoch Igor MUDr.","https://www.firmy.cz/detail/12834025-ordinace-neredin-mazoch-igor-mudr-olomouc-neredin.html","758"
"12","Bankomat","Bankomat ČSOB","https://www.firmy.cz/detail/599273-bankomat-csob-olomouc-repcin.html","701"
"13","Sportoviště","Česká asociace pohybem ke zdraví z.s.","https://www.firmy.cz/detail/12929537-ceska-asociace-pohybem-ke-zdravi-z-s-olomouc-hejcin.html","456"
"14","Tram","Pražská","","715"
"15","Škola","SŠ, ZŠ a MŠ prof. V. Vejdovského Olomouc-Hejčín","https://www.firmy.cz/detail/12962286-ss-zs-a-ms-prof-v-vejdovskeho-olomouc-hejcin-olomouc-hejcin.html","312"
"16","Pošta","Pošta Olomouc 9 - Česká pošta, s.p.","https://www.firmy.cz/detail/432298-posta-olomouc-9-olomouc-hejcin.html","650"
"17","Lékárna","Dr. Max","https://www.firmy.cz/detail/12856835-dr-max-olomouc-repcin.html","683"
"18","Obchod","Globus Hypermarket","https://www.firmy.cz/detail/448363-globus-hypermarket-olomouc-repcin.html","665"
