"","facility_type","facility_name","facility_iri","facility_distance"
"0","Cukrárna","Café Alegre","https://www.firmy.cz/detail/2384627-cafe-alegre-praha-smichov.html","416"
"1","Kino","CineStar Anděl","https://www.firmy.cz/detail/2537565-cinestar-andel-praha-smichov.html","488"
"2","Přírodní zajímavost","Kovářovic mez","","4418"
"3","Hřiště","Dětské hřiště Hořejší nábřeží","","238"
"4","Večerka","Albert Supermarket","https://www.firmy.cz/detail/229746-albert-supermarket-praha-smichov.html","293"
"5","Hospoda","Hospůdka Knoflík","https://www.firmy.cz/detail/2253647-hospudka-knoflik-praha-smichov.html","245"
"6","Divadlo","Švandovo divadlo na Smíchově","https://www.firmy.cz/detail/230741-svandovo-divadlo-na-smichove-praha-smichov.html","923"
"7","Veterinář","MVDr. Jana Lukešová","https://www.firmy.cz/detail/473617-mvdr-jana-lukesova-praha-smichov.html","587"
"8","Vlak","Praha-Smíchov severní nást.","","697"
"9","Škola","ZUŠ Praha 5, Štefánikova","https://www.firmy.cz/detail/427109-zus-praha-5-stefanikova-praha-smichov.html","533"
"10","Lékárna","Nad Knížecí","https://www.firmy.cz/detail/375034-nad-knizeci-praha-smichov.html","545"
"11","Restaurace","Viva Victoria Restaurant","https://www.firmy.cz/detail/2125567-viva-victoria-restaurant-praha-smichov.html","92"
"12","Metro","Anděl","","243"
"13","Tram","Na Knížecí","","185"
"14","Lékař","MUDr. Zuzana Felixová","https://www.firmy.cz/detail/389783-mudr-zuzana-felixova-praha-smichov.html","89"
"15","Bankomat","Raiffeisenbank - bankomat","https://www.firmy.cz/detail/2165458-raiffeisenbank-bankomat-praha-smichov.html","273"
"16","Sportoviště","Tělocvičná jednota Sokol - Smíchov II","https://www.firmy.cz/detail/1946970-telocvicna-jednota-sokol-smichov-ii-praha-smichov.html","157"
"17","Pošta","Pošta Praha 53 - Česká pošta, s.p.","https://www.firmy.cz/detail/431282-posta-praha-53-praha-smichov.html","615"
"18","Školka","MŠ Praha 5, U Železničního mostu","https://www.firmy.cz/detail/617142-ms-praha-5-u-zeleznicniho-mostu-praha-smichov.html","376"
"19","Obchod","Tesco","https://www.firmy.cz/detail/733908-tesco-praha-smichov.html","515"
"20","Bus MHD","Na Knížecí","","210"
