"","facility_type","facility_name","facility_iri","facility_distance"
"0","Hřiště","Dětské hřiště Mikulášovice","https://mapy.cz/zakladni?x=14.3624720842&y=50.9640873156&z=17&source=base&id=1930700","404"
"1","Večerka","Večerka Mikulášovice","https://www.firmy.cz/detail/13288763-vecerka-mikulasovice-mikulasovice.html","194"
"2","Hospoda","Hostinec TJ Spartak Mikov","https://www.firmy.cz/detail/13112780-hostinec-tj-spartak-mikov-mikulasovice.html","989"
"3","Kino","Kino Velký Šenov","https://www.firmy.cz/detail/396753-kino-velky-senov-velky-senov.html","3475"
"4","Cukrárna","Coffeeteria-Restaurant","https://www.firmy.cz/detail/13178171-coffeeteria-restaurant-mikulasovice.html","187"
"5","Restaurace","Restaurace Hotel RON","https://www.firmy.cz/detail/2657222-restaurace-hotel-ron-mikulasovice.html","250"
"6","Vlak","Mikulášovice střed","https://mapy.cz/zakladni?x=14.3574426855&y=50.9624271685&z=17&source=pubt&id=15212121","305"
"7","Bus MHD","Mikulášovice, střední-škola","https://mapy.cz/zakladni?x=14.363902509212494&y=50.96513854597569&z=17&source=pubt&id=15329147","487"
"8","Sportoviště","Koupaliště Velký Šenov","https://www.firmy.cz/detail/12982215-koupaliste-velky-senov-velky-senov.html","2092"
"9","Školka","MŠ Mikulášovice","https://www.firmy.cz/detail/1995955-ms-mikulasovice-mikulasovice.html","100"
"10","Lékař","MUDr. Zdeněk Corn","https://www.firmy.cz/detail/388133-mudr-zdenek-corn-mikulasovice.html","725"
"11","Škola","Základní škola Mikulášovice, okres Děčín","https://www.firmy.cz/detail/358221-zakladni-skola-mikulasovice-okres-decin-mikulasovice.html","518"
"12","Pošta","Pošta Mikulášovice - Česká pošta, s.p.","https://www.firmy.cz/detail/215402-posta-mikulasovice-mikulasovice.html","436"
