"","facility_type","facility_name","facility_iri","facility_distance"
"0","Cukrárna","Cukrárna U Čížků","https://www.firmy.cz/detail/13278821-cukrarna-u-cizku-jirkov.html","791"
"1","Kino","KINO JIRKOV, s.r.o.","https://www.firmy.cz/detail/12963927-kino-jirkov-jirkov.html","737"
"2","Hřiště","Dětské hřiště Na Borku","","293"
"3","Večerka","Můjobchod - Potraviny Mládežnická","https://www.firmy.cz/detail/13268659-mujobchod-potraviny-mladeznicka-jirkov.html","462"
"4","Hospoda","Hospoda U rybníka","https://www.firmy.cz/detail/13329813-hospoda-u-rybnika-jirkov.html","320"
"5","Divadlo","Městské divadlo Chomutov","https://www.firmy.cz/detail/2644644-mestske-divadlo-chomutov-chomutov.html","4178"
"6","Veterinář","MVDr. Šárka Dušková","https://www.firmy.cz/detail/2273885-mvdr-sarka-duskova-jirkov.html","602"
"7","Bankomat","Bankomat České spořitelny","https://www.firmy.cz/detail/13165941-bankomat-ceske-sporitelny-jirkov.html","549"
"8","Obchod","Tesco","https://www.firmy.cz/detail/455678-tesco-jirkov.html","577"
"9","Sportoviště","Tenisový klub Jirkov","https://www.firmy.cz/detail/2264328-tenisovy-klub-jirkov-jirkov.html","729"
"10","Vlak","Jirkov","","1104"
"11","Lékárna","Lékárna U Zlaté koruny","https://www.firmy.cz/detail/13210788-lekarna-u-zlate-koruny-jirkov.html","725"
"12","Lékař","MUDr. Eva Vytasilová","https://www.firmy.cz/detail/386090-mudr-eva-vytasilova-jirkov.html","725"
"13","Pošta","Pošta Jirkov 3 - Česká pošta, s.p.","https://www.firmy.cz/detail/215282-posta-jirkov-3-jirkov.html","263"
"14","Bus MHD","Jirkov, Horník","","228"
"15","Školka","MŠ Čtyřlístek","https://www.firmy.cz/detail/2405273-ms-ctyrlistek-jirkov.html","191"
"16","Škola","ZŠ Jirkov, Studentská","https://www.firmy.cz/detail/398909-zs-jirkov-studentska-jirkov.html","397"
"17","Restaurace","Restaurace Duha","https://www.firmy.cz/detail/13113727-restaurace-duha-jirkov.html","129"
