"","facility_type","facility_name","facility_iri","facility_distance"
"0","Hřiště","Dětské hřiště Peškova","https://mapy.cz/zakladni?x=17.2522647607&y=49.5728933917&z=17&source=base&id=2113183","309"
"1","Večerka","Potraviny Fischerova","https://www.firmy.cz/detail/13278845-potraviny-fischerova-olomouc-nove-sady.html","274"
"2","Hospoda","Pivnice Arx","https://www.firmy.cz/detail/13113248-pivnice-arx-olomouc-nove-sady.html","564"
"3","Kino","5D cinema Maxim","https://www.firmy.cz/detail/12950601-5d-cinema-maxim-olomouc.html","1863"
"4","Veterinář","Veterinární ordinace OrdinaVet","https://www.firmy.cz/detail/12984041-veterinarni-ordinace-ordinavet-olomouc-povel.html","1047"
"5","Divadlo","Divadlo na Šantovce, o.p.s.","https://www.firmy.cz/detail/12833588-divadlo-na-santovce-olomouc.html","1909"
"6","Cukrárna","Art Café","https://www.firmy.cz/detail/12919900-art-cafe-olomouc-povel.html","733"
"7","Bus MHD","Slavonínská","https://mapy.cz/zakladni?x=17.252840939463937&y=49.57054991533028&z=17&source=pubt&id=15203142","79"
"8","Restaurace","Restaurace U Klásků","https://www.firmy.cz/detail/12844153-restaurace-u-klasku-olomouc-povel.html","40"
"9","Škola","Fakultní základní škola dr. Milady Horákové a Mateřská škola Olomouc, Rožňavská 21, příspěvková organizace","https://www.firmy.cz/detail/358587-fakultni-zakladni-skola-dr-milady-horakove-a-materska-skola-olomouc-roznavska-21-prispevkova-organizace-olomouc-nove-sady.html","529"
"10","Sportoviště","TJ MILO Olomouc, z.s.","https://www.firmy.cz/detail/1335442-tj-milo-olomouc-z-s-olomouc-nove-sady.html","564"
"11","Lékárna","Fit Lékárna","https://www.firmy.cz/detail/13168822-fit-lekarna-olomouc-nove-sady.html","506"
"12","Lékař","MUDr. Jana Bomberová","https://www.firmy.cz/detail/12860268-mudr-jana-bomberova-olomouc-nove-sady.html","298"
"13","Tram","Trnkova","https://mapy.cz/zakladni?x=17.25719801777482&y=49.57954288173438&z=17&source=pubt&id=15316610","1114"
"14","Obchod","Nákupní galerie EG CENTRUM, s.r.o.","https://www.firmy.cz/detail/12807048-nakupni-galerie-eg-centrum-olomouc-nova-ulice.html","1613"
"15","Bankomat","Bankomat Komerční banky","https://www.firmy.cz/detail/12786960-bankomat-komercni-banky-olomouc-nove-sady.html","529"
"16","Pošta","Pošta Olomouc 12 - Česká pošta, s.p.","https://www.firmy.cz/detail/215270-posta-olomouc-12-olomouc-povel.html","1052"
"17","Vlak","Olomouc-Nové Sady","https://mapy.cz/zakladni?x=17.2607462612&y=49.5709734398&z=17&source=pubt&id=15212340","640"
"18","Školka","Eduka Bábetko z.s.","https://www.firmy.cz/detail/13278536-eduka-babetko-z-s-olomouc-povel.html","436"
