"","facility_type","facility_name","facility_iri","facility_distance"
"0","Cukrárna","Eiscafe Delikana","https://www.firmy.cz/detail/13295512-eiscafe-delikana-valasske-mezirici-krasno-nad-becvou.html","297"
"1","Kino","Letní kino Valmez","https://www.firmy.cz/detail/13071120-letni-kino-valmez-valasske-mezirici.html","338"
"2","Přírodní zajímavost","Bražiska","","2725"
"3","Hřiště","Dětské hřiště Vodní","","258"
"4","Večerka","Můjobchod - Potraviny - Večerka v Uličce","https://www.firmy.cz/detail/2229171-mujobchod-potraviny-vecerka-v-ulicce-valasske-mezirici-krasno-nad-becvou.html","238"
"5","Hospoda","Pivnice U Rychlíka","https://www.firmy.cz/detail/13134580-pivnice-u-rychlika-valasske-mezirici.html","582"
"6","Divadlo","Divadlo Schod","https://www.firmy.cz/detail/397015-divadlo-schod-valasske-mezirici.html","413"
"7","Veterinář","MVDr. Karel Svozil - Veterinární ordinace","https://www.firmy.cz/detail/12900123-mvdr-karel-svozil-veterinarni-ordinace-valasske-mezirici.html","521"
"8","Škola","ZŠ Valašské Meziříčí, Masarykova","https://www.firmy.cz/detail/359902-zs-valasske-mezirici-masarykova-valasske-mezirici-krasno-nad-becvou.html","268"
"9","Lékař","MUDr. Jaromír Čech","https://www.firmy.cz/detail/388674-mudr-jaromir-cech-valasske-mezirici.html","592"
"10","Obchod","Obchodní centrum Křižanova Pila","https://www.firmy.cz/detail/13265725-obchodni-centrum-krizanova-pila-valasske-mezirici-krasno-nad-becvou.html","297"
"11","Sportoviště","Valaši v pohybu z.s.","https://www.firmy.cz/detail/13079180-valasi-v-pohybu-z-s-valasske-mezirici-krasno-nad-becvou.html","234"
"12","Školka","MŠ Valašské Meziříčí, Seifertova","https://www.firmy.cz/detail/1952020-ms-valasske-mezirici-seifertova-valasske-mezirici-krasno-nad-becvou.html","55"
"13","Bankomat","Bankomat České spořitelny","https://www.firmy.cz/detail/2465198-bankomat-ceske-sporitelny-valasske-mezirici-krasno-nad-becvou.html","297"
"14","Lékárna","Lékárna Na Nábřeží","https://www.firmy.cz/detail/12820563-lekarna-na-nabrezi-valasske-mezirici.html","332"
"15","Vlak","Valašské Meziříčí","","539"
"16","Restaurace","Vegevita - vegetariánské bistro","https://www.firmy.cz/detail/13318206-vegevita-vegetarianske-bistro-valasske-mezirici-krasno-nad-becvou.html","175"
"17","Pošta","Pošta Valašské Meziříčí 1 - Česká pošta, s.p.","https://www.firmy.cz/detail/433381-posta-valasske-mezirici-1-valasske-mezirici.html","547"
"18","Bus MHD","Valašské Meziříčí, Nádražní ul.","","146"
