"","facility_type","facility_name","facility_iri","facility_distance"
"0","Cukrárna","Café Mahler","https://www.firmy.cz/detail/13144505-cafe-mahler-olomouc.html","43"
"1","Kino","Kino METROPOL","https://www.firmy.cz/detail/12773593-kino-metropol-olomouc.html","252"
"2","Hřiště","Dětské hřiště Botanická zahrada","","449"
"3","Večerka","ŽIVÝ BAR - prodej organických potravin","https://www.firmy.cz/detail/13196300-zivy-bar-prodej-organickych-potravin-olomouc.html","48"
"4","Hospoda","Beer bar na stojáka","https://www.firmy.cz/detail/13297012-beer-bar-na-stojaka-olomouc.html","82"
"5","Divadlo","Moravské divadlo Olomouc","https://www.firmy.cz/detail/230940-moravske-divadlo-olomouc-olomouc.html","207"
"6","Veterinář","Veterinární klinika Špruček, s.r.o.","https://www.firmy.cz/detail/12934299-veterinarni-klinika-sprucek-olomouc.html","451"
"7","Restaurace","Potrefená husa","https://www.firmy.cz/detail/13235404-potrefena-husa-olomouc.html","23"
"8","Tram","U Sv. Mořice","","163"
"9","Bus MHD","Náměstí Hrdinů","","397"
"10","Bankomat","Bankomat MONETA Money Bank","https://www.firmy.cz/detail/603332-bankomat-moneta-money-bank-olomouc.html","77"
"11","Lékárna","Krajinská lékárna","https://www.firmy.cz/detail/658731-krajinska-lekarna-olomouc.html","50"
"12","Školka","MŠ Olomouc, Sokolská","https://www.firmy.cz/detail/2374163-ms-olomouc-sokolska-olomouc.html","288"
"13","Lékař","GeneralMed, spol. s r.o.","https://www.firmy.cz/detail/1893344-generalmed-olomouc.html","223"
"14","Pošta","Pošta Olomouc 8 - Česká pošta, s.p.","https://www.firmy.cz/detail/216196-posta-olomouc-8-olomouc.html","235"
"15","Škola","ScioŠkola Olomouc","https://www.firmy.cz/detail/13228185-scioskola-olomouc-olomouc.html","116"
"16","Obchod","Galerie Moritz","https://www.firmy.cz/detail/616507-galerie-moritz-olomouc.html","209"
"17","Sportoviště","Squash Club Koruna s.r.o.","https://www.firmy.cz/detail/13191487-squash-club-koruna-s-r-o-olomouc.html","165"
"18","Vlak","Olomouc město","","846"
