"","facility_type","facility_name","facility_iri","facility_distance"
"0","Cukrárna","Kavárna - Club Escape","https://www.firmy.cz/detail/2272062-kavarna-club-escape-kurim.html","1387"
"1","Hřiště","Dětské hřiště","","493"
"2","Večerka","Můjobchod - Potraviny U Helánů","https://www.firmy.cz/detail/12999041-mujobchod-potraviny-u-helanu-moravske-kninice.html","477"
"3","Hospoda","U Vichřice","https://www.firmy.cz/detail/13121010-u-vichrice-moravske-kninice.html","197"
"4","Veterinář","MVDr. Lenka Horáková","https://www.firmy.cz/detail/2133031-mvdr-lenka-horakova-kurim.html","2072"
"5","Bus MHD","Moravské Knínice","","364"
"6","Školka","MŠ Moravské Knínice, U školky","https://www.firmy.cz/detail/437435-ms-moravske-kninice-u-skolky-moravske-kninice.html","667"
"7","Obchod","Kaufland","https://www.firmy.cz/detail/13146660-kaufland-kurim.html","2505"
"8","Restaurace","Restaurace U Mertů","https://www.firmy.cz/detail/316572-restaurace-u-mertu-kurim.html","1705"
"9","Škola","ZŠ a MŠ Moravské Knínice","https://www.firmy.cz/detail/357904-zs-a-ms-moravske-kninice-moravske-kninice.html","429"
"10","Vlak","Kuřim","","2134"
"11","Sportoviště","Tělocvičná jednota Sokol Moravské Knínice","https://www.firmy.cz/detail/2139860-telocvicna-jednota-sokol-moravske-kninice-moravske-kninice.html","234"
"12","Lékárna","Lékárna Na náměstí","https://www.firmy.cz/detail/1461432-lekarna-na-namesti-kurim.html","1750"
"13","Pošta","Pošta Kuřim - Česká pošta, s.p.","https://www.firmy.cz/detail/216063-posta-kurim-kurim.html","2014"
"14","Bankomat","Bankomat Komerční banky","https://www.firmy.cz/detail/592159-bankomat-komercni-banky-kurim.html","1847"
"15","Lékař","MUDr. Zora Klírová, s.r.o.","https://www.firmy.cz/detail/13043972-mudr-zora-klirova-kurim.html","1804"
