"","facility_type","facility_name","facility_iri","facility_distance"
"0","Cukrárna","Costa Coffee","https://www.firmy.cz/detail/2413656-costa-coffee-praha-nove-mesto.html","71"
"1","Kino","Cinema City Slovanský dům","https://www.firmy.cz/detail/2679893-cinema-city-slovansky-dum-praha-nove-mesto.html","386"
"2","Hřiště","Dětské hřiště sportovní areál Masná","","410"
"3","Večerka","BILLA","https://www.firmy.cz/detail/722946-billa-praha-nove-mesto.html","103"
"4","Divadlo","Divadlo Archa","https://www.firmy.cz/detail/652357-divadlo-archa-praha-nove-mesto.html","230"
"5","Hospoda","Batalion Café & Music Bar","https://www.firmy.cz/detail/457689-batalion-cafe-music-bar-praha-stare-mesto.html","884"
"6","Veterinář","MVDr. Katka Sviták Novozámská","https://www.firmy.cz/detail/2137713-mvdr-katka-svitak-novozamska-praha-stare-mesto.html","1123"
"7","Bus MHD","Truhlářská","","171"
"8","Bankomat","Bankomat UniCredit Bank Czech Republic","https://www.firmy.cz/detail/2399434-bankomat-unicredit-bank-czech-republic-praha-nove-mesto.html","53"
"9","Metro","Náměstí Republiky","","104"
"10","Pošta","Pošta Praha 05 - Česká pošta, s.p.","https://www.firmy.cz/detail/431198-posta-praha-05-praha-stare-mesto.html","336"
"11","Lékárna","LÉKÁRNA ipc Palladium","https://www.firmy.cz/detail/2345303-lekarna-ipc-palladium-praha-nove-mesto.html","111"
"12","Obchod","PALLADIUM Praha","https://www.firmy.cz/detail/2238095-palladium-praha-praha-nove-mesto.html","125"
"13","Školka","MŠ STARS, Praha","https://www.firmy.cz/detail/2348796-ms-stars-praha-praha-nove-mesto.html","237"
"14","Sportoviště","Bowling Celnice","https://www.firmy.cz/detail/12726378-bowling-celnice-praha-nove-mesto.html","110"
"15","Restaurace","La Republica","https://www.firmy.cz/detail/12701037-la-republica-praha-nove-mesto.html","26"
"16","Škola","K-TV - středisko praktického vyučování, s.r.o.","https://www.firmy.cz/detail/424947-k-tv-stredisko-praktickeho-vyucovani-praha-nove-mesto.html","26"
"17","Lékař","Canadian Medical - Palác YMCA","https://www.firmy.cz/detail/607590-canadian-medical-palac-ymca-praha-nove-mesto.html","26"
"18","Tram","Náměstí Republiky","","62"
"19","Vlak","Praha Masarykovo nádraží","","263"
