"","facility_type","facility_name","facility_iri","facility_distance"
"0","Cukrárna","KIDS & caffe","https://www.firmy.cz/detail/13052197-kids-caffe-ostrava-moravska-ostrava.html","121"
"1","Kino","Kino vesmír","https://www.firmy.cz/detail/12980428-kino-vesmir-ostrava-moravska-ostrava.html","336"
"2","Přírodní zajímavost","Uhelná sloj v Landeku","","3300"
"3","Hřiště","Dětské hřiště Veleslavínova","","122"
"4","Večerka","VEGA PROVITA","https://www.firmy.cz/detail/649689-vega-provita-ostrava-moravska-ostrava.html","131"
"5","Hospoda","Hobit club","https://www.firmy.cz/detail/1989230-hobit-club-ostrava-moravska-ostrava.html","167"
"6","Divadlo","Divadlo 12","https://www.firmy.cz/detail/13216354-divadlo-12-ostrava-moravska-ostrava.html","383"
"7","Veterinář","VETPARK Ostrava, s.r.o.","https://www.firmy.cz/detail/13308555-vetpark-ostrava-ostrava-moravska-ostrava.html","1052"
"8","Pošta","Pošta Ostrava 1 - Česká pošta, s.p.","https://www.firmy.cz/detail/452777-posta-ostrava-1-ostrava-moravska-ostrava.html","283"
"9","Bus MHD","Husův sad","","120"
"10","Školka","MŠ Ostrava, Dvořákova","https://www.firmy.cz/detail/2333638-ms-ostrava-dvorakova-ostrava-moravska-ostrava.html","241"
"11","Bankomat","Bankomat České spořitelny","https://www.firmy.cz/detail/593832-bankomat-ceske-sporitelny-ostrava-moravska-ostrava.html","235"
"12","Škola","1st International School of Ostrava - mezinárodní gymnázium, s.r.o.","https://www.firmy.cz/detail/2515470-1st-international-school-of-ostrava-mezinarodni-gymnazium-ostrava-moravska-ostrava.html","215"
"13","Restaurace","Zdravý bar Medicaliento","https://www.firmy.cz/detail/13298237-zdravy-bar-medicaliento-ostrava-moravska-ostrava.html","91"
"14","Sportoviště","Fatima Dance a Fitness","https://www.firmy.cz/detail/13183290-fatima-dance-a-fitness-ostrava-moravska-ostrava.html","297"
"15","Tram","Důl Jindřich","","185"
"16","Obchod","Obchodní centrum LASO","https://www.firmy.cz/detail/2071391-obchodni-centrum-laso-ostrava-moravska-ostrava.html","589"
"17","Vlak","Ostrava-Stodolní","","694"
"18","Lékař","POLIKLINIKA AGEL","https://www.firmy.cz/detail/477707-poliklinika-agel-ostrava-moravska-ostrava.html","293"
"19","Lékárna","Lékárna AGEL","https://www.firmy.cz/detail/2582964-lekarna-agel-ostrava-moravska-ostrava.html","293"
