"","facility_type","facility_name","facility_iri","facility_distance"
"0","Hřiště","Dětské hřiště 17. listopadu","https://mapy.cz/zakladni?x=14.9193368825&y=50.4315940734&z=17&source=base&id=2222243","60"
"1","Veterinář","MVDr. Petr Brzobohatý","https://www.firmy.cz/detail/275808-mvdr-petr-brzobohaty-kosmonosy.html","927"
"2","Večerka","Penny Market","https://www.firmy.cz/detail/207806-penny-market-mlada-boleslav-ii.html","278"
"3","Cukrárna","Cukrárna 17. listopadu 1335","https://www.firmy.cz/detail/12740377-cukrarna-17-listopadu-1335-mlada-boleslav-ii.html","667"
"4","Hospoda","Pivnice Bingo u kolejí","https://www.firmy.cz/detail/2465415-pivnice-bingo-u-koleji-mlada-boleslav-ii.html","1323"
"5","Přírodní zajímavost","Syslí kolonie","https://mapy.cz/zakladni?x=14.9026262015&y=50.4332535263&z=17&source=base&id=2193311","1138"
"6","Divadlo","Městské divadlo Mladá Boleslav","https://www.firmy.cz/detail/2178157-mestske-divadlo-mlada-boleslav-mlada-boleslav-ii.html","1916"
"7","Kino","CineStar Mladá Boleslav","https://www.firmy.cz/detail/2109584-cinestar-mlada-boleslav-mlada-boleslav-ii.html","1231"
"8","Bankomat","Bankomat České spořitelny","https://www.firmy.cz/detail/593302-bankomat-ceske-sporitelny-mlada-boleslav-ii.html","347"
"9","Lékař","MUDr. Miroslava Pekařová","https://www.firmy.cz/detail/387121-mudr-miroslava-pekarova-mlada-boleslav-ii.html","220"
"10","Pošta","Pošta Mladá Boleslav 2 - Česká pošta, s.p.","https://www.firmy.cz/detail/2378993-posta-mlada-boleslav-2-mlada-boleslav-ii.html","378"
"11","Lékárna","Lékárna 12","https://www.firmy.cz/detail/374867-lekarna-12-mlada-boleslav-ii.html","220"
"12","Bus MHD","17.listopadu","https://mapy.cz/zakladni?x=14.9184848584&y=50.4314803262&z=17&source=pubt&id=15291839","12"
"13","Sportoviště","SPINNING - MB, Jana Hladíková","https://www.firmy.cz/detail/586970-spinning-mb-jana-hladikova-mlada-boleslav-ii.html","511"
"14","Škola","ZŠ a MŠ Mladá Boleslav, 17. listopadu","https://www.firmy.cz/detail/358253-zs-a-ms-mlada-boleslav-17-listopadu-mlada-boleslav-ii.html","673"
"15","Restaurace","Parťákova pizza","https://www.firmy.cz/detail/13272667-partakova-pizza-mlada-boleslav-ii.html","227"
"16","Školka","MŠ Kosmonosy, Pionýrů","https://www.firmy.cz/detail/13047534-ms-kosmonosy-pionyru-kosmonosy.html","456"
"17","Obchod","Tesco Extra","https://www.firmy.cz/detail/12741905-tesco-extra-kosmonosy.html","421"
"18","Vlak","Mladá Boleslav město","https://mapy.cz/zakladni?x=14.91625104742621&y=50.41922179481249&z=17&source=pubt&id=15212150","1384"
