"","facility_type","facility_name","facility_iri","facility_distance"
"0","Hřiště","Dětské hřiště Chelčického","https://mapy.cz/zakladni?x=17.58843150817347&y=49.206981474816&z=17&source=base&id=2339518","104"
"1","Hospoda","Krajta","https://www.firmy.cz/detail/12815415-krajta-zlin.html","308"
"2","Večerka","Potraviny ENAPO","https://www.firmy.cz/detail/13268538-potraviny-enapo-zlin-malenovice.html","384"
"3","Cukrárna","Mrkvové dorty - Lucky Food International, s.r.o.","https://www.firmy.cz/detail/13010747-mrkvove-dorty-zlin-malenovice.html","308"
"4","Veterinář","M-Veterinární klinika","https://www.firmy.cz/detail/284022-m-veterinarni-klinika-zlin-malenovice.html","384"
"5","Divadlo","Otrokovická BESEDA s.r.o.","https://www.firmy.cz/detail/397089-otrokovicka-beseda-s-r-o-otrokovice.html","3856"
"6","Obchod","Obchodní centrum Domus","https://www.firmy.cz/detail/412932-obchodni-centrum-domus-zlin-malenovice.html","294"
"7","Vlak","Zlín-U mlýna","https://mapy.cz/zakladni?x=17.5846746066&y=49.2076485053&z=17&source=pubt&id=15213396","359"
"8","Sportoviště","Tělocvičná jednota Sokol Malenovice","https://www.firmy.cz/detail/2138424-telocvicna-jednota-sokol-malenovice-zlin-malenovice.html","258"
"9","Lékárna","APOPHARM, spol. s r.o.","https://www.firmy.cz/detail/581004-apopharm-zlin-malenovice.html","250"
"10","Škola","ZŠ Zlín, třída Svobody","https://www.firmy.cz/detail/360225-zs-zlin-trida-svobody-zlin-malenovice.html","236"
"11","Bus MHD","Malenovice, sídl.","https://mapy.cz/zakladni?x=17.5892374082&y=49.2085014612&z=17&source=pubt&id=15206234","114"
"12","Restaurace","Mbistro","https://www.firmy.cz/detail/13316575-mbistro-zlin-malenovice.html","232"
"13","Lékař","MUDr. Jitka Winklerová","https://www.firmy.cz/detail/2290144-mudr-jitka-winklerova-zlin-malenovice.html","250"
"14","Bankomat","Bankomat Komerční banky","https://www.firmy.cz/detail/1354946-bankomat-komercni-banky-zlin-malenovice.html","345"
"15","Pošta","Pošta Zlín 4 - Česká pošta, s.p.","https://www.firmy.cz/detail/432906-posta-zlin-4-zlin-malenovice.html","329"
"16","Školka","MŠ Zlín, Milíčova","https://www.firmy.cz/detail/2282929-ms-zlin-milicova-zlin-malenovice.html","131"
