"","facility_type","facility_name","facility_iri","facility_distance"
"0","Cukrárna","Cukrárna U Moučků","https://www.firmy.cz/detail/13110491-cukrarna-u-moucku-strancice.html","2513"
"1","Kino","Na Fialce - Kino","https://www.firmy.cz/detail/12962270-na-fialce-kino-ricany.html","3647"
"2","Hřiště","Dětské hřiště Dlouhá","","554"
"3","Večerka","Můjobchod - Potraviny Tehov","https://www.firmy.cz/detail/12997309-mujobchod-potraviny-tehov-tehov.html","161"
"4","Hospoda","Branická hospoda Tehov","https://www.firmy.cz/detail/13182781-branicka-hospoda-tehov-tehov.html","164"
"5","Divadlo","Na Fialce - Divadlo","https://www.firmy.cz/detail/12962273-na-fialce-divadlo-ricany.html","3647"
"6","Veterinář","MVDr. Rudolf Kohout","https://www.firmy.cz/detail/12825147-mvdr-rudolf-kohout-ricany.html","2571"
"7","Školka","Minisvět U Krtečka","https://www.firmy.cz/detail/13336690-minisvet-u-krtecka-tehov.html","41"
"8","Bus MHD","Tehov","","133"
"9","Pošta","Pošta Strančice - Česká pošta, s.p.","https://www.firmy.cz/detail/216806-posta-strancice-strancice.html","2529"
"10","Vlak","Strančice","","2506"
"11","Lékař","MUDr. Petr Kalábek","https://www.firmy.cz/detail/389369-mudr-petr-kalabek-strancice.html","2529"
"12","Škola","ZŠ Tehov","https://www.firmy.cz/detail/359292-zs-tehov-tehov.html","102"
"13","Sportoviště","Sportoviště u lesa","https://www.firmy.cz/detail/13273430-sportoviste-u-lesa-ricany.html","2165"
"14","Bankomat","Bankomat ČSOB","https://www.firmy.cz/detail/12965719-bankomat-csob-strancice.html","2626"
"15","Restaurace","Občerstvení U Koryta","https://www.firmy.cz/detail/2106505-obcerstveni-u-koryta-klokocna.html","2203"
"16","Obchod","Obchodní dům Mestek","https://www.firmy.cz/detail/13075071-obchodni-dum-mestek-ricany.html","3613"
"17","Lékárna","OOVL - L U bílého lva","https://www.firmy.cz/detail/12796432-oovl-l-u-bileho-lva-strancice.html","2626"
