"","facility_type","facility_name","facility_iri","facility_distance"
"0","Cukrárna","Cukrářství U Vocásků","https://www.firmy.cz/detail/13050114-cukrarstvi-u-vocasku-celakovice.html","104"
"1","Přírodní zajímavost","Budečská hráz","","4096"
"2","Hřiště","Dětské hřiště Na Stráni","","210"
"3","Večerka","Albert Supermarket","https://www.firmy.cz/detail/446726-albert-supermarket-celakovice.html","174"
"4","Hospoda","Pivnice Mušketýr","https://www.firmy.cz/detail/13130919-pivnice-musketyr-celakovice.html","156"
"5","Divadlo","Divadlo BlaMa","https://www.firmy.cz/detail/12760937-divadlo-blama-novy-vestec.html","3370"
"6","Veterinář","Veterinární ordinace - VetPark ,  MVDr. Dominik Vlach","https://www.firmy.cz/detail/12890672-veterinarni-ordinace-vetpark-mvdr-dominik-vlach-celakovice.html","286"
"7","Restaurace","Restaurace Stolovna","https://www.firmy.cz/detail/13025653-restaurace-stolovna-celakovice.html","106"
"8","Škola","Vyšší odborná škola MILLS","https://www.firmy.cz/detail/361455-vyssi-odborna-skola-mills-celakovice.html","0"
"9","Lékař","Praktický lékař Čelákovice s.r.o.","https://www.firmy.cz/detail/13268030-prakticky-lekar-celakovice-s-r-o-celakovice.html","0"
"10","Sportoviště","Sportovní akademie Čelákovice z.s.","https://www.firmy.cz/detail/12704695-sportovni-akademie-celakovice-z-s-celakovice.html","0"
"11","Bankomat","Bankomat ČSOB","https://www.firmy.cz/detail/597841-bankomat-csob-celakovice.html","138"
"12","Vlak","Čelákovice","","635"
"13","Školka","MŠ Čelákovice, J.A. Komenského","https://www.firmy.cz/detail/2379218-ms-celakovice-j-a-komenskeho-celakovice.html","266"
"14","Bus MHD","Čelákovice, nám.","","104"
"15","Obchod","Tesco","https://www.firmy.cz/detail/12741887-tesco-celakovice.html","1010"
"16","Lékárna","BENU Lékárna Čelákovice","https://www.firmy.cz/detail/13072132-benu-lekarna-celakovice-celakovice.html","134"
"17","Pošta","Pošta Čelákovice - Česká pošta, s.p.","https://www.firmy.cz/detail/216807-posta-celakovice-celakovice.html","138"
