"","facility_type","facility_name","facility_iri","facility_distance"
"0","Cukrárna","Cukrárna Na Slovanské","https://www.firmy.cz/detail/13108931-cukrarna-na-slovanske-plzen-vychodni-predmesti.html","904"
"1","Kino","Kino Beseda","https://www.firmy.cz/detail/12773769-kino-beseda-plzen-jizni-predmesti.html","2545"
"2","Hřiště","Dětské hřiště Škoda Sportpark","","259"
"3","Večerka","Potraviny Na Homolce","https://www.firmy.cz/detail/306717-potraviny-na-homolce-plzen-vychodni-predmesti.html","493"
"4","Hospoda","Pivnice Na Desítce","https://www.firmy.cz/detail/13261593-pivnice-na-desitce-plzen-koterov.html","556"
"5","Divadlo","Divadelní spolek Jezírko","https://www.firmy.cz/detail/740611-divadelni-spolek-jezirko-plzen-vychodni-predmesti.html","828"
"6","Veterinář","MVDr. Drahomíra Jeroušková","https://www.firmy.cz/detail/740910-mvdr-drahomira-jerouskova-plzen-doudlevce.html","467"
"7","Lékárna","Lékárna Devětsil","https://www.firmy.cz/detail/376513-lekarna-devetsil-plzen-vychodni-predmesti.html","835"
"8","Tram","Vřesová","","356"
"9","Školka","Soukromá školka a dětská skupina Javorová","https://www.firmy.cz/detail/13237577-soukroma-skolka-a-detska-skupina-javorova-plzen-vychodni-predmesti.html","307"
"10","Lékař","MUDr. Zdeněk Čech","https://www.firmy.cz/detail/389592-mudr-zdenek-cech-plzen-vychodni-predmesti.html","515"
"11","Bankomat","Bankomat České spořitelny","https://www.firmy.cz/detail/593986-bankomat-ceske-sporitelny-plzen-vychodni-predmesti.html","492"
"12","Obchod","Galerie Slovany, s.r.o.","https://www.firmy.cz/detail/2301407-galerie-slovany-plzen-vychodni-predmesti.html","955"
"13","Pošta","Pošta Plzeň 7 - Česká pošta, s.p.","https://www.firmy.cz/detail/216655-posta-plzen-7-plzen-vychodni-predmesti.html","720"
"14","Bus MHD","Vodárna","","225"
"15","Sportoviště","Škoda Sport Park Plzeň","","306"
"16","Restaurace","Restaurace U Králů","https://www.firmy.cz/detail/12834903-restaurace-u-kralu-plzen-vychodni-predmesti.html","344"
"17","Škola","21. ZŠ Plzeň","https://www.firmy.cz/detail/358869-21-zs-plzen-plzen-vychodni-predmesti.html","538"
"18","Vlak","Plzeň-Doudlevce","","906"
