"","facility_type","facility_name","facility_iri","facility_distance"
"0","Cukrárna","Kavárna Obecního domu","https://www.firmy.cz/detail/12849588-kavarna-obecniho-domu-opava-mesto.html","140"
"1","Kino","Kino Mír","https://www.firmy.cz/detail/2297240-kino-mir-opava-mesto.html","257"
"2","Hřiště","Dětské hřiště Popská","","48"
"3","Přírodní zajímavost","Bludný balvan","","369"
"4","Večerka","HRUŠKA","https://www.firmy.cz/detail/12953515-hruska-opava-mesto.html","140"
"5","Hospoda","Pivnice U Mnicha","https://www.firmy.cz/detail/278648-pivnice-u-mnicha-opava-mesto.html","132"
"6","Divadlo","Slezské divadlo Opava","https://www.firmy.cz/detail/230941-slezske-divadlo-opava-opava-mesto.html","168"
"7","Veterinář","MVDr. Marek Pepřík","https://www.firmy.cz/detail/1944110-mvdr-marek-peprik-opava-predmesti.html","481"
"8","Lékař","MUDr. Ludmila Opatřilová","https://www.firmy.cz/detail/385758-mudr-ludmila-opatrilova-opava-mesto.html","140"
"9","Obchod","OC Breda & Weinstein","https://www.firmy.cz/detail/12735258-oc-breda-weinstein-opava-mesto.html","388"
"10","Lékárna","Lékárna MG Medical Center","https://www.firmy.cz/detail/2347046-lekarna-mg-medical-center-opava-mesto.html","140"
"11","Škola","Církevní konzervatoř Německého řádu","https://www.firmy.cz/detail/362726-cirkevni-konzervator-nemeckeho-radu-opava-mesto.html","69"
"12","Restaurace","Matiční restaurace","https://www.firmy.cz/detail/2663872-maticni-restaurace-opava-mesto.html","63"
"13","Pošta","Pošta Opava 1 - Česká pošta, s.p.","https://www.firmy.cz/detail/432548-posta-opava-1-opava-mesto.html","406"
"14","Sportoviště","Sportcentrum Opava","https://www.firmy.cz/detail/13317498-sportcentrum-opava-opava-predmesti.html","443"
"15","Vlak","Opava východ","","649"
"16","Bus MHD","Opava, Divadlo","","188"
"17","Bankomat","Bankomat UniCredit Bank Czech Republic","https://www.firmy.cz/detail/12767969-bankomat-unicredit-bank-czech-republic-opava-mesto.html","114"
"18","Školka","TUČŇÁKOVA ŠKOLKA-mateřská škola, s.r.o.","https://www.firmy.cz/detail/12876662-tucnakova-skolka-materska-skola-s-r-o-opava-mesto.html","36"
