"","facility_type","facility_name","facility_iri","facility_distance"
"0","Kino","Kino Humpolec","https://www.firmy.cz/detail/396383-kino-humpolec-humpolec.html","1291"
"1","Hřiště","Dětské hřiště","","799"
"2","Večerka","Penny Market","https://www.firmy.cz/detail/207834-penny-market-humpolec.html","733"
"3","Hospoda","Restaurace Dusilov 384","https://www.firmy.cz/detail/13139453-restaurace-dusilov-384-humpolec.html","823"
"4","Divadlo","Divadlo Za komínem z. s.","https://www.firmy.cz/detail/13214723-divadlo-za-kominem-z-s-humpolec.html","988"
"5","Veterinář","MVDr. Karel Kutlvašr","https://www.firmy.cz/detail/2318999-mvdr-karel-kutlvasr-humpolec.html","677"
"6","Sportoviště","Discgolf Podhrad","","1343"
"7","Školka","MŠ Humpolec, Na Rybníčku","https://www.firmy.cz/detail/2591919-ms-humpolec-na-rybnicku-humpolec.html","726"
"8","Pošta","Pošta Humpolec - Česká pošta, s.p.","https://www.firmy.cz/detail/215187-posta-humpolec-humpolec.html","1276"
"9","Restaurace","Saloon Zlatá podkova","https://www.firmy.cz/detail/13248517-saloon-zlata-podkova-humpolec.html","615"
"10","Obchod","Kaufland","https://www.firmy.cz/detail/13293027-kaufland-humpolec.html","1773"
"11","Vlak","Humpolec","","2092"
"12","Bus MHD","Humpolec, Lužická","","162"
"13","Lékárna","Lékárna U Bílého Anděla","https://www.firmy.cz/detail/374521-lekarna-u-bileho-andela-humpolec.html","1128"
"14","Lékař","MUDr. Jarmila Fučíková","https://www.firmy.cz/detail/387993-mudr-jarmila-fucikova-humpolec.html","1593"
"15","Bankomat","Bankomat Komerční banky","https://www.firmy.cz/detail/597606-bankomat-komercni-banky-humpolec.html","1119"
"16","Škola","ZŠ Humpolec, Hradská","https://www.firmy.cz/detail/357315-zs-humpolec-hradska-humpolec.html","1212"
