"","facility_type","facility_name","facility_iri","facility_distance"
"0","Cukrárna","Klub JINÝ KAFE","https://www.firmy.cz/detail/2603373-klub-jiny-kafe-praha-zizkov.html","215"
"1","Kino","Cinema City Flora","https://www.firmy.cz/detail/660712-cinema-city-flora-praha-zizkov.html","406"
"2","Hřiště","Dětské hřiště Sudoměřská","","113"
"3","Přírodní zajímavost","Meandry Rokytky","","4628"
"4","Večerka","Shalamar Foods","https://www.firmy.cz/detail/2431840-shalamar-foods-praha-zizkov.html","352"
"5","Hospoda","U Pižďucha","https://www.firmy.cz/detail/337127-u-pizducha-praha-zizkov.html","755"
"6","Divadlo","Hvězdné léto pod žižkovskou věží","https://www.firmy.cz/detail/13265384-hvezdne-leto-pod-zizkovskou-vezi-praha-zizkov.html","416"
"7","Veterinář","Veterinární klinika Fénix","https://www.firmy.cz/detail/2132602-veterinarni-klinika-fenix-praha-vinohrady.html","394"
"8","Lékárna","BENU Lékárna","https://www.firmy.cz/detail/2691909-benu-lekarna-praha-zizkov.html","408"
"9","Sportoviště","Sportovní centrum Olšanka","https://www.firmy.cz/detail/2623802-sportovni-centrum-olsanka-praha-zizkov.html","81"
"10","Pošta","Pošta Praha 35 - Česká pošta, s.p.","https://www.firmy.cz/detail/217488-posta-praha-35-praha-zizkov.html","339"
"11","Metro","Flora","","518"
"12","Bus MHD","Olšanské náměstí","","141"
"13","Školka","MŠ Praha 3, Sudoměřská","https://www.firmy.cz/detail/2270514-ms-praha-3-sudomerska-praha-zizkov.html","85"
"14","Škola","ZUŠ Praha 9, Učňovská","https://www.firmy.cz/detail/2020027-zus-praha-9-ucnovska-praha-zizkov.html","97"
"15","Lékař","MUDr. Karel Semerád","https://www.firmy.cz/detail/2008223-mudr-karel-semerad-praha-zizkov.html","501"
"16","Tram","Olšanské náměstí","","36"
"17","Obchod","PAVILON, a.s.","https://www.firmy.cz/detail/451685-pavilon-praha-vinohrady.html","1227"
"18","Vlak","Praha hlavní nádraží","","1454"
"19","Restaurace","Plzeňka Olše","https://www.firmy.cz/detail/2209229-plzenka-olse-praha-zizkov.html","54"
"20","Bankomat","Bankomat České spořitelny","https://www.firmy.cz/detail/2463945-bankomat-ceske-sporitelny-praha-zizkov.html","16"
