"","facility_type","facility_name","facility_iri","facility_distance"
"0","Cukrárna","Zámecká Cukrárna","https://www.firmy.cz/detail/13143000-zamecka-cukrarna-frydek-mistek-frydek.html","1493"
"1","Kino","5D cinema Maxim","https://www.firmy.cz/detail/12950607-5d-cinema-maxim-frydek-mistek-frydek.html","1794"
"2","Přírodní zajímavost","Bludné balvany ve Frýdeckém lese","","1257"
"3","Hřiště","Dětské hřiště Třanovského","","592"
"4","Večerka","Inva potraviny 64","https://www.firmy.cz/detail/12901773-inva-potraviny-64-frydek-mistek-frydek.html","770"
"5","Hospoda","Hospůdka U Soudku","https://www.firmy.cz/detail/13081541-hospudka-u-soudku-frydek-mistek-frydek.html","487"
"6","Divadlo","Divadlo Čtyřlístek","https://www.firmy.cz/detail/661532-divadlo-ctyrlistek-frydek-mistek-frydek.html","1156"
"7","Veterinář","AlfaVet","https://www.firmy.cz/detail/13188059-alfavet-frydek-mistek-frydek.html","465"
"8","Školka","MŠ Pohádka Frýdek-Místek, Třanovského","https://www.firmy.cz/detail/2333590-ms-pohadka-frydek-mistek-tranovskeho-frydek-mistek-frydek.html","660"
"9","Lékař","MUDr. Jaroslava Horská","https://www.firmy.cz/detail/390520-mudr-jaroslava-horska-frydek-mistek-frydek.html","811"
"10","Restaurace","Plackárna U Lichny","https://www.firmy.cz/detail/2201228-plackarna-u-lichny-frydek-mistek-frydek.html","398"
"11","Lékárna","Lékárna nemocnice","https://www.firmy.cz/detail/421520-lekarna-nemocnice-frydek-mistek-frydek.html","847"
"12","Vlak","Frýdek-Místek","","1723"
"13","Škola","Gymnázium a Střední odborná škola, Frýdek-Místek","https://www.firmy.cz/detail/361149-gymnazium-a-stredni-odborna-skola-frydek-mistek-frydek-mistek-frydek.html","724"
"14","Pošta","Pošta Frýdek-Místek 1 - Česká pošta, s.p.","https://www.firmy.cz/detail/215628-posta-frydek-mistek-1-frydek-mistek-frydek.html","1250"
"15","Sportoviště","Lion Cross Arena","https://www.firmy.cz/detail/13014779-lion-cross-arena-frydek-mistek-frydek.html","1408"
"16","Bankomat","Bankomat ČSOB","https://www.firmy.cz/detail/599372-bankomat-csob-frydek-mistek-frydek.html","1172"
"17","Bus MHD","Frýdek-Místek, Frýdek, Na Vyhlídce","","138"
"18","Obchod","Paráda Shopping","https://www.firmy.cz/detail/13094517-parada-shopping-frydek-mistek-frydek.html","1172"
