"","facility_type","facility_name","facility_iri","facility_distance"
"0","Hřiště","Dětské hřiště Václavkova","https://mapy.cz/zakladni?x=14.3963515282&y=50.0970391606&z=17&source=base&id=2117555","69"
"1","Kino","Kino Ponrepo","https://www.firmy.cz/detail/396455-kino-ponrepo-praha-stare-mesto.html","2130"
"2","Večerka","Albert Supermarket","https://www.firmy.cz/detail/12716259-albert-supermarket-praha-bubenec.html","411"
"3","Veterinář","MVDr. Marta Schmidhalter-Pekárková DECVDI","https://www.firmy.cz/detail/2608174-mvdr-marta-schmidhalter-pekarkova-decvdi-praha-bubenec.html","490"
"4","Cukrárna","Cukrárna U Borůvky","https://www.firmy.cz/detail/13089455-cukrarna-u-boruvky-praha-dejvice.html","194"
"5","Divadlo","HILT black light theatre Prague","https://www.firmy.cz/detail/2469962-hilt-black-light-theatre-prague-praha-dejvice.html","98"
"6","Hospoda","Restaurace Dejvické nádraží","https://www.firmy.cz/detail/568432-restaurace-dejvicke-nadrazi-praha-dejvice.html","192"
"7","Sportoviště","HO Matahari, o.s.","https://www.firmy.cz/detail/2320162-ho-matahari-o-s-praha-dejvice.html","121"
"8","Vlak","Praha-Dejvice","https://mapy.cz/zakladni?x=14.3996359142&y=50.0969651071&z=17&source=pubt&id=15212556","168"
"9","Bankomat","Bankomat ČSOB","https://www.firmy.cz/detail/1424159-bankomat-csob-praha-dejvice.html","183"
"10","Lékárna","Dejvická lékárna ARNIKA","https://www.firmy.cz/detail/654778-dejvicka-lekarna-arnika-praha-dejvice.html","240"
"11","Restaurace","Budvarka Dejvice","https://www.firmy.cz/detail/623230-budvarka-dejvice-praha-dejvice.html","144"
"12","Lékař","Ordinace praktického lékaře young+co","https://www.firmy.cz/detail/2592480-ordinace-praktickeho-lekare-young-co-praha-bubenec.html","429"
"13","Bus MHD","Kafkova","https://mapy.cz/zakladni?x=14.3955425062&y=50.0983478299&z=17&source=pubt&id=15302677","183"
"14","Obchod","Kaufland","https://www.firmy.cz/detail/12720219-kaufland-praha-dejvice.html","1671"
"15","Metro","Dejvická","https://mapy.cz/zakladni?x=14.394642047282&y=50.1002740631&z=17&source=pubt&id=15200262","396"
"16","Pošta","Pošta Praha 6 - Česká pošta, s.p.","https://www.firmy.cz/detail/216725-posta-praha-6-praha-dejvice.html","203"
"17","Škola","názvem Riverside School Prague - Junior High","https://www.firmy.cz/detail/2664768-nazvem-riverside-school-prague-junior-high-praha-hradcany.html","379"
"18","Tram","Prašný most","https://mapy.cz/zakladni?x=14.3958724256&y=50.0948530106&z=17&source=pubt&id=15303863","275"
"19","Školka","FasTracKids centrum rozvoje","https://www.firmy.cz/detail/13199103-fastrackids-centrum-rozvoje-praha-dejvice.html","191"
