"","facility_type","facility_name","facility_iri","facility_distance"
"0","Cukrárna","MōōVEMENT","https://www.firmy.cz/detail/13163198-moovement-plzen-jizni-predmesti.html","284"
"1","Kino","Kino Beseda","https://www.firmy.cz/detail/12773769-kino-beseda-plzen-jizni-predmesti.html","356"
"2","Hřiště","Dětské hřiště Přeštická","","556"
"3","Večerka","Můjobchod - Potraviny Škroupova","https://www.firmy.cz/detail/2690197-mujobchod-potraviny-skroupova-plzen-jizni-predmesti.html","203"
"4","Hospoda","Pivnice Dvacitka","https://www.firmy.cz/detail/13178692-pivnice-dvacitka-plzen-jizni-predmesti.html","244"
"5","Divadlo","Divadlo Dialog","https://www.firmy.cz/detail/401465-divadlo-dialog-plzen-jizni-predmesti.html","417"
"6","Veterinář","Psí salón BELLA","https://www.firmy.cz/detail/12759736-psi-salon-bella-plzen-jizni-predmesti.html","412"
"7","Školka","32. MŠ Plzeň","https://www.firmy.cz/detail/1328622-32-ms-plzen-plzen-jizni-predmesti.html","35"
"8","Bankomat","Bankomat Sberbank CZ","https://www.firmy.cz/detail/658900-bankomat-sberbank-cz-plzen-jizni-predmesti.html","242"
"9","Vlak","Plzeň zastávka","","520"
"10","Tram","Masarykovo náměstí","","360"
"11","Restaurace","Lobkowický šenk Řemenda","https://www.firmy.cz/detail/2688485-lobkowicky-senk-remenda-plzen-jizni-predmesti.html","83"
"12","Lékař","MEDANNA praktický lékař, s.r.o.","https://www.firmy.cz/detail/12828950-medanna-prakticky-lekar-plzen-jizni-predmesti.html","25"
"13","Škola","ZUŠ Plzeň, Jagellonská","https://www.firmy.cz/detail/360399-zus-plzen-jagellonska-plzen-jizni-predmesti.html","113"
"14","Lékárna","BENU Lékárna","https://www.firmy.cz/detail/2027940-benu-lekarna-plzen-jizni-predmesti.html","349"
"15","Obchod","Obchodní centrum Plzeň Plaza","https://www.firmy.cz/detail/13089722-obchodni-centrum-plzen-plaza-plzen-jizni-predmesti.html","1061"
"16","Pošta","Pošta Plzeň 4 - Česká pošta, s.p.","https://www.firmy.cz/detail/216658-posta-plzen-4-plzen-jizni-predmesti.html","159"
"17","Sportoviště","Orel jednota Plzeň","https://www.firmy.cz/detail/1960596-orel-jednota-plzen-plzen-jizni-predmesti.html","196"
"18","Bus MHD","Radobyčická","","137"
