"","facility_type","facility_name","facility_iri","facility_distance"
"0","Hřiště","Dětské hřiště Odbojářská","https://mapy.cz/zakladni?x=16.5223407132&y=49.2219242965&z=17&source=base&id=1927926","260"
"1","Přírodní zajímavost","Koniklecová louka","https://mapy.cz/zakladni?x=16.5518474579&y=49.1834285644&z=17&source=base&id=1921318","4533"
"2","Kino","Kino Lucerna","https://www.firmy.cz/detail/638240-kino-lucerna-brno-zabovresky.html","4542"
"3","Večerka","Albert Supermarket","https://www.firmy.cz/detail/446704-albert-supermarket-brno-bystrc.html","320"
"4","Hospoda","Domeček","https://www.firmy.cz/detail/13124946-domecek-brno-bystrc.html","119"
"5","Veterinář","Veterina Bystrc, s.r.o.","https://www.firmy.cz/detail/1424221-veterina-bystrc-brno-bystrc.html","491"
"6","Cukrárna","Cukrárna Smile","https://www.firmy.cz/detail/155066-cukrarna-smile-brno-bystrc.html","861"
"7","Divadlo","Divadlo Strom","https://www.firmy.cz/detail/12762146-divadlo-strom-brno-zabovresky.html","4356"
"8","Restaurace","Mimóza club","https://www.firmy.cz/detail/420321-mimoza-club-brno-bystrc.html","421"
"9","Školka","Mateřská škola Laštůvkova 57/59","https://www.firmy.cz/detail/575867-materska-skola-lastuvkova-57-59-brno-bystrc.html","74"
"10","Škola","ZŠ Brno, Laštůvkova","https://www.firmy.cz/detail/356519-zs-brno-lastuvkova-brno-bystrc.html","275"
"11","Pošta","Pošta Brno 35 - Česká pošta, s.p.","https://www.firmy.cz/detail/794875-posta-brno-35-brno-bystrc.html","540"
"12","Lékárna","Lékárna AKÁT","https://www.firmy.cz/detail/375073-lekarna-akat-brno-bystrc.html","450"
"13","Bankomat","Bankomat UniCredit Bank Czech Republic","https://www.firmy.cz/detail/12862431-bankomat-unicredit-bank-czech-republic-brno-bystrc.html","398"
"14","Tram","Kubíčkova","https://mapy.cz/zakladni?x=16.5203362057&y=49.2207808071&z=17&source=pubt&id=15205738","319"
"15","Lékař","MUDr. Kamila Pohanková","https://www.firmy.cz/detail/12948396-mudr-kamila-pohankova-brno-bystrc.html","491"
"16","Sportoviště","Sport Centrum Sportmax","https://www.firmy.cz/detail/271521-sport-centrum-sportmax-brno-bystrc.html","507"
"17","Obchod","OC MAX s.r.o.","https://www.firmy.cz/detail/13171099-oc-max-s-r-o-brno-bystrc.html","491"
"18","Bus MHD","Laštůvkova","https://mapy.cz/zakladni?x=16.5252131702335&y=49.2201632633821&z=17&source=pubt&id=15205749","44"
