"","facility_type","facility_name","facility_iri","facility_distance"
"0","Cukrárna","Kavárna pod Palmovkou","https://www.firmy.cz/detail/230739-kavarna-pod-palmovkou-praha-liben.html","1373"
"1","Kino","Bio Oko","https://www.firmy.cz/detail/2586117-bio-oko-praha-holesovice.html","1774"
"2","Přírodní zajímavost","Meandry Rokytky","","4575"
"3","Hřiště","Dětské hřiště Jankovcova","","365"
"4","Večerka","P&M potraviny","https://www.firmy.cz/detail/464789-p-m-potraviny-praha-holesovice.html","77"
"5","Hospoda","Pivnice U Pivoje","https://www.firmy.cz/detail/2231875-pivnice-u-pivoje-praha-holesovice.html","1779"
"6","Divadlo","La Fabrika","https://www.firmy.cz/detail/2118310-la-fabrika-praha-holesovice.html","299"
"7","Veterinář","Pet Care Clinic - MVDr. Anna Goldsbrough Tvrdá","https://www.firmy.cz/detail/2666686-pet-care-clinic-mvdr-anna-goldsbrough-tvrda-praha-holesovice.html","586"
"8","Restaurace","Restaurace Hamburg","https://www.firmy.cz/detail/2365955-restaurace-hamburg-praha-holesovice.html","38"
"9","Lékárna","LÉKÁRNA ipc Osadní","https://www.firmy.cz/detail/2234657-lekarna-ipc-osadni-praha-holesovice.html","515"
"10","Obchod","Kaufland","https://www.firmy.cz/detail/1545721-kaufland-praha-liben.html","1064"
"11","Lékař","MUDr. Věra Lišková","https://www.firmy.cz/detail/390111-mudr-vera-liskova-praha-holesovice.html","517"
"12","Tram","Maniny","","197"
"13","Metro","Nádraží Holešovice","","998"
"14","Bankomat","Bankomat MONETA Money Bank","https://www.firmy.cz/detail/2260344-bankomat-moneta-money-bank-praha-holesovice.html","131"
"15","Vlak","Praha-Bubny","","1098"
"16","Školka","MŠ U Uranie, Praha 7","https://www.firmy.cz/detail/2317683-ms-u-uranie-praha-7-praha-holesovice.html","272"
"17","Bus MHD","Přístav Holešovice","","138"
"18","Sportoviště","Tenisová škola - Ing. Radek Zeithammer","https://www.firmy.cz/detail/418503-tenisova-skola-ing-radek-zeithammer-praha-holesovice.html","135"
"19","Škola","Gymnázium Duhovka, s.r.o.","https://www.firmy.cz/detail/147708-gymnazium-duhovka-praha-holesovice.html","534"
"20","Pošta","Pošta Praha 74 - Česká pošta, s.p.","https://www.firmy.cz/detail/431348-posta-praha-74-praha-holesovice.html","626"
