"","facility_type","facility_name","facility_iri","facility_distance"
"0","Cukrárna","Cukrárna Větrník","https://www.firmy.cz/detail/13243916-cukrarna-vetrnik-uherske-hradiste-maratice.html","299"
"1","Kino","Kino Hvězda Uherské Hradiště","https://www.firmy.cz/detail/457216-kino-hvezda-uherske-hradiste-uherske-hradiste.html","1392"
"2","Hřiště","Dětské hřiště Vladislava Vaculky","","127"
"3","Večerka","Potraviny ENAPO","https://www.firmy.cz/detail/13268283-potraviny-enapo-uherske-hradiste-maratice.html","79"
"4","Hospoda","Lenka Bršlicová","https://www.firmy.cz/detail/13150391-lenka-brslicova-uherske-hradiste-maratice.html","79"
"5","Divadlo","Hoffmannovo divadlo","https://www.firmy.cz/detail/608263-hoffmannovo-divadlo-uherske-hradiste-maratice.html","324"
"6","Veterinář","MVDr. Jakub Kaděra","https://www.firmy.cz/detail/649243-mvdr-jakub-kadera-uherske-hradiste-maratice.html","316"
"7","Škola","Základní škola Uherské Hradiště, Větrná","https://www.firmy.cz/detail/359817-zakladni-skola-uherske-hradiste-vetrna-uherske-hradiste-maratice.html","215"
"8","Školka","Mateřská škola Uherské Hradiště, Lomená","https://www.firmy.cz/detail/723743-materska-skola-uherske-hradiste-lomena-uherske-hradiste-maratice.html","145"
"9","Restaurace","Raul's pizza, pasta & insalate","https://www.firmy.cz/detail/13073403-raul-s-pizza-pasta-insalate-uherske-hradiste-sady.html","352"
"10","Lékař","MUDr. Zdeňka Holáňová, s.r.o.","https://www.firmy.cz/detail/12862284-mudr-zdenka-holanova-uherske-hradiste-maratice.html","441"
"11","Pošta","Pošta Uherské Hradiště 5 - Česká pošta, s.p.","https://www.firmy.cz/detail/433397-posta-uherske-hradiste-5-uherske-hradiste-maratice.html","886"
"12","Sportoviště","Sportoviště města Uherské Hradiště","https://www.firmy.cz/detail/2452693-sportoviste-mesta-uherske-hradiste-uherske-hradiste-maratice.html","321"
"13","Vlak","Kunovice","","962"
"14","Bus MHD","Mařatice, Derflanská","","81"
"15","Lékárna","TILIA APOTHEKA","https://www.firmy.cz/detail/13204274-tilia-apotheka-uherske-hradiste-maratice.html","419"
"16","Obchod","Tesco","https://www.firmy.cz/detail/653537-tesco-uherske-hradiste.html","982"
"17","Bankomat","Bankomat Komerční banky","https://www.firmy.cz/detail/1354878-bankomat-komercni-banky-uherske-hradiste.html","989"
