"","facility_type","facility_name","facility_iri","facility_distance"
"0","Cukrárna","SKY GYM Cafe","https://www.firmy.cz/detail/13067199-sky-gym-cafe-zlin.html","559"
"1","Kino","5D cinema Maxim","https://www.firmy.cz/detail/12871624-5d-cinema-maxim-zlin.html","1813"
"2","Hřiště","Dětské hřiště Zelinova","","99"
"3","Večerka","HRUŠKA","https://www.firmy.cz/detail/12820131-hruska-zlin.html","651"
"4","Divadlo","Městské divadlo Zlín","https://www.firmy.cz/detail/401494-mestske-divadlo-zlin-zlin.html","1926"
"5","Hospoda","Pivnice Přerovanka","https://www.firmy.cz/detail/13114059-pivnice-prerovanka-zlin.html","571"
"6","Veterinář","Veterina Svahy - MVDr. Lucia Friedlaenderová","https://www.firmy.cz/detail/2136524-veterina-svahy-mvdr-lucia-friedlaenderova-zlin.html","930"
"7","Pošta","Pošta Zlín 6","https://www.firmy.cz/detail/13244067-posta-zlin-6-zlin.html","425"
"8","Sportoviště","Discgolf Jižní Svahy","","661"
"9","Bankomat","Bankomat ČSOB","https://www.firmy.cz/detail/2410717-bankomat-csob-zlin.html","854"
"10","Vlak","Zlín-Dlouhá","","1500"
"11","Bus MHD","Jižní Svahy, Kocanda","","123"
"12","Lékař","MUDr. Dagmar Lukaštíková","https://www.firmy.cz/detail/389792-mudr-dagmar-lukastikova-zlin.html","651"
"13","Restaurace","WELNESS K1 - Classa Trade s.r.o., s.r.o.","https://www.firmy.cz/detail/13138074-welness-k1-zlin.html","399"
"14","Lékárna","Lékárna Slunce na Jižních Svazích","https://www.firmy.cz/detail/13210375-lekarna-slunce-na-jiznich-svazich-zlin.html","834"
"15","Škola","Církevní ZŠ Zlín","https://www.firmy.cz/detail/360210-cirkevni-zs-zlin-zlin.html","575"
"16","Obchod","Kaufland","https://www.firmy.cz/detail/1690955-kaufland-zlin.html","1187"
"17","Školka","MŠ Zlín, Česká","https://www.firmy.cz/detail/2399906-ms-zlin-ceska-zlin.html","476"
