"","facility_type","facility_name","facility_iri","facility_distance"
"0","Cukrárna","Caffé Vescovi","https://www.firmy.cz/detail/1446233-caffe-vescovi-praha-mala-strana.html","95"
"1","Kino","Kino Ponrepo","https://www.firmy.cz/detail/396455-kino-ponrepo-praha-stare-mesto.html","829"
"2","Přírodní zajímavost","Kovářovic mez","","5378"
"3","Hřiště","Dětské hřiště park Kampa","","153"
"4","Večerka","Vacek Bio-Market, s.r.o.","https://www.firmy.cz/detail/176829-vacek-bio-market-praha-mala-strana.html","492"
"5","Hospoda","Prague Beer Museum","https://www.firmy.cz/detail/12720695-prague-beer-museum-praha-stare-mesto.html","624"
"6","Divadlo","Divadlo Na Prádle","https://www.firmy.cz/detail/465109-divadlo-na-pradle-praha-mala-strana.html","73"
"7","Veterinář","MVDr. Katka Sviták Novozámská","https://www.firmy.cz/detail/2137713-mvdr-katka-svitak-novozamska-praha-stare-mesto.html","788"
"8","Pošta","Pošta Praha 51 - Česká pošta, s.p.","https://www.firmy.cz/detail/431281-posta-praha-51-praha-mala-strana.html","264"
"9","Metro","Malostranská","","928"
"10","Bus MHD","Švandovo divadlo","","472"
"11","Sportoviště","Sportovní klub Start Praha, o.s.","https://www.firmy.cz/detail/623431-sportovni-klub-start-praha-o-s-praha-stare-mesto.html","390"
"12","Restaurace","Restaurace Tlustá myš","https://www.firmy.cz/detail/591813-restaurace-tlusta-mys-praha-mala-strana.html","37"
"13","Bankomat","Bankomat Euronet","https://www.firmy.cz/detail/604287-bankomat-euronet-praha-mala-strana.html","504"
"14","Lékař","MUDr. Ludmila Šustová","https://www.firmy.cz/detail/390750-mudr-ludmila-sustova-praha-mala-strana.html","91"
"15","Tram","Újezd","","165"
"16","Obchod","palác metro","https://www.firmy.cz/detail/143339-palac-metro-praha-stare-mesto.html","873"
"17","Školka","MŠ Praha 1, Hellichova","https://www.firmy.cz/detail/406822-ms-praha-1-hellichova-praha-mala-strana.html","263"
"18","Lékárna","BENU Lékárna","https://www.firmy.cz/detail/12864634-benu-lekarna-praha-stare-mesto.html","727"
"19","Vlak","Praha-Dejvice","","1637"
"20","Škola","Gymnázium Jana Nerudy, škola hlavního města Prahy","https://www.firmy.cz/detail/362769-gymnazium-jana-nerudy-skola-hlavniho-mesta-prahy-praha-mala-strana.html","169"
