"","facility_type","facility_name","facility_iri","facility_distance"
"0","Cukrárna","InKafe","https://www.firmy.cz/detail/13123842-inkafe-praha-hostivar.html","161"
"1","Kino","Multikino - Premiere Cinemas Praha Hostivař","https://www.firmy.cz/detail/12745547-multikino-premiere-cinemas-praha-hostivar-praha-hostivar.html","1825"
"2","Hřiště","Dětské hřiště Kytínská","","180"
"3","Přírodní zajímavost","Mokřad Triangl","","2033"
"4","Večerka","NORMA","https://www.firmy.cz/detail/13254751-norma-praha-hostivar.html","61"
"5","Hospoda","Občerstvení Horolezecká 867/1","https://www.firmy.cz/detail/2457833-obcerstveni-horolezecka-867-1-praha-hostivar.html","49"
"6","Divadlo","Loutkové divadlo Frydolín","https://www.firmy.cz/detail/397086-loutkove-divadlo-frydolin-praha-hostivar.html","708"
"7","Veterinář","MVDr. Lukáš Naxera - veterinární klinika","https://www.firmy.cz/detail/657788-mvdr-lukas-naxera-veterinarni-klinika-praha-dolni-mecholupy.html","808"
"8","Bankomat","Bankomat Air Bank","https://www.firmy.cz/detail/13339777-bankomat-air-bank-praha-hostivar.html","181"
"9","Školka","MŠ Praha 10, Horolezecká","https://www.firmy.cz/detail/1968803-ms-praha-10-horolezecka-praha-hostivar.html","123"
"10","Lékárna","Hostivařská lékárna s.r.o.","https://www.firmy.cz/detail/13208850-hostivarska-lekarna-s-r-o-praha-hostivar.html","302"
"11","Restaurace","Restaurace Harmony","https://www.firmy.cz/detail/2219129-restaurace-harmony-praha-hostivar.html","154"
"12","Tram","Nádraží Hostivař","","407"
"13","Metro","Háje","","2522"
"14","Pošta","Pošta Praha 102 - Česká pošta, s.p.","https://www.firmy.cz/detail/431437-posta-praha-102-praha-hostivar.html","181"
"15","Bus MHD","Gercenova","","153"
"16","Vlak","Praha-Hostivař","","495"
"17","Obchod","Nákupní centrum Košík","https://www.firmy.cz/detail/221987-nakupni-centrum-kosik-praha-hostivar.html","1769"
"18","Lékař","Ordinace Hostivař MuDr. Taťána Tomaňová","https://www.firmy.cz/detail/13193457-ordinace-hostivar-mudr-tatana-tomanova-praha-hostivar.html","161"
"19","Sportoviště","Sportovní centrum - Univerzita Karlova v Praze","https://www.firmy.cz/detail/2202187-sportovni-centrum-univerzita-karlova-v-praze-praha-hostivar.html","295"
"20","Škola","Střední škola automobilní a informatiky","https://www.firmy.cz/detail/360786-stredni-skola-automobilni-a-informatiky-praha-hostivar.html","161"
