"","facility_type","facility_name","facility_iri","facility_distance"
"0","Cukrárna","Cukrárna Náměstí míru 253","https://www.firmy.cz/detail/13137281-cukrarna-namesti-miru-253-ceska-kamenice.html","459"
"1","Kino","Kino Hvězda","https://www.firmy.cz/detail/396650-kino-hvezda-kamenicky-senov.html","5366"
"2","Přírodní zajímavost","Ledopád Břidličný vrch","","3373"
"3","Hřiště","Rákosníčkovo hřiště Česká Kamenice","","664"
"4","Večerka","Potraviny EVA","https://www.firmy.cz/detail/2457439-potraviny-eva-ceska-kamenice.html","128"
"5","Hospoda","Penzion U Cempů","https://www.firmy.cz/detail/12974172-penzion-u-cempu-kunratice.html","1920"
"6","Veterinář","MVDr. Antonín Hanzl - Vetrinární klinika","https://www.firmy.cz/detail/2589828-mvdr-antonin-hanzl-vetrinarni-klinika-ceska-kamenice.html","431"
"7","Sportoviště","Městské koupaliště Česká Kamenice","https://www.firmy.cz/detail/12870293-mestske-koupaliste-ceska-kamenice-ceska-kamenice.html","498"
"8","Vlak","Česká Kamenice","","750"
"9","Lékař","Medical Servis, s.r.o.","https://www.firmy.cz/detail/391045-medical-servis-ceska-kamenice.html","97"
"10","Bus MHD","Česká Kamenice, 5.května","","183"
"11","Školka","MŠ Česká Kamenice, Komenského","https://www.firmy.cz/detail/1995979-ms-ceska-kamenice-komenskeho-ceska-kamenice.html","707"
"12","Lékárna","Lékárna VIA","https://www.firmy.cz/detail/12813463-lekarna-via-ceska-kamenice.html","97"
"13","Škola","ZUŠ Česká Kamenice","https://www.firmy.cz/detail/429905-zus-ceska-kamenice-ceska-kamenice.html","599"
"14","Restaurace","Restaurace U Slunce","https://www.firmy.cz/detail/13269759-restaurace-u-slunce-ceska-kamenice-dolni-kamenice.html","217"
"15","Pošta","Pošta Česká Kamenice - Česká pošta, s.p.","https://www.firmy.cz/detail/215377-posta-ceska-kamenice-ceska-kamenice.html","657"
"16","Bankomat","Bankomat České spořitelny","https://www.firmy.cz/detail/591898-bankomat-ceske-sporitelny-ceska-kamenice.html","500"
