"","facility_type","facility_name","facility_iri","facility_distance"
"0","Cukrárna","Cukrárna - kavárna Pusinka","https://www.firmy.cz/detail/2233751-cukrarna-kavarna-pusinka-olomouc.html","309"
"1","Kino","CineStar Olomouc","https://www.firmy.cz/detail/661181-cinestar-olomouc-olomouc-repcin.html","1481"
"2","Hřiště","Dětské hřiště park Malého prince","","142"
"3","Večerka","Můj obchod","https://www.firmy.cz/detail/13340168-muj-obchod-olomouc-neredin.html","237"
"4","Divadlo","Divadlo Tramtarie","https://www.firmy.cz/detail/594401-divadlo-tramtarie-olomouc-nova-ulice.html","1551"
"5","Hospoda","Jadrošova krčma","https://www.firmy.cz/detail/13189157-jadrosova-krcma-olomouc-neredin.html","354"
"6","Veterinář","Veterinární klinika MVDr. Michael Mazoch, s.r.o.","https://www.firmy.cz/detail/12906915-veterinarni-klinika-mvdr-michael-mazoch-s-r-o-olomouc-neredin.html","762"
"7","Škola","Základní umělecká škola Iši Krejčího Olomouc, odloučené pracoviště Jílová 43A","https://www.firmy.cz/detail/12834249-zakladni-umelecka-skola-isi-krejciho-olomouc-odloucene-pracoviste-jilova-43a-olomouc-nova-ulice.html","251"
"8","Lékárna","Mgr. Pavel Kalman","https://www.firmy.cz/detail/308543-mgr-pavel-kalman-olomouc-nova-ulice.html","420"
"9","Sportoviště","TJ Dukla Olomouc","https://www.firmy.cz/detail/1342119-tj-dukla-olomouc-olomouc-neredin.html","809"
"10","Bus MHD","Stupkova","","333"
"11","Restaurace","Kateřina Macková","https://www.firmy.cz/detail/13113369-katerina-mackova-olomouc-neredin.html","237"
"12","Školka","MŠ Olomouc, Jílová","https://www.firmy.cz/detail/2152831-ms-olomouc-jilova-olomouc-neredin.html","182"
"13","Bankomat","Bankomat České spořitelny","https://www.firmy.cz/detail/593746-bankomat-ceske-sporitelny-olomouc-nova-ulice.html","328"
"14","Obchod","OD TIMPO, s.r.o.","https://www.firmy.cz/detail/642623-od-timpo-olomouc-nova-ulice.html","328"
"15","Pošta","Pošta Olomouc 10 - Česká pošta, s.p.","https://www.firmy.cz/detail/215756-posta-olomouc-10-olomouc-nova-ulice.html","532"
"16","Lékař","MUDr. Otakar Svitavský","https://www.firmy.cz/detail/386490-mudr-otakar-svitavsky-olomouc-nova-ulice.html","416"
"17","Tram","Hřbitovy","","686"
"18","Vlak","Olomouc město","","1084"
