"","facility_type","facility_name","facility_iri","facility_distance"
"0","Cukrárna","Cukrárna U Flašinetáře","https://www.firmy.cz/detail/13032711-cukrarna-u-flasinetare-hradec-kralove.html","205"
"1","Kino","Letní kino Širák","https://www.firmy.cz/detail/396345-letni-kino-sirak-hradec-kralove.html","1195"
"2","Hřiště","Dětské hřiště Šimkovy sady","","205"
"3","Přírodní zajímavost","Slepé rameno Orlice u loděnice","","1751"
"4","Večerka","Potraviny U Gráda","https://www.firmy.cz/detail/2348285-potraviny-u-grada-hradec-kralove.html","205"
"5","Hospoda","Pivnice U Skokana","https://www.firmy.cz/detail/13121279-pivnice-u-skokana-hradec-kralove.html","238"
"6","Divadlo","Studio Beseda","https://www.firmy.cz/detail/13282686-studio-beseda-hradec-kralove.html","675"
"7","Veterinář","MVDr. Martina Halbichová Vítová","https://www.firmy.cz/detail/12737346-mvdr-martina-halbichova-vitova-hradec-kralove-slezske-predmesti.html","620"
"8","Sportoviště","Laser Game Hradec Králové","https://www.firmy.cz/detail/13276596-laser-game-hradec-kralove-hradec-kralove.html","219"
"9","Vlak","Hradec Králové zast.","","783"
"10","Bus MHD","Buzulucká","","66"
"11","Obchod","Kaufland","https://www.firmy.cz/detail/738634-kaufland-hradec-kralove-vekose.html","329"
"12","Lékař","MUDr. Jiří Hanousek","https://www.firmy.cz/detail/13157777-mudr-jiri-hanousek-hradec-kralove.html","226"
"13","Školka","Mateřská škola, základní škola a střední škola Daneta, s.r.o.","https://www.firmy.cz/detail/2501591-materska-skola-zakladni-skola-a-stredni-skola-daneta-s-r-o-hradec-kralove-slezske-predmesti.html","402"
"14","Lékárna","BENU Lékárna","https://www.firmy.cz/detail/2601421-benu-lekarna-hradec-kralove.html","249"
"15","Škola","ZUŠ Střezina, Hradec Králové","https://www.firmy.cz/detail/12896678-zus-strezina-hradec-kralove-hradec-kralove.html","153"
"16","Restaurace","Naše Hospoda U Pilnáčka","https://www.firmy.cz/detail/13102996-nase-hospoda-u-pilnacka-hradec-kralove.html","219"
"17","Bankomat","Bankomat Komerční banky","https://www.firmy.cz/detail/592454-bankomat-komercni-banky-hradec-kralove.html","324"
"18","Pošta","Pošta Hradec Králové 3 - Česká pošta, s.p.","https://www.firmy.cz/detail/215973-posta-hradec-kralove-3-hradec-kralove.html","163"
