"","facility_type","facility_name","facility_iri","facility_distance"
"0","Hřiště","Dětské hřiště Karlovo náměstí","https://mapy.cz/zakladni?x=14.419505&y=50.0741288333&z=17&source=base&id=2067942","232"
"1","Cukrárna","Svatováclavská cukrárna","https://www.firmy.cz/detail/1943661-svatovaclavska-cukrarna-praha-nove-mesto.html","280"
"2","Hospoda","Hostinec U Suchý Dásně","https://www.firmy.cz/detail/679683-hostinec-u-suchy-dasne-praha-nove-mesto.html","617"
"3","Večerka","MIDI MARKT","https://www.firmy.cz/detail/2364657-midi-markt-praha-nove-mesto.html","149"
"4","Veterinář","Veterinární klinika Na Hrádku - MVDr. Ľubica Nečasová","https://www.firmy.cz/detail/633528-veterinarni-klinika-na-hradku-mvdr-lubica-necasova-praha-nove-mesto.html","404"
"5","Divadlo","Divadlo v Řeznické, o.p.s.","https://www.firmy.cz/detail/2173304-divadlo-v-reznicke-praha-nove-mesto.html","368"
"6","Kino","Kino Mat","https://www.firmy.cz/detail/1974792-kino-mat-praha-nove-mesto.html","403"
"7","Přírodní zajímavost","Kovářovic mez","https://mapy.cz/zakladni?x=14.36107759920759&y=50.04395254566995&z=17&source=base&id=2339664","5574"
"8","Metro","Karlovo náměstí","https://mapy.cz/zakladni?x=14.4192266311&y=50.0755104967&z=17&source=pubt&id=15200231","247"
"9","Lékárna","Lékárna U sv. Ignáce","https://www.firmy.cz/detail/306262-lekarna-u-sv-ignace-praha-nove-mesto.html","146"
"10","Tram","Štěpánská","https://mapy.cz/zakladni?x=14.4224403964&y=50.0756770938&z=17&source=pubt&id=15301225","91"
"11","Bus MHD","Štěpánská","https://mapy.cz/zakladni?x=14.4243865444&y=50.075525992&z=17&source=pubt&id=15301438","151"
"12","Pošta","Pošta Praha 24 - Česká pošta, s.p.","https://www.firmy.cz/detail/431217-posta-praha-24-praha-vinohrady.html","904"
"13","Restaurace","Can Bey Doner Kebab","https://www.firmy.cz/detail/2645111-can-bey-doner-kebab-praha-nove-mesto.html","102"
"14","Sportoviště","Orel jednota Praha 6","https://www.firmy.cz/detail/1959893-orel-jednota-praha-6-praha-nove-mesto.html","91"
"15","Lékař","Zubní praxe MAZUR & PŠENIČNÝ","https://www.firmy.cz/detail/305118-zubni-praxe-mazur-psenicny-praha-nove-mesto.html","269"
"16","Vlak","Praha hlavní nádraží","https://mapy.cz/zakladni?x=14.4369820737851&y=50.082990005918&z=17&source=pubt&id=15212548","1370"
"17","Školka","Gymnázium, SOŠ, ZŠ a MŠ pro sluchově postižené Praha","https://www.firmy.cz/detail/729817-gymnazium-sos-zs-a-ms-pro-sluchove-postizene-praha-praha-nove-mesto.html","187"
"18","Bankomat","Bankomat Euronet","https://www.firmy.cz/detail/2372726-bankomat-euronet-praha-nove-mesto.html","125"
"19","Obchod","Quadrio","https://www.firmy.cz/detail/2042979-quadrio-praha-nove-mesto.html","762"
"20","Škola","JABOK - Vyšší odborná škola sociálně pedagogická a teologická","https://www.firmy.cz/detail/361832-jabok-vyssi-odborna-skola-socialne-pedagogicka-a-teologicka-praha-nove-mesto.html","54"
