"","facility_type","facility_name","facility_iri","facility_distance"
"0","Cukrárna","Cukrárna Větrník - Řečkovice","https://www.firmy.cz/detail/574559-cukrarna-vetrnik-reckovice-brno-reckovice.html","296"
"1","Přírodní zajímavost","Přírodní zahrada U Smrku","","2587"
"2","Hřiště","Dětské hřiště Bohatcova","","227"
"3","Kino","Kino Lucerna","https://www.firmy.cz/detail/638240-kino-lucerna-brno-zabovresky.html","4491"
"4","Večerka","BILLA","https://www.firmy.cz/detail/690082-billa-brno-reckovice.html","417"
"5","Hospoda","Hospůdka na Hřišti","https://www.firmy.cz/detail/2674577-hospudka-na-hristi-brno-reckovice.html","733"
"6","Divadlo","Divadlo Špílberg","https://www.firmy.cz/detail/13227128-divadlo-spilberg-brno-reckovice.html","800"
"7","Veterinář","Veterinární ordinace Řečkovice","https://www.firmy.cz/detail/13327057-veterinarni-ordinace-reckovice-brno-reckovice.html","268"
"8","Sportoviště","Tělocvičná jednota Sokol Řečkovice","https://www.firmy.cz/detail/2139241-telocvicna-jednota-sokol-reckovice-brno-reckovice.html","313"
"9","Škola","Základní škola Letokruh","https://www.firmy.cz/detail/13030738-zakladni-skola-letokruh-brno-reckovice.html","225"
"10","Lékárna","Lékárna Vránova","https://www.firmy.cz/detail/658717-lekarna-vranova-brno-reckovice.html","395"
"11","Bankomat","Bankomat MONETA Money Bank","https://www.firmy.cz/detail/2398245-bankomat-moneta-money-bank-brno-reckovice.html","395"
"12","Bus MHD","Palackého náměstí","","218"
"13","Obchod","Globus Hypermarket","https://www.firmy.cz/detail/448361-globus-hypermarket-brno-ivanovice.html","1240"
"14","Restaurace","Restaurace Svatovavřinecký dvůr","https://www.firmy.cz/detail/12733938-restaurace-svatovavrinecky-dvur-brno-reckovice.html","191"
"15","Lékař","MUDr. Dagmar Mrázková","https://www.firmy.cz/detail/390446-mudr-dagmar-mrazkova-brno-reckovice.html","150"
"16","Tram","Řečkovice","","368"
"17","Školka","Mateřská školka Světluška","https://www.firmy.cz/detail/12899890-materska-skolka-svetluska-brno-reckovice.html","225"
"18","Pošta","Pošta Brno 21 - Česká pošta, s.p.","https://www.firmy.cz/detail/1534314-posta-brno-21-brno-reckovice.html","498"
"19","Vlak","Brno-Řečkovice","","848"
