"","facility_type","facility_name","facility_iri","facility_distance"
"0","Cukrárna","Café Na půl cesty","https://www.firmy.cz/detail/610739-cafe-na-pul-cesty-praha.html","331"
"1","Kino","HopeTV","https://www.firmy.cz/detail/672889-hopetv-praha-vinohrady.html","2682"
"2","Hřiště","Dětské hřiště Pujmanové","","144"
"3","Večerka","NORMA","https://www.firmy.cz/detail/2182167-norma-praha-krc.html","102"
"4","Hospoda","Hostinec U Procházků","https://www.firmy.cz/detail/573112-hostinec-u-prochazku-praha-krc.html","395"
"5","Divadlo","Divadlo Na Jezerce","https://www.firmy.cz/detail/496550-divadlo-na-jezerce-praha-nusle.html","1181"
"6","Veterinář","Veterinární klinika zelená liška","https://www.firmy.cz/detail/655752-veterinarni-klinika-zelena-liska-praha-krc.html","597"
"7","Lékárna","Lékárna U sv. Pankráce","https://www.firmy.cz/detail/422787-lekarna-u-sv-pankrace-praha-nusle.html","718"
"8","Bankomat","Raiffeisenbank - bankomat","https://www.firmy.cz/detail/2474609-raiffeisenbank-bankomat-praha-nusle.html","200"
"9","Lékař","MOJE AMBULANCE","https://www.firmy.cz/detail/12889518-moje-ambulance-praha-nusle.html","243"
"10","Pošta","Pošta Praha 4 - Česká pošta, s.p.","https://www.firmy.cz/detail/216681-posta-praha-4-praha-krc.html","412"
"11","Sportoviště","Pétanque park Na Pankráci","","298"
"12","Restaurace","Restaurace Peking","https://www.firmy.cz/detail/2680271-restaurace-peking-praha-krc.html","123"
"13","Škola","První jazyková ZŠ v Praze 4","https://www.firmy.cz/detail/181662-prvni-jazykova-zs-v-praze-4-praha-krc.html","309"
"14","Obchod","Arkády Pankrác","https://www.firmy.cz/detail/2245240-arkady-pankrac-praha-nusle.html","227"
"15","Vlak","Praha-Krč","","1803"
"16","Školka","Rodinné Centrum HONZÍK","https://www.firmy.cz/detail/2634982-rodinne-centrum-honzik-praha-krc.html","243"
"17","Tram","Pankrác","","417"
"18","Metro","Pankrác","","334"
"19","Bus MHD","Sídliště Pankrác","","49"
