"","facility_type","facility_name","facility_iri","facility_distance"
"0","Cukrárna","Kavárna LANNA","https://www.firmy.cz/detail/12854847-kavarna-lanna-ceske-budejovice-3.html","158"
"1","Kino","CineStar IGY Centrum","https://www.firmy.cz/detail/13096583-cinestar-igy-centrum-ceske-budejovice-3.html","579"
"2","Hřiště","Dětské hřiště","","332"
"3","Večerka","Flop","https://www.firmy.cz/detail/12709931-flop-ceske-budejovice-3.html","234"
"4","Hospoda","Žíznivá Gumovka","https://www.firmy.cz/detail/13227416-zizniva-gumovka-ceske-budejovice-1.html","404"
"5","Divadlo","Jihočeské divadlo - Malé divadlo","https://www.firmy.cz/detail/2351551-jihoceske-divadlo-male-divadlo-ceske-budejovice-1.html","649"
"6","Veterinář","MVDr. Magda Jabulková - Veterinární ordinace","https://www.firmy.cz/detail/615689-mvdr-magda-jabulkova-veterinarni-ordinace-ceske-budejovice-3.html","634"
"7","Školka","Anglická školka Abacus English Preschool","https://www.firmy.cz/detail/12988123-anglicka-skolka-abacus-english-preschool-ceske-budejovice-3.html","221"
"8","Bus MHD","U Zelené ratolesti","","261"
"9","Škola","První soukromá základní umělecká škola, s.r.o.","https://www.firmy.cz/detail/427271-prvni-soukroma-zakladni-umelecka-skola-ceske-budejovice-3.html","117"
"10","Restaurace","Hadog","https://www.firmy.cz/detail/12833434-hadog-ceske-budejovice.html","215"
"11","Sportoviště","Lawn Tennis Club Tonstav - Service České Budějovice","https://www.firmy.cz/detail/1903545-lawn-tennis-club-tonstav-service-ceske-budejovice-ceske-budejovice-2.html","497"
"12","Bankomat","Bankomat ČSOB","https://www.firmy.cz/detail/13034883-bankomat-csob-ceske-budejovice-3.html","531"
"13","Lékař","MUDr. Jolana Trochtová","https://www.firmy.cz/detail/389202-mudr-jolana-trochtova-ceske-budejovice-1.html","550"
"14","Lékárna","LÉKÁRNA PATRIOT","https://www.firmy.cz/detail/2296119-lekarna-patriot-ceske-budejovice-3.html","196"
"15","Pošta","Pošta České Budějovice 4 - Česká pošta, s.p.","https://www.firmy.cz/detail/215235-posta-ceske-budejovice-4-ceske-budejovice-3.html","531"
"16","Obchod","Mariánská - nákupní centrum","https://www.firmy.cz/detail/13170642-marianska-nakupni-centrum-ceske-budejovice-3.html","359"
"17","Vlak","České Budějovice","","1637"
