"","facility_type","facility_name","facility_iri","facility_distance"
"0","Hřiště","Dětské hřiště Makedonská","https://mapy.cz/zakladni?x=14.49106&y=50.12999&z=17&source=base&id=2214841","234"
"1","Večerka","Potraviny Jitka Špinková","https://www.firmy.cz/detail/2333101-potraviny-jitka-spinkova-praha-strizkov.html","339"
"2","Cukrárna","Cukrárna Amarena","https://www.firmy.cz/detail/12939985-cukrarna-amarena-praha-letnany.html","708"
"3","Hospoda","Pivnice Boleslavka","https://www.firmy.cz/detail/13302446-pivnice-boleslavka-praha-prosek.html","783"
"4","Veterinář","Veterinární výjezdová služba - MVDr. Iveta Lubeníková","https://www.firmy.cz/detail/177908-veterinarni-vyjezdova-sluzba-mvdr-iveta-lubenikova-praha-strizkov.html","464"
"5","Kino","Cinema City Letňany","https://www.firmy.cz/detail/2679833-cinema-city-letnany-praha-letnany.html","939"
"6","Divadlo","Divadlo Pohádka","https://www.firmy.cz/detail/636143-divadlo-pohadka-praha-letnany.html","622"
"7","Přírodní zajímavost","Meandry Rokytky","https://mapy.cz/zakladni?x=14.517104002655032&y=50.098337103299386&z=17&source=base&id=2338360","3924"
"8","Škola","ZŠ Praha 9, Novoborská","https://www.firmy.cz/detail/401423-zs-praha-9-novoborska-praha-strizkov.html","400"
"9","Pošta","Pošta Praha 9 - Česká pošta, s.p.","https://www.firmy.cz/detail/216700-posta-praha-9-praha-strizkov.html","783"
"10","Bus MHD","Poliklinika Prosek","https://mapy.cz/zakladni?x=14.49257&y=50.12824&z=17&source=pubt&id=16447418","273"
"11","Sportoviště","BOHEMIANS PRAHA","https://www.firmy.cz/detail/2652487-bohemians-praha-praha-letnany.html","397"
"12","Tram","Třebenická","https://mapy.cz/zakladni?x=14.4809102625&y=50.1295381475&z=17&source=pubt&id=15303291","957"
"13","Bankomat","Bankomat UniCredit Bank Czech Republic","https://www.firmy.cz/detail/12987156-bankomat-unicredit-bank-czech-republic-praha-strizkov.html","339"
"14","Lékárna","Lékárna Prosek","https://www.firmy.cz/detail/12773344-lekarna-prosek-praha-strizkov.html","339"
"15","Metro","Střížkov","https://mapy.cz/zakladni?x=14.489821892&y=50.1263162209&z=17&source=pubt&id=15693444","557"
"16","Lékař","MUDr. Jana Jourová","https://www.firmy.cz/detail/387866-mudr-jana-jourova-praha-strizkov.html","339"
"17","Obchod","Tesco","https://www.firmy.cz/detail/218194-tesco-praha-letnany.html","703"
"18","Vlak","Praha-Vysočany","https://mapy.cz/zakladni?x=14.4975508502&y=50.1123429996&z=17&source=pubt&id=15698647","2026"
"19","Restaurace","Pizza Gusto Giusto s.r.o.","https://www.firmy.cz/detail/13259587-pizza-gusto-giusto-s-r-o-praha-strizkov.html","574"
"20","Školka","Mateřská škola Šluknovská","https://www.firmy.cz/detail/12807736-materska-skola-sluknovska-praha.html","305"
