"","facility_type","facility_name","facility_iri","facility_distance"
"0","Cukrárna","Cukrárna Amarilis","https://www.firmy.cz/detail/2570922-cukrarna-amarilis-praha-haje.html","1143"
"1","Kino","Cinema City Chodov","https://www.firmy.cz/detail/13098016-cinema-city-chodov-praha-chodov.html","2011"
"2","Přírodní zajímavost","Mokřad Triangl","","4092"
"3","Hřiště","Dětské hřiště Tererova","","225"
"4","Večerka","Lidl","https://www.firmy.cz/detail/13235806-lidl-praha-chodov.html","115"
"5","Hospoda","U Kajmana","https://www.firmy.cz/detail/13156223-u-kajmana-praha-chodov.html","161"
"6","Divadlo","SKAZKA, spol. s r.o.","https://www.firmy.cz/detail/2048564-skazka-praha-hostivar.html","2255"
"7","Veterinář","Veterinární ambulance AA-Vet","https://www.firmy.cz/detail/646998-veterinarni-ambulance-aa-vet-praha-chodov.html","302"
"8","Školka","MŠ Madolinka","https://www.firmy.cz/detail/1962691-ms-madolinka-praha-chodov.html","54"
"9","Bankomat","Bankomat Komerční banky","https://www.firmy.cz/detail/13256002-bankomat-komercni-banky-praha-chodov.html","115"
"10","Pošta","Pošta Praha 415 - Česká pošta, s.p.","https://www.firmy.cz/detail/431273-posta-praha-415-praha-chodov.html","776"
"11","Bus MHD","Ke Kateřinkám","","130"
"12","Lékař","MEDICO, spol. s r.o.","https://www.firmy.cz/detail/376990-medico-praha-chodov.html","141"
"13","Obchod","OC Opatovská","https://www.firmy.cz/detail/13273144-oc-opatovska-praha-chodov.html","56"
"14","Škola","Základní škola, Praha 4, Ke Kateřinkám 1400","https://www.firmy.cz/detail/399090-zakladni-skola-praha-4-ke-katerinkam-1400-praha-chodov.html","196"
"15","Vlak","Praha-Hostivař","","3682"
"16","Tram","Na Groši","","3164"
"17","Sportoviště","Pražský rekreační stolní tenis","https://www.firmy.cz/detail/2652351-prazsky-rekreacni-stolni-tenis-praha-chodov.html","248"
"18","Metro","Opatov","","709"
"19","Restaurace","Le Jess - Vietnamská restaurace","https://www.firmy.cz/detail/13268340-le-jess-vietnamska-restaurace-praha-chodov.html","85"
"20","Lékárna","BENU lékárna","https://www.firmy.cz/detail/13268276-benu-lekarna-praha-chodov.html","95"
