"","facility_type","facility_name","facility_iri","facility_distance"
"0","Hřiště","Dětské hřiště Vojtěchova","https://mapy.cz/zakladni?x=12.9180861111&y=49.4373855556&z=17&source=base&id=1978089","186"
"1","Hospoda","Restaurace na tribuně","https://www.firmy.cz/detail/13109201-restaurace-na-tribune-domazlice-horejsi-predmesti.html","283"
"2","Kino","Letní kino Domažlice","https://mapy.cz/zakladni?x=12.9203433333&y=49.4386719444&z=17&source=base&id=1977579","293"
"3","Cukrárna","Kavárna FIT Cafe","https://www.firmy.cz/detail/2690167-kavarna-fit-cafe-domazlice-horejsi-predmesti.html","130"
"4","Večerka","COOP - TIP","https://www.firmy.cz/detail/212227-coop-tip-domazlice-horejsi-predmesti.html","63"
"5","Veterinář","VetOrdinace, MVDr. Linda Hynčíková Birnerová","https://www.firmy.cz/detail/12735285-vetordinace-mvdr-linda-hyncikova-birnerova-domazlice-tynske-predmesti.html","541"
"6","Vlak","Domažlice město","https://mapy.cz/zakladni?x=12.925068204271273&y=49.43570422458671&z=17&source=pubt&id=15698410","711"
"7","Restaurace","Malý Bambus","https://www.firmy.cz/detail/13138576-maly-bambus-domazlice-horejsi-predmesti.html","678"
"8","Sportoviště","Sportovní centrum Domažlice","https://www.firmy.cz/detail/623521-sportovni-centrum-domazlice-domazlice-horejsi-predmesti.html","130"
"9","Bankomat","Bankomat České spořitelny","https://www.firmy.cz/detail/592069-bankomat-ceske-sporitelny-domazlice-horejsi-predmesti.html","607"
"10","Pošta","Pošta Domažlice 1 - Česká pošta, s.p.","https://www.firmy.cz/detail/217532-posta-domazlice-1-domazlice-horejsi-predmesti.html","712"
"11","Lékař","ELSYMA, s.r.o.","https://www.firmy.cz/detail/12845311-elsyma-domazlice-tynske-predmesti.html","618"
"12","Školka","MŠ Domažlice","https://www.firmy.cz/detail/2127867-ms-domazlice-domazlice-horejsi-predmesti.html","148"
"13","Škola","Základní škola a mateřská škola Domažlice","https://www.firmy.cz/detail/356931-zakladni-skola-a-materska-skola-domazlice-domazlice-horejsi-predmesti.html","510"
"14","Bus MHD","Domažlice, Kozinova","https://mapy.cz/zakladni?x=12.9162509049&y=49.4384985085&z=17&source=pubt&id=15244066","10"
"15","Obchod","Kaufland","https://www.firmy.cz/detail/2616614-kaufland-domazlice-tynske-predmesti.html","890"
"16","Lékárna","Lékárna U Anděla Strážce","https://www.firmy.cz/detail/270135-lekarna-u-andela-strazce-domazlice-horejsi-predmesti.html","578"
