"","facility_type","facility_name","facility_iri","facility_distance"
"0","Cukrárna","Anniny dorty","https://www.firmy.cz/detail/13307017-anniny-dorty-plzen-jizni-predmesti.html","1038"
"1","Kino","Kino Beseda","https://www.firmy.cz/detail/12773769-kino-beseda-plzen-jizni-predmesti.html","2408"
"2","Hřiště","Dětské hřiště Čermákova","","528"
"3","Večerka","Žabka","https://www.firmy.cz/detail/12976651-zabka-plzen-jizni-predmesti.html","884"
"4","Hospoda","Pivnice Slavia","https://www.firmy.cz/detail/12766272-pivnice-slavia-plzen-jizni-predmesti.html","1203"
"5","Divadlo","Divadlo pod lampou, o.p.s.","https://www.firmy.cz/detail/2418226-divadlo-pod-lampou-plzen-jizni-predmesti.html","1588"
"6","Veterinář","RPVET - VETERINÁRNÍ KLINIKA A POHOTOVOST MVDr. RADEK PROTIVA a kol.","https://www.firmy.cz/detail/13318056-rpvet-veterinarni-klinika-a-pohotovost-mvdr-radek-protiva-a-kol-plzen-jizni-predmesti.html","1031"
"7","Restaurace","Burger King","https://www.firmy.cz/detail/13232879-burger-king-plzen.html","495"
"8","Tram","Technická","","126"
"9","Škola","Střední škola informatiky a finančních služeb Plzeň","https://www.firmy.cz/detail/360887-stredni-skola-informatiky-a-financnich-sluzeb-plzen-plzen-jizni-predmesti.html","680"
"10","Sportoviště","Oddíl vodních sportů PLZEŇ z.s.","https://www.firmy.cz/detail/13018164-oddil-vodnich-sportu-plzen-z-s-plzen-jizni-predmesti.html","313"
"11","Pošta","Pošta Plzeň 20 - Česká pošta, s.p.","https://www.firmy.cz/detail/216643-posta-plzen-20-plzen-jizni-predmesti.html","936"
"12","Bus MHD","Goldscheiderova","","228"
"13","Vlak","Plzeň-Jižní Předměstí","","1622"
"14","Bankomat","Bankomat UniCredit Bank Czech Republic","https://www.firmy.cz/detail/12934682-bankomat-unicredit-bank-czech-republic-plzen-jizni-predmesti.html","302"
"15","Lékárna","Dr. Max LÉKÁRNA","https://www.firmy.cz/detail/2570158-dr-max-lekarna-plzen-jizni-predmesti.html","551"
"16","Lékař","MUDr. Danuše Vovsíková","https://www.firmy.cz/detail/390304-mudr-danuse-vovsikova-plzen-jizni-predmesti.html","909"
"17","Školka","Školička Babetka","https://www.firmy.cz/detail/12884846-skolicka-babetka-plzen-jizni-predmesti.html","481"
"18","Obchod","Kaufland","https://www.firmy.cz/detail/2616232-kaufland-plzen-jizni-predmesti.html","551"
