"","facility_type","facility_name","facility_iri","facility_distance"
"0","Hřiště","Dětské hřiště U Sýpek","https://mapy.cz/zakladni?x=17.3843888889&y=49.2988494444&z=17&source=base&id=2005813","505"
"1","Cukrárna","Academy – cafe&coctail bar","https://www.firmy.cz/detail/2510150-academy-cafe-coctail-bar-kromeriz.html","59"
"2","Večerka","Potraviny Riegrovo náměstí","https://www.firmy.cz/detail/2347789-potraviny-riegrovo-namesti-kromeriz.html","184"
"3","Veterinář","MVDr. Ivan Popelka","https://www.firmy.cz/detail/580071-mvdr-ivan-popelka-kromeriz.html","338"
"4","Hospoda","Pivobar něžný barbar","https://www.firmy.cz/detail/13266849-pivobar-nezny-barbar-kromeriz.html","93"
"5","Divadlo","Dům kultury v Kroměříži","https://www.firmy.cz/detail/397120-dum-kultury-v-kromerizi-kromeriz.html","598"
"6","Přírodní zajímavost","Soutok Moravy a Hané","https://mapy.cz/zakladni?x=17.3642576888&y=49.3270419665&z=17&source=base&id=2256568","3780"
"7","Kino","Kino Nadsklepí","https://www.firmy.cz/detail/12749352-kino-nadsklepi-kromeriz.html","160"
"8","Sportoviště","Tělocvičná jednota Sokol Kroměříž","https://www.firmy.cz/detail/2138250-telocvicna-jednota-sokol-kromeriz-kromeriz.html","227"
"9","Lékař","MEDIBRUM s.r.o. - MUDr. Ema Husaříková","https://www.firmy.cz/detail/12926622-medibrum-s-r-o-mudr-ema-husarikova-kromeriz.html","218"
"10","Lékárna","Dr.Max LÉKÁRNA","https://www.firmy.cz/detail/12795900-dr-max-lekarna-kromeriz.html","200"
"11","Bus MHD","Kroměříž, Milíčovo nám.","https://mapy.cz/zakladni?x=17.3906436141&y=49.2966605453&z=17&source=pubt&id=15297426","149"
"12","Pošta","Pošta Kroměříž 2 - Česká pošta, s.p.","https://www.firmy.cz/detail/216109-posta-kromeriz-2-kromeriz.html","86"
"13","Školka","Soukromá mateřská škola KAŠPÁREK, s.r.o.","https://www.firmy.cz/detail/13326832-soukroma-materska-skola-kasparek-kromeriz.html","186"
"14","Vlak","Kroměříž","https://mapy.cz/zakladni?x=17.4029532715&y=49.3023398501&z=17&source=pubt&id=15211844","981"
"15","Bankomat","Bankomat Komerční banky","https://www.firmy.cz/detail/597651-bankomat-komercni-banky-kromeriz.html","143"
"16","Obchod","Albert Hypermarket","https://www.firmy.cz/detail/446933-albert-hypermarket-kromeriz.html","757"
"17","Restaurace","Chihuahua Grill","https://www.firmy.cz/detail/13272452-chihuahua-grill-kromeriz.html","86"
"18","Škola","Konzervatoř P. J. Vejvanovského Kroměříž","https://www.firmy.cz/detail/362762-konzervator-p-j-vejvanovskeho-kromeriz-kromeriz.html","60"
