"","facility_type","facility_name","facility_iri","facility_distance"
"0","Cukrárna","Cukrárna Fuchsie","https://www.firmy.cz/detail/630240-cukrarna-fuchsie-orlova-mesto.html","91"
"1","Kino","Letní kino - Dům kultury města Orlové","https://www.firmy.cz/detail/13072798-letni-kino-orlova.html","2450"
"2","Hřiště","Dětské hřiště ve sportovním areálu Petřvald","","2289"
"3","Večerka","Smíšené zboží Žofinská 	511","https://www.firmy.cz/detail/2215086-smisene-zbozi-zofinska-511-orlova-poruba.html","844"
"4","Hospoda","Hospoda Dallas","https://www.firmy.cz/detail/13334485-hospoda-dallas-rychvald.html","2532"
"5","Veterinář","Veterinární klinika ANIVET - MVDr. Zbyněk Horák","https://www.firmy.cz/detail/2631495-veterinarni-klinika-anivet-mvdr-zbynek-horak-orlova-lutyne.html","2338"
"6","Restaurace","Restaurace Orlovka","https://www.firmy.cz/detail/13139538-restaurace-orlovka-orlova-mesto.html","112"
"7","Škola","ZŠ Orlová-Poruba, Jarní","https://www.firmy.cz/detail/12853474-zs-orlova-poruba-jarni-orlova-poruba.html","942"
"8","Bus MHD","Orlová, Město, nám.","","102"
"9","Obchod","PRIOR ČESKÁ REPUBLIKA s.r.o.","https://www.firmy.cz/detail/1957099-prior-ceska-republika-s-r-o-orlova-lutyne.html","2804"
"10","Lékárna","Lékárna Staré náměstí","https://www.firmy.cz/detail/375558-lekarna-stare-namesti-orlova-mesto.html","112"
"11","Pošta","Pošta Orlová 1 - Česká pošta, s.p.","https://www.firmy.cz/detail/431467-posta-orlova-1-orlova-mesto.html","229"
"12","Školka","MŠ Orlová-Lutyně, Petra Cingra","https://www.firmy.cz/detail/2381844-ms-orlova-lutyne-petra-cingra-orlova-mesto.html","166"
"13","Sportoviště","Badminton sportcentrum Orlová","https://www.firmy.cz/detail/13298031-badminton-sportcentrum-orlova-orlova-poruba.html","1149"
"14","Bankomat","Bankomat Komerční banky","https://www.firmy.cz/detail/594117-bankomat-komercni-banky-orlova-lutyne.html","2316"
"15","Lékař","MUDr. Radan Partyš","https://www.firmy.cz/detail/388026-mudr-radan-partys-orlova-mesto.html","92"
