"","facility_type","facility_name","facility_iri","facility_distance"
"0","Cukrárna","CAFÉ STEINER","https://www.firmy.cz/detail/458329-cafe-steiner-brno-veveri.html","104"
"1","Kino","Kino Art","https://www.firmy.cz/detail/451540-kino-art-brno-veveri.html","772"
"2","Přírodní zajímavost","Přírodní zahrada U Smrku","","3126"
"3","Hřiště","Dětské hřiště Jana Uhra","","194"
"4","Večerka","BRNĚNKA","https://www.firmy.cz/detail/12787566-brnenka-brno-veveri.html","116"
"5","Hospoda","JBM Draft house","https://www.firmy.cz/detail/13274537-jbm-draft-house-brno-veveri.html","90"
"6","Divadlo","Studio Devítka","https://www.firmy.cz/detail/12922705-studio-devitka-brno-mesto.html","781"
"7","Veterinář","MVDr. Dana Jelínková","https://www.firmy.cz/detail/2569450-mvdr-dana-jelinkova-brno-veveri.html","285"
"8","Školka","MATEŘÍDOUŠKA - soukromá mateřská škola, s.r.o.","https://www.firmy.cz/detail/270825-materidouska-soukroma-materska-skola-brno-veveri.html","178"
"9","Lékař","MUDr. Irena Pírková","https://www.firmy.cz/detail/388728-mudr-irena-pirkova-brno-veveri.html","317"
"10","Bus MHD","Úvoz","","146"
"11","Tram","Úvoz","","264"
"12","Vlak","Brno hlavní nádraží","","1698"
"13","Lékárna","Lékárna Na Obilním trhu","https://www.firmy.cz/detail/2347210-lekarna-na-obilnim-trhu-brno-veveri.html","176"
"14","Bankomat","Bankomat ČSOB","https://www.firmy.cz/detail/12966186-bankomat-csob-brno-stranice.html","278"
"15","Sportoviště","VK Moravská Slávia Brno","https://www.firmy.cz/detail/1318311-vk-moravska-slavia-brno-brno-veveri.html","596"
"16","Škola","Církevní střední zdravotnická škola, s.r.o.","https://www.firmy.cz/detail/2453081-cirkevni-stredni-zdravotnicka-skola-brno-veveri.html","216"
"17","Obchod","Obchodní dům Vágner","https://www.firmy.cz/detail/305250-obchodni-dum-vagner-brno-mesto.html","927"
"18","Pošta","Pošta Brno 5 - Česká pošta, s.p.","https://www.firmy.cz/detail/1534294-posta-brno-5-brno-stranice.html","516"
"19","Restaurace","Hospůdka U bosé nohy","https://www.firmy.cz/detail/2196736-hospudka-u-bose-nohy-brno-veveri.html","113"
