"","facility_type","facility_name","facility_iri","facility_distance"
"0","Cukrárna","Cukrárna U Brány","https://www.firmy.cz/detail/12960787-cukrarna-u-brany-pelhrimov.html","588"
"1","Kino","Kino Vesmír","https://www.firmy.cz/detail/396524-kino-vesmir-pelhrimov.html","850"
"2","Hřiště","Dětské hřiště Městské sady","","178"
"3","Večerka","Potraviny Palackého 69","https://www.firmy.cz/detail/13056225-potraviny-palackeho-69-pelhrimov.html","485"
"4","Hospoda","Hospoda K Tenisu 1741","https://www.firmy.cz/detail/13118250-hospoda-k-tenisu-1741-pelhrimov.html","92"
"5","Divadlo","Divadlo Lubomíra Lipského","https://www.firmy.cz/detail/12956926-divadlo-lubomira-lipskeho-pelhrimov.html","708"
"6","Veterinář","Veterina - klinika Pelhřimov","https://www.firmy.cz/detail/2136617-veterina-klinika-pelhrimov-pelhrimov.html","370"
"7","Lékař","DTMedic, s.r.o. - Praktický lékař","https://www.firmy.cz/detail/13280459-dtmedic-s-r-o-prakticky-lekar-pelhrimov.html","369"
"8","Bankomat","Bankomat Fio banky","https://www.firmy.cz/detail/2678094-bankomat-fio-banky-pelhrimov.html","298"
"9","Bus MHD","Pelhřimov, nem.I","","309"
"10","Sportoviště","Tenisový klub Pelhřimov","https://www.firmy.cz/detail/192576-tenisovy-klub-pelhrimov-pelhrimov.html","92"
"11","Školka","MŠ Pelhřimov, Pražská","https://www.firmy.cz/detail/719418-ms-pelhrimov-prazska-pelhrimov.html","585"
"12","Lékárna","Nemocnice Pelhřimov p.o., ústavní lékárna","https://www.firmy.cz/detail/659378-nemocnice-pelhrimov-p-o-ustavni-lekarna-pelhrimov.html","342"
"13","Vlak","Pelhřimov","","1847"
"14","Škola","ZŠ Pelhřimov, Na Pražské","https://www.firmy.cz/detail/358802-zs-pelhrimov-na-prazske-pelhrimov.html","679"
"15","Pošta","Pošta Pelhřimov - Česká pošta, s.p.","https://www.firmy.cz/detail/215174-posta-pelhrimov-pelhrimov.html","388"
"16","Obchod","Kaufland","https://www.firmy.cz/detail/1477282-kaufland-pelhrimov.html","1185"
"17","Restaurace","Ponte di Pietra","https://www.firmy.cz/detail/12980219-ponte-di-pietra-pelhrimov.html","411"
