"","facility_type","facility_name","facility_iri","facility_distance"
"0","Hřiště","Dětské hřiště","https://mapy.cz/zakladni?x=15.809899741920447&y=49.940472609834295&z=17&source=base&id=2334839","58"
"1","Přírodní zajímavost","Slatiňanská Třešňovka","https://mapy.cz/zakladni?x=15.8065991667&y=49.9124188889&z=17&source=base&id=1982294","3122"
"2","Večerka","Penny Market","https://www.firmy.cz/detail/2413732-penny-market-chrudim-ii.html","309"
"3","Hospoda","Hostinec u Rychtáře Václava","https://www.firmy.cz/detail/13121495-hostinec-u-rychtare-vaclava-chrudim-ii.html","1167"
"4","Cukrárna","Smé Café","https://www.firmy.cz/detail/13091909-sme-cafe-chrudim-iii.html","893"
"5","Divadlo","Loutkářský soubor Ahoj Chrudim, občanské sdružení","https://www.firmy.cz/detail/2303599-loutkarsky-soubor-ahoj-chrudim-obcanske-sdruzeni-chrudim-ii.html","1366"
"6","Veterinář","MVDr. Petr Stránský","https://www.firmy.cz/detail/592749-mvdr-petr-stransky-chrudim-ii.html","1459"
"7","Kino","Městské kino Chrudim","https://www.firmy.cz/detail/396712-mestske-kino-chrudim-chrudim-iii.html","1363"
"8","Lékárna","Lékárna Chrudimské nemocnice","https://www.firmy.cz/detail/12933018-lekarna-chrudimske-nemocnice-chrudim-ii.html","318"
"9","Bus MHD","Chrudim, nem.-vrát.","https://mapy.cz/zakladni?x=15.8062105115&y=49.9417117617&z=17&source=pubt&id=15308873","354"
"10","Školka","Speciální mateřská škola, základní škola a praktická škola Pardubice","https://www.firmy.cz/detail/2686837-specialni-materska-skola-zakladni-skola-a-prakticka-skola-pardubice-chrudim-ii.html","318"
"11","Lékař","Praktický lékař MUDr. Ivan Minařík","https://www.firmy.cz/detail/13277285-prakticky-lekar-mudr-ivan-minarik-chrudim-ii.html","959"
"12","Pošta","Pošta Chrudim 3 - Česká pošta, s.p.","https://www.firmy.cz/detail/215822-posta-chrudim-3-chrudim-iii.html","642"
"13","Bankomat","Bankomat České spořitelny","https://www.firmy.cz/detail/2609953-bankomat-ceske-sporitelny-chrudim-iii.html","716"
"14","Obchod","Tesco","https://www.firmy.cz/detail/2493866-tesco-chrudim-iii.html","716"
"15","Škola","Speciální mateřská škola, základní škola a praktická škola Pardubice","https://www.firmy.cz/detail/2686835-specialni-materska-skola-zakladni-skola-a-prakticka-skola-pardubice-chrudim-ii.html","318"
"16","Sportoviště","Letní koupaliště Chrudim","https://www.firmy.cz/detail/2532054-letni-koupaliste-chrudim-chrudim-iii.html","465"
"17","Restaurace","Restaurace na koupališti","https://www.firmy.cz/detail/13111370-restaurace-na-koupalisti-chrudim-ii.html","466"
"18","Vlak","Chrudim","https://mapy.cz/zakladni?x=15.7867104606&y=49.9482774777&z=17&source=pubt&id=15211585","1928"
