"","facility_type","facility_name","facility_iri","facility_distance"
"0","Cukrárna","Kavárna Až na půdu","https://www.firmy.cz/detail/12984443-kavarna-az-na-pudu-pisek-vnitrni-mesto.html","185"
"1","Kino","Letní kino Písek","https://www.firmy.cz/detail/13061405-letni-kino-pisek-pisek-prazske-predmesti.html","558"
"2","Hřiště","Dětské hřiště Na Ostrově","","239"
"3","Večerka","Potraviny Gurmán - Via Delicia","https://www.firmy.cz/detail/13297715-potraviny-gurman-via-delicia-pisek-vnitrni-mesto.html","126"
"4","Divadlo","Loutkové divadlo Nitka Písek","https://www.firmy.cz/detail/12805696-loutkove-divadlo-nitka-pisek-pisek.html","242"
"5","Hospoda","Hospoda U Ševce","https://www.firmy.cz/detail/13117965-hospoda-u-sevce-pisek-budejovicke-predmesti.html","319"
"6","Veterinář","MVDr. Simona Petrová","https://www.firmy.cz/detail/2059321-mvdr-simona-petrova-pisek-vnitrni-mesto.html","107"
"7","Lékárna","Dr.Max LÉKÁRNA","https://www.firmy.cz/detail/2646477-dr-max-lekarna-pisek-vnitrni-mesto.html","268"
"8","Škola","ZUŠ Otakara Ševčíka, Písek","https://www.firmy.cz/detail/427313-zus-otakara-sevcika-pisek-pisek-budejovicke-predmesti.html","248"
"9","Obchod","Galerie Písek","https://www.firmy.cz/detail/13061127-galerie-pisek-pisek-budejovicke-predmesti.html","560"
"10","Bankomat","Bankomat Komerční banky","https://www.firmy.cz/detail/591886-bankomat-komercni-banky-pisek-vnitrni-mesto.html","184"
"11","Lékař","Gynekologie MUDr. Kozlíková s.r.o.","https://www.firmy.cz/detail/13266720-gynekologie-mudr-kozlikova-s-r-o-pisek-budejovicke-predmesti.html","0"
"12","Bus MHD","Písek, Švantlova","","212"
"13","Sportoviště","Klub českých turistů odbor Otava","https://www.firmy.cz/detail/2651302-klub-ceskych-turistu-odbor-otava-pisek-budejovicke-predmesti.html","51"
"14","Pošta","Pošta Písek 1 - Česká pošta, s.p.","https://www.firmy.cz/detail/1424184-posta-pisek-1-pisek-budejovicke-predmesti.html","499"
"15","Restaurace","Restaurace U Zlatého býka","https://www.firmy.cz/detail/2101861-restaurace-u-zlateho-byka-pisek-budejovicke-predmesti.html","9"
"16","Školka","ZŠ Jana Husa a MŠ Písek, Zeyerova","https://www.firmy.cz/detail/2378456-zs-jana-husa-a-ms-pisek-zeyerova-pisek-budejovicke-predmesti.html","156"
"17","Vlak","Písek jih","","554"
