"","facility_type","facility_name","facility_iri","facility_distance"
"0","Hřiště","Dětské hřiště U Bažantnice","https://mapy.cz/zakladni?x=18.5343487638&y=49.869876508&z=17&source=base&id=2136711","445"
"1","Večerka","Lidl","https://www.firmy.cz/detail/13221941-lidl-karvina-nove-mesto.html","322"
"2","Hospoda","Hospůdka U Binga","https://www.firmy.cz/detail/13113548-hospudka-u-binga-karvina-nove-mesto.html","261"
"3","Veterinář","Veterinární ordinace TRIAS","https://www.firmy.cz/detail/2331003-veterinarni-ordinace-trias-karvina-nove-mesto.html","1061"
"4","Kino","Kino Ex","https://www.firmy.cz/detail/396409-kino-ex-karvina-nove-mesto.html","665"
"5","Cukrárna","Café Bar Twins","https://www.firmy.cz/detail/13295335-cafe-bar-twins-karvina-hranice.html","970"
"6","Sportoviště","Letní koupaliště STaRS Karviná","https://www.firmy.cz/detail/660850-letni-koupaliste-stars-karvina-karvina-nove-mesto.html","416"
"7","Vlak","Karviná hlavní nádraží","https://mapy.cz/zakladni?x=18.5267129183&y=49.8556585934&z=17&source=pubt&id=15211715","1730"
"8","Restaurace","Beskydská řízkárna","https://www.firmy.cz/detail/13278469-beskydska-rizkarna-karvina-nove-mesto.html","329"
"9","Bankomat","Bankomat České spořitelny","https://www.firmy.cz/detail/592981-bankomat-ceske-sporitelny-karvina-nove-mesto.html","456"
"10","Bus MHD","Karviná, Nové Město, hornická nemocnice","https://mapy.cz/zakladni?x=18.540033594&y=49.868948846&z=17&source=pubt&id=16406406","45"
"11","Lékař","CIBU - MED, s.r.o.","https://www.firmy.cz/detail/2649701-cibu-med-karvina-nove-mesto.html","129"
"12","Škola","Střední škola techniky a služeb Karviná","https://www.firmy.cz/detail/254665-stredni-skola-techniky-a-sluzeb-karvina-karvina-nove-mesto.html","218"
"13","Obchod","Kaufland","https://www.firmy.cz/detail/1532044-kaufland-karvina-hranice.html","1143"
"14","Pošta","Pošta Karviná 6 - Česká pošta, s.p.","https://www.firmy.cz/detail/431463-posta-karvina-6-karvina-nove-mesto.html","458"
"15","Lékárna","Lékárna KHN","https://www.firmy.cz/detail/660047-lekarna-khn-karvina-nove-mesto.html","129"
"16","Školka","Základní škola a Mateřská škola Dělnická - U Vilíka","https://www.firmy.cz/detail/12854839-zakladni-skola-a-materska-skola-delnicka-u-vilika-karvina-nove-mesto.html","38"
