"","facility_type","facility_name","facility_iri","facility_distance"
"0","Cukrárna","Cukrárna Dolce Vita","https://www.firmy.cz/detail/13016450-cukrarna-dolce-vita-kladno.html","73"
"1","Kino","Kino Sokol Kladno","https://www.firmy.cz/detail/13179300-kino-sokol-kladno-kladno.html","273"
"2","Přírodní zajímavost","Vodní park Čabárna","","4767"
"3","Hřiště","Dětské hřiště M. Švabinského","","181"
"4","Večerka","Žabka","https://www.firmy.cz/detail/12976674-zabka-kladno.html","52"
"5","Hospoda","Klub Moo","https://www.firmy.cz/detail/13095802-klub-moo-kladno.html","404"
"6","Divadlo","Loutkové divadlo Lampion","https://www.firmy.cz/detail/733471-loutkove-divadlo-lampion-kladno.html","280"
"7","Veterinář","Veterinární ordinace ANEŽKA","https://www.firmy.cz/detail/13013573-veterinarni-ordinace-anezka-kladno.html","520"
"8","Sportoviště","Diamond Angels Academy","https://www.firmy.cz/detail/12740434-diamond-angels-academy-kladno.html","185"
"9","Obchod","Central Kladno","https://www.firmy.cz/detail/12966933-central-kladno-kladno.html","342"
"10","Restaurace","IM sushi","https://www.firmy.cz/detail/13309120-im-sushi-kladno.html","21"
"11","Školka","Mateřská škola Duhový svět","https://www.firmy.cz/detail/12746593-materska-skola-duhovy-svet-kladno.html","566"
"12","Bankomat","Vkladomat mBank","https://www.firmy.cz/detail/13133102-vkladomat-mbank-kladno.html","66"
"13","Lékař","MOJE AMBULANCE","https://www.firmy.cz/detail/13221255-moje-ambulance-kladno.html","287"
"14","Lékárna","Lékárna FORMICA","https://www.firmy.cz/detail/685341-lekarna-formica-kladno.html","103"
"15","Vlak","Kladno-Ostrovec","","957"
"16","Bus MHD","Kladno, Zádušní","","257"
"17","Pošta","Pošta Kladno 5 - Česká pošta, s.p.","https://www.firmy.cz/detail/216835-posta-kladno-5-kladno.html","346"
"18","Škola","ZŠ a MŠ Montessori Slaný","https://www.firmy.cz/detail/13278779-zs-a-ms-montessori-slany-kladno.html","191"
