"","facility_type","facility_name","facility_iri","facility_distance"
"0","Cukrárna","Bistro Hawranek","https://www.firmy.cz/detail/13141188-bistro-hawranek-brno-slatina.html","1163"
"1","Přírodní zajímavost","Cesta rákosím","","4046"
"2","Hřiště","Dětské hřiště","","84"
"3","Večerka","Penny Market","https://www.firmy.cz/detail/2413780-penny-market-brno-slatina.html","230"
"4","Hospoda","Restaurace u Vedrů","https://www.firmy.cz/detail/337828-restaurace-u-vedru-brno-slatina.html","482"
"5","Divadlo","divadlo LÍŠEŇ","https://www.firmy.cz/detail/2145854-divadlo-lisen-brno-lisen.html","3275"
"6","Veterinář","MVDr. Pavla Trnková","https://www.firmy.cz/detail/477128-mvdr-pavla-trnkova-brno-slatina.html","199"
"7","Lékárna","Lékárna ALTHAEA","https://www.firmy.cz/detail/13008658-lekarna-althaea-brno-slatina.html","617"
"8","Lékař","MUDr. Martina Raková","https://www.firmy.cz/detail/387699-mudr-martina-rakova-brno-slatina.html","108"
"9","Školka","ZŠ a MŠ Brno, Jihomoravské náměstí","https://www.firmy.cz/detail/2645683-zs-a-ms-brno-jihomoravske-namesti-brno-slatina.html","605"
"10","Bankomat","Bankomat Komerční banky","https://www.firmy.cz/detail/2419871-bankomat-komercni-banky-brno-slatina.html","587"
"11","Škola","ZŠ a MŠ Brno, Jihomoravské náměstí","https://www.firmy.cz/detail/356507-zs-a-ms-brno-jihomoravske-namesti-brno-slatina.html","605"
"12","Pošta","Pošta Brno 27 - Česká pošta, s.p.","https://www.firmy.cz/detail/431934-posta-brno-27-brno-slatina.html","649"
"13","Restaurace","Pizza Palermo","https://www.firmy.cz/detail/12960780-pizza-palermo-brno-slatina.html","245"
"14","Bus MHD","Hviezdoslavova","","148"
"15","Tram","Podstránská","","1143"
"16","Obchod","Kaufland","https://www.firmy.cz/detail/12933951-kaufland-brno-slatina.html","747"
"17","Sportoviště","Winner - tenisová škola","https://www.firmy.cz/detail/342562-winner-tenisova-skola-brno-slatina.html","432"
"18","Vlak","Brno-Slatina","","1242"
