"","facility_type","facility_name","facility_iri","facility_distance"
"0","Cukrárna","Cukrárna Géčko","https://www.firmy.cz/detail/13269101-cukrarna-gecko-tabor.html","426"
"1","Kino","Kino Svět","https://www.firmy.cz/detail/211137-kino-svet-tabor.html","1438"
"2","Hřiště","Dětské hřiště Buzulucká","","81"
"3","Večerka","BILLA","https://www.firmy.cz/detail/1549312-billa-tabor.html","234"
"4","Divadlo","Divadlo Oskara Nedbala Tábor","https://www.firmy.cz/detail/406554-divadlo-oskara-nedbala-tabor-tabor.html","1326"
"5","Hospoda","U Nousků","https://www.firmy.cz/detail/13116841-u-nousku-tabor-klokoty.html","597"
"6","Veterinář","Karakal Veterinární klinika","https://www.firmy.cz/detail/471372-karakal-veterinarni-klinika-tabor.html","416"
"7","Bus MHD","Tábor, Zimní stadion","","138"
"8","Školka","MŠ Tábor, Kpt. Nálepky","https://www.firmy.cz/detail/2151101-ms-tabor-kpt-nalepky-tabor.html","265"
"9","Lékař","MUDr. Naďa Jánošková","https://www.firmy.cz/detail/387046-mudr-nada-janoskova-tabor.html","191"
"10","Sportoviště","Tělovýchovná zařízení města Tábora s.r.o.","https://www.firmy.cz/detail/211134-telovychovna-zarizeni-mesta-tabora-s-r-o-tabor.html","191"
"11","Bankomat","Bankomat ČSOB","https://www.firmy.cz/detail/597932-bankomat-csob-tabor.html","221"
"12","Pošta","Pošta Tábor 3 - Česká pošta, s.p.","https://www.firmy.cz/detail/216907-posta-tabor-3-tabor.html","221"
"13","Vlak","Tábor","","2157"
"14","Restaurace","Pizza San Daniello","https://www.firmy.cz/detail/13121230-pizza-san-daniello-tabor.html","240"
"15","Obchod","Karel Dvořák - obchodní dům","https://www.firmy.cz/detail/1897212-karel-dvorak-obchodni-dum-tabor.html","1875"
"16","Lékárna","LÉKÁRNA U NEMOCNICE","https://www.firmy.cz/detail/422392-lekarna-u-nemocnice-tabor.html","380"
"17","Škola","Střední odborná škola a střední odborné učiliště HEUREKA, s.r.o.","https://www.firmy.cz/detail/204329-stredni-odborna-skola-a-stredni-odborne-uciliste-heureka-tabor.html","109"
