"","facility_type","facility_name","facility_iri","facility_distance"
"0","Cukrárna","MEC 3 s.r.o.","https://www.firmy.cz/detail/159536-mec-3-s-r-o-praha-branik.html","1070"
"1","Kino","CineStar Anděl","https://www.firmy.cz/detail/2537565-cinestar-andel-praha-smichov.html","3904"
"2","Přírodní zajímavost","Kovářovic mez","","3826"
"3","Hřiště","Dětské hřiště Jiskrova","","368"
"4","Večerka","Penny Market","https://www.firmy.cz/detail/2412968-penny-market-praha-branik.html","129"
"5","Hospoda","Karel Hendrich","https://www.firmy.cz/detail/13110116-karel-hendrich-praha-branik.html","92"
"6","Divadlo","Divadlo Duncan centre","https://www.firmy.cz/detail/396903-divadlo-duncan-centre-praha-branik.html","156"
"7","Veterinář","Veterinární ordinace MM-Vet","https://www.firmy.cz/detail/12953045-veterinarni-ordinace-mm-vet-praha-branik.html","213"
"8","Školka","MŠ Praha 4, Mezivrší","https://www.firmy.cz/detail/407376-ms-praha-4-mezivrsi-praha-branik.html","94"
"9","Pošta","Pošta Praha 47 - Česká pošta, s.p.","https://www.firmy.cz/detail/431245-posta-praha-47-praha-branik.html","159"
"10","Lékař","Ordinace Bezová, s.r.o.","https://www.firmy.cz/detail/13338314-ordinace-bezova-praha-branik.html","380"
"11","Škola","ZŠ Praha 4, Školní","https://www.firmy.cz/detail/356152-zs-praha-4-skolni-praha-branik.html","61"
"12","Sportoviště","Český svaz Fighting-Ju-Jitsu","https://www.firmy.cz/detail/660866-cesky-svaz-fighting-ju-jitsu-praha-branik.html","169"
"13","Bus MHD","U Staré pošty","","148"
"14","Bankomat","Bankomat České spořitelny","https://www.firmy.cz/detail/594803-bankomat-ceske-sporitelny-praha-branik.html","48"
"15","Metro","Pankrác","","2432"
"16","Tram","Přístaviště","","442"
"17","Restaurace","U Starého Pivovaru","https://www.firmy.cz/detail/2365317-u-stareho-pivovaru-praha-branik.html","65"
"18","Obchod","Tesco","https://www.firmy.cz/detail/733907-tesco-praha-branik.html","1782"
"19","Vlak","Praha-Braník","","1136"
"20","Lékárna","LÉKÁRNA ipc Braník","https://www.firmy.cz/detail/658554-lekarna-ipc-branik-praha-branik.html","245"
