"","facility_type","facility_name","facility_iri","facility_distance"
"0","Cukrárna","Cukrárna Amádo","https://www.firmy.cz/detail/634174-cukrarna-amado-most.html","304"
"1","Kino","Kino Kosmos","https://www.firmy.cz/detail/401279-kino-kosmos-most.html","1421"
"2","Hřiště","Dětské hřiště Slovenského národního povstání","","132"
"3","Večerka","Potraviny Houšková","https://www.firmy.cz/detail/13001803-potraviny-houskova-most.html","334"
"4","Hospoda","Pivnice U Krokodýla","https://www.firmy.cz/detail/2212787-pivnice-u-krokodyla-most.html","281"
"5","Divadlo","Městské divadlo v Mostě, spol. s r.o.","https://www.firmy.cz/detail/1336052-mestske-divadlo-v-moste-most.html","1054"
"6","Veterinář","VETERINA-MOST","https://www.firmy.cz/detail/12832535-veterina-most-most.html","562"
"7","Lékárna","Nemocniční lékárna KZ - Nemocnice Most, o.z.","https://www.firmy.cz/detail/2150011-nemocnicni-lekarna-kz-nemocnice-most-o-z-most.html","309"
"8","Školka","MŠ Most, Marie Pujmanové","https://www.firmy.cz/detail/2281905-ms-most-marie-pujmanove-most.html","494"
"9","Bus MHD","Most, Luna","","98"
"10","Bankomat","Bankomat Fio banky","https://www.firmy.cz/detail/13233479-bankomat-fio-banky-most.html","403"
"11","Lékař","MUDr. Ilona Mollová","https://www.firmy.cz/detail/386976-mudr-ilona-mollova-most.html","309"
"12","Sportoviště","2VSYSTEMS","https://www.firmy.cz/detail/2676910-2vsystems-most.html","547"
"13","Škola","7. ZŠ Most","https://www.firmy.cz/detail/358326-7-zs-most-most.html","412"
"14","Obchod","PRIOR ČESKÁ REPUBLIKA s.r.o.","https://www.firmy.cz/detail/1957029-prior-ceska-republika-s-r-o-most.html","786"
"15","Restaurace","Restaurace Slovenského národního povstání 24","https://www.firmy.cz/detail/12955079-restaurace-slovenskeho-narodniho-povstani-24-most.html","108"
"16","Tram","Most, Obchodní dům PRIOR","","706"
"17","Pošta","Pošta Most 3 - Česká pošta, s.p.","https://www.firmy.cz/detail/216964-posta-most-3-most.html","18"
"18","Vlak","Most","","1914"
