"","facility_type","facility_name","facility_iri","facility_distance"
"0","Hřiště","Dětské hřiště V Hlinkách","https://mapy.cz/zakladni?x=17.2330816667&y=49.5876344444&z=17&source=base&id=2081821","225"
"1","Večerka","Potraviny Double ""D""","https://www.firmy.cz/detail/13248936-potraviny-double-d-olomouc.html","238"
"2","Hospoda","Pivnice Tabulový vrch","https://www.firmy.cz/detail/13278038-pivnice-tabulovy-vrch-olomouc-nova-ulice.html","142"
"3","Kino","5D cinema Maxim","https://www.firmy.cz/detail/12950601-5d-cinema-maxim-olomouc.html","1882"
"4","Veterinář","Veterinární klinika Špruček, s.r.o.","https://www.firmy.cz/detail/12850483-veterinarni-klinika-sprucek-olomouc-nova-ulice.html","1182"
"5","Cukrárna","Cukrárna Sladký Méďa","https://www.firmy.cz/detail/2603358-cukrarna-sladky-meda-olomouc-nova-ulice.html","467"
"6","Divadlo","Moravské divadlo Olomouc","https://www.firmy.cz/detail/230940-moravske-divadlo-olomouc-olomouc.html","1615"
"7","Restaurace","Kamel Club","https://www.firmy.cz/detail/2024887-kamel-club-olomouc-nova-ulice.html","170"
"8","Vlak","Olomouc-Nová Ulice","https://mapy.cz/zakladni?x=17.2442566844&y=49.5873466383&z=17&source=pubt&id=15212339","971"
"9","Pošta","Pošta Olomouc 5 - Česká pošta, s.p.","https://www.firmy.cz/detail/432296-posta-olomouc-5-olomouc.html","540"
"10","Obchod","OD TIMPO, s.r.o.","https://www.firmy.cz/detail/642623-od-timpo-olomouc-nova-ulice.html","767"
"11","Školka","Mateřská škola 1. olomoucká sportovní, s.r.o.","https://www.firmy.cz/detail/12834270-materska-skola-1-olomoucka-sportovni-olomouc-neredin.html","196"
"12","Sportoviště","Pétanque U Flóry","https://mapy.cz/zakladni?x=17.2448822222&y=49.5901802778&z=17&source=base&id=2083483","1101"
"13","Lékárna","Dr. Max LÉKÁRNA","https://www.firmy.cz/detail/13344085-dr-max-lekarna-olomouc.html","463"
"14","Bankomat","Bankomat České spořitelny","https://www.firmy.cz/detail/13335102-bankomat-ceske-sporitelny-olomouc.html","389"
"15","Bus MHD","Hněvotínská","https://mapy.cz/zakladni?x=17.2311746434699&y=49.5859810973512&z=17&source=pubt&id=15203193","29"
"16","Lékař","MUDr. Otakar Svitavský","https://www.firmy.cz/detail/386490-mudr-otakar-svitavsky-olomouc-nova-ulice.html","113"
"17","Škola","ZŠ Olomouc, Stupkova 16, p.o.","https://www.firmy.cz/detail/430015-zs-olomouc-stupkova-16-p-o-olomouc-nova-ulice.html","309"
"18","Tram","Wolkerova","https://mapy.cz/zakladni?x=17.2421669445&y=49.584985282&z=17&source=pubt&id=15203217","822"
