"","facility_type","facility_name","facility_iri","facility_distance"
"0","Hřiště","Dětské hřiště Mizerov I","https://mapy.cz/zakladni?x=18.5564154202&y=49.8614477786&z=17&source=base&id=1929043","484"
"1","Večerka","Enapo","https://www.firmy.cz/detail/13135624-enapo-karvina-hranice.html","134"
"2","Hospoda","Pivnice Gaston","https://www.firmy.cz/detail/13116463-pivnice-gaston-karvina-hranice.html","402"
"3","Veterinář","VET ANIMALS HELP, s.r.o.","https://www.firmy.cz/detail/12707402-vet-animals-help-karvina-mizerov.html","305"
"4","Kino","Kino Centrum","https://www.firmy.cz/detail/396581-kino-centrum-karvina-mizerov.html","981"
"5","Cukrárna","Café Bar Twins","https://www.firmy.cz/detail/13295335-cafe-bar-twins-karvina-hranice.html","349"
"6","Lékárna","Lékárna AVICENA","https://www.firmy.cz/detail/2240341-lekarna-avicena-karvina-hranice.html","232"
"7","Sportoviště","Oldřich Gavenda","https://www.firmy.cz/detail/2430860-oldrich-gavenda-karvina-hranice.html","223"
"8","Bus MHD","Karviná, Hranice, rehab.sanatorium","https://mapy.cz/zakladni?x=18.5606693318377&y=49.8650913910241&z=17&source=pubt&id=15278760","202"
"9","Vlak","Karviná hlavní nádraží","https://mapy.cz/zakladni?x=18.5267129183&y=49.8556585934&z=17&source=pubt&id=15211715","2504"
"10","Lékař","MUDr. Janusz Waloszek","https://www.firmy.cz/detail/385844-mudr-janusz-waloszek-karvina-hranice.html","304"
"11","Škola","ZŠ Mendelova, Karviná","https://www.firmy.cz/detail/357619-zs-mendelova-karvina-karvina-hranice.html","258"
"12","Bankomat","Bankomat České spořitelny","https://www.firmy.cz/detail/592979-bankomat-ceske-sporitelny-karvina-hranice.html","276"
"13","Školka","MŠ Klíček, Karviná - Hranice","https://www.firmy.cz/detail/2066992-ms-klicek-karvina-hranice-karvina-hranice.html","93"
"14","Restaurace","Hospůdka Výměník","https://www.firmy.cz/detail/13135779-hospudka-vymenik-karvina-mizerov.html","200"
"15","Pošta","Pošta Karviná 12 - Česká pošta, s.p.","https://www.firmy.cz/detail/431445-posta-karvina-12-karvina-hranice.html","274"
"16","Obchod","Kaufland","https://www.firmy.cz/detail/1532044-kaufland-karvina-hranice.html","416"
