"","facility_type","facility_name","facility_iri","facility_distance"
"0","Cukrárna","ZELA, s.r.o.","https://www.firmy.cz/detail/12984529-zela-praha-zabehlice.html","368"
"1","Kino","Multikino - Premiere Cinemas Praha Hostivař","https://www.firmy.cz/detail/12745547-multikino-premiere-cinemas-praha-hostivar-praha-hostivar.html","1176"
"2","Přírodní zajímavost","Mokřad Triangl","","1261"
"3","Hřiště","Dětské hřiště park Malinová-Chrpová","","69"
"4","Večerka","Tesco Supermarket","https://www.firmy.cz/detail/2501771-tesco-supermarket-praha-zabehlice.html","338"
"5","Hospoda","Pivní bar Zvonková","https://www.firmy.cz/detail/13135278-pivni-bar-zvonkova-praha-zabehlice.html","284"
"6","Divadlo","SKAZKA, spol. s r.o.","https://www.firmy.cz/detail/2048564-skazka-praha-hostivar.html","1858"
"7","Veterinář","Veterinární nemocnice AA-Vet","https://www.firmy.cz/detail/173794-veterinarni-nemocnice-aa-vet-praha-zabehlice.html","409"
"8","Lékárna","BENU Lékárna","https://www.firmy.cz/detail/374821-benu-lekarna-praha-zabehlice.html","402"
"9","Metro","Skalka","","1213"
"10","Tram","Zahradní Město","","419"
"11","Obchod","OC Květ","https://www.firmy.cz/detail/13045563-oc-kvet-praha-zabehlice.html","341"
"12","Pošta","Pošta Praha 106 - Česká pošta, s.p.","https://www.firmy.cz/detail/431448-posta-praha-106-praha-zabehlice.html","31"
"13","Bus MHD","Hlohová","","117"
"14","Bankomat","Bankomat MONETA Money Bank","https://www.firmy.cz/detail/659062-bankomat-moneta-money-bank-praha-zabehlice.html","389"
"15","Restaurace","Restaurace V Malinové","https://www.firmy.cz/detail/13129434-restaurace-v-malinove-praha-zabehlice.html","35"
"16","Školka","MŠ Praha 10, Chmelová","https://www.firmy.cz/detail/2642915-ms-praha-10-chmelova-praha-zabehlice.html","339"
"17","Škola","ZŠ Praha 10, Švehlova","https://www.firmy.cz/detail/356146-zs-praha-10-svehlova-praha-zabehlice.html","467"
"18","Sportoviště","Veřejné hřiště na míčové hry Topolová","","469"
"19","Vlak","Praha-Zahradní Město","","534"
"20","Lékař","MUDr. Mária Dědinová","https://www.firmy.cz/detail/1962187-mudr-maria-dedinova-praha-zabehlice.html","402"
