"","facility_type","facility_name","facility_iri","facility_distance"
"0","Cukrárna","Cukrárna Pod Marjánkou","https://www.firmy.cz/detail/12887308-cukrarna-pod-marjankou-praha-brevnov.html","1852"
"1","Kino","CineStar Anděl","https://www.firmy.cz/detail/2537565-cinestar-andel-praha-smichov.html","2364"
"2","Přírodní zajímavost","Kovářovic mez","","2846"
"3","Hřiště","Dětské hřiště Nepomucká","","327"
"4","Večerka","Farmářský obchůdek","https://www.firmy.cz/detail/12811625-farmarsky-obchudek-praha.html","162"
"5","Hospoda","Restaurace Na zámyšli","https://www.firmy.cz/detail/12888232-restaurace-na-zamysli-praha-kosire.html","404"
"6","Divadlo","Divadlo Orfeus","https://www.firmy.cz/detail/413053-divadlo-orfeus-praha-kosire.html","1500"
"7","Veterinář","Veterinární klinika - MVDr. Pavel Santar, MVDr. Miloš Sedlář","https://www.firmy.cz/detail/596786-veterinarni-klinika-mvdr-pavel-santar-mvdr-milos-sedlar-praha-kosire.html","820"
"8","Lékař","MUDr. Drahomíra Miškovská","https://www.firmy.cz/detail/390311-mudr-drahomira-miskovska-praha-smichov.html","266"
"9","Škola","ZŠ Praha 5, Nepomucká","https://www.firmy.cz/detail/356189-zs-praha-5-nepomucka-praha-kosire.html","101"
"10","Bankomat","Bankomat Komerční banky","https://www.firmy.cz/detail/1348764-bankomat-komercni-banky-praha-kosire.html","220"
"11","Školka","Studio Lentilka – soukromá školka","https://www.firmy.cz/detail/12801104-studio-lentilka-soukroma-skolka-praha-smichov.html","182"
"12","Pošta","Pošta Praha 56 - Česká pošta, s.p.","https://www.firmy.cz/detail/452790-posta-praha-56-praha-kosire.html","516"
"13","Lékárna","Lékárna Melissa","https://www.firmy.cz/detail/272051-lekarna-melissa-praha-kosire.html","113"
"14","Restaurace","Restaurace Ladronka","https://www.firmy.cz/detail/248946-restaurace-ladronka-praha-smichov.html","111"
"15","Bus MHD","Kavalírka","","62"
"16","Vlak","Praha-Cibulka","","676"
"17","Sportoviště","Squashpark Cibulka","https://www.firmy.cz/detail/471744-squashpark-cibulka-praha-kosire.html","442"
"18","Metro","Jinonice","","1634"
"19","Obchod","Kaufland","https://www.firmy.cz/detail/221319-kaufland-praha-brevnov.html","2273"
"20","Tram","Kavalírka","","194"
