"","facility_type","facility_name","facility_iri","facility_distance"
"0","Cukrárna","Cukrárna DonPablo","https://www.firmy.cz/detail/13302402-cukrarna-donpablo-praha-libus.html","817"
"1","Kino","Modřanský biograf","https://www.firmy.cz/detail/13272765-modransky-biograf-praha-modrany.html","3212"
"2","Hřiště","Dětské hřiště Pšenčíkova","","67"
"3","Večerka","Albert Supermarket","https://www.firmy.cz/detail/229748-albert-supermarket-praha-kamyk.html","276"
"4","Hospoda","Pivnice Jasná","https://www.firmy.cz/detail/13002565-pivnice-jasna-praha-kamyk.html","326"
"5","Divadlo","Loutkové divadlo Zvoneček","https://www.firmy.cz/detail/397112-loutkove-divadlo-zvonecek-praha-lhotka.html","1390"
"6","Veterinář","Veterinární klinika IVET","https://www.firmy.cz/detail/2614870-veterinarni-klinika-ivet-praha-kamyk.html","78"
"7","Bankomat","Bankomat České spořitelny","https://www.firmy.cz/detail/594800-bankomat-ceske-sporitelny-praha-kamyk.html","300"
"8","Lékárna","Dr. Max","https://www.firmy.cz/detail/12856949-dr-max-praha-kamyk.html","276"
"9","Lékař","MUDr. Jan Podzimek","https://www.firmy.cz/detail/390704-mudr-jan-podzimek-praha-kamyk.html","169"
"10","Bus MHD","Cílkova","","211"
"11","Restaurace","Hostinec Na Kamýku","https://www.firmy.cz/detail/13024465-hostinec-na-kamyku-praha-kamyk.html","377"
"12","Sportoviště","DOMYNO1, s.r.o.","https://www.firmy.cz/detail/12797383-domyno1-praha-lhotka.html","409"
"13","Škola","Prague British International School","https://www.firmy.cz/detail/1905265-prague-british-international-school-praha-kamyk.html","437"
"14","Školka","Církevní MŠ Studánka Praha","https://www.firmy.cz/detail/458513-cirkevni-ms-studanka-praha-praha-kamyk.html","75"
"15","Vlak","Praha-Krč","","2114"
"16","Obchod","OC Novo Plaza","https://www.firmy.cz/detail/2135100-oc-novo-plaza-praha-branik.html","1547"
"17","Metro","Budějovická","","3135"
"18","Tram","Levského","","1307"
"19","Pošta","Pošta Praha 411 - Česká pošta, s.p.","https://www.firmy.cz/detail/217478-posta-praha-411-praha-lhotka.html","604"
