"","facility_type","facility_name","facility_iri","facility_distance"
"0","Cukrárna","Kavárna Knoflík","https://www.firmy.cz/detail/12890167-kavarna-knoflik-praha-prosek.html","545"
"1","Kino","Cinema City Letňany","https://www.firmy.cz/detail/2679833-cinema-city-letnany-praha-letnany.html","1338"
"2","Přírodní zajímavost","Meandry Rokytky","","3318"
"3","Hřiště","Dětské hřiště Cvikovská","","74"
"4","Večerka","Penny Market","https://www.firmy.cz/detail/2412969-penny-market-praha-strizkov.html","220"
"5","Hospoda","Pivnice Boleslavka","https://www.firmy.cz/detail/13302446-pivnice-boleslavka-praha-prosek.html","473"
"6","Divadlo","Divadlo Pohádka","https://www.firmy.cz/detail/636143-divadlo-pohadka-praha-letnany.html","368"
"7","Veterinář","Veterinární výjezdová služba - MVDr. Iveta Lubeníková","https://www.firmy.cz/detail/177908-veterinarni-vyjezdova-sluzba-mvdr-iveta-lubenikova-praha-strizkov.html","154"
"8","Bankomat","Bankomat České spořitelny","https://www.firmy.cz/detail/595022-bankomat-ceske-sporitelny-praha-strizkov.html","191"
"9","Pošta","Pošta Praha 9 - Česká pošta, s.p.","https://www.firmy.cz/detail/216700-posta-praha-9-praha-strizkov.html","183"
"10","Restaurace","Restaurant Plnej pekáč","https://www.firmy.cz/detail/13099518-restaurant-plnej-pekac-praha-strizkov.html","177"
"11","Škola","Gymnázium Praha 9, Českolipská","https://www.firmy.cz/detail/160520-gymnazium-praha-9-ceskolipska-praha-strizkov.html","182"
"12","Lékař","MUDr. Dana Boučková","https://www.firmy.cz/detail/12825575-mudr-dana-bouckova-praha-prosek.html","594"
"13","Tram","Třebenická","","1259"
"14","Školka","Mateřská škola Novoborská","https://www.firmy.cz/detail/12807686-materska-skola-novoborska-praha.html","255"
"15","Lékárna","BENU Lékárna","https://www.firmy.cz/detail/198088-benu-lekarna-praha-strizkov.html","283"
"16","Vlak","Praha-Vysočany","","1446"
"17","Metro","Střížkov","","525"
"18","Sportoviště","BOHEMIANS PRAHA","https://www.firmy.cz/detail/2652487-bohemians-praha-praha-letnany.html","406"
"19","Bus MHD","Novoborská","","133"
"20","Obchod","Tesco","https://www.firmy.cz/detail/218194-tesco-praha-letnany.html","1092"
