"","facility_type","facility_name","facility_iri","facility_distance"
"0","Cukrárna","Cukrárnička Husovice","https://www.firmy.cz/detail/13301272-cukrarnicka-husovice-brno-husovice.html","349"
"1","Kino","Letní kino Brno na Dvoře MdB","https://www.firmy.cz/detail/13308736-letni-kino-brno-na-dvore-mdb-brno-cerna-pole.html","2386"
"2","Přírodní zajímavost","Cesta rákosím","","2762"
"3","Hřiště","Dětské hřiště Míčkova","","297"
"4","Večerka","Potraviny Brněnka","https://www.firmy.cz/detail/13231692-potraviny-brnenka-brno-husovice.html","39"
"5","Hospoda","Hostinec U Franty","https://www.firmy.cz/detail/13137779-hostinec-u-franty-brno-husovice.html","49"
"6","Divadlo","Divadlo Kufr","https://www.firmy.cz/detail/585512-divadlo-kufr-brno-husovice.html","389"
"7","Veterinář","MVDr. Zdeněk Haluza","https://www.firmy.cz/detail/477110-mvdr-zdenek-haluza-brno-husovice.html","781"
"8","Restaurace","Rychta Růžový Panter","https://www.firmy.cz/detail/13234533-rychta-ruzovy-panter-brno-husovice.html","43"
"9","Lékař","MUDr. Zuzana Trávníčková","https://www.firmy.cz/detail/390702-mudr-zuzana-travnickova-brno-husovice.html","709"
"10","Lékárna","Magistra Lékárna Cistronica","https://www.firmy.cz/detail/12836033-magistra-lekarna-cistronica-brno-husovice.html","35"
"11","Vlak","Brno-Židenice","","961"
"12","Tram","Tomkovo náměstí","","86"
"13","Bankomat","Bankomat České spořitelny","https://www.firmy.cz/detail/13259162-bankomat-ceske-sporitelny-brno-husovice.html","211"
"14","Škola","Gymnázium Brno, Elgartova","https://www.firmy.cz/detail/360842-gymnazium-brno-elgartova-brno-husovice.html","216"
"15","Sportoviště","Tělocvičná jednota Sokol Brno - Husovice","https://www.firmy.cz/detail/403895-telocvicna-jednota-sokol-brno-husovice-brno-husovice.html","76"
"16","Školka","ZŠ J. A. Komenského a MŠ Brno","https://www.firmy.cz/detail/1447302-zs-j-a-komenskeho-a-ms-brno-brno-husovice.html","294"
"17","Pošta","Pošta Brno 14 - Česká pošta, s.p.","https://www.firmy.cz/detail/216033-posta-brno-14-brno-husovice.html","363"
"18","Obchod","Kaufland","https://www.firmy.cz/detail/1352864-kaufland-brno-zidenice.html","1101"
"19","Bus MHD","Tomkovo náměstí","","158"
