"","facility_type","facility_name","facility_iri","facility_distance"
"0","Cukrárna","NA ZMRZKU","https://www.firmy.cz/detail/13120938-na-zmrzku-hradec-kralove-novy-hradec-kralove.html","517"
"1","Kino","CineStar Hradec Králové","https://www.firmy.cz/detail/396569-cinestar-hradec-kralove-hradec-kralove-novy-hradec-kralove.html","483"
"2","Přírodní zajímavost","Slepé rameno Orlice u loděnice","","2234"
"3","Hřiště","Dětské hřiště Moravské Předměstí II","","181"
"4","Večerka","Albert Supermarket","https://www.firmy.cz/detail/446881-albert-supermarket-hradec-kralove-novy-hradec-kralove.html","97"
"5","Divadlo","Divadlo Drak","https://www.firmy.cz/detail/230884-divadlo-drak-hradec-kralove.html","1133"
"6","Hospoda","Hospoda třída Edvarda Beneše 1921/38","https://www.firmy.cz/detail/13143014-hospoda-trida-edvarda-benese-1921-38-hradec-kralove-novy-hradec-kralove.html","265"
"7","Veterinář","Veterinární ordinace KEVET","https://www.firmy.cz/detail/12826140-veterinarni-ordinace-kevet-hradec-kralove.html","469"
"8","Bus MHD","Masarykova","","141"
"9","Vlak","Hradec Králové zast.","","2762"
"10","Bankomat","Bankomat České spořitelny","https://www.firmy.cz/detail/592345-bankomat-ceske-sporitelny-hradec-kralove-novy-hradec-kralove.html","456"
"11","Sportoviště","Jana Koláčková","https://www.firmy.cz/detail/1730555-jana-kolackova-hradec-kralove-novy-hradec-kralove.html","185"
"12","Lékař","Ordinace Viva, s.r.o.","https://www.firmy.cz/detail/13285826-ordinace-viva-hradec-kralove-novy-hradec-kralove.html","111"
"13","Školka","ZŠ a MŠ Pohádka, Hradec Králové","https://www.firmy.cz/detail/357249-zs-a-ms-pohadka-hradec-kralove-hradec-kralove-novy-hradec-kralove.html","365"
"14","Lékárna","Lékárna u polikliniky III","https://www.firmy.cz/detail/314154-lekarna-u-polikliniky-iii-hradec-kralove-novy-hradec-kralove.html","275"
"15","Obchod","OC Futurum Hradec Králové","https://www.firmy.cz/detail/586763-oc-futurum-hradec-kralove-hradec-kralove-novy-hradec-kralove.html","575"
"16","Restaurace","MK Bars, s.r.o.","https://www.firmy.cz/detail/13027683-mk-bars-hradec-kralove-novy-hradec-kralove.html","150"
"17","Škola","ZŠ a MŠ Pohádka, Hradec Králové","https://www.firmy.cz/detail/364781-zs-a-ms-pohadka-hradec-kralove-hradec-kralove-novy-hradec-kralove.html","365"
"18","Pošta","Pošta Hradec Králové 12 - Česká pošta, s.p.","https://www.firmy.cz/detail/216320-posta-hradec-kralove-12-hradec-kralove-novy-hradec-kralove.html","486"
