"","facility_type","facility_name","facility_iri","facility_distance"
"0","Přírodní zajímavost","Uhelná sloj v Landeku","https://mapy.cz/zakladni?x=18.2692044444&y=49.8672338889&z=17&source=base&id=1981598","3580"
"1","Hřiště","Dětské hřiště Keltičkova","https://mapy.cz/zakladni?x=18.3023825228&y=49.8396735329&z=17&source=base&id=1929024","374"
"2","Cukrárna","Mléčný bar NAPROTI","https://www.firmy.cz/detail/2681012-mlecny-bar-naproti-ostrava-moravska-ostrava.html","578"
"3","Hospoda","Lenka Grézlová","https://www.firmy.cz/detail/13114354-lenka-grezlova-ostrava-slezska-ostrava.html","348"
"4","Večerka","HRUŠKA","https://www.firmy.cz/detail/12953535-hruska-ostrava-slezska-ostrava.html","348"
"5","Kino","Minikino","https://www.firmy.cz/detail/669940-minikino-ostrava-moravska-ostrava.html","595"
"6","Veterinář","VETPARK Ostrava, s.r.o.","https://www.firmy.cz/detail/13308555-vetpark-ostrava-ostrava-moravska-ostrava.html","1118"
"7","Divadlo","Komorní scéna Aréna","https://www.firmy.cz/detail/396926-komorni-scena-arena-ostrava-moravska-ostrava.html","371"
"8","Bus MHD","Všehrdův sad","https://mapy.cz/zakladni?x=18.298665009711&y=49.8416580284853&z=17&source=pubt&id=15202295","144"
"9","Restaurace","Restaurace Belvedér","https://www.firmy.cz/detail/12793327-restaurace-belveder-ostrava-slezska-ostrava.html","24"
"10","Sportoviště","Bowling Rubín","https://www.firmy.cz/detail/2457360-bowling-rubin-ostrava-slezska-ostrava.html","348"
"11","Pošta","Pošta Ostrava 10 - Česká pošta, s.p.","https://www.firmy.cz/detail/433408-posta-ostrava-10-ostrava-slezska-ostrava.html","71"
"12","Školka","Mateřská škola Bohumínská","https://www.firmy.cz/detail/13085954-materska-skola-bohuminska-ostrava-slezska-ostrava.html","475"
"13","Lékař","Centrum letecké medicíny, s.r.o.","https://www.firmy.cz/detail/12913171-centrum-letecke-mediciny-ostrava-moravska-ostrava.html","469"
"14","Tram","Stodolní","https://mapy.cz/zakladni?x=18.28589566603773&y=49.83680668343606&z=17&source=pubt&id=15202714","929"
"15","Lékárna","Lékárna AGEL","https://www.firmy.cz/detail/12887510-lekarna-agel-ostrava-moravska-ostrava.html","469"
"16","Škola","Střední průmyslová škola elektrotechniky a informatiky, Ostrava","https://www.firmy.cz/detail/360968-stredni-prumyslova-skola-elektrotechniky-a-informatiky-ostrava-ostrava-moravska-ostrava.html","307"
"17","Obchod","Obchodní centrum LASO","https://www.firmy.cz/detail/2071391-obchodni-centrum-laso-ostrava-moravska-ostrava.html","555"
"18","Bankomat","Bankomat České spořitelny","https://www.firmy.cz/detail/593836-bankomat-ceske-sporitelny-ostrava-moravska-ostrava.html","522"
"19","Vlak","Ostrava-Stodolní","https://mapy.cz/zakladni?x=18.2809778624&y=49.8344412946&z=17&source=pubt&id=15213504","1365"
