"","facility_type","facility_name","facility_iri","facility_distance"
"0","Cukrárna","Elizebet Art of Goodies s.r.o.","https://www.firmy.cz/detail/13092050-elizebet-art-of-goodies-s-r-o-frydek-mistek-frydek.html","1159"
"1","Kino","5D cinema Maxim","https://www.firmy.cz/detail/12950607-5d-cinema-maxim-frydek-mistek-frydek.html","1538"
"2","Přírodní zajímavost","Bludné balvany ve Frýdeckém lese","","1128"
"3","Hřiště","Dětské hřiště Třanovského","","401"
"4","Večerka","Inva potraviny 64","https://www.firmy.cz/detail/12901773-inva-potraviny-64-frydek-mistek-frydek.html","427"
"5","Hospoda","Pivnice Kostka","https://www.firmy.cz/detail/13118444-pivnice-kostka-frydek-mistek-frydek.html","631"
"6","Divadlo","Divadlo Čtyřlístek","https://www.firmy.cz/detail/661532-divadlo-ctyrlistek-frydek-mistek-frydek.html","1096"
"7","Veterinář","AlfaVet","https://www.firmy.cz/detail/13188059-alfavet-frydek-mistek-frydek.html","81"
"8","Školka","MŠ Pohádka Frýdek-Místek, Třanovského","https://www.firmy.cz/detail/2333590-ms-pohadka-frydek-mistek-tranovskeho-frydek-mistek-frydek.html","345"
"9","Bankomat","Platbomat České spořitelny","https://www.firmy.cz/detail/13259091-platbomat-ceske-sporitelny-frydek-mistek-frydek.html","900"
"10","Bus MHD","Frýdek-Místek, Frýdek, Na Vyhlídce","","291"
"11","Lékárna","Lékárna nemocnice","https://www.firmy.cz/detail/421520-lekarna-nemocnice-frydek-mistek-frydek.html","455"
"12","Restaurace","Plackárna U Lichny","https://www.firmy.cz/detail/2201228-plackarna-u-lichny-frydek-mistek-frydek.html","41"
"13","Sportoviště","LR AUTO, s.r.o.","https://www.firmy.cz/detail/13083512-lr-auto-frydek-mistek-frydek.html","1204"
"14","Obchod","Kaufland","https://www.firmy.cz/detail/738648-kaufland-frydek-mistek-frydek.html","1063"
"15","Vlak","Frýdek-Místek","","1587"
"16","Škola","GOODWILL - vyšší odborná škola","https://www.firmy.cz/detail/361634-goodwill-vyssi-odborna-skola-frydek-mistek-frydek.html","529"
"17","Pošta","Pošta Frýdek-Místek 1 - Česká pošta, s.p.","https://www.firmy.cz/detail/215628-posta-frydek-mistek-1-frydek-mistek-frydek.html","1110"
"18","Lékař","MUDr. Jaroslava Horská","https://www.firmy.cz/detail/390520-mudr-jaroslava-horska-frydek-mistek-frydek.html","471"
