"","facility_type","facility_name","facility_iri","facility_distance"
"0","Cukrárna","Cukrárna Magnolie","https://www.firmy.cz/detail/1963341-cukrarna-magnolie-orlova-lutyne.html","457"
"1","Kino","Kino O","https://www.firmy.cz/detail/12958491-kino-o-orlova-lutyne.html","556"
"2","Hřiště","Rákosníčkovo dětské hřiště","","180"
"3","Večerka","HRUŠKA","https://www.firmy.cz/detail/12863517-hruska-orlova-lutyne.html","268"
"4","Hospoda","Pivnice Centrum","https://www.firmy.cz/detail/12840796-pivnice-centrum-orlova-lutyne.html","300"
"5","Veterinář","Veterinární klinika ANIVET - MVDr. Zbyněk Horák","https://www.firmy.cz/detail/2631495-veterinarni-klinika-anivet-mvdr-zbynek-horak-orlova-lutyne.html","45"
"6","Škola","Základní škola Mládí, Orlová","https://www.firmy.cz/detail/358635-zakladni-skola-mladi-orlova-orlova-lutyne.html","155"
"7","Bus MHD","Orlová, Lutyně, věžáky","","256"
"8","Lékař","MUDr. Martin Kartárik","https://www.firmy.cz/detail/388191-mudr-martin-kartarik-orlova-lutyne.html","75"
"9","Obchod","PRIOR ČESKÁ REPUBLIKA s.r.o.","https://www.firmy.cz/detail/1957099-prior-ceska-republika-s-r-o-orlova-lutyne.html","471"
"10","Restaurace","Restaurace Siem","https://www.firmy.cz/detail/12959041-restaurace-siem-orlova-lutyne.html","229"
"11","Lékárna","Lékárna Salvátor","https://www.firmy.cz/detail/13266185-lekarna-salvator-orlova-lutyne.html","134"
"12","Školka","Mateřská škola Orlová - Lutyně Ke Studánce 1033 okres Karviná","https://www.firmy.cz/detail/13232631-materska-skola-orlova-lutyne-ke-studance-1033-okres-karvina-orlova-lutyne.html","424"
"13","Vlak","Dětmarovice","","4772"
"14","Bankomat","Bankomat Komerční banky","https://www.firmy.cz/detail/594117-bankomat-komercni-banky-orlova-lutyne.html","173"
"15","Pošta","Pošta Orlová 4 - Česká pošta, s.p.","https://www.firmy.cz/detail/431478-posta-orlova-4-orlova-lutyne.html","586"
"16","Sportoviště","Tenisový klub Slavia Orlová, z.s.","https://www.firmy.cz/detail/166418-tenisovy-klub-slavia-orlova-z-s-orlova-lutyne.html","348"
