"","facility_type","facility_name","facility_iri","facility_distance"
"0","Cukrárna","Donut Worry Be Happy","https://www.firmy.cz/detail/13310481-donut-worry-be-happy-zlin.html","351"
"1","Hřiště","Dětské hřiště Kotěrova","","521"
"2","Kino","5D cinema Maxim","https://www.firmy.cz/detail/12871624-5d-cinema-maxim-zlin.html","883"
"3","Večerka","Potraviny ENAPO","https://www.firmy.cz/detail/13268541-potraviny-enapo-zlin.html","187"
"4","Hospoda","Hostinec Pod Lipou","https://www.firmy.cz/detail/12919511-hostinec-pod-lipou-zlin.html","577"
"5","Divadlo","Divadlo OPONA","https://www.firmy.cz/detail/2326192-divadlo-opona-zlin.html","669"
"6","Veterinář","MVDr. Hana Jurášková","https://www.firmy.cz/detail/12830203-mvdr-hana-juraskova-zlin.html","1113"
"7","Pošta","Pošta Zlín 1 - Česká pošta, s.p.","https://www.firmy.cz/detail/432899-posta-zlin-1-zlin.html","0"
"8","Školka","Dětský domov, MŠ, ZŠ a Praktická škola Zlín","https://www.firmy.cz/detail/12932442-detsky-domov-ms-zs-a-prakticka-skola-zlin-zlin.html","720"
"9","Lékař","MUDr. Petra Blaháková","https://www.firmy.cz/detail/390196-mudr-petra-blahakova-zlin.html","64"
"10","Restaurace","Restaurace Vita Sana","https://www.firmy.cz/detail/13153744-restaurace-vita-sana-zlin.html","0"
"11","Bus MHD","J.A.Bati","","103"
"12","Sportoviště","FUN PARK FABRIKA","https://www.firmy.cz/detail/13272900-fun-park-fabrika-zlin.html","154"
"13","Škola","Základní umělecká škola Morava, spol. s r.o.","https://www.firmy.cz/detail/13175210-zakladni-umelecka-skola-morava-zlin.html","324"
"14","Obchod","max32","https://www.firmy.cz/detail/13059914-max32-zlin.html","0"
"15","Bankomat","Bankomat ČSOB","https://www.firmy.cz/detail/12965649-bankomat-csob-zlin.html","0"
"16","Lékárna","Dr. Max","https://www.firmy.cz/detail/12804571-dr-max-zlin.html","53"
"17","Vlak","Zlín střed","","387"
