"","facility_type","facility_name","facility_iri","facility_distance"
"0","Hřiště","Dětské hřiště Prokopova","https://mapy.cz/zakladni?x=13.4127847222&y=50.4549725&z=17&source=base&id=2059182","79"
"1","Večerka","Potraviny Meisnerova","https://www.firmy.cz/detail/13327613-potraviny-meisnerova-chomutov.html","256"
"2","Hospoda","Pivnice Meisnerova","https://www.firmy.cz/detail/13327610-pivnice-meisnerova-chomutov.html","256"
"3","Veterinář","MVDr. Vladimíra Habětínová","https://www.firmy.cz/detail/12824787-mvdr-vladimira-habetinova-chomutov.html","393"
"4","Cukrárna","Café Atrium","https://www.firmy.cz/detail/12933786-cafe-atrium-chomutov.html","670"
"5","Kino","Letní kino Chomutov","https://www.firmy.cz/detail/2644649-letni-kino-chomutov-chomutov.html","1806"
"6","Divadlo","Městské divadlo Chomutov","https://www.firmy.cz/detail/2644644-mestske-divadlo-chomutov-chomutov.html","1056"
"7","Lékárna","Lékárna Nemocnice Chomutov, o.z","https://www.firmy.cz/detail/12771494-lekarna-nemocnice-chomutov-o-z-chomutov.html","180"
"8","Bus MHD","Chomutov, U hřbitova","https://mapy.cz/zakladni?x=13.4141342954&y=50.453802004&z=17&source=pubt&id=15216602","85"
"9","Restaurace","Restaurace Beethoven","https://www.firmy.cz/detail/12973999-restaurace-beethoven-chomutov.html","433"
"10","Pošta","Pošta Chomutov 2 - Česká pošta, s.p.","https://www.firmy.cz/detail/658734-posta-chomutov-2-chomutov.html","847"
"11","Škola","ZUŠ T.G. Masaryka Chomutov","https://www.firmy.cz/detail/429910-zus-t-g-masaryka-chomutov-chomutov.html","236"
"12","Sportoviště","Tělovýchovná jednota Baník Březenecká Chomutov","https://www.firmy.cz/detail/2288584-telovychovna-jednota-banik-brezenecka-chomutov-chomutov.html","636"
"13","Obchod","Galerie pošta","https://www.firmy.cz/detail/13062048-galerie-posta-chomutov.html","705"
"14","Školka","MŠ Chomutov, Prokopova","https://www.firmy.cz/detail/1345637-ms-chomutov-prokopova-chomutov.html","144"
"15","Lékař","MUDr. Němec Libor, MediClinic a.s.","https://www.firmy.cz/detail/2597820-mudr-nemec-libor-mediclinic-a-s-chomutov.html","180"
"16","Vlak","Chomutov","https://mapy.cz/zakladni?x=13.3989133579&y=50.4565643171&z=17&source=pubt&id=15211553","1064"
"17","Bankomat","Bankomat České spořitelny","https://www.firmy.cz/detail/591859-bankomat-ceske-sporitelny-chomutov.html","181"
