"","facility_type","facility_name","facility_iri","facility_distance"
"0","Cukrárna","Cukrárna Květa","https://www.firmy.cz/detail/2033539-cukrarna-kveta-zatec.html","78"
"1","Kino","Kino Žatec","https://www.firmy.cz/detail/12846605-kino-zatec-zatec.html","163"
"2","Hřiště","Dětské hřiště Hájkova","","311"
"3","Večerka","DALMATINO","https://www.firmy.cz/detail/13316458-dalmatino-zatec.html","102"
"4","Hospoda","Pivnice Lucerna","https://www.firmy.cz/detail/2467771-pivnice-lucerna-zatec.html","445"
"5","Divadlo","Jitřenka - loutkové divadlo","https://www.firmy.cz/detail/13096125-jitrenka-loutkove-divadlo-zatec.html","120"
"6","Veterinář","MVDr. Břetislav Frýba","https://www.firmy.cz/detail/203866-mvdr-bretislav-fryba-zatec.html","364"
"7","Školka","MŠ Žatec, Fügnerova","https://www.firmy.cz/detail/731375-ms-zatec-fugnerova-zatec.html","243"
"8","Bankomat","Bankomat Komerční banky","https://www.firmy.cz/detail/2423205-bankomat-komercni-banky-zatec.html","15"
"9","Škola","ZŠ a MŠ, Žatec, Dvořákova","https://www.firmy.cz/detail/360265-zs-a-ms-zatec-dvorakova-zatec.html","100"
"10","Lékárna","Lékárna Na náměstí","https://www.firmy.cz/detail/12822918-lekarna-na-namesti-zatec.html","135"
"11","Pošta","Pošta Žatec 1 - Česká pošta, s.p.","https://www.firmy.cz/detail/215299-posta-zatec-1-zatec.html","275"
"12","Restaurace","TURBO PIZZA","https://www.firmy.cz/detail/13326223-turbo-pizza-zatec.html","22"
"13","Lékař","TH AMBULANCE, s.r.o.","https://www.firmy.cz/detail/12768933-th-ambulance-zatec.html","135"
"14","Vlak","Žatec","","1247"
"15","Sportoviště","Stadion Mládí","https://www.firmy.cz/detail/12853188-stadion-mladi-zatec.html","500"
"16","Bus MHD","Žatec, Kovářská","","453"
"17","Obchod","Kaufland","https://www.firmy.cz/detail/1457849-kaufland-zatec.html","1253"
