"","facility_type","facility_name","facility_iri","facility_distance"
"0","Cukrárna","Černý kafe coffee | bar","https://www.firmy.cz/detail/13229229-cerny-kafe-coffee-bar-ceske-budejovice-7.html","480"
"1","Kino","Kino Kotva","https://www.firmy.cz/detail/2525705-kino-kotva-ceske-budejovice-7.html","427"
"2","Hřiště","Dětské hřiště","","236"
"3","Večerka","Můjobchod - Potraviny U Roháče","https://www.firmy.cz/detail/12997666-mujobchod-potraviny-u-rohace-ceske-budejovice-6.html","83"
"4","Hospoda","U Malého jezu","https://www.firmy.cz/detail/13112998-u-maleho-jezu-ceske-budejovice-7.html","713"
"5","Divadlo","Jihočeské divadlo","https://www.firmy.cz/detail/230815-jihoceske-divadlo-ceske-budejovice-1.html","828"
"6","Veterinář","MVDr. Kateřina Košťálová","https://www.firmy.cz/detail/12832984-mvdr-katerina-kostalova-ceske-budejovice-6.html","904"
"7","Lékárna","EUC Lékárna","https://www.firmy.cz/detail/13035889-euc-lekarna-ceske-budejovice-7.html","382"
"8","Obchod","Albert Hypermarket","https://www.firmy.cz/detail/1357577-albert-hypermarket-ceske-budejovice-6.html","812"
"9","Škola","VOŠ, SPŠ automobilní a technická České Budějovice","https://www.firmy.cz/detail/2672445-vos-sps-automobilni-a-technicka-ceske-budejovice-ceske-budejovice-7.html","421"
"10","Bankomat","Bankomat ČSOB","https://www.firmy.cz/detail/597902-bankomat-csob-ceske-budejovice-7.html","382"
"11","Pošta","Pošta České Budějovice 3 - Česká pošta, s.p.","https://www.firmy.cz/detail/215216-posta-ceske-budejovice-3-ceske-budejovice-7.html","476"
"12","Vlak","České Budějovice jižní zastávka","","904"
"13","Lékař","MUDr. Kellerová s.r.o.","https://www.firmy.cz/detail/12947006-mudr-kellerova-s-r-o-ceske-budejovice-6.html","188"
"14","Školka","MŠ České Budějovice, Zeyerova","https://www.firmy.cz/detail/464804-ms-ceske-budejovice-zeyerova-ceske-budejovice-6.html","275"
"15","Bus MHD","Čechova","","18"
"16","Sportoviště","Golf Klub Klasik","https://www.firmy.cz/detail/690780-golf-klub-klasik-ceske-budejovice-7.html","627"
"17","Restaurace","Pizza Opice","https://www.firmy.cz/detail/13297217-pizza-opice-ceske-budejovice-6.html","71"
