"","facility_type","facility_name","facility_iri","facility_distance"
"0","Cukrárna","Orange café","https://www.firmy.cz/detail/2116741-orange-cafe-stribro.html","764"
"1","Hřiště","Dětské hřiště","","134"
"2","Večerka","ReFresh Bistro - koncept školního bistra","https://www.firmy.cz/detail/13181864-refresh-bistro-koncept-skolniho-bistra-stribro.html","120"
"3","Hospoda","Pivnice TJ Baník Stříbro","https://www.firmy.cz/detail/13137601-pivnice-tj-banik-stribro-stribro.html","603"
"4","Veterinář","MVDr. JOSEF STEINER","https://www.firmy.cz/detail/470922-mvdr-josef-steiner-stribro.html","474"
"5","Sportoviště","Tělovýchovná jednota Baník Stříbro","https://www.firmy.cz/detail/2261390-telovychovna-jednota-banik-stribro-stribro.html","603"
"6","Bus MHD","Stříbro, Gymnázium","","60"
"7","Lékárna","BENU Lékárna","https://www.firmy.cz/detail/12933414-benu-lekarna-stribro.html","566"
"8","Restaurace","Restaurace U Vilíma","https://www.firmy.cz/detail/13177546-restaurace-u-vilima-stribro.html","619"
"9","Lékař","MUDr. Ivana Pavlíčková","https://www.firmy.cz/detail/12864764-mudr-ivana-pavlickova-stribro.html","565"
"10","Pošta","Pošta Stříbro - Česká pošta, s.p.","https://www.firmy.cz/detail/216516-posta-stribro-stribro.html","478"
"11","Bankomat","Bankomat ČSOB","https://www.firmy.cz/detail/13252120-bankomat-csob-stribro.html","640"
"12","Vlak","Stříbro","","1926"
"13","Školka","MŠ Stříbro, Soběslavova","https://www.firmy.cz/detail/1354663-ms-stribro-sobeslavova-stribro.html","69"
"14","Škola","Gymnázium, Stříbro, Soběslavova 1426","https://www.firmy.cz/detail/154104-gymnazium-stribro-sobeslavova-1426-stribro.html","120"
