"","facility_type","facility_name","facility_iri","facility_distance"
"0","Cukrárna","Cukrárna Linda","https://www.firmy.cz/detail/2352149-cukrarna-linda-moravska-trebova-mesto.html","482"
"1","Kino","Městské kino Moravská Třebová","https://www.firmy.cz/detail/457568-mestske-kino-moravska-trebova-moravska-trebova-predmesti.html","441"
"2","Hřiště","Dětské hřiště Jiráskova","","728"
"3","Večerka","BILLA","https://www.firmy.cz/detail/450539-billa-moravska-trebova-mesto.html","333"
"4","Hospoda","LFP Club","https://www.firmy.cz/detail/13112529-lfp-club-moravska-trebova-predmesti.html","239"
"5","Veterinář","MVDr. Ivo Švec","https://www.firmy.cz/detail/2025166-mvdr-ivo-svec-moravska-trebova-mesto.html","617"
"6","Bus MHD","Moravská Třebová, Lanškrounská","","374"
"7","Školka","II. MŠ Moravská Třebová, Tyršova","https://www.firmy.cz/detail/2577796-ii-ms-moravska-trebova-tyrsova-moravska-trebova-predmesti.html","199"
"8","Pošta","Pošta Moravská Třebová 1 - Česká pošta, s.p.","https://www.firmy.cz/detail/215867-posta-moravska-trebova-1-moravska-trebova-mesto.html","598"
"9","Vlak","Moravská Třebová","","700"
"10","Restaurace","RESTAURACE U KAVKY","https://www.firmy.cz/detail/13149488-restaurace-u-kavky-moravska-trebova-predmesti.html","181"
"11","Lékař","MUDr. Alexander Marossy","https://www.firmy.cz/detail/12845325-mudr-alexander-marossy-moravska-trebova-predmesti.html","650"
"12","Škola","Integrovaná střední škola Moravská Třebová","https://www.firmy.cz/detail/12811485-integrovana-stredni-skola-moravska-trebova-moravska-trebova.html","238"
"13","Sportoviště","Sportovní stadion","https://www.firmy.cz/detail/13068921-sportovni-stadion-moravska-trebova.html","697"
"14","Bankomat","Bankomat Komerční banky","https://www.firmy.cz/detail/594571-bankomat-komercni-banky-moravska-trebova-mesto.html","487"
"15","Lékárna","Dr.Max LÉKÁRNA","https://www.firmy.cz/detail/13257576-dr-max-lekarna-moravska-trebova-mesto.html","581"
