"","facility_type","facility_name","facility_iri","facility_distance"
"0","Hřiště","Dětské hřiště Odbojářská","https://mapy.cz/zakladni?x=16.5223407132&y=49.2219242965&z=17&source=base&id=1927926","166"
"1","Přírodní zajímavost","Koniklecová louka","https://mapy.cz/zakladni?x=16.5518474579&y=49.1834285644&z=17&source=base&id=1921318","4634"
"2","Večerka","BILLA","https://www.firmy.cz/detail/437773-billa-brno-bystrc.html","298"
"3","Cukrárna","Cukrárna Toffi","https://www.firmy.cz/detail/13311098-cukrarna-toffi-brno-bystrc.html","886"
"4","Hospoda","Domeček","https://www.firmy.cz/detail/13124946-domecek-brno-bystrc.html","140"
"5","Veterinář","Veterina Bystrc, s.r.o.","https://www.firmy.cz/detail/1424221-veterina-bystrc-brno-bystrc.html","334"
"6","Divadlo","Divadlo Strom","https://www.firmy.cz/detail/12762146-divadlo-strom-brno-zabovresky.html","4513"
"7","Kino","Brno Autokino","https://www.firmy.cz/detail/13328637-brno-autokino-brno-pisarky.html","5036"
"8","Sportoviště","Sport Centrum Sportmax","https://www.firmy.cz/detail/271521-sport-centrum-sportmax-brno-bystrc.html","433"
"9","Lékař","MUDr. Kamila Pohanková","https://www.firmy.cz/detail/12948396-mudr-kamila-pohankova-brno-bystrc.html","334"
"10","Bankomat","Bankomat UniCredit Bank Czech Republic","https://www.firmy.cz/detail/12862431-bankomat-unicredit-bank-czech-republic-brno-bystrc.html","243"
"11","Bus MHD","Wollmanova","https://mapy.cz/zakladni?x=16.522837899&y=49.2220814638&z=17&source=pubt&id=15217271","185"
"12","Pošta","Pošta Brno 35 - Česká pošta, s.p.","https://www.firmy.cz/detail/794875-posta-brno-35-brno-bystrc.html","383"
"13","Obchod","OC MAX s.r.o.","https://www.firmy.cz/detail/13171099-oc-max-s-r-o-brno-bystrc.html","334"
"14","Tram","Kubíčkova","https://mapy.cz/zakladni?x=16.5203362057&y=49.2207808071&z=17&source=pubt&id=15205738","162"
"15","Lékárna","Lékárna AKÁT","https://www.firmy.cz/detail/375073-lekarna-akat-brno-bystrc.html","293"
"16","Restaurace","Restaurace Akát","https://www.firmy.cz/detail/467965-restaurace-akat-brno-bystrc.html","381"
"17","Školka","Mateřská škola Laštůvkova 57/59","https://www.firmy.cz/detail/575867-materska-skola-lastuvkova-57-59-brno-bystrc.html","95"
"18","Škola","ZŠ Brno, Laštůvkova","https://www.firmy.cz/detail/356519-zs-brno-lastuvkova-brno-bystrc.html","307"
