"","facility_type","facility_name","facility_iri","facility_distance"
"0","Cukrárna","Costa Coffee","https://www.firmy.cz/detail/2413656-costa-coffee-praha-nove-mesto.html","67"
"1","Kino","Cinema City Slovanský dům","https://www.firmy.cz/detail/2679893-cinema-city-slovansky-dum-praha-nove-mesto.html","391"
"2","Hřiště","Dětské hřiště sportovní areál Masná","","408"
"3","Večerka","Albert Supermarket","https://www.firmy.cz/detail/1999124-albert-supermarket-praha-nove-mesto.html","101"
"4","Hospoda","Batalion Café & Music Bar","https://www.firmy.cz/detail/457689-batalion-cafe-music-bar-praha-stare-mesto.html","888"
"5","Divadlo","Divadlo Archa","https://www.firmy.cz/detail/652357-divadlo-archa-praha-nove-mesto.html","229"
"6","Veterinář","MVDr. Katka Sviták Novozámská","https://www.firmy.cz/detail/2137713-mvdr-katka-svitak-novozamska-praha-stare-mesto.html","1125"
"7","Metro","Náměstí Republiky","","108"
"8","Restaurace","La Republica","https://www.firmy.cz/detail/12701037-la-republica-praha-nove-mesto.html","29"
"9","Sportoviště","Bowling Celnice","https://www.firmy.cz/detail/12726378-bowling-celnice-praha-nove-mesto.html","118"
"10","Lékař","Canadian Medical - Palác YMCA","https://www.firmy.cz/detail/607590-canadian-medical-palac-ymca-praha-nove-mesto.html","29"
"11","Bankomat","Bankomat UniCredit Bank Czech Republic","https://www.firmy.cz/detail/2399434-bankomat-unicredit-bank-czech-republic-praha-nove-mesto.html","48"
"12","Lékárna","LÉKÁRNA ipc Palladium","https://www.firmy.cz/detail/2345303-lekarna-ipc-palladium-praha-nove-mesto.html","104"
"13","Pošta","Pošta Praha 05 - Česká pošta, s.p.","https://www.firmy.cz/detail/431198-posta-praha-05-praha-stare-mesto.html","333"
"14","Tram","Náměstí Republiky","","63"
"15","Bus MHD","Truhlářská","","167"
"16","Vlak","Praha Masarykovo nádraží","","268"
"17","Obchod","PALLADIUM Praha","https://www.firmy.cz/detail/2238095-palladium-praha-praha-nove-mesto.html","123"
"18","Škola","K-TV - středisko praktického vyučování, s.r.o.","https://www.firmy.cz/detail/424947-k-tv-stredisko-praktickeho-vyucovani-praha-nove-mesto.html","29"
"19","Školka","MŠ STARS, Praha","https://www.firmy.cz/detail/2348796-ms-stars-praha-praha-nove-mesto.html","232"
