"","facility_type","facility_name","facility_iri","facility_distance"
"0","Cukrárna","Cukrárna Pod Marjánkou","https://www.firmy.cz/detail/12887308-cukrarna-pod-marjankou-praha-brevnov.html","1750"
"1","Kino","CineStar Anděl","https://www.firmy.cz/detail/2537565-cinestar-andel-praha-smichov.html","2167"
"2","Přírodní zajímavost","Kovářovic mez","","2936"
"3","Hřiště","Dětské hřiště Nad Turbovou","","287"
"4","Večerka","Smíšené zboží Plzeňská	187","https://www.firmy.cz/detail/12811643-smisene-zbozi-plzenska-187-praha.html","54"
"5","Hospoda","Restaurace Na zámyšli","https://www.firmy.cz/detail/12888232-restaurace-na-zamysli-praha-kosire.html","210"
"6","Divadlo","Divadlo Orfeus","https://www.firmy.cz/detail/413053-divadlo-orfeus-praha-kosire.html","1300"
"7","Veterinář","Veterinární klinika - MVDr. Pavel Santar, MVDr. Miloš Sedlář","https://www.firmy.cz/detail/596786-veterinarni-klinika-mvdr-pavel-santar-mvdr-milos-sedlar-praha-kosire.html","780"
"8","Bus MHD","Kavalírka","","55"
"9","Sportoviště","PAINTBALLGAME.CZ","https://www.firmy.cz/detail/13091680-paintballgame-cz-praha-smichov.html","513"
"10","Bankomat","Bankomat Komerční banky","https://www.firmy.cz/detail/1348764-bankomat-komercni-banky-praha-kosire.html","28"
"11","Lékař","MUDr. Drahomíra Miškovská","https://www.firmy.cz/detail/390311-mudr-drahomira-miskovska-praha-smichov.html","113"
"12","Restaurace","Yang Zi Jiang","https://www.firmy.cz/detail/466234-yang-zi-jiang-praha-kosire.html","89"
"13","Vlak","Praha-Cibulka","","850"
"14","Škola","Gymnázium Praha 5, Nad Kavalírkou","https://www.firmy.cz/detail/362395-gymnazium-praha-5-nad-kavalirkou-praha-kosire.html","219"
"15","Tram","Kavalírka","","62"
"16","Školka","Studio Lentilka – soukromá školka","https://www.firmy.cz/detail/12801104-studio-lentilka-soukroma-skolka-praha-smichov.html","221"
"17","Lékárna","Lékárna Melissa","https://www.firmy.cz/detail/272051-lekarna-melissa-praha-kosire.html","108"
"18","Pošta","Pošta Praha 56 - Česká pošta, s.p.","https://www.firmy.cz/detail/452790-posta-praha-56-praha-kosire.html","316"
"19","Obchod","Tesco","https://www.firmy.cz/detail/733908-tesco-praha-smichov.html","2222"
"20","Metro","Jinonice","","1672"
