"","facility_type","facility_name","facility_iri","facility_distance"
"0","Cukrárna","Cukrárna U Kačenky - Kateřina Tesaříková","https://www.firmy.cz/detail/13028194-cukrarna-u-kacenky-usti-nad-orlici.html","112"
"1","Kino","Kino Máj","https://www.firmy.cz/detail/452977-kino-maj-usti-nad-orlici.html","536"
"2","Hřiště","Dětské hřiště Smetanova","","331"
"3","Večerka","Konzum Market","https://www.firmy.cz/detail/2133406-konzum-market-usti-nad-orlici.html","220"
"4","Hospoda","Star Arena Letohradská 121","https://www.firmy.cz/detail/13114992-star-arena-letohradska-121-usti-nad-orlici.html","881"
"5","Veterinář","Veterinární klinika","https://www.firmy.cz/detail/13092263-veterinarni-klinika-usti-nad-orlici.html","358"
"6","Divadlo","Roškotovo divadlo","https://www.firmy.cz/detail/662001-roskotovo-divadlo-usti-nad-orlici.html","536"
"7","Lékař","MUDr. Edita Fialová","https://www.firmy.cz/detail/285077-mudr-edita-fialova-usti-nad-orlici.html","407"
"8","Lékárna","Modrá lékárna Na příkopech","https://www.firmy.cz/detail/13292381-modra-lekarna-na-prikopech-usti-nad-orlici.html","227"
"9","Restaurace","Restaurace U Babyky","https://www.firmy.cz/detail/13153928-restaurace-u-babyky-usti-nad-orlici.html","61"
"10","Vlak","Ústí nad Orlicí město","","243"
"11","Obchod","Tesco","https://www.firmy.cz/detail/2195400-tesco-usti-nad-orlici.html","1100"
"12","Pošta","Pošta Ústí nad Orlicí 1 - Česká pošta, s.p.","https://www.firmy.cz/detail/215717-posta-usti-nad-orlici-1-usti-nad-orlici.html","173"
"13","Sportoviště","FFT Bikes, z.s.","https://www.firmy.cz/detail/2315656-fft-bikes-z-s-usti-nad-orlici.html","285"
"14","Bus MHD","Ústí nad Orlicí, žel. zast. město","","145"
"15","Bankomat","Bankomat Komerční banky","https://www.firmy.cz/detail/2685885-bankomat-komercni-banky-usti-nad-orlici.html","202"
"16","Školka","MŠ Klubíčko Ústí nad Orlicí","https://www.firmy.cz/detail/2152611-ms-klubicko-usti-nad-orlici-usti-nad-orlici.html","471"
"17","Škola","Gymnázium Ústí nad Orlicí","https://www.firmy.cz/detail/360768-gymnazium-usti-nad-orlici-usti-nad-orlici.html","224"
