"","facility_type","facility_name","facility_iri","facility_distance"
"0","Přírodní zajímavost","Slatiňanská Třešňovka","https://mapy.cz/zakladni?x=15.8065991667&y=49.9124188889&z=17&source=base&id=1982294","4955"
"1","Hřiště","Dětské hřiště Strojařů","https://mapy.cz/zakladni?x=15.7751097222&y=49.9553422222&z=17&source=base&id=2112720","483"
"2","Večerka","COOP HB","https://www.firmy.cz/detail/13001147-coop-hb-chrudim-iv.html","1179"
"3","Cukrárna","Čarostrom - pohádková kavárna","https://www.firmy.cz/detail/13286256-carostrom-pohadkova-kavarna-chrudim-iv.html","656"
"4","Hospoda","Pavla Berto","https://www.firmy.cz/detail/13136295-pavla-berto-chrudim-iv.html","656"
"5","Divadlo","Divadlo Karla Pippicha","https://www.firmy.cz/detail/12868559-divadlo-karla-pippicha-chrudim-iv.html","1390"
"6","Veterinář","Veterinární ordinace Blackvet","https://www.firmy.cz/detail/2136140-veterinarni-ordinace-blackvet-chrudim-iv.html","763"
"7","Kino","Leťák Chrudim","https://www.firmy.cz/detail/13071118-letak-chrudim-chrudim-iv.html","1456"
"8","Vlak","Chrudim","https://mapy.cz/zakladni?x=15.7867104606&y=49.9482774777&z=17&source=pubt&id=15211585","1054"
"9","Školka","MŠ Chrudim, Strojařů","https://www.firmy.cz/detail/1880745-ms-chrudim-strojaru-chrudim-iv.html","400"
"10","Škola","Dětský domov se školou, středisko výchovné péče a ZŠ Chrudim, Čáslavská","https://www.firmy.cz/detail/1895870-detsky-domov-se-skolou-stredisko-vychovne-pece-a-zs-chrudim-caslavska-chrudim-iv.html","85"
"11","Restaurace","Restaurace VEST stravování","https://www.firmy.cz/detail/13153347-restaurace-vest-stravovani-chrudim-iv.html","793"
"12","Obchod","OC Port","https://www.firmy.cz/detail/13288835-oc-port-chrudim-iv.html","935"
"13","Bus MHD","Chrudim, Čáslavská","https://mapy.cz/zakladni?x=15.775740939250937&y=49.951548880800004&z=17&source=pubt&id=15231375","217"
"14","Lékař","MUDr. Petr Choleva","https://www.firmy.cz/detail/389252-mudr-petr-choleva-chrudim-iv.html","793"
"15","Pošta","Pošta Chrudim 1 - Česká pošta, s.p.","https://www.firmy.cz/detail/215838-posta-chrudim-1-chrudim-i.html","1526"
"16","Lékárna","Dr.Max LÉKÁRNA","https://www.firmy.cz/detail/2270234-dr-max-lekarna-chrudim-iv.html","1134"
"17","Sportoviště","Dopravní hřiště města Chrudim","https://www.firmy.cz/detail/2640905-dopravni-hriste-mesta-chrudim-chrudim.html","1300"
"18","Bankomat","Bankomat ČSOB","https://www.firmy.cz/detail/599205-bankomat-csob-chrudim-iv.html","1035"
