"","facility_type","facility_name","facility_iri","facility_distance"
"0","Cukrárna","Eiscafe Delikana","https://www.firmy.cz/detail/13123166-eiscafe-delikana-prerov-i-mesto.html","397"
"1","Kino","Kino Hvězda","https://www.firmy.cz/detail/13025002-kino-hvezda-prerov-i-mesto.html","476"
"2","Přírodní zajímavost","Ptačí rezervace Malá Lipová","","4744"
"3","Hřiště","Dětské hřiště Jasínkova","","213"
"4","Večerka","Penny Market","https://www.firmy.cz/detail/2413823-penny-market-prerov-i-mesto.html","215"
"5","Divadlo","Loutkové divadlo Sokol Přerov","https://www.firmy.cz/detail/13157581-loutkove-divadlo-sokol-prerov-prerov-i-mesto.html","1297"
"6","Hospoda","Hostinec Moravská Orlice","https://www.firmy.cz/detail/13154405-hostinec-moravska-orlice-prerov-i-mesto.html","157"
"7","Veterinář","Veterinární ordinaci Engelovi s.r.o.","https://www.firmy.cz/detail/12708723-veterinarni-ordinaci-engelovi-s-r-o-prerov-i-mesto.html","380"
"8","Bankomat","Bankomat Air Bank","https://www.firmy.cz/detail/13032258-bankomat-air-bank-prerov-i-mesto.html","352"
"9","Restaurace","Bistrov","https://www.firmy.cz/detail/13340684-bistrov-prerov-i-mesto.html","166"
"10","Sportoviště","Bowling U Madony","https://www.firmy.cz/detail/13183698-bowling-u-madony-prerov-i-mesto.html","319"
"11","Škola","Gymnázium Jana Blahoslava a Střední pedagogická škola, Přerov, Denisova 3","https://www.firmy.cz/detail/2145586-gymnazium-jana-blahoslava-a-stredni-pedagogicka-skola-prerov-denisova-3-prerov-i-mesto.html","292"
"12","Vlak","Přerov","","834"
"13","Pošta","Přerov - Pošta 1 - Česká pošta, s.p.","https://www.firmy.cz/detail/431447-prerov-posta-1-prerov-i-mesto.html","713"
"14","Školka","MŠ Přerov, Kouřílkova","https://www.firmy.cz/detail/2294417-ms-prerov-kourilkova-prerov-i-mesto.html","398"
"15","Lékař","Medikam Ambulance, s.r.o.","https://www.firmy.cz/detail/13173232-medikam-ambulance-prerov-i-mesto.html","317"
"16","Bus MHD","Přerov, hřbitov","","166"
"17","Obchod","Obchodní centrum GALERIE Přerov","https://www.firmy.cz/detail/13000608-obchodni-centrum-galerie-prerov-prerov-i-mesto.html","377"
"18","Lékárna","Lékárna U Zlatého hada PharmDr. Jolana Široká s.r.o. Přerov","https://www.firmy.cz/detail/12772713-lekarna-u-zlateho-hada-pharmdr-jolana-siroka-s-r-o-prerov-prerov-i-mesto.html","381"
