"","facility_type","facility_name","facility_iri","facility_distance"
"0","Cukrárna","Café Alegre","https://www.firmy.cz/detail/2384627-cafe-alegre-praha-smichov.html","1898"
"1","Kino","CineStar Anděl","https://www.firmy.cz/detail/2537565-cinestar-andel-praha-smichov.html","1849"
"2","Přírodní zajímavost","Kovářovic mez","","3045"
"3","Hřiště","Pískoviště","","334"
"4","Večerka","Potraviny Plzeňská 127","https://www.firmy.cz/detail/12812634-potraviny-plzenska-127-praha.html","309"
"5","Hospoda","Hostinec Drinopol","https://www.firmy.cz/detail/328447-hostinec-drinopol-praha-brevnov.html","1590"
"6","Divadlo","Divadlo Orfeus","https://www.firmy.cz/detail/413053-divadlo-orfeus-praha-kosire.html","987"
"7","Veterinář","Veterinární klinika - MVDr. Pavel Santar, MVDr. Miloš Sedlář","https://www.firmy.cz/detail/596786-veterinarni-klinika-mvdr-pavel-santar-mvdr-milos-sedlar-praha-kosire.html","758"
"8","Lékárna","Lékárna Melissa","https://www.firmy.cz/detail/272051-lekarna-melissa-praha-kosire.html","424"
"9","Bus MHD","Jinonická","","143"
"10","Sportoviště","Tělocvičná jednota Sokol Praha Košíře","https://www.firmy.cz/detail/1318802-telocvicna-jednota-sokol-praha-kosire-praha-smichov.html","252"
"11","Lékař","MUDr. Drahomíra Miškovská","https://www.firmy.cz/detail/390311-mudr-drahomira-miskovska-praha-smichov.html","315"
"12","Restaurace","Yang Zi Jiang","https://www.firmy.cz/detail/466234-yang-zi-jiang-praha-kosire.html","402"
"13","Školka","MŠ Praha 5, Podbělohorská","https://www.firmy.cz/detail/646807-ms-praha-5-podbelohorska-praha-smichov.html","330"
"14","Tram","Klamovka","","275"
"15","Pošta","Pošta Praha 56 - Česká pošta, s.p.","https://www.firmy.cz/detail/452790-posta-praha-56-praha-kosire.html","45"
"16","Obchod","Tesco","https://www.firmy.cz/detail/733908-tesco-praha-smichov.html","1905"
"17","Bankomat","Bankomat Komerční banky","https://www.firmy.cz/detail/1348764-bankomat-komercni-banky-praha-kosire.html","305"
"18","Vlak","Praha-Cibulka","","1119"
"19","Škola","ZUŠ Popelka","https://www.firmy.cz/detail/12812888-zus-popelka-praha-smichov.html","211"
"20","Metro","Radlická","","1610"
