"","facility_type","facility_name","facility_iri","facility_distance"
"0","Cukrárna","Kinokavárna Centrum","https://www.firmy.cz/detail/12841867-kinokavarna-centrum-havirov-mesto.html","257"
"1","Kino","Kino Centrum","https://www.firmy.cz/detail/12780436-kino-centrum-havirov-mesto.html","257"
"2","Hřiště","Dětské hřiště Hakenova","","223"
"3","Večerka","Koloniál v Bílém domě","https://www.firmy.cz/detail/13265108-kolonial-v-bilem-dome-havirov-mesto.html","379"
"4","Hospoda","Klubovna Plechárna","https://www.firmy.cz/detail/13258112-klubovna-plecharna-havirov-mesto.html","329"
"5","Veterinář","Veterina Na Nábřeží","https://www.firmy.cz/detail/1947067-veterina-na-nabrezi-havirov-mesto.html","329"
"6","Bankomat","Bankomat ČSOB","https://www.firmy.cz/detail/599376-bankomat-csob-havirov-mesto.html","369"
"7","Pošta","Pošta Havířov 1 - Česká pošta, s.p.","https://www.firmy.cz/detail/431627-posta-havirov-1-havirov-mesto.html","422"
"8","Lékař","MUDr. Lucie Šebestová s.r.o.","https://www.firmy.cz/detail/12862656-mudr-lucie-sebestova-s-r-o-havirov-mesto.html","90"
"9","Obchod","Obchodní centrum Elan","https://www.firmy.cz/detail/2181587-obchodni-centrum-elan-havirov-mesto.html","482"
"10","Sportoviště","Lezecká stěna Havířov","https://www.firmy.cz/detail/13178466-lezecka-stena-havirov-havirov-mesto.html","330"
"11","Bus MHD","Havířov, Město, Lípová","","151"
"12","Školka","MŠ Havířov-Město, Radniční","https://www.firmy.cz/detail/2071205-ms-havirov-mesto-radnicni-havirov-mesto.html","152"
"13","Restaurace","Pizza Centrum","https://www.firmy.cz/detail/13310707-pizza-centrum-havirov-mesto.html","257"
"14","Lékárna","Lékárna Na Národní","https://www.firmy.cz/detail/659545-lekarna-na-narodni-havirov-mesto.html","178"
"15","Vlak","Havířov-střed","","1405"
"16","Škola","Střední průmyslová škola elektrotechnická, Havířov","https://www.firmy.cz/detail/362589-stredni-prumyslova-skola-elektrotechnicka-havirov-havirov-mesto.html","546"
