"","facility_type","facility_name","facility_iri","facility_distance"
"0","Cukrárna","Sweet Secret of raw","https://www.firmy.cz/detail/13048909-sweet-secret-of-raw-ostrava-moravska-ostrava.html","70"
"1","Kino","5D cinema Maxim","https://www.firmy.cz/detail/12871625-5d-cinema-maxim-ostrava-moravska-ostrava.html","181"
"2","Přírodní zajímavost","Uhelná sloj v Landeku","","4258"
"3","Hřiště","Dětské hřiště","","142"
"4","Večerka","NÁKUPNÍ CENTRUM GLOBAL","https://www.firmy.cz/detail/264258-nakupni-centrum-global-ostrava-moravska-ostrava.html","308"
"5","Hospoda","U Zrzavé Mary","https://www.firmy.cz/detail/574097-u-zrzave-mary-ostrava-moravska-ostrava.html","412"
"6","Divadlo","Divadlo Antonína Dvořáka","https://www.firmy.cz/detail/397048-divadlo-antonina-dvoraka-ostrava-moravska-ostrava.html","330"
"7","Veterinář","Veterinární ordinace - MVDr. Richard Saviola","https://www.firmy.cz/detail/477150-veterinarni-ordinace-mvdr-richard-saviola-ostrava-moravska-ostrava.html","891"
"8","Škola","NEWPORT INTERNATIONAL UNIVERSITY, s.r.o.","https://www.firmy.cz/detail/586886-newport-international-university-ostrava-moravska-ostrava.html","613"
"9","Pošta","Pošta Ostrava 39 - Česká pošta, s.p.","https://www.firmy.cz/detail/433389-posta-ostrava-39-ostrava-moravska-ostrava.html","381"
"10","Lékárna","Lékárna Rezidence Nová Karolína","https://www.firmy.cz/detail/199468-lekarna-rezidence-nova-karolina-ostrava-moravska-ostrava.html","47"
"11","Restaurace","Frankie's Pub","https://www.firmy.cz/detail/13272925-frankie-s-pub-ostrava-moravska-ostrava.html","70"
"12","Sportoviště","Trojhalí Karolina","https://www.firmy.cz/detail/12973615-trojhali-karolina-ostrava-moravska-ostrava.html","256"
"13","Bus MHD","Hotel Palace","","135"
"14","Bankomat","Bankomat MONETA Money Bank","https://www.firmy.cz/detail/12728599-bankomat-moneta-money-bank-ostrava-moravska-ostrava.html","77"
"15","Vlak","Ostrava střed","","363"
"16","Školka","MŠ Ostrava, Poděbradova","https://www.firmy.cz/detail/2322511-ms-ostrava-podebradova-ostrava-moravska-ostrava.html","491"
"17","Lékař","MUDr. Jarmila Fialová","https://www.firmy.cz/detail/370609-mudr-jarmila-fialova-ostrava-moravska-ostrava.html","519"
"18","Obchod","Forum Nová Karolina","https://www.firmy.cz/detail/13040093-forum-nova-karolina-ostrava-moravska-ostrava.html","97"
"19","Tram","Karolina","","223"
