"","facility_type","facility_name","facility_iri","facility_distance"
"0","Hřiště","Dětské hřiště","","454"
"1","Večerka","Potraviny na Kovárně","https://www.firmy.cz/detail/13339107-potraviny-na-kovarne-chrustenice.html","466"
"2","Hospoda","Kiosek Nenacovice","https://www.firmy.cz/detail/13204434-kiosek-nenacovice-nenacovice.html","2248"
"3","Divadlo","Ochotnický spolek ŽUMPA","https://www.firmy.cz/detail/12954005-ochotnicky-spolek-zumpa-nucice.html","4814"
"4","Veterinář","Veterina VeMaP","https://www.firmy.cz/detail/13068721-veterina-vemap-chynava-male-prilepy.html","3467"
"5","Lékař","Praktický lékař - MUDr. Martin Ralbovský","https://www.firmy.cz/detail/13172954-prakticky-lekar-mudr-martin-ralbovsky-lodenice.html","521"
"6","Pošta","Pošta Loděnice u Berouna - Česká pošta, s.p.","https://www.firmy.cz/detail/216859-posta-lodenice-u-berouna-lodenice.html","856"
"7","Bankomat","Bankomat ČSOB","https://www.firmy.cz/detail/13252645-bankomat-csob-lodenice.html","521"
"8","Vlak","Loděnice","","1052"
"9","Bus MHD","Chrustenice, Na radosti","","239"
"10","Lékárna","OOVL Lékárny U Stříbrné hvězdy","https://www.firmy.cz/detail/374780-oovl-lekarny-u-stribrne-hvezdy-lodenice.html","773"
"11","Sportoviště","Tělovýchovná jednota jezdecká Loděnice, o.s.","https://www.firmy.cz/detail/2651227-telovychovna-jednota-jezdecka-lodenice-o-s-chrustenice.html","231"
"12","Restaurace","Restaurace Na Staré","https://www.firmy.cz/detail/13113577-restaurace-na-stare-lodenice.html","793"
"13","Škola","ZŠ Loděnice","https://www.firmy.cz/detail/358089-zs-lodenice-lodenice.html","980"
"14","Školka","MŠ Chrustenice","https://www.firmy.cz/detail/2590795-ms-chrustenice-chrustenice.html","702"
