"","facility_type","facility_name","facility_iri","facility_distance"
"0","Cukrárna","Cukrárna & Kafárna Panorama","https://www.firmy.cz/detail/13143466-cukrarna-kafarna-panorama-zlin.html","226"
"1","Kino","5D cinema Maxim","https://www.firmy.cz/detail/12871624-5d-cinema-maxim-zlin.html","937"
"2","Hřiště","Dětské hřiště Dětská","","40"
"3","Večerka","Albert Supermarket","https://www.firmy.cz/detail/652941-albert-supermarket-zlin.html","226"
"4","Hospoda","Švec sport klub","https://www.firmy.cz/detail/13145208-svec-sport-klub-zlin.html","567"
"5","Divadlo","Divadlo OPONA","https://www.firmy.cz/detail/2326192-divadlo-opona-zlin.html","1031"
"6","Veterinář","Veterina Svahy - MVDr. Lucia Friedlaenderová","https://www.firmy.cz/detail/2136524-veterina-svahy-mvdr-lucia-friedlaenderova-zlin.html","321"
"7","Lékař","MUDr. Helena Andelová, s.r.o.","https://www.firmy.cz/detail/12774683-mudr-helena-andelova-zlin.html","200"
"8","Restaurace","Restaurace Okružní 4695","https://www.firmy.cz/detail/13150657-restaurace-okruzni-4695-zlin.html","245"
"9","Obchod","Kaufland","https://www.firmy.cz/detail/1361431-kaufland-zlin.html","479"
"10","Bus MHD","Slunečná","","167"
"11","Školka","MŠ Zlín, Dětská","https://www.firmy.cz/detail/658577-ms-zlin-detska-zlin.html","151"
"12","Bankomat","Bankomat České spořitelny","https://www.firmy.cz/detail/596618-bankomat-ceske-sporitelny-zlin.html","226"
"13","Pošta","Pošta Zlín 5 - Česká pošta, s.p.","https://www.firmy.cz/detail/432902-posta-zlin-5-zlin.html","245"
"14","Vlak","Zlín střed","","895"
"15","Lékárna","Lékárna Jižní svahy","https://www.firmy.cz/detail/423491-lekarna-jizni-svahy-zlin.html","226"
"16","Škola","Pobočka ZUŠ - Taneční obor - ZUŠ Zlín - Jižní Svahy","https://www.firmy.cz/detail/2403764-pobocka-zus-tanecni-obor-zlin.html","161"
"17","Sportoviště","Koupaliště Panorama","https://www.firmy.cz/detail/12872058-koupaliste-panorama-zlin.html","236"
