"","facility_type","facility_name","facility_iri","facility_distance"
"0","Cukrárna","Cukrárna La dolce vita","https://www.firmy.cz/detail/2635193-cukrarna-la-dolce-vita-praha-holesovice.html","282"
"1","Kino","Bio Oko","https://www.firmy.cz/detail/2586117-bio-oko-praha-holesovice.html","51"
"2","Hřiště","Dětské hřiště Letenské sady","","306"
"3","Večerka","Potraviny MOVAX","https://www.firmy.cz/detail/315175-potraviny-movax-praha-holesovice.html","289"
"4","Hospoda","Pivnice U Pivoje","https://www.firmy.cz/detail/2231875-pivnice-u-pivoje-praha-holesovice.html","65"
"5","Divadlo","Divadlo Alfred ve dvoře","https://www.firmy.cz/detail/396869-divadlo-alfred-ve-dvore-praha-holesovice.html","174"
"6","Veterinář","MVDr. Miroslav Řehák","https://www.firmy.cz/detail/406439-mvdr-miroslav-rehak-praha-holesovice.html","288"
"7","Škola","Gymnázium Přírodní škola","https://www.firmy.cz/detail/361478-gymnazium-prirodni-skola-praha-holesovice.html","98"
"8","Pošta","Pošta Praha 7 - Česká pošta, s.p.","https://www.firmy.cz/detail/216716-posta-praha-7-praha-holesovice.html","537"
"9","Restaurace","Restaurace Na Mělníku","https://www.firmy.cz/detail/275362-restaurace-na-melniku-praha-holesovice.html","75"
"10","Obchod","Bílá labuť","https://www.firmy.cz/detail/221990-bila-labut-praha-nove-mesto.html","1075"
"11","Lékař","Poliklinika Prahy 7","https://www.firmy.cz/detail/377122-poliklinika-prahy-7-praha-holesovice.html","20"
"12","Tram","Kamenická","","81"
"13","Lékárna","BENU Lékárna","https://www.firmy.cz/detail/2024770-benu-lekarna-praha-holesovice.html","20"
"14","Školka","Mateřská škola, Praha 7, Letohradská 1a","https://www.firmy.cz/detail/197576-materska-skola-praha-7-letohradska-1a-praha-holesovice.html","111"
"15","Sportoviště","Bowling RADAVA","https://www.firmy.cz/detail/13032274-bowling-radava-praha-holesovice.html","140"
"16","Bankomat","Raiffeisenbank - bankomat","https://www.firmy.cz/detail/2474613-raiffeisenbank-bankomat-praha-holesovice.html","104"
"17","Bus MHD","Strossmayerovo náměstí","","222"
"18","Vlak","Praha-Bubny","","687"
"19","Metro","Vltavská","","563"
