"","facility_type","facility_name","facility_iri","facility_distance"
"0","Cukrárna","Amadeus Cafe","https://www.firmy.cz/detail/12793724-amadeus-cafe-ostrava-marianske-hory.html","742"
"1","Kino","CineStar Ostrava","https://www.firmy.cz/detail/661182-cinestar-ostrava-ostrava-moravska-ostrava.html","1632"
"2","Přírodní zajímavost","Zábřežský bludný balvan","","2193"
"3","Hřiště","Dětské hřiště Marie Pujmanové","","945"
"4","Večerka","Potraviny Pelikán","https://www.firmy.cz/detail/242969-potraviny-pelikan-ostrava-marianske-hory.html","220"
"5","Hospoda","Nový Žalák","https://www.firmy.cz/detail/13110282-novy-zalak-ostrava-marianske-hory.html","792"
"6","Divadlo","Loutkový svět","https://www.firmy.cz/detail/13033024-loutkovy-svet-ostrava-moravska-ostrava.html","1971"
"7","Veterinář","Veterinární klinika MVDr. Vítězslav Raška a kolektiv","https://www.firmy.cz/detail/451459-veterinarni-klinika-mvdr-vitezslav-raska-a-kolektiv-ostrava-marianske-hory.html","1134"
"8","Restaurace","Easy Peasy Bistro","https://www.firmy.cz/detail/13335025-easy-peasy-bistro-ostrava-marianske-hory.html","124"
"9","Tram","Hulváky","","146"
"10","Lékárna","Lékárna Mariana","https://www.firmy.cz/detail/423463-lekarna-mariana-ostrava-hulvaky.html","111"
"11","Sportoviště","Sportovní klub FIT & FUN Ostrava","https://www.firmy.cz/detail/719215-sportovni-klub-fit-fun-ostrava-ostrava-marianske-hory.html","545"
"12","Bus MHD","Sokola Tůmy","","127"
"13","Bankomat","Bankomat Komerční banky","https://www.firmy.cz/detail/594290-bankomat-komercni-banky-ostrava-marianske-hory.html","754"
"14","Školka","Dětská skupina MiniSovičky","https://www.firmy.cz/detail/13233066-detska-skupina-minisovicky-ostrava-marianske-hory.html","437"
"15","Lékař","MUDr. Radomíra Černocká","https://www.firmy.cz/detail/386990-mudr-radomira-cernocka-ostrava-marianske-hory.html","180"
"16","Pošta","Pošta Ostrava 9 - Česká pošta, s.p.","https://www.firmy.cz/detail/13014108-posta-ostrava-9-ostrava-marianske-hory.html","848"
"17","Škola","SZŠ speciální pro žáky s více vadami, Ostrava - Wolkrova","https://www.firmy.cz/detail/745322-szs-specialni-pro-zaky-s-vice-vadami-ostrava-wolkrova-ostrava-hulvaky.html","100"
"18","Vlak","Ostrava-Mariánské Hory","","1373"
"19","Obchod","Kaufland","https://www.firmy.cz/detail/1477277-kaufland-ostrava-marianske-hory.html","1192"
