"","facility_type","facility_name","facility_iri","facility_distance"
"0","Cukrárna","Cukrárna Díly","https://www.firmy.cz/detail/13120998-cukrarna-dily-zlin.html","446"
"1","Kino","Multikino Golden Apple Cinema","https://www.firmy.cz/detail/2138121-multikino-golden-apple-cinema-zlin.html","1279"
"2","Hřiště","Dětské hřiště třída Tomáše Bati","","132"
"3","Večerka","Albert Supermarket","https://www.firmy.cz/detail/447275-albert-supermarket-zlin.html","90"
"4","Hospoda","Pivnice Boston","https://www.firmy.cz/detail/13136154-pivnice-boston-zlin.html","429"
"5","Divadlo","Divadlo Malá scéna Zlín","https://www.firmy.cz/detail/396936-divadlo-mala-scena-zlin-zlin.html","462"
"6","Veterinář","Veterinární klinika AAnimalCare","https://www.firmy.cz/detail/1986357-veterinarni-klinika-aanimalcare-zlin.html","572"
"7","Bankomat","Bankomat České spořitelny","https://www.firmy.cz/detail/12836548-bankomat-ceske-sporitelny-zlin.html","90"
"8","Školka","MŠ Morysák","https://www.firmy.cz/detail/406923-ms-morysak-zlin.html","228"
"9","Obchod","Kaufland","https://www.firmy.cz/detail/1690955-kaufland-zlin.html","1234"
"10","Sportoviště","Pétanque Zlín","","685"
"11","Škola","ZUŠ Zlín, Štefánikova","https://www.firmy.cz/detail/399208-zus-zlin-stefanikova-zlin.html","462"
"12","Pošta","Pošta Zlín 7 - Česká pošta, s.p.","https://www.firmy.cz/detail/432905-posta-zlin-7-zlin.html","429"
"13","Vlak","Zlín-Podvesná","","376"
"14","Bus MHD","Podvesná X.","","62"
"15","Lékárna","Lékárna Revmavita","https://www.firmy.cz/detail/12874292-lekarna-revmavita-zlin.html","356"
"16","Lékař","MUDr. Zuzana Kobylíková","https://www.firmy.cz/detail/390206-mudr-zuzana-kobylikova-zlin.html","494"
"17","Restaurace","STAR CLUB PODVESNÁ","https://www.firmy.cz/detail/13151751-star-club-podvesna-zlin.html","360"
