"","facility_type","facility_name","facility_iri","facility_distance"
"0","Cukrárna","Kavárna Zámecké café","https://www.firmy.cz/detail/2002117-kavarna-zamecke-cafe-litvinov-horni-litvinov.html","2462"
"1","Kino","3D kino Citadela Litvínov","https://www.firmy.cz/detail/13236248-3d-kino-citadela-litvinov-litvinov-horni-litvinov.html","4202"
"2","Hřiště","Dětské hřiště Luční","","536"
"3","Přírodní zajímavost","Nebeské schody","","4428"
"4","Večerka","Potraviny Linda","https://www.firmy.cz/detail/13059915-potraviny-linda-litvinov-hamr.html","170"
"5","Divadlo","Docela velké divadlo","https://www.firmy.cz/detail/402086-docela-velke-divadlo-litvinov-horni-litvinov.html","2834"
"6","Hospoda","CLUB DUSTIN HERNA","https://www.firmy.cz/detail/13147782-club-dustin-herna-litvinov-hamr.html","100"
"7","Veterinář","MVDr. Pavel Gabriel","https://www.firmy.cz/detail/2170186-mvdr-pavel-gabriel-litvinov-chuderin.html","1200"
"8","Škola","Základní škola Jeřabinka","https://www.firmy.cz/detail/13262968-zakladni-skola-jerabinka-litvinov-hamr.html","99"
"9","Pošta","Pošta Litvínov 8 - Česká pošta, s.p.","https://www.firmy.cz/detail/216948-posta-litvinov-8-litvinov-hamr.html","138"
"10","Bus MHD","Hamr","","66"
"11","Lékař","MUDr. Jitka Prýmasová","https://www.firmy.cz/detail/386568-mudr-jitka-prymasova-litvinov-hamr.html","104"
"12","Školka","Mateřská škola Sluníčko","https://www.firmy.cz/detail/725453-materska-skola-slunicko-litvinov-janov.html","753"
"13","Restaurace","Restaurace Hamerská 263","https://www.firmy.cz/detail/13117921-restaurace-hamerska-263-litvinov-hamr.html","174"
"14","Lékárna","BENU Lékárna","https://www.firmy.cz/detail/12729604-benu-lekarna-litvinov-horni-litvinov.html","2220"
"15","Bankomat","Bankomat ČSOB","https://www.firmy.cz/detail/597359-bankomat-csob-litvinov-hamr.html","170"
"16","Obchod","RETAIL PARK LITVÍNOV","https://www.firmy.cz/detail/13210428-retail-park-litvinov-litvinov-horni-litvinov.html","2168"
"17","Tram","Litvínov, Báňské stavby","","2227"
"18","Vlak","Litvínov","","2624"
"19","Sportoviště","Sportovní hala Tenba","https://www.firmy.cz/detail/12714849-sportovni-hala-tenba-litvinov-horni-litvinov.html","2509"
