"","facility_type","facility_name","facility_iri","facility_distance"
"0","Cukrárna","Café Ritual","https://www.firmy.cz/detail/13050348-cafe-ritual-podebrady-iii.html","97"
"1","Kino","Zámecký biograf","https://www.firmy.cz/detail/2697562-zamecky-biograf-podebrady-i.html","166"
"2","Hřiště","Dětské hřiště Kubovy sady","","197"
"3","Večerka","Nákup za pár kaček","https://www.firmy.cz/detail/13312170-nakup-za-par-kacek-podebrady-iii.html","15"
"4","Hospoda","Pivnice U Čiháků","https://www.firmy.cz/detail/13085939-pivnice-u-cihaku-podebrady-iii.html","228"
"5","Divadlo","Divadlo Na Kovárně","https://www.firmy.cz/detail/2697557-divadlo-na-kovarne-podebrady-i.html","146"
"6","Veterinář","MVDr. Zbyněk Lonský","https://www.firmy.cz/detail/2137554-mvdr-zbynek-lonsky-podebrady-iii.html","504"
"7","Pošta","Pošta Poděbrady 1 - Česká pošta, s.p.","https://www.firmy.cz/detail/1357087-posta-podebrady-1-podebrady-iii.html","167"
"8","Lékař","MUDr. Anna Preislerová","https://www.firmy.cz/detail/372020-mudr-anna-preislerova-podebrady-iii.html","104"
"9","Bankomat","Bankomat MONETA Money Bank","https://www.firmy.cz/detail/602905-bankomat-moneta-money-bank-podebrady-iii.html","0"
"10","Škola","Gymnázium Jiřího z Poděbrad","https://www.firmy.cz/detail/149256-gymnazium-jiriho-z-podebrad-podebrady-ii.html","446"
"11","Bus MHD","Poděbrady, Riegrovo nám.","","70"
"12","Vlak","Poděbrady","","806"
"13","Obchod","Tesco","https://www.firmy.cz/detail/12750637-tesco-podebrady-kluk.html","1848"
"14","Sportoviště","TJ LTC Poděbrady","https://www.firmy.cz/detail/2269002-tj-ltc-podebrady-podebrady-iii.html","420"
"15","Lékárna","Magistra NOVÁ LÉKÁRNA","https://www.firmy.cz/detail/12970690-magistra-nova-lekarna-podebrady-iii.html","60"
"16","Restaurace","Jihočeská restaurace","https://www.firmy.cz/detail/13300745-jihoceska-restaurace-podebrady-iii.html","65"
"17","Školka","MŠ Poděbrady, Labská","https://www.firmy.cz/detail/2622628-ms-podebrady-labska-podebrady-iii.html","154"
