"","facility_type","facility_name","facility_iri","facility_distance"
"0","Hřiště","Dětské hřiště U Potoka","https://mapy.cz/zakladni?x=14.2697880556&y=50.0311752778&z=17&source=base&id=2083813","60"
"1","Večerka","Nákupní centrum D&L Market","https://www.firmy.cz/detail/13058935-nakupni-centrum-d-l-market-jinocany.html","297"
"2","Veterinář","MVDr. Dagmar Minaříková","https://www.firmy.cz/detail/12996716-mvdr-dagmar-minarikova-jinocany.html","277"
"3","Hospoda","Hospoda Na Poustce 144","https://www.firmy.cz/detail/13110381-hospoda-na-poustce-144-jinocany.html","525"
"4","Cukrárna","RŮŽOVÁ cukrárna & kavárna","https://www.firmy.cz/detail/12851845-ruzova-cukrarna-kavarna-rudna.html","2819"
"5","Divadlo","Divadelní studio Bubec","https://www.firmy.cz/detail/13047862-divadelni-studio-bubec-praha-reporyje.html","2862"
"6","Kino","Cinema City Zličín","https://www.firmy.cz/detail/436222-cinema-city-zlicin-praha-trebonice.html","2932"
"7","Vlak","Jinočany","https://mapy.cz/zakladni?x=14.2626801756&y=50.0290091936&z=17&source=pubt&id=15698616","550"
"8","Bus MHD","Jinočany, Hlavní","https://mapy.cz/zakladni?x=14.2720421126&y=50.0317530446&z=17&source=pubt&id=15301578","194"
"9","Škola","ZŠ Jinočany","https://www.firmy.cz/detail/357556-zs-jinocany-jinocany.html","272"
"10","Bankomat","Bankomat České spořitelny","https://www.firmy.cz/detail/595641-bankomat-ceske-sporitelny-rudna.html","2652"
"11","Sportoviště","Tělocvičná jednota Sokol Jinočany","https://www.firmy.cz/detail/2129652-telocvicna-jednota-sokol-jinocany-jinocany.html","210"
"12","Pošta","Pošta Partner Jinočany","https://www.firmy.cz/detail/13096989-posta-partner-jinocany-jinocany.html","320"
"13","Restaurace","Restaurace Na Poustce","https://www.firmy.cz/detail/13134016-restaurace-na-poustce-jinocany.html","308"
"14","Metro","Zličín","https://mapy.cz/zakladni?x=14.2906764069&y=50.0537241139&z=17&source=pubt&id=15200255","2963"
"15","Tram","Sídliště Řepy","https://mapy.cz/zakladni?x=14.2980560731&y=50.0654219309&z=17&source=pubt&id=15302307","4357"
"16","Lékárna","Lékárna Květnová","https://www.firmy.cz/detail/13331186-lekarna-kvetnova-jinocany.html","167"
"17","Obchod","Albert Hypermarket","https://www.firmy.cz/detail/12920911-albert-hypermarket-praha-trebonice.html","2688"
"18","Lékař","Rudnadent - MUDr. Kamila Branamová","https://www.firmy.cz/detail/13234250-rudnadent-mudr-kamila-branamova-rudna.html","2581"
"19","Školka","MŠ Jinočany","https://www.firmy.cz/detail/12970323-ms-jinocany-jinocany.html","462"
