"","facility_type","facility_name","facility_iri","facility_distance"
"0","Cukrárna","Longus - kavárna a cukrárna","https://www.firmy.cz/detail/13261569-longus-kavarna-a-cukrarna-kyjov.html","298"
"1","Kino","Kino Panorama","https://www.firmy.cz/detail/451989-kino-panorama-kyjov.html","408"
"2","Hřiště","Dětské hřiště Tyršova","","324"
"3","Večerka","Jednota, spotřební družstvo v Hodoníně - COOP","https://www.firmy.cz/detail/2176662-jednota-spotrebni-druzstvo-v-hodonine-coop-kyjov.html","209"
"4","Hospoda","Pivnice Budvarka","https://www.firmy.cz/detail/254790-pivnice-budvarka-kyjov.html","688"
"5","Veterinář","MVDr. Jiří Lunga","https://www.firmy.cz/detail/2075343-mvdr-jiri-lunga-kyjov.html","289"
"6","Obchod","Obchodní centrum ADAMES","https://www.firmy.cz/detail/13074816-obchodni-centrum-adames-kyjov.html","657"
"7","Bus MHD","Kyjov, U Fary","","155"
"8","Restaurace","Pizzerie U Martina s.r.o.","https://www.firmy.cz/detail/2604835-pizzerie-u-martina-s-r-o-kyjov.html","238"
"9","Pošta","Pošta Kyjov 1 - Česká pošta, s.p.","https://www.firmy.cz/detail/433425-posta-kyjov-1-kyjov.html","322"
"10","Sportoviště","Koupaliště Kyjov","https://www.firmy.cz/detail/12946837-koupaliste-kyjov-kyjov-netcice.html","754"
"11","Lékař","H-medico s.r.o. - MUDr. David Havlíček","https://www.firmy.cz/detail/13332425-h-medico-s-r-o-mudr-david-havlicek-kyjov.html","151"
"12","Bankomat","Bankomat MONETA Money Bank","https://www.firmy.cz/detail/659581-bankomat-moneta-money-bank-kyjov.html","190"
"13","Vlak","Kyjov zastávka","","583"
"14","Škola","ZUŠ Kyjov","https://www.firmy.cz/detail/360557-zus-kyjov-kyjov.html","117"
"15","Lékárna","Dr.Max LÉKÁRNA","https://www.firmy.cz/detail/2646472-dr-max-lekarna-kyjov.html","225"
"16","Školka","MŠ Kyjov, Nádražní","https://www.firmy.cz/detail/2101550-ms-kyjov-nadrazni-kyjov.html","675"
