"","facility_type","facility_name","facility_iri","facility_distance"
"0","Přírodní zajímavost","Zábřežský bludný balvan","https://mapy.cz/zakladni?x=18.2405209436&y=49.8063021231&z=17&source=base&id=2110132","3128"
"1","Hřiště","Dětské hřiště Marie Pujmanové","https://mapy.cz/zakladni?x=18.2549206927&y=49.8321299657&z=17&source=base&id=2137252","188"
"2","Veterinář","Veterinární klinika MVDr. Vítězslav Raška a kolektiv","https://www.firmy.cz/detail/451459-veterinarni-klinika-mvdr-vitezslav-raska-a-kolektiv-ostrava-marianske-hory.html","406"
"3","Večerka","Potraviny U Mirky - Winex CZ spol. s.r.o.","https://www.firmy.cz/detail/13178790-potraviny-u-mirky-winex-cz-spol-s-r-o-ostrava-marianske-hory.html","322"
"4","Hospoda","U červeného trpaslíka","https://www.firmy.cz/detail/2297655-u-cerveneho-trpaslika-ostrava-marianske-hory.html","268"
"5","Cukrárna","Amadeus Cafe","https://www.firmy.cz/detail/12793724-amadeus-cafe-ostrava-marianske-hory.html","476"
"6","Divadlo","Loutkový svět","https://www.firmy.cz/detail/13033024-loutkovy-svet-ostrava-moravska-ostrava.html","897"
"7","Kino","CineStar Ostrava","https://www.firmy.cz/detail/661182-cinestar-ostrava-ostrava-moravska-ostrava.html","647"
"8","Tram","Mariánské náměstí","https://mapy.cz/zakladni?x=18.2592837877&y=49.828258044&z=17&source=pubt&id=15202723","456"
"9","Škola","Základní škola Ostrava - Mariánské Hory, Gen. Janka 1208, příspěvková organizace","https://www.firmy.cz/detail/358690-zakladni-skola-ostrava-marianske-hory-gen-janka-1208-prispevkova-organizace-ostrava-marianske-hory.html","196"
"10","Bus MHD","Korunní","https://mapy.cz/zakladni?x=18.2531312726664&y=49.8315967961469&z=17&source=pubt&id=15202192","323"
"11","Lékárna","Lékárna Salvia","https://www.firmy.cz/detail/12944856-lekarna-salvia-ostrava-marianske-hory.html","322"
"12","Restaurace","Sushikko","https://www.firmy.cz/detail/12919852-sushikko-ostrava-marianske-hory.html","124"
"13","Školka","Mateřská škola U Dvoru","https://www.firmy.cz/detail/2287511-materska-skola-u-dvoru-ostrava-marianske-hory.html","246"
"14","Vlak","Ostrava-Mariánské Hory","https://mapy.cz/zakladni?x=18.2398639247774&y=49.837274789086&z=17&source=pubt&id=15212379","1387"
"15","Bankomat","Bankomat Komerční banky","https://www.firmy.cz/detail/1357112-bankomat-komercni-banky-ostrava-moravska-ostrava.html","458"
"16","Pošta","Pošta Ostrava 9 - Česká pošta, s.p.","https://www.firmy.cz/detail/13014108-posta-ostrava-9-ostrava-marianske-hory.html","395"
"17","Lékař","MSP DOCTOR, s.r.o.","https://www.firmy.cz/detail/2664466-msp-doctor-ostrava-marianske-hory.html","297"
"18","Sportoviště","Tělocvičná jednota Sokol Mariánské Hory","https://www.firmy.cz/detail/759403-telocvicna-jednota-sokol-marianske-hory-ostrava-marianske-hory.html","145"
"19","Obchod","Tesco","https://www.firmy.cz/detail/733902-tesco-ostrava-moravska-ostrava.html","487"
