"","facility_type","facility_name","facility_iri","facility_distance"
"0","Cukrárna","Cukrárna a kavárna Natali","https://www.firmy.cz/detail/12931851-cukrarna-a-kavarna-natali-kralupy-nad-vltavou-lobecek.html","165"
"1","Kino","Kino Vltava","https://www.firmy.cz/detail/396488-kino-vltava-kralupy-nad-vltavou-lobecek.html","33"
"2","Hřiště","Dětské hřiště Šmeralova","","134"
"3","Večerka","Ruské Potraviny ""ALENKA""","https://www.firmy.cz/detail/13305122-ruske-potraviny-alenka-kralupy-nad-vltavou-lobecek.html","0"
"4","Hospoda","Restaurace Chemik","https://www.firmy.cz/detail/329709-restaurace-chemik-kralupy-nad-vltavou-lobecek.html","289"
"5","Divadlo","Divadelní soubor ""Scéna"" v Kralupech N/ Vlt.","https://www.firmy.cz/detail/397172-divadelni-soubor-scena-v-kralupech-n-vlt-kralupy-nad-vltavou-lobecek.html","68"
"6","Veterinář","Veterina Kralupy, s.r.o.","https://www.firmy.cz/detail/12914882-veterina-kralupy-kralupy-nad-vltavou-lobecek.html","842"
"7","Pošta","Pošta Kralupy nad Vltavou 3 - Česká pošta, s.p.","https://www.firmy.cz/detail/216802-posta-kralupy-nad-vltavou-3-kralupy-nad-vltavou-lobecek.html","0"
"8","Lékárna","Lékárna Lobeček, s.r.o.","https://www.firmy.cz/detail/2620459-lekarna-lobecek-kralupy-nad-vltavou-lobecek.html","261"
"9","Školka","MŠ Kralupy nad Vltavou, Dr. E. Beneše","https://www.firmy.cz/detail/2684843-ms-kralupy-nad-vltavou-dr-e-benese-kralupy-nad-vltavou-lobecek.html","179"
"10","Obchod","Tesco","https://www.firmy.cz/detail/653529-tesco-kralupy-nad-vltavou-lobecek.html","731"
"11","Bankomat","Bankomat České spořitelny","https://www.firmy.cz/detail/12987885-bankomat-ceske-sporitelny-kralupy-nad-vltavou-lobecek.html","0"
"12","Lékař","MUDr. Vladimír Horák","https://www.firmy.cz/detail/386430-mudr-vladimir-horak-kralupy-nad-vltavou-lobecek.html","272"
"13","Škola","ZŠ a MŠ Kralupy nad Vltavou, Třebízského","https://www.firmy.cz/detail/357813-zs-a-ms-kralupy-nad-vltavou-trebizskeho-kralupy-nad-vltavou.html","480"
"14","Sportoviště","TOM 3511 VLTAVSKÝ PAPRSEK","https://www.firmy.cz/detail/2488282-tom-3511-vltavsky-paprsek-kralupy-nad-vltavou-lobecek.html","426"
"15","Vlak","Kralupy nad Vltavou","","935"
"16","Bus MHD","Kralupy nad Vltavou, U Čejků","","22"
"17","Restaurace","Café Restaurant Kotva","https://www.firmy.cz/detail/589572-cafe-restaurant-kotva-kralupy-nad-vltavou.html","326"
