"","facility_type","facility_name","facility_iri","facility_distance"
"0","Cukrárna","21 Rock'n'Roll Cafe","https://www.firmy.cz/detail/12799751-21-rock-n-roll-cafe-olomouc-hodolany.html","379"
"1","Hřiště","Dětské hřiště tř. Kosmonautů","","275"
"2","Kino","Letní kino Olomouc","https://www.firmy.cz/detail/13157654-letni-kino-olomouc-olomouc.html","912"
"3","Večerka","Minimarket Masarykova třída","https://www.firmy.cz/detail/13304711-minimarket-masarykova-trida-olomouc.html","325"
"4","Hospoda","Pivnice Doga","https://www.firmy.cz/detail/13285213-pivnice-doga-olomouc.html","170"
"5","Divadlo","Divadlo na Šantovce, o.p.s.","https://www.firmy.cz/detail/12833588-divadlo-na-santovce-olomouc.html","935"
"6","Veterinář","MVDr. Jitka Tesaříková","https://www.firmy.cz/detail/1549357-mvdr-jitka-tesarikova-olomouc-hodolany.html","610"
"7","Lékař","MUDr. Stanislav Rössler","https://www.firmy.cz/detail/387507-mudr-stanislav-rossler-olomouc-hodolany.html","295"
"8","Sportoviště","Tělovýchovná jednota Lodní sporty Olomouc","https://www.firmy.cz/detail/1342898-telovychovna-jednota-lodni-sporty-olomouc-olomouc.html","310"
"9","Bus MHD","Vejdovského","","171"
"10","Škola","Základní umělecká škola Žerotín","https://www.firmy.cz/detail/230926-zakladni-umelecka-skola-zerotin-olomouc-hodolany.html","68"
"11","Restaurace","BEATA lunch & coffee","https://www.firmy.cz/detail/13329702-beata-lunch-coffee-olomouc-hodolany.html","219"
"12","Obchod","Kaufland","https://www.firmy.cz/detail/1459159-kaufland-olomouc-hodolany.html","460"
"13","Pošta","Pošta Olomouc 2 - Česká pošta, s.p.","https://www.firmy.cz/detail/432281-posta-olomouc-2-olomouc-hodolany.html","687"
"14","Bankomat","Bankomat Fio banky","https://www.firmy.cz/detail/12935716-bankomat-fio-banky-olomouc.html","357"
"15","Vlak","Olomouc hlavní nádraží","","732"
"16","Školka","Pružná školka","https://www.firmy.cz/detail/12788579-pruzna-skolka-olomouc-hodolany.html","146"
"17","Lékárna","Lékárna AVE","https://www.firmy.cz/detail/12877758-lekarna-ave-olomouc-hodolany.html","509"
"18","Tram","Vejdovského","","190"
