"","facility_type","facility_name","facility_iri","facility_distance"
"0","Cukrárna","Art Café","https://www.firmy.cz/detail/12919900-art-cafe-olomouc-povel.html","232"
"1","Kino","5D cinema Maxim","https://www.firmy.cz/detail/12950601-5d-cinema-maxim-olomouc.html","1338"
"2","Hřiště","Dětské hřiště Werichova","","180"
"3","Večerka","Potraviny - večerka - Linh Duongová","https://www.firmy.cz/detail/13308483-potraviny-vecerka-olomouc-nove-sady.html","51"
"4","Divadlo","Divadlo na Šantovce, o.p.s.","https://www.firmy.cz/detail/12833588-divadlo-na-santovce-olomouc.html","1391"
"5","Hospoda","Hospůdka u Médi","https://www.firmy.cz/detail/13299464-hospudka-u-medi-olomouc-nove-sady.html","168"
"6","Veterinář","Veterinární ordinace OrdinaVet","https://www.firmy.cz/detail/12984041-veterinarni-ordinace-ordinavet-olomouc-povel.html","471"
"7","Lékárna","Fit Lékárna","https://www.firmy.cz/detail/13168822-fit-lekarna-olomouc-nove-sady.html","122"
"8","Bankomat","Bankomat Komerční banky","https://www.firmy.cz/detail/12786960-bankomat-komercni-banky-olomouc-nove-sady.html","116"
"9","Pošta","Pošta Olomouc 12 - Česká pošta, s.p.","https://www.firmy.cz/detail/215270-posta-olomouc-12-olomouc-povel.html","577"
"10","Restaurace","Restaurace Bohemia","https://www.firmy.cz/detail/12822401-restaurace-bohemia-olomouc-nove-sady.html","55"
"11","Vlak","Olomouc-Nové Sady","","874"
"12","Školka","Fakultní základní škola dr. Milady Horákové a Mateřská škola Olomouc, Rožňavská 21, příspěvková organizace","https://www.firmy.cz/detail/731600-fakultni-zakladni-skola-dr-milady-horakove-a-materska-skola-olomouc-roznavska-21-prispevkova-organizace-olomouc-nove-sady.html","103"
"13","Bus MHD","U Kapličky","","201"
"14","Tram","Trnkova","","674"
"15","Lékař","MUDr. Hana Jochmannová","https://www.firmy.cz/detail/386461-mudr-hana-jochmannova-olomouc-nove-sady.html","281"
"16","Obchod","Albert Hypermarket","https://www.firmy.cz/detail/12924402-albert-hypermarket-olomouc.html","1331"
"17","Škola","Fakultní základní škola dr. Milady Horákové a Mateřská škola Olomouc, Rožňavská 21, příspěvková organizace","https://www.firmy.cz/detail/358587-fakultni-zakladni-skola-dr-milady-horakove-a-materska-skola-olomouc-roznavska-21-prispevkova-organizace-olomouc-nove-sady.html","175"
"18","Sportoviště","BOWLAND bowling center","https://www.firmy.cz/detail/12841946-bowland-bowling-center-olomouc.html","1452"
