"","facility_type","facility_name","facility_iri","facility_distance"
"0","Hřiště","Dětské hřiště Skřivánčí vrch","https://mapy.cz/zakladni?x=13.6461183806&y=50.4954759598&z=17&source=base&id=1928382","401"
"1","Hospoda","Mostecký Kahan","https://www.firmy.cz/detail/13112199-mostecky-kahan-most.html","340"
"2","Cukrárna","Café Coffee Day","https://www.firmy.cz/detail/12880492-cafe-coffee-day-most.html","492"
"3","Večerka","Večerka U Mikáda","https://www.firmy.cz/detail/12931107-vecerka-u-mikada-most.html","92"
"4","Divadlo","Městské divadlo v Mostě, spol. s r.o.","https://www.firmy.cz/detail/1336052-mestske-divadlo-v-moste-most.html","358"
"5","Kino","Kino Kosmos","https://www.firmy.cz/detail/401279-kino-kosmos-most.html","340"
"6","Veterinář","Veterinka U Tlapiček","https://www.firmy.cz/detail/12758413-veterinka-u-tlapicek-most.html","775"
"7","Tram","Most, 1.nám.","https://mapy.cz/zakladni?x=13.638878746&y=50.5008300502&z=17&source=pubt&id=15331704","458"
"8","Obchod","Albert Hypermarket","https://www.firmy.cz/detail/2146438-albert-hypermarket-most.html","384"
"9","Lékař","MUDr. Jana Novotná","https://www.firmy.cz/detail/13274357-mudr-jana-novotna-most.html","196"
"10","Restaurace","Restaurace GoodGate","https://www.firmy.cz/detail/13029200-restaurace-goodgate-most.html","277"
"11","Vlak","Most","https://mapy.cz/zakladni?x=13.658263561&y=50.5112135393&z=17&source=pubt&id=15212192","1668"
"12","Lékárna","BENU Lékárna","https://www.firmy.cz/detail/12847653-benu-lekarna-most.html","410"
"13","Pošta","Pošta Most 1 - Česká pošta, s.p.","https://www.firmy.cz/detail/216966-posta-most-1-most.html","627"
"14","Bus MHD","Most, Dům peněžnictví","https://mapy.cz/zakladni?x=13.6424643774&y=50.5002625975&z=17&source=pubt&id=15286498","211"
"15","Školka","MŠ Most, Hutnická","https://www.firmy.cz/detail/1336416-ms-most-hutnicka-most.html","515"
"16","Škola","ZUŠ F. L. Gassmanna","https://www.firmy.cz/detail/427217-zus-f-l-gassmanna-most.html","122"
"17","Sportoviště","SportCenter Most s.r.o.","https://www.firmy.cz/detail/13235550-sportcenter-most-s-r-o-most.html","286"
"18","Bankomat","Bankomat Komerční banky","https://www.firmy.cz/detail/596417-bankomat-komercni-banky-most.html","277"
