"","facility_type","facility_name","facility_iri","facility_distance"
"0","Hřiště","Dětské hřiště Kampelíkova","https://mapy.cz/zakladni?x=17.2837236516&y=49.6072720927&z=17&source=base&id=2259123","31"
"1","Večerka","HRUŠKA","https://www.firmy.cz/detail/12820542-hruska-olomouc-chvalkovice.html","310"
"2","Hospoda","Klub Hospoda Punat","https://www.firmy.cz/detail/13123967-klub-hospoda-punat-olomouc.html","1440"
"3","Kino","Letní kino Olomouc","https://www.firmy.cz/detail/13157654-letni-kino-olomouc-olomouc.html","1952"
"4","Veterinář","MVDr. Jan Meduna","https://www.firmy.cz/detail/277104-mvdr-jan-meduna-olomouc-chvalkovice.html","289"
"5","Cukrárna","Sladká Andulka","https://www.firmy.cz/detail/13281687-sladka-andulka-olomouc-hodolany.html","1488"
"6","Divadlo","Divadlo hudby","https://www.firmy.cz/detail/12933426-divadlo-hudby-olomouc.html","2362"
"7","Lékař","Praktický lékař pro dospělé - Vojenská nemocnice Olomouc","https://www.firmy.cz/detail/13085126-prakticky-lekar-pro-dospele-vojenska-nemocnice-olomouc-olomouc-klasterni-hradisko.html","1373"
"8","Lékárna","Dr.Max LÉKÁRNA","https://www.firmy.cz/detail/2007026-dr-max-lekarna-olomouc-belidla.html","784"
"9","Bankomat","Bankomat ČSOB","https://www.firmy.cz/detail/13035019-bankomat-csob-olomouc-belidla.html","736"
"10","Sportoviště","Tělocvičná jednota Sokol Olomouc - Chvalkovice","https://www.firmy.cz/detail/2135783-telocvicna-jednota-sokol-olomouc-chvalkovice-olomouc-chvalkovice.html","402"
"11","Bus MHD","Chválkovická - Epava","https://mapy.cz/zakladni?x=17.282181647943045&y=49.60721412485354&z=17&source=pubt&id=15203306","132"
"12","Obchod","Forest UP","https://www.firmy.cz/detail/13233249-forest-up-olomouc-chvalkovice.html","390"
"13","Škola","ZŠ a MŠ Olomouc, Gorkého","https://www.firmy.cz/detail/356103-zs-a-ms-olomouc-gorkeho-olomouc-pavlovicky.html","326"
"14","Vlak","Olomouc hlavní nádraží","https://mapy.cz/zakladni?x=17.2783778642&y=49.592580943&z=17&source=pubt&id=15212336","1707"
"15","Školka","MŠ Chválkovice","https://www.firmy.cz/detail/1293480-ms-chvalkovice-olomouc-chvalkovice.html","807"
"16","Tram","Pavlovická","https://mapy.cz/zakladni?x=17.2777933182849&y=49.6020504255873&z=17&source=pubt&id=15210306","751"
"17","Pošta","Pošta Olomouc 3 - Česká pošta, s.p.","https://www.firmy.cz/detail/432294-posta-olomouc-3-olomouc-pavlovicky.html","459"
"18","Restaurace","Restaurace Gloria","https://www.firmy.cz/detail/12843520-restaurace-gloria-olomouc-chvalkovice.html","193"
