"","facility_type","facility_name","facility_iri","facility_distance"
"0","Cukrárna","Bistro Lipovka","https://www.firmy.cz/detail/13340642-bistro-lipovka-dobrany.html","185"
"1","Kino","Kulturní zařízení Káčko","https://www.firmy.cz/detail/12855409-kulturni-zarizeni-kacko-dobrany.html","629"
"2","Hřiště","Dětské hřiště Stromořadí","","323"
"3","Večerka","Enapo","https://www.firmy.cz/detail/12930001-enapo-dobrany.html","163"
"4","Hospoda","Pivnice Hájek a Hájková","https://www.firmy.cz/detail/288796-pivnice-hajek-a-hajkova-dobrany.html","248"
"5","Veterinář","MVDr. Tereza Křížová","https://www.firmy.cz/detail/2132666-mvdr-tereza-krizova-dobrany.html","165"
"6","Bankomat","Bankomat Komerční banky","https://www.firmy.cz/detail/594619-bankomat-komercni-banky-dobrany.html","46"
"7","Bus MHD","Dobřany, u čerp.st.","","74"
"8","Lékař","MUDr. Ludmila Horová","https://www.firmy.cz/detail/2466849-mudr-ludmila-horova-dobrany.html","296"
"9","Vlak","Dobřany","","758"
"10","Pošta","Pošta Dobřany - Česká pošta, s.p.","https://www.firmy.cz/detail/216631-posta-dobrany-dobrany.html","255"
"11","Sportoviště","Sportovní areál Dobřany","https://www.firmy.cz/detail/2604095-sportovni-areal-dobrany-dobrany.html","648"
"12","Lékárna","BENU Lékárna","https://www.firmy.cz/detail/13207323-benu-lekarna-dobrany.html","120"
"13","Restaurace","Restaurace Beseda","https://www.firmy.cz/detail/2116284-restaurace-beseda-dobrany.html","73"
"14","Školka","MŠ Dobřany","https://www.firmy.cz/detail/2376989-ms-dobrany-dobrany.html","287"
"15","Škola","ZŠ Dobřany, Školní","https://www.firmy.cz/detail/12855415-zs-dobrany-skolni-dobrany.html","293"
