"","facility_type","facility_name","facility_iri","facility_distance"
"0","Cukrárna","Studio krásy Markéta","https://www.firmy.cz/detail/12829612-studio-krasy-marketa-jablonec-nad-nisou.html","421"
"1","Kino","Letní kino Jablonec nad Nisou","https://www.firmy.cz/detail/13333339-letni-kino-jablonec-nad-nisou-jablonec-nad-nisou.html","911"
"2","Hřiště","Dětské hřiště Stavbařů","","81"
"3","Večerka","Albert Supermarket","https://www.firmy.cz/detail/446893-albert-supermarket-jablonec-nad-nisou.html","246"
"4","Hospoda","Herna Formanka","https://www.firmy.cz/detail/12826141-herna-formanka-jablonec-nad-nisou.html","408"
"5","Divadlo","Městské divadlo Jablonec nad Nisou, o.p.s.","https://www.firmy.cz/detail/396944-mestske-divadlo-jablonec-nad-nisou-jablonec-nad-nisou.html","648"
"6","Veterinář","Veterinární klinika Bedrníkovi","https://www.firmy.cz/detail/13343024-veterinarni-klinika-bedrnikovi-jablonec-nad-nisou.html","348"
"7","Pošta","Pošta Jablonec nad Nisou 1 - Česká pošta, s.p.","https://www.firmy.cz/detail/215524-posta-jablonec-nad-nisou-1-jablonec-nad-nisou.html","689"
"8","Lékárna","Nemocniční lékárna","https://www.firmy.cz/detail/421120-nemocnicni-lekarna-jablonec-nad-nisou.html","206"
"9","Škola","ZŠ Jablonec nad Nisou, Liberecká","https://www.firmy.cz/detail/12818751-zs-jablonec-nad-nisou-liberecka-jablonec-nad-nisou.html","96"
"10","Lékař","JA-Ambulance s.r.o. - MUDr. Jan Adamec","https://www.firmy.cz/detail/12931154-ja-ambulance-s-r-o-mudr-jan-adamec-jablonec-nad-nisou.html","112"
"11","Sportoviště","LEZECKÁ ARÉNA Makak","https://www.firmy.cz/detail/2571167-lezecka-arena-makak-jablonec-nad-nisou.html","715"
"12","Tram","Vratislavice nad Nisou, výhybna","","4213"
"13","Vlak","Jablonec nad Nisou dolní nádraží","","677"
"14","Obchod","Central Jablonec","https://www.firmy.cz/detail/13045427-central-jablonec-jablonec-nad-nisou.html","778"
"15","Školka","MŠ Jablonec nad Nisou, Hřbitovní","https://www.firmy.cz/detail/12732849-ms-jablonec-nad-nisou-hrbitovni-jablonec-nad-nisou.html","96"
"16","Restaurace","Restaurace Sportovka","https://www.firmy.cz/detail/13034484-restaurace-sportovka-jablonec-nad-nisou.html","217"
"17","Bankomat","Bankomat České spořitelny","https://www.firmy.cz/detail/13238781-bankomat-ceske-sporitelny-jablonec-nad-nisou.html","197"
"18","Bus MHD","Koloniál","","164"
