"","facility_type","facility_name","facility_iri","facility_distance"
"0","Cukrárna","Kavárna Dobrá trafika","https://www.firmy.cz/detail/427908-kavarna-dobra-trafika-praha-vinohrady.html","219"
"1","Kino","HopeTV","https://www.firmy.cz/detail/672889-hopetv-praha-vinohrady.html","769"
"2","Hřiště","Dětské hřiště Slezská","","370"
"3","Večerka","Albert Supermarket","https://www.firmy.cz/detail/209483-albert-supermarket-praha-vinohrady.html","100"
"4","Hospoda","U Pižďucha","https://www.firmy.cz/detail/337127-u-pizducha-praha-zizkov.html","946"
"5","Divadlo","Theatre ROYAL","https://www.firmy.cz/detail/805285-theatre-royal-praha-vinohrady.html","133"
"6","Veterinář","Veterinární klinika Panda","https://www.firmy.cz/detail/166785-veterinarni-klinika-panda-praha-vinohrady.html","324"
"7","Lékárna","Lékárna U krále Jiřího","https://www.firmy.cz/detail/2326652-lekarna-u-krale-jiriho-praha-vinohrady.html","362"
"8","Škola","ZŠ a Střední škola Praha 2, Vinohradská","https://www.firmy.cz/detail/362441-zs-a-stredni-skola-praha-2-vinohradska-praha-vinohrady.html","30"
"9","Pošta","Pošta Praha 2 - Česká pošta, s.p.","https://www.firmy.cz/detail/217496-posta-praha-2-praha-vinohrady.html","293"
"10","Sportoviště","Tělocvičná jednota Sokol Praha Královské Vinohrady","https://www.firmy.cz/detail/231150-telocvicna-jednota-sokol-praha-kralovske-vinohrady-praha-vinohrady.html","213"
"11","Školka","MŠ Praha 2, Šumavská","https://www.firmy.cz/detail/646153-ms-praha-2-sumavska-praha-vinohrady.html","59"
"12","Tram","Vinohradská tržnice","","52"
"13","Bus MHD","Jiřího z Poděbrad","","375"
"14","Bankomat","Bankomat ČSOB","https://www.firmy.cz/detail/599568-bankomat-csob-praha-vinohrady.html","353"
"15","Obchod","PAVILON, a.s.","https://www.firmy.cz/detail/451685-pavilon-praha-vinohrady.html","93"
"16","Restaurace","Wang Fu Jing","https://www.firmy.cz/detail/2563676-wang-fu-jing-praha-vinohrady.html","129"
"17","Metro","Jiřího z Poděbrad","","356"
"18","Lékař","MUDr. Jana Krausová","https://www.firmy.cz/detail/389001-mudr-jana-krausova-praha-vinohrady.html","119"
"19","Vlak","Praha hlavní nádraží","","804"
