"","facility_type","facility_name","facility_iri","facility_distance"
"0","Cukrárna","Cukrárna a Kavárna Na Míráku","https://www.firmy.cz/detail/12846155-cukrarna-a-kavarna-na-miraku-mlada-boleslav.html","76"
"1","Kino","CineStar Mladá Boleslav","https://www.firmy.cz/detail/2109584-cinestar-mlada-boleslav-mlada-boleslav-ii.html","1123"
"2","Přírodní zajímavost","Syslí kolonie","","2309"
"3","Hřiště","Dětské hřiště Komenského náměstí","","276"
"4","Večerka","Pramen","https://www.firmy.cz/detail/13268865-pramen-mlada-boleslav-ii.html","86"
"5","Hospoda","KUFR Hospůdka","https://www.firmy.cz/detail/13185314-kufr-hospudka-mlada-boleslav-i.html","183"
"6","Divadlo","Městské divadlo Mladá Boleslav","https://www.firmy.cz/detail/401491-mestske-divadlo-mlada-boleslav-mlada-boleslav-ii.html","326"
"7","Veterinář","CHOVATEL L +  L  s. r. o.","https://www.firmy.cz/detail/13161784-chovatel-l-l-s-r-o-mlada-boleslav-ii.html","108"
"8","Pošta","Pošta Mladá Boleslav 1 - Česká pošta, s.p.","https://www.firmy.cz/detail/217182-posta-mlada-boleslav-1-mlada-boleslav-ii.html","124"
"9","Bus MHD","Náměstí Míru","","40"
"10","Bankomat","Bankomat České spořitelny","https://www.firmy.cz/detail/2609912-bankomat-ceske-sporitelny-mlada-boleslav-ii.html","46"
"11","Škola","Soukromá střední škola MAJA, s.r.o.","https://www.firmy.cz/detail/12845523-soukroma-stredni-skola-maja-mlada-boleslav.html","67"
"12","Lékař","RESO MB - MUDr. Oldřich Šlégl","https://www.firmy.cz/detail/12890023-reso-mb-mudr-oldrich-slegl-mlada-boleslav-ii.html","75"
"13","Obchod","BONDY CENTRUM","https://www.firmy.cz/detail/13215694-bondy-centrum-mlada-boleslav-ii.html","1071"
"14","Vlak","Mladá Boleslav město","","1020"
"15","Lékárna","Lékárna Centrálka","https://www.firmy.cz/detail/375306-lekarna-centralka-mlada-boleslav-ii.html","71"
"16","Sportoviště","Sokolská župa Fügnerova","https://www.firmy.cz/detail/303049-sokolska-zupa-fugnerova-mlada-boleslav-ii.html","416"
"17","Restaurace","Restaurace U Hymrů","https://www.firmy.cz/detail/12857418-restaurace-u-hymru-mlada-boleslav-ii.html","117"
"18","Školka","ZŠ T. G. Masaryka a MŠ Mladá Boleslav","https://www.firmy.cz/detail/433886-zs-t-g-masaryka-a-ms-mlada-boleslav-mlada-boleslav-iii.html","507"
