"","facility_type","facility_name","facility_iri","facility_distance"
"0","Cukrárna","Cukrářství a pernikářství Pusinka","https://www.firmy.cz/detail/13123504-cukrarstvi-a-pernikarstvi-pusinka-brno-kralovo-pole.html","652"
"1","Kino","Kino Lucerna","https://www.firmy.cz/detail/638240-kino-lucerna-brno-zabovresky.html","2224"
"2","Přírodní zajímavost","Přírodní zahrada U Smrku","","336"
"3","Hřiště","Dětské hřiště Herčíkova","","102"
"4","Večerka","BILLA","https://www.firmy.cz/detail/437765-billa-brno-kralovo-pole.html","162"
"5","Hospoda","Na Božence","https://www.firmy.cz/detail/12934224-na-bozence-brno-kralovo-pole.html","354"
"6","Divadlo","Bezbariérové divadlo Barka","https://www.firmy.cz/detail/661273-bezbarierove-divadlo-barka-brno-kralovo-pole.html","1115"
"7","Veterinář","MVDr. Natalija Krčková N-VET","https://www.firmy.cz/detail/13323104-mvdr-natalija-krckova-n-vet-brno-kralovo-pole.html","435"
"8","Škola","Soukromá základní umělecká škola R+P Bartůňkových, v.o.s.","https://www.firmy.cz/detail/427782-soukroma-zakladni-umelecka-skola-r-p-bartunkovych-brno-kralovo-pole.html","92"
"9","Vlak","Brno-Královo Pole","","880"
"10","Školka","MŠ Rozárka Brno","https://www.firmy.cz/detail/1355864-ms-rozarka-brno-brno-kralovo-pole.html","89"
"11","Sportoviště","TC Brno","https://www.firmy.cz/detail/721279-tc-brno-brno-kralovo-pole.html","124"
"12","Lékař","MUDr. Pavel Poneš","https://www.firmy.cz/detail/2619312-mudr-pavel-pones-brno-kralovo-pole.html","63"
"13","Bus MHD","ZŠ Herčíkova","","26"
"14","Pošta","Pošta Brno 12 - Česká pošta, s.p.","https://www.firmy.cz/detail/216021-posta-brno-12-brno-kralovo-pole.html","998"
"15","Obchod","OC Perla, a.s.","https://www.firmy.cz/detail/12875818-oc-perla-brno-zabovresky.html","1704"
"16","Tram","Technické muzeum","","286"
"17","Restaurace","Restaurace Portoriko","https://www.firmy.cz/detail/12843515-restaurace-portoriko-brno-kralovo-pole.html","149"
"18","Lékárna","Lékárna Herčíkova","https://www.firmy.cz/detail/658604-lekarna-hercikova-brno-kralovo-pole.html","63"
"19","Bankomat","Bankomat Komerční banky","https://www.firmy.cz/detail/13203798-bankomat-komercni-banky-brno-kralovo-pole.html","687"
