"","facility_type","facility_name","facility_iri","facility_distance"
"0","Hřiště","Dětské hřiště u psí louky","https://mapy.cz/zakladni?x=14.4100247363&y=50.10558243&z=17&source=base&id=1927254","362"
"1","Kino","Bio Oko","https://www.firmy.cz/detail/2586117-bio-oko-praha-holesovice.html","1478"
"2","Večerka","Tesco Expres","https://www.firmy.cz/detail/2358609-tesco-expres-praha-hradcany.html","652"
"3","Veterinář","MVDr. Marta Schmidhalter-Pekárková DECVDI","https://www.firmy.cz/detail/2608174-mvdr-marta-schmidhalter-pekarkova-decvdi-praha-bubenec.html","917"
"4","Cukrárna","Ovocná cukrárna","https://www.firmy.cz/detail/12722437-ovocna-cukrarna-praha-bubenec.html","798"
"5","Divadlo","POTRVÁ","https://www.firmy.cz/detail/2246484-potrva-praha-dejvice.html","466"
"6","Hospoda","Restaurace Dejvické nádraží","https://www.firmy.cz/detail/568432-restaurace-dejvicke-nadrazi-praha-dejvice.html","904"
"7","Bus MHD","Sibiřské náměstí","https://mapy.cz/zakladni?x=14.405842521896677&y=50.104528145861&z=17&source=pubt&id=15304010","371"
"8","Bankomat","Bankomat České spořitelny","https://www.firmy.cz/detail/594916-bankomat-ceske-sporitelny-praha-hradcany.html","662"
"9","Lékárna","Dejvická lékárna ARNIKA","https://www.firmy.cz/detail/654778-dejvicka-lekarna-arnika-praha-dejvice.html","942"
"10","Vlak","Praha-Dejvice","https://mapy.cz/zakladni?x=14.3996359142&y=50.0969651071&z=17&source=pubt&id=15212556","936"
"11","Lékař","MUDr. Svatava Šedová","https://www.firmy.cz/detail/381442-mudr-svatava-sedova-praha-bubenec.html","222"
"12","Tram","Sparta","https://mapy.cz/zakladni?x=14.4160893338&y=50.0989446397&z=17&source=pubt&id=15302027","588"
"13","Škola","Obchodní akademie Praha 6, Krupkovo náměstí","https://www.firmy.cz/detail/362385-obchodni-akademie-praha-6-krupkovo-namesti-praha-bubenec.html","270"
"14","Pošta","Pošta Praha 7 - Česká pošta, s.p.","https://www.firmy.cz/detail/216716-posta-praha-7-praha-holesovice.html","972"
"15","Metro","Hradčanská","https://mapy.cz/zakladni?x=14.4040809797&y=50.0977309106&z=17&source=pubt&id=15200607","652"
"16","Restaurace","Restaurace Na Rozhraní","https://www.firmy.cz/detail/332139-restaurace-na-rozhrani-praha-dejvice.html","478"
"17","Obchod","Kaufland","https://www.firmy.cz/detail/12720219-kaufland-praha-dejvice.html","1617"
"18","Školka","Soukromá jazyková školka BUMBLE BEE","https://www.firmy.cz/detail/318821-soukroma-jazykova-skolka-bumble-bee-praha-bubenec.html","307"
"19","Sportoviště","Tělocvičná jednota Sokol Bubeneč","https://www.firmy.cz/detail/290310-telocvicna-jednota-sokol-bubenec-praha-bubenec.html","498"
