"","facility_type","facility_name","facility_iri","facility_distance"
"0","Cukrárna","Café Vlašský dvůr","https://www.firmy.cz/detail/2396886-cafe-vlassky-dvur-cesky-krumlov-vnitrni-mesto.html","1650"
"1","Kino","Kino Luna","https://www.firmy.cz/detail/12875377-kino-luna-cesky-krumlov-latran.html","1136"
"2","Hřiště","Dětské hřiště","","195"
"3","Večerka","Lidl","https://www.firmy.cz/detail/1902999-lidl-cesky-krumlov-domoradice.html","419"
"4","Divadlo","Městské divadlo Český Krumlov","https://www.firmy.cz/detail/322174-mestske-divadlo-cesky-krumlov-cesky-krumlov-horni-brana.html","1564"
"5","Hospoda","Klub Šnek","https://www.firmy.cz/detail/13110928-klub-snek-cesky-krumlov-latran.html","1265"
"6","Veterinář","Veterinární ordinace pro psy, kočky a exoty - MVDr. Libor Janouch","https://www.firmy.cz/detail/156625-veterinarni-ordinace-pro-psy-kocky-a-exoty-mvdr-libor-janouch-cesky-krumlov-domoradice.html","136"
"7","Bankomat","Bankomat UniCredit Bank Czech Republic","https://www.firmy.cz/detail/12963609-bankomat-unicredit-bank-czech-republic-cesky-krumlov-domoradice.html","101"
"8","Restaurace","Restaurace Plevno","https://www.firmy.cz/detail/2619584-restaurace-plevno-cesky-krumlov-domoradice.html","127"
"9","Lékárna","BENU Lékárna","https://www.firmy.cz/detail/12744490-benu-lekarna-cesky-krumlov-domoradice.html","373"
"10","Pošta","Pošta Český Krumlov 4 - Česká pošta, s.p.","https://www.firmy.cz/detail/217053-posta-cesky-krumlov-4-cesky-krumlov-domoradice.html","63"
"11","Lékař","MUDr. Vlasta Petříková","https://www.firmy.cz/detail/390235-mudr-vlasta-petrikova-cesky-krumlov-latran.html","1123"
"12","Sportoviště","Discgolf Jelení zahrada","","1338"
"13","Obchod","Kaufland","https://www.firmy.cz/detail/12700887-kaufland-cesky-krumlov-domoradice.html","331"
"14","Bus MHD","Český Krumlov, Plevno","","105"
"15","Vlak","Domoradice","","713"
"16","Škola","ZŠ Český Krumlov, Za Nádražím","https://www.firmy.cz/detail/356765-zs-cesky-krumlov-za-nadrazim-cesky-krumlov-nadrazni-predmesti.html","542"
"17","Školka","MŠ Český Krumlov, Za Nádražím","https://www.firmy.cz/detail/1995037-ms-cesky-krumlov-za-nadrazim-cesky-krumlov-nadrazni-predmesti.html","666"
