"","facility_type","facility_name","facility_iri","facility_distance"
"0","Cukrárna","U Olivy Jůzový","https://www.firmy.cz/detail/13150729-u-olivy-juzovy-brandys-nad-labem-stara-boleslav-brandys-nad-labem.html","116"
"1","Kino","Kino Brandýs nad Labem","https://www.firmy.cz/detail/12968784-kino-brandys-nad-labem-brandys-nad-labem-stara-boleslav-brandys-nad-labem.html","48"
"2","Hřiště","Dětské hřiště Lipová","","147"
"3","Večerka","Zváženo","https://www.firmy.cz/detail/13327130-zvazeno-brandys-nad-labem-stara-boleslav-brandys-nad-labem.html","91"
"4","Hospoda","Hospoda U Mnicha","https://www.firmy.cz/detail/2235382-hospoda-u-mnicha-brandys-nad-labem-stara-boleslav-brandys-nad-labem.html","185"
"5","Divadlo","Divadlo BlaMa","https://www.firmy.cz/detail/12760937-divadlo-blama-novy-vestec.html","4285"
"6","Veterinář","Veterinární nemocnice  Brandýs – VetPark,  MVDr. Dominik Vlach","https://www.firmy.cz/detail/402461-veterinarni-nemocnice-brandys-vetpark-mvdr-dominik-vlach-brandys-nad-labem-stara-boleslav-brandys-nad-labem.html","277"
"7","Lékař","MUDr. Pavlína Lichtenberková","https://www.firmy.cz/detail/13272779-mudr-pavlina-lichtenberkova-brandys-nad-labem-stara-boleslav-brandys-nad-labem.html","400"
"8","Vlak","Brandýs nad Labem","","353"
"9","Školka","Miniškolka Sluníčko - Jana Popperová","https://www.firmy.cz/detail/12801883-miniskolka-slunicko-brandys-nad-labem-stara-boleslav.html","133"
"10","Bus MHD","Brandýs n.L.-St.Bol., Nám.","","168"
"11","Škola","ZUŠ Brandýs n. L. - Stará Boleslav","https://www.firmy.cz/detail/399107-zus-brandys-n-l-stara-boleslav-brandys-nad-labem-stara-boleslav-brandys-nad-labem.html","336"
"12","Lékárna","Dr. Max","https://www.firmy.cz/detail/12856992-dr-max-brandys-nad-labem-stara-boleslav-brandys-nad-labem.html","151"
"13","Pošta","Pošta Brandýs nad Labem-Stará Boleslav 1 - Česká pošta, s.p.","https://www.firmy.cz/detail/217389-posta-brandys-nad-labem-stara-boleslav-1-brandys-nad-labem-stara-boleslav-brandys-nad-labem.html","399"
"14","Bankomat","Bankomat UniCredit Bank Czech Republic","https://www.firmy.cz/detail/12768054-bankomat-unicredit-bank-czech-republic-brandys-nad-labem-stara-boleslav-brandys-nad-labem.html","91"
"15","Sportoviště","Sportcentrum Brandýs s.r.o.","https://www.firmy.cz/detail/12877109-sportcentrum-brandys-s-r-o-brandys-nad-labem-stara-boleslav-brandys-nad-labem.html","598"
"16","Restaurace","RESTAURACE DE PARADE","https://www.firmy.cz/detail/13069980-restaurace-de-parade-brandys-nad-labem-stara-boleslav-brandys-nad-labem.html","102"
"17","Obchod","Kaufland","https://www.firmy.cz/detail/12982561-kaufland-brandys-nad-labem-stara-boleslav-brandys-nad-labem.html","1160"
