"","facility_type","facility_name","facility_iri","facility_distance"
"0","Hřiště","Dětské hřiště Jetýlek","https://mapy.cz/zakladni?x=13.3915492&y=49.7312283&z=17&source=base&id=2066895","199"
"1","Hospoda","Hemingway Pub","https://www.firmy.cz/detail/2456163-hemingway-pub-plzen-vychodni-predmesti.html","622"
"2","Večerka","Večerka Jedlová","https://www.firmy.cz/detail/13318863-vecerka-jedlova-plzen-vychodni-predmesti.html","275"
"3","Cukrárna","Cukrárna Na Slovanské","https://www.firmy.cz/detail/13108931-cukrarna-na-slovanske-plzen-vychodni-predmesti.html","181"
"4","Divadlo","Divadelní spolek Jezírko","https://www.firmy.cz/detail/740611-divadelni-spolek-jezirko-plzen-vychodni-predmesti.html","1518"
"5","Kino","Kino Beseda","https://www.firmy.cz/detail/12773769-kino-beseda-plzen-jizni-predmesti.html","1622"
"6","Veterinář","Veterinární ordinace Slovany","https://www.firmy.cz/detail/470912-veterinarni-ordinace-slovany-plzen-vychodni-predmesti.html","411"
"7","Tram","Liliová","https://mapy.cz/zakladni?x=13.3918998726&y=49.7331582389&z=17&source=pubt&id=15697582","135"
"8","Lékař","MUDr. Kopřivová s.r.o.","https://www.firmy.cz/detail/12840477-mudr-koprivova-s-r-o-plzen-vychodni-predmesti.html","299"
"9","Restaurace","Pomodori","https://www.firmy.cz/detail/13241033-pomodori-plzen-vychodni-predmesti.html","164"
"10","Vlak","Plzeň zastávka","https://mapy.cz/zakladni?x=13.3748885558&y=49.7367210329&z=17&source=pubt&id=15212473","1180"
"11","Bus MHD","Poliklinika Slovany","https://mapy.cz/zakladni?x=13.39852563952266&y=49.73268222703253&z=17&source=pubt&id=15697829","604"
"12","Bankomat","Bankomat České spořitelny","https://www.firmy.cz/detail/12737502-bankomat-ceske-sporitelny-plzen-vychodni-predmesti.html","675"
"13","Sportoviště","Tělocvičná jednota Sokol Plzeň V","https://www.firmy.cz/detail/2071669-telocvicna-jednota-sokol-plzen-v-plzen-vychodni-predmesti.html","251"
"14","Pošta","Pošta Plzeň 8 - Česká pošta, s.p.","https://www.firmy.cz/detail/216660-posta-plzen-8-plzen-vychodni-predmesti.html","571"
"15","Lékárna","Lékárna Fontána","https://www.firmy.cz/detail/2343537-lekarna-fontana-plzen-vychodni-predmesti.html","158"
"16","Obchod","Galerie Slovany, s.r.o.","https://www.firmy.cz/detail/2301407-galerie-slovany-plzen-vychodni-predmesti.html","796"
"17","Školka","89. mateřská škola Plzeň, Habrová 8","https://www.firmy.cz/detail/1345329-89-materska-skola-plzen-habrova-8-plzen-vychodni-predmesti.html","239"
"18","Škola","Masarykova ZŠ Plzeň","https://www.firmy.cz/detail/356112-masarykova-zs-plzen-plzen-vychodni-predmesti.html","321"
