"","facility_type","facility_name","facility_iri","facility_distance"
"0","Cukrárna","Deli by Lagarto","https://www.firmy.cz/detail/13152015-deli-by-lagarto-most.html","83"
"1","Kino","Kino Kosmos","https://www.firmy.cz/detail/401279-kino-kosmos-most.html","713"
"2","Hřiště","Dětské hřiště M. G. Dobnera","","53"
"3","Večerka","Můj obchod - DVFikko","https://www.firmy.cz/detail/13246599-muj-obchod-dvfikko-most.html","167"
"4","Hospoda","Hospůdka U Cibicha","https://www.firmy.cz/detail/12875459-hospudka-u-cibicha-most.html","268"
"5","Divadlo","Městské divadlo v Mostě, spol. s r.o.","https://www.firmy.cz/detail/1336052-mestske-divadlo-v-moste-most.html","342"
"6","Veterinář","VETERINA-MOST","https://www.firmy.cz/detail/12832535-veterina-most-most.html","331"
"7","Škola","8.ZŠ Most","https://www.firmy.cz/detail/358334-8-zs-most-most.html","205"
"8","Bankomat","Vkladomat mBank","https://www.firmy.cz/detail/13133131-vkladomat-mbank-most.html","88"
"9","Obchod","Central Most","https://www.firmy.cz/detail/2412415-central-most-most.html","272"
"10","Sportoviště","TJ Slavia Most","https://www.firmy.cz/detail/2648769-tj-slavia-most-most.html","509"
"11","Tram","Most, 1.nám.","","246"
"12","Lékař","MUDr. Roman Houska","https://www.firmy.cz/detail/12806009-mudr-roman-houska-most.html","97"
"13","Lékárna","Mgr. Jaroslava Němečková, s.r.o.","https://www.firmy.cz/detail/13209831-mgr-jaroslava-nemeckova-most.html","231"
"14","Vlak","Most","","1700"
"15","Restaurace","Viet-Thai Food","https://www.firmy.cz/detail/13299975-viet-thai-food-most.html","159"
"16","Pošta","Pošta Most 1 - Česká pošta, s.p.","https://www.firmy.cz/detail/216966-posta-most-1-most.html","408"
"17","Bus MHD","Most, 1.nám.","","193"
"18","Školka","MŠ Most, Vítězslava Nezvala","https://www.firmy.cz/detail/2281903-ms-most-vitezslava-nezvala-most.html","143"
