"","facility_type","facility_name","facility_iri","facility_distance"
"0","Hřiště","Dětské hřiště Gagarinova","https://mapy.cz/zakladni?x=15.040101234358588&y=50.750475794298005&z=17&source=base&id=2325127","134"
"1","Přírodní zajímavost","Opičák","https://mapy.cz/zakladni?x=15.0248686111&y=50.7720466667&z=17&source=base&id=1978555","2548"
"2","Hospoda","U Řeháčků","https://www.firmy.cz/detail/13150772-u-rehacku-liberec-viii-dolni-hanychov.html","433"
"3","Cukrárna","Cukrárna v DM","https://www.firmy.cz/detail/13113604-cukrarna-v-dm-liberec-iii-jerab.html","973"
"4","Veterinář","MVDr. Hana Nováková","https://www.firmy.cz/detail/2476337-mvdr-hana-novakova-liberec-vii-horni-ruzodol.html","73"
"5","Kino","CineStar Liberec","https://www.firmy.cz/detail/2423444-cinestar-liberec-liberec-xxiii-doubi.html","1282"
"6","Večerka","Potraviny U Michala","https://www.firmy.cz/detail/13205315-potraviny-u-michala-liberec-vi-rochlice.html","293"
"7","Divadlo","Naivní divadlo Liberec","https://www.firmy.cz/detail/230860-naivni-divadlo-liberec-liberec-iv-perstyn.html","2335"
"8","Bus MHD","Kubelíkova","https://mapy.cz/zakladni?x=15.0330034333&y=50.7502107784&z=17&source=pubt&id=15204033","374"
"9","Sportoviště","Koupaliště Vápenka","https://www.firmy.cz/detail/236809-koupaliste-vapenka-liberec-vii-horni-ruzodol.html","485"
"10","Lékárna","Lékárna Svět","https://www.firmy.cz/detail/2503344-lekarna-svet-liberec-vii-horni-ruzodol-liberec-7.html","292"
"11","Tram","Janův Důl","https://mapy.cz/zakladni?x=15.0374602116809&y=50.7529904818671&z=17&source=pubt&id=15699438","255"
"12","Lékař","MUDr. Hana Baaderová","https://www.firmy.cz/detail/380146-mudr-hana-baaderova-liberec-vii-horni-ruzodol.html","273"
"13","Restaurace","Restaurace Horizont","https://www.firmy.cz/detail/643433-restaurace-horizont-liberec-vii-horni-ruzodol.html","331"
"14","Obchod","Kaufland","https://www.firmy.cz/detail/2198571-kaufland-liberec-vii-horni-ruzodol.html","1229"
"15","Pošta","Pošta Liberec 7 - Česká pošta, s.p.","https://www.firmy.cz/detail/215257-posta-liberec-7-liberec-vii-horni-ruzodol.html","613"
"16","Bankomat","Bankomat České spořitelny","https://www.firmy.cz/detail/593145-bankomat-ceske-sporitelny-liberec-vii-horni-ruzodol.html","352"
"17","Školka","Mateřská škola ""Hvězdička"", Liberec, Gagarinova 788/9","https://www.firmy.cz/detail/13230849-materska-skola-hvezdicka-liberec-gagarinova-788-9-liberec-vi-rochlice.html","160"
"18","Vlak","Liberec-Horní Růžodol","https://mapy.cz/zakladni?x=15.032938455&y=50.7535651429&z=17&source=pubt&id=15211939","487"
"19","Škola","Gymnázium a Střední odborná škola pedagogická Liberec","https://www.firmy.cz/detail/361861-gymnazium-a-stredni-odborna-skola-pedagogicka-liberec-liberec-vii-horni-ruzodol.html","625"
