"","facility_type","facility_name","facility_iri","facility_distance"
"0","Cukrárna","Orchard I","https://www.firmy.cz/detail/12956520-orchard-i-ostrava-moravska-ostrava.html","567"
"1","Kino","CineStar Ostrava","https://www.firmy.cz/detail/661182-cinestar-ostrava-ostrava-moravska-ostrava.html","624"
"2","Přírodní zajímavost","Uhelná sloj v Landeku","","3383"
"3","Hřiště","Dětské hřiště Varenská","","98"
"4","Večerka","Můjobchod - Potraviny MM","https://www.firmy.cz/detail/12959389-mujobchod-potraviny-mm-ostrava-moravska-ostrava.html","369"
"5","Hospoda","U Hejtmana","https://www.firmy.cz/detail/13264862-u-hejtmana-ostrava-moravska-ostrava.html","685"
"6","Divadlo","Loutkový svět","https://www.firmy.cz/detail/13033024-loutkovy-svet-ostrava-moravska-ostrava.html","518"
"7","Veterinář","Veterinární ordinace - MVDr. Richard Saviola","https://www.firmy.cz/detail/477150-veterinarni-ordinace-mvdr-richard-saviola-ostrava-moravska-ostrava.html","688"
"8","Bankomat","Bankomat České spořitelny","https://www.firmy.cz/detail/13170037-bankomat-ceske-sporitelny-ostrava-moravska-ostrava.html","465"
"9","Vlak","Ostrava-Stodolní","","703"
"10","Lékař","MODASKO MEDITECH s.r.o.","https://www.firmy.cz/detail/13282614-modasko-meditech-s-r-o-ostrava-moravska-ostrava.html","114"
"11","Školka","MŠ Ostrava, Varenská","https://www.firmy.cz/detail/2152618-ms-ostrava-varenska-ostrava-moravska-ostrava.html","88"
"12","Sportoviště","Tělovýchovná jednota Ostrava","https://www.firmy.cz/detail/463734-telovychovna-jednota-ostrava-ostrava-moravska-ostrava.html","283"
"13","Restaurace","Hospůdka u kurtů","https://www.firmy.cz/detail/13233341-hospudka-u-kurtu-ostrava-moravska-ostrava.html","283"
"14","Lékárna","Lékárna U Zlatého raka","https://www.firmy.cz/detail/12944855-lekarna-u-zlateho-raka-ostrava-moravska-ostrava.html","410"
"15","Obchod","Tesco","https://www.firmy.cz/detail/733902-tesco-ostrava-moravska-ostrava.html","691"
"16","Tram","Krajský úřad","","716"
"17","Bus MHD","Stan. záchr. služby","","232"
"18","Pošta","Pošta Ostrava 42 - Česká pošta, s.p.","https://www.firmy.cz/detail/433371-posta-ostrava-42-ostrava-moravska-ostrava.html","674"
"19","Škola","IUVENTAS - Soukromé gymnázium a Střední odborná škola, s.r.o.","https://www.firmy.cz/detail/652139-iuventas-soukrome-gymnazium-a-stredni-odborna-skola-ostrava-moravska-ostrava.html","508"
