"","facility_type","facility_name","facility_iri","facility_distance"
"0","Cukrárna","Černý kafe coffee | bar","https://www.firmy.cz/detail/13229229-cerny-kafe-coffee-bar-ceske-budejovice-7.html","1144"
"1","Hřiště","Dětské hřiště","","308"
"2","Kino","Kino Kotva","https://www.firmy.cz/detail/2525705-kino-kotva-ceske-budejovice-7.html","1147"
"3","Večerka","Supermarket Trefa","https://www.firmy.cz/detail/2170182-supermarket-trefa-ceske-budejovice-6.html","367"
"4","Hospoda","U Malého jezu","https://www.firmy.cz/detail/13112998-u-maleho-jezu-ceske-budejovice-7.html","629"
"5","Divadlo","Jihočeské divadlo","https://www.firmy.cz/detail/230815-jihoceske-divadlo-ceske-budejovice-1.html","1703"
"6","Veterinář","MVDr. Kateřina Košťálová","https://www.firmy.cz/detail/12832984-mvdr-katerina-kostalova-ceske-budejovice-6.html","377"
"7","Sportoviště","Pétanque Roudenská","","642"
"8","Lékař","Lefanová Hana MUDr. - praktický lékař","https://www.firmy.cz/detail/303928-lefanova-hana-mudr-prakticky-lekar-ceske-budejovice-6.html","315"
"9","Školka","Jesle a Školka DC Mláďátka","https://www.firmy.cz/detail/12923207-jesle-a-skolka-dc-mladatka-ceske-budejovice-6.html","79"
"10","Pošta","Pošta České Budějovice 8 - Česká pošta, s.p.","https://www.firmy.cz/detail/215221-posta-ceske-budejovice-8-ceske-budejovice-6.html","473"
"11","Škola","ZŠ a MŠ České Budějovice, Vl. Rady","https://www.firmy.cz/detail/356749-zs-a-ms-ceske-budejovice-vl-rady-ceske-budejovice-6.html","337"
"12","Vlak","České Budějovice jižní zastávka","","765"
"13","Restaurace","Hostinec U Handlíře","https://www.firmy.cz/detail/12712940-hostinec-u-handlire-ceske-budejovice-6.html","183"
"14","Lékárna","EUC Lékárna","https://www.firmy.cz/detail/13035889-euc-lekarna-ceske-budejovice-7.html","1108"
"15","Bus MHD","Havlíčkova kolonie - Aspera","","281"
"16","Obchod","Albert Hypermarket","https://www.firmy.cz/detail/1357577-albert-hypermarket-ceske-budejovice-6.html","1524"
"17","Bankomat","Bankomat České spořitelny","https://www.firmy.cz/detail/591954-bankomat-ceske-sporitelny-ceske-budejovice-7.html","1028"
