"","facility_type","facility_name","facility_iri","facility_distance"
"0","Cukrárna","Kavárna Láry Fáry","https://www.firmy.cz/detail/12797398-kavarna-lary-fary-rychnov-nad-kneznou.html","360"
"1","Kino","Městské kino Rychnov nad Kněžnou","https://www.firmy.cz/detail/12723414-mestske-kino-rychnov-nad-kneznou-rychnov-nad-kneznou.html","424"
"2","Hřiště","Dětské hřiště Zámecký park","","464"
"3","Večerka","Lidl","https://www.firmy.cz/detail/1912113-lidl-rychnov-nad-kneznou.html","356"
"4","Hospoda","Chalupa Na Plácku","https://www.firmy.cz/detail/12905124-chalupa-na-placku-rychnov-nad-kneznou.html","235"
"5","Divadlo","Pelclovo divadlo","https://www.firmy.cz/detail/661454-pelclovo-divadlo-rychnov-nad-kneznou.html","360"
"6","Veterinář","MVDr. Ladislav Boleček","https://www.firmy.cz/detail/12825925-mvdr-ladislav-bolecek-rychnov-nad-kneznou.html","872"
"7","Pošta","Pošta Rychnov nad Kněžnou - Česká pošta, s.p.","https://www.firmy.cz/detail/215696-posta-rychnov-nad-kneznou-rychnov-nad-kneznou.html","473"
"8","Vlak","Rychnov nad Kněžnou zast.","","48"
"9","Lékárna","Lékárna v nemocnici Rychnov nad Kněžnou","https://www.firmy.cz/detail/12755817-lekarna-v-nemocnici-rychnov-nad-kneznou-rychnov-nad-kneznou.html","224"
"10","Lékař","MUDr. Karel Jakoubek","https://www.firmy.cz/detail/387891-mudr-karel-jakoubek-rychnov-nad-kneznou.html","277"
"11","Obchod","Obchodní dům HEL","https://www.firmy.cz/detail/1946203-obchodni-dum-hel-rychnov-nad-kneznou.html","446"
"12","Škola","ZŠ a Praktická škola Rychnov nad Kněžnou, Kolowratská","https://www.firmy.cz/detail/1966694-zs-a-prakticka-skola-rychnov-nad-kneznou-kolowratska-rychnov-nad-kneznou.html","246"
"13","Bus MHD","Rychnov nad Kněžnou, tiskárna","","204"
"14","Restaurace","Fast Food Pizzerie Piccolo","https://www.firmy.cz/detail/12905132-fast-food-pizzerie-piccolo-rychnov-nad-kneznou.html","290"
"15","Sportoviště","SHIN-KYO","https://www.firmy.cz/detail/2304201-shin-kyo-rychnov-nad-kneznou.html","438"
"16","Školka","MŠ Láň Rychnov nad Kněžnou","https://www.firmy.cz/detail/2150498-ms-lan-rychnov-nad-kneznou-rychnov-nad-kneznou.html","143"
"17","Bankomat","Bankomat Komerční banky","https://www.firmy.cz/detail/592553-bankomat-komercni-banky-rychnov-nad-kneznou.html","374"
