"","facility_type","facility_name","facility_iri","facility_distance"
"0","Hřiště","Dětské hřiště U Brány","https://mapy.cz/zakladni?x=15.5865043638&y=49.3952793668&z=17&source=base&id=1927628","95"
"1","Přírodní zajímavost","Pístovské mokřady","https://mapy.cz/zakladni?x=15.5664288889&y=49.3729183333&z=17&source=base&id=1981399","2973"
"2","Hospoda","Hospoda pod věží","https://www.firmy.cz/detail/13141183-hospoda-pod-vezi-jihlava.html","77"
"3","Kino","Kino Dukla","https://www.firmy.cz/detail/12792238-kino-dukla-jihlava.html","197"
"4","Večerka","Levné potraviny - DKS Morava s.r.o.","https://www.firmy.cz/detail/13026425-levne-potraviny-dks-morava-s-r-o-jihlava.html","124"
"5","Veterinář","Veterinární ordinace Jihlava - MVDr. Marcela Cecchinato","https://www.firmy.cz/detail/12871130-veterinarni-ordinace-jihlava-mvdr-marcela-cecchinato-jihlava.html","252"
"6","Cukrárna","Pikolino","https://www.firmy.cz/detail/13271448-pikolino-jihlava.html","55"
"7","Divadlo","Horácké divadlo Jihlava","https://www.firmy.cz/detail/396913-horacke-divadlo-jihlava-jihlava.html","294"
"8","Škola","Gymnázium Jihlava","https://www.firmy.cz/detail/362295-gymnazium-jihlava-jihlava.html","247"
"9","Lékař","MUDr. VOSÁHLOVÁ s.r.o.","https://www.firmy.cz/detail/13169378-mudr-vosahlova-s-r-o-jihlava.html","22"
"10","Školka","Mateřská škola Zvoněnka, Dvořákova 11","https://www.firmy.cz/detail/1889501-materska-skola-zvonenka-dvorakova-11-jihlava.html","230"
"11","Sportoviště","Krajský volejbalový svaz Vysočina","https://www.firmy.cz/detail/13077065-krajsky-volejbalovy-svaz-vysocina-jihlava.html","138"
"12","Bankomat","Bankomat České spořitelny","https://www.firmy.cz/detail/592930-bankomat-ceske-sporitelny-jihlava.html","16"
"13","Bus MHD","Hradební","https://mapy.cz/zakladni?x=15.586570788932221&y=49.394430589291076&z=17&source=pubt&id=17862637","176"
"14","Vlak","Jihlava město","https://mapy.cz/zakladni?x=15.5833962525&y=49.4039717279&z=17&source=pubt&id=15211652","938"
"15","Restaurace","Pizzeria-Ristorante Venezia","https://www.firmy.cz/detail/634860-pizzeria-ristorante-venezia-jihlava.html","18"
"16","Lékárna","Lékárna Tilia","https://www.firmy.cz/detail/658480-lekarna-tilia-jihlava.html","22"
"17","Obchod","PRIOR ČESKÁ REPUBLIKA s.r.o.","https://www.firmy.cz/detail/1956976-prior-ceska-republika-s-r-o-jihlava.html","271"
"18","Pošta","Pošta Jihlava 1 - Česká pošta, s.p.","https://www.firmy.cz/detail/215534-posta-jihlava-1-jihlava.html","207"
