"","facility_type","facility_name","facility_iri","facility_distance"
"0","Cukrárna","Cukrárna Pralinka","https://www.firmy.cz/detail/626458-cukrarna-pralinka-praha-vrsovice.html","325"
"1","Kino","HopeTV","https://www.firmy.cz/detail/672889-hopetv-praha-vinohrady.html","1626"
"2","Přírodní zajímavost","Meandry Rokytky","","5886"
"3","Hřiště","Dětské hřiště Přípotoční","","313"
"4","Večerka","Tesco Expres","https://www.firmy.cz/detail/2564843-tesco-expres-praha-nusle.html","572"
"5","Hospoda","Hostinec U Parku","https://www.firmy.cz/detail/337032-hostinec-u-parku-praha-nusle.html","699"
"6","Divadlo","Divadelní společnost Josefa Dvořáka","https://www.firmy.cz/detail/396839-divadelni-spolecnost-josefa-dvoraka-praha-vrsovice.html","910"
"7","Veterinář","MVDr. Linda Kadlečková","https://www.firmy.cz/detail/2160158-mvdr-linda-kadleckova-praha-vrsovice.html","323"
"8","Školka","MŠ Praha 4, K Podjezdu","https://www.firmy.cz/detail/663384-ms-praha-4-k-podjezdu-praha-michle.html","435"
"9","Bankomat","Bankomat České spořitelny","https://www.firmy.cz/detail/2464132-bankomat-ceske-sporitelny-praha-vrsovice.html","526"
"10","Škola","Gymnázium Přípotoční","https://www.firmy.cz/detail/362398-gymnazium-pripotocni-praha-vrsovice.html","112"
"11","Metro","Jiřího z Poděbrad","","1395"
"12","Pošta","Pošta Praha 101 - Česká pošta, s.p.","https://www.firmy.cz/detail/431434-posta-praha-101-praha-vrsovice.html","295"
"13","Obchod","Tesco Extra","https://www.firmy.cz/detail/733906-tesco-extra-praha-vrsovice.html","1125"
"14","Bus MHD","Ukrajinská","","62"
"15","Vlak","Praha-Vršovice","","399"
"16","Tram","Bohemians","","172"
"17","Lékař","MUDr. Natalie Brožová","https://www.firmy.cz/detail/387367-mudr-natalie-brozova-praha-vrsovice.html","179"
"18","Lékárna","Lékárna Lemon","https://www.firmy.cz/detail/423012-lekarna-lemon-praha-vrsovice.html","522"
"19","Restaurace","Restaurace U Pepíčka","https://www.firmy.cz/detail/272235-restaurace-u-pepicka-praha-vrsovice.html","313"
"20","Sportoviště","Tělovýchovná jednota Lokomotiva Vršovice, z.s.","https://www.firmy.cz/detail/2648471-telovychovna-jednota-lokomotiva-vrsovice-z-s-praha-vrsovice.html","196"
