"","facility_type","facility_name","facility_iri","facility_distance"
"0","Cukrárna","Cukrárna U Janovských","https://www.firmy.cz/detail/2005359-cukrarna-u-janovskych-nove-mesto-na-morave.html","1170"
"1","Hřiště","Dětské hřiště Mírová","","291"
"2","Večerka","Lidl","https://www.firmy.cz/detail/1944817-lidl-nove-mesto-na-morave.html","463"
"3","Hospoda","Hospoda Tyršova 1345","https://www.firmy.cz/detail/13118830-hospoda-tyrsova-1345-nove-mesto-na-morave.html","532"
"4","Veterinář","MVDr. Jiří Kutal","https://www.firmy.cz/detail/12826209-mvdr-jiri-kutal-nove-mesto-na-morave.html","457"
"5","Bus MHD","Nové Město na Moravě, Holubka","","197"
"6","Pošta","Pošta Nové Město na Moravě - Česká pošta, s.p.","https://www.firmy.cz/detail/216270-posta-nove-mesto-na-morave-nove-mesto-na-morave.html","812"
"7","Sportoviště","Sportovní hala Nové Město na Moravě","https://www.firmy.cz/detail/13308485-sportovni-hala-nove-mesto-na-morave-nove-mesto-na-morave.html","601"
"8","Škola","Středisko teoretické výuky - SOŠ Nové Město na Moravě","https://www.firmy.cz/detail/362703-stredisko-teoreticke-vyuky-sos-nove-mesto-na-morave-nove-mesto-na-morave.html","329"
"9","Lékař","MUDr. Lukáš Koutný","https://www.firmy.cz/detail/12832592-mudr-lukas-koutny-nove-mesto-na-morave.html","369"
"10","Lékárna","LÉKÁRNA U SALVÁTORA","https://www.firmy.cz/detail/376480-lekarna-u-salvatora-nove-mesto-na-morave.html","1064"
"11","Vlak","Nové Město na Moravě","","419"
"12","Bankomat","Bankomat ČSOB","https://www.firmy.cz/detail/599237-bankomat-csob-nove-mesto-na-morave.html","812"
"13","Restaurace","Restaurace Vrchovina","https://www.firmy.cz/detail/2585332-restaurace-vrchovina-nove-mesto-na-morave.html","332"
"14","Školka","MŠ Nové Město na Moravě","https://www.firmy.cz/detail/2138587-ms-nove-mesto-na-morave-nove-mesto-na-morave.html","509"
