"","facility_type","facility_name","facility_iri","facility_distance"
"0","Cukrárna","Cukrářství Duo","https://www.firmy.cz/detail/1963308-cukrarstvi-duo-usti-nad-labem-krasne-brezno.html","2025"
"1","Kino","Kino Povrly","https://www.firmy.cz/detail/12924364-kino-povrly-povrly.html","3841"
"2","Hřiště","Dětské hřiště Opletalova","","406"
"3","Večerka","Albert Supermarket","https://www.firmy.cz/detail/652939-albert-supermarket-usti-nad-labem-nestemice.html","201"
"4","Hospoda","Pivnice RENO","https://www.firmy.cz/detail/12903303-pivnice-reno-usti-nad-labem.html","502"
"5","Divadlo","Činoherní studio města Ústí nad Labem","https://www.firmy.cz/detail/13085276-cinoherni-studio-mesta-usti-nad-labem-usti-nad-labem-strekov.html","4563"
"6","Veterinář","MVDr. Lubomír Vojtek","https://www.firmy.cz/detail/274104-mvdr-lubomir-vojtek-usti-nad-labem-krasne-brezno.html","3307"
"7","Lékárna","Lékárna Neštěmice","https://www.firmy.cz/detail/12912000-lekarna-nestemice-usti-nad-labem-nestemice.html","64"
"8","Školka","MŠ Neštěmice","https://www.firmy.cz/detail/1523408-ms-nestemice-usti-nad-labem-nestemice.html","83"
"9","Bus MHD","Neštěmice, sídliště","","102"
"10","Vlak","Neštěmice","","219"
"11","Lékař","MEDITEM, s.r.o.","https://www.firmy.cz/detail/12777568-meditem-usti-nad-labem-nestemice.html","76"
"12","Restaurace","Restaurace Houba","https://www.firmy.cz/detail/13138308-restaurace-houba-usti-nad-labem-nestemice.html","84"
"13","Škola","ZŠ Ústí nad Labem, Hluboká","https://www.firmy.cz/detail/359861-zs-usti-nad-labem-hluboka-usti-nad-labem-nestemice.html","200"
"14","Pošta","Pošta Ústí nad Labem 16 - Česká pošta, s.p.","https://www.firmy.cz/detail/432251-posta-usti-nad-labem-16-usti-nad-labem-nestemice.html","369"
"15","Bankomat","Bankomat České spořitelny","https://www.firmy.cz/detail/2291342-bankomat-ceske-sporitelny-usti-nad-labem-krasne-brezno.html","2270"
"16","Sportoviště","Tenis kurty Vyhlídka","https://www.firmy.cz/detail/2665321-tenis-kurty-vyhlidka-usti-nad-labem.html","1253"
