"","facility_type","facility_name","facility_iri","facility_distance"
"0","Cukrárna","Bread gap - fresh sandwiches","https://www.firmy.cz/detail/12709423-bread-gap-fresh-sandwiches-praha-mala-strana.html","246"
"1","Kino","Kino Ponrepo","https://www.firmy.cz/detail/396455-kino-ponrepo-praha-stare-mesto.html","1360"
"2","Hřiště","Dětské hřiště Vlašská","","235"
"3","Večerka","Potraviny Karmelitská 270","https://www.firmy.cz/detail/2219817-potraviny-karmelitska-270-praha-mala-strana.html","303"
"4","Divadlo","Divadlo Inspirace","https://www.firmy.cz/detail/2210309-divadlo-inspirace-praha-mala-strana.html","198"
"5","Hospoda","U hrocha","https://www.firmy.cz/detail/336158-u-hrocha-praha-mala-strana.html","325"
"6","Veterinář","MVDr. Katka Sviták Novozámská","https://www.firmy.cz/detail/2137713-mvdr-katka-svitak-novozamska-praha-stare-mesto.html","1219"
"7","Restaurace","Restaurace Constans","https://www.firmy.cz/detail/2651641-restaurace-constans-praha-mala-strana.html","32"
"8","Bus MHD","Šporkova","","123"
"9","Lékař","MUDr. Miroslava Chromá - praktický lékař pro dospělé","https://www.firmy.cz/detail/385911-mudr-miroslava-chroma-prakticky-lekar-pro-dospele-praha-mala-strana.html","26"
"10","Vlak","Praha-Dejvice","","1071"
"11","Školka","MŠ Praha 1, Hellichova","https://www.firmy.cz/detail/406822-ms-praha-1-hellichova-praha-mala-strana.html","427"
"12","Pošta","Pošta Praha 012 - Česká pošta, s.p.","https://www.firmy.cz/detail/217498-posta-praha-012-praha-hradcany.html","319"
"13","Tram","Malostranské náměstí","","339"
"14","Škola","Akademie múzických umění v Praze","https://www.firmy.cz/detail/362817-akademie-muzickych-umeni-v-praze-praha-mala-strana.html","191"
"15","Sportoviště","České vysoké učení technické v Praze - Venkovní umělá lezecká stěna - koleje Strahov","https://www.firmy.cz/detail/2220538-ceske-vysoke-uceni-technicke-v-praze-venkovni-umela-lezecka-stena-koleje-strahov-praha-brevnov.html","950"
"16","Metro","Malostranská","","800"
"17","Obchod","palác metro","https://www.firmy.cz/detail/143339-palac-metro-praha-stare-mesto.html","1435"
"18","Lékárna","Lék.Nem.Milosrd.sester sv.K.Boromejského v Praze","https://www.firmy.cz/detail/2307552-lek-nem-milosrd-sester-sv-k-boromejskeho-v-praze-praha-mala-strana.html","248"
"19","Bankomat","Bankomat České spořitelny","https://www.firmy.cz/detail/594284-bankomat-ceske-sporitelny-praha-mala-strana.html","376"
