"","facility_type","facility_name","facility_iri","facility_distance"
"0","Cukrárna","Cheecup","https://www.firmy.cz/detail/12725253-cheecup-praha-podoli.html","132"
"1","Přírodní zajímavost","Kovářovic mez","","4613"
"2","Kino","HopeTV","https://www.firmy.cz/detail/672889-hopetv-praha-vinohrady.html","1935"
"3","Hřiště","Dětské hřiště Nedvědovo náměstí","","88"
"4","Večerka","Potraviny U Oulehlů","https://www.firmy.cz/detail/2340751-potraviny-u-oulehlu-praha.html","152"
"5","Hospoda","BEER BAR Na Veseli","https://www.firmy.cz/detail/2553652-beer-bar-na-veseli-praha-nusle.html","1402"
"6","Divadlo","TotO Divadlo","https://www.firmy.cz/detail/2262258-toto-divadlo-praha-nusle.html","689"
"7","Veterinář","MVDr. Lucie Boháčová","https://www.firmy.cz/detail/2646562-mvdr-lucie-bohacova-praha-podoli.html","204"
"8","Restaurace","Restaurace U Dragouna","https://www.firmy.cz/detail/335878-restaurace-u-dragouna-praha-podoli.html","111"
"9","Bus MHD","Doliny","","116"
"10","Školka","MŠ Praha 4, Voráčovská","https://www.firmy.cz/detail/628792-ms-praha-4-voracovska-praha-podoli.html","405"
"11","Bankomat","Bankomat Komerční banky","https://www.firmy.cz/detail/1348730-bankomat-komercni-banky-praha-podoli.html","81"
"12","Vlak","Praha-Smíchov","","1068"
"13","Lékárna","Lékárna v Podolí, s.r.o.","https://www.firmy.cz/detail/269503-lekarna-v-podoli-praha-podoli.html","198"
"14","Lékař","MUDr. Nina Vajshajtlová","https://www.firmy.cz/detail/389349-mudr-nina-vajshajtlova-praha-podoli.html","198"
"15","Metro","Vyšehrad","","836"
"16","Škola","ZŠ Praha 4, Nedvědovo náměstí","https://www.firmy.cz/detail/401410-zs-praha-4-nedvedovo-namesti-praha-podoli.html","51"
"17","Sportoviště","Tenisový klub START PRAHA - TOPOLKA, z. s.","https://www.firmy.cz/detail/662927-tenisovy-klub-start-praha-topolka-z-s-praha-nusle.html","277"
"18","Tram","Podolská vodárna","","201"
"19","Obchod","Arkády Pankrác","https://www.firmy.cz/detail/2245240-arkady-pankrac-praha-nusle.html","1354"
"20","Pošta","Pošta Praha 49 - Česká pošta, s.p.","https://www.firmy.cz/detail/217479-posta-praha-49-praha-podoli.html","108"
