"","facility_type","facility_name","facility_iri","facility_distance"
"0","Cukrárna","Choco Café","https://www.firmy.cz/detail/2288649-choco-cafe-praha-stare-mesto.html","310"
"1","Kino","Kino Ponrepo","https://www.firmy.cz/detail/396455-kino-ponrepo-praha-stare-mesto.html","249"
"2","Přírodní zajímavost","Kovářovic mez","","5700"
"3","Hřiště","Dětské hřiště most Legií","","298"
"4","Večerka","MANNI MINI MARKET","https://www.firmy.cz/detail/2609033-manni-mini-market-praha-nove-mesto.html","548"
"5","Divadlo","Divadlo Viola","https://www.firmy.cz/detail/177500-divadlo-viola-praha-stare-mesto.html","83"
"6","Hospoda","Prague Beer Museum","https://www.firmy.cz/detail/12720695-prague-beer-museum-praha-stare-mesto.html","323"
"7","Veterinář","MVDr. Katka Sviták Novozámská","https://www.firmy.cz/detail/2137713-mvdr-katka-svitak-novozamska-praha-stare-mesto.html","360"
"8","Restaurace","Divadelní restaurace Slavia","https://www.firmy.cz/detail/2156602-divadelni-restaurace-slavia-praha-stare-mesto.html","95"
"9","Obchod","palác metro","https://www.firmy.cz/detail/143339-palac-metro-praha-stare-mesto.html","268"
"10","Školka","MŠ sv. Voršily v Praze","https://www.firmy.cz/detail/406704-ms-sv-vorsily-v-praze-praha-nove-mesto.html","192"
"11","Sportoviště","Tenisová škola TALLENT","https://www.firmy.cz/detail/722748-tenisova-skola-tallent-praha-nove-mesto.html","195"
"12","Lékárna","BENU Lékárna","https://www.firmy.cz/detail/12864634-benu-lekarna-praha-stare-mesto.html","123"
"13","Bankomat","Raiffeisenbank - bankomat","https://www.firmy.cz/detail/631173-raiffeisenbank-bankomat-praha-stare-mesto.html","89"
"14","Škola","SPSŠ Betlémská - Střední průmyslová škola strojnická Praha","https://www.firmy.cz/detail/362768-spss-betlemska-stredni-prumyslova-skola-strojnicka-praha-praha-stare-mesto.html","166"
"15","Metro","Národní třída","","397"
"16","Lékař","doc. MUDr. Josef Dolenský, CSc.","https://www.firmy.cz/detail/1971145-doc-mudr-josef-dolensky-csc-praha-stare-mesto.html","99"
"17","Bus MHD","Mariánské náměstí","","616"
"18","Pošta","Pošta Praha 01 - Česká pošta, s.p.","https://www.firmy.cz/detail/217506-posta-praha-01-praha-stare-mesto.html","704"
"19","Vlak","Praha Masarykovo nádraží","","1550"
"20","Tram","Národní divadlo","","81"
