"","facility_type","facility_name","facility_iri","facility_distance"
"0","Hřiště","Dětské hřiště Strž","https://mapy.cz/zakladni?x=16.59142737&y=49.1789839471&z=17&source=base&id=2193881","377"
"1","Sportoviště","TTC Moravská Slavia Brno","https://www.firmy.cz/detail/12973987-ttc-moravska-slavia-brno-brno-styrice.html","250"
"2","Přírodní zajímavost","Koniklecová louka","https://mapy.cz/zakladni?x=16.5518474579&y=49.1834285644&z=17&source=base&id=1921318","2994"
"3","Večerka","Smíšené zboží Vídeňská","https://www.firmy.cz/detail/13252473-smisene-zbozi-videnska-brno-styrice.html","217"
"4","Restaurace","Restaurace U Hovězího pupku","https://www.firmy.cz/detail/12898314-restaurace-u-hoveziho-pupku-brno-styrice.html","329"
"5","Bus MHD","Červený kopec","https://mapy.cz/zakladni?x=16.58805&y=49.18215&z=17&source=pubt&id=17336064","360"
"6","Školka","MŠ Brno, Vídeňská","https://www.firmy.cz/detail/2340112-ms-brno-videnska-brno-styrice.html","194"
"7","Divadlo","Malá Amerika","https://www.firmy.cz/detail/12926234-mala-amerika-brno-stare-brno.html","1332"
"8","Cukrárna","Vídeňka Café","https://www.firmy.cz/detail/2295905-videnka-cafe-brno-styrice.html","258"
"9","Lékárna","Lékárna Alerga","https://www.firmy.cz/detail/12898513-lekarna-alerga-brno-styrice.html","77"
"10","Bankomat","Bankomat Euronet","https://www.firmy.cz/detail/13055472-bankomat-euronet-brno-pisarky.html","678"
"11","Lékař","MUDr. Taťána Pustinová s.r.o.","https://www.firmy.cz/detail/12907090-mudr-tatana-pustinova-s-r-o-brno-styrice.html","162"
"12","Obchod","Albert Hypermarket","https://www.firmy.cz/detail/12926968-albert-hypermarket-brno-styrice.html","703"
"13","Tram","Nemocnice Milosrdných bratří","https://mapy.cz/zakladni?x=16.59493895518648&y=49.18349247244016&z=17&source=pubt&id=15205926","200"
"14","Vlak","Brno hlavní nádraží","https://mapy.cz/zakladni?x=16.6128016943&y=49.1905819126&z=17&source=pubt&id=15211057","1714"
"15","Škola","ZŠ, Praktická škola a Dětský domov, Brno, Vídeňská","https://www.firmy.cz/detail/360769-zs-prakticka-skola-a-detsky-domov-brno-videnska-brno-styrice.html","136"
"16","Veterinář","Veterinární ordinace - MVDr. Klára Palicová","https://www.firmy.cz/detail/13185639-veterinarni-ordinace-mvdr-klara-palicova-brno-stare-brno.html","1111"
"17","Pošta","Pošta Brno 39 - Česká pošta, s.p.","https://www.firmy.cz/detail/216054-posta-brno-39-brno-styrice.html","488"
"18","Hospoda","Pivnice Na Kuželně","https://www.firmy.cz/detail/13207871-pivnice-na-kuzelne-brno-styrice.html","277"
"19","Kino","Cinema City Velký Špalíček","https://www.firmy.cz/detail/2679905-cinema-city-velky-spalicek-brno-mesto.html","1601"
