"","facility_type","facility_name","facility_iri","facility_distance"
"0","Hřiště","Dětské hřiště Hakenova","https://mapy.cz/zakladni?x=18.4358370728&y=49.775932907&z=17&source=base&id=1929009","127"
"1","Večerka","Koloniál v Bílém domě","https://www.firmy.cz/detail/13265108-kolonial-v-bilem-dome-havirov-mesto.html","196"
"2","Veterinář","Veterina Na Nábřeží","https://www.firmy.cz/detail/1947067-veterina-na-nabrezi-havirov-mesto.html","468"
"3","Cukrárna","Shothouse","https://www.firmy.cz/detail/13286217-shothouse-havirov-mesto.html","279"
"4","Hospoda","Bagetérie Lexi","https://www.firmy.cz/detail/12954140-bageterie-lexi-havirov-mesto.html","236"
"5","Kino","Kino Centrum","https://www.firmy.cz/detail/12780436-kino-centrum-havirov-mesto.html","306"
"6","Bus MHD","Havířov, Město, Lípová","https://mapy.cz/zakladni?x=18.4352808417&y=49.7763232468&z=17&source=pubt&id=15331087","75"
"7","Lékař","MUDr. Lucie Šebestová s.r.o.","https://www.firmy.cz/detail/12862656-mudr-lucie-sebestova-s-r-o-havirov-mesto.html","129"
"8","Lékárna","Lékárna Na Národní","https://www.firmy.cz/detail/659545-lekarna-na-narodni-havirov-mesto.html","170"
"9","Restaurace","Restaurace E. F. Buriana 869","https://www.firmy.cz/detail/13151294-restaurace-e-f-buriana-869-havirov-mesto.html","196"
"10","Bankomat","Bankomat ČSOB","https://www.firmy.cz/detail/599376-bankomat-csob-havirov-mesto.html","330"
"11","Sportoviště","Lezecká stěna Havířov","https://www.firmy.cz/detail/13178466-lezecka-stena-havirov-havirov-mesto.html","271"
"12","Školka","Mateřská škola, Havířov - KLUBÍČKO","https://www.firmy.cz/detail/1968054-materska-skola-havirov-klubicko-havirov-mesto.html","219"
"13","Škola","Střední průmyslová škola elektrotechnická, Havířov","https://www.firmy.cz/detail/362589-stredni-prumyslova-skola-elektrotechnicka-havirov-havirov-mesto.html","385"
"14","Obchod","Obchodní centrum Elan","https://www.firmy.cz/detail/2181587-obchodni-centrum-elan-havirov-mesto.html","479"
"15","Vlak","Havířov-střed","https://mapy.cz/zakladni?x=18.439728302264&y=49.788244092890395&z=17&source=pubt&id=15711416","1292"
"16","Pošta","Pošta Havířov 1 - Česká pošta, s.p.","https://www.firmy.cz/detail/431627-posta-havirov-1-havirov-mesto.html","391"
