"","facility_type","facility_name","facility_iri","facility_distance"
"0","Cukrárna","Vinotéka & Cukrárna Provence","https://www.firmy.cz/detail/13334698-vinoteka-cukrarna-provence-vsetin.html","561"
"1","Kino","Kino Vatra","https://www.firmy.cz/detail/1271652-kino-vatra-vsetin.html","660"
"2","Hřiště","Dětské hřiště Josefa Sousedíka","","66"
"3","Večerka","ZZJM, s.r.o.","https://www.firmy.cz/detail/2448817-zzjm-vsetin.html","201"
"4","Hospoda","Restaurace Benátky 904","https://www.firmy.cz/detail/13117951-restaurace-benatky-904-vsetin.html","403"
"5","Divadlo","Loutkové divadélko Kohútek","https://www.firmy.cz/detail/1909094-loutkove-divadelko-kohutek-vsetin.html","553"
"6","Veterinář","MVDr. Jaroslav Solnař","https://www.firmy.cz/detail/477142-mvdr-jaroslav-solnar-vsetin.html","335"
"7","Obchod","Smetanova obchodní galerie","https://www.firmy.cz/detail/13226731-smetanova-obchodni-galerie-vsetin.html","837"
"8","Bus MHD","Vsetín, Trávníky","","51"
"9","Sportoviště","Jan Tichý - Sportovní trenér","https://www.firmy.cz/detail/13214834-jan-tichy-sportovni-trener-vsetin.html","173"
"10","Pošta","Pošta Vsetín 1 - Česká pošta, s.p.","https://www.firmy.cz/detail/216330-posta-vsetin-1-vsetin.html","501"
"11","Restaurace","Restaurace Bečva","https://www.firmy.cz/detail/2347852-restaurace-becva-vsetin.html","227"
"12","Vlak","Vsetín","","809"
"13","Bankomat","Bankomat Fio banky","https://www.firmy.cz/detail/12807705-bankomat-fio-banky-vsetin.html","466"
"14","Lékárna","Lékárna","https://www.firmy.cz/detail/305786-lekarna-vsetin.html","521"
"15","Školka","MŠ Vsetín, Trávníky","https://www.firmy.cz/detail/2294488-ms-vsetin-travniky-vsetin.html","306"
"16","Škola","ZŠ Vsetín, Trávníky","https://www.firmy.cz/detail/360111-zs-vsetin-travniky-vsetin.html","133"
"17","Lékař","MUDr. Josef Machala","https://www.firmy.cz/detail/385535-mudr-josef-machala-vsetin.html","261"
