"","facility_type","facility_name","facility_iri","facility_distance"
"0","Cukrárna","Dětský bar Pepíno","https://www.firmy.cz/detail/307159-detsky-bar-pepino-chomutov.html","358"
"1","Kino","Letní kino Chomutov","https://www.firmy.cz/detail/2644649-letni-kino-chomutov-chomutov.html","811"
"2","Hřiště","Dětské hřiště Marie Pujmanové","","155"
"3","Večerka","JIP Potraviny","https://www.firmy.cz/detail/13185850-jip-potraviny-chomutov.html","240"
"4","Hospoda","Hospoda Kulečník Pool","https://www.firmy.cz/detail/13327617-hospoda-kulecnik-pool-chomutov.html","240"
"5","Divadlo","Městské divadlo Chomutov","https://www.firmy.cz/detail/2644644-mestske-divadlo-chomutov-chomutov.html","852"
"6","Veterinář","MVDr. Gabriela Jašurková Mikutová","https://www.firmy.cz/detail/1907835-mvdr-gabriela-jasurkova-mikutova-chomutov.html","453"
"7","Obchod","Obchodní centrum Chomutovka","https://www.firmy.cz/detail/2481890-obchodni-centrum-chomutovka-chomutov.html","1070"
"8","Školka","MŠ Chomutov, Jiráskova","https://www.firmy.cz/detail/1345601-ms-chomutov-jiraskova-chomutov.html","424"
"9","Bus MHD","Březenecká I","","252"
"10","Sportoviště","Bowling Strikeland","https://www.firmy.cz/detail/2677947-bowling-strikeland-chomutov.html","550"
"11","Lékárna","U Lípy","https://www.firmy.cz/detail/2356615-u-lipy-chomutov.html","621"
"12","Bankomat","Bankomat Komerční banky","https://www.firmy.cz/detail/596380-bankomat-komercni-banky-chomutov.html","753"
"13","Restaurace","Restaurace Torka","https://www.firmy.cz/detail/12958854-restaurace-torka-chomutov.html","337"
"14","Škola","13. Základní škola Březenecká","https://www.firmy.cz/detail/294838-13-zakladni-skola-brezenecka-chomutov.html","409"
"15","Pošta","Pošta Chomutov 3 - Česká pošta, s.p.","https://www.firmy.cz/detail/215277-posta-chomutov-3-chomutov.html","532"
"16","Lékař","MUDr. Jana Hazemová","https://www.firmy.cz/detail/385916-mudr-jana-hazemova-chomutov.html","621"
"17","Vlak","Chomutov město","","299"
