"","facility_type","facility_name","facility_iri","facility_distance"
"0","Přírodní zajímavost","Uhelná sloj v Landeku","https://mapy.cz/zakladni?x=18.2692044444&y=49.8672338889&z=17&source=base&id=1981598","4189"
"1","Hřiště","Dětské hřiště","https://mapy.cz/zakladni?x=18.2862902778&y=49.8296436111&z=17&source=base&id=2111640","201"
"2","Večerka","NÁKUPNÍ CENTRUM GLOBAL","https://www.firmy.cz/detail/264258-nakupni-centrum-global-ostrava-moravska-ostrava.html","242"
"3","Veterinář","Veterinární ordinace - MVDr. Richard Saviola","https://www.firmy.cz/detail/477150-veterinarni-ordinace-mvdr-richard-saviola-ostrava-moravska-ostrava.html","881"
"4","Hospoda","U Zrzavé Mary","https://www.firmy.cz/detail/574097-u-zrzave-mary-ostrava-moravska-ostrava.html","344"
"5","Cukrárna","CINEMACAFE","https://www.firmy.cz/detail/12878817-cinemacafe-ostrava.html","86"
"6","Divadlo","Divadlo Antonína Dvořáka","https://www.firmy.cz/detail/397048-divadlo-antonina-dvoraka-ostrava-moravska-ostrava.html","298"
"7","Kino","5D cinema Maxim","https://www.firmy.cz/detail/12871625-5d-cinema-maxim-ostrava-moravska-ostrava.html","164"
"8","Tram","Karolina","https://mapy.cz/zakladni?x=18.2868085942&y=49.8327375253&z=17&source=pubt&id=15203066","153"
"9","Lékárna","Lékárna Rezidence Nová Karolína","https://www.firmy.cz/detail/199468-lekarna-rezidence-nova-karolina-ostrava-moravska-ostrava.html","43"
"10","Lékař","MUDr. Jarmila Fialová","https://www.firmy.cz/detail/370609-mudr-jarmila-fialova-ostrava-moravska-ostrava.html","455"
"11","Bankomat","Bankomat Komerční banky","https://www.firmy.cz/detail/13203388-bankomat-komercni-banky-ostrava-moravska-ostrava.html","81"
"12","Vlak","Ostrava střed","https://mapy.cz/zakladni?x=18.2829282145&y=49.8290671114&z=17&source=pubt&id=15212375","394"
"13","Pošta","Pošta Ostrava 1 - Česká pošta, s.p.","https://www.firmy.cz/detail/452777-posta-ostrava-1-ostrava-moravska-ostrava.html","745"
"14","Školka","MŠ Ostrava, Poděbradova","https://www.firmy.cz/detail/2322511-ms-ostrava-podebradova-ostrava-moravska-ostrava.html","425"
"15","Škola","NEWPORT INTERNATIONAL UNIVERSITY, s.r.o.","https://www.firmy.cz/detail/586886-newport-international-university-ostrava-moravska-ostrava.html","553"
"16","Restaurace","Pizza Coloseum","https://www.firmy.cz/detail/12878804-pizza-coloseum-ostrava-moravska-ostrava.html","86"
"17","Obchod","Forum Nová Karolina","https://www.firmy.cz/detail/13040093-forum-nova-karolina-ostrava-moravska-ostrava.html","86"
"18","Bus MHD","Hotel Palace","https://mapy.cz/zakladni?x=18.2889049824&y=49.8313486746&z=17&source=pubt&id=15210015","129"
"19","Sportoviště","Wakeboard Club Ostrava","https://www.firmy.cz/detail/166403-wakeboard-club-ostrava-ostrava-moravska-ostrava.html","248"
