"","facility_type","facility_name","facility_iri","facility_distance"
"0","Hřiště","Dětské hřiště","https://mapy.cz/zakladni?x=16.58783667955487&y=49.239519501885574&z=17&source=base&id=2366014","80"
"1","Přírodní zajímavost","Přírodní zahrada U Smrku","https://mapy.cz/zakladni?x=16.58765420430356&y=49.22807918152045&z=17&source=base&id=2324158","1330"
"2","Veterinář","MVDr. Marek Žižlavský","https://www.firmy.cz/detail/2315674-mvdr-marek-zizlavsky-brno-medlanky.html","569"
"3","Večerka","BILLA","https://www.firmy.cz/detail/450595-billa-brno-medlanky.html","266"
"4","Cukrárna","OMNI café & fit studio","https://www.firmy.cz/detail/13160252-omni-cafe-fit-studio-brno-medlanky.html","709"
"5","Hospoda","Hospůdka u Hřiště","https://www.firmy.cz/detail/13116651-hospudka-u-hriste-brno-medlanky.html","741"
"6","Divadlo","Divadlo Špílberg","https://www.firmy.cz/detail/13227128-divadlo-spilberg-brno-reckovice.html","572"
"7","Kino","Kino Lucerna","https://www.firmy.cz/detail/638240-kino-lucerna-brno-zabovresky.html","3292"
"8","Školka","MŠ Brno, Novoměstská","https://www.firmy.cz/detail/1446938-ms-brno-novomestska-brno-reckovice.html","270"
"9","Škola","ZŠ Brno, Novoměstská","https://www.firmy.cz/detail/356533-zs-brno-novomestska-brno-reckovice.html","243"
"10","Vlak","Brno-Řečkovice","https://mapy.cz/zakladni?x=16.5904418327&y=49.2506916222&z=17&source=pubt&id=15211061","1210"
"11","Restaurace","Kavárna Monyka","https://www.firmy.cz/detail/12924386-kavarna-monyka-brno-reckovice.html","98"
"12","Tram","Kořískova","https://mapy.cz/zakladni?x=16.5849492145336&y=49.2388785569423&z=17&source=pubt&id=15205565","201"
"13","Pošta","Pošta Brno 21 - Česká pošta, s.p.","https://www.firmy.cz/detail/1534314-posta-brno-21-brno-reckovice.html","825"
"14","Lékař","MUDr. Blanka Číhalová","https://www.firmy.cz/detail/386824-mudr-blanka-cihalova-brno-medlanky.html","516"
"15","Obchod","Globus Hypermarket","https://www.firmy.cz/detail/448361-globus-hypermarket-brno-ivanovice.html","2483"
"16","Bankomat","Bankomat Komerční banky","https://www.firmy.cz/detail/2419830-bankomat-komercni-banky-brno-reckovice.html","389"
"17","Sportoviště","Tělocvičná jednota Sokol Brno Heršpice","https://www.firmy.cz/detail/2139675-telocvicna-jednota-sokol-brno-herspice-brno-medlanky.html","453"
"18","Bus MHD","Žitná","https://mapy.cz/zakladni?x=16.588322836257&y=49.2403226944199&z=17&source=pubt&id=15205580","96"
"19","Lékárna","LÉKÁRNA VITA","https://www.firmy.cz/detail/13204055-lekarna-vita-brno-medlanky.html","282"
