"","facility_type","facility_name","facility_iri","facility_distance"
"0","Cukrárna","Cukrárna U Čížků","https://www.firmy.cz/detail/13278821-cukrarna-u-cizku-jirkov.html","1767"
"1","Kino","KINO JIRKOV, s.r.o.","https://www.firmy.cz/detail/12963927-kino-jirkov-jirkov.html","1769"
"2","Hřiště","Dětské hřiště Zahradní","","79"
"3","Večerka","Potraviny Písečná","https://www.firmy.cz/detail/13314604-potraviny-pisecna-chomutov.html","339"
"4","Hospoda","Hospoda Mustang","https://www.firmy.cz/detail/13117602-hospoda-mustang-chomutov.html","415"
"5","Divadlo","Městské divadlo Chomutov","https://www.firmy.cz/detail/2644644-mestske-divadlo-chomutov-chomutov.html","2877"
"6","Veterinář","MVDr. Pavel Klier","https://www.firmy.cz/detail/2273882-mvdr-pavel-klier-chomutov.html","366"
"7","Lékař","MUDr. Anna Bittnerová","https://www.firmy.cz/detail/12841213-mudr-anna-bittnerova-chomutov.html","339"
"8","Lékárna","U Hvězdy","https://www.firmy.cz/detail/658120-u-hvezdy-chomutov.html","345"
"9","Škola","ZŠ Chomutov, Zahradní","https://www.firmy.cz/detail/357377-zs-chomutov-zahradni-chomutov.html","141"
"10","Školka","MŠ Chomutov, Zahradní","https://www.firmy.cz/detail/1345672-ms-chomutov-zahradni-chomutov.html","141"
"11","Bankomat","Bankomat České spořitelny","https://www.firmy.cz/detail/591868-bankomat-ceske-sporitelny-chomutov.html","221"
"12","Restaurace","Restaurace Slunce","https://www.firmy.cz/detail/13115434-restaurace-slunce-chomutov.html","227"
"13","Obchod","Kaufland","https://www.firmy.cz/detail/2616230-kaufland-otvice.html","817"
"14","Sportoviště","Pétanque Chomutov","","460"
"15","Vlak","Jirkov zastávka","","1016"
"16","Bus MHD","Zahradní II","","155"
"17","Pošta","Pošta Chomutov 5 - Česká pošta, s.p.","https://www.firmy.cz/detail/215279-posta-chomutov-5-chomutov.html","203"
