"","facility_type","facility_name","facility_iri","facility_distance"
"0","Hřiště","Dětské hřiště","https://mapy.cz/zakladni?x=14.89311&y=49.69647&z=17&source=base&id=2329631","45"
"1","Přírodní zajímavost","Jinošovské údolí","https://mapy.cz/zakladni?x=14.9062705556&y=49.6815155556&z=17&source=base&id=2005257","1959"
"2","Cukrárna","Ubytování v soukromí Otoli","https://www.firmy.cz/detail/2614100-ubytovani-v-soukromi-otoli-vlasim.html","568"
"3","Hospoda","Kuželna u Ládi","https://www.firmy.cz/detail/13125345-kuzelna-u-ladi-vlasim.html","856"
"4","Večerka","Potraviny Zelingr","https://www.firmy.cz/detail/2456797-potraviny-zelingr-vlasim.html","368"
"5","Veterinář","MVDr. Jiří Smrčina - veterinární lékař","https://www.firmy.cz/detail/650397-mvdr-jiri-smrcina-veterinarni-lekar-vlasim.html","574"
"6","Kino","Kino Vlašim","https://www.firmy.cz/detail/407667-kino-vlasim-vlasim.html","966"
"7","Sportoviště","Bowling Bar Vorlina","https://www.firmy.cz/detail/13296293-bowling-bar-vorlina-vlasim.html","373"
"8","Obchod","VENDO PARK Vlašim","https://www.firmy.cz/detail/12967319-vendo-park-vlasim-vlasim.html","1008"
"9","Bus MHD","Vlašim, ZŠ u Vorliny","https://mapy.cz/zakladni?x=14.8914988036701&y=49.6968375353422&z=17&source=pubt&id=15296856","91"
"10","Školka","MŠ Vorlina","https://www.firmy.cz/detail/12908319-ms-vorlina-vlasim.html","200"
"11","Lékař","Polívková&Lonský s.r.o.","https://www.firmy.cz/detail/12841154-polivkova-lonsky-s-r-o-vlasim.html","614"
"12","Pošta","Pošta Vlašim - Česká pošta, s.p.","https://www.firmy.cz/detail/217369-posta-vlasim-vlasim.html","896"
"13","Bankomat","Platbomat České spořitelny","https://www.firmy.cz/detail/13239153-platbomat-ceske-sporitelny-vlasim.html","719"
"14","Restaurace","Restaurace Na Mlíkárně","https://www.firmy.cz/detail/2628042-restaurace-na-mlikarne-vlasim.html","565"
"15","Škola","Obchodní akademie, Vlašim","https://www.firmy.cz/detail/362457-obchodni-akademie-vlasim-vlasim.html","84"
"16","Vlak","Vlašim","https://mapy.cz/zakladni?x=14.8974614903&y=49.7004007524&z=17&source=pubt&id=15213252","523"
"17","Lékárna","Lékárna Magnolie","https://www.firmy.cz/detail/2536674-lekarna-magnolie-vlasim.html","639"
