"","facility_type","facility_name","facility_iri","facility_distance"
"0","Hřiště","Dětské hřiště Podlesí","https://mapy.cz/zakladni?x=15.0875566667&y=50.6697338889&z=17&source=base&id=2095111","268"
"1","Hospoda","Hospůdka U Bubáka","https://www.firmy.cz/detail/13110905-hospudka-u-bubaka-hodkovice-nad-mohelkou.html","69"
"2","Večerka","Potraviny market Na sídlišti","https://www.firmy.cz/detail/13212698-potraviny-market-na-sidlisti-hodkovice-nad-mohelkou.html","202"
"3","Cukrárna","Cukrárna nám. T. G. Masaryka 216","https://www.firmy.cz/detail/13149644-cukrarna-nam-t-g-masaryka-216-hodkovice-nad-mohelkou.html","227"
"4","Kino","Kino Hodkovice nad Mohelkou","https://www.firmy.cz/detail/454943-kino-hodkovice-nad-mohelkou-hodkovice-nad-mohelkou.html","454"
"5","Veterinář","VETERINA, v.o.s.","https://www.firmy.cz/detail/2284027-veterina-hodkovice-nad-mohelkou.html","220"
"6","Lékárna","Lékárna U Anděla Strážce","https://www.firmy.cz/detail/12914185-lekarna-u-andela-strazce-hodkovice-nad-mohelkou.html","256"
"7","Lékař","Ordinace praktického lékaře Hodkovice n.M. s.r.o.","https://www.firmy.cz/detail/13283393-ordinace-praktickeho-lekare-hodkovice-n-m-s-r-o-hodkovice-nad-mohelkou.html","136"
"8","Bus MHD","Hodkovice nad Mohelkou, křiž.","https://mapy.cz/zakladni?x=15.0874824277&y=50.6684614273&z=17&source=pubt&id=15285438","128"
"9","Školka","MŠ Hodkovice nad Mohelkou, J. A. Komenského","https://www.firmy.cz/detail/12889361-ms-hodkovice-nad-mohelkou-j-a-komenskeho-hodkovice-nad-mohelkou.html","181"
"10","Vlak","Hodkovice nad Mohelkou","https://mapy.cz/zakladni?x=15.1006902113&y=50.6672956126&z=17&source=pubt&id=15211399","908"
"11","Bankomat","Bankomat ČSOB","https://www.firmy.cz/detail/12768465-bankomat-csob-hodkovice-nad-mohelkou.html","209"
"12","Škola","ZŠ T.G.Masaryka Hodkovice nad Mohelkou","https://www.firmy.cz/detail/357118-zs-t-g-masaryka-hodkovice-nad-mohelkou-hodkovice-nad-mohelkou.html","181"
"13","Restaurace","Restaurace Na Křižovatce","https://www.firmy.cz/detail/13272329-restaurace-na-krizovatce-hodkovice-nad-mohelkou.html","229"
"14","Sportoviště","Sportovní areál Za Školou - tenisový kurt","https://www.firmy.cz/detail/13268170-sportovni-areal-za-skolou-tenisovy-kurt-hodkovice-nad-mohelkou.html","257"
"15","Pošta","Pošta Hodkovice nad Mohelkou - Česká pošta, s.p.","https://www.firmy.cz/detail/432041-posta-hodkovice-nad-mohelkou-hodkovice-nad-mohelkou.html","209"
