"","facility_type","facility_name","facility_iri","facility_distance"
"0","Cukrárna","Cukrárna U Stašků","https://www.firmy.cz/detail/13327087-cukrarna-u-stasku-sobotka.html","788"
"1","Přírodní zajímavost","Slavičí háj","","3093"
"2","Hřiště","Dětské hřiště Lípová","","207"
"3","Večerka","Jednota, spotřební družstvo Nová Paka - COOP","https://www.firmy.cz/detail/2125797-jednota-spotrebni-druzstvo-nova-paka-coop-sobotka.html","240"
"4","Hospoda","Hospůdka U Nádraží","https://www.firmy.cz/detail/13323875-hospudka-u-nadrazi-dolni-bousov.html","3535"
"5","Školka","MŠ Sobotka","https://www.firmy.cz/detail/13072566-ms-sobotka-sobotka.html","1065"
"6","Bus MHD","Sobotka, Na Syrovandě","","99"
"7","Sportoviště","Horolezecká stěna Sobotka","https://www.firmy.cz/detail/13247799-horolezecka-stena-sobotka-sobotka.html","648"
"8","Bankomat","Bankomat Komerční banky","https://www.firmy.cz/detail/592484-bankomat-komercni-banky-sobotka.html","750"
"9","Restaurace","Restaurace SYROVANDA","https://www.firmy.cz/detail/13113083-restaurace-syrovanda-sobotka.html","93"
"10","Pošta","Pošta Sobotka - Česká pošta, s.p.","https://www.firmy.cz/detail/431307-posta-sobotka-sobotka.html","964"
"11","Lékař","Zdravotní středisko Sobotka","https://www.firmy.cz/detail/13210530-zdravotni-stredisko-sobotka-sobotka.html","994"
"12","Vlak","Sobotka","","146"
"13","Škola","ZUŠ J. B. Foerstera, Jičín","https://www.firmy.cz/detail/12820512-zus-j-b-foerstera-jicin-sobotka.html","961"
"14","Lékárna","Lékárna U strážného anděla","https://www.firmy.cz/detail/12950043-lekarna-u-strazneho-andela-sobotka.html","845"
