"","facility_type","facility_name","facility_iri","facility_distance"
"0","Cukrárna","Cukrárna, Kavárna Šlágr","https://www.firmy.cz/detail/2503534-cukrarna-kavarna-slagr-praha-vinohrady.html","103"
"1","Kino","HopeTV","https://www.firmy.cz/detail/672889-hopetv-praha-vinohrady.html","830"
"2","Hřiště","Dětské hřiště U Havlíčkových sadů","","108"
"3","Večerka","France Gourmet","https://www.firmy.cz/detail/2657440-france-gourmet-praha-vrsovice.html","101"
"4","Divadlo","Divadlo D21","https://www.firmy.cz/detail/652669-divadlo-d21-praha-vinohrady.html","628"
"5","Hospoda","Hospoda Pohoda","https://www.firmy.cz/detail/569598-hospoda-pohoda-praha-nusle.html","764"
"6","Veterinář","MVDr. Miroslav Měšťan","https://www.firmy.cz/detail/2487671-mvdr-miroslav-mestan-praha-vrsovice.html","147"
"7","Tram","Krymská","","138"
"8","Školka","MŠ Praha 2, Slovenská","https://www.firmy.cz/detail/2152794-ms-praha-2-slovenska-praha-vinohrady.html","211"
"9","Sportoviště","Tenisové kurty Hasa","https://www.firmy.cz/detail/2307635-tenisove-kurty-hasa-praha-vrsovice.html","375"
"10","Lékař","MUDr. Anna Růžičková","https://www.firmy.cz/detail/390768-mudr-anna-ruzickova-praha-vinohrady.html","407"
"11","Obchod","PAVILON, a.s.","https://www.firmy.cz/detail/451685-pavilon-praha-vinohrady.html","690"
"12","Restaurace","Restaurace Zelená zahrada","https://www.firmy.cz/detail/2511017-restaurace-zelena-zahrada-praha-vinohrady.html","217"
"13","Lékárna","U Robina","https://www.firmy.cz/detail/658538-u-robina-praha-vinohrady.html","692"
"14","Škola","Základní škola, Fakultní škola Pedagogické fakulty UK, Praha 2, Slovenská 27","https://www.firmy.cz/detail/358963-zakladni-skola-fakultni-skola-pedagogicke-fakulty-uk-praha-2-slovenska-27-praha-vinohrady.html","211"
"15","Bus MHD","Nádraží Vršovice","","655"
"16","Bankomat","Bankomat České spořitelny","https://www.firmy.cz/detail/594418-bankomat-ceske-sporitelny-praha-vrsovice.html","421"
"17","Metro","Jiřího z Poděbrad","","702"
"18","Pošta","Pošta Praha 2 - Česká pošta, s.p.","https://www.firmy.cz/detail/217496-posta-praha-2-praha-vinohrady.html","448"
"19","Vlak","Praha-Vršovice","","719"
