"","facility_type","facility_name","facility_iri","facility_distance"
"0","Cukrárna","Cukrárna Lada","https://www.firmy.cz/detail/12915655-cukrarna-lada-havirov-sumbark.html","1199"
"1","Kino","Letní kino - Městské kulturní středisko Havířov","https://www.firmy.cz/detail/13072791-letni-kino-havirov.html","1184"
"2","Hřiště","Dětské hřiště U Tesly","","947"
"3","Večerka","Potraviny nám. T. G. Masaryka 	811","https://www.firmy.cz/detail/13056879-potraviny-nam-t-g-masaryka-811-havirov-sumbark.html","258"
"4","Hospoda","Restaurace Přístav","https://www.firmy.cz/detail/13109183-restaurace-pristav-havirov-sumbark.html","250"
"5","Veterinář","Veterinární klinika ANIVET - MVDr. Zbyněk Horák","https://www.firmy.cz/detail/1969639-veterinarni-klinika-anivet-mvdr-zbynek-horak-havirov-sumbark.html","300"
"6","Sportoviště","Tenisový klub Havířov, z.s.","https://www.firmy.cz/detail/721336-tenisovy-klub-havirov-z-s-havirov-sumbark.html","230"
"7","Bus MHD","Havířov, Šumbark, SNP","","80"
"8","Lékař","MUDr. René Turčínek","https://www.firmy.cz/detail/387379-mudr-rene-turcinek-havirov-sumbark.html","231"
"9","Vlak","Havířov","","349"
"10","Lékárna","Lékárna Léčebné centrum","https://www.firmy.cz/detail/2202513-lekarna-lecebne-centrum-havirov-sumbark.html","231"
"11","Školka","MŠ Havířov-Šumbark, Okružní","https://www.firmy.cz/detail/633819-ms-havirov-sumbark-okruzni-havirov-sumbark.html","308"
"12","Škola","Střední škola polytechnická, Havířov-Šumbark","https://www.firmy.cz/detail/361233-stredni-skola-polytechnicka-havirov-sumbark-havirov-sumbark.html","132"
"13","Restaurace","GURMÁN","https://www.firmy.cz/detail/12907330-gurman-havirov.html","532"
"14","Pošta","Pošta Havířov 3 - Česká pošta, s.p.","https://www.firmy.cz/detail/431629-posta-havirov-3-havirov-sumbark.html","339"
"15","Obchod","Tesco","https://www.firmy.cz/detail/218205-tesco-havirov-mesto.html","816"
"16","Bankomat","Bankomat Komerční banky","https://www.firmy.cz/detail/13312525-bankomat-komercni-banky-havirov-sumbark.html","249"
