"","facility_type","facility_name","facility_iri","facility_distance"
"0","Cukrárna","Cukrárna U Radnice","https://www.firmy.cz/detail/461944-cukrarna-u-radnice-litvinov-horni-litvinov.html","637"
"1","Kino","3D kino Citadela Litvínov","https://www.firmy.cz/detail/13236248-3d-kino-citadela-litvinov-litvinov-horni-litvinov.html","1238"
"2","Hřiště","Dětské hřiště Valdštejnská","","47"
"3","Večerka","Sámoška U Štěrby","https://www.firmy.cz/detail/12963929-samoska-u-sterby-litvinov-horni-litvinov.html","73"
"4","Hospoda","Pivnice U Klacka","https://www.firmy.cz/detail/13145215-pivnice-u-klacka-litvinov-horni-litvinov.html","579"
"5","Divadlo","Docela velké divadlo","https://www.firmy.cz/detail/402086-docela-velke-divadlo-litvinov-horni-litvinov.html","426"
"6","Veterinář","Veterina Vlková - Podkrušnohorská veterina","https://www.firmy.cz/detail/13275200-veterina-vlkova-podkrusnohorska-veterina-litvinov-horni-litvinov.html","460"
"7","Tram","Litvínov, poliklinika","","396"
"8","Škola","Základní škola speciální a Praktická škola Litvínov, Šafaříkova 991, okres Most","https://www.firmy.cz/detail/2157308-zakladni-skola-specialni-a-prakticka-skola-litvinov-safarikova-991-okres-most-litvinov-horni-litvinov.html","382"
"9","Pošta","Pošta Litvínov 4 - Česká pošta, s.p.","https://www.firmy.cz/detail/216950-posta-litvinov-4-litvinov-horni-litvinov.html","123"
"10","Restaurace","U Partika","https://www.firmy.cz/detail/12897626-u-partika-litvinov-horni-litvinov.html","189"
"11","Školka","ZŠ a MŠ Litvínov, Tylova","https://www.firmy.cz/detail/724875-zs-a-ms-litvinov-tylova-litvinov-horni-litvinov.html","206"
"12","Sportoviště","Sportovní hala Tenba","https://www.firmy.cz/detail/12714849-sportovni-hala-tenba-litvinov-horni-litvinov.html","560"
"13","Lékař","MEDOZ Litvínov s.r.o. - MEDOZ  Litvínov s.r.o.","https://www.firmy.cz/detail/13275777-medoz-litvinov-s-r-o-litvinov-horni-litvinov.html","291"
"14","Bus MHD","Litvínov, Máj","","124"
"15","Obchod","Tesco","https://www.firmy.cz/detail/12729388-tesco-litvinov-horni-litvinov.html","718"
"16","Vlak","Litvínov","","1271"
"17","Lékárna","BENU Lékárna","https://www.firmy.cz/detail/13003188-benu-lekarna-litvinov-horni-litvinov.html","321"
"18","Bankomat","Bankomat ČSOB","https://www.firmy.cz/detail/1423181-bankomat-csob-litvinov-horni-litvinov.html","509"
