"","facility_type","facility_name","facility_iri","facility_distance"
"0","Cukrárna","Amadeus Cafe","https://www.firmy.cz/detail/12793724-amadeus-cafe-ostrava-marianske-hory.html","516"
"1","Kino","CineStar Ostrava","https://www.firmy.cz/detail/661182-cinestar-ostrava-ostrava-moravska-ostrava.html","1414"
"2","Přírodní zajímavost","Zábřežský bludný balvan","","2215"
"3","Hřiště","Dětské hřiště Marie Pujmanové","","839"
"4","Večerka","Hapal - Potraviny","https://www.firmy.cz/detail/1945027-hapal-potraviny-ostrava-marianske-hory.html","169"
"5","Hospoda","Pivnice U Buvola","https://www.firmy.cz/detail/13121641-pivnice-u-buvola-ostrava-marianske-hory.html","589"
"6","Divadlo","Loutkový svět","https://www.firmy.cz/detail/13033024-loutkovy-svet-ostrava-moravska-ostrava.html","1830"
"7","Veterinář","Veterinární klinika MVDr. Vítězslav Raška a kolektiv","https://www.firmy.cz/detail/451459-veterinarni-klinika-mvdr-vitezslav-raska-a-kolektiv-ostrava-marianske-hory.html","900"
"8","Restaurace","Easy Peasy Bistro","https://www.firmy.cz/detail/13335025-easy-peasy-bistro-ostrava-marianske-hory.html","225"
"9","Sportoviště","Sportovní klub FIT & FUN Ostrava","https://www.firmy.cz/detail/719215-sportovni-klub-fit-fun-ostrava-ostrava-marianske-hory.html","289"
"10","Pošta","Pošta Ostrava 9 - Česká pošta, s.p.","https://www.firmy.cz/detail/13014108-posta-ostrava-9-ostrava-marianske-hory.html","627"
"11","Bus MHD","Sokola Tůmy","","346"
"12","Školka","Dětská skupina MiniSovičky","https://www.firmy.cz/detail/13233066-detska-skupina-minisovicky-ostrava-marianske-hory.html","177"
"13","Škola","SZŠ speciální pro žáky s více vadami, Ostrava - Železárenská","https://www.firmy.cz/detail/741537-szs-specialni-pro-zaky-s-vice-vadami-ostrava-zelezarenska-ostrava-marianske-hory.html","136"
"14","Bankomat","Bankomat Komerční banky","https://www.firmy.cz/detail/594290-bankomat-komercni-banky-ostrava-marianske-hory.html","525"
"15","Tram","Prostorná","","189"
"16","Obchod","Kaufland","https://www.firmy.cz/detail/1477277-kaufland-ostrava-marianske-hory.html","1244"
"17","Lékárna","Lékárna Mariana","https://www.firmy.cz/detail/423463-lekarna-mariana-ostrava-hulvaky.html","319"
"18","Vlak","Ostrava-Mariánské Hory","","1542"
"19","Lékař","MUDr. Radomíra Černocká","https://www.firmy.cz/detail/386990-mudr-radomira-cernocka-ostrava-marianske-hory.html","273"
