"","facility_type","facility_name","facility_iri","facility_distance"
"0","Cukrárna","Kavárna Amazonie","https://www.firmy.cz/detail/12957677-kavarna-amazonie-praha-troja.html","1033"
"1","Kino","Bio Oko","https://www.firmy.cz/detail/2586117-bio-oko-praha-holesovice.html","3204"
"2","Hřiště","Dětské hřiště Mazovská","","164"
"3","Večerka","Albert Supermarket","https://www.firmy.cz/detail/12887165-albert-supermarket-praha-troja.html","268"
"4","Hospoda","Domeček","https://www.firmy.cz/detail/13126886-domecek-praha.html","281"
"5","Divadlo","Divadlo Za plotem","https://www.firmy.cz/detail/396897-divadlo-za-plotem-praha-bohnice.html","1168"
"6","Veterinář","TROJAVET s.r.o.","https://www.firmy.cz/detail/13013223-trojavet-s-r-o-praha-troja.html","154"
"7","Bankomat","Bankomat Komerční banky","https://www.firmy.cz/detail/12843109-bankomat-komercni-banky-praha-troja.html","577"
"8","Bus MHD","Poliklinika Mazurská","","314"
"9","Škola","Soukromá střední škola DANAÉ, s.r.o.","https://www.firmy.cz/detail/361485-soukroma-stredni-skola-danae-praha-troja.html","293"
"10","Obchod","Centrum Krakov","https://www.firmy.cz/detail/12836138-centrum-krakov-praha-troja.html","589"
"11","Sportoviště","Tenis Sport Troja","https://www.firmy.cz/detail/13076244-tenis-sport-troja-praha-troja.html","722"
"12","Metro","Nádraží Holešovice","","2778"
"13","Lékař","MUDr. Alena Vodáková","https://www.firmy.cz/detail/388100-mudr-alena-vodakova-praha-troja.html","435"
"14","Vlak","Praha-Sedlec","","1290"
"15","Školka","MŠ Praha 8, Krynická","https://www.firmy.cz/detail/12737593-ms-praha-8-krynicka-praha-troja.html","95"
"16","Tram","Nádraží Podbaba","","1910"
"17","Lékárna","BENU Lékárna","https://www.firmy.cz/detail/658704-benu-lekarna-praha-troja.html","435"
"18","Restaurace","Salabka Restaurant","https://www.firmy.cz/detail/12879289-salabka-restaurant-praha-troja.html","553"
"19","Pošta","Pošta Praha 81","https://www.firmy.cz/detail/431382-posta-praha-81-praha-troja.html","642"
