"","facility_type","facility_name","facility_iri","facility_distance"
"0","Cukrárna","Café Bar Twins","https://www.firmy.cz/detail/13295335-cafe-bar-twins-karvina-hranice.html","95"
"1","Kino","Kino Centrum","https://www.firmy.cz/detail/396581-kino-centrum-karvina-mizerov.html","1019"
"2","Hřiště","Dětské hřiště Mizerov I","","507"
"3","Večerka","HRUŠKA","https://www.firmy.cz/detail/12820460-hruska-karvina-hranice.html","95"
"4","Hospoda","Pivnice Gaston","https://www.firmy.cz/detail/13116463-pivnice-gaston-karvina-hranice.html","271"
"5","Veterinář","VET ANIMALS HELP, s.r.o.","https://www.firmy.cz/detail/12707402-vet-animals-help-karvina-mizerov.html","387"
"6","Škola","Střední odborná škola ochrany osob a majetku s.r.o.","https://www.firmy.cz/detail/271222-stredni-odborna-skola-ochrany-osob-a-majetku-s-r-o-karvina-hranice.html","225"
"7","Pošta","Pošta Karviná 8 - Česká pošta, s.p.","https://www.firmy.cz/detail/431426-posta-karvina-8-karvina-hranice.html","157"
"8","Lékař","MUDr. Janusz Waloszek","https://www.firmy.cz/detail/385844-mudr-janusz-waloszek-karvina-hranice.html","79"
"9","Sportoviště","Oldřich Gavenda","https://www.firmy.cz/detail/2430860-oldrich-gavenda-karvina-hranice.html","382"
"10","Lékárna","Lékárna Veverka","https://www.firmy.cz/detail/374405-lekarna-veverka-karvina-hranice.html","79"
"11","Vlak","Karviná hlavní nádraží","","2287"
"12","Školka","MŠ Klíček, Karviná - Hranice","https://www.firmy.cz/detail/2066992-ms-klicek-karvina-hranice-karvina-hranice.html","299"
"13","Bus MHD","Karviná, Hranice, rest.Permon","","215"
"14","Restaurace","Restaurace Permon","https://www.firmy.cz/detail/13235767-restaurace-permon-karvina-hranice.html","120"
"15","Obchod","Kaufland","https://www.firmy.cz/detail/1532044-kaufland-karvina-hranice.html","305"
"16","Bankomat","Bankomat České spořitelny","https://www.firmy.cz/detail/592977-bankomat-ceske-sporitelny-karvina-hranice.html","133"
