"","facility_type","facility_name","facility_iri","facility_distance"
"0","Cukrárna","Pekárna Nostress bakery","https://www.firmy.cz/detail/308884-pekarna-nostress-bakery-praha-stare-mesto.html","141"
"1","Kino","Cinema City Slovanský dům","https://www.firmy.cz/detail/2679893-cinema-city-slovansky-dum-praha-nove-mesto.html","718"
"2","Hřiště","Dětské hřiště Za Haštalem","","389"
"3","Večerka","Albert Supermarket","https://www.firmy.cz/detail/209512-albert-supermarket-praha-stare-mesto.html","558"
"4","Divadlo","Umělecká scéna Říše loutek, z.s.","https://www.firmy.cz/detail/159616-umelecka-scena-rise-loutek-z-s-praha-stare-mesto.html","419"
"5","Hospoda","Bílá Velryba","https://www.firmy.cz/detail/12721832-bila-velryba-praha-stare-mesto.html","536"
"6","Veterinář","MVDr. Katka Sviták Novozámská","https://www.firmy.cz/detail/2137713-mvdr-katka-svitak-novozamska-praha-stare-mesto.html","724"
"7","Lékárna","Lékárna Na Františku","https://www.firmy.cz/detail/376327-lekarna-na-frantisku-praha-stare-mesto.html","204"
"8","Sportoviště","Sportovní areál Na Františku","https://www.firmy.cz/detail/2307461-sportovni-areal-na-frantisku-praha-stare-mesto.html","230"
"9","Metro","Staroměstská","","400"
"10","Pošta","Pošta Praha 01 - Česká pošta, s.p.","https://www.firmy.cz/detail/217506-posta-praha-01-praha-stare-mesto.html","380"
"11","Školka","Modré nebe - Ciel Bleu, o.p.s.","https://www.firmy.cz/detail/2407355-modre-nebe-ciel-bleu-praha-josefov.html","69"
"12","Bus MHD","U Staré školy","","117"
"13","Restaurace","Pizzeria Castello","https://www.firmy.cz/detail/589166-pizzeria-castello-praha-stare-mesto.html","49"
"14","Bankomat","Bankomat Komerční banky","https://www.firmy.cz/detail/1348491-bankomat-komercni-banky-praha-stare-mesto.html","372"
"15","Škola","Vyšší odborná škola stavební a Střední průmyslová škola stavební, Praha 1","https://www.firmy.cz/detail/192803-vyssi-odborna-skola-stavebni-a-stredni-prumyslova-skola-stavebni-praha-1-praha-stare-mesto.html","27"
"16","Tram","Právnická fakulta","","191"
"17","Lékař","MUDr. Otakar Maňas","https://www.firmy.cz/detail/388352-mudr-otakar-manas-praha-stare-mesto.html","505"
"18","Vlak","Praha Masarykovo nádraží","","1047"
"19","Obchod","PALLADIUM Praha","https://www.firmy.cz/detail/2238095-palladium-praha-praha-nove-mesto.html","670"
