"","facility_type","facility_name","facility_iri","facility_distance"
"0","Hřiště","Dětské hřiště Starý Újezd","https://mapy.cz/zakladni?x=14.54433&y=50.68663&z=17&source=base&id=2103062","273"
"1","Přírodní zajímavost","Ptačí park Mnišské louky","https://mapy.cz/zakladni?x=14.496602056&y=50.6765928017&z=17&source=base&id=2262041","3273"
"2","Večerka","RU-shop","https://www.firmy.cz/detail/12798279-ru-shop-ceska-lipa.html","202"
"3","Hospoda","Českolipský Výčep","https://www.firmy.cz/detail/13334576-ceskolipsky-vycep-ceska-lipa.html","265"
"4","Cukrárna","Kafe Laky","https://www.firmy.cz/detail/13166832-kafe-laky-ceska-lipa.html","202"
"5","Veterinář","MVDR.HELLER RADEK,PRAKTICKÝ VETERINÁRNÍ LÉKAŘ","https://www.firmy.cz/detail/276861-mvdr-heller-radek-prakticky-veterinarni-lekar-ceska-lipa.html","237"
"6","Divadlo","Jiráskovo divadlo","https://www.firmy.cz/detail/2352914-jiraskovo-divadlo-ceska-lipa.html","202"
"7","Kino","Kino Crystal","https://www.firmy.cz/detail/399410-kino-crystal-ceska-lipa.html","474"
"8","Lékař","MUDr. Martina Křivánková","https://www.firmy.cz/detail/388235-mudr-martina-krivankova-ceska-lipa.html","336"
"9","Bus MHD","Česká Lípa, Svatého Kříže","https://mapy.cz/zakladni?x=14.5413663505&y=50.6853464594&z=17&source=pubt&id=15281528","43"
"10","Vlak","Česká Lípa střelnice","https://mapy.cz/zakladni?x=14.5331811464&y=50.6916931082&z=17&source=pubt&id=15211172","871"
"11","Obchod","OD ANDY, s.r.o.","https://www.firmy.cz/detail/415601-od-andy-ceska-lipa.html","313"
"12","Školka","ZŠ, praktická škola a MŠ Česká Lípa, Moskevská","https://www.firmy.cz/detail/2418930-zs-prakticka-skola-a-ms-ceska-lipa-moskevska-ceska-lipa.html","151"
"13","Restaurace","Šambhala jídelna - vegetariánská jídelna, obchůdek","https://www.firmy.cz/detail/13099583-sambhala-jidelna-vegetarianska-jidelna-obchudek-ceska-lipa.html","144"
"14","Pošta","Pošta Česká Lípa 1 - Česká pošta, s.p.","https://www.firmy.cz/detail/215488-posta-ceska-lipa-1-ceska-lipa.html","330"
"15","Bankomat","Bankomat ČSOB","https://www.firmy.cz/detail/598479-bankomat-csob-ceska-lipa.html","221"
"16","Škola","ZŠ, praktická škola a MŠ Česká Lípa, Moskevská","https://www.firmy.cz/detail/356711-zs-prakticka-skola-a-ms-ceska-lipa-moskevska-ceska-lipa.html","100"
"17","Sportoviště","Sportovní unie Českolipska","https://www.firmy.cz/detail/745630-sportovni-unie-ceskolipska-ceska-lipa.html","315"
"18","Lékárna","U Jindřicha","https://www.firmy.cz/detail/2240812-u-jindricha-ceska-lipa.html","289"
