"","facility_type","facility_name","facility_iri","facility_distance"
"0","Kino","Kino Humpolec","https://www.firmy.cz/detail/396383-kino-humpolec-humpolec.html","1029"
"1","Hřiště","Dětské hřiště","","446"
"2","Večerka","BALA potraviny Bartoška - Růže","https://www.firmy.cz/detail/13327933-bala-potraviny-bartoska-ruze-humpolec.html","756"
"3","Divadlo","Divadlo Za komínem z. s.","https://www.firmy.cz/detail/13214723-divadlo-za-kominem-z-s-humpolec.html","1401"
"4","Hospoda","Spolkový dům","https://www.firmy.cz/detail/13139033-spolkovy-dum-humpolec.html","1119"
"5","Veterinář","MVDr. Petr Pejchal","https://www.firmy.cz/detail/716843-mvdr-petr-pejchal-humpolec.html","677"
"6","Lékárna","Lékárna U polikliniky","https://www.firmy.cz/detail/2473119-lekarna-u-polikliniky-humpolec.html","694"
"7","Restaurace","Restaurace Na Plovárně","https://www.firmy.cz/detail/12890495-restaurace-na-plovarne-humpolec.html","215"
"8","Škola","Česká zemědělská akademie v Humpolci, střední škola","https://www.firmy.cz/detail/759447-ceska-zemedelska-akademie-v-humpolci-stredni-skola-humpolec.html","807"
"9","Bankomat","Bankomat Komerční banky","https://www.firmy.cz/detail/596458-bankomat-komercni-banky-humpolec.html","954"
"10","Vlak","Humpolec","","931"
"11","Lékař","MUDr. Magda Závodská","https://www.firmy.cz/detail/387919-mudr-magda-zavodska-humpolec.html","487"
"12","Sportoviště","Technické služby Humpolec - Sportovní areál","https://www.firmy.cz/detail/12771139-technicke-sluzby-humpolec-sportovni-areal-humpolec.html","214"
"13","Obchod","Kaufland","https://www.firmy.cz/detail/13293027-kaufland-humpolec.html","1350"
"14","Bus MHD","Humpolec, poliklinika","","707"
"15","Pošta","Pošta Humpolec - Česká pošta, s.p.","https://www.firmy.cz/detail/215187-posta-humpolec-humpolec.html","1092"
"16","Školka","MŠ Humpolec, Smetanova","https://www.firmy.cz/detail/720439-ms-humpolec-smetanova-humpolec.html","1052"
