"","facility_type","facility_name","facility_iri","facility_distance"
"0","Cukrárna","Lahůdky na faře","https://www.firmy.cz/detail/12977160-lahudky-na-fare-praha-karlin.html","297"
"1","Kino","Spoiler - Filmový klub, z.s.","https://www.firmy.cz/detail/396379-spoiler-filmovy-klub-z-s-praha-zizkov.html","1220"
"2","Hřiště","Dětské hřiště Karlínské náměstí","","180"
"3","Večerka","Albert Supermarket","https://www.firmy.cz/detail/2425665-albert-supermarket-praha-karlin.html","450"
"4","Divadlo","Divadlo (bez záruky) Praha","https://www.firmy.cz/detail/475801-divadlo-bez-zaruky-praha-praha-karlin.html","432"
"5","Hospoda","U Pižďucha","https://www.firmy.cz/detail/337127-u-pizducha-praha-zizkov.html","1042"
"6","Veterinář","MVDr. Daniel Barek - Veterinární Klinika U Tunelu","https://www.firmy.cz/detail/402428-mvdr-daniel-barek-veterinarni-klinika-u-tunelu-praha-karlin.html","612"
"7","Restaurace","Restaurace BeFriendly","https://www.firmy.cz/detail/2173495-restaurace-befriendly-praha-karlin.html","138"
"8","Obchod","Bílá labuť","https://www.firmy.cz/detail/221990-bila-labut-praha-nove-mesto.html","1056"
"9","Bankomat","Bankomat ČSOB","https://www.firmy.cz/detail/1424174-bankomat-csob-praha-karlin.html","185"
"10","Pošta","Pošta Praha 87 - Česká pošta, s.p.","https://www.firmy.cz/detail/1354156-posta-praha-87-praha-karlin.html","159"
"11","Metro","Křižíkova","","321"
"12","Školka","ZŠ a MŠ Praha 8, Lyčkovo náměstí","https://www.firmy.cz/detail/724264-zs-a-ms-praha-8-lyckovo-namesti-praha-karlin.html","810"
"13","Vlak","Praha-Bubny","","1042"
"14","Bus MHD","Pernerova","","574"
"15","Škola","Střední odborné učiliště kadeřnické, Praha 8","https://www.firmy.cz/detail/360996-stredni-odborne-uciliste-kadernicke-praha-8-praha-karlin.html","431"
"16","Sportoviště","Tenisová škola TALLENT","https://www.firmy.cz/detail/153033-tenisova-skola-tallent-praha-karlin.html","518"
"17","Lékárna","Lékárna U Zlatého slunce","https://www.firmy.cz/detail/374838-lekarna-u-zlateho-slunce-praha-karlin.html","525"
"18","Tram","Karlínské náměstí","","202"
"19","Lékař","Ordinace praktického lékaře MUDr. Květoslava Kohlová","https://www.firmy.cz/detail/147546-ordinace-praktickeho-lekare-mudr-kvetoslava-kohlova-praha-karlin.html","518"
