"","facility_type","facility_name","facility_iri","facility_distance"
"0","Cukrárna","Caffé Vescovi","https://www.firmy.cz/detail/1446233-caffe-vescovi-praha-mala-strana.html","76"
"1","Kino","Kino Ponrepo","https://www.firmy.cz/detail/396455-kino-ponrepo-praha-stare-mesto.html","854"
"2","Přírodní zajímavost","Kovářovic mez","","5386"
"3","Hřiště","Dětské hřiště park Kampa","","174"
"4","Večerka","Vacek Bio-Market, s.r.o.","https://www.firmy.cz/detail/176829-vacek-bio-market-praha-mala-strana.html","467"
"5","Hospoda","U hrocha","https://www.firmy.cz/detail/336158-u-hrocha-praha-mala-strana.html","699"
"6","Divadlo","Divadlo Na Prádle","https://www.firmy.cz/detail/465109-divadlo-na-pradle-praha-mala-strana.html","100"
"7","Veterinář","MVDr. Katka Sviták Novozámská","https://www.firmy.cz/detail/2137713-mvdr-katka-svitak-novozamska-praha-stare-mesto.html","803"
"8","Tram","Hellichova","","154"
"9","Restaurace","Restaurace Tlustá myš","https://www.firmy.cz/detail/591813-restaurace-tlusta-mys-praha-mala-strana.html","0"
"10","Sportoviště","Česká obec sokolská","https://www.firmy.cz/detail/177172-ceska-obec-sokolska-praha-mala-strana.html","67"
"11","Bus MHD","Švandovo divadlo","","495"
"12","Bankomat","Bankomat Euronet","https://www.firmy.cz/detail/604287-bankomat-euronet-praha-mala-strana.html","479"
"13","Škola","Gymnázium Jana Nerudy, škola hlavního města Prahy","https://www.firmy.cz/detail/362769-gymnazium-jana-nerudy-skola-hlavniho-mesta-prahy-praha-mala-strana.html","136"
"14","Lékař","MUDr. Ludmila Šustová","https://www.firmy.cz/detail/390750-mudr-ludmila-sustova-praha-mala-strana.html","63"
"15","Pošta","Pošta Praha 51 - Česká pošta, s.p.","https://www.firmy.cz/detail/431281-posta-praha-51-praha-mala-strana.html","279"
"16","Lékárna","BENU Lékárna","https://www.firmy.cz/detail/12864634-benu-lekarna-praha-stare-mesto.html","757"
"17","Obchod","palác metro","https://www.firmy.cz/detail/143339-palac-metro-praha-stare-mesto.html","901"
"18","Metro","Malostranská","","909"
"19","Školka","MŠ Praha 1, Hellichova","https://www.firmy.cz/detail/406822-ms-praha-1-hellichova-praha-mala-strana.html","227"
"20","Vlak","Praha-Dejvice","","1603"
