"","facility_type","facility_name","facility_iri","facility_distance"
"0","Cukrárna","Cukrárna Parizz","https://www.firmy.cz/detail/12863161-cukrarna-parizz-ostrava-hrabuvka.html","670"
"1","Kino","5D cinema Maxim","https://www.firmy.cz/detail/12950606-5d-cinema-maxim-ostrava-zabreh.html","2662"
"2","Hřiště","Dětské hřiště náměstí Gen. Svobody","","544"
"3","Přírodní zajímavost","Zábřežský bludný balvan","","2067"
"4","Večerka","KARBONKA II.","https://www.firmy.cz/detail/13320943-karbonka-ii-ostrava-hrabuvka.html","160"
"5","Hospoda","Pivnice Plecháč","https://www.firmy.cz/detail/13149115-pivnice-plechac-ostrava-hrabuvka.html","172"
"6","Divadlo","Divadlo U Lípy","https://www.firmy.cz/detail/2121467-divadlo-u-lipy-ostrava-zabreh.html","688"
"7","Veterinář","MVDr. Oldřich Barvenčík","https://www.firmy.cz/detail/443783-mvdr-oldrich-barvencik-ostrava-hrabuvka.html","684"
"8","Vlak","Ostrava-Vítkovice","","732"
"9","Lékárna","Lékárna U Edisona","https://www.firmy.cz/detail/2674218-lekarna-u-edisona-ostrava-hrabuvka.html","160"
"10","Tram","Jubilejní kolonie","","152"
"11","Lékař","MUDr. Dostalíková Pavla, s.r.o.","https://www.firmy.cz/detail/12830974-mudr-dostalikova-pavla-ostrava-hrabuvka.html","76"
"12","Obchod","MAKRO Cash & Carry","https://www.firmy.cz/detail/325616-makro-cash-carry-ostrava-hrabova.html","2219"
"13","Pošta","Pošta Ostrava 46","https://www.firmy.cz/detail/433384-posta-ostrava-46-ostrava-hrabuvka.html","906"
"14","Restaurace","Cihelna U Chýlků","https://www.firmy.cz/detail/13015426-cihelna-u-chylku-ostrava-hrabuvka.html","114"
"15","Školka","MRŇOUSKOVA MATEŘSKÁ ŠKOLA","https://www.firmy.cz/detail/12992670-mrnouskova-materska-skola-ostrava-hrabuvka.html","302"
"16","Bus MHD","Učiliště Vítkovic","","152"
"17","Sportoviště","TJ Metasport, spolek","https://www.firmy.cz/detail/759502-tj-metasport-spolek-ostrava-hrabuvka.html","361"
"18","Bankomat","Bankomat UniCredit Bank Czech Republic","https://www.firmy.cz/detail/12767973-bankomat-unicredit-bank-czech-republic-ostrava-hrabuvka.html","911"
"19","Škola","Vyšší odborná škola, střední umělecká škola a základní umělecká škola","https://www.firmy.cz/detail/204310-vyssi-odborna-skola-stredni-umelecka-skola-a-zakladni-umelecka-skola-ostrava-hrabuvka.html","348"
