"","facility_type","facility_name","facility_iri","facility_distance"
"0","Cukrárna","OVOCNÝ SVĚTOZOR","https://www.firmy.cz/detail/475873-ovocny-svetozor-praha-karlin.html","226"
"1","Kino","Spoiler - Filmový klub, z.s.","https://www.firmy.cz/detail/396379-spoiler-filmovy-klub-z-s-praha-zizkov.html","927"
"2","Hřiště","Dětské hřiště Karlínská kasárna","","252"
"3","Večerka","TITBIT","https://www.firmy.cz/detail/601473-titbit-praha-karlin.html","183"
"4","Hospoda","U Pižďucha","https://www.firmy.cz/detail/337127-u-pizducha-praha-zizkov.html","864"
"5","Divadlo","Hudební divadlo Karlín","https://www.firmy.cz/detail/396914-hudebni-divadlo-karlin-praha-karlin.html","304"
"6","Veterinář","MVDr. Daniel Barek - Veterinární Klinika U Tunelu","https://www.firmy.cz/detail/402428-mvdr-daniel-barek-veterinarni-klinika-u-tunelu-praha-karlin.html","712"
"7","Obchod","Bílá labuť","https://www.firmy.cz/detail/221990-bila-labut-praha-nove-mesto.html","730"
"8","Lékárna","Lékárna Červený Rak","https://www.firmy.cz/detail/1969883-lekarna-cerveny-rak-praha-karlin.html","260"
"9","Školka","Sdružení dětí Veverka, s.r.o.","https://www.firmy.cz/detail/2276033-sdruzeni-deti-veverka-praha-zizkov.html","893"
"10","Bus MHD","Pernerova","","267"
"11","Restaurace","Yu Čuaň","https://www.firmy.cz/detail/2331295-yu-cuan-praha-karlin.html","25"
"12","Škola","Církevní střední škola Jana Boska","https://www.firmy.cz/detail/302538-cirkevni-stredni-skola-jana-boska-praha-karlin.html","247"
"13","Pošta","Pošta Praha 87 - Česká pošta, s.p.","https://www.firmy.cz/detail/1354156-posta-praha-87-praha-karlin.html","210"
"14","Lékař","Ordinace praktického lékaře MUDr. Květoslava Kohlová","https://www.firmy.cz/detail/147546-ordinace-praktickeho-lekare-mudr-kvetoslava-kohlova-praha-karlin.html","395"
"15","Vlak","Praha Masarykovo nádraží","","845"
"16","Sportoviště","Tělocvičná jednota Sokol Karlín","https://www.firmy.cz/detail/167303-telocvicna-jednota-sokol-karlin-praha-karlin.html","311"
"17","Tram","Karlínské náměstí","","118"
"18","Metro","Florenc","","331"
"19","Bankomat","Bankomat ČSOB","https://www.firmy.cz/detail/1424174-bankomat-csob-praha-karlin.html","212"
