"","facility_type","facility_name","facility_iri","facility_distance"
"0","Cukrárna","Kavárna Creperie","https://www.firmy.cz/detail/563710-kavarna-creperie-praha-smichov.html","1191"
"1","Kino","CineStar Anděl","https://www.firmy.cz/detail/2537565-cinestar-andel-praha-smichov.html","1140"
"2","Přírodní zajímavost","Kovářovic mez","","3541"
"3","Hřiště","Dětské hřiště Husovy sady","","308"
"4","Večerka","Tuyen Le Thi - OVOCE ZELENINA","https://www.firmy.cz/detail/2464821-tuyen-le-thi-ovoce-zelenina-praha-kosire.html","249"
"5","Hospoda","Hospůdka Knoflík","https://www.firmy.cz/detail/2253647-hospudka-knoflik-praha-smichov.html","1376"
"6","Divadlo","Divadlo Orfeus","https://www.firmy.cz/detail/413053-divadlo-orfeus-praha-kosire.html","252"
"7","Veterinář","MVDr. Jana Lukešová","https://www.firmy.cz/detail/473617-mvdr-jana-lukesova-praha-smichov.html","1124"
"8","Bankomat","Bankomat České spořitelny","https://www.firmy.cz/detail/594929-bankomat-ceske-sporitelny-praha-brevnov.html","970"
"9","Školka","Montessori školy Andílek - mateřská škola a základní škola, o.p.s.","https://www.firmy.cz/detail/2373070-montessori-skoly-andilek-materska-skola-a-zakladni-skola-o-p-s-praha-kosire.html","282"
"10","Lékárna","Na Cihlářce","https://www.firmy.cz/detail/375354-na-cihlarce-praha-smichov.html","568"
"11","Restaurace","Restaurace Pod Černým vrchem","https://www.firmy.cz/detail/333475-restaurace-pod-cernym-vrchem-praha-kosire.html","302"
"12","Škola","ZUŠ Popelka","https://www.firmy.cz/detail/399054-zus-popelka-praha-kosire.html","174"
"13","Bus MHD","U Zvonu","","121"
"14","Metro","Anděl","","1326"
"15","Tram","U Zvonu","","130"
"16","Obchod","Tesco","https://www.firmy.cz/detail/733908-tesco-praha-smichov.html","1180"
"17","Pošta","Pošta Praha 56 - Česká pošta, s.p.","https://www.firmy.cz/detail/452790-posta-praha-56-praha-kosire.html","734"
"18","Lékař","Clinuvel s.r.o. MUDr. Zuzana Jírovcová","https://www.firmy.cz/detail/2410389-clinuvel-s-r-o-mudr-zuzana-jirovcova-praha-smichov.html","310"
"19","Vlak","Praha-Smíchov severní nást.","","1753"
"20","Sportoviště","MaxLasergame, s.r.o.","https://www.firmy.cz/detail/12740237-maxlasergame-praha-smichov.html","481"
