"","facility_type","facility_name","facility_iri","facility_distance"
"0","Cukrárna","Cukrárna Amélie","https://www.firmy.cz/detail/13113416-cukrarna-amelie-zatec.html","78"
"1","Kino","Kino Žatec","https://www.firmy.cz/detail/12846605-kino-zatec-zatec.html","287"
"2","Hřiště","Dětské hřiště Hájkova","","310"
"3","Večerka","Lahůdky Dlouhá 117","https://www.firmy.cz/detail/12953380-lahudky-dlouha-117-zatec.html","111"
"4","Hospoda","Pivnice Lucerna","https://www.firmy.cz/detail/2467771-pivnice-lucerna-zatec.html","466"
"5","Divadlo","Městské divadlo Žatec","https://www.firmy.cz/detail/325218-mestske-divadlo-zatec-zatec.html","287"
"6","Veterinář","MVDr. Břetislav Frýba","https://www.firmy.cz/detail/203866-mvdr-bretislav-fryba-zatec.html","586"
"7","Lékař","TH AMBULANCE, s.r.o.","https://www.firmy.cz/detail/12768933-th-ambulance-zatec.html","117"
"8","Lékárna","Lékárna Na náměstí","https://www.firmy.cz/detail/12822918-lekarna-na-namesti-zatec.html","117"
"9","Školka","MŠ Žatec, Fügnerova","https://www.firmy.cz/detail/731375-ms-zatec-fugnerova-zatec.html","275"
"10","Škola","ZŠ a MŠ, Žatec, Dvořákova","https://www.firmy.cz/detail/360265-zs-a-ms-zatec-dvorakova-zatec.html","218"
"11","Pošta","Pošta Žatec 1 - Česká pošta, s.p.","https://www.firmy.cz/detail/215299-posta-zatec-1-zatec.html","490"
"12","Bus MHD","Žatec, u plynárny","","329"
"13","Sportoviště","Stadion Mládí","https://www.firmy.cz/detail/12853188-stadion-mladi-zatec.html","719"
"14","Bankomat","Bankomat ČSOB","https://www.firmy.cz/detail/597427-bankomat-csob-zatec.html","139"
"15","Restaurace","Steak bar U Medvěda","https://www.firmy.cz/detail/285405-steak-bar-u-medveda-zatec.html","103"
"16","Vlak","Žatec","","1047"
"17","Obchod","Kaufland","https://www.firmy.cz/detail/1457849-kaufland-zatec.html","1370"
