"","facility_type","facility_name","facility_iri","facility_distance"
"0","Cukrárna","Cukrárna Bali","https://www.firmy.cz/detail/457305-cukrarna-bali-brno-zabovresky.html","876"
"1","Kino","Kino Lucerna","https://www.firmy.cz/detail/638240-kino-lucerna-brno-zabovresky.html","1084"
"2","Přírodní zajímavost","Přírodní zahrada U Smrku","","2155"
"3","Hřiště","Dětské hřiště Horova","","345"
"4","Večerka","BILLA","https://www.firmy.cz/detail/450588-billa-brno-zabovresky.html","189"
"5","Divadlo","Divadlo Strom","https://www.firmy.cz/detail/12762146-divadlo-strom-brno-zabovresky.html","895"
"6","Hospoda","Pivnice - KOMÍN PUB","https://www.firmy.cz/detail/13171373-pivnice-komin-pub-brno-komin.html","1250"
"7","Veterinář","Veterinární ambulance Dášeňka","https://www.firmy.cz/detail/2625694-veterinarni-ambulance-dasenka-brno-zabovresky.html","199"
"8","Bus MHD","Rosického náměstí","","320"
"9","Tram","Stránského","","151"
"10","Školka","Miniškolka Skřítek s.r.o.","https://www.firmy.cz/detail/12733904-miniskolka-skritek-s-r-o-brno-zabovresky.html","340"
"11","Lékař","MUDr. Věra Musilová","https://www.firmy.cz/detail/386736-mudr-vera-musilova-brno-zabovresky.html","364"
"12","Sportoviště","Best Gym Horova","https://www.firmy.cz/detail/2675378-best-gym-horova-brno-zabovresky.html","277"
"13","Restaurace","Simona Juránková","https://www.firmy.cz/detail/13116953-simona-jurankova-brno-zabovresky.html","91"
"14","Pošta","Pošta Brno 16 - Česká pošta, s.p.","https://www.firmy.cz/detail/216028-posta-brno-16-brno-zabovresky.html","866"
"15","Obchod","OC Perla, a.s.","https://www.firmy.cz/detail/12875818-oc-perla-brno-zabovresky.html","866"
"16","Lékárna","Naše lékárna","https://www.firmy.cz/detail/13179255-nase-lekarna-brno-zabovresky.html","206"
"17","Bankomat","Bankomat České spořitelny","https://www.firmy.cz/detail/591618-bankomat-ceske-sporitelny-brno-zabovresky.html","813"
"18","Vlak","Brno-Královo Pole","","2814"
"19","Škola","Soukromá základní umělecká škola - LÍDL MUSIC, spol. s r.o.","https://www.firmy.cz/detail/430743-soukroma-zakladni-umelecka-skola-lidl-music-brno-zabovresky.html","449"
