"","facility_type","facility_name","facility_iri","facility_distance"
"0","Cukrárna","Café cukrárna Delikates","https://www.firmy.cz/detail/2351743-cafe-cukrarna-delikates-uvaly.html","234"
"1","Hřiště","Dětské hřiště Úvaly-pod tratí","","317"
"2","Večerka","Centrum levného nákupu","https://www.firmy.cz/detail/13339302-centrum-levneho-nakupu-uvaly.html","45"
"3","Hospoda","Pivnice U sudu","https://www.firmy.cz/detail/13324507-pivnice-u-sudu-uvaly.html","331"
"4","Divadlo","Depresivní děti touží po penězích","https://www.firmy.cz/detail/1907707-depresivni-deti-touzi-po-penezich-praha-ujezd-nad-lesy.html","3371"
"5","Veterinář","KheiroVet","https://www.firmy.cz/detail/13336008-kheirovet-uvaly.html","663"
"6","Školka","Lesní školka DÚLEK","https://www.firmy.cz/detail/13015668-lesni-skolka-dulek-uvaly.html","79"
"7","Bankomat","Bankomat České spořitelny","https://www.firmy.cz/detail/13075315-bankomat-ceske-sporitelny-uvaly.html","269"
"8","Pošta","Pošta Úvaly - Česká pošta, s.p.","https://www.firmy.cz/detail/217402-posta-uvaly-uvaly.html","580"
"9","Lékař","MUDr. Jana Schmidtová","https://www.firmy.cz/detail/12988013-mudr-jana-schmidtova-uvaly.html","319"
"10","Restaurace","Kvapil. Cafe & Bistro","https://www.firmy.cz/detail/2368031-kvapil-cafe-bistro-uvaly.html","108"
"11","Škola","ZŠ HEURÉKA Úvaly","https://www.firmy.cz/detail/13145483-zs-heureka-uvaly-uvaly.html","165"
"12","Vlak","Úvaly","","229"
"13","Sportoviště","Sportovní hala Úvaly","https://www.firmy.cz/detail/12984026-sportovni-hala-uvaly-uvaly.html","244"
"14","Bus MHD","Úvaly, Husova","","13"
"15","Lékárna","Úvalská lékárna","https://www.firmy.cz/detail/12814426-uvalska-lekarna-uvaly.html","0"
