"","facility_type","facility_name","facility_iri","facility_distance"
"0","Cukrárna","Cukrárna Amarilis","https://www.firmy.cz/detail/13334795-cukrarna-amarilis-praha-zizkov.html","536"
"1","Kino","Kino Aero","https://www.firmy.cz/detail/399435-kino-aero-praha-zizkov.html","82"
"2","Přírodní zajímavost","Meandry Rokytky","","3268"
"3","Hřiště","Dětské hřiště Viklefova","","125"
"4","Večerka","Lidl","https://www.firmy.cz/detail/2374393-lidl-praha-zizkov.html","186"
"5","Hospoda","Pivnice Radyně","https://www.firmy.cz/detail/1957129-pivnice-radyne-praha-zizkov.html","473"
"6","Divadlo","Divadlo Kámen","https://www.firmy.cz/detail/197593-divadlo-kamen-praha-karlin.html","660"
"7","Veterinář","MVDr. Eva Šeráková","https://www.firmy.cz/detail/477968-mvdr-eva-serakova-praha-vysocany.html","951"
"8","Tram","Vozovna Žižkov","","171"
"9","Sportoviště","Discgolf Krejcárek","","649"
"10","Restaurace","Restaurace Záležitost","https://www.firmy.cz/detail/332912-restaurace-zalezitost-praha-zizkov.html","226"
"11","Školka","Mateřská škola, Praha 3, Jeseniova 98/2593","https://www.firmy.cz/detail/646832-materska-skola-praha-3-jeseniova-98-2593-praha-zizkov.html","190"
"12","Bankomat","Bankomat České spořitelny","https://www.firmy.cz/detail/594748-bankomat-ceske-sporitelny-praha-zizkov.html","205"
"13","Pošta","Pošta Praha 3 - Česká pošta, s.p.","https://www.firmy.cz/detail/2102474-posta-praha-3-praha-zizkov.html","718"
"14","Bus MHD","Biskupcova","","330"
"15","Lékař","MUDr. Stanislav Švadlena","https://www.firmy.cz/detail/430642-mudr-stanislav-svadlena-praha-zizkov.html","124"
"16","Škola","ZŠ Praha 3, Jeseniova","https://www.firmy.cz/detail/358968-zs-praha-3-jeseniova-praha-zizkov.html","274"
"17","Obchod","Kaufland","https://www.firmy.cz/detail/1545721-kaufland-praha-liben.html","1381"
"18","Metro","Invalidovna","","991"
"19","Lékárna","Místní Lékárna Na Vápence","https://www.firmy.cz/detail/375016-mistni-lekarna-na-vapence-praha-zizkov.html","98"
"20","Vlak","Praha-Libeň","","2344"
