"","facility_type","facility_name","facility_iri","facility_distance"
"0","Cukrárna","Café Globus","https://www.firmy.cz/detail/12919098-cafe-globus-praha-trebonice.html","1384"
"1","Kino","Cinema City Zličín","https://www.firmy.cz/detail/436222-cinema-city-zlicin-praha-trebonice.html","841"
"2","Hřiště","Dětské hřiště Lipovská","","73"
"3","Večerka","ASU Market","https://www.firmy.cz/detail/13336453-asu-market-praha-zlicin.html","332"
"4","Hospoda","Hospůdka Na Hrázi","https://www.firmy.cz/detail/13006982-hospudka-na-hrazi-praha-sobin.html","1158"
"5","Divadlo","Divadelní studio Bubec","https://www.firmy.cz/detail/13047862-divadelni-studio-bubec-praha-reporyje.html","3337"
"6","Veterinář","Veterinární klinika OK-VET","https://www.firmy.cz/detail/439625-veterinarni-klinika-ok-vet-praha-repy.html","1794"
"7","Vlak","Praha-Zličín","","1264"
"8","Restaurace","U sousedů na Zličíně","https://www.firmy.cz/detail/13159501-u-sousedu-na-zlicine-praha-zlicin.html","513"
"9","Bus MHD","Starý Zličín","","136"
"10","Sportoviště","Best Bowling","https://www.firmy.cz/detail/580770-best-bowling-praha-trebonice.html","853"
"11","Metro","Zličín","","1029"
"12","Lékař","MUDr. Jaromír Janeček","https://www.firmy.cz/detail/389389-mudr-jaromir-janecek-praha-zlicin.html","580"
"13","Škola","Základní škola Praha 5","https://www.firmy.cz/detail/13276817-zakladni-skola-praha-5-praha-zlicin.html","346"
"14","Pošta","Pošta Praha 517 - Česká pošta, s.p.","https://www.firmy.cz/detail/431312-posta-praha-517-praha-zlicin.html","509"
"15","Obchod","METROPOLE ZLIČÍN centrum módy a zábavy","https://www.firmy.cz/detail/448136-metropole-zlicin-centrum-mody-a-zabavy-praha-trebonice.html","884"
"16","Lékárna","Dr. Max","https://www.firmy.cz/detail/2007135-dr-max-praha-trebonice.html","999"
"17","Školka","Mateřská škola Praha","https://www.firmy.cz/detail/13276820-materska-skola-praha-praha-zlicin.html","346"
"18","Tram","Sídliště Řepy","","1335"
"19","Bankomat","Raiffeisenbank - bankomat","https://www.firmy.cz/detail/12717046-raiffeisenbank-bankomat-praha-trebonice.html","866"
