"","facility_type","facility_name","facility_iri","facility_distance"
"0","Cukrárna","Strop Café","https://www.firmy.cz/detail/466699-strop-cafe-praha-vinohrady.html","60"
"1","Kino","HopeTV","https://www.firmy.cz/detail/672889-hopetv-praha-vinohrady.html","492"
"2","Hřiště","Dětské hřiště Riegrovy sady","","764"
"3","Večerka","Smíšené zboží Londýnská 309","https://www.firmy.cz/detail/2460894-smisene-zbozi-londynska-309-praha-vinohrady.html","138"
"4","Divadlo","Divadlo Evy Hruškové, Jana Přeučila a Zdeňka Rohlíčka","https://www.firmy.cz/detail/2302297-divadlo-evy-hruskove-jana-preucila-a-zdenka-rohlicka-praha-vinohrady.html","210"
"5","Hospoda","Batalion Café & Music Bar","https://www.firmy.cz/detail/457689-batalion-cafe-music-bar-praha-stare-mesto.html","1063"
"6","Veterinář","Veterinární ambulance Help","https://www.firmy.cz/detail/178079-veterinarni-ambulance-help-praha-vinohrady.html","226"
"7","Obchod","PAVILON, a.s.","https://www.firmy.cz/detail/451685-pavilon-praha-vinohrady.html","608"
"8","Metro","Muzeum","","231"
"9","Tram","Italská","","151"
"10","Pošta","Pošta Praha 24 - Česká pošta, s.p.","https://www.firmy.cz/detail/431217-posta-praha-24-praha-vinohrady.html","146"
"11","Lékař","MUDr. Olga Horáková","https://www.firmy.cz/detail/386966-mudr-olga-horakova-praha-vinohrady.html","124"
"12","Školka","MŠ Čtyřlístek, Praha 2, Římská","https://www.firmy.cz/detail/671299-ms-ctyrlistek-praha-2-rimska-praha-vinohrady.html","151"
"13","Lékárna","BENU Lékárna","https://www.firmy.cz/detail/13189195-benu-lekarna-praha-vinohrady.html","277"
"14","Bus MHD","Římská","","133"
"15","Restaurace","Balbínova poetická hospůdka","https://www.firmy.cz/detail/326956-balbinova-poeticka-hospudka-praha-vinohrady.html","64"
"16","Sportoviště","Tenisová škola Vinohrady – Jiří Brázda","https://www.firmy.cz/detail/433988-tenisova-skola-vinohrady-jiri-brazda-praha-vinohrady.html","294"
"17","Bankomat","Bankomat ČSOB","https://www.firmy.cz/detail/599573-bankomat-csob-praha-vinohrady.html","142"
"18","Vlak","Praha hlavní nádraží","","643"
"19","Škola","Základní škola pro žáky s poruchami zraku, Praha 2, nám. Míru 19","https://www.firmy.cz/detail/2151317-zakladni-skola-pro-zaky-s-poruchami-zraku-praha-2-nam-miru-19-praha-vinohrady.html","306"
