"","facility_type","facility_name","facility_iri","facility_distance"
"0","Cukrárna","Parkáček","https://www.firmy.cz/detail/13182826-parkacek-breclav.html","502"
"1","Kino","Kino Koruna","https://www.firmy.cz/detail/451631-kino-koruna-breclav.html","1078"
"2","Hřiště","Dětské hřiště Bratislavská","","551"
"3","Večerka","COOP - Jednota, spotřební družstvo v Mikulově","https://www.firmy.cz/detail/2350622-coop-jednota-spotrebni-druzstvo-v-mikulove-breclav.html","545"
"4","Hospoda","Hospůdka U Jana","https://www.firmy.cz/detail/13089766-hospudka-u-jana-breclav.html","146"
"5","Veterinář","VM - vet s.r.o.","https://www.firmy.cz/detail/12768317-vm-vet-s-r-o-breclav.html","730"
"6","Lékař","MUDr. Rudolf Doležal","https://www.firmy.cz/detail/388187-mudr-rudolf-dolezal-breclav.html","420"
"7","Školka","MŠ Břeclav, Břetislavova","https://www.firmy.cz/detail/2363984-ms-breclav-bretislavova-breclav.html","255"
"8","Bus MHD","Břeclav, BORS","","351"
"9","Sportoviště","Tereza Břeclav - Fotbalový areál","https://www.firmy.cz/detail/12820891-tereza-breclav-fotbalovy-areal-breclav-postorna.html","1049"
"10","Lékárna","Lékárna Na poliklinice","https://www.firmy.cz/detail/2349564-lekarna-na-poliklinice-breclav.html","522"
"11","Škola","Soukromá střední odborná škola Břeclav, s.r.o.","https://www.firmy.cz/detail/361615-soukroma-stredni-odborna-skola-breclav-breclav.html","372"
"12","Pošta","Pošta Břeclav 2 - Česká pošta, s.p.","https://www.firmy.cz/detail/432396-posta-breclav-2-breclav.html","369"
"13","Restaurace","Pizzerie Tonny II.","https://www.firmy.cz/detail/13137403-pizzerie-tonny-ii-breclav.html","423"
"14","Vlak","Břeclav","","508"
"15","Bankomat","Bankomat ČSOB","https://www.firmy.cz/detail/2409579-bankomat-csob-breclav.html","369"
"16","Obchod","Albert Hypermarket","https://www.firmy.cz/detail/446696-albert-hypermarket-breclav-postorna.html","1527"
