"","facility_type","facility_name","facility_iri","facility_distance"
"0","Cukrárna","Café Au Père Tranquille","https://www.firmy.cz/detail/709866-cafe-au-pere-tranquille-ostrava-moravska-ostrava.html","59"
"1","Kino","Kino vesmír","https://www.firmy.cz/detail/12980428-kino-vesmir-ostrava-moravska-ostrava.html","136"
"2","Přírodní zajímavost","Uhelná sloj v Landeku","","3631"
"3","Hřiště","Dětské hřiště Husův sad","","369"
"4","Večerka","Můjobchod - Potraviny Nákup Express","https://www.firmy.cz/detail/13162344-mujobchod-potraviny-nakup-express-ostrava-moravska-ostrava.html","63"
"5","Hospoda","geliatan group, s.r.o.","https://www.firmy.cz/detail/13155295-geliatan-group-ostrava-moravska-ostrava.html","64"
"6","Divadlo","Divadlo Jiřího Myrona","https://www.firmy.cz/detail/401503-divadlo-jiriho-myrona-ostrava-moravska-ostrava.html","200"
"7","Veterinář","Veterinární ordinace - MVDr. Richard Saviola","https://www.firmy.cz/detail/477150-veterinarni-ordinace-mvdr-richard-saviola-ostrava-moravska-ostrava.html","969"
"8","Školka","MŠ Ostrava, Poděbradova","https://www.firmy.cz/detail/2322511-ms-ostrava-podebradova-ostrava-moravska-ostrava.html","197"
"9","Sportoviště","ZÁBAVNÍ CENTRUM HORNIK","https://www.firmy.cz/detail/12813484-zabavni-centrum-hornik-ostrava-moravska-ostrava.html","349"
"10","Lékárna","BENU Lékárna","https://www.firmy.cz/detail/13212133-benu-lekarna-ostrava-moravska-ostrava.html","67"
"11","Vlak","Ostrava-Stodolní","","386"
"12","Tram","Stodolní","","48"
"13","Pošta","Pošta Ostrava 39 - Česká pošta, s.p.","https://www.firmy.cz/detail/433389-posta-ostrava-39-ostrava-moravska-ostrava.html","282"
"14","Obchod","Obchodní centrum LASO","https://www.firmy.cz/detail/2071391-obchodni-centrum-laso-ostrava-moravska-ostrava.html","533"
"15","Lékař","MUDr. Miroslava Jurková","https://www.firmy.cz/detail/1969424-mudr-miroslava-jurkova-ostrava-moravska-ostrava.html","67"
"16","Restaurace","Restaurant V.R.Levský","https://www.firmy.cz/detail/1270874-restaurant-v-r-levsky-ostrava-moravska-ostrava.html","3"
"17","Bus MHD","Konzervatoř","","222"
"18","Škola","Střední umělecká škola Ostrava","https://www.firmy.cz/detail/360961-stredni-umelecka-skola-ostrava-ostrava-moravska-ostrava.html","163"
"19","Bankomat","Bankomat Air Bank","https://www.firmy.cz/detail/13212058-bankomat-air-bank-ostrava-moravska-ostrava.html","50"
