"","facility_type","facility_name","facility_iri","facility_distance"
"0","Hřiště","Dětské hřiště u ZUŠ","https://mapy.cz/zakladni?x=17.8354541667&y=49.6650094444&z=17&source=base&id=2059995","398"
"1","Přírodní zajímavost","Pohořský ledopád","https://mapy.cz/zakladni?x=17.852189371394&y=49.6666544283163&z=17&source=base&id=2336791","1430"
"2","Večerka","Jednota, spotřební družstvo v Hodoníně - COOP","https://www.firmy.cz/detail/13200129-jednota-spotrebni-druzstvo-v-hodonine-coop-odry.html","130"
"3","Hospoda","Hospoda Zámecká 703","https://www.firmy.cz/detail/13126473-hospoda-zamecka-703-odry.html","452"
"4","Veterinář","MVDr. Martin Masare","https://www.firmy.cz/detail/13072683-mvdr-martin-masare-odry.html","115"
"5","Kino","Kinokavárna Odry","https://www.firmy.cz/detail/456500-kinokavarna-odry-odry.html","768"
"6","Lékárna","LÉKÁRNA NERIUM, s.r.o.","https://www.firmy.cz/detail/2319447-lekarna-nerium-odry.html","334"
"7","Bankomat","Bankomat MONETA Money Bank","https://www.firmy.cz/detail/1691647-bankomat-moneta-money-bank-odry.html","531"
"8","Lékař","MUDr. Jana Šmausová","https://www.firmy.cz/detail/390649-mudr-jana-smausova-odry.html","212"
"9","Restaurace","Restaurace Nádražní 1025","https://www.firmy.cz/detail/249166-restaurace-nadrazni-1025-odry.html","99"
"10","Sportoviště","HARAKIRI kite kurzy","https://www.firmy.cz/detail/12747694-harakiri-kite-kurzy-odry.html","271"
"11","Bus MHD","Odry, Tř.Osvobození","https://mapy.cz/zakladni?x=17.8379278932&y=49.670291467&z=17&source=pubt&id=15281126","470"
"12","Školka","MŠ Pohořská","https://www.firmy.cz/detail/2333014-ms-pohorska-odry.html","260"
"13","Vlak","Odry","https://mapy.cz/zakladni?x=17.833635018108197&y=49.669768055931776&z=17&source=pubt&id=15698479","214"
"14","Škola","Střední pedagogická škola a Střední zdravotnická škola svaté Anežky České Odry","https://www.firmy.cz/detail/361364-stredni-pedagogicka-skola-a-stredni-zdravotnicka-skola-svate-anezky-ceske-odry-odry.html","334"
"15","Pošta","Pošta Odry - Česká pošta, s.p.","https://www.firmy.cz/detail/433617-posta-odry-odry.html","721"
