"","facility_type","facility_name","facility_iri","facility_distance"
"0","Cukrárna","Pekařství a cukrárna Benea","https://www.firmy.cz/detail/2588115-pekarstvi-a-cukrarna-benea-praha-vinohrady.html","186"
"1","Kino","Cinema City Flora","https://www.firmy.cz/detail/660712-cinema-city-flora-praha-zizkov.html","721"
"2","Hřiště","Dětské hřiště Milešovská","","35"
"3","Večerka","Albert Supermarket","https://www.firmy.cz/detail/209482-albert-supermarket-praha-vinohrady.html","272"
"4","Hospoda","U Pižďucha","https://www.firmy.cz/detail/337127-u-pizducha-praha-zizkov.html","758"
"5","Divadlo","Hvězdné léto pod žižkovskou věží","https://www.firmy.cz/detail/13265384-hvezdne-leto-pod-zizkovskou-vezi-praha-zizkov.html","294"
"6","Veterinář","Veterinární klinika Fénix","https://www.firmy.cz/detail/2132602-veterinarni-klinika-fenix-praha-vinohrady.html","207"
"7","Restaurace","Giallo Rossa","https://www.firmy.cz/detail/2470268-giallo-rossa-praha-vinohrady.html","171"
"8","Bus MHD","Jiřího z Poděbrad","","181"
"9","Školka","Piccole Pesti, s.r.o.","https://www.firmy.cz/detail/2521490-piccole-pesti-praha-vinohrady.html","297"
"10","Lékař","MUDr. Milan Hudi","https://www.firmy.cz/detail/2521971-mudr-milan-hudi-praha-vinohrady.html","53"
"11","Obchod","PAVILON, a.s.","https://www.firmy.cz/detail/451685-pavilon-praha-vinohrady.html","650"
"12","Pošta","Pošta Praha 33 - Česká pošta, s.p.","https://www.firmy.cz/detail/1994123-posta-praha-33-praha-vinohrady.html","138"
"13","Lékárna","Lékárna U krále Jiřího","https://www.firmy.cz/detail/2326652-lekarna-u-krale-jiriho-praha-vinohrady.html","228"
"14","Škola","Základní škola, Praha 3, nám. Jiřího z Poděbrad 7,8/1685","https://www.firmy.cz/detail/356148-zakladni-skola-praha-3-nam-jiriho-z-podebrad-7-8-1685-praha-vinohrady.html","134"
"15","Metro","Jiřího z Poděbrad","","181"
"16","Sportoviště","Tenisová škola TALLENT","https://www.firmy.cz/detail/2591478-tenisova-skola-tallent-praha-vinohrady.html","373"
"17","Vlak","Praha hlavní nádraží","","1107"
"18","Tram","Jiřího z Poděbrad","","160"
"19","Bankomat","Bankomat Euronet","https://www.firmy.cz/detail/2372733-bankomat-euronet-praha-vinohrady.html","186"
