"","facility_type","facility_name","facility_iri","facility_distance"
"0","Cukrárna","Cukrárna Ovo Bar Kamilka","https://www.firmy.cz/detail/13058476-cukrarna-ovo-bar-kamilka-karlovy-vary.html","578"
"1","Kino","Kino Drahomíra z.s.","https://www.firmy.cz/detail/13126576-kino-drahomira-z-s-karlovy-vary-drahovice.html","61"
"2","Přírodní zajímavost","Karlův hvozd","","2072"
"3","Hřiště","Dětské hřiště Horní Drahovice","","267"
"4","Večerka","Můjobchod - Potraviny U Aničky","https://www.firmy.cz/detail/12998016-mujobchod-potraviny-u-anicky-karlovy-vary-drahovice.html","67"
"5","Hospoda","Pivnice Drahomíra","https://www.firmy.cz/detail/668384-pivnice-drahomira-karlovy-vary-drahovice.html","334"
"6","Divadlo","Divadlo Dagmar","https://www.firmy.cz/detail/396851-divadlo-dagmar-karlovy-vary-drahovice.html","855"
"7","Veterinář","MVDr. Eva Tichá","https://www.firmy.cz/detail/2656349-mvdr-eva-ticha-karlovy-vary-rybare.html","998"
"8","Sportoviště","Okresní rada AŠSK ČR, Kollárova 17, Karlovy Vary","https://www.firmy.cz/detail/2282315-okresni-rada-assk-cr-kollarova-17-karlovy-vary-karlovy-vary-drahovice.html","476"
"9","Bus MHD","Drahomíra","","17"
"10","Bankomat","Bankomat Euronet","https://www.firmy.cz/detail/13055646-bankomat-euronet-karlovy-vary.html","88"
"11","Lékař","MUDr. Pavel Smutný","https://www.firmy.cz/detail/387797-mudr-pavel-smutny-karlovy-vary-drahovice.html","78"
"12","Školka","ZŠ a MŠ při zdravotnických zařízeních Karlovy Vary","https://www.firmy.cz/detail/12736566-zs-a-ms-pri-zdravotnickych-zarizenich-karlovy-vary-karlovy-vary.html","242"
"13","Vlak","Karlovy Vary","","798"
"14","Pošta","Pošta Karlovy Vary 9 - Česká pošta, s.p.","https://www.firmy.cz/detail/216327-posta-karlovy-vary-9-karlovy-vary-drahovice.html","190"
"15","Restaurace","Restaurace Michal Tkáč","https://www.firmy.cz/detail/13120776-restaurace-michal-tkac-karlovy-vary-drahovice.html","23"
"16","Obchod","Obchodní centrum Perla","https://www.firmy.cz/detail/13219298-obchodni-centrum-perla-karlovy-vary.html","742"
"17","Škola","Soukromá obchodní akademie Podnikatel, spol. s r.o.","https://www.firmy.cz/detail/361547-soukroma-obchodni-akademie-podnikatel-karlovy-vary-drahovice.html","174"
"18","Lékárna","Ústavní lékárna","https://www.firmy.cz/detail/420995-ustavni-lekarna-karlovy-vary.html","367"
