"","facility_type","facility_name","facility_iri","facility_distance"
"0","Cukrárna","Cukrárna La Amália","https://www.firmy.cz/detail/13167375-cukrarna-la-amalia-frydek-mistek-frydek.html","293"
"1","Kino","Kino Nová scéna Vlast","https://www.firmy.cz/detail/396685-kino-nova-scena-vlast-frydek-mistek-mistek.html","328"
"2","Přírodní zajímavost","Bludné balvany ve Frýdeckém lese","","2807"
"3","Hřiště","Dětské hřiště Sady B. Smetany","","186"
"4","Večerka","Slezská pekárna JK","https://www.firmy.cz/detail/12902500-slezska-pekarna-jk-frydek-mistek.html","305"
"5","Divadlo","Divadlo Nová scéna Vlast","https://www.firmy.cz/detail/661522-divadlo-nova-scena-vlast-frydek-mistek-mistek.html","328"
"6","Hospoda","Hostinec U Antoníčka","https://www.firmy.cz/detail/13070621-hostinec-u-antonicka-frydek-mistek-mistek.html","539"
"7","Veterinář","Klinika Lískovka","https://www.firmy.cz/detail/12868316-klinika-liskovka-frydek-mistek-frydek.html","457"
"8","Pošta","Pošta Frýdek-Místek 12 - Česká pošta, s.p.","https://www.firmy.cz/detail/432958-posta-frydek-mistek-12-frydek-mistek-mistek.html","590"
"9","Bus MHD","Frýdek, žel.st.","","328"
"10","Bankomat","Bankomat Komerční banky","https://www.firmy.cz/detail/594031-bankomat-komercni-banky-frydek-mistek-frydek.html","349"
"11","Školka","Mateřská škola SNĚŽENKA Frýdek-Místek, Josefa Lady 1790","https://www.firmy.cz/detail/13044842-materska-skola-snezenka-frydek-mistek-josefa-lady-1790-frydek-mistek-mistek.html","449"
"12","Lékař","MUDr. Kamila Tulinská","https://www.firmy.cz/detail/12916935-mudr-kamila-tulinska-frydek-mistek-mistek.html","520"
"13","Škola","Střední průmyslová škola, Obchodní akademie a Jazyková škola s právem státní jazykové zkoušky, Frýdek-Místek","https://www.firmy.cz/detail/360932-stredni-prumyslova-skola-obchodni-akademie-a-jazykova-skola-s-pravem-statni-jazykove-zkousky-frydek-mistek-frydek-mistek-mistek.html","481"
"14","Vlak","Frýdek-Místek","","299"
"15","Lékárna","BENU Lékárna","https://www.firmy.cz/detail/13072047-benu-lekarna-frydek-mistek-frydek.html","427"
"16","Restaurace","Steak House Hacienda La Bodega","https://www.firmy.cz/detail/12899854-steak-house-hacienda-la-bodega-frydek-mistek.html","267"
"17","Obchod","Obchodní centrum FRÝDA","https://www.firmy.cz/detail/12967594-obchodni-centrum-fryda-frydek-mistek-frydek.html","462"
"18","Sportoviště","Discgolf Frýdek-Místek","","253"
