"","facility_type","facility_name","facility_iri","facility_distance"
"0","Cukrárna","Cukrárna M & M","https://www.firmy.cz/detail/2687736-cukrarna-m-m-trebic-nove-dvory.html","234"
"1","Hřiště","Dětské hřiště Obránců míru","","50"
"2","Kino","Kino Pasáž","https://www.firmy.cz/detail/661363-kino-pasaz-trebic-horka-domky.html","714"
"3","Večerka","Martin Čiháček","https://www.firmy.cz/detail/13040466-martin-cihacek-trebic-nove-mesto.html","241"
"4","Hospoda","Pivnice U Magora","https://www.firmy.cz/detail/12794841-pivnice-u-magora-trebic.html","204"
"5","Divadlo","Divadlo Národní dům","https://www.firmy.cz/detail/682218-divadlo-narodni-dum-trebic-vnitrni-mesto.html","637"
"6","Veterinář","Veterinární ordinace - MVDr Sylva Kobylarzová, MVDr Šárka Kounková","https://www.firmy.cz/detail/2136648-veterinarni-ordinace-mvdr-sylva-kobylarzova-mvdr-sarka-kounkova-trebic-horka-domky.html","623"
"7","Bankomat","Bankomat Komerční banky","https://www.firmy.cz/detail/12786773-bankomat-komercni-banky-trebic-nove-dvory.html","353"
"8","Pošta","Pošta Třebíč 1 - Česká pošta, s.p.","https://www.firmy.cz/detail/216304-posta-trebic-1-trebic-jejkov.html","356"
"9","Sportoviště","Zábavní centrum DON","https://www.firmy.cz/detail/13116351-zabavni-centrum-don-trebic-nove-dvory.html","418"
"10","Lékárna","Lékárna U Černíků, s.r.o.","https://www.firmy.cz/detail/2242843-lekarna-u-cerniku-trebic-jejkov.html","387"
"11","Obchod","Kaufland","https://www.firmy.cz/detail/1354402-kaufland-trebic-nove-mesto.html","545"
"12","Restaurace","Restaurace Molekula","https://www.firmy.cz/detail/2596225-restaurace-molekula-trebic-nove-dvory.html","288"
"13","Škola","Základní škola Třebíč, Cyrilometodějská 22","https://www.firmy.cz/detail/150381-zakladni-skola-trebic-cyrilometodejska-22-trebic-nove-dvory.html","313"
"14","Bus MHD","Třebíč, Cyrilometodějská","","230"
"15","Lékař","MUDr. Jitka Charousková","https://www.firmy.cz/detail/387062-mudr-jitka-charouskova-trebic-nove-dvory.html","388"
"16","Vlak","Třebíč","","677"
"17","Školka","Mateřská škola Třebíč, ul. Obránců míru, příspěvková organizace","https://www.firmy.cz/detail/2280438-materska-skola-trebic-ul-obrancu-miru-prispevkova-organizace-trebic-nove-dvory.html","57"
