"","facility_type","facility_name","facility_iri","facility_distance"
"0","Cukrárna","La Zmrzka","https://www.firmy.cz/detail/13065320-la-zmrzka-praha-stodulky.html","114"
"1","Kino","Cinema City Zličín","https://www.firmy.cz/detail/436222-cinema-city-zlicin-praha-trebonice.html","1555"
"2","Přírodní zajímavost","Kovářovic mez","","4011"
"3","Hřiště","Dětské hřiště","","118"
"4","Večerka","Potraviny Svitákova 7","https://www.firmy.cz/detail/13163774-potraviny-svitakova-7-praha-stodulky.html","234"
"5","Hospoda","G Pivnice Stodůlky","https://www.firmy.cz/detail/13146250-g-pivnice-stodulky-praha-stodulky.html","472"
"6","Divadlo","Divadelní studio Bubec","https://www.firmy.cz/detail/13047862-divadelni-studio-bubec-praha-reporyje.html","1070"
"7","Veterinář","Veterinární klinika Delta MVDr.Michael Růžička, s.r.o.","https://www.firmy.cz/detail/12957413-veterinarni-klinika-delta-mvdr-michael-ruzicka-praha-repy.html","1795"
"8","Restaurace","Kolkovna Stodůlky","https://www.firmy.cz/detail/12733983-kolkovna-stodulky-praha-stodulky.html","159"
"9","Školka","Bilingvální mateřská škola pro sluchově postižené s.r.o.","https://www.firmy.cz/detail/608412-bilingvalni-materska-skola-pro-sluchove-postizene-s-r-o-praha-stodulky.html","506"
"10","Vlak","Praha-Řeporyje","","1545"
"11","Pošta","Pošta Praha 515 - Česká pošta, s.p.","https://www.firmy.cz/detail/216728-posta-praha-515-praha-stodulky.html","271"
"12","Lékař","MUDr. Dagmar Bělská","https://www.firmy.cz/detail/386753-mudr-dagmar-belska-praha-stodulky.html","672"
"13","Bankomat","Bankomat Komerční banky","https://www.firmy.cz/detail/13323942-bankomat-komercni-banky-praha-stodulky.html","93"
"14","Lékárna","Lékárna Stodůlky","https://www.firmy.cz/detail/13101091-lekarna-stodulky-praha-stodulky.html","672"
"15","Škola","MŠ a ZŠ speciální Diakonie ČCE Praha","https://www.firmy.cz/detail/13343847-ms-a-zs-specialni-diakonie-cce-praha-praha-stodulky.html","482"
"16","Sportoviště","TJ Sokol Řeporyje - Praha 5","https://www.firmy.cz/detail/1961479-tj-sokol-reporyje-praha-5-praha-reporyje.html","1293"
"17","Metro","Stodůlky","","87"
"18","Tram","Slánská","","2100"
"19","Obchod","Homepark Zličín","https://www.firmy.cz/detail/13177905-homepark-zlicin-praha-trebonice.html","661"
"20","Bus MHD","Stodůlky","","199"
