"","facility_type","facility_name","facility_iri","facility_distance"
"0","Cukrárna","Cukrárna Amarilis","https://www.firmy.cz/detail/2570922-cukrarna-amarilis-praha-haje.html","749"
"1","Kino","Cinema City Chodov","https://www.firmy.cz/detail/13098016-cinema-city-chodov-praha-chodov.html","2199"
"2","Přírodní zajímavost","Mokřad Triangl","","3796"
"3","Hřiště","Dětské hřiště Opatovská","","264"
"4","Večerka","Penny Market","https://www.firmy.cz/detail/207735-penny-market-praha-chodov.html","176"
"5","Divadlo","SKAZKA, spol. s r.o.","https://www.firmy.cz/detail/2048564-skazka-praha-hostivar.html","1953"
"6","Hospoda","Hospoda Severka","https://www.firmy.cz/detail/13240896-hospoda-severka-praha-chodov.html","102"
"7","Veterinář","Veterinární ambulance AA-Vet","https://www.firmy.cz/detail/646998-veterinarni-ambulance-aa-vet-praha-chodov.html","368"
"8","Lékárna","Magistra Lékárna Opatov","https://www.firmy.cz/detail/12925684-magistra-lekarna-opatov-praha-chodov.html","182"
"9","Škola","Gymnázium Opatov Praha","https://www.firmy.cz/detail/362071-gymnazium-opatov-praha-praha-chodov.html","207"
"10","Restaurace","Opatovské terasy - Restaurace Palma","https://www.firmy.cz/detail/13039550-opatovske-terasy-restaurace-palma-praha-chodov.html","268"
"11","Bankomat","Bankomat Komerční banky","https://www.firmy.cz/detail/13256002-bankomat-komercni-banky-praha-chodov.html","447"
"12","Sportoviště","Hřiště na pétanque","","448"
"13","Lékař","MEDICO, spol. s r.o.","https://www.firmy.cz/detail/376990-medico-praha-chodov.html","276"
"14","Obchod","OC Opatovská","https://www.firmy.cz/detail/13273144-oc-opatovska-praha-chodov.html","382"
"15","Školka","Mateřská škola, Praha 4, Konstantinova 1480","https://www.firmy.cz/detail/169956-materska-skola-praha-4-konstantinova-1480-praha-chodov.html","174"
"16","Metro","Háje","","478"
"17","Vlak","Praha-Hostivař","","3307"
"18","Tram","Na Groši","","2839"
"19","Bus MHD","Metodějova","","139"
"20","Pošta","Pošta Praha 415 - Česká pošta, s.p.","https://www.firmy.cz/detail/431273-posta-praha-415-praha-chodov.html","545"
