"","facility_type","facility_name","facility_iri","facility_distance"
"0","Hřiště","Dětské hřiště náměstí Jiřího z Lobkovic","https://mapy.cz/zakladni?x=14.466886026&y=50.0772942791&z=17&source=base&id=2215242","231"
"1","Přírodní zajímavost","Mokřad Triangl","https://mapy.cz/zakladni?x=14.5188041667&y=50.0615525&z=17&source=base&id=1981356","4242"
"2","Cukrárna","OVOCNÝ SVĚTOZOR","https://www.firmy.cz/detail/2359021-ovocny-svetozor-praha-zizkov.html","311"
"3","Hospoda","Pivnice Radyně","https://www.firmy.cz/detail/1957129-pivnice-radyne-praha-zizkov.html","1384"
"4","Veterinář","MVDr. Mgr. Kateřina Malíková","https://www.firmy.cz/detail/2518849-mvdr-mgr-katerina-malikova-praha-vrsovice.html","704"
"5","Večerka","Albert Supermarket","https://www.firmy.cz/detail/229765-albert-supermarket-praha-vinohrady.html","112"
"6","Divadlo","Divadelní společnost Josefa Dvořáka","https://www.firmy.cz/detail/396839-divadelni-spolecnost-josefa-dvoraka-praha-vrsovice.html","591"
"7","Kino","Cinema City Flora","https://www.firmy.cz/detail/660712-cinema-city-flora-praha-zizkov.html","403"
"8","Sportoviště","Tenisová škola RETURN","https://www.firmy.cz/detail/740307-tenisova-skola-return-praha-vinohrady.html","220"
"9","Školka","Jesle a školky Bambíno","https://www.firmy.cz/detail/2549610-jesle-a-skolky-bambino-praha-vinohrady.html","81"
"10","Škola","Základní Škola, Praha 3, nám. Jiřího z Lobkovic","https://www.firmy.cz/detail/319016-zakladni-skola-praha-3-nam-jiriho-z-lobkovic-praha-vinohrady.html","220"
"11","Bus MHD","Vlašimská","https://mapy.cz/zakladni?x=14.4636658804&y=50.074461695&z=17&source=pubt&id=15300710","210"
"12","Restaurace","Hostinec U Bergnerů","https://www.firmy.cz/detail/1952787-hostinec-u-bergneru-praha-vinohrady.html","60"
"13","Vlak","Praha-Eden","https://mapy.cz/zakladni?x=14.4717813004041&y=50.0657103621663&z=17&source=pubt&id=18415989","1305"
"14","Lékárna","BENU Lékárna","https://www.firmy.cz/detail/2691909-benu-lekarna-praha-zizkov.html","399"
"15","Lékař","MUDr. Lubomíra Ščuková","https://www.firmy.cz/detail/389434-mudr-lubomira-scukova-praha-vrsovice.html","415"
"16","Tram","Flora","https://mapy.cz/zakladni?x=14.4624341011&y=50.0778799025&z=17&source=pubt&id=15302376","205"
"17","Obchod","Tesco Extra","https://www.firmy.cz/detail/733906-tesco-extra-praha-vrsovice.html","1033"
"18","Pošta","Pošta Praha 31 - Česká pošta, s.p.","https://www.firmy.cz/detail/217421-posta-praha-31-praha-vinohrady.html","147"
"19","Metro","Flora","https://mapy.cz/zakladni?x=14.4613311228&y=50.0776617444&z=17&source=pubt&id=15200278","241"
"20","Bankomat","Bankomat MONETA Money Bank","https://www.firmy.cz/detail/602937-bankomat-moneta-money-bank-praha-vinohrady.html","233"
