"","facility_type","facility_name","facility_iri","facility_distance"
"0","Cukrárna","Kavárna Sauro","https://www.firmy.cz/detail/249182-kavarna-sauro-novy-jicin.html","760"
"1","Kino","Kino Květen","https://www.firmy.cz/detail/12971159-kino-kveten-novy-jicin.html","690"
"2","Hřiště","Dětské hřiště Karla Čapka","","204"
"3","Večerka","HRUŠKA","https://www.firmy.cz/detail/12819271-hruska-novy-jicin.html","259"
"4","Divadlo","Beskydské divadlo","https://www.firmy.cz/detail/643853-beskydske-divadlo-novy-jicin.html","875"
"5","Hospoda","Bistro u Zubra","https://www.firmy.cz/detail/13119234-bistro-u-zubra-novy-jicin.html","254"
"6","Veterinář","MVDr. Tomáš Malina","https://www.firmy.cz/detail/197502-mvdr-tomas-malina-senov-u-noveho-jicina.html","83"
"7","Školka","MŠ Máj Nový Jičín","https://www.firmy.cz/detail/2301564-ms-maj-novy-jicin-novy-jicin.html","167"
"8","Bankomat","Bankomat České spořitelny","https://www.firmy.cz/detail/12987579-bankomat-ceske-sporitelny-senov-u-noveho-jicina.html","436"
"9","Lékárna","Lékárna ASTRA","https://www.firmy.cz/detail/376398-lekarna-astra-novy-jicin.html","290"
"10","Bus MHD","Nový Jičín, u výměníku","","226"
"11","Lékař","MUDr. Radek Ševela","https://www.firmy.cz/detail/13275562-mudr-radek-sevela-novy-jicin.html","422"
"12","Škola","Základní škola a Mateřská škola Nový Jičín, Jubilejní 3, příspěvková organizace","https://www.firmy.cz/detail/287611-zakladni-skola-a-materska-skola-novy-jicin-jubilejni-3-prispevkova-organizace-novy-jicin.html","454"
"13","Restaurace","Hospůdka u Špačků","https://www.firmy.cz/detail/13116338-hospudka-u-spacku-senov-u-noveho-jicina.html","100"
"14","Pošta","Pošta Depo Nový Jičín 70","https://www.firmy.cz/detail/13162923-posta-depo-novy-jicin-70-senov-u-noveho-jicina.html","473"
"15","Sportoviště","DOTEP - CT, s.r.o.","https://www.firmy.cz/detail/12800249-dotep-ct-novy-jicin.html","584"
"16","Obchod","Retail park FASTMALL","https://www.firmy.cz/detail/13262053-retail-park-fastmall-senov-u-noveho-jicina.html","386"
"17","Vlak","Nový Jičín město","","523"
