"","facility_type","facility_name","facility_iri","facility_distance"
"0","Cukrárna","Cukrárna Mocca","https://www.firmy.cz/detail/12947216-cukrarna-mocca-teplice.html","176"
"1","Přírodní zajímavost","Porcelanity u Strak","","3036"
"2","Kino","Multikino - Premiere Cinemas Teplice","https://www.firmy.cz/detail/12861055-multikino-premiere-cinemas-teplice-teplice.html","77"
"3","Hřiště","Dětské hřiště Zámecká zahrada","","626"
"4","Večerka","Lidl","https://www.firmy.cz/detail/13341158-lidl-teplice.html","59"
"5","Hospoda","Hospůdka Vyšehrad Teplice","https://www.firmy.cz/detail/13121903-hospudka-vysehrad-teplice-teplice.html","577"
"6","Divadlo","Krušnohorské divadlo","https://www.firmy.cz/detail/435271-krusnohorske-divadlo-teplice.html","379"
"7","Veterinář","MVDr. Jaroslava Radoušová","https://www.firmy.cz/detail/2621440-mvdr-jaroslava-radousova-teplice.html","593"
"8","Školka","MŠ Čtyřlístek Teplice","https://www.firmy.cz/detail/770536-ms-ctyrlistek-teplice-teplice.html","168"
"9","Restaurace","Restaurace náměstí Svobody 	3316","https://www.firmy.cz/detail/13149707-restaurace-namesti-svobody-3316-teplice.html","85"
"10","Pošta","Pošta Teplice 1 - Česká pošta, s.p.","https://www.firmy.cz/detail/215426-posta-teplice-1-teplice.html","224"
"11","Vlak","Teplice zámecká zahrada","","896"
"12","Bus MHD","Teplice, Alejní","","65"
"13","Bankomat","Bankomat Air Bank","https://www.firmy.cz/detail/12874345-bankomat-air-bank-teplice.html","77"
"14","Obchod","Galerie Teplice","https://www.firmy.cz/detail/12734057-galerie-teplice-teplice.html","85"
"15","Škola","Gymnázium Teplice","https://www.firmy.cz/detail/362446-gymnazium-teplice-teplice.html","184"
"16","Lékař","MUDr. Petr Najman","https://www.firmy.cz/detail/12842554-mudr-petr-najman-teplice.html","302"
"17","Sportoviště","Lanový park Teplice","https://www.firmy.cz/detail/13199196-lanovy-park-teplice-teplice.html","190"
"18","Lékárna","BENU Lékárna","https://www.firmy.cz/detail/12933595-benu-lekarna-teplice.html","110"
