"","facility_type","facility_name","facility_iri","facility_distance"
"0","Hřiště","Dětské hřiště Tělocvičná","https://mapy.cz/zakladni?x=14.1774162011&y=50.7841310081&z=17&source=base&id=1928305","1158"
"1","Večerka","Potraviny Ruská 51","https://www.firmy.cz/detail/658591-potraviny-ruska-51-decin-iv-podmokly.html","1602"
"2","Hospoda","NA RŮŽKU","https://www.firmy.cz/detail/13151088-na-ruzku-decin-viii-dolni-oldrichov.html","1339"
"3","Veterinář","Veterinární ordinace Pod Červeným vrchem","https://www.firmy.cz/detail/477043-veterinarni-ordinace-pod-cervenym-vrchem-decin-iv-podmokly.html","1317"
"4","Cukrárna","Kavárna a cukrárna Paroloď","https://www.firmy.cz/detail/2535791-kavarna-a-cukrarna-parolod-decin-i-decin.html","1556"
"5","Divadlo","Městské divadlo Děčín","https://www.firmy.cz/detail/396943-mestske-divadlo-decin-decin-iv-podmokly.html","1523"
"6","Kino","Kino Sněžník","https://www.firmy.cz/detail/2483705-kino-sneznik-decin-iv-podmokly.html","1914"
"7","Bus MHD","Děčín, Jalůvčí, rozc.","https://mapy.cz/zakladni?x=14.1904718556&y=50.7896257955&z=17&source=pubt&id=15330185","89"
"8","Vlak","Děčín-Přípeř","https://mapy.cz/zakladni?x=14.2096184336&y=50.7851054678&z=17&source=pubt&id=15211212","1348"
"9","Lékárna","Lékárna U Divadla","https://www.firmy.cz/detail/13210938-lekarna-u-divadla-decin-iv-podmokly.html","1480"
"10","Bankomat","Bankomat České spořitelny","https://www.firmy.cz/detail/592003-bankomat-ceske-sporitelny-decin-i-decin.html","1626"
"11","Obchod","OC Korál","https://www.firmy.cz/detail/677797-oc-koral-decin-iv-podmokly.html","1902"
"12","Restaurace","U Supa","https://www.firmy.cz/detail/13115291-u-supa-decin-xvii-jaluvci.html","98"
"13","Škola","ZŠ a MŠ Děčín, Vojanova","https://www.firmy.cz/detail/356809-zs-a-ms-decin-vojanova-decin-viii-dolni-oldrichov.html","1198"
"14","Sportoviště","TJ Sokol Jalůvčí","https://www.firmy.cz/detail/2132313-tj-sokol-jaluvci-decin-xvii-jaluvci.html","420"
"15","Lékař","MUDr. Jitka Blažková","https://www.firmy.cz/detail/390365-mudr-jitka-blazkova-decin-i-decin.html","1570"
"16","Pošta","Pošta Děčín 2 - Česká pošta, s.p.","https://www.firmy.cz/detail/215389-posta-decin-2-decin-iv-podmokly.html","2065"
"17","Školka","ZŠ a MŠ Děčín, Vojanova","https://www.firmy.cz/detail/12807299-zs-a-ms-decin-vojanova-decin-xvii-jaluvci.html","130"
