"","facility_type","facility_name","facility_iri","facility_distance"
"0","Cukrárna","Cukrárna Hájek&Hájková","https://www.firmy.cz/detail/13331775-cukrarna-hajek-hajkova-praha-cakovice.html","1392"
"1","Kino","Cinema City Letňany","https://www.firmy.cz/detail/2679833-cinema-city-letnany-praha-letnany.html","3625"
"2","Hřiště","Dětské hřiště","","174"
"3","Večerka","Potraviny Polabská 295","https://www.firmy.cz/detail/13056920-potraviny-polabska-295-praha-miskovice.html","92"
"4","Hospoda","Vít Janečka","https://www.firmy.cz/detail/13136750-vit-janecka-velen-mirovice.html","1302"
"5","Divadlo","Divadlo Pohádka","https://www.firmy.cz/detail/636143-divadlo-pohadka-praha-letnany.html","4425"
"6","Veterinář","MVDr. Ondřej Čapek","https://www.firmy.cz/detail/634744-mvdr-ondrej-capek-praha-kbely.html","2508"
"7","Škola","Základní škola a Mateřská škola Dr. Edvarda Beneše, Praha - Čakovice","https://www.firmy.cz/detail/356248-zakladni-skola-a-materska-skola-dr-edvarda-benese-praha-cakovice-praha-cakovice.html","1376"
"8","Lékař","Prakticul, s.r.o.","https://www.firmy.cz/detail/13293746-prakticul-praha-cakovice.html","1120"
"9","Lékárna","Lékárna Cukrovarská","https://www.firmy.cz/detail/12730782-lekarna-cukrovarska-praha-cakovice.html","1050"
"10","Sportoviště","Koupaliště Čakovice","https://www.firmy.cz/detail/12988193-koupaliste-cakovice-praha-cakovice.html","1637"
"11","Restaurace","Hostinec pod Vrbou","https://www.firmy.cz/detail/13011713-hostinec-pod-vrbou-praha-miskovice.html","296"
"12","Bus MHD","Tuháňská","","140"
"13","Bankomat","Bankomat České spořitelny","https://www.firmy.cz/detail/595015-bankomat-ceske-sporitelny-praha.html","1448"
"14","Školka","Mateřské a dětské centrum MYŠKA - MYŠkolka","https://www.firmy.cz/detail/12869636-materske-a-detske-centrum-myska-myskolka-praha-miskovice.html","296"
"15","Pošta","Pošta Praha 96 - Česká pošta, s.p.","https://www.firmy.cz/detail/216698-posta-praha-96-praha-cakovice.html","1535"
"16","Obchod","IMPERA obchodní centrum","https://www.firmy.cz/detail/13323703-impera-obchodni-centrum-praha.html","1402"
"17","Metro","Letňany","","3981"
"18","Vlak","Praha-Čakovice","","1897"
"19","Tram","Sídliště Ďáblice","","5242"
