"","facility_type","facility_name","facility_iri","facility_distance"
"0","Cukrárna","CrossCafe Doubravka","https://www.firmy.cz/detail/13273627-crosscafe-doubravka-plzen-doubravka.html","203"
"1","Kino","Kino Beseda","https://www.firmy.cz/detail/12773769-kino-beseda-plzen-jizni-predmesti.html","2940"
"2","Hřiště","Dětské hřiště Družby","","28"
"3","Večerka","NORMA","https://www.firmy.cz/detail/1551819-norma-plzen-doubravka.html","166"
"4","Hospoda","Pivnice U Pietasu","https://www.firmy.cz/detail/288596-pivnice-u-pietasu-plzen-lobzy.html","335"
"5","Divadlo","Divadlo Pluto","https://www.firmy.cz/detail/397008-divadlo-pluto-plzen-doubravka.html","222"
"6","Veterinář","Penecos - N","https://www.firmy.cz/detail/321512-penecos-n-plzen-lobzy.html","817"
"7","Lékárna","Lékárna Centrum","https://www.firmy.cz/detail/421427-lekarna-centrum-plzen-doubravka.html","258"
"8","Bus MHD","Ke Kukačce","","129"
"9","Pošta","Pošta Plzeň 12 - Česká pošta, s.p.","https://www.firmy.cz/detail/216650-posta-plzen-12-plzen-lobzy.html","171"
"10","Lékař","MUDr. Irena Kaslová","https://www.firmy.cz/detail/388038-mudr-irena-kaslova-plzen-doubravka.html","460"
"11","Restaurace","SkipPie - Australské masové koláče","https://www.firmy.cz/detail/13290089-skippie-australske-masove-kolace-plzen-doubravka.html","222"
"12","Obchod","Obchodní dům AAA","https://www.firmy.cz/detail/649915-obchodni-dum-aaa-plzen-lobzy.html","486"
"13","Vlak","Plzeň-Doubravka","","896"
"14","Bankomat","Bankomat ČSOB","https://www.firmy.cz/detail/597027-bankomat-csob-plzen-lobzy.html","171"
"15","Sportoviště","Bowling Lucerna","https://www.firmy.cz/detail/2353459-bowling-lucerna-plzen-doubravka.html","293"
"16","Školka","50. MŠ Plzeň","https://www.firmy.cz/detail/360433-50-ms-plzen-plzen-doubravka.html","113"
"17","Škola","22. ZŠ Plzeň","https://www.firmy.cz/detail/358862-22-zs-plzen-plzen-doubravka.html","201"
"18","Tram","Bazén Slovany","","2106"
