"","facility_type","facility_name","facility_iri","facility_distance"
"0","Cukrárna","Julius Meinl","https://www.firmy.cz/detail/13209053-julius-meinl-brno-bohunice.html","1490"
"1","Kino","Brno Autokino","https://www.firmy.cz/detail/13328637-brno-autokino-brno-pisarky.html","2956"
"2","Přírodní zajímavost","Koniklecová louka","","2527"
"3","Hřiště","Dětské hřiště Souhrady","","248"
"4","Večerka","Albert Supermarket","https://www.firmy.cz/detail/450071-albert-supermarket-brno-stary-liskovec.html","526"
"5","Hospoda","Bohunická Rychta","https://www.firmy.cz/detail/13302567-bohunicka-rychta-brno-bohunice.html","729"
"6","Divadlo","Malá Amerika","https://www.firmy.cz/detail/12926234-mala-amerika-brno-stare-brno.html","3904"
"7","Veterinář","1.veterina Lískovec, s.r.o.","https://www.firmy.cz/detail/2667729-1-veterina-liskovec-brno-stary-liskovec.html","845"
"8","Školka","Daycare Centre, z.s.","https://www.firmy.cz/detail/13212475-daycare-centre-z-s-brno-stary-liskovec.html","63"
"9","Lékař","Praktik Křídlovická s.r.o.","https://www.firmy.cz/detail/13208121-praktik-kridlovicka-s-r-o-brno-bohunice.html","542"
"10","Vlak","Brno-Starý Lískovec","","204"
"11","Bankomat","Bankomat MONETA Money Bank","https://www.firmy.cz/detail/13159015-bankomat-moneta-money-bank-brno-bohunice.html","528"
"12","Škola","ZŠ a MŠ Brno, Elišky Přemyslovny","https://www.firmy.cz/detail/356487-zs-a-ms-brno-elisky-premyslovny-brno-stary-liskovec.html","147"
"13","Obchod","OC Kavkaz","https://www.firmy.cz/detail/13171080-oc-kavkaz-brno-bohunice.html","531"
"14","Pošta","Pošta Brno 25 - Česká pošta, s.p.","https://www.firmy.cz/detail/216043-posta-brno-25-brno-stary-liskovec.html","609"
"15","Tram","Osová","","581"
"16","Sportoviště","Tělocvičná jednota Sokol Brno - Starý Lískovec","https://www.firmy.cz/detail/2139536-telocvicna-jednota-sokol-brno-stary-liskovec-brno-stary-liskovec.html","485"
"17","Bus MHD","Svah","","191"
"18","Restaurace","Pizzeria Ristorante La Patas","https://www.firmy.cz/detail/13101878-pizzeria-ristorante-la-patas-brno-stary-liskovec.html","183"
"19","Lékárna","BENU Lékárna","https://www.firmy.cz/detail/13163105-benu-lekarna-brno-stary-liskovec.html","584"
