"","facility_type","facility_name","facility_iri","facility_distance"
"0","Hřiště","Dětské hřiště Zdiměřická","https://mapy.cz/zakladni?x=14.5119832073&y=50.0232406868&z=17&source=base&id=1926462","59"
"1","Večerka","Potraviny Petmi","https://www.firmy.cz/detail/12795952-potraviny-petmi-praha.html","36"
"2","Veterinář","Veterinární ambulance AA-Vet","https://www.firmy.cz/detail/646998-veterinarni-ambulance-aa-vet-praha-chodov.html","655"
"3","Cukrárna","Why not Špejchar","https://www.firmy.cz/detail/13169880-why-not-spejchar-praha-seberov.html","1213"
"4","Hospoda","U Kajmana","https://www.firmy.cz/detail/13156223-u-kajmana-praha-chodov.html","315"
"5","Divadlo","SKAZKA, spol. s r.o.","https://www.firmy.cz/detail/2048564-skazka-praha-hostivar.html","2421"
"6","Přírodní zajímavost","Mokřad Triangl","https://mapy.cz/zakladni?x=14.5188041667&y=50.0615525&z=17&source=base&id=1981356","4230"
"7","Kino","Cinema City Chodov","https://www.firmy.cz/detail/13098016-cinema-city-chodov-praha-chodov.html","1719"
"8","Restaurace","Wrap'n Roll","https://www.firmy.cz/detail/13309325-wrap-n-roll-praha-chodov.html","297"
"9","Školka","MŠ Madolinka","https://www.firmy.cz/detail/1962691-ms-madolinka-praha-chodov.html","356"
"10","Obchod","OC Opatovská","https://www.firmy.cz/detail/13273144-oc-opatovska-praha-chodov.html","369"
"11","Lékař","Poliklinika Chomutovická","https://www.firmy.cz/detail/1791656-poliklinika-chomutovicka-praha-chodov.html","94"
"12","Sportoviště","Tělocvičná jednota Sokol Háje","https://www.firmy.cz/detail/2128366-telocvicna-jednota-sokol-haje-praha-chodov.html","36"
"13","Lékárna","BENU lékárna","https://www.firmy.cz/detail/13268276-benu-lekarna-praha-chodov.html","303"
"14","Škola","Základní škola Vitae, s.r.o.","https://www.firmy.cz/detail/13000041-zakladni-skola-vitae-praha-chodov.html","144"
"15","Pošta","Pošta Praha 415 - Česká pošta, s.p.","https://www.firmy.cz/detail/431273-posta-praha-415-praha-chodov.html","960"
"16","Metro","Opatov","https://mapy.cz/zakladni?x=14.5083966198207&y=50.0276274768643&z=17&source=pubt&id=19419426","512"
"17","Bus MHD","Ke Kateřinkám","https://mapy.cz/zakladni?x=14.514661639236067&y=50.024557400040145&z=17&source=pubt&id=15302483","195"
"18","Bankomat","Bankomat Komerční banky","https://www.firmy.cz/detail/13033985-bankomat-komercni-banky-praha-chodov.html","292"
"19","Tram","Na Groši","https://mapy.cz/zakladni?x=14.5237713355&y=50.0529111075&z=17&source=pubt&id=15301077","3346"
"20","Vlak","Praha-Hostivař","https://mapy.cz/zakladni?x=14.5382405134&y=50.0550223431&z=17&source=pubt&id=15212564","3942"
