"","facility_type","facility_name","facility_iri","facility_distance"
"0","Hřiště","Dětské hřiště Sofijská","https://mapy.cz/zakladni?x=14.6799487999&y=49.3908837723&z=17&source=base&id=1928608","48"
"1","Veterinář","MVDr. Zuzana Nevrlá","https://www.firmy.cz/detail/2688136-mvdr-zuzana-nevrla-sezimovo-usti.html","354"
"2","Večerka","COOP - TUTY","https://www.firmy.cz/detail/2121764-coop-tuty-tabor.html","111"
"3","Cukrárna","WallClub Caffé","https://www.firmy.cz/detail/12987628-wallclub-caffe-sezimovo-usti.html","565"
"4","Hospoda","Hostinec U Křivánků","https://www.firmy.cz/detail/13112307-hostinec-u-krivanku-sezimovo-usti.html","615"
"5","Kino","Letní kino Sezimovo Ústí","https://www.firmy.cz/detail/396586-letni-kino-sezimovo-usti-sezimovo-usti.html","1850"
"6","Divadlo","Divadlo Oskara Nedbala Tábor","https://www.firmy.cz/detail/406554-divadlo-oskara-nedbala-tabor-tabor.html","2833"
"7","Obchod","Kaufland","https://www.firmy.cz/detail/1354411-kaufland-tabor.html","614"
"8","Restaurace","Restaurace Centrum-Sojčák","https://www.firmy.cz/detail/574267-restaurace-centrum-sojcak-tabor.html","101"
"9","Sportoviště","Olena Kolesnyková","https://www.firmy.cz/detail/12773573-olena-kolesnykova-tabor.html","251"
"10","Školka","Centrum Kaňka","https://www.firmy.cz/detail/12829725-centrum-kanka-tabor.html","675"
"11","Bankomat","Bankomat Komerční banky","https://www.firmy.cz/detail/12786225-bankomat-komercni-banky-tabor.html","365"
"12","Škola","MŠ, ZŠ speciální a praktická škola Diakonie ČCE Rolnička Soběslav","https://www.firmy.cz/detail/12899530-ms-zs-specialni-a-prakticka-skola-diakonie-cce-rolnicka-sobeslav-tabor.html","251"
"13","Bus MHD","Tábor, sídl.Nad Lužnicí střed","https://mapy.cz/zakladni?x=14.6840656107299&y=49.3908303305821&z=17&source=pubt&id=15324948","252"
"14","Lékárna","Lékárna Světlogorská","https://www.firmy.cz/detail/12792954-lekarna-svetlogorska-tabor.html","416"
"15","Lékař","MUDr. Radko Luňák","https://www.firmy.cz/detail/389868-mudr-radko-lunak-tabor.html","416"
"16","Pošta","Pošta Tábor 5 - Česká pošta, s.p.","https://www.firmy.cz/detail/216933-posta-tabor-5-tabor.html","373"
"17","Vlak","Tábor-Čápův Dvůr","https://mapy.cz/zakladni?x=14.6925719433&y=49.3934456269&z=17&source=pubt&id=15213510","917"
