"","facility_type","facility_name","facility_iri","facility_distance"
"0","Hřiště","Dětské hřiště Viklefova","https://mapy.cz/zakladni?x=14.4747485727&y=50.0900279042&z=17&source=base&id=1927009","122"
"1","Přírodní zajímavost","Meandry Rokytky","https://mapy.cz/zakladni?x=14.517104002655032&y=50.098337103299386&z=17&source=base&id=2338360","3220"
"2","Cukrárna","Cukrárna Amarilis","https://www.firmy.cz/detail/13334795-cukrarna-amarilis-praha-zizkov.html","544"
"3","Večerka","Lidl","https://www.firmy.cz/detail/2374393-lidl-praha-zizkov.html","199"
"4","Divadlo","Divadlo Kámen","https://www.firmy.cz/detail/197593-divadlo-kamen-praha-karlin.html","630"
"5","Veterinář","MVDr. Eva Šeráková","https://www.firmy.cz/detail/477968-mvdr-eva-serakova-praha-vysocany.html","885"
"6","Kino","Kino Aero","https://www.firmy.cz/detail/399435-kino-aero-praha-zizkov.html","126"
"7","Hospoda","Pivnice Radyně","https://www.firmy.cz/detail/1957129-pivnice-radyne-praha-zizkov.html","527"
"8","Sportoviště","Discgolf Krejcárek","https://mapy.cz/zakladni?x=14.4789988889&y=50.0947102778&z=17&source=base&id=1978639","585"
"9","Lékař","MUDr. Stanislav Švadlena","https://www.firmy.cz/detail/430642-mudr-stanislav-svadlena-praha-zizkov.html","59"
"10","Bus MHD","Ohrada","https://mapy.cz/zakladni?x=14.4685698526&y=50.0913299957&z=17&source=pubt&id=15301921","358"
"11","Metro","Invalidovna","https://mapy.cz/zakladni?x=14.4644701191&y=50.0972966482&z=17&source=pubt&id=15200170","969"
"12","Pošta","Pošta Praha 3 - Česká pošta, s.p.","https://www.firmy.cz/detail/2102474-posta-praha-3-praha-zizkov.html","783"
"13","Vlak","Praha-Libeň","https://mapy.cz/zakladni?x=14.50137421&y=50.1009760028&z=17&source=pubt&id=15212572","2287"
"14","Školka","Rodinné a pobybové centrum Pražačka","https://www.firmy.cz/detail/12701651-rodinne-a-pobybove-centrum-prazacka-praha-zizkov.html","144"
"15","Bankomat","Bankomat České spořitelny","https://www.firmy.cz/detail/594748-bankomat-ceske-sporitelny-praha-zizkov.html","140"
"16","Tram","Vozovna Žižkov","https://mapy.cz/zakladni?x=14.4745340518&y=50.0914920524&z=17&source=pubt&id=15303113","106"
"17","Restaurace","Restaurace Záležitost","https://www.firmy.cz/detail/332912-restaurace-zalezitost-praha-zizkov.html","277"
"18","Lékárna","Místní Lékárna Na Vápence","https://www.firmy.cz/detail/375016-mistni-lekarna-na-vapence-praha-zizkov.html","42"
"19","Škola","Gymnázium Na Pražačce, Praha 3, Nad Ohradou 23","https://www.firmy.cz/detail/362283-gymnazium-na-prazacce-praha-3-nad-ohradou-23-praha-zizkov.html","233"
"20","Obchod","Kaufland","https://www.firmy.cz/detail/1545721-kaufland-praha-liben.html","1337"
