"","facility_type","facility_name","facility_iri","facility_distance"
"0","Cukrárna","Kafe Laky","https://www.firmy.cz/detail/13166832-kafe-laky-ceska-lipa.html","434"
"1","Kino","Kino Crystal","https://www.firmy.cz/detail/399410-kino-crystal-ceska-lipa.html","411"
"2","Přírodní zajímavost","Ptačí park Mnišské louky","","2749"
"3","Hřiště","Dětské hřiště 5. května","","544"
"4","Večerka","Potraviny TONY","https://www.firmy.cz/detail/13314963-potraviny-tony-ceska-lipa.html","111"
"5","Hospoda","Pivnice Platan","https://www.firmy.cz/detail/693507-pivnice-platan-ceska-lipa.html","89"
"6","Divadlo","Jiráskovo divadlo","https://www.firmy.cz/detail/2352914-jiraskovo-divadlo-ceska-lipa.html","674"
"7","Veterinář","MVDR.HELLER RADEK,PRAKTICKÝ VETERINÁRNÍ LÉKAŘ","https://www.firmy.cz/detail/276861-mvdr-heller-radek-prakticky-veterinarni-lekar-ceska-lipa.html","659"
"8","Obchod","OD ANDY, s.r.o.","https://www.firmy.cz/detail/415601-od-andy-ceska-lipa.html","332"
"9","Školka","Dráček Česká Lípa z.s.","https://www.firmy.cz/detail/13226214-dracek-ceska-lipa-z-s-ceska-lipa.html","171"
"10","Škola","ZŠ Dr. Miroslava Tyrše, Česká Lípa","https://www.firmy.cz/detail/356715-zs-dr-miroslava-tyrse-ceska-lipa-ceska-lipa.html","106"
"11","Lékárna","Dr. Max","https://www.firmy.cz/detail/12942246-dr-max-ceska-lipa.html","332"
"12","Restaurace","Restaurace Viet - Thai","https://www.firmy.cz/detail/13116210-restaurace-viet-thai-ceska-lipa.html","146"
"13","Bus MHD","Česká Lípa, Hrnčířská","","131"
"14","Sportoviště","Sdružení TJ a SK Českolipska","https://www.firmy.cz/detail/13039341-sdruzeni-tj-a-sk-ceskolipska-ceska-lipa.html","111"
"15","Vlak","Česká Lípa hlavní nádraží","","480"
"16","Bankomat","Bankomat České spořitelny","https://www.firmy.cz/detail/591920-bankomat-ceske-sporitelny-ceska-lipa.html","146"
"17","Lékař","MUDr. Jana Siblíková","https://www.firmy.cz/detail/389854-mudr-jana-siblikova-ceska-lipa.html","106"
"18","Pošta","Pošta Česká Lípa 1 - Česká pošta, s.p.","https://www.firmy.cz/detail/215488-posta-ceska-lipa-1-ceska-lipa.html","659"
