"","facility_type","facility_name","facility_iri","facility_distance"
"0","Cukrárna","Cukrárna U Mostu","https://www.firmy.cz/detail/2593276-cukrarna-u-mostu-trebechovice-pod-orebem.html","215"
"1","Přírodní zajímavost","Bývalá letecká střelnice","","4901"
"2","Hřiště","Dětské hřiště Třebechovice pod Orebem","","399"
"3","Večerka","HRUŠKA","https://www.firmy.cz/detail/13107773-hruska-trebechovice-pod-orebem.html","132"
"4","Hospoda","Na Růžku","https://www.firmy.cz/detail/13148246-na-ruzku-trebechovice-pod-orebem.html","81"
"5","Veterinář","Veterinární ambulance - MVDr. Dokulil","https://www.firmy.cz/detail/273660-veterinarni-ambulance-mvdr-dokulil-trebechovice-pod-orebem.html","252"
"6","Bus MHD","Třebechovice pod Orebem, Masarykovo nám.","","25"
"7","Lékárna","LÉKÁRNA ipc Třebechovice","https://www.firmy.cz/detail/307932-lekarna-ipc-trebechovice-trebechovice-pod-orebem.html","128"
"8","Vlak","Třebechovice pod Orebem","","781"
"9","Restaurace","Thapsus pizza & kebab","https://www.firmy.cz/detail/13096459-thapsus-pizza-kebab-trebechovice-pod-orebem.html","31"
"10","Pošta","Pošta Třebechovice pod Orebem - Česká pošta, s.p.","https://www.firmy.cz/detail/216008-posta-trebechovice-pod-orebem-trebechovice-pod-orebem.html","324"
"11","Lékař","Praxe TpO s.r.o. - MUDr. Jiří Čáp, MUDr. Vladimíra Cejnarová","https://www.firmy.cz/detail/13070799-praxe-tpo-s-r-o-mudr-jiri-cap-mudr-vladimira-cejnarova-trebechovice-pod-orebem.html","456"
"12","Školka","Lesní školka Lesokruh","https://www.firmy.cz/detail/13282824-lesni-skolka-lesokruh-trebechovice-pod-orebem.html","153"
"13","Škola","ZUŠ Třebechovice pod Orebem","https://www.firmy.cz/detail/427258-zus-trebechovice-pod-orebem-trebechovice-pod-orebem.html","193"
"14","Bankomat","Bankomat Komerční banky","https://www.firmy.cz/detail/13256174-bankomat-komercni-banky-trebechovice-pod-orebem.html","69"
"15","Sportoviště","Koupaliště BOR Třebechovice","https://www.firmy.cz/detail/324854-koupaliste-bor-trebechovice-trebechovice-pod-orebem.html","992"
