"","facility_type","facility_name","facility_iri","facility_distance"
"0","Cukrárna","Zmrzlina Riviera","https://www.firmy.cz/detail/13112887-zmrzlina-riviera-kromeriz.html","180"
"1","Kino","Kino Nadsklepí","https://www.firmy.cz/detail/12749352-kino-nadsklepi-kromeriz.html","151"
"2","Přírodní zajímavost","Soutok Moravy a Hané","","4048"
"3","Hřiště","Dětské hřiště Březinova","","349"
"4","Večerka","Potraviny Riegrovo náměstí","https://www.firmy.cz/detail/2347789-potraviny-riegrovo-namesti-kromeriz.html","136"
"5","Hospoda","Plzeňská pivnice stará","https://www.firmy.cz/detail/12903061-plzenska-pivnice-stara-kromeriz.html","96"
"6","Divadlo","Dům kultury v Kroměříži","https://www.firmy.cz/detail/397120-dum-kultury-v-kromerizi-kromeriz.html","489"
"7","Veterinář","MVDr. Ivan Popelka","https://www.firmy.cz/detail/580071-mvdr-ivan-popelka-kromeriz.html","603"
"8","Lékárna","Lékárna Velké náměstí","https://www.firmy.cz/detail/12901289-lekarna-velke-namesti-kromeriz.html","272"
"9","Bankomat","Bankomat Komerční banky","https://www.firmy.cz/detail/597651-bankomat-komercni-banky-kromeriz.html","129"
"10","Vlak","Kroměříž","","970"
"11","Pošta","Pošta Kroměříž 2 - Česká pošta, s.p.","https://www.firmy.cz/detail/216109-posta-kromeriz-2-kromeriz.html","275"
"12","Sportoviště","Sportovní hala Slavia","https://www.firmy.cz/detail/12877925-sportovni-hala-slavia-kromeriz.html","433"
"13","Školka","Mateřská škola, Kroměříž, Kollárova","https://www.firmy.cz/detail/13045587-materska-skola-kromeriz-kollarova-kromeriz.html","201"
"14","Škola","Vyšší odborná škola pedagogická a sociální a Střední pedagogická škola Kroměříž","https://www.firmy.cz/detail/2204035-vyssi-odborna-skola-pedagogicka-a-socialni-a-stredni-pedagogicka-skola-kromeriz-kromeriz.html","20"
"15","Obchod","Albert Hypermarket","https://www.firmy.cz/detail/446933-albert-hypermarket-kromeriz.html","515"
"16","Restaurace","Pod starou knihovnou","https://www.firmy.cz/detail/1984469-pod-starou-knihovnou-kromeriz.html","110"
"17","Lékař","MEDIBRUM s.r.o. - MUDr. Ema Husaříková","https://www.firmy.cz/detail/12926622-medibrum-s-r-o-mudr-ema-husarikova-kromeriz.html","415"
"18","Bus MHD","Kroměříž, Husovo náměstí","","104"
