"","facility_type","facility_name","facility_iri","facility_distance"
"0","Hřiště","Dětské hřiště Mišákova","https://mapy.cz/zakladni?x=17.251831323&y=49.5823039336&z=17&source=base&id=1928909","336"
"1","Večerka","Lidl","https://www.firmy.cz/detail/1958243-lidl-olomouc.html","385"
"2","Hospoda","Pivnice U Tygra","https://www.firmy.cz/detail/12949833-pivnice-u-tygra-olomouc.html","393"
"3","Kino","5D cinema Maxim","https://www.firmy.cz/detail/12950601-5d-cinema-maxim-olomouc.html","500"
"4","Veterinář","Veterinární klinika TOSA","https://www.firmy.cz/detail/1952555-veterinarni-klinika-tosa-olomouc-nove-sady.html","393"
"5","Divadlo","Divadlo na Šantovce, o.p.s.","https://www.firmy.cz/detail/12833588-divadlo-na-santovce-olomouc.html","569"
"6","Cukrárna","MRAVENIŠTĚ - dětský koutek - kavárna - bazárek","https://www.firmy.cz/detail/2667725-mraveniste-detsky-koutek-kavarna-bazarek-olomouc.html","250"
"7","Bankomat","Bankomat MONETA Money Bank","https://www.firmy.cz/detail/13311268-bankomat-moneta-money-bank-olomouc.html","393"
"8","Vlak","Olomouc-Smetanovy sady","https://mapy.cz/zakladni?x=17.2547469341&y=49.5855845885&z=17&source=pubt&id=15212342","316"
"9","Restaurace","Restaurace Admiral","https://www.firmy.cz/detail/13110634-restaurace-admiral-olomouc-povel.html","74"
"10","Lékař","MEDICINPRAXE - MUDr. Hana Fritscherová","https://www.firmy.cz/detail/2695691-medicinpraxe-mudr-hana-fritscherova-olomouc.html","425"
"11","Obchod","Albert Hypermarket","https://www.firmy.cz/detail/12924402-albert-hypermarket-olomouc.html","522"
"12","Škola","Střední škola a Základní škola DC 90, s.r.o.","https://www.firmy.cz/detail/2196796-stredni-skola-a-zakladni-skola-dc-90-olomouc-povel.html","277"
"13","Pošta","Pošta Olomouc 6 - Česká pošta, s.p.","https://www.firmy.cz/detail/12976006-posta-olomouc-6-olomouc.html","531"
"14","Sportoviště","Sportovní klub V.T.T. Olomouc","https://www.firmy.cz/detail/1343552-sportovni-klub-v-t-t-olomouc-olomouc.html","470"
"15","Tram","Tržnice","https://mapy.cz/zakladni?x=17.25365717644507&y=49.58930529795309&z=17&source=pubt&id=15203079","515"
"16","Lékárna","Lékárna Domovina","https://www.firmy.cz/detail/2354673-lekarna-domovina-olomouc.html","425"
"17","Bus MHD","U Botanické zahrady","https://mapy.cz/zakladni?x=17.24926469861936&y=49.58485649674927&z=17&source=pubt&id=15203166","90"
"18","Školka","Fakultní ZŠ a MŠ Olomouc, Schweitzerova","https://www.firmy.cz/detail/2590866-fakultni-zs-a-ms-olomouc-schweitzerova-olomouc-povel.html","125"
