"","facility_type","facility_name","facility_iri","facility_distance"
"0","Přírodní zajímavost","Kobeřické motýlí stráně","","1150"
"1","Hřiště","Dětské hřiště Nádražní","","505"
"2","Večerka","Potraviny Kobeřice","https://www.firmy.cz/detail/13125046-potraviny-koberice-koberice.html","86"
"3","Hospoda","Nela Bar","https://www.firmy.cz/detail/13115104-nela-bar-koberice.html","322"
"4","Veterinář","MVDr. Jan Holeček","https://www.firmy.cz/detail/2441053-mvdr-jan-holecek-koberice.html","346"
"5","Lékař","MUDr. Zdeněk Šimek","https://www.firmy.cz/detail/386663-mudr-zdenek-simek-koberice.html","482"
"6","Restaurace","Restaurace Familie","https://www.firmy.cz/detail/2238033-restaurace-familie-koberice.html","133"
"7","Bus MHD","Kobeřice, most","","236"
"8","Lékárna","U Zlaté rybky","https://www.firmy.cz/detail/659674-u-zlate-rybky-koberice.html","415"
"9","Školka","MŠ Kobeřice, Školní","https://www.firmy.cz/detail/2150165-ms-koberice-skolni-koberice.html","230"
"10","Sportoviště","Koupaliště Bolatice","https://www.firmy.cz/detail/13113898-koupaliste-bolatice-bolatice.html","3975"
"11","Bankomat","Bankomat České spořitelny","https://www.firmy.cz/detail/12736802-bankomat-ceske-sporitelny-koberice.html","676"
"12","Vlak","Bolatice","","3283"
"13","Pošta","Pošta Kobeřice - Česká pošta, s.p.","https://www.firmy.cz/detail/432607-posta-koberice-koberice.html","380"
"14","Škola","Základní škola a mateřská škola Kobeřice, okres Opava","https://www.firmy.cz/detail/357696-zakladni-skola-a-materska-skola-koberice-okres-opava-koberice.html","230"
