"","facility_type","facility_name","facility_iri","facility_distance"
"0","Hřiště","Dětské hřiště sad Komenského","https://mapy.cz/zakladni?x=17.665173294&y=49.2237905381&z=17&source=base&id=1928720","182"
"1","Veterinář","MVDr. Hana Jurášková","https://www.firmy.cz/detail/12830203-mvdr-hana-juraskova-zlin.html","348"
"2","Cukrárna","Mr. Coffee","https://www.firmy.cz/detail/13212553-mr-coffee-zlin.html","97"
"3","Večerka","BILLA","https://www.firmy.cz/detail/2342259-billa-zlin.html","243"
"4","Kino","Multikino Golden Apple Cinema","https://www.firmy.cz/detail/2138121-multikino-golden-apple-cinema-zlin.html","223"
"5","Hospoda","Hospůdka u Knapů","https://www.firmy.cz/detail/12754892-hospudka-u-knapu-zlin.html","712"
"6","Divadlo","Divadlo OPONA","https://www.firmy.cz/detail/2326192-divadlo-opona-zlin.html","151"
"7","Škola","ZŠ Zlín, Štefánikova","https://www.firmy.cz/detail/360220-zs-zlin-stefanikova-zlin.html","145"
"8","Lékař","MALMEDICA, s.r.o.","https://www.firmy.cz/detail/12818454-malmedica-zlin.html","24"
"9","Sportoviště","Orel jednota Zlín","https://www.firmy.cz/detail/1960913-orel-jednota-zlin-zlin.html","73"
"10","Bankomat","Bankomat MONETA Money Bank","https://www.firmy.cz/detail/13082658-bankomat-moneta-money-bank-zlin.html","103"
"11","Pošta","Pošta Zlín 1 - Česká pošta, s.p.","https://www.firmy.cz/detail/432899-posta-zlin-1-zlin.html","773"
"12","Restaurace","Bistro letem světem","https://www.firmy.cz/detail/13325285-bistro-letem-svetem-zlin.html","89"
"13","Lékárna","Lékárna Porta Medicinae","https://www.firmy.cz/detail/13210987-lekarna-porta-medicinae-zlin.html","102"
"14","Školka","MŠ Zlín, Osvoboditelů","https://www.firmy.cz/detail/2147008-ms-zlin-osvoboditelu-zlin.html","167"
"15","Vlak","Zlín-Dlouhá","https://mapy.cz/zakladni?x=17.6727669874&y=49.229202829&z=17&source=pubt&id=15213389","653"
"16","Bus MHD","Školní","https://mapy.cz/zakladni?x=17.6670201103&y=49.2235525638&z=17&source=pubt&id=15210039","106"
"17","Obchod","Zlaté jablko, a.s.","https://www.firmy.cz/detail/196042-zlate-jablko-zlin.html","228"
