"","facility_type","facility_name","facility_iri","facility_distance"
"0","Cukrárna","Kavárna a cukrárna Bellissima","https://www.firmy.cz/detail/13270397-kavarna-a-cukrarna-bellissima-bezdruzice.html","501"
"1","Kino","Kino Bezdružice","https://www.firmy.cz/detail/457504-kino-bezdruzice-bezdruzice.html","458"
"2","Přírodní zajímavost","Čedičový lom Hradišťský vrch","","3605"
"3","Hřiště","Dětské hřiště Na Sídlišti","","134"
"4","Večerka","Můjobchod - Potraviny U Honzy","https://www.firmy.cz/detail/13317289-mujobchod-potraviny-u-honzy-bezdruzice.html","80"
"5","Hospoda","Hospůdka Na koupališti","https://www.firmy.cz/detail/13322331-hospudka-na-koupalisti-bezdruzice-krivce.html","1649"
"6","Škola","ZŠ Bezdružice","https://www.firmy.cz/detail/356342-zs-bezdruzice-bezdruzice.html","104"
"7","Bus MHD","Bezdružice","","376"
"8","Bankomat","Bankomat ČSOB","https://www.firmy.cz/detail/596966-bankomat-csob-konstantinovy-lazne.html","2833"
"9","Lékárna","U Zlaté koruny","https://www.firmy.cz/detail/659499-u-zlate-koruny-bezdruzice.html","376"
"10","Pošta","Pošta Bezdružice - Česká pošta, s.p.","https://www.firmy.cz/detail/433160-posta-bezdruzice-bezdruzice.html","464"
"11","Sportoviště","Město Bezdružice","https://www.firmy.cz/detail/12872502-mesto-bezdruzice-bezdruzice.html","273"
"12","Lékař","MUDr. Tomáš Böhm","https://www.firmy.cz/detail/2268524-mudr-tomas-bohm-bezdruzice.html","263"
"13","Školka","MŠ Bezdružice","https://www.firmy.cz/detail/737002-ms-bezdruzice-bezdruzice.html","263"
"14","Restaurace","Restaurace Sport u Rákosníčka","https://www.firmy.cz/detail/13112755-restaurace-sport-u-rakosnicka-bezdruzice.html","279"
"15","Vlak","Bezdružice","","485"
