"","facility_type","facility_name","facility_iri","facility_distance"
"0","Cukrárna","Janina showroom cafe","https://www.firmy.cz/detail/13140518-janina-showroom-cafe-most.html","179"
"1","Kino","Kino Kosmos","https://www.firmy.cz/detail/401279-kino-kosmos-most.html","606"
"2","Hřiště","Dětské hřiště Kpt. Jaroše","","175"
"3","Večerka","Potraviny Česká 3124","https://www.firmy.cz/detail/13253064-potraviny-ceska-3124-most.html","42"
"4","Hospoda","Pivnice Mařenka","https://www.firmy.cz/detail/2520685-pivnice-marenka-most.html","441"
"5","Divadlo","Divadlo nad Labem","https://www.firmy.cz/detail/2240673-divadlo-nad-labem-most.html","246"
"6","Veterinář","Veterinka U Tlapiček","https://www.firmy.cz/detail/12758413-veterinka-u-tlapicek-most.html","605"
"7","Pošta","Pošta Most 11 - Česká pošta, s.p.","https://www.firmy.cz/detail/216959-posta-most-11-most.html","326"
"8","Bankomat","Bankomat ČSOB","https://www.firmy.cz/detail/12776893-bankomat-csob-most.html","326"
"9","Obchod","Retail Park Most","https://www.firmy.cz/detail/13195413-retail-park-most-most.html","971"
"10","Sportoviště","Pétanque aquadrom","","318"
"11","Školka","MŠ Most, Lidická","https://www.firmy.cz/detail/1336422-ms-most-lidicka-most.html","107"
"12","Škola","15. ZŠ Most","https://www.firmy.cz/detail/356098-15-zs-most-most.html","363"
"13","Restaurace","Restaurace ""U Páji""","https://www.firmy.cz/detail/2543332-restaurace-u-paji-most.html","110"
"14","Vlak","Most","","2309"
"15","Lékárna","Dr. Max LÉKÁRNA","https://www.firmy.cz/detail/2007251-dr-max-lekarna-most.html","461"
"16","Lékař","MUDr. Yvetta Fidlerová","https://www.firmy.cz/detail/385591-mudr-yvetta-fidlerova-most.html","461"
"17","Bus MHD","Most, Zd.Štěpánka","","245"
"18","Tram","Most, Severografia","","570"
