"","facility_type","facility_name","facility_iri","facility_distance"
"0","Cukrárna","Zero Goodies","https://www.firmy.cz/detail/13139385-zero-goodies-chomutov.html","161"
"1","Kino","Letní kino Chomutov","https://www.firmy.cz/detail/2644649-letni-kino-chomutov-chomutov.html","1220"
"2","Hřiště","Dětské hřiště Karolíny Světlé","","59"
"3","Večerka","Potraviny 28. října 1065","https://www.firmy.cz/detail/12813179-potraviny-28-rijna-1065-chomutov.html","70"
"4","Hospoda","Pivnice Podzemka Školní","https://www.firmy.cz/detail/13314435-pivnice-podzemka-skolni-chomutov.html","135"
"5","Divadlo","Městské divadlo Chomutov","https://www.firmy.cz/detail/2644644-mestske-divadlo-chomutov-chomutov.html","388"
"6","Veterinář","MVDr. Miloš Helebrant","https://www.firmy.cz/detail/2132064-mvdr-milos-helebrant-chomutov.html","408"
"7","Školka","MŠ Chomutov, Palackého","https://www.firmy.cz/detail/1345643-ms-chomutov-palackeho-chomutov.html","361"
"8","Lékař","MUDr. Naděžda Lánská","https://www.firmy.cz/detail/387259-mudr-nadezda-lanska-chomutov.html","12"
"9","Restaurace","Čínské bistro - Hongye 2000 s.r.o.","https://www.firmy.cz/detail/12850731-cinske-bistro-hongye-2000-s-r-o-chomutov.html","96"
"10","Pošta","Pošta Chomutov 2 - Česká pošta, s.p.","https://www.firmy.cz/detail/658734-posta-chomutov-2-chomutov.html","196"
"11","Lékárna","Lékárna U Českého lva","https://www.firmy.cz/detail/13221884-lekarna-u-ceskeho-lva-chomutov.html","59"
"12","Bus MHD","Chomutovka","","94"
"13","Škola","Střední průmyslová škola a Vyšší odborná škola, Chomutov","https://www.firmy.cz/detail/361929-stredni-prumyslova-skola-a-vyssi-odborna-skola-chomutov-chomutov.html","347"
"14","Obchod","Galerie pošta","https://www.firmy.cz/detail/13062048-galerie-posta-chomutov.html","73"
"15","Sportoviště","Tělovýchovná jednota Baník Březenecká Chomutov","https://www.firmy.cz/detail/2288584-telovychovna-jednota-banik-brezenecka-chomutov-chomutov.html","325"
"16","Bankomat","Bankomat MONETA Money Bank","https://www.firmy.cz/detail/13218783-bankomat-moneta-money-bank-chomutov.html","121"
"17","Vlak","Chomutov město","","1038"
