"","facility_type","facility_name","facility_iri","facility_distance"
"0","Cukrárna","Cukrárna Marie","https://www.firmy.cz/detail/13124554-cukrarna-marie-ostrava.html","2374"
"1","Přírodní zajímavost","Uhelná sloj v Landeku","","2361"
"2","Hřiště","Dětské hřiště park R. Masného","","2204"
"3","Večerka","COOP - BUDOUCNOST, spotřební družstvo v Ostravě","https://www.firmy.cz/detail/2348228-coop-ostrava-koblov.html","1137"
"4","Hospoda","Hostinec u Holbergů","https://www.firmy.cz/detail/13113760-hostinec-u-holbergu-ostrava-koblov.html","30"
"5","Veterinář","LandekVet","https://www.firmy.cz/detail/12781028-landekvet-ostrava-petrkovice.html","2839"
"6","Bus MHD","Důl Koblov","","113"
"7","Restaurace","Frantův Hostinec","https://www.firmy.cz/detail/13016050-frantuv-hostinec-ostrava-koblov.html","1187"
"8","Pošta","Pošta Ostrava 11 - Česká pošta, s.p.","https://www.firmy.cz/detail/433411-posta-ostrava-11-ostrava-hrusov.html","1919"
"9","Škola","ZUŠ Ostrava, Hlučínská","https://www.firmy.cz/detail/430079-zus-ostrava-hlucinska-ostrava-petrkovice.html","2362"
"10","Bankomat","Bankomat MONETA Money Bank","https://www.firmy.cz/detail/13219389-bankomat-moneta-money-bank-ostrava-privoz.html","3574"
"11","Obchod","Outlet Arena Moravia","https://www.firmy.cz/detail/13181729-outlet-arena-moravia-ostrava-privoz.html","3542"
"12","Tram","Přívoz, Hlučínská","","3109"
"13","Vlak","Ostrava hlavní nádraží","","3958"
"14","Školka","Mateřská škola Ostrava-Petřkovice, U Kaple 670, příspěvková organizace","https://www.firmy.cz/detail/13059996-materska-skola-ostrava-petrkovice-u-kaple-670-prispevkova-organizace-ostrava-petrkovice.html","2612"
"15","Sportoviště","Veřejné lezecká stěna","","2356"
"16","Lékárna","Lékárna Petřkovice","https://www.firmy.cz/detail/12958576-lekarna-petrkovice-ostrava-petrkovice.html","2381"
"17","Lékař","MOJE AMBULANCE mini","https://www.firmy.cz/detail/13025000-moje-ambulance-mini-ostrava-petrkovice.html","2460"
