"","facility_type","facility_name","facility_iri","facility_distance"
"0","Hřiště","Dětské hřiště Politických vězňů","https://mapy.cz/zakladni?x=17.2221130556&y=49.5984747222&z=17&source=base&id=1982741","148"
"1","Večerka","Lidl","https://www.firmy.cz/detail/13295151-lidl-olomouc-nova-ulice.html","942"
"2","Hospoda","Jadrošova krčma","https://www.firmy.cz/detail/13189157-jadrosova-krcma-olomouc-neredin.html","829"
"3","Kino","CineStar Olomouc","https://www.firmy.cz/detail/661181-cinestar-olomouc-olomouc-repcin.html","391"
"4","Veterinář","Veterinární klinika MVDr. Michael Mazoch, s.r.o.","https://www.firmy.cz/detail/12906915-veterinarni-klinika-mvdr-michael-mazoch-s-r-o-olomouc-neredin.html","697"
"5","Divadlo","Divadlo Tramtarie","https://www.firmy.cz/detail/594401-divadlo-tramtarie-olomouc-nova-ulice.html","1827"
"6","Cukrárna","Café Globus","https://www.firmy.cz/detail/13089087-cafe-globus-olomouc-repcin.html","298"
"7","Pošta","Pošta Olomouc 10 - Česká pošta, s.p.","https://www.firmy.cz/detail/215756-posta-olomouc-10-olomouc-nova-ulice.html","1336"
"8","Lékař","B. Braun Avitum s.r.o. - Ambulance praktického lékaře Olomouc","https://www.firmy.cz/detail/13277998-b-braun-avitum-s-r-o-ambulance-praktickeho-lekare-olomouc-olomouc-repcin.html","319"
"9","Restaurace","Restaurace Globus","https://www.firmy.cz/detail/1694708-restaurace-globus-olomouc-repcin.html","298"
"10","Škola","Fakultní ZŠ Olomouc, Helsinská 6","https://www.firmy.cz/detail/2534407-fakultni-zs-olomouc-helsinska-6-olomouc-neredin.html","700"
"11","Obchod","Globus Hypermarket","https://www.firmy.cz/detail/448363-globus-hypermarket-olomouc-repcin.html","304"
"12","Bus MHD","Olomouc CITY","https://mapy.cz/zakladni?x=17.219930569111604&y=49.601450177213636&z=17&source=pubt&id=15699311","235"
"13","Lékárna","Dr. Max","https://www.firmy.cz/detail/12856835-dr-max-olomouc-repcin.html","298"
"14","Tram","Hřbitovy","https://mapy.cz/zakladni?x=17.2222794873&y=49.5958816906&z=17&source=pubt&id=15203073","407"
"15","Vlak","Olomouc-Hejčín","https://mapy.cz/zakladni?x=17.2366112569&y=49.6023089412&z=17&source=pubt&id=15212338","1198"
"16","Školka","MŠ Olomouc, Helsinská","https://www.firmy.cz/detail/2152777-ms-olomouc-helsinska-olomouc-neredin.html","572"
"17","Bankomat","Bankomat ČSOB","https://www.firmy.cz/detail/599273-bankomat-csob-olomouc-repcin.html","260"
"18","Sportoviště","TJ Olomouc-město","https://www.firmy.cz/detail/1335543-tj-olomouc-mesto-olomouc-repcin.html","35"
