"","facility_type","facility_name","facility_iri","facility_distance"
"0","Cukrárna","Falknow CAFE","https://www.firmy.cz/detail/13299570-falknow-cafe-sokolov.html","4898"
"1","Přírodní zajímavost","Kamenné pařezy","","2382"
"2","Hřiště","Dětské hřiště u ZŠ","","293"
"3","Večerka","Můjobchod - Potraviny U Niky","https://www.firmy.cz/detail/12997987-mujobchod-potraviny-u-niky-bukovany.html","158"
"4","Hospoda","Pivnice U Hřbitova","https://www.firmy.cz/detail/2136270-pivnice-u-hrbitova-citice.html","2488"
"5","Divadlo","Loutkové divadélko Kahánek","https://www.firmy.cz/detail/2288094-loutkove-divadelko-kahanek-habartov.html","3180"
"6","Veterinář","MVDr. Jan Kubát","https://www.firmy.cz/detail/1975333-mvdr-jan-kubat-habartov.html","2835"
"7","Bus MHD","Bukovany, sídliště","","221"
"8","Školka","Mateřská škola Bukovany, okres Sokolov","https://www.firmy.cz/detail/12928625-materska-skola-bukovany-okres-sokolov-bukovany.html","210"
"9","Lékař","VILÍM - PRAKTICKÝ LÉKAŘ, s.r.o.","https://www.firmy.cz/detail/13037267-vilim-prakticky-lekar-bukovany.html","280"
"10","Pošta","Pošta Bukovany u Sokolova - Česká pošta, s.p.","https://www.firmy.cz/detail/216413-posta-bukovany-u-sokolova-bukovany.html","115"
"11","Vlak","Hlavno","","2443"
"12","Restaurace","Restaurant Bena","https://www.firmy.cz/detail/2272264-restaurant-bena-bukovany.html","105"
"13","Škola","ZŠ Bukovany","https://www.firmy.cz/detail/356617-zs-bukovany-bukovany.html","264"
"14","Bankomat","Bankomat České spořitelny","https://www.firmy.cz/detail/592105-bankomat-ceske-sporitelny-habartov.html","2832"
"15","Sportoviště","Tenisový klub Habartov z.s.","https://www.firmy.cz/detail/12760682-tenisovy-klub-habartov-z-s-habartov.html","2631"
