"","facility_type","facility_name","facility_iri","facility_distance"
"0","Hřiště","Dětské hřiště Louky","https://mapy.cz/zakladni?x=17.5023410195&y=49.0878993267&z=17&source=base&id=2103606","61"
"1","Veterinář","MVDr. Lubomír Hájek","https://www.firmy.cz/detail/2027898-mvdr-lubomir-hajek-uherske-hradiste-maratice.html","3127"
"2","Večerka","BALA potraviny VĚTRNÝ","https://www.firmy.cz/detail/13343763-bala-potraviny-vetrny-uherske-hradiste-jarosov.html","43"
"3","Cukrárna","Cukrárna Větrník","https://www.firmy.cz/detail/13243916-cukrarna-vetrnik-uherske-hradiste-maratice.html","3446"
"4","Hospoda","Stará Kotelna","https://www.firmy.cz/detail/13011148-stara-kotelna-uherske-hradiste-jarosov.html","90"
"5","Kino","Kino Hvězda Uherské Hradiště","https://www.firmy.cz/detail/457216-kino-hvezda-uherske-hradiste-uherske-hradiste.html","3277"
"6","Divadlo","Hoffmannovo divadlo","https://www.firmy.cz/detail/608263-hoffmannovo-divadlo-uherske-hradiste-maratice.html","3474"
"7","Restaurace","Hospůdka Na Drahách","https://www.firmy.cz/detail/13113068-hospudka-na-drahach-uherske-hradiste-jarosov.html","233"
"8","Pošta","Pošta Uherské Hradiště 5 - Česká pošta, s.p.","https://www.firmy.cz/detail/433397-posta-uherske-hradiste-5-uherske-hradiste-maratice.html","2892"
"9","Lékárna","Dr. Max","https://www.firmy.cz/detail/2007353-dr-max-uherske-hradiste-maratice.html","2758"
"10","Sportoviště","Sportoviště města Uherské Hradiště","https://www.firmy.cz/detail/2596824-sportoviste-mesta-uherske-hradiste-uherske-hradiste-jarosov.html","101"
"11","Bankomat","Bankomat MONETA Money Bank","https://www.firmy.cz/detail/659747-bankomat-moneta-money-bank-uherske-hradiste-maratice.html","2762"
"12","Obchod","Kaufland","https://www.firmy.cz/detail/2200788-kaufland-uherske-hradiste-maratice.html","2725"
"13","Školka","ZŠ a MŠ Uherské Hradiště, Pivovarská","https://www.firmy.cz/detail/727879-zs-a-ms-uherske-hradiste-pivovarska-uherske-hradiste-jarosov.html","120"
"14","Lékař","Ordinace praktického lékaře - MUDr.František Pospíšil","https://www.firmy.cz/detail/12862279-ordinace-praktickeho-lekare-mudr-frantisek-pospisil-uherske-hradiste-jarosov.html","361"
"15","Škola","ZŠ a MŠ Uherské Hradiště, Pivovarská","https://www.firmy.cz/detail/359819-zs-a-ms-uherske-hradiste-pivovarska-uherske-hradiste-jarosov.html","615"
"16","Vlak","Uherské Hradiště","https://mapy.cz/zakladni?x=17.4573517603&y=49.0667141615&z=17&source=pubt&id=15213111","3977"
"17","Bus MHD","Uherské Hradiště, Jarošov, Louky","https://mapy.cz/zakladni?x=17.5007742571833&y=49.0886928432768&z=17&source=pubt&id=15291396","124"
