"","facility_type","facility_name","facility_iri","facility_distance"
"0","Cukrárna","Shisha Room Dvin","https://www.firmy.cz/detail/12935886-shisha-room-dvin-praha-cerny-most.html","813"
"1","Kino","CineStar Černý Most","https://www.firmy.cz/detail/2537569-cinestar-cerny-most-praha-cerny-most.html","1508"
"2","Přírodní zajímavost","Meandry Rokytky","","3498"
"3","Hřiště","Dětské hřiště Paculova","","41"
"4","Večerka","Potraviny Na Růžku","https://www.firmy.cz/detail/12754186-potraviny-na-ruzku-praha.html","74"
"5","Hospoda","Šenk Na Rajské","https://www.firmy.cz/detail/12814379-senk-na-rajske-praha.html","196"
"6","Divadlo","Přírodní divadlo Dády Stoklasy","https://www.firmy.cz/detail/13159295-prirodni-divadlo-dady-stoklasy-praha-horni-pocernice.html","2951"
"7","Veterinář","MetropoleVet","https://www.firmy.cz/detail/12988353-metropolevet-praha-kyje.html","262"
"8","Bus MHD","Ronešova","","144"
"9","Metro","Rajská zahrada","","257"
"10","Školka","MŠ Praha 9, Paculova","https://www.firmy.cz/detail/717703-ms-praha-9-paculova-praha-cerny-most.html","65"
"11","Pošta","Pošta Praha 98 - Česká pošta, s.p.","https://www.firmy.cz/detail/431412-posta-praha-98-praha-cerny-most.html","409"
"12","Lékárna","Lékárna U Rajské zahrady","https://www.firmy.cz/detail/659704-lekarna-u-rajske-zahrady-praha-cerny-most.html","470"
"13","Škola","ZUŠ Praha 9, Ratibořická","https://www.firmy.cz/detail/2221226-zus-praha-9-ratiboricka-praha-cerny-most.html","333"
"14","Sportoviště","Veřejné hřiště na míčové hry Pospíchalova","","276"
"15","Tram","Lehovec","","1186"
"16","Lékař","MUDr. Zdeněk Valentík","https://www.firmy.cz/detail/385952-mudr-zdenek-valentik-praha-cerny-most.html","225"
"17","Restaurace","Jiří Chvalník - Restaurace","https://www.firmy.cz/detail/13113006-jiri-chvalnik-restaurace-praha-cerny-most.html","119"
"18","Obchod","MAKRO Cash & Carry","https://www.firmy.cz/detail/325620-makro-cash-carry-praha-horni-pocernice.html","1156"
"19","Vlak","Praha-Kyje","","1802"
"20","Bankomat","Bankomat ČSOB","https://www.firmy.cz/detail/13007607-bankomat-csob-praha-cerny-most.html","699"
