"","facility_type","facility_name","facility_iri","facility_distance"
"0","Cukrárna","Mamacoffee","https://www.firmy.cz/detail/2109500-mamacoffee-praha-vinohrady.html","526"
"1","Kino","HopeTV","https://www.firmy.cz/detail/672889-hopetv-praha-vinohrady.html","427"
"2","Hřiště","Dětské hřiště park Folimanka","","428"
"3","Večerka","BILLA","https://www.firmy.cz/detail/212080-billa-praha-vinohrady.html","129"
"4","Hospoda","Hospoda Pohoda","https://www.firmy.cz/detail/569598-hospoda-pohoda-praha-nusle.html","556"
"5","Divadlo","Divadlo D21","https://www.firmy.cz/detail/652669-divadlo-d21-praha-vinohrady.html","371"
"6","Veterinář","Veterinární klinika Nusle","https://www.firmy.cz/detail/640960-veterinarni-klinika-nusle-praha-nusle.html","675"
"7","Lékař","MUDr. Petr König","https://www.firmy.cz/detail/380946-mudr-petr-konig-praha-vinohrady.html","224"
"8","Sportoviště","AVZO TSČ ČR Klub potápěčů AQIS","https://www.firmy.cz/detail/287736-avzo-tsc-cr-klub-potapecu-aqis-praha-nove-mesto.html","635"
"9","Tram","Nuselské schody","","127"
"10","Bus MHD","Praha, Karlov","","298"
"11","Metro","I. P. Pavlova","","605"
"12","Vlak","Praha-Vršovice","","1086"
"13","Restaurace","Restaurace Zvonařka","https://www.firmy.cz/detail/332434-restaurace-zvonarka-praha-vinohrady.html","100"
"14","Obchod","PAVILON, a.s.","https://www.firmy.cz/detail/451685-pavilon-praha-vinohrady.html","1004"
"15","Bankomat","Raiffeisenbank - bankomat","https://www.firmy.cz/detail/1994851-raiffeisenbank-bankomat-praha-vinohrady.html","521"
"16","Školka","Dětské studio Žofka","https://www.firmy.cz/detail/441499-detske-studio-zofka-praha-vinohrady.html","245"
"17","Lékárna","U svaté Ludmily","https://www.firmy.cz/detail/374313-u-svate-ludmily-praha-vinohrady.html","555"
"18","Pošta","Pošta Praha 23 - Česká pošta, s.p.","https://www.firmy.cz/detail/431214-posta-praha-23-praha-vinohrady.html","381"
"19","Škola","Dětský domov se školou, středisko výchovné péče a ZŚ, Praha 2","https://www.firmy.cz/detail/1786447-detsky-domov-se-skolou-stredisko-vychovne-pece-a-zs-praha-2-praha-vinohrady.html","252"
