"","facility_type","facility_name","facility_iri","facility_distance"
"0","Cukrárna","Coffeeup","https://www.firmy.cz/detail/13112750-coffeeup-usti-nad-labem-centrum.html","713"
"1","Kino","Letní kino Ústí nad Labem","https://www.firmy.cz/detail/2556284-letni-kino-usti-nad-labem-usti-nad-labem.html","408"
"2","Hřiště","Dětské hřiště","","388"
"3","Večerka","NORMA","https://www.firmy.cz/detail/2182330-norma-usti-nad-labem-centrum.html","262"
"4","Hospoda","Hospůdka Královka","https://www.firmy.cz/detail/12904239-hospudka-kralovka-usti-nad-labem-centrum.html","399"
"5","Divadlo","Severočeské divadlo, s.r.o.","https://www.firmy.cz/detail/12720983-severoceske-divadlo-usti-nad-labem-centrum.html","913"
"6","Veterinář","Veterina Skřivánek","https://www.firmy.cz/detail/13081086-veterina-skrivanek-usti-nad-labem-centrum.html","146"
"7","Sportoviště","Sportovní klub policie Sever Ústí nad Labem","https://www.firmy.cz/detail/687536-sportovni-klub-policie-sever-usti-nad-labem-usti-nad-labem-centrum.html","169"
"8","Bankomat","Bankomat ČSOB","https://www.firmy.cz/detail/597396-bankomat-csob-usti-nad-labem-centrum.html","511"
"9","Vlak","Ústí nad Labem hlavní nádraží","","1133"
"10","Pošta","Pošta Ústí nad Labem 1 - Česká pošta, s.p.","https://www.firmy.cz/detail/217063-posta-usti-nad-labem-1-usti-nad-labem-centrum.html","511"
"11","Restaurace","Restaurace Motýlek","https://www.firmy.cz/detail/2529031-restaurace-motylek-usti-nad-labem-centrum.html","127"
"12","Škola","ZŠ a MŠ Ústí nad Labem, SNP","https://www.firmy.cz/detail/359872-zs-a-ms-usti-nad-labem-snp-usti-nad-labem-centrum.html","186"
"13","Školka","Soukromá mateřská škola, obecně prospěšná společnost","https://www.firmy.cz/detail/437250-soukroma-materska-skola-usti-nad-labem-centrum.html","216"
"14","Obchod","OD Labe","https://www.firmy.cz/detail/2507561-od-labe-usti-nad-labem-centrum.html","1000"
"15","Bus MHD","Hilarova","","182"
"16","Lékař","MUDr. Blanka Strnadová","https://www.firmy.cz/detail/13090241-mudr-blanka-strnadova-usti-nad-labem-centrum.html","290"
"17","Lékárna","Lékárna - EUC Klinika Ústí nad Labem","https://www.firmy.cz/detail/13011810-lekarna-euc-klinika-usti-nad-labem-usti-nad-labem-centrum.html","530"
