"","facility_type","facility_name","facility_iri","facility_distance"
"0","Přírodní zajímavost","Zábřežský bludný balvan","https://mapy.cz/zakladni?x=18.2405209436&y=49.8063021231&z=17&source=base&id=2110132","2821"
"1","Hřiště","Dětské hřiště Marie Pujmanové","https://mapy.cz/zakladni?x=18.2549206927&y=49.8321299657&z=17&source=base&id=2137252","233"
"2","Hospoda","Nový Žalák","https://www.firmy.cz/detail/13110282-novy-zalak-ostrava-marianske-hory.html","72"
"3","Večerka","HRUŠKA","https://www.firmy.cz/detail/12819643-hruska-ostrava-marianske-hory.html","220"
"4","Cukrárna","Amadeus Cafe","https://www.firmy.cz/detail/12793724-amadeus-cafe-ostrava-marianske-hory.html","261"
"5","Veterinář","Veterinární klinika MVDr. Vítězslav Raška a kolektiv","https://www.firmy.cz/detail/451459-veterinarni-klinika-mvdr-vitezslav-raska-a-kolektiv-ostrava-marianske-hory.html","499"
"6","Divadlo","Loutkový svět","https://www.firmy.cz/detail/13033024-loutkovy-svet-ostrava-moravska-ostrava.html","1229"
"7","Kino","CineStar Ostrava","https://www.firmy.cz/detail/661182-cinestar-ostrava-ostrava-moravska-ostrava.html","921"
"8","Lékárna","Lékárna Salvia","https://www.firmy.cz/detail/12944856-lekarna-salvia-ostrava-marianske-hory.html","160"
"9","Škola","Lidová konzervatoř a Múzická škola Ostrava","https://www.firmy.cz/detail/232377-lidova-konzervator-a-muzicka-skola-ostrava-ostrava-marianske-hory.html","84"
"10","Lékař","MUDr. Dagmar Prokipová","https://www.firmy.cz/detail/389587-mudr-dagmar-prokipova-ostrava-marianske-hory.html","231"
"11","Bankomat","Bankomat Komerční banky","https://www.firmy.cz/detail/594290-bankomat-komercni-banky-ostrava-marianske-hory.html","272"
"12","Tram","Mariánské náměstí","https://mapy.cz/zakladni?x=18.2561861898&y=49.8278492499&z=17&source=pubt&id=15202722","284"
"13","Pošta","Pošta Ostrava 9 - Česká pošta, s.p.","https://www.firmy.cz/detail/13014108-posta-ostrava-9-ostrava-marianske-hory.html","268"
"14","Restaurace","Yoo Pizza","https://www.firmy.cz/detail/13310194-yoo-pizza-ostrava-marianske-hory.html","30"
"15","Sportoviště","Tělocvičná jednota Sokol Mariánské Hory","https://www.firmy.cz/detail/759403-telocvicna-jednota-sokol-marianske-hory-ostrava-marianske-hory.html","331"
"16","Bus MHD","Korunní","https://mapy.cz/zakladni?x=18.2531312726664&y=49.8315967961469&z=17&source=pubt&id=15202192","187"
"17","Školka","Mateřská škola U Dvoru","https://www.firmy.cz/detail/2287511-materska-skola-u-dvoru-ostrava-marianske-hory.html","406"
"18","Vlak","Ostrava-Mariánské Hory","https://mapy.cz/zakladni?x=18.2398639247774&y=49.837274789086&z=17&source=pubt&id=15212379","1305"
"19","Obchod","OC FUTURUM Ostrava","https://www.firmy.cz/detail/2454785-oc-futurum-ostrava-ostrava-moravska-ostrava.html","784"
