"","facility_type","facility_name","facility_iri","facility_distance"
"0","Cukrárna","Analog Pražírna & Espresso bar","https://www.firmy.cz/detail/12972274-analog-prazirna-espresso-bar-valasske-mezirici.html","633"
"1","Kino","Kino Valmez","https://www.firmy.cz/detail/452944-kino-valmez-valasske-mezirici.html","612"
"2","Hřiště","Dětské hřiště Sušilova","","319"
"3","Přírodní zajímavost","Bražiska","","3177"
"4","Večerka","Albert Supermarket","https://www.firmy.cz/detail/447249-albert-supermarket-valasske-mezirici-krasno-nad-becvou.html","215"
"5","Hospoda","Pivnice U Rychlíka","https://www.firmy.cz/detail/13134580-pivnice-u-rychlika-valasske-mezirici.html","724"
"6","Divadlo","Divadlo Schod","https://www.firmy.cz/detail/397015-divadlo-schod-valasske-mezirici.html","753"
"7","Veterinář","MVDr. Karel Svozil - Veterinární ordinace","https://www.firmy.cz/detail/12900123-mvdr-karel-svozil-veterinarni-ordinace-valasske-mezirici.html","333"
"8","Vlak","Krhová","","900"
"9","Lékař","MUDr. Štěpán Maliňák","https://www.firmy.cz/detail/390865-mudr-stepan-malinak-valasske-mezirici-krasno-nad-becvou.html","465"
"10","Bus MHD","Valašské Meziříčí, Tesla I","","117"
"11","Obchod","Retail Park Valašské Meziříčí","https://www.firmy.cz/detail/13265732-retail-park-valasske-mezirici-valasske-mezirici-krasno-nad-becvou.html","387"
"12","Škola","Střední uměleckoprůmyslová škola sklářská Valašské Meziříčí","https://www.firmy.cz/detail/361130-stredni-umeleckoprumyslova-skola-sklarska-valasske-mezirici-valasske-mezirici-krasno-nad-becvou.html","142"
"13","Restaurace","Pizzerie Al Ponte","https://www.firmy.cz/detail/13115072-pizzerie-al-ponte-valasske-mezirici-krasno-nad-becvou.html","67"
"14","Lékárna","Lékárna Panax","https://www.firmy.cz/detail/2649586-lekarna-panax-valasske-mezirici-krasno-nad-becvou.html","521"
"15","Sportoviště","SC Kasárna, s.r.o.","https://www.firmy.cz/detail/2627581-sc-kasarna-valasske-mezirici.html","690"
"16","Školka","MŠ Valašské Meziříčí, Seifertova","https://www.firmy.cz/detail/1952020-ms-valasske-mezirici-seifertova-valasske-mezirici-krasno-nad-becvou.html","747"
"17","Bankomat","Bankomat ČSOB","https://www.firmy.cz/detail/13252083-bankomat-csob-valasske-mezirici-krasno-nad-becvou.html","194"
"18","Pošta","Pošta Valašské Meziříčí 6 - Česká pošta, s.p.","https://www.firmy.cz/detail/433387-posta-valasske-mezirici-6-valasske-mezirici-krasno-nad-becvou.html","490"
