"","facility_type","facility_name","facility_iri","facility_distance"
"0","Cukrárna","Bar který nemá jméno","https://www.firmy.cz/detail/13114962-bar-ktery-nema-jmeno-chrudim-iii.html","316"
"1","Kino","Městské kino Chrudim","https://www.firmy.cz/detail/396712-mestske-kino-chrudim-chrudim-iii.html","418"
"2","Přírodní zajímavost","Slatiňanská Třešňovka","","3720"
"3","Hřiště","Dětské hřiště","","301"
"4","Večerka","Penny Market","https://www.firmy.cz/detail/2238079-penny-market-chrudim-iii.html","274"
"5","Hospoda","Hostinec u Rychtáře Václava","https://www.firmy.cz/detail/13121495-hostinec-u-rychtare-vaclava-chrudim-ii.html","628"
"6","Divadlo","Divadlo Karla Pippicha","https://www.firmy.cz/detail/12868559-divadlo-karla-pippicha-chrudim-iv.html","671"
"7","Veterinář","LAGÍNOVÁ HANA MVDr.","https://www.firmy.cz/detail/1971183-laginova-hana-mvdr-chrudim-iii.html","456"
"8","Obchod","OC Port","https://www.firmy.cz/detail/13288835-oc-port-chrudim-iv.html","1049"
"9","Lékárna","Lékárna Prima","https://www.firmy.cz/detail/2690622-lekarna-prima-chrudim-iii.html","363"
"10","Lékař","INTENDIA klinika","https://www.firmy.cz/detail/13278178-intendia-klinika-chrudim-iii.html","345"
"11","Sportoviště","Okresní rada asociace školních sportovních klubů ČR, Chrudim","https://www.firmy.cz/detail/593103-okresni-rada-asociace-skolnich-sportovnich-klubu-cr-chrudim-chrudim-iii.html","490"
"12","Vlak","Chrudim","","570"
"13","Školka","Mateřská škola, Víta Nejedlého 769","https://www.firmy.cz/detail/12949287-materska-skola-vita-nejedleho-769-chrudim-iii.html","212"
"14","Škola","Základní škola, Chrudim, Dr. Peška 768","https://www.firmy.cz/detail/599675-zakladni-skola-chrudim-dr-peska-768-chrudim-iii.html","107"
"15","Bus MHD","Chrudim, Kalábrie","","194"
"16","Pošta","Pošta Chrudim 1 - Česká pošta, s.p.","https://www.firmy.cz/detail/215838-posta-chrudim-1-chrudim-i.html","758"
"17","Bankomat","Bankomat Komerční banky","https://www.firmy.cz/detail/1352291-bankomat-komercni-banky-chrudim-iii.html","258"
"18","Restaurace","Pizzerie Pod Letištěm","https://www.firmy.cz/detail/2589626-pizzerie-pod-letistem-chrudim-iii.html","328"
