"","facility_type","facility_name","facility_iri","facility_distance"
"0","Cukrárna","Pekelná cukrárna","https://www.firmy.cz/detail/2023117-pekelna-cukrarna-plzen-severni-predmesti.html","162"
"1","Kino","Cinema City Plzeň","https://www.firmy.cz/detail/2246853-cinema-city-plzen-plzen-jizni-predmesti.html","797"
"2","Hřiště","Dětské hřiště Na Poříčí","","178"
"3","Večerka","NUGATU.CZ","https://www.firmy.cz/detail/13095807-nugatu-cz-plzen-severni-predmesti.html","117"
"4","Hospoda","U Sv. Rocha","https://www.firmy.cz/detail/13110857-u-sv-rocha-plzen-severni-predmesti.html","80"
"5","Divadlo","Nové divadlo Plzeň","https://www.firmy.cz/detail/12956345-nove-divadlo-plzen-plzen-jizni-predmesti.html","607"
"6","Veterinář","MVDr. Ladislav Kuncl - Veterinární klinika Kleisslova","https://www.firmy.cz/detail/264568-mvdr-ladislav-kuncl-veterinarni-klinika-kleisslova-plzen-severni-predmesti.html","647"
"7","Školka","17. ZŠ a MŠ Plzeň","https://www.firmy.cz/detail/1958179-17-zs-a-ms-plzen-plzen-severni-predmesti.html","271"
"8","Pošta","Pošta Plzeň 1 - Česká pošta, s.p.","https://www.firmy.cz/detail/452750-posta-plzen-1-plzen-vnitrni-mesto.html","522"
"9","Lékárna","Lékárna Devětsil Rondel","https://www.firmy.cz/detail/12731723-lekarna-devetsil-rondel-plzen-severni-predmesti.html","204"
"10","Tram","Náměstí Republiky","","484"
"11","Škola","Základní škola, Plzeň, Podmostní 1","https://www.firmy.cz/detail/358864-zakladni-skola-plzen-podmostni-1-plzen-vychodni-predmesti.html","222"
"12","Restaurace","Texicana","https://www.firmy.cz/detail/12950765-texicana-plzen-severni-predmesti.html","108"
"13","Obchod","Kaufland","https://www.firmy.cz/detail/459269-kaufland-plzen-severni-predmesti.html","108"
"14","Sportoviště","SK SPORTCENTRUM ROUDNÁ z.s.","https://www.firmy.cz/detail/2264222-sk-sportcentrum-roudna-z-s-plzen.html","356"
"15","Lékař","MOJE AMBULANCE","https://www.firmy.cz/detail/2408279-moje-ambulance-plzen-severni-predmesti.html","108"
"16","Bankomat","Bankomat ČSOB","https://www.firmy.cz/detail/1423979-bankomat-csob-plzen-severni-predmesti.html","108"
"17","Vlak","Plzeň hlavní nádraží","","1177"
"18","Bus MHD","Otýlie Beníškové","","27"
