"","facility_type","facility_name","facility_iri","facility_distance"
"0","Cukrárna","John 1990","https://www.firmy.cz/detail/13281248-john-1990-lovosice.html","482"
"1","Přírodní zajímavost","Císařské schody","","2784"
"2","Hřiště","Dětské hřiště","","201"
"3","Večerka","Eso Market","https://www.firmy.cz/detail/2544729-eso-market-lovosice.html","150"
"4","Hospoda","Restaurace Na mandlu","https://www.firmy.cz/detail/13138088-restaurace-na-mandlu-lovosice.html","206"
"5","Veterinář","VETERINÁRNÍ ORDINACE LOVOŠ","https://www.firmy.cz/detail/13194777-veterinarni-ordinace-lovos-lovosice.html","577"
"6","Škola","Střední odborná škola technická a zahradnická, Lovosice","https://www.firmy.cz/detail/12957462-stredni-odborna-skola-technicka-a-zahradnicka-lovosice-lovosice.html","238"
"7","Lékárna","Lékárna U Zlatého hada","https://www.firmy.cz/detail/421295-lekarna-u-zlateho-hada-lovosice.html","480"
"8","Školka","MŠ U Koníčka","https://www.firmy.cz/detail/2291602-ms-u-konicka-lovosice.html","92"
"9","Pošta","Pošta Lovosice 1 - Česká pošta, s.p.","https://www.firmy.cz/detail/215464-posta-lovosice-1-lovosice.html","586"
"10","Vlak","Lovosice zastávka","","297"
"11","Bus MHD","Lovosice, Beseda","","102"
"12","Restaurace","Pivnice Sarajevo","https://www.firmy.cz/detail/13120612-pivnice-sarajevo-lovosice.html","368"
"13","Lékař","MUDr. Jiří Sailer","https://www.firmy.cz/detail/383349-mudr-jiri-sailer-lovosice.html","491"
"14","Bankomat","Bankomat MONETA Money Bank","https://www.firmy.cz/detail/602768-bankomat-moneta-money-bank-lovosice.html","427"
"15","Sportoviště","Bowling Beseda","https://www.firmy.cz/detail/13229348-bowling-beseda-lovosice.html","154"
