"","facility_type","facility_name","facility_iri","facility_distance"
"0","Cukrárna","Kavárna Jasmínka","https://www.firmy.cz/detail/13019391-kavarna-jasminka-praha-zabehlice.html","896"
"1","Kino","Multikino - Premiere Cinemas Praha Hostivař","https://www.firmy.cz/detail/12745547-multikino-premiere-cinemas-praha-hostivar-praha-hostivar.html","426"
"2","Přírodní zajímavost","Mokřad Triangl","","1169"
"3","Hřiště","Rákosníčkovo hřiště Praha-Hostivař","","160"
"4","Večerka","Lidl","https://www.firmy.cz/detail/2637890-lidl-praha-hostivar.html","380"
"5","Hospoda","Hostinec U Břehu","https://www.firmy.cz/detail/13066807-hostinec-u-brehu-praha-hostivar.html","890"
"6","Divadlo","SKAZKA, spol. s r.o.","https://www.firmy.cz/detail/2048564-skazka-praha-hostivar.html","736"
"7","Veterinář","CentralVet s.r.o.","https://www.firmy.cz/detail/13029018-centralvet-s-r-o-praha-hostivar.html","430"
"8","Bankomat","Bankomat ČSOB","https://www.firmy.cz/detail/2409967-bankomat-csob-praha-hostivar.html","413"
"9","Bus MHD","Na Groši","","181"
"10","Tram","Na Groši","","194"
"11","Školka","Mateřská škola, Praha 10, Trhanovské náměstí 7","https://www.firmy.cz/detail/12895276-materska-skola-praha-10-trhanovske-namesti-7-praha-hostivar.html","133"
"12","Obchod","Albert Hypermarket","https://www.firmy.cz/detail/12928546-albert-hypermarket-praha-hostivar.html","401"
"13","Lékař","MOJE AMBULANCE","https://www.firmy.cz/detail/2697902-moje-ambulance-praha-hostivar.html","471"
"14","Metro","Skalka","","2107"
"15","Restaurace","Restaurace Na Hřišti","https://www.firmy.cz/detail/12950478-restaurace-na-hristi-praha-hostivar.html","191"
"16","Vlak","Praha-Hostivař","","1188"
"17","Lékárna","Dr. Max","https://www.firmy.cz/detail/12973160-dr-max-praha-hostivar.html","413"
"18","Pošta","Pošta Praha 107 - Česká pošta, s.p.","https://www.firmy.cz/detail/658873-posta-praha-107-praha-hostivar.html","426"
"19","Škola","První české soukromé střední odborné učiliště","https://www.firmy.cz/detail/361460-prvni-ceske-soukrome-stredni-odborne-uciliste-praha-hostivar.html","191"
"20","Sportoviště","HOCKEY CLUB HOSTIVAŘ","https://www.firmy.cz/detail/431063-hockey-club-hostivar-praha-hostivar.html","191"
