"","facility_type","facility_name","facility_iri","facility_distance"
"0","Cukrárna","Vinotéka & Cukrárna Provence","https://www.firmy.cz/detail/13334698-vinoteka-cukrarna-provence-vsetin.html","982"
"1","Kino","Kino Vatra","https://www.firmy.cz/detail/1271652-kino-vatra-vsetin.html","1083"
"2","Hřiště","Dětské hřiště Družstevní","","203"
"3","Večerka","Minimarket Astra","https://www.firmy.cz/detail/13173978-minimarket-astra-vsetin.html","164"
"4","Hospoda","Restaurace Benátky 904","https://www.firmy.cz/detail/13117951-restaurace-benatky-904-vsetin.html","708"
"5","Divadlo","Loutkové divadélko Kohútek","https://www.firmy.cz/detail/1909094-loutkove-divadelko-kohutek-vsetin.html","975"
"6","Veterinář","Veterinární ordinace MVDr. Robert Just","https://www.firmy.cz/detail/13099632-veterinarni-ordinace-mvdr-robert-just-vsetin.html","679"
"7","Školka","MŠ Vsetín, Benátky","https://www.firmy.cz/detail/2294476-ms-vsetin-benatky-vsetin.html","184"
"8","Škola","Střední odborná škola Josefa Sousedíka Vsetín","https://www.firmy.cz/detail/361228-stredni-odborna-skola-josefa-sousedika-vsetin-vsetin.html","394"
"9","Bankomat","Bankomat Fio banky","https://www.firmy.cz/detail/13089769-bankomat-fio-banky-vsetin.html","885"
"10","Obchod","Smetanova obchodní galerie","https://www.firmy.cz/detail/13226731-smetanova-obchodni-galerie-vsetin.html","1240"
"11","Bus MHD","Vsetín, Rybníky","","79"
"12","Restaurace","Restaurace Amerika Rybníky","https://www.firmy.cz/detail/13233197-restaurace-amerika-rybniky-vsetin.html","266"
"13","Lékárna","Lékárna","https://www.firmy.cz/detail/305786-lekarna-vsetin.html","925"
"14","Pošta","Pošta Vsetín 1 - Česká pošta, s.p.","https://www.firmy.cz/detail/216330-posta-vsetin-1-vsetin.html","926"
"15","Vlak","Vsetín","","1199"
"16","Lékař","MUDr. Josef Machala","https://www.firmy.cz/detail/385535-mudr-josef-machala-vsetin.html","365"
"17","Sportoviště","Jan Tichý - Sportovní trenér","https://www.firmy.cz/detail/13214834-jan-tichy-sportovni-trener-vsetin.html","389"
