"","facility_type","facility_name","facility_iri","facility_distance"
"0","Hřiště","Dětské hřiště Bratislavská","https://mapy.cz/zakladni?x=16.8957731245&y=48.7501571418&z=17&source=base&id=2104110","551"
"1","Veterinář","VM - vet s.r.o.","https://www.firmy.cz/detail/12768317-vm-vet-s-r-o-breclav.html","730"
"2","Cukrárna","Parkáček","https://www.firmy.cz/detail/13182826-parkacek-breclav.html","502"
"3","Hospoda","Hospůdka U Jana","https://www.firmy.cz/detail/13089766-hospudka-u-jana-breclav.html","146"
"4","Večerka","COOP - Jednota, spotřební družstvo v Mikulově","https://www.firmy.cz/detail/2350622-coop-jednota-spotrebni-druzstvo-v-mikulove-breclav.html","545"
"5","Kino","Kino Koruna","https://www.firmy.cz/detail/451631-kino-koruna-breclav.html","1078"
"6","Restaurace","Pizzerie Tonny II.","https://www.firmy.cz/detail/13137403-pizzerie-tonny-ii-breclav.html","423"
"7","Bus MHD","Břeclav, BORS","https://mapy.cz/zakladni?x=16.893047967&y=48.7502953537&z=17&source=pubt&id=15226850","351"
"8","Vlak","Břeclav","https://mapy.cz/zakladni?x=16.8930276061&y=48.753618493&z=17&source=pubt&id=15211075","508"
"9","Lékárna","Lékárna Na poliklinice","https://www.firmy.cz/detail/2349564-lekarna-na-poliklinice-breclav.html","522"
"10","Bankomat","Bankomat ČSOB","https://www.firmy.cz/detail/2409579-bankomat-csob-breclav.html","369"
"11","Sportoviště","WSC Břeclav","https://www.firmy.cz/detail/2655305-wsc-breclav-breclav.html","970"
"12","Lékař","MUDr. Rudolf Doležal","https://www.firmy.cz/detail/388187-mudr-rudolf-dolezal-breclav.html","420"
"13","Školka","MŠ Břeclav, Břetislavova","https://www.firmy.cz/detail/2363984-ms-breclav-bretislavova-breclav.html","255"
"14","Pošta","Pošta Břeclav 2 - Česká pošta, s.p.","https://www.firmy.cz/detail/432396-posta-breclav-2-breclav.html","369"
"15","Obchod","Albert Hypermarket","https://www.firmy.cz/detail/446696-albert-hypermarket-breclav-postorna.html","1527"
"16","Škola","Soukromá střední odborná škola Břeclav, s.r.o.","https://www.firmy.cz/detail/361615-soukroma-stredni-odborna-skola-breclav-breclav.html","372"
