"","facility_type","facility_name","facility_iri","facility_distance"
"0","Cukrárna","Kavárna Creperie","https://www.firmy.cz/detail/2037440-kavarna-creperie-praha-vysocany.html","1030"
"1","Kino","Cinema City Letňany","https://www.firmy.cz/detail/2679833-cinema-city-letnany-praha-letnany.html","2804"
"2","Přírodní zajímavost","Meandry Rokytky","","1625"
"3","Hřiště","Dětské hřiště Moravcových","","102"
"4","Večerka","Best Price Mall","https://www.firmy.cz/detail/13325553-best-price-mall-praha-vysocany.html","296"
"5","Hospoda","Hospoda U Zdi","https://www.firmy.cz/detail/13217099-hospoda-u-zdi-praha-liben.html","2029"
"6","Divadlo","Divadlo Pohádka","https://www.firmy.cz/detail/636143-divadlo-pohadka-praha-letnany.html","1875"
"7","Veterinář","Veterinární klinika Poděbradská","https://www.firmy.cz/detail/166978-veterinarni-klinika-podebradska-praha-hloubetin.html","1259"
"8","Restaurace","Stazione Felicita","https://www.firmy.cz/detail/13310141-stazione-felicita-praha-vysocany.html","280"
"9","Metro","Kolbenova","","284"
"10","Tram","Kolbenova","","255"
"11","Škola","ZŠ Špitálská","https://www.firmy.cz/detail/359024-zs-spitalska-praha-vysocany.html","819"
"12","Pošta","Pošta Praha 93 - Česká pošta, s.p.","https://www.firmy.cz/detail/217419-posta-praha-93-praha-vysocany.html","1081"
"13","Obchod","Nákupní Centrum Fénix Vysočanská","https://www.firmy.cz/detail/613133-nakupni-centrum-fenix-vysocanska-praha-vysocany.html","1009"
"14","Lékárna","Lékárna Fenix","https://www.firmy.cz/detail/642631-lekarna-fenix-praha-vysocany.html","1051"
"15","Sportoviště","CREVISTON, a.s.","https://www.firmy.cz/detail/13084341-creviston-praha-vysocany.html","803"
"16","Vlak","Praha-Vysočany","","1256"
"17","Školka","Mateřská škola Pod Krocínkou","https://www.firmy.cz/detail/641843-materska-skola-pod-krocinkou-praha-vysocany.html","453"
"18","Lékař","Poliklinika Kolbenova","https://www.firmy.cz/detail/12837303-poliklinika-kolbenova-praha-vysocany.html","305"
"19","Bankomat","Bankomat České spořitelny","https://www.firmy.cz/detail/595007-bankomat-ceske-sporitelny-praha-vysocany.html","275"
"20","Bus MHD","Pod Krocínkou","","242"
