"","facility_type","facility_name","facility_iri","facility_distance"
"0","Hřiště","Dětské hřiště Josefa Hory","https://mapy.cz/zakladni?x=13.8486738889&y=50.6434002778&z=17&source=base&id=2082072","81"
"1","Přírodní zajímavost","Porcelanity u Nechvalic a Nových Dvorů","https://mapy.cz/zakladni?x=13.8848284687&y=50.6251382636&z=17&source=base&id=2222281","3179"
"2","Hospoda","Blanka Žáková","https://www.firmy.cz/detail/13139475-blanka-zakova-teplice.html","456"
"3","Večerka","COOP - TUTY","https://www.firmy.cz/detail/12901178-coop-tuty-teplice-trnovany.html","497"
"4","Cukrárna","Cukrárna U Nadi","https://www.firmy.cz/detail/13334185-cukrarna-u-nadi-teplice-trnovany.html","511"
"5","Veterinář","Veterinární klinika - MVDr. Foltýn René","https://www.firmy.cz/detail/13143505-veterinarni-klinika-mvdr-foltyn-rene-teplice-trnovany.html","659"
"6","Kino","Kino Květen","https://www.firmy.cz/detail/435268-kino-kveten-teplice.html","1676"
"7","Divadlo","Krušnohorské divadlo","https://www.firmy.cz/detail/435271-krusnohorske-divadlo-teplice.html","1543"
"8","Obchod","Kaufland","https://www.firmy.cz/detail/1545724-kaufland-teplice-trnovany.html","1482"
"9","Restaurace","Restaurace rajče","https://www.firmy.cz/detail/13111014-restaurace-rajce-teplice.html","145"
"10","Pošta","Pošta Teplice 4 - Česká pošta, s.p.","https://www.firmy.cz/detail/215431-posta-teplice-4-teplice-trnovany.html","411"
"11","Bankomat","Bankomat ČSOB","https://www.firmy.cz/detail/12965685-bankomat-csob-teplice-trnovany.html","463"
"12","Bus MHD","Teplice, Šanov II škola","https://mapy.cz/zakladni?x=13.8506418457&y=50.6432224064&z=17&source=pubt&id=15334372","85"
"13","Lékárna","Na Hvězdě","https://www.firmy.cz/detail/184765-na-hvezde-teplice-trnovany.html","446"
"14","Vlak","Prosetice","https://mapy.cz/zakladni?x=13.8418326057&y=50.6310932138&z=17&source=pubt&id=15212602","1422"
"15","Škola","Základní škola a Mateřská škola Teplice, Koperníkova 2592","https://www.firmy.cz/detail/359672-zakladni-skola-a-materska-skola-teplice-kopernikova-2592-teplice.html","276"
"16","Sportoviště","TJ Lokomotiva Teplice, z.s.","https://www.firmy.cz/detail/195215-tj-lokomotiva-teplice-z-s-teplice.html","276"
"17","Lékař","MUDr. Jakeš Radovan, MediClinic a.s.","https://www.firmy.cz/detail/12761176-mudr-jakes-radovan-mediclinic-a-s-teplice-trnovany.html","463"
"18","Školka","MŠ Teplice, Fráni Šrámka","https://www.firmy.cz/detail/2307820-ms-teplice-frani-sramka-teplice.html","196"
