"","facility_type","facility_name","facility_iri","facility_distance"
"0","Cukrárna","Cukrářská výrobna Mima","https://www.firmy.cz/detail/248429-cukrarska-vyrobna-mima-beroun-zavodi.html","1331"
"1","Kino","Kino Beroun","https://www.firmy.cz/detail/396429-kino-beroun-beroun-mesto.html","1846"
"2","Hřiště","Dětské hřiště Na Golfu","","903"
"3","Večerka","Eso Market - Tomáš Potůček","https://www.firmy.cz/detail/2566648-eso-market-tomas-potucek-beroun-zavodi.html","1022"
"4","Hospoda","Restaurace U Tygra","https://www.firmy.cz/detail/13120748-restaurace-u-tygra-beroun-mesto.html","1872"
"5","Veterinář","MVDr. Petr Dvořák","https://www.firmy.cz/detail/2124605-mvdr-petr-dvorak-beroun-zavodi.html","1033"
"6","Restaurace","Restaurace Na Marjánce","https://www.firmy.cz/detail/420291-restaurace-na-marjance-beroun-zavodi.html","896"
"7","Pošta","Pošta Beroun 1 - Česká pošta, s.p.","https://www.firmy.cz/detail/216868-posta-beroun-1-beroun-mesto.html","1790"
"8","Škola","ZŠ Beroun - Závodí","https://www.firmy.cz/detail/356336-zs-beroun-zavodi-beroun-zavodi.html","1187"
"9","Bankomat","Platbomat České spořitelny","https://www.firmy.cz/detail/13239390-platbomat-ceske-sporitelny-beroun-mesto.html","1588"
"10","Vlak","Beroun-Závodí","","1149"
"11","Lékař","Praktický lékař pro dospělé - Rehabilitační nemocnice Beroun","https://www.firmy.cz/detail/13031780-prakticky-lekar-pro-dospele-rehabilitacni-nemocnice-beroun-beroun-zavodi.html","1484"
"12","Školka","MŠ Školička Kytička","https://www.firmy.cz/detail/13044854-ms-skolicka-kyticka-beroun-zavodi.html","608"
"13","Bus MHD","Beroun, Eternitka","","776"
"14","Obchod","Květ Beroun, a.s.","https://www.firmy.cz/detail/12846052-kvet-beroun-beroun-centrum.html","1775"
"15","Lékárna","SENIMED-Lékárna Nemocnice Beroun","https://www.firmy.cz/detail/12978466-senimed-lekarna-nemocnice-beroun-beroun-zavodi.html","1541"
"16","Sportoviště","HC Berounští medvědi o.s.","https://www.firmy.cz/detail/2651251-hc-berounsti-medvedi-o-s-beroun-zavodi.html","1675"
