"","facility_type","facility_name","facility_iri","facility_distance"
"0","Cukrárna","Cukrárna Aida","https://www.firmy.cz/detail/13138858-cukrarna-aida-brno-komin.html","801"
"1","Kino","Kino Lucerna","https://www.firmy.cz/detail/638240-kino-lucerna-brno-zabovresky.html","2695"
"2","Přírodní zajímavost","Přírodní zahrada U Smrku","","2306"
"3","Hřiště","Dětské hřiště Urbánkova","","37"
"4","Večerka","Samoobsluha Brněnka","https://www.firmy.cz/detail/13101888-samoobsluha-brnenka-brno-komin.html","175"
"5","Hospoda","Martin Bittó","https://www.firmy.cz/detail/13126133-martin-bitto-brno-komin.html","202"
"6","Divadlo","Divadlo Strom","https://www.firmy.cz/detail/12762146-divadlo-strom-brno-zabovresky.html","2581"
"7","Veterinář","Veterinární klinika Dr. Snášila","https://www.firmy.cz/detail/286686-veterinarni-klinika-dr-snasila-brno-komin.html","960"
"8","Bus MHD","Řezáčova","","77"
"9","Bankomat","Bankomat MONETA Money Bank","https://www.firmy.cz/detail/2250672-bankomat-moneta-money-bank-brno-komin.html","728"
"10","Školka","MŠ Brno, Řezáčova","https://www.firmy.cz/detail/180858-ms-brno-rezacova-brno-komin.html","195"
"11","Restaurace","Restaurace - KOMÍN PUB","https://www.firmy.cz/detail/13171380-restaurace-komin-pub-brno-komin.html","723"
"12","Obchod","Obchodní centrum Javor","https://www.firmy.cz/detail/13245185-obchodni-centrum-javor-brno-bystrc.html","1880"
"13","Lékárna","Lékárna Komín","https://www.firmy.cz/detail/13169266-lekarna-komin-brno-komin.html","797"
"14","Pošta","Pošta Brno 24 - Česká pošta, s.p.","https://www.firmy.cz/detail/431926-posta-brno-24-brno-komin.html","896"
"15","Škola","Gymnázium P. Křížkovského s uměleckou profilací, s.r.o.","https://www.firmy.cz/detail/270832-gymnazium-p-krizkovskeho-s-umeleckou-profilaci-brno-komin.html","386"
"16","Lékař","MUDr. Jana Pavloková","https://www.firmy.cz/detail/1351017-mudr-jana-pavlokova-brno-komin.html","797"
"17","Sportoviště","Tenisová škola TALLENT","https://www.firmy.cz/detail/722853-tenisova-skola-tallent-brno-komin.html","498"
"18","Tram","Svratecká","","845"
"19","Vlak","Brno-Královo Pole","","3017"
