"","facility_type","facility_name","facility_iri","facility_distance"
"0","Cukrárna","Cukrárna v Srbíně - Michaela Jandová","https://www.firmy.cz/detail/13006176-cukrarna-v-srbine-michaela-jandova-mukarov-srbin.html","1596"
"1","Přírodní zajímavost","Mlecí kameny","","5097"
"2","Hřiště","Dětské hřiště V Průhonu","","29"
"3","Večerka","Potraviny Svojetice","https://www.firmy.cz/detail/13293158-potraviny-svojetice-svojetice.html","206"
"4","Hospoda","Letní krčma","https://www.firmy.cz/detail/13119483-letni-krcma-lounovice.html","1793"
"5","Veterinář","KheiroVet","https://www.firmy.cz/detail/13336007-kheirovet-mukarov.html","2006"
"6","Školka","MŠ Svojetice","https://www.firmy.cz/detail/12971165-ms-svojetice-svojetice.html","301"
"7","Bankomat","Bankomat ČSOB","https://www.firmy.cz/detail/2409926-bankomat-csob-mukarov.html","1937"
"8","Pošta","Pošta Mukařov - Česká pošta, s.p.","https://www.firmy.cz/detail/431655-posta-mukarov-mukarov.html","2380"
"9","Lékař","MUDr. Nina Trojánková","https://www.firmy.cz/detail/12741152-mudr-nina-trojankova-tehovec.html","1825"
"10","Sportoviště","Golf Club Tehovec","https://www.firmy.cz/detail/2554493-golf-club-tehovec-tehovec.html","2386"
"11","Vlak","Mnichovice","","4985"
"12","Bus MHD","Svojetice","","40"
"13","Lékárna","OOVL - Lékárna Kateřinská","https://www.firmy.cz/detail/12944144-oovl-lekarna-katerinska-mukarov.html","1953"
"14","Restaurace","Pivnice Na skále","https://www.firmy.cz/detail/12754342-pivnice-na-skale-svojetice.html","282"
"15","Škola","ZŠ Mukařov","https://www.firmy.cz/detail/358353-zs-mukarov-mukarov.html","2256"
