"","facility_type","facility_name","facility_iri","facility_distance"
"0","Cukrárna","Kavárna Zvěřinec","https://www.firmy.cz/detail/13208912-kavarna-zverinec-usti-nad-labem-klise.html","555"
"1","Kino","Letní kino Ústí nad Labem","https://www.firmy.cz/detail/2556284-letni-kino-usti-nad-labem-usti-nad-labem.html","1873"
"2","Hřiště","Dětské hřiště Střížovická","","340"
"3","Večerka","Smíšené zboží Klíšská 1013","https://www.firmy.cz/detail/2317125-smisene-zbozi-klisska-1013-usti-nad-labem-klise.html","453"
"4","Hospoda","Pivnice Tipka","https://www.firmy.cz/detail/412888-pivnice-tipka-usti-nad-labem-klise.html","691"
"5","Divadlo","Severočeské divadlo, s.r.o.","https://www.firmy.cz/detail/12720983-severoceske-divadlo-usti-nad-labem-centrum.html","2016"
"6","Veterinář","Veterinární klinika Helion","https://www.firmy.cz/detail/12987940-veterinarni-klinika-helion-usti-nad-labem-centrum.html","699"
"7","Restaurace","Piknik","https://www.firmy.cz/detail/13307067-piknik-usti-nad-labem-klise.html","389"
"8","Lékárna","Lékárna Hvězda","https://www.firmy.cz/detail/412737-lekarna-hvezda-usti-nad-labem-klise.html","365"
"9","Bankomat","Bankomat MONETA Money Bank","https://www.firmy.cz/detail/602766-bankomat-moneta-money-bank-usti-nad-labem-klise.html","482"
"10","Lékař","MUDr. Miroslava Bejšovcová","https://www.firmy.cz/detail/385677-mudr-miroslava-bejsovcova-usti-nad-labem-klise.html","342"
"11","Bus MHD","Štefánikova","","337"
"12","Škola","ZŠ Ústí nad Labem, Vinařská","https://www.firmy.cz/detail/359876-zs-usti-nad-labem-vinarska-usti-nad-labem-klise.html","801"
"13","Vlak","Ústí nad Labem západ","","1927"
"14","Obchod","Kaufland","https://www.firmy.cz/detail/1445916-kaufland-usti-nad-labem-centrum.html","1164"
"15","Sportoviště","Beach Aréna Ústí, z.s.","https://www.firmy.cz/detail/12886549-beach-arena-usti-z-s-usti-nad-labem.html","529"
"16","Školka","Mateřská škola U plavecké haly - Mateřská škola U plavecké haly, Ústí nad Labem, Na Spálence 1022/27","https://www.firmy.cz/detail/155723-materska-skola-u-plavecke-haly-usti-nad-labem-klise.html","475"
"17","Pošta","Pošta Ústí nad Labem 8 - Česká pošta, s.p.","https://www.firmy.cz/detail/215955-posta-usti-nad-labem-8-usti-nad-labem-klise.html","523"
