"","facility_type","facility_name","facility_iri","facility_distance"
"0","Hřiště","Dětské hřiště Jasmínová","https://mapy.cz/zakladni?x=14.5098770597&y=50.0546084542&z=17&source=base&id=1926836","158"
"1","Večerka","Albert Supermarket","https://www.firmy.cz/detail/209466-albert-supermarket-praha-zabehlice.html","369"
"2","Veterinář","Veterinární nemocnice AA-Vet","https://www.firmy.cz/detail/173794-veterinarni-nemocnice-aa-vet-praha-zabehlice.html","985"
"3","Hospoda","Pivní bar Zvonková","https://www.firmy.cz/detail/13135278-pivni-bar-zvonkova-praha-zabehlice.html","334"
"4","Cukrárna","Kavárna Jasmínka","https://www.firmy.cz/detail/13019391-kavarna-jasminka-praha-zabehlice.html","326"
"5","Divadlo","SKAZKA, spol. s r.o.","https://www.firmy.cz/detail/2048564-skazka-praha-hostivar.html","1269"
"6","Kino","Multikino - Premiere Cinemas Praha Hostivař","https://www.firmy.cz/detail/12745547-multikino-premiere-cinemas-praha-hostivar-praha-hostivar.html","654"
"7","Přírodní zajímavost","Mokřad Triangl","https://mapy.cz/zakladni?x=14.5188041667&y=50.0615525&z=17&source=base&id=1981356","1157"
"8","Lékárna","Dr. Max","https://www.firmy.cz/detail/12973160-dr-max-praha-hostivar.html","691"
"9","Škola","Jahodovka - Vyšší odborná škola sociálně právní","https://www.firmy.cz/detail/362401-jahodovka-vyssi-odborna-skola-socialne-pravni-praha-zabehlice.html","404"
"10","Obchod","OC Cíl","https://www.firmy.cz/detail/13160630-oc-cil-praha-zabehlice.html","379"
"11","Vlak","Praha-Zahradní Město","https://mapy.cz/zakladni?x=14.5040304234491&y=50.0621435968105&z=17&source=pubt&id=19190316","984"
"12","Sportoviště","Veřejné hřiště na míčové hry Topolová","https://mapy.cz/zakladni?x=14.508005&y=50.0553433&z=17&source=base&id=2081856","183"
"13","Metro","Skalka","https://mapy.cz/zakladni?x=14.5079324576&y=50.0677616201&z=17&source=pubt&id=15206931","1563"
"14","Bankomat","Vkladomat České spořitelny","https://www.firmy.cz/detail/13238697-vkladomat-ceske-sporitelny-praha-zabehlice.html","357"
"15","Tram","Sídliště Zahradní Město","https://mapy.cz/zakladni?x=14.5133167605615&y=50.0567733982235&z=17&source=pubt&id=15698035","502"
"16","Lékař","MOJE AMBULANCE","https://www.firmy.cz/detail/2697902-moje-ambulance-praha-hostivar.html","629"
"17","Bus MHD","Topolová","https://mapy.cz/zakladni?x=14.50767310420016&y=50.05368151115938&z=17&source=pubt&id=15302026","36"
"18","Pošta","Pošta Praha 106 - Česká pošta, s.p.","https://www.firmy.cz/detail/431448-posta-praha-106-praha-zabehlice.html","608"
"19","Školka","ZŠ a MŠ logopedická Praha 10","https://www.firmy.cz/detail/647985-zs-a-ms-logopedicka-praha-10-praha-zabehlice.html","176"
"20","Restaurace","Restaurace Kotelna","https://www.firmy.cz/detail/13073836-restaurace-kotelna-praha-zabehlice.html","230"
