"","facility_type","facility_name","facility_iri","facility_distance"
"0","Cukrárna","Čokoládovna ČO-XO","https://www.firmy.cz/detail/12709444-cokoladovna-co-xo-praha-holesovice.html","1503"
"1","Kino","Bio Oko","https://www.firmy.cz/detail/2586117-bio-oko-praha-holesovice.html","1841"
"2","Hřiště","Dětské hřiště Vodácká","","634"
"3","Večerka","P&M potraviny","https://www.firmy.cz/detail/2355954-p-m-potraviny-praha-holesovice.html","1202"
"4","Divadlo","Goja music hall","https://www.firmy.cz/detail/658122-goja-music-hall-praha.html","958"
"5","Hospoda","Pivnice U Špačka","https://www.firmy.cz/detail/12751179-pivnice-u-spacka-praha-liben.html","1761"
"6","Veterinář","Klinika Livet","https://www.firmy.cz/detail/1359507-klinika-livet-praha-holesovice.html","1296"
"7","Pošta","Pošta Praha 71 - Česká pošta, s.p.","https://www.firmy.cz/detail/431350-posta-praha-71-praha-troja.html","1032"
"8","Škola","Trojské gymnázium","https://www.firmy.cz/detail/361512-trojske-gymnazium-praha-troja.html","981"
"9","Lékárna","Lékárna Lékařský dům","https://www.firmy.cz/detail/376974-lekarna-lekarsky-dum-praha-holesovice.html","1394"
"10","Tram","Trojská","","245"
"11","Bus MHD","Parkoviště Trojský most","","45"
"12","Sportoviště","INGOLF, s.r.o.","https://www.firmy.cz/detail/1355272-ingolf-praha-holesovice.html","982"
"13","Metro","Nádraží Holešovice","","743"
"14","Lékař","Sportmed","https://www.firmy.cz/detail/404244-sportmed-praha-holesovice.html","842"
"15","Vlak","Praha-Holešovice","","646"
"16","Obchod","Centrum Krakov","https://www.firmy.cz/detail/12836138-centrum-krakov-praha-troja.html","1881"
"17","Restaurace","Na Krásné vyhlídce","https://www.firmy.cz/detail/13260652-na-krasne-vyhlidce-praha-troja.html","590"
"18","Školka","Mateřská škola Trojská labuť, s.r.o.","https://www.firmy.cz/detail/12717894-materska-skola-trojska-labut-praha-troja.html","612"
"19","Bankomat","Bankomat České spořitelny","https://www.firmy.cz/detail/594900-bankomat-ceske-sporitelny-praha-holesovice.html","756"
