"","facility_type","facility_name","facility_iri","facility_distance"
"0","Hřiště","Dětské hřiště Václavkova","https://mapy.cz/zakladni?x=14.3963515282&y=50.0970391606&z=17&source=base&id=2117555","267"
"1","Kino","Kino Ponrepo","https://www.firmy.cz/detail/396455-kino-ponrepo-praha-stare-mesto.html","2133"
"2","Večerka","Albert Supermarket","https://www.firmy.cz/detail/12716259-albert-supermarket-praha-bubenec.html","307"
"3","Veterinář","MVDr. Marta Schmidhalter-Pekárková DECVDI","https://www.firmy.cz/detail/2608174-mvdr-marta-schmidhalter-pekarkova-decvdi-praha-bubenec.html","399"
"4","Cukrárna","OVOCNÝ SVĚTOZOR","https://www.firmy.cz/detail/12735736-ovocny-svetozor-praha-dejvice.html","42"
"5","Divadlo","Divadlo Spejbla a Hurvínka","https://www.firmy.cz/detail/230744-divadlo-spejbla-a-hurvinka-praha-bubenec.html","85"
"6","Hospoda","Restaurace Dejvické nádraží","https://www.firmy.cz/detail/568432-restaurace-dejvicke-nadrazi-praha-dejvice.html","140"
"7","Metro","Hradčanská","https://mapy.cz/zakladni?x=14.4040809797&y=50.0977309106&z=17&source=pubt&id=15200607","335"
"8","Bankomat","Raiffeisenbank - bankomat","https://www.firmy.cz/detail/631187-raiffeisenbank-bankomat-praha-dejvice.html","0"
"9","Restaurace","Cafe Calma","https://www.firmy.cz/detail/722398-cafe-calma-praha-dejvice.html","98"
"10","Vlak","Praha-Dejvice","https://mapy.cz/zakladni?x=14.3996359142&y=50.0969651071&z=17&source=pubt&id=15212556","154"
"11","Pošta","Pošta Praha 6 - Česká pošta, s.p.","https://www.firmy.cz/detail/216725-posta-praha-6-praha-dejvice.html","240"
"12","Tram","Vítězné náměstí","https://mapy.cz/zakladni?x=14.3954828634&y=50.0994557145&z=17&source=pubt&id=15304393","311"
"13","Lékárna","Dejvická lékárna ARNIKA","https://www.firmy.cz/detail/654778-dejvicka-lekarna-arnika-praha-dejvice.html","181"
"14","Obchod","Kaufland","https://www.firmy.cz/detail/12720219-kaufland-praha-dejvice.html","1581"
"15","Bus MHD","Praha, Hradčanská","https://mapy.cz/zakladni?x=14.4010363519&y=50.0965208706&z=17&source=pubt&id=17254662","232"
"16","Sportoviště","HO Matahari, o.s.","https://www.firmy.cz/detail/2320162-ho-matahari-o-s-praha-dejvice.html","173"
"17","Škola","CEDUK - VOPŠ Vyšší odborná škola, s.r.o.","https://www.firmy.cz/detail/143594-ceduk-vops-vyssi-odborna-skola-praha-bubenec.html","246"
"18","Lékař","Ordinace praktického lékaře young+co","https://www.firmy.cz/detail/2592480-ordinace-praktickeho-lekare-young-co-praha-bubenec.html","349"
"19","Školka","FasTracKids centrum rozvoje","https://www.firmy.cz/detail/13199103-fastrackids-centrum-rozvoje-praha-dejvice.html","96"
