"","facility_type","facility_name","facility_iri","facility_distance"
"0","Hřiště","Dětské hřiště Lehárova","https://mapy.cz/zakladni?x=14.4054848417&y=50.0072758909&z=17&source=base&id=1926732","187"
"1","Přírodní zajímavost","Kovářovic mez","https://mapy.cz/zakladni?x=14.36107759920759&y=50.04395254566995&z=17&source=base&id=2339664","5202"
"2","Večerka","Albert Supermarket","https://www.firmy.cz/detail/209481-albert-supermarket-praha-modrany.html","164"
"3","Divadlo","Divadlo Na Cikorce","https://www.firmy.cz/detail/2387865-divadlo-na-cikorce-praha-modrany.html","986"
"4","Hospoda","Start U Veselé kozy","https://www.firmy.cz/detail/13327758-start-u-vesele-kozy-praha-velka-chuchle.html","1204"
"5","Cukrárna","Cukrárna U Školy","https://www.firmy.cz/detail/13262069-cukrarna-u-skoly-praha-modrany.html","101"
"6","Veterinář","MVDr. Petronela Síbová","https://www.firmy.cz/detail/2139531-mvdr-petronela-sibova-praha-modrany.html","541"
"7","Kino","Modřanský biograf","https://www.firmy.cz/detail/13272765-modransky-biograf-praha-modrany.html","282"
"8","Restaurace","Pivnice Na zastávce","https://www.firmy.cz/detail/2490448-pivnice-na-zastavce-praha-modrany.html","125"
"9","Obchod","Obchodní centrum Modřany","https://www.firmy.cz/detail/13045936-obchodni-centrum-modrany-praha-modrany.html","966"
"10","Tram","Nádraží Modřany","https://mapy.cz/zakladni?x=14.4033058505&y=50.0045838938&z=17&source=pubt&id=15300747","164"
"11","Lékárna","Lékárna Vltava","https://www.firmy.cz/detail/2510909-lekarna-vltava-praha-modrany.html","367"
"12","Škola","ZŠ T.G. Masaryka Praha 12","https://www.firmy.cz/detail/401452-zs-t-g-masaryka-praha-12-praha-modrany.html","171"
"13","Lékař","Medicínské centrum Praha, s.r.o.","https://www.firmy.cz/detail/744975-medicinske-centrum-praha-praha-modrany.html","750"
"14","Bus MHD","Obchodní náměstí","https://mapy.cz/zakladni?x=14.404652608945415&y=50.004998357981684&z=17&source=pubt&id=15305223","132"
"15","Školka","MŠ Tyršovka Praha 12, Karasova","https://www.firmy.cz/detail/12814521-ms-tyrsovka-praha-12-karasova-praha-modrany.html","497"
"16","Vlak","Praha-Modřany zastávka","https://mapy.cz/zakladni?x=14.4031168361&y=50.0039862735&z=17&source=pubt&id=15212573","232"
"17","Pošta","Pošta Praha 412 - Česká pošta, s.p.","https://www.firmy.cz/detail/217477-posta-praha-412-praha-modrany.html","939"
"18","Bankomat","Bankomat České spořitelny","https://www.firmy.cz/detail/594810-bankomat-ceske-sporitelny-praha-modrany.html","164"
"19","Sportoviště","Prague Eagles Cheerleaders","https://www.firmy.cz/detail/13313862-prague-eagles-cheerleaders-praha-modrany.html","220"
"20","Metro","Budějovická","https://mapy.cz/zakladni?x=14.4501600237&y=50.0431959578&z=17&source=pubt&id=15200208","5299"
