"","facility_type","facility_name","facility_iri","facility_distance"
"0","Cukrárna","MEC 3 s.r.o.","https://www.firmy.cz/detail/159536-mec-3-s-r-o-praha-branik.html","604"
"1","Kino","AutoKino Ledárny","https://www.firmy.cz/detail/13312696-autokino-ledarny-praha.html","1491"
"2","Hřiště","Dětské hřiště Vavřenova","","350"
"3","Přírodní zajímavost","Kovářovic mez","","4897"
"4","Večerka","BILLA","https://www.firmy.cz/detail/212094-billa-praha-branik.html","330"
"5","Hospoda","Karel MLEJNEK","https://www.firmy.cz/detail/13136401-karel-mlejnek-praha-branik.html","1064"
"6","Veterinář","Vitalii Havryliuk, Veterinární lékař","https://www.firmy.cz/detail/13192396-vitalii-havryliuk-veterinarni-lekar-praha-branik.html","572"
"7","Divadlo","Loutkové divadlo Zvoneček","https://www.firmy.cz/detail/397112-loutkove-divadlo-zvonecek-praha-lhotka.html","756"
"8","Restaurace","Restaurace Pavouk","https://www.firmy.cz/detail/12994316-restaurace-pavouk-praha-branik.html","248"
"9","Škola","ZŠ Praha 4, Jílovská","https://www.firmy.cz/detail/356151-zs-praha-4-jilovska-praha-branik.html","490"
"10","Bankomat","Bankomat ČSOB","https://www.firmy.cz/detail/12965985-bankomat-csob-praha-branik.html","706"
"11","Bus MHD","Zatáčka","","185"
"12","Obchod","OC Novo Plaza","https://www.firmy.cz/detail/2135100-oc-novo-plaza-praha-branik.html","734"
"13","Lékárna","BENU lékárna","https://www.firmy.cz/detail/13212827-benu-lekarna-praha-branik.html","374"
"14","Vlak","Praha-Braník","","1201"
"15","Školka","Dětská skupina Ježek","https://www.firmy.cz/detail/13191761-detska-skupina-jezek-praha-branik.html","374"
"16","Tram","Nádraží Braník","","1284"
"17","Lékař","CODUM, s.r.o.","https://www.firmy.cz/detail/376914-codum-praha-hodkovicky.html","86"
"18","Sportoviště","TENIS CENTRUM TEMPO, Tenisové kurty a haly","https://www.firmy.cz/detail/2072525-tenis-centrum-tempo-tenisove-kurty-a-haly-praha-lhotka.html","921"
"19","Metro","Budějovická","","2872"
"20","Pošta","Pošta Praha 418 - Česká pošta, s.p.","https://www.firmy.cz/detail/431231-posta-praha-418-praha-lhotka.html","890"
