"","facility_type","facility_name","facility_iri","facility_distance"
"0","Hřiště","Dětské hřiště F. Čejky","https://mapy.cz/zakladni?x=18.3414136111&y=49.6717144444&z=17&source=base&id=2066103","166"
"1","Večerka","COOP Beskydy - Tuty","https://www.firmy.cz/detail/12857513-coop-beskydy-tuty-frydek-mistek-mistek.html","77"
"2","Hospoda","Hostinec U Antoníčka","https://www.firmy.cz/detail/13070621-hostinec-u-antonicka-frydek-mistek-mistek.html","520"
"3","Cukrárna","Cukrárna Memories","https://www.firmy.cz/detail/13027745-cukrarna-memories-frydek-mistek-mistek.html","307"
"4","Veterinář","MVDr. Dalibor Ress","https://www.firmy.cz/detail/1970359-mvdr-dalibor-ress-frydek-mistek-mistek.html","400"
"5","Kino","Kino Nová scéna Vlast","https://www.firmy.cz/detail/396685-kino-nova-scena-vlast-frydek-mistek-mistek.html","583"
"6","Divadlo","Divadlo Nová scéna Vlast","https://www.firmy.cz/detail/661522-divadlo-nova-scena-vlast-frydek-mistek-mistek.html","583"
"7","Přírodní zajímavost","Bludné balvany ve Frýdeckém lese","https://mapy.cz/zakladni?x=18.3611475613&y=49.7013257674&z=17&source=base&id=1915701","3499"
"8","Sportoviště","Bowling Star Riviera","https://www.firmy.cz/detail/2112410-bowling-star-riviera-frydek-mistek-mistek.html","246"
"9","Lékárna","Lékárna Viola","https://www.firmy.cz/detail/13210897-lekarna-viola-frydek-mistek-mistek.html","390"
"10","Škola","ZUŠ Frýdek-Místek, Politických obětí","https://www.firmy.cz/detail/2132483-zus-frydek-mistek-politickych-obeti-frydek-mistek-mistek.html","185"
"11","Bankomat","Bankomat MONETA Money Bank","https://www.firmy.cz/detail/1691461-bankomat-moneta-money-bank-frydek-mistek-mistek.html","77"
"12","Bus MHD","Místek, Frýdlantská","https://mapy.cz/zakladni?x=18.3443352039&y=49.6719172641&z=17&source=pubt&id=15216263","46"
"13","Školka","MŠ Frýdek-Místek, F. Čejky","https://www.firmy.cz/detail/2149715-ms-frydek-mistek-f-cejky-frydek-mistek-mistek.html","120"
"14","Pošta","Pošta Frýdek-Místek 12 - Česká pošta, s.p.","https://www.firmy.cz/detail/432958-posta-frydek-mistek-12-frydek-mistek-mistek.html","464"
"15","Lékař","MUDr. Ivana Procházková, s.r.o.","https://www.firmy.cz/detail/13292010-mudr-ivana-prochazkova-frydek-mistek-mistek.html","361"
"16","Obchod","PRIOR ČESKÁ REPUBLIKA s.r.o.","https://www.firmy.cz/detail/1956970-prior-ceska-republika-s-r-o-frydek-mistek-mistek.html","77"
"17","Vlak","Frýdek-Místek","https://mapy.cz/zakladni?x=18.3539008711&y=49.6777676791&z=17&source=pubt&id=15211337","979"
"18","Restaurace","Zastávka Grill Bistro","https://www.firmy.cz/detail/13207248-zastavka-grill-bistro-frydek-mistek-mistek.html","73"
