"","facility_type","facility_name","facility_iri","facility_distance"
"0","Hřiště","Dětské hřiště Komenského","https://mapy.cz/zakladni?x=13.1961419&y=49.7133214&z=17&source=base&id=2081333","54"
"1","Večerka","COOP - TUTY","https://www.firmy.cz/detail/2160191-coop-tuty-nyrany.html","142"
"2","Hospoda","Pivnice Fisher","https://www.firmy.cz/detail/13177609-pivnice-fisher-nyrany.html","54"
"3","Veterinář","MVDr. Petr Zeman","https://www.firmy.cz/detail/12788263-mvdr-petr-zeman-nyrany.html","678"
"4","Vlak","Kamenný Újezd u Nýřan","https://mapy.cz/zakladni?x=13.1919503694&y=49.7171255318&z=17&source=pubt&id=15211696","538"
"5","Bus MHD","Nýřany, sídliště","https://mapy.cz/zakladni?x=13.1958256434424&y=49.7125741230264&z=17&source=pubt&id=15326459","124"
"6","Bankomat","Bankomat ČSOB","https://www.firmy.cz/detail/596969-bankomat-csob-nyrany.html","140"
"7","Školka","ZŠ a MŠ Nýřany","https://www.firmy.cz/detail/2159336-zs-a-ms-nyrany-nyrany.html","89"
"8","Restaurace","Restaurace Kulturní dům","https://www.firmy.cz/detail/13113930-restaurace-kulturni-dum-nyrany.html","150"
"9","Sportoviště","Město Nýřany - Tenis","https://www.firmy.cz/detail/13080632-mesto-nyrany-tenis-nyrany.html","773"
"10","Lékárna","Lékárna BENU Nýřany","https://www.firmy.cz/detail/13209290-lekarna-benu-nyrany-nyrany.html","731"
"11","Škola","ZŠ a MŠ Nýřany","https://www.firmy.cz/detail/358520-zs-a-ms-nyrany-nyrany.html","671"
"12","Lékař","MUDr. Josef Dvořák","https://www.firmy.cz/detail/388050-mudr-josef-dvorak-nyrany.html","760"
"13","Pošta","Pošta Nýřany - Česká pošta, s.p.","https://www.firmy.cz/detail/216608-posta-nyrany-nyrany.html","852"
