"","facility_type","facility_name","facility_iri","facility_distance"
"0","Cukrárna","ZigZag Caffé Music Bar","https://www.firmy.cz/detail/13121055-zigzag-caffe-music-bar-karlovy-vary.html","265"
"1","Kino","Kino Čas","https://www.firmy.cz/detail/13125984-kino-cas-karlovy-vary.html","193"
"2","Přírodní zajímavost","Karlův hvozd","","1736"
"3","Hřiště","Dětské hřiště Horní Drahovice","","854"
"4","Večerka","ARBAT delikates","https://www.firmy.cz/detail/13139349-arbat-delikates-karlovy-vary.html","34"
"5","Hospoda","Pivnice Tequila Bar","https://www.firmy.cz/detail/13148877-pivnice-tequila-bar-karlovy-vary.html","359"
"6","Divadlo","Karlovarské městské divadlo, o.p.s.","https://www.firmy.cz/detail/12756821-karlovarske-mestske-divadlo-o-p-s-karlovy-vary.html","1274"
"7","Veterinář","MVDr. Eva Tichá","https://www.firmy.cz/detail/2656349-mvdr-eva-ticha-karlovy-vary-rybare.html","882"
"8","Restaurace","PIZZA MAMMA MIA, s.r.o.","https://www.firmy.cz/detail/595093-pizza-mamma-mia-karlovy-vary.html","56"
"9","Bankomat","Bankomat České spořitelny","https://www.firmy.cz/detail/13000396-bankomat-ceske-sporitelny-karlovy-vary.html","101"
"10","Bus MHD","Karlovy Vary, tržnice","","115"
"11","Sportoviště","Sportovní unie Karlovarska z.s.","https://www.firmy.cz/detail/404208-sportovni-unie-karlovarska-z-s-karlovy-vary.html","225"
"12","Obchod","Obchodní centrum Perla","https://www.firmy.cz/detail/13219298-obchodni-centrum-perla-karlovy-vary.html","105"
"13","Pošta","Pošta Karlovy Vary 1 - Česká pošta, s.p.","https://www.firmy.cz/detail/217581-posta-karlovy-vary-1-karlovy-vary.html","226"
"14","Škola","TRIVIS - Střední škola veřejnoprávní Karlovy Vary, s.r.o.","https://www.firmy.cz/detail/361765-trivis-stredni-skola-verejnopravni-karlovy-vary-karlovy-vary.html","226"
"15","Vlak","Karlovy Vary dolní nádraží","","574"
"16","Lékař","MEDICANT, s.r.o.","https://www.firmy.cz/detail/12840273-medicant-karlovy-vary.html","278"
"17","Lékárna","Lékárna Azalea Karlovy Vary","https://www.firmy.cz/detail/13204188-lekarna-azalea-karlovy-vary-karlovy-vary.html","127"
"18","Školka","ZŠ a MŠ při zdravotnických zařízeních Karlovy Vary","https://www.firmy.cz/detail/12736566-zs-a-ms-pri-zdravotnickych-zarizenich-karlovy-vary-karlovy-vary.html","460"
