"","facility_type","facility_name","facility_iri","facility_distance"
"0","Cukrárna","Kafé Piksla","https://www.firmy.cz/detail/591933-kafe-piksla-breclav.html","419"
"1","Kino","Kino Koruna","https://www.firmy.cz/detail/451631-kino-koruna-breclav.html","589"
"2","Hřiště","Dětské hřiště Cukrovar","","119"
"3","Večerka","Smíšené zboží Sovadinova 2932","https://www.firmy.cz/detail/2235600-smisene-zbozi-sovadinova-2932-breclav.html","228"
"4","Hospoda","Hospoda Na kovárně","https://www.firmy.cz/detail/13136118-hospoda-na-kovarne-breclav.html","783"
"5","Veterinář","VM - vet s.r.o.","https://www.firmy.cz/detail/12768317-vm-vet-s-r-o-breclav.html","664"
"6","Lékárna","Dr.Max LÉKÁRNA","https://www.firmy.cz/detail/12856493-dr-max-lekarna-breclav.html","422"
"7","Bus MHD","Břeclav, Slovácká","","148"
"8","Bankomat","Bankomat MONETA Money Bank","https://www.firmy.cz/detail/12728325-bankomat-moneta-money-bank-breclav.html","285"
"9","Vlak","Břeclav","","917"
"10","Lékař","MUDr. Petr Siegel","https://www.firmy.cz/detail/388517-mudr-petr-siegel-breclav.html","81"
"11","Obchod","Albert Hypermarket","https://www.firmy.cz/detail/446696-albert-hypermarket-breclav-postorna.html","2347"
"12","Restaurace","Restaurace Pohoda","https://www.firmy.cz/detail/13269730-restaurace-pohoda-breclav.html","67"
"13","Školka","ZŠ a MŠ Břeclav, Dukelských hrdinů","https://www.firmy.cz/detail/2535845-zs-a-ms-breclav-dukelskych-hrdinu-breclav.html","266"
"14","Pošta","Pošta Břeclav 1 - Česká pošta, s.p.","https://www.firmy.cz/detail/432393-posta-breclav-1-breclav.html","538"
"15","Sportoviště","Amatérské tenisové sdružení Podluží","https://www.firmy.cz/detail/2424736-amaterske-tenisove-sdruzeni-podluzi-breclav.html","100"
"16","Škola","Střední průmyslová škola Edvarda Beneše a Obchodní akademie Břeclav","https://www.firmy.cz/detail/682057-stredni-prumyslova-skola-edvarda-benese-a-obchodni-akademie-breclav-breclav.html","222"
