"","facility_type","facility_name","facility_iri","facility_distance"
"0","Cukrárna","Deli by Lagarto","https://www.firmy.cz/detail/13152015-deli-by-lagarto-most.html","390"
"1","Kino","Kino Kosmos","https://www.firmy.cz/detail/401279-kino-kosmos-most.html","1047"
"2","Hřiště","Dětské hřiště M. G. Dobnera","","317"
"3","Večerka","Gut alimentari","https://www.firmy.cz/detail/12953825-gut-alimentari-most.html","252"
"4","Hospoda","Pivnice U Krokodýla","https://www.firmy.cz/detail/2212787-pivnice-u-krokodyla-most.html","309"
"5","Divadlo","Městské divadlo v Mostě, spol. s r.o.","https://www.firmy.cz/detail/1336052-mestske-divadlo-v-moste-most.html","583"
"6","Veterinář","VETERINA-MOST","https://www.firmy.cz/detail/12832535-veterina-most-most.html","504"
"7","Sportoviště","2VSYSTEMS","https://www.firmy.cz/detail/2676910-2vsystems-most.html","369"
"8","Lékař","MUDr. Alena Dalecká","https://www.firmy.cz/detail/164738-mudr-alena-dalecka-most.html","215"
"9","Bankomat","Bankomat UniCredit Bank Czech Republic","https://www.firmy.cz/detail/12768315-bankomat-unicredit-bank-czech-republic-most.html","103"
"10","Bus MHD","Most, Obchodní dům PRIOR","","89"
"11","Školka","MŠ Most, Marie Pujmanové","https://www.firmy.cz/detail/2281905-ms-most-marie-pujmanove-most.html","248"
"12","Obchod","PRIOR ČESKÁ REPUBLIKA s.r.o.","https://www.firmy.cz/detail/1957029-prior-ceska-republika-s-r-o-most.html","252"
"13","Škola","7. ZŠ Most","https://www.firmy.cz/detail/358326-7-zs-most-most.html","328"
"14","Tram","Most, Obchodní dům PRIOR","","162"
"15","Lékárna","Mgr. Jaroslava Němečková, s.r.o.","https://www.firmy.cz/detail/13209831-mgr-jaroslava-nemeckova-most.html","167"
"16","Vlak","Most","","1492"
"17","Restaurace","Zdravé dobroty U Sáry","https://www.firmy.cz/detail/13133934-zdrave-dobroty-u-sary-most.html","103"
"18","Pošta","Pošta Most 1 - Česká pošta, s.p.","https://www.firmy.cz/detail/216966-posta-most-1-most.html","391"
