"","facility_type","facility_name","facility_iri","facility_distance"
"0","Cukrárna","Pekárna Klas","https://www.firmy.cz/detail/13154616-pekarna-klas-prachatice-ii.html","255"
"1","Kino","Letní kino Prachatice","https://www.firmy.cz/detail/396528-letni-kino-prachatice-prachatice.html","627"
"2","Hřiště","Dětské hřiště Primátorská","","161"
"3","Večerka","Penny Market","https://www.firmy.cz/detail/207792-penny-market-prachatice-ii.html","97"
"4","Hospoda","Šenk u růže","https://www.firmy.cz/detail/2597232-senk-u-ruze-prachatice-i.html","412"
"5","Divadlo","Městské divadlo Prachatice","https://www.firmy.cz/detail/12896619-mestske-divadlo-prachatice-prachatice-i.html","432"
"6","Veterinář","MVDr. Petr Hrabák","https://www.firmy.cz/detail/471367-mvdr-petr-hrabak-prachatice-ii.html","740"
"7","Školka","MŠ Nebahovy","https://www.firmy.cz/detail/1903072-ms-nebahovy-nebahovy.html","3763"
"8","Vlak","Prachatice","","454"
"9","Bus MHD","Prachatice, Malé nám.","","286"
"10","Pošta","Pošta Prachatice - Česká pošta, s.p.","https://www.firmy.cz/detail/217025-posta-prachatice-prachatice-ii.html","325"
"11","Bankomat","Bankomat ČSOB","https://www.firmy.cz/detail/597924-bankomat-csob-prachatice-ii.html","183"
"12","Škola","Vyšší odborná škola sociální a Střední pedagogická škola Prachatice","https://www.firmy.cz/detail/360626-vyssi-odborna-skola-socialni-a-stredni-pedagogicka-skola-prachatice-prachatice-ii.html","258"
"13","Restaurace","Penzion Prachatice - restaurace","https://www.firmy.cz/detail/12957174-penzion-prachatice-restaurace-prachatice-ii.html","163"
"14","Lékař","Unimedicus s.r.o.","https://www.firmy.cz/detail/12996821-unimedicus-s-r-o-prachatice-ii.html","81"
"15","Sportoviště","Sportovní zařízení Prachatice","https://www.firmy.cz/detail/12877627-sportovni-zarizeni-prachatice-prachatice-ii.html","216"
"16","Lékárna","BENU Lékárna","https://www.firmy.cz/detail/2027931-benu-lekarna-prachatice-ii.html","81"
"17","Obchod","PRIOR ČESKÁ REPUBLIKA s.r.o.","https://www.firmy.cz/detail/1956961-prior-ceska-republika-s-r-o-prachatice-ii.html","231"
