"","facility_type","facility_name","facility_iri","facility_distance"
"0","Cukrárna","Cukrárna Bezno","https://www.firmy.cz/detail/13023136-cukrarna-bezno-mlada-boleslav-ii.html","1601"
"1","Kino","CineStar Mladá Boleslav","https://www.firmy.cz/detail/2109584-cinestar-mlada-boleslav-mlada-boleslav-ii.html","1526"
"2","Přírodní zajímavost","Syslí kolonie","","3177"
"3","Hřiště","Dětské hřiště Dukelská","","298"
"4","Večerka","Lidl","https://www.firmy.cz/detail/1900823-lidl-mlada-boleslav-iii.html","109"
"5","Hospoda","Bar Safír","https://www.firmy.cz/detail/12752135-bar-safir-mlada-boleslav-iii.html","567"
"6","Divadlo","Divadýlko na dlani","https://www.firmy.cz/detail/751364-divadylko-na-dlani-mlada-boleslav-iii.html","1432"
"7","Veterinář","MVDr. René Ullmann","https://www.firmy.cz/detail/1907865-mvdr-rene-ullmann-mlada-boleslav-iii.html","581"
"8","Restaurace","KFC","https://www.firmy.cz/detail/13281308-kfc-mlada-boleslav-iii.html","561"
"9","Bankomat","Bankomat Komerční banky","https://www.firmy.cz/detail/13329836-bankomat-komercni-banky-mlada-boleslav-iii.html","104"
"10","Sportoviště","Městská společnost sportovní a rekreační areály - sportovní hala","https://www.firmy.cz/detail/12982249-mestska-spolecnost-sportovni-a-rekreacni-arealy-sportovni-hala-mlada-boleslav.html","114"
"11","Bus MHD","WDP Breno","","94"
"12","Lékárna","BENU Lékárna","https://www.firmy.cz/detail/2303237-benu-lekarna-mlada-boleslav-iii.html","236"
"13","Škola","ZŠ Mladá Boleslav, Dukelská","https://www.firmy.cz/detail/358255-zs-mlada-boleslav-dukelska-mlada-boleslav-iii.html","196"
"14","Obchod","Albert Hypermarket","https://www.firmy.cz/detail/12924541-albert-hypermarket-mlada-boleslav-iii.html","253"
"15","Pošta","Pošta Mladá Boleslav 5 - Česká pošta, s.p.","https://www.firmy.cz/detail/217181-posta-mlada-boleslav-5-mlada-boleslav-iii.html","1107"
"16","Vlak","Mladá Boleslav město","","1409"
"17","Lékař","MUDr. Knotová s.r.o.","https://www.firmy.cz/detail/12985474-mudr-knotova-s-r-o-mlada-boleslav-iii.html","351"
"18","Školka","ZŠ a MŠ Mladá Boleslav, Jilemnického","https://www.firmy.cz/detail/2658563-zs-a-ms-mlada-boleslav-jilemnickeho-mlada-boleslav-iii.html","388"
