"","facility_type","facility_name","facility_iri","facility_distance"
"0","Cukrárna","Cukrářství a perníkářství Mamka","https://www.firmy.cz/detail/12799583-cukrarstvi-a-pernikarstvi-mamka-olomouc.html","1418"
"1","Kino","Multikino - Premiere Cinemas Olomouc","https://www.firmy.cz/detail/12833601-multikino-premiere-cinemas-olomouc-olomouc.html","2476"
"2","Hřiště","Dětské hřiště U Cukrovaru","","966"
"3","Večerka","HRUŠKA - Jana Kratochvílová","https://www.firmy.cz/detail/2070682-hruska-jana-kratochvilova-olomouc-holice.html","654"
"4","Hospoda","PIVNICE HELIOS","https://www.firmy.cz/detail/13119701-pivnice-helios-olomouc-hodolany.html","1196"
"5","Divadlo","Divadlo na Šantovce, o.p.s.","https://www.firmy.cz/detail/12833588-divadlo-na-santovce-olomouc.html","2462"
"6","Veterinář","MVDr. Petr Procházka","https://www.firmy.cz/detail/718699-mvdr-petr-prochazka-olomouc-holice.html","372"
"7","Bankomat","Bankomat České spořitelny","https://www.firmy.cz/detail/2290322-bankomat-ceske-sporitelny-olomouc-hodolany.html","720"
"8","Pošta","Pošta Olomouc 17 - Česká pošta, s.p.","https://www.firmy.cz/detail/432395-posta-olomouc-17-olomouc-holice.html","1063"
"9","Tram","Aut. nádraží podchod","","994"
"10","Školka","ZŠ a MŠ Olomouc - Holice, Náves Svobody","https://www.firmy.cz/detail/728227-zs-a-ms-olomouc-holice-naves-svobody-olomouc-holice.html","986"
"11","Lékárna","Lékárna Holice","https://www.firmy.cz/detail/13150287-lekarna-holice-olomouc-holice.html","175"
"12","Sportoviště","Resort Hodolany","https://www.firmy.cz/detail/13185700-resort-hodolany-olomouc-hodolany.html","1016"
"13","Lékař","Scillia - med, s.r.o.","https://www.firmy.cz/detail/12860279-scillia-med-olomouc-holice.html","443"
"14","Bus MHD","Pekárny","","212"
"15","Obchod","Kaufland","https://www.firmy.cz/detail/1459159-kaufland-olomouc-hodolany.html","1602"
"16","Vlak","Olomouc hlavní nádraží","","1571"
"17","Škola","ZŠ a MŠ Olomouc - Holice, Náves Svobody","https://www.firmy.cz/detail/489393-zs-a-ms-olomouc-holice-naves-svobody-olomouc-holice.html","1066"
"18","Restaurace","Motorest Česká hospoda","https://www.firmy.cz/detail/12979415-motorest-ceska-hospoda-olomouc-holice.html","665"
