"","facility_type","facility_name","facility_iri","facility_distance"
"0","Cukrárna","Coffeeup","https://www.firmy.cz/detail/13112750-coffeeup-usti-nad-labem-centrum.html","709"
"1","Kino","Letní kino Ústí nad Labem","https://www.firmy.cz/detail/2556284-letni-kino-usti-nad-labem-usti-nad-labem.html","940"
"2","Hřiště","Dětské hřiště Hornická","","114"
"3","Večerka","Koloniál U Myšáka","https://www.firmy.cz/detail/12900518-kolonial-u-mysaka-usti-nad-labem.html","192"
"4","Hospoda","Pivnice Fírovka","https://www.firmy.cz/detail/12953616-pivnice-firovka-usti-nad-labem-centrum.html","133"
"5","Divadlo","Severočeské divadlo, s.r.o.","https://www.firmy.cz/detail/12720983-severoceske-divadlo-usti-nad-labem-centrum.html","1349"
"6","Veterinář","Veterina Skřivánek","https://www.firmy.cz/detail/13081086-veterina-skrivanek-usti-nad-labem-centrum.html","512"
"7","Lékař","MedicalHelp Česká republika s.r.o.","https://www.firmy.cz/detail/13276216-medicalhelp-ceska-republika-s-r-o-usti-nad-labem-centrum.html","406"
"8","Sportoviště","Sportovní klub policie Sever Ústí nad Labem","https://www.firmy.cz/detail/687536-sportovni-klub-policie-sever-usti-nad-labem-usti-nad-labem-centrum.html","683"
"9","Lékárna","Lékárna - EUC Klinika Ústí nad Labem","https://www.firmy.cz/detail/13011810-lekarna-euc-klinika-usti-nad-labem-usti-nad-labem-centrum.html","471"
"10","Restaurace","LOAD IT Burger & Bar","https://www.firmy.cz/detail/13308482-load-it-burger-bar-usti-nad-labem-centrum.html","42"
"11","Školka","MŠ Ústí nad Labem, Emy Destinové","https://www.firmy.cz/detail/771226-ms-usti-nad-labem-emy-destinove-usti-nad-labem-centrum.html","197"
"12","Vlak","Ústí nad Labem západ","","1530"
"13","Bus MHD","Hornická","","104"
"14","Pošta","Pošta Ústí nad Labem 1 - Česká pošta, s.p.","https://www.firmy.cz/detail/217063-posta-usti-nad-labem-1-usti-nad-labem-centrum.html","898"
"15","Bankomat","Bankomat ČSOB","https://www.firmy.cz/detail/13252096-bankomat-csob-usti-nad-labem-centrum.html","771"
"16","Škola","Severočeská střední škola, s.r.o.","https://www.firmy.cz/detail/1977392-severoceska-stredni-skola-usti-nad-labem-centrum.html","348"
"17","Obchod","Albert Hypermarket","https://www.firmy.cz/detail/229751-albert-hypermarket-usti-nad-labem-severni-terasa.html","825"
