"","facility_type","facility_name","facility_iri","facility_distance"
"0","Cukrárna","CrossCafe Galerie Slovany","https://www.firmy.cz/detail/12858831-crosscafe-galerie-slovany-plzen-vychodni-predmesti.html","323"
"1","Kino","Kino Beseda","https://www.firmy.cz/detail/12773769-kino-beseda-plzen-jizni-predmesti.html","2535"
"2","Hřiště","Dětské hřiště Krejčíkova","","154"
"3","Večerka","BILLA","https://www.firmy.cz/detail/2068923-billa-plzen-vychodni-predmesti.html","283"
"4","Divadlo","Divadelní spolek Jezírko","https://www.firmy.cz/detail/740611-divadelni-spolek-jezirko-plzen-vychodni-predmesti.html","740"
"5","Hospoda","Pivnice Sladovnická","https://www.firmy.cz/detail/2603445-pivnice-sladovnicka-plzen-lobzy.html","231"
"6","Veterinář","Veterinární ordinace Na Slovanech","https://www.firmy.cz/detail/2137489-veterinarni-ordinace-na-slovanech-plzen-vychodni-predmesti.html","468"
"7","Obchod","Galerie Slovany, s.r.o.","https://www.firmy.cz/detail/2301407-galerie-slovany-plzen-vychodni-predmesti.html","310"
"8","Lékař","MUDr. Helena Filipovská","https://www.firmy.cz/detail/2111037-mudr-helena-filipovska-plzen-vychodni-predmesti.html","119"
"9","Bus MHD","Radnice Slovany","","223"
"10","Tram","Brojova","","159"
"11","Pošta","Pošta Plzeň 7 - Česká pošta, s.p.","https://www.firmy.cz/detail/216655-posta-plzen-7-plzen-vychodni-predmesti.html","426"
"12","Školka","38. MŠ Plzeň","https://www.firmy.cz/detail/360428-38-ms-plzen-plzen-vychodni-predmesti.html","67"
"13","Sportoviště","Velodrom Plzeň","","755"
"14","Bankomat","Bankomat Komerční banky","https://www.firmy.cz/detail/594633-bankomat-komercni-banky-plzen-lobzy.html","174"
"15","Restaurace","Pho Time","https://www.firmy.cz/detail/13121685-pho-time-plzen-vychodni-predmesti.html","280"
"16","Lékárna","Dr. Max LÉKÁRNA","https://www.firmy.cz/detail/13001301-dr-max-lekarna-plzen-vychodni-predmesti.html","218"
"17","Škola","20. ZŠ Plzeň","https://www.firmy.cz/detail/358854-20-zs-plzen-plzen-vychodni-predmesti.html","166"
"18","Vlak","Plzeň-Koterov","","1238"
