"","facility_type","facility_name","facility_iri","facility_distance"
"0","Cukrárna","Cukrárna U Jelínků","https://www.firmy.cz/detail/2566913-cukrarna-u-jelinku-milovice-mlada.html","1294"
"1","Kino","Letní kino Lysá nad Labem","https://www.firmy.cz/detail/13071133-letni-kino-lysa-nad-labem-lysa-nad-labem.html","2946"
"2","Hřiště","Dětské hřiště Relax park","","319"
"3","Přírodní zajímavost","Tůně a mokřady Josefov","","380"
"4","Večerka","Lidl","https://www.firmy.cz/detail/13338645-lidl-milovice-mlada.html","209"
"5","Hospoda","Pivnice RKDM","https://www.firmy.cz/detail/12972580-pivnice-rkdm-milovice-mlada.html","1310"
"6","Veterinář","MVDr. Vladimír Pišl","https://www.firmy.cz/detail/2141306-mvdr-vladimir-pisl-milovice-mlada.html","1112"
"7","Bankomat","Bankomat Komerční banky","https://www.firmy.cz/detail/13338829-bankomat-komercni-banky-milovice-mlada.html","209"
"8","Pošta","Pošta Milovice nad Labem 3 - Česká pošta, s.p.","https://www.firmy.cz/detail/217394-posta-milovice-nad-labem-3-milovice-mlada.html","854"
"9","Školka","Mateřská škola Kostička, příspěvková organizace, Milovice - Mladá","https://www.firmy.cz/detail/12940673-materska-skola-kosticka-prispevkova-organizace-milovice-mlada-milovice-mlada.html","585"
"10","Bus MHD","Milovice, Telecom","","337"
"11","Sportoviště","Relax park","","313"
"12","Lékárna","Lékárna v Italské","https://www.firmy.cz/detail/2606433-lekarna-v-italske-milovice-mlada.html","1419"
"13","Škola","Základní umělecká škola Milovice, příspěvková organizace","https://www.firmy.cz/detail/13319057-zakladni-umelecka-skola-milovice-prispevkova-organizace-milovice-mlada.html","575"
"14","Vlak","Milovice","","1689"
"15","Lékař","MUDr. Oldřich Baumgartner","https://www.firmy.cz/detail/13027139-mudr-oldrich-baumgartner-milovice-mlada.html","698"
"16","Obchod","Obchodní centrum Lysá","https://www.firmy.cz/detail/2340418-obchodni-centrum-lysa-lysa-nad-labem.html","3185"
"17","Restaurace","Restaurace Milten","https://www.firmy.cz/detail/12822794-restaurace-milten-milovice-mlada.html","633"
