"","facility_type","facility_name","facility_iri","facility_distance"
"0","Cukrárna","Restaurace a kavárna  BO ASI !","https://www.firmy.cz/detail/12961112-restaurace-a-kavarna-bo-asi-ostrava-marianske-hory.html","220"
"1","Kino","CineStar Ostrava","https://www.firmy.cz/detail/661182-cinestar-ostrava-ostrava-moravska-ostrava.html","532"
"2","Přírodní zajímavost","Zábřežský bludný balvan","","2972"
"3","Hřiště","Dětské hřiště Marie Pujmanové","","478"
"4","Večerka","Potraviny 28. října 2658/155","https://www.firmy.cz/detail/2493535-potraviny-28-rijna-2658-155-ostrava-marianske-hory.html","245"
"5","Divadlo","Loutkový svět","https://www.firmy.cz/detail/13033024-loutkovy-svet-ostrava-moravska-ostrava.html","1041"
"6","Hospoda","Pivnice U Buvola","https://www.firmy.cz/detail/13121641-pivnice-u-buvola-ostrava-marianske-hory.html","327"
"7","Veterinář","Veterinární klinika MVDr. Vítězslav Raška a kolektiv","https://www.firmy.cz/detail/451459-veterinarni-klinika-mvdr-vitezslav-raska-a-kolektiv-ostrava-marianske-hory.html","62"
"8","Restaurace","Restaurace TONI","https://www.firmy.cz/detail/13215408-restaurace-toni-ostrava-marianske-hory.html","157"
"9","Lékárna","Lékárna Magnolia","https://www.firmy.cz/detail/2627321-lekarna-magnolia-ostrava-marianske-hory.html","256"
"10","Lékař","Družstvo lékařů Diagnostického centra","https://www.firmy.cz/detail/13274376-druzstvo-lekaru-diagnostickeho-centra-ostrava-marianske-hory.html","177"
"11","Bankomat","Bankomat Komerční banky","https://www.firmy.cz/detail/594290-bankomat-komercni-banky-ostrava-marianske-hory.html","358"
"12","Tram","Mariánské náměstí","","184"
"13","Pošta","Pošta Ostrava 9 - Česká pošta, s.p.","https://www.firmy.cz/detail/13014108-posta-ostrava-9-ostrava-marianske-hory.html","259"
"14","Bus MHD","Dům Energetiky","","228"
"15","Vlak","Ostrava-Stodolní","","1563"
"16","Školka","Mateřská škola U Dvoru","https://www.firmy.cz/detail/2287511-materska-skola-u-dvoru-ostrava-marianske-hory.html","589"
"17","Škola","Jazyková škola HELLO","https://www.firmy.cz/detail/641088-jazykova-skola-hello-ostrava-marianske-hory.html","247"
"18","Sportoviště","Tělocvičná jednota Sokol Mariánské Hory","https://www.firmy.cz/detail/759403-telocvicna-jednota-sokol-marianske-hory-ostrava-marianske-hory.html","201"
"19","Obchod","OC FUTURUM Ostrava","https://www.firmy.cz/detail/2454785-oc-futurum-ostrava-ostrava-moravska-ostrava.html","446"
