"","facility_type","facility_name","facility_iri","facility_distance"
"0","Hřiště","Dětské hřiště Šeříková","https://mapy.cz/zakladni?x=18.682936872587845&y=49.67206407838056&z=17&source=base&id=2326716","596"
"1","Večerka","HRUŠKA","https://www.firmy.cz/detail/12863546-hruska-trinec-lyzbice.html","261"
"2","Cukrárna","Zmrzlina U Dorky","https://www.firmy.cz/detail/13316748-zmrzlina-u-dorky-trinec-lyzbice.html","215"
"3","Veterinář","Veterinární klinika Nowavet","https://www.firmy.cz/detail/2024504-veterinarni-klinika-nowavet-trinec-stare-mesto.html","587"
"4","Hospoda","Hospůdka A je to","https://www.firmy.cz/detail/13110573-hospudka-a-je-to-trinec-stare-mesto.html","122"
"5","Kino","Kino Kosmos","https://www.firmy.cz/detail/401282-kino-kosmos-trinec-lyzbice.html","477"
"6","Bus MHD","Třinec, Lyžbice, obch.dům","https://mapy.cz/zakladni?x=18.676539083&y=49.6739006822&z=17&source=pubt&id=15280255","201"
"7","Školka","MŠ Třinec, Nerudova","https://www.firmy.cz/detail/2291721-ms-trinec-nerudova-trinec-lyzbice.html","99"
"8","Vlak","Třinec centrum","https://mapy.cz/zakladni?x=18.6810667324&y=49.6707019771&z=17&source=pubt&id=15698431","503"
"9","Obchod","Albert Hypermarket","https://www.firmy.cz/detail/1357532-albert-hypermarket-trinec-lyzbice.html","324"
"10","Škola","Gymnázium Třinec","https://www.firmy.cz/detail/360933-gymnazium-trinec-trinec-stare-mesto.html","71"
"11","Bankomat","Bankomat Air Bank","https://www.firmy.cz/detail/13100898-bankomat-air-bank-trinec-lyzbice.html","352"
"12","Restaurace","Restaurace Stodola","https://www.firmy.cz/detail/12751033-restaurace-stodola-trinec-lyzbice.html","181"
"13","Lékař","MUDr. Radana Šoltésová, s.r.o.","https://www.firmy.cz/detail/12789842-mudr-radana-soltesova-trinec-lyzbice.html","358"
"14","Pošta","Pošta Třinec 3 - Česká pošta, s.p.","https://www.firmy.cz/detail/433049-posta-trinec-3-trinec-lyzbice.html","450"
"15","Sportoviště","GAJA Centrum","https://www.firmy.cz/detail/12887766-gaja-centrum-trinec-lyzbice.html","370"
"16","Lékárna","Dr. Max LÉKÁRNA","https://www.firmy.cz/detail/12832941-dr-max-lekarna-trinec-lyzbice.html","308"
