"","facility_type","facility_name","facility_iri","facility_distance"
"0","Cukrárna","Cukrárna Charlie","https://www.firmy.cz/detail/2365398-cukrarna-charlie-praha-michle.html","1319"
"1","Kino","Cinema City Flora","https://www.firmy.cz/detail/660712-cinema-city-flora-praha-zizkov.html","2017"
"2","Hřiště","Dětské hřiště Pod Bohdalcem I","","336"
"3","Přírodní zajímavost","Mokřad Triangl","","3655"
"4","Večerka","AGLO Trading","https://www.firmy.cz/detail/652274-aglo-trading-praha-vrsovice.html","915"
"5","Hospoda","Hostinec U Parku","https://www.firmy.cz/detail/337032-hostinec-u-parku-praha-nusle.html","1421"
"6","Divadlo","Divadelní společnost Josefa Dvořáka","https://www.firmy.cz/detail/396839-divadelni-spolecnost-josefa-dvoraka-praha-vrsovice.html","1292"
"7","Veterinář","MVDr. Pavlína Hájková","https://www.firmy.cz/detail/2138944-mvdr-pavlina-hajkova-praha.html","482"
"8","Bankomat","Bankomat Komerční banky","https://www.firmy.cz/detail/2423224-bankomat-komercni-banky-praha-vrsovice.html","625"
"9","Bus MHD","Vršovický hřbitov","","144"
"10","Pošta","Pošta Praha 100 - Česká pošta, s.p.","https://www.firmy.cz/detail/2591025-posta-praha-100-praha-vrsovice.html","643"
"11","Škola","Hotelová škola Praha 10","https://www.firmy.cz/detail/362284-hotelova-skola-praha-10-praha-vrsovice.html","881"
"12","Lékárna","Dr.Max LÉKÁRNA","https://www.firmy.cz/detail/2007125-dr-max-lekarna-praha-michle.html","653"
"13","Tram","Chodovská","","544"
"14","Sportoviště","Malá lezecká stěna Kavkazská","","878"
"15","Restaurace","KFC","https://www.firmy.cz/detail/13023544-kfc-praha-vrsovice.html","662"
"16","Metro","Flora","","1816"
"17","Lékař","MUDr. Judita Mrňáková","https://www.firmy.cz/detail/390369-mudr-judita-mrnakova-praha-michle.html","646"
"18","Vlak","Praha-Eden","","530"
"19","Obchod","Tesco Extra","https://www.firmy.cz/detail/733906-tesco-extra-praha-vrsovice.html","642"
"20","Školka","MŠ Praha 10, Magnitogorská","https://www.firmy.cz/detail/2242791-ms-praha-10-magnitogorska-praha-vrsovice.html","578"
