"","facility_type","facility_name","facility_iri","facility_distance"
"0","Cukrárna","Kafé Piksla","https://www.firmy.cz/detail/591933-kafe-piksla-breclav.html","870"
"1","Kino","Kino Koruna","https://www.firmy.cz/detail/451631-kino-koruna-breclav.html","1170"
"2","Hřiště","Dětské hřiště Jaselská","","33"
"3","Večerka","HRUŠKA","https://www.firmy.cz/detail/12819981-hruska-breclav.html","299"
"4","Veterinář","MVDr. Pavel Stehlík","https://www.firmy.cz/detail/258966-mvdr-pavel-stehlik-breclav.html","436"
"5","Hospoda","Hospoda Na kovárně","https://www.firmy.cz/detail/13136118-hospoda-na-kovarne-breclav.html","567"
"6","Bus MHD","Břeclav, Stará Břeclav, Lidická","","164"
"7","Restaurace","Steakhouse W. F. Cody's","https://www.firmy.cz/detail/12771190-steakhouse-w-f-cody-s-breclav.html","153"
"8","Školka","MŠ Břeclav, U Splavu","https://www.firmy.cz/detail/2284024-ms-breclav-u-splavu-breclav.html","526"
"9","Sportoviště","Libor Nazarčuk","https://www.firmy.cz/detail/1986595-libor-nazarcuk-breclav.html","105"
"10","Lékař","MUDr. Vítězslav Machovský s.r.o.","https://www.firmy.cz/detail/13285550-mudr-vitezslav-machovsky-s-r-o-breclav.html","386"
"11","Škola","MŠ a ZŠ Břeclav, Herbenova","https://www.firmy.cz/detail/2152605-ms-a-zs-breclav-herbenova-breclav.html","370"
"12","Vlak","Břeclav","","1477"
"13","Lékárna","Dr.Max LÉKÁRNA","https://www.firmy.cz/detail/12856493-dr-max-lekarna-breclav.html","1085"
"14","Pošta","Pošta Břeclav 3 - Česká pošta, s.p.","https://www.firmy.cz/detail/432399-posta-breclav-3-breclav.html","373"
"15","Obchod","Tesco","https://www.firmy.cz/detail/2360156-tesco-breclav.html","1689"
"16","Bankomat","Bankomat České spořitelny","https://www.firmy.cz/detail/2610014-bankomat-ceske-sporitelny-breclav.html","373"
