"","facility_type","facility_name","facility_iri","facility_distance"
"0","Hřiště","Dětské hřiště Gen. Eliáše","https://mapy.cz/zakladni?x=15.3982299712&y=49.9079386177&z=17&source=base&id=1928480","92"
"1","Divadlo","Dusíkovo divadlo Čáslav","https://www.firmy.cz/detail/591578-dusikovo-divadlo-caslav-caslav-nove-mesto.html","468"
"2","Večerka","BILLA","https://www.firmy.cz/detail/2342211-billa-caslav-nove-mesto.html","261"
"3","Hospoda","Na Skále","https://www.firmy.cz/detail/13202401-na-skale-caslav-nove-mesto.html","670"
"4","Kino","Kino Miloše Formana","https://www.firmy.cz/detail/660995-kino-milose-formana-caslav-nove-mesto.html","263"
"5","Veterinář","NEOvet","https://www.firmy.cz/detail/13078206-neovet-caslav-nove-mesto.html","400"
"6","Cukrárna","Cukrárna U Kraba","https://www.firmy.cz/detail/12719710-cukrarna-u-kraba-caslav-stare-mesto.html","702"
"7","Sportoviště","Tělocvičná jednota Sokol Čáslav","https://www.firmy.cz/detail/2130014-telocvicna-jednota-sokol-caslav-caslav-nove-mesto.html","518"
"8","Bus MHD","Čáslav, Hudební škola","https://mapy.cz/zakladni?x=15.3964569290761&y=49.9070284049211&z=17&source=pubt&id=15291511","253"
"9","Lékař","DOCTOR MN, s.r.o.","https://www.firmy.cz/detail/12783260-doctor-mn-caslav-nove-mesto.html","396"
"10","Vlak","Čáslav","https://mapy.cz/zakladni?x=15.3951284404333&y=49.9153029238667&z=17&source=pubt&id=15211130","793"
"11","Restaurace","Restaurace U Šneka","https://www.firmy.cz/detail/13112150-restaurace-u-sneka-caslav-nove-mesto.html","243"
"12","Školka","MŠ Čáslav - U Bašty","https://www.firmy.cz/detail/2097326-ms-caslav-u-basty-caslav-nove-mesto.html","467"
"13","Bankomat","Bankomat ČSOB","https://www.firmy.cz/detail/597840-bankomat-csob-caslav-nove-mesto.html","362"
"14","Lékárna","Lékárna U Bašty","https://www.firmy.cz/detail/12711129-lekarna-u-basty-caslav-stare-mesto.html","400"
"15","Pošta","Pošta Čáslav - Česká pošta, s.p.","https://www.firmy.cz/detail/431970-posta-caslav-caslav-nove-mesto.html","362"
"16","Škola","ZUŠ Jana Ladislava Dusíka, Čáslav","https://www.firmy.cz/detail/427463-zus-jana-ladislava-dusika-caslav-caslav-nove-mesto.html","241"
"17","Obchod","Kaufland","https://www.firmy.cz/detail/12855796-kaufland-caslav-nove-mesto.html","737"
