"","facility_type","facility_name","facility_iri","facility_distance"
"0","Veterinář","MVDr. Eva Tichá","https://www.firmy.cz/detail/2656349-mvdr-eva-ticha-karlovy-vary-rybare.html","1186"
"1","Večerka","BILLA","https://www.firmy.cz/detail/689225-billa-karlovy-vary.html","230"
"2","Hospoda","John Jameson Pub","https://www.firmy.cz/detail/654285-john-jameson-pub-karlovy-vary.html","564"
"3","Cukrárna","Cukrárna Ovo Bar Kamilka","https://www.firmy.cz/detail/13058476-cukrarna-ovo-bar-kamilka-karlovy-vary.html","188"
"4","Hřiště","Dětské hřiště Horní Drahovice","https://mapy.cz/zakladni?x=12.881609031217193&y=50.23466052997557&z=17&source=base&id=1926207","853"
"5","Kino","Kino Čas","https://www.firmy.cz/detail/13125984-kino-cas-karlovy-vary.html","115"
"6","Divadlo","Karlovarské městské divadlo, o.p.s.","https://www.firmy.cz/detail/12756821-karlovarske-mestske-divadlo-o-p-s-karlovy-vary.html","974"
"7","Přírodní zajímavost","Karlův hvozd","https://mapy.cz/zakladni?x=12.88314066464389&y=50.21667178915505&z=17&source=base&id=2344863","1444"
"8","Restaurace","Ristorante Pizzeria Venezia","https://www.firmy.cz/detail/12986644-ristorante-pizzeria-venezia-karlovy-vary.html","0"
"9","Lékárna","Lékárna Azalea Karlovy Vary","https://www.firmy.cz/detail/13204188-lekarna-azalea-karlovy-vary-karlovy-vary.html","259"
"10","Školka","ZŠ a MŠ při zdravotnických zařízeních Karlovy Vary","https://www.firmy.cz/detail/12736566-zs-a-ms-pri-zdravotnickych-zarizenich-karlovy-vary-karlovy-vary.html","616"
"11","Obchod","Obchodní centrum Perla","https://www.firmy.cz/detail/13219298-obchodni-centrum-perla-karlovy-vary.html","220"
"12","Lékař","MEDICANT, s.r.o.","https://www.firmy.cz/detail/12840273-medicant-karlovy-vary.html","313"
"13","Škola","TRIVIS - Střední škola veřejnoprávní Karlovy Vary, s.r.o.","https://www.firmy.cz/detail/361765-trivis-stredni-skola-verejnopravni-karlovy-vary-karlovy-vary.html","81"
"14","Sportoviště","Bazén Thermal","https://www.firmy.cz/detail/1351355-bazen-thermal-karlovy-vary.html","309"
"15","Pošta","Pošta Karlovy Vary 1 - Česká pošta, s.p.","https://www.firmy.cz/detail/217581-posta-karlovy-vary-1-karlovy-vary.html","81"
"16","Bus MHD","Obřadní síň","https://mapy.cz/zakladni?x=12.8736948384221&y=50.2277322826103&z=17&source=pubt&id=15209938","101"
"17","Bankomat","Bankomat ČSOB","https://www.firmy.cz/detail/596940-bankomat-csob-karlovy-vary.html","81"
"18","Vlak","Karlovy Vary dolní nádraží","https://mapy.cz/zakladni?x=12.8635328669&y=50.2303335325&z=17&source=pubt&id=15211709","813"
