"","facility_type","facility_name","facility_iri","facility_distance"
"0","Cukrárna","Bistro Lipovka","https://www.firmy.cz/detail/13340642-bistro-lipovka-dobrany.html","711"
"1","Kino","Kulturní zařízení Káčko","https://www.firmy.cz/detail/12855409-kulturni-zarizeni-kacko-dobrany.html","653"
"2","Hřiště","Dětské hřiště F. X. Nohy","","179"
"3","Večerka","COOP - TIP","https://www.firmy.cz/detail/2375988-coop-tip-dobrany.html","86"
"4","Hospoda","Pivnice Hájek a Hájková","https://www.firmy.cz/detail/288796-pivnice-hajek-a-hajkova-dobrany.html","285"
"5","Veterinář","MVDr. Tereza Křížová","https://www.firmy.cz/detail/2132666-mvdr-tereza-krizova-dobrany.html","579"
"6","Pošta","Pošta Dobřany - Česká pošta, s.p.","https://www.firmy.cz/detail/216631-posta-dobrany-dobrany.html","675"
"7","Bus MHD","Dobřany, rozc.k žel.st.","","245"
"8","Bankomat","Bankomat České spořitelny","https://www.firmy.cz/detail/592063-bankomat-ceske-sporitelny-dobrany.html","291"
"9","Lékař","MUDr. Ludmila Horová","https://www.firmy.cz/detail/2466849-mudr-ludmila-horova-dobrany.html","292"
"10","Sportoviště","Sportovní areál Dobřany","https://www.firmy.cz/detail/2604095-sportovni-areal-dobrany-dobrany.html","190"
"11","Restaurace","Restaurace Beseda","https://www.firmy.cz/detail/2116284-restaurace-beseda-dobrany.html","499"
"12","Lékárna","Lékárna Devětsil","https://www.firmy.cz/detail/376024-lekarna-devetsil-dobrany.html","86"
"13","Vlak","Dobřany","","277"
"14","Školka","MŠ Dobřany","https://www.firmy.cz/detail/2376989-ms-dobrany-dobrany.html","319"
"15","Škola","ZŠ Dobřany, třída 1. máje","https://www.firmy.cz/detail/356845-zs-dobrany-trida-1-maje-dobrany.html","213"
