"","facility_type","facility_name","facility_iri","facility_distance"
"0","Cukrárna","Kitt&Café Toulavý ráj","https://www.firmy.cz/detail/13281587-kitt-cafe-toulavy-raj-kromeriz.html","761"
"1","Kino","Kino Nadsklepí","https://www.firmy.cz/detail/12749352-kino-nadsklepi-kromeriz.html","1296"
"2","Přírodní zajímavost","Soutok Moravy a Hané","","2886"
"3","Hřiště","Dětské hřiště Kazimíra Rudého","","155"
"4","Večerka","COOP TIP","https://www.firmy.cz/detail/2677669-coop-tip-kromeriz.html","166"
"5","Hospoda","Pivnice U Standy","https://www.firmy.cz/detail/12795944-pivnice-u-standy-kromeriz.html","943"
"6","Divadlo","Dům kultury v Kroměříži","https://www.firmy.cz/detail/397120-dum-kultury-v-kromerizi-kromeriz.html","1749"
"7","Veterinář","MVDr. Karel Chvátal","https://www.firmy.cz/detail/719461-mvdr-karel-chvatal-kromeriz.html","524"
"8","Pošta","Pošta Kroměříž 4 - Česká pošta, s.p.","https://www.firmy.cz/detail/217193-posta-kromeriz-4-kromeriz.html","1110"
"9","Lékárna","Psychiatrická nemocnice v Kroměříži, Ústavní lékárna","https://www.firmy.cz/detail/13204011-psychiatricka-nemocnice-v-kromerizi-ustavni-lekarna-kromeriz.html","960"
"10","Školka","ZŠ a MŠ speciální Kroměříž","https://www.firmy.cz/detail/1892001-zs-a-ms-specialni-kromeriz-kromeriz.html","179"
"11","Restaurace","Restaurace Koruna U Huga","https://www.firmy.cz/detail/13233206-restaurace-koruna-u-huga-kromeriz.html","622"
"12","Sportoviště","PENZION NA JÍZDÁRNĚ, s.r.o.","https://www.firmy.cz/detail/13115002-penzion-na-jizdarne-kromeriz.html","681"
"13","Lékař","MUDr. Mária Křeménková","https://www.firmy.cz/detail/386592-mudr-maria-kremenkova-kromeriz.html","960"
"14","Škola","ZŠ a MŠ speciální Kroměříž","https://www.firmy.cz/detail/648024-zs-a-ms-specialni-kromeriz-kromeriz.html","179"
"15","Bus MHD","Kroměříž, Kazimíra Rudého","","133"
"16","Bankomat","Bankomat České spořitelny","https://www.firmy.cz/detail/593077-bankomat-ceske-sporitelny-kromeriz.html","1325"
"17","Obchod","Albert Hypermarket","https://www.firmy.cz/detail/446933-albert-hypermarket-kromeriz.html","1953"
"18","Vlak","Kroměříž","","1947"
