"","facility_type","facility_name","facility_iri","facility_distance"
"0","Cukrárna","Cukrárna 17. listopadu 1335","https://www.firmy.cz/detail/12740377-cukrarna-17-listopadu-1335-mlada-boleslav-ii.html","663"
"1","Kino","CineStar Mladá Boleslav","https://www.firmy.cz/detail/2109584-cinestar-mlada-boleslav-mlada-boleslav-ii.html","1303"
"2","Přírodní zajímavost","Syslí kolonie","","523"
"3","Hřiště","Dětské hřiště Svojsíkova","","82"
"4","Večerka","COOP","https://www.firmy.cz/detail/2354317-coop-mlada-boleslav-ii.html","400"
"5","Divadlo","Městské divadlo Mladá Boleslav","https://www.firmy.cz/detail/401491-mestske-divadlo-mlada-boleslav-mlada-boleslav-ii.html","1488"
"6","Hospoda","Pivnice Eden","https://www.firmy.cz/detail/13151685-pivnice-eden-mlada-boleslav-iv.html","898"
"7","Veterinář","Veterinární ordinace MBvet","https://www.firmy.cz/detail/1328851-veterinarni-ordinace-mbvet-mlada-boleslav-ii.html","638"
"8","Škola","ZŠ a MŠ Mladá Boleslav","https://www.firmy.cz/detail/358263-zs-a-ms-mlada-boleslav-mlada-boleslav-ii.html","314"
"9","Sportoviště","Mgr. Eva Trhoňová","https://www.firmy.cz/detail/2324126-mgr-eva-trhonova-mlada-boleslav-ii.html","507"
"10","Obchod","Kaufland","https://www.firmy.cz/detail/738635-kaufland-mlada-boleslav-ii.html","812"
"11","Lékárna","BENU Lékárna","https://www.firmy.cz/detail/2303103-benu-lekarna-mlada-boleslav-ii.html","495"
"12","Bus MHD","Poliklinika U Stadionu","","332"
"13","Školka","KinderGarten","https://www.firmy.cz/detail/12745147-kindergarten-mlada-boleslav-ii.html","293"
"14","Pošta","Pošta Mladá Boleslav 2 - Česká pošta, s.p.","https://www.firmy.cz/detail/2378993-posta-mlada-boleslav-2-mlada-boleslav-ii.html","819"
"15","Lékař","INTERPRAX, s.r.o.","https://www.firmy.cz/detail/13286644-interprax-mlada-boleslav-ii.html","287"
"16","Restaurace","Pizzerie U Souseda","https://www.firmy.cz/detail/13336317-pizzerie-u-souseda-mlada-boleslav-ii.html","144"
"17","Bankomat","Bankomat ČSOB","https://www.firmy.cz/detail/12943973-bankomat-csob-mlada-boleslav-ii.html","387"
"18","Vlak","Mladá Boleslav město","","1433"
