"","facility_type","facility_name","facility_iri","facility_distance"
"0","Cukrárna","Cukrárna Bali","https://www.firmy.cz/detail/13143255-cukrarna-bali-brno-stare-brno.html","107"
"1","Kino","Cinema City Velký Špalíček","https://www.firmy.cz/detail/2679905-cinema-city-velky-spalicek-brno-mesto.html","618"
"2","Přírodní zajímavost","Koniklecová louka","","3561"
"3","Hřiště","Dětské hřiště Pellicova","","124"
"4","Večerka","Můjobchod - Večerka - Potraviny","https://www.firmy.cz/detail/13164021-mujobchod-vecerka-potraviny-brno-stare-brno.html","281"
"5","Hospoda","U Alberta","https://www.firmy.cz/detail/13024721-u-alberta-brno-mesto.html","151"
"6","Divadlo","Cabaret des Péchés","https://www.firmy.cz/detail/13261116-cabaret-des-peches-brno-mesto.html","575"
"7","Veterinář","Veterinární ordinace - MVDr. Klára Palicová","https://www.firmy.cz/detail/13185639-veterinarni-ordinace-mvdr-klara-palicova-brno-stare-brno.html","218"
"8","Bankomat","Bankomat Komerční banky","https://www.firmy.cz/detail/591994-bankomat-komercni-banky-brno-stare-brno.html","263"
"9","Pošta","Pošta Brno 10 - Česká pošta, s.p.","https://www.firmy.cz/detail/13048279-posta-brno-10-brno-mesto.html","584"
"10","Lékárna","Lékárna Proti Sv. Anně","https://www.firmy.cz/detail/13001868-lekarna-proti-sv-anne-brno-stare-brno.html","99"
"11","Obchod","Velký Špalíček","https://www.firmy.cz/detail/1546677-velky-spalicek-brno-mesto.html","598"
"12","Vlak","Brno hlavní nádraží","","1041"
"13","Školka","Přírodní mateřská škola Karis","https://www.firmy.cz/detail/13203577-prirodni-materska-skola-karis-brno-mesto.html","272"
"14","Tram","Nemocnice u sv. Anny","","115"
"15","Restaurace","U Šedivého Vola","https://www.firmy.cz/detail/13235203-u-sediveho-vola-brno-stare-brno.html","138"
"16","Lékař","Ordinace VPL Pekařská, s.r.o.","https://www.firmy.cz/detail/13281795-ordinace-vpl-pekarska-brno-stare-brno.html","338"
"17","Škola","Gymnázium J.G.Mendela a jeho zařízení a Základní umělecká škola","https://www.firmy.cz/detail/361594-gymnazium-j-g-mendela-a-jeho-zarizeni-a-zakladni-umelecka-skola-brno-stare-brno.html","246"
"18","Bus MHD","Mendlovo náměstí","","422"
"19","Sportoviště","Orel","https://www.firmy.cz/detail/186496-orel-brno-mesto.html","346"
