"","facility_type","facility_name","facility_iri","facility_distance"
"0","Cukrárna","Dolce Carosello","https://www.firmy.cz/detail/12910081-dolce-carosello-praha.html","1004"
"1","Kino","Multikino - Premiere Cinemas Praha Hostivař","https://www.firmy.cz/detail/12745547-multikino-premiere-cinemas-praha-hostivar-praha-hostivar.html","1854"
"2","Přírodní zajímavost","Mokřad Triangl","","1043"
"3","Hřiště","Dětské hřiště Rubensova","","63"
"4","Večerka","Albert Supermarket","https://www.firmy.cz/detail/229768-albert-supermarket-praha-strasnice.html","155"
"5","Hospoda","Kulturní dům Barikádníků","https://www.firmy.cz/detail/13118335-kulturni-dum-barikadniku-praha-strasnice.html","1283"
"6","Divadlo","Divadélko Beze Jména","https://www.firmy.cz/detail/12986402-divadelko-beze-jmena-praha-strasnice.html","1041"
"7","Veterinář","Veterinární ambulance - MVDr. Renáta Kvapilová","https://www.firmy.cz/detail/473616-veterinarni-ambulance-mvdr-renata-kvapilova-praha-strasnice.html","89"
"8","Obchod","Tesco Extra Skalka","https://www.firmy.cz/detail/653533-tesco-extra-skalka-praha-strasnice.html","208"
"9","Lékárna","BENU Lékárna","https://www.firmy.cz/detail/2024741-benu-lekarna-praha-strasnice.html","107"
"10","Bankomat","Bankomat Komerční banky","https://www.firmy.cz/detail/1349093-bankomat-komercni-banky-praha-strasnice.html","108"
"11","Škola","ZŠ  Praha 10, V Rybníčkách","https://www.firmy.cz/detail/356139-zs-praha-10-v-rybnickach-praha-strasnice.html","339"
"12","Sportoviště","Badminton Aréna Skalka","https://www.firmy.cz/detail/12986321-badminton-arena-skalka-praha-strasnice.html","147"
"13","Tram","Dubečská","","662"
"14","Bus MHD","Michelangelova","","105"
"15","Vlak","Praha-Zahradní Město","","870"
"16","Metro","Skalka","","157"
"17","Školka","MŠ Praha 10, Rembrandtova","https://www.firmy.cz/detail/2641514-ms-praha-10-rembrandtova-praha-strasnice.html","144"
"18","Pošta","Pošta Praha 106 - Česká pošta, s.p.","https://www.firmy.cz/detail/431448-posta-praha-106-praha-zabehlice.html","1410"
"19","Restaurace","Zářivá Perla","https://www.firmy.cz/detail/12949866-zariva-perla-praha-strasnice.html","147"
"20","Lékař","MUDr. Jana Richterová","https://www.firmy.cz/detail/389364-mudr-jana-richterova-praha-strasnice.html","272"
