"","facility_type","facility_name","facility_iri","facility_distance"
"0","Cukrárna","Cukrárna u Moniky","https://www.firmy.cz/detail/13101337-cukrarna-u-moniky-krasna-lipa.html","512"
"1","Kino","Kino Krásná Lípa","https://www.firmy.cz/detail/396503-kino-krasna-lipa-krasna-lipa.html","546"
"2","Hřiště","Dětské hřiště Nemocniční","","533"
"3","Večerka","Potraviny Vorlíček","https://www.firmy.cz/detail/13265338-potraviny-vorlicek-krasna-lipa.html","391"
"4","Hospoda","Hostinec Kyjovská Terasa","https://www.firmy.cz/detail/13201437-hostinec-kyjovska-terasa-krasna-lipa-kyjov.html","3529"
"5","Veterinář","MVDr. Oldřich Baudyš","https://www.firmy.cz/detail/12824778-mvdr-oldrich-baudys-rumburk-1.html","5578"
"6","Vlak","Krásná Lípa","","607"
"7","Restaurace","Dřevěnka U Dvořáků","https://www.firmy.cz/detail/13118360-drevenka-u-dvoraku-krasna-lipa.html","64"
"8","Lékař","Zdravotnické středisko Krásná Lípa, s.r.o.","https://www.firmy.cz/detail/268940-zdravotnicke-stredisko-krasna-lipa-krasna-lipa.html","173"
"9","Lékárna","Lékárna Krásná Lípa","https://www.firmy.cz/detail/2614936-lekarna-krasna-lipa-krasna-lipa.html","484"
"10","Sportoviště","Město Krásná Lípa - Tenis","https://www.firmy.cz/detail/13078982-mesto-krasna-lipa-tenis-krasna-lipa.html","454"
"11","Škola","ZŠ Krásná Lípa","https://www.firmy.cz/detail/357822-zs-krasna-lipa-krasna-lipa.html","388"
"12","Pošta","Pošta Krásná Lípa u Rumburka - Česká pošta, s.p.","https://www.firmy.cz/detail/215400-posta-krasna-lipa-u-rumburka-krasna-lipa.html","365"
"13","Bus MHD","Krásná Lípa, u samoobsluhy","","77"
"14","Školka","Mateřská škola Sluníčko","https://www.firmy.cz/detail/2640333-materska-skola-slunicko-krasna-lipa.html","178"
"15","Bankomat","Bankomat ČSOB","https://www.firmy.cz/detail/597162-bankomat-csob-krasna-lipa.html","526"
