"","facility_type","facility_name","facility_iri","facility_distance"
"0","Cukrárna","Cukrárna, Kavárna Šlágr","https://www.firmy.cz/detail/2503534-cukrarna-kavarna-slagr-praha-vinohrady.html","133"
"1","Kino","HopeTV","https://www.firmy.cz/detail/672889-hopetv-praha-vinohrady.html","766"
"2","Hřiště","Dětské hřiště U Havlíčkových sadů","","40"
"3","Večerka","France Gourmet","https://www.firmy.cz/detail/2657440-france-gourmet-praha-vrsovice.html","40"
"4","Hospoda","Hospoda Pohoda","https://www.firmy.cz/detail/569598-hospoda-pohoda-praha-nusle.html","710"
"5","Divadlo","Divadlo D21","https://www.firmy.cz/detail/652669-divadlo-d21-praha-vinohrady.html","562"
"6","Veterinář","MVDr. Miroslav Měšťan","https://www.firmy.cz/detail/2487671-mvdr-miroslav-mestan-praha-vrsovice.html","91"
"7","Lékař","MUDr. Anna Růžičková","https://www.firmy.cz/detail/390768-mudr-anna-ruzickova-praha-vinohrady.html","350"
"8","Bankomat","Bankomat MONETA Money Bank","https://www.firmy.cz/detail/2675391-bankomat-moneta-money-bank-praha-vinohrady.html","425"
"9","Pošta","Pošta Praha 2 - Česká pošta, s.p.","https://www.firmy.cz/detail/217496-posta-praha-2-praha-vinohrady.html","433"
"10","Bus MHD","Náměstí Míru","","646"
"11","Metro","Náměstí Míru","","686"
"12","Škola","Základní škola, Fakultní škola Pedagogické fakulty UK, Praha 2, Slovenská 27","https://www.firmy.cz/detail/358963-zakladni-skola-fakultni-skola-pedagogicke-fakulty-uk-praha-2-slovenska-27-praha-vinohrady.html","262"
"13","Obchod","PAVILON, a.s.","https://www.firmy.cz/detail/451685-pavilon-praha-vinohrady.html","683"
"14","Restaurace","Restaurace Zelená zahrada","https://www.firmy.cz/detail/2511017-restaurace-zelena-zahrada-praha-vinohrady.html","144"
"15","Školka","MŠ Praha 2, Slovenská","https://www.firmy.cz/detail/2152794-ms-praha-2-slovenska-praha-vinohrady.html","262"
"16","Tram","Krymská","","200"
"17","Vlak","Praha-Vršovice","","720"
"18","Lékárna","U Robina","https://www.firmy.cz/detail/658538-u-robina-praha-vinohrady.html","754"
"19","Sportoviště","Tenisové kurty Hasa","https://www.firmy.cz/detail/2307635-tenisove-kurty-hasa-praha-vrsovice.html","366"
