"","facility_type","facility_name","facility_iri","facility_distance"
"0","Cukrárna","Boršovské dobroty","https://www.firmy.cz/detail/13103539-borsovske-dobroty-ceske-budejovice-6.html","2110"
"1","Kino","CineStar IGY Centrum","https://www.firmy.cz/detail/13096583-cinestar-igy-centrum-ceske-budejovice-3.html","2776"
"2","Hřiště","Dětské hřiště","","159"
"3","Večerka","Penny Market","https://www.firmy.cz/detail/2413192-penny-market-ceske-budejovice-4.html","1205"
"4","Hospoda","Bar Bryčka","https://www.firmy.cz/detail/2652355-bar-brycka-ceske-budejovice-3.html","1989"
"5","Veterinář","MVDr. Dana Čermáková","https://www.firmy.cz/detail/256096-mvdr-dana-cermakova-ceske-budejovice-5.html","1641"
"6","Divadlo","SUD - studentské universitní divadlo","https://www.firmy.cz/detail/661256-sud-studentske-universitni-divadlo-ceske-budejovice-1.html","2680"
"7","Škola","ZŠ a MŠ T.G.Masaryka České Budějovice","https://www.firmy.cz/detail/356745-zs-a-ms-t-g-masaryka-ceske-budejovice-ceske-budejovice-4.html","162"
"8","Vlak","České Budějovice","","1975"
"9","Školka","ZŠ a MŠ T.G.Masaryka České Budějovice","https://www.firmy.cz/detail/725799-zs-a-ms-t-g-masaryka-ceske-budejovice-ceske-budejovice-4.html","162"
"10","Pošta","Pošta České Budějovice 6 - Česká pošta, s.p.","https://www.firmy.cz/detail/217071-posta-ceske-budejovice-6-ceske-budejovice-5.html","1825"
"11","Lékárna","Lékárna U Zlaté rybky","https://www.firmy.cz/detail/12878658-lekarna-u-zlate-rybky-ceske-budejovice-5.html","1753"
"12","Lékař","MUDr. Kateřina Benedová s.r.o.","https://www.firmy.cz/detail/13025914-mudr-katerina-benedova-s-r-o-ceske-budejovice-4.html","315"
"13","Restaurace","U Havlů","https://www.firmy.cz/detail/13140719-u-havlu-ceske-budejovice-4.html","229"
"14","Bus MHD","Nové Vráto","","171"
"15","Sportoviště","Tělovýchovná jednota Lokomotiva České Budějovice","https://www.firmy.cz/detail/737623-telovychovna-jednota-lokomotiva-ceske-budejovice-ceske-budejovice-5.html","1485"
"16","Obchod","DOC Mercury, a.s.","https://www.firmy.cz/detail/13307767-doc-mercury-ceske-budejovice-6.html","2163"
"17","Bankomat","Bankomat Komerční banky","https://www.firmy.cz/detail/13332921-bankomat-komercni-banky-ceske-budejovice-4.html","1493"
