"","facility_type","facility_name","facility_iri","facility_distance"
"0","Hřiště","Dětské hřiště pošta","https://mapy.cz/zakladni?x=15.471615&y=50.7307877778&z=17&source=base&id=2067126","245"
"1","Hospoda","Hospoda U Mojmíra","https://www.firmy.cz/detail/12892260-hospoda-u-mojmira-rokytnice-nad-jizerou-horni-rokytnice.html","572"
"2","Cukrárna","Cukrárna U Pata a Mata","https://www.firmy.cz/detail/13123105-cukrarna-u-pata-a-mata-rokytnice-nad-jizerou-horni-rokytnice.html","1201"
"3","Veterinář","MVDr. Karolína Stehlíková","https://www.firmy.cz/detail/12848948-mvdr-karolina-stehlikova-jablonec-nad-jizerou.html","4241"
"4","Večerka","Potraviny ENAPO","https://www.firmy.cz/detail/13269510-potraviny-enapo-rokytnice-nad-jizerou-horni-rokytnice.html","232"
"5","Sportoviště","Snowtubing Rokytnice","https://www.firmy.cz/detail/12861402-snowtubing-rokytnice-rokytnice-nad-jizerou-horni-rokytnice.html","563"
"6","Bus MHD","Rokytnice nad Jizerou, Horní Rokytnice","https://mapy.cz/zakladni?x=15.4735487362922&y=50.7298314680278&z=17&source=pubt&id=15210743","92"
"7","Bankomat","Bankomat MONETA Money Bank","https://www.firmy.cz/detail/13082634-bankomat-moneta-money-bank-rokytnice-nad-jizerou-horni-rokytnice.html","232"
"8","Škola","ZŠ, Rokytnice nad Jizerou","https://www.firmy.cz/detail/359190-zs-rokytnice-nad-jizerou-rokytnice-nad-jizerou-dolni-rokytnice.html","1623"
"9","Školka","MŠ Rokytnice nad Jizerou, Horní Rokytnice","https://www.firmy.cz/detail/2275929-ms-rokytnice-nad-jizerou-horni-rokytnice-rokytnice-nad-jizerou-horni-rokytnice.html","751"
"10","Lékárna","Horská lékárna, s.r.o.","https://www.firmy.cz/detail/2628372-horska-lekarna-rokytnice-nad-jizerou-horni-rokytnice.html","1269"
"11","Vlak","Rokytnice nad Jizerou","https://mapy.cz/zakladni?x=15.4229495912&y=50.7121484955&z=17&source=pubt&id=15212693","4031"
"12","Pošta","Pošta Rokytnice nad Jizerou 3 - Česká pošta, s.p.","https://www.firmy.cz/detail/433051-posta-rokytnice-nad-jizerou-3-rokytnice-nad-jizerou-horni-rokytnice.html","266"
"13","Restaurace","Restaurace Hotelu Helena","https://www.firmy.cz/detail/12960178-restaurace-hotelu-helena-rokytnice-nad-jizerou-horni-rokytnice.html","93"
"14","Lékař","MUDr. Jaroslav Folprecht","https://www.firmy.cz/detail/386691-mudr-jaroslav-folprecht-rokytnice-nad-jizerou-horni-rokytnice.html","741"
