"","facility_type","facility_name","facility_iri","facility_distance"
"0","Cukrárna","Smetanová cukrárna","https://www.firmy.cz/detail/2586762-smetanova-cukrarna-praha-dolni-mecholupy.html","367"
"1","Kino","Multikino - Premiere Cinemas Praha Hostivař","https://www.firmy.cz/detail/12745547-multikino-premiere-cinemas-praha-hostivar-praha-hostivar.html","3009"
"2","Přírodní zajímavost","Mokřad Triangl","","2798"
"3","Hřiště","Dětské hřiště Kutnohorská","","331"
"4","Večerka","Potraviny Dolnoměcholupská 39/48","https://www.firmy.cz/detail/13058588-potraviny-dolnomecholupska-39-48-praha-dolni-mecholupy.html","154"
"5","Hospoda","Pivnice U Tomáše","https://www.firmy.cz/detail/13232026-pivnice-u-tomase-praha-dolni-mecholupy.html","311"
"6","Divadlo","Loutkové divadlo Frydolín","https://www.firmy.cz/detail/397086-loutkove-divadlo-frydolin-praha-hostivar.html","1687"
"7","Veterinář","Veterinární ordinace MiaVet","https://www.firmy.cz/detail/13239222-veterinarni-ordinace-miavet-praha-dolni-mecholupy.html","42"
"8","Škola","Základní škola Dolní Měcholupy","https://www.firmy.cz/detail/356123-zakladni-skola-dolni-mecholupy-praha-dolni-mecholupy.html","376"
"9","Lékař","Dolnoměcholupská zdravotní s.r.o.","https://www.firmy.cz/detail/12839032-dolnomecholupska-zdravotni-s-r-o-praha-dolni-mecholupy.html","164"
"10","Školka","MŠ Dolní Měcholupy Praha","https://www.firmy.cz/detail/807829-ms-dolni-mecholupy-praha-praha-dolni-mecholupy.html","158"
"11","Bankomat","Bankomat UniCredit Bank Czech Republic","https://www.firmy.cz/detail/12987165-bankomat-unicredit-bank-czech-republic-praha-dolni-mecholupy.html","164"
"12","Obchod","Štěrboholy Retail Park","https://www.firmy.cz/detail/13185713-sterboholy-retail-park-praha.html","1004"
"13","Pošta","Pošta Dolní Měcholupy - Česká pošta, s.p.","https://www.firmy.cz/detail/217156-posta-dolni-mecholupy-praha-dolni-mecholupy.html","164"
"14","Tram","Nádraží Hostivař","","1639"
"15","Sportoviště","Venkovní víceúčelové hřiště Dolní Měcholupy - tenisové kurty","https://www.firmy.cz/detail/13265222-venkovni-viceucelove-hriste-dolni-mecholupy-tenisove-kurty-praha.html","320"
"16","Vlak","Praha-Horní Měcholupy","","1472"
"17","Lékárna","Dr.Max LÉKÁRNA","https://www.firmy.cz/detail/13207587-dr-max-lekarna-praha-sterboholy.html","1085"
"18","Restaurace","Steak House a Pizzerie Mondeo","https://www.firmy.cz/detail/434381-steak-house-a-pizzerie-mondeo-praha-dolni-mecholupy.html","167"
"19","Bus MHD","Dolnoměcholupská","","81"
"20","Metro","Depo Hostivař","","3488"
