"","facility_type","facility_name","facility_iri","facility_distance"
"0","Cukrárna","Cukrářství a perníkářství Mamka","https://www.firmy.cz/detail/12799583-cukrarstvi-a-pernikarstvi-mamka-olomouc.html","1446"
"1","Kino","Multikino - Premiere Cinemas Olomouc","https://www.firmy.cz/detail/12833601-multikino-premiere-cinemas-olomouc-olomouc.html","1519"
"2","Hřiště","Dětské hřiště Borůvková","","50"
"3","Večerka","Potraviny Prejza","https://www.firmy.cz/detail/13339761-potraviny-prejza-olomouc-hodolany.html","182"
"4","Hospoda","Letní zahrádka Na Hřišti","https://www.firmy.cz/detail/13195198-letni-zahradka-na-hristi-olomouc.html","335"
"5","Divadlo","Divadlo na Šantovce, o.p.s.","https://www.firmy.cz/detail/12833588-divadlo-na-santovce-olomouc.html","1506"
"6","Veterinář","Veterinární klinika TOSA","https://www.firmy.cz/detail/1952555-veterinarni-klinika-tosa-olomouc-nove-sady.html","1421"
"7","Školka","ZŠ a MŠ Olomouc, Přichystalova","https://www.firmy.cz/detail/2159543-zs-a-ms-olomouc-prichystalova-olomouc-hodolany.html","433"
"8","Bus MHD","Přichystalova","","157"
"9","Lékař","MUDr. Adriana Bednaříková","https://www.firmy.cz/detail/12832204-mudr-adriana-bednarikova-olomouc-novy-svet.html","241"
"10","Restaurace","Pivnice Knihovna","https://www.firmy.cz/detail/13195197-pivnice-knihovna-olomouc-novy-svet.html","411"
"11","Obchod","Kaufland","https://www.firmy.cz/detail/1459159-kaufland-olomouc-hodolany.html","1274"
"12","Pošta","Pošta Olomouc 6 - Česká pošta, s.p.","https://www.firmy.cz/detail/12976006-posta-olomouc-6-olomouc.html","1495"
"13","Tram","Trnkova","","1114"
"14","Lékárna","Lékárna Rena Olomouc, s.r.o.","https://www.firmy.cz/detail/12838828-lekarna-rena-olomouc-olomouc-nove-sady.html","1211"
"15","Bankomat","Bankomat UniCredit Bank Czech Republic","https://www.firmy.cz/detail/1964657-bankomat-unicredit-bank-czech-republic-olomouc-hodolany.html","862"
"16","Vlak","Olomouc-Nové Sady","","1055"
"17","Sportoviště","Taťana Čechovská","https://www.firmy.cz/detail/12835007-tatana-cechovska-olomouc.html","335"
"18","Škola","Fakultní ZŠ a MŠ Olomouc Holečkova","https://www.firmy.cz/detail/2590863-fakultni-zs-a-ms-olomouc-holeckova-olomouc-nove-sady.html","1028"
