"","facility_type","facility_name","facility_iri","facility_distance"
"0","Cukrárna","Cukrárna Pralinka","https://www.firmy.cz/detail/626458-cukrarna-pralinka-praha-vrsovice.html","517"
"1","Kino","Cinema City Flora","https://www.firmy.cz/detail/660712-cinema-city-flora-praha-zizkov.html","1185"
"2","Přírodní zajímavost","Meandry Rokytky","","5518"
"3","Hřiště","Dětské hřiště Heroldovy sady","","91"
"4","Večerka","BILLA","https://www.firmy.cz/detail/689203-billa-praha-vinohrady.html","625"
"5","Hospoda","Hospoda Pohoda","https://www.firmy.cz/detail/569598-hospoda-pohoda-praha-nusle.html","1136"
"6","Divadlo","Divadelní společnost Josefa Dvořáka","https://www.firmy.cz/detail/396839-divadelni-spolecnost-josefa-dvoraka-praha-vrsovice.html","453"
"7","Veterinář","VETPOINT - veterinární klinika","https://www.firmy.cz/detail/162085-vetpoint-veterinarni-klinika-praha-vrsovice.html","208"
"8","Pošta","Pošta Praha 101 - Česká pošta, s.p.","https://www.firmy.cz/detail/431434-posta-praha-101-praha-vrsovice.html","302"
"9","Škola","ZŠ a MŠ logopedická Praha 10","https://www.firmy.cz/detail/647982-zs-a-ms-logopedicka-praha-10-praha-vrsovice.html","75"
"10","Tram","Vršovické náměstí","","74"
"11","Restaurace","Stella Cafe Ristorante","https://www.firmy.cz/detail/334980-stella-cafe-ristorante-praha-vrsovice.html","99"
"12","Obchod","Tesco Extra","https://www.firmy.cz/detail/733906-tesco-extra-praha-vrsovice.html","1075"
"13","Bankomat","Bankomat České spořitelny","https://www.firmy.cz/detail/594418-bankomat-ceske-sporitelny-praha-vrsovice.html","183"
"14","Lékař","Vršovická zdravotní, a.s.","https://www.firmy.cz/detail/2609702-vrsovicka-zdravotni-praha-vrsovice.html","479"
"15","Metro","Jiřího z Poděbrad","","869"
"16","Sportoviště","Tělocvičná jednota Sokol Praha Vršovice","https://www.firmy.cz/detail/222119-telocvicna-jednota-sokol-praha-vrsovice-praha-vrsovice.html","141"
"17","Vlak","Praha-Vršovice","","717"
"18","Školka","MŠ Praha 10, Kodaňská","https://www.firmy.cz/detail/2242771-ms-praha-10-kodanska-praha-vrsovice.html","174"
"19","Lékárna","Lékárna Lemon","https://www.firmy.cz/detail/423012-lekarna-lemon-praha-vrsovice.html","154"
"20","Bus MHD","Slovinská","","338"
