"","facility_type","facility_name","facility_iri","facility_distance"
"0","Hřiště","Dětské hřiště Jilemnického","https://mapy.cz/zakladni?x=18.4208613317&y=49.7839106468&z=17&source=base&id=1929005","341"
"1","Večerka","PEKAŘI a spol.","https://www.firmy.cz/detail/2608288-pekari-a-spol-havirov-mesto.html","441"
"2","Cukrárna","Cukrárna Lada","https://www.firmy.cz/detail/12908208-cukrarna-lada-havirov.html","542"
"3","Hospoda","Malá Jamajka","https://www.firmy.cz/detail/13121947-mala-jamajka-havirov-mesto.html","505"
"4","Veterinář","Veterinární ordinace Terra Vet","https://www.firmy.cz/detail/13330221-veterinarni-ordinace-terra-vet-havirov-mesto.html","572"
"5","Kino","Letní kino - Městské kulturní středisko Havířov","https://www.firmy.cz/detail/13072791-letni-kino-havirov.html","460"
"6","Bankomat","Bankomat ČSOB","https://www.firmy.cz/detail/636843-bankomat-csob-havirov-mesto.html","413"
"7","Bus MHD","Havířov, Město, u podloubí","https://mapy.cz/zakladni?x=18.42002615667&y=49.7860093724561&z=17&source=pubt&id=15291345","195"
"8","Školka","Základní škola a Mateřská škola Havířov - Město Na Nábřeží, příspěvková organizace","https://www.firmy.cz/detail/1278268-zakladni-skola-a-materska-skola-havirov-mesto-na-nabrezi-prispevkova-organizace-havirov-mesto.html","291"
"9","Obchod","Tesco","https://www.firmy.cz/detail/218205-tesco-havirov-mesto.html","552"
"10","Vlak","Havířov","https://mapy.cz/zakladni?x=18.4125438808&y=49.7917388734&z=17&source=pubt&id=15211361","899"
"11","Restaurace","Pizzerie Boršičanka","https://www.firmy.cz/detail/13335617-pizzerie-borsicanka-havirov-mesto.html","40"
"12","Lékař","Mgr. Zdeňka Obtulovičová","https://www.firmy.cz/detail/368798-mgr-zdenka-obtulovicova-havirov-mesto.html","333"
"13","Škola","Gymnázium, Havířov-Město","https://www.firmy.cz/detail/362587-gymnazium-havirov-mesto-havirov-mesto.html","235"
"14","Sportoviště","Letní koupaliště Jindřich","https://www.firmy.cz/detail/703103-letni-koupaliste-jindrich-havirov-mesto.html","597"
"15","Pošta","Pošta Havířov 11 - Česká pošta, s.p.","https://www.firmy.cz/detail/431631-posta-havirov-11-havirov-mesto.html","284"
"16","Lékárna","BENU Lékárna","https://www.firmy.cz/detail/12875767-benu-lekarna-havirov-mesto.html","963"
