"","facility_type","facility_name","facility_iri","facility_distance"
"0","Přírodní zajímavost","Jindřišské údolí","https://mapy.cz/zakladni?x=15.0752127778&y=49.1429675&z=17&source=base&id=2005256","4020"
"1","Hřiště","Dětské hřiště Sídliště Vajgar","https://mapy.cz/zakladni?x=15.0187886147&y=49.1396700806&z=17&source=base&id=1928825","125"
"2","Večerka","Pekařství a potraviny DéKáčko","https://www.firmy.cz/detail/2642684-pekarstvi-a-potraviny-dekacko-jindrichuv-hradec-iii.html","74"
"3","Hospoda","Hospoda sídliště Vajgar 673","https://www.firmy.cz/detail/13120908-hospoda-sidliste-vajgar-673-jindrichuv-hradec-iii.html","279"
"4","Cukrárna","Pekařství a kavárna DéKáčko","https://www.firmy.cz/detail/1531165-pekarstvi-a-kavarna-dekacko-jindrichuv-hradec-iii.html","1239"
"5","Kino","KD Střelnice","https://www.firmy.cz/detail/2345094-kd-strelnice-jindrichuv-hradec-i.html","1335"
"6","Veterinář","Veterinární klinika Piketa","https://www.firmy.cz/detail/12934653-veterinarni-klinika-piketa-jindrichuv-hradec-otin.html","1102"
"7","Sportoviště","Sportovní klub Sport Gym. Jindřichův Hradec","https://www.firmy.cz/detail/2650476-sportovni-klub-sport-gym-jindrichuv-hradec-jindrichuv-hradec-iii.html","220"
"8","Restaurace","Tankovna Vajgar","https://www.firmy.cz/detail/13148506-tankovna-vajgar-jindrichuv-hradec-iii.html","207"
"9","Lékař","MUDr. Hana Vlnasová","https://www.firmy.cz/detail/389538-mudr-hana-vlnasova-jindrichuv-hradec-iii.html","161"
"10","Bus MHD","Jindřichův Hradec, sídl. Vajgar-trojstředisko","https://mapy.cz/zakladni?x=15.0201128467635&y=49.1392146902111&z=17&source=pubt&id=15318130","132"
"11","Vlak","Jindřichův Hradec","https://mapy.cz/zakladni?x=15.0040705206&y=49.1551858976&z=17&source=pubt&id=15211666","2015"
"12","Bankomat","Bankomat České spořitelny","https://www.firmy.cz/detail/592947-bankomat-ceske-sporitelny-jindrichuv-hradec-iii.html","250"
"13","Školka","3. MŠ Jindřichův Hradec III, Vajgar","https://www.firmy.cz/detail/1995327-3-ms-jindrichuv-hradec-iii-vajgar-jindrichuv-hradec-iii.html","140"
"14","Škola","Základní škola Jindřichův Hradec III, Vajgar 692","https://www.firmy.cz/detail/357553-zakladni-skola-jindrichuv-hradec-iii-vajgar-692-jindrichuv-hradec-iii.html","291"
"15","Lékárna","Diana","https://www.firmy.cz/detail/420924-diana-jindrichuv-hradec-iii.html","161"
"16","Pošta","Pošta Jindřichův Hradec 4 - Česká pošta, s.p.","https://www.firmy.cz/detail/217114-posta-jindrichuv-hradec-4-jindrichuv-hradec-iii.html","280"
"17","Obchod","Kaufland","https://www.firmy.cz/detail/1448707-kaufland-jindrichuv-hradec-iii.html","362"
