"","facility_type","facility_name","facility_iri","facility_distance"
"0","Hřiště","Dětské hřiště Nedašovská","https://mapy.cz/zakladni?x=14.2906158313&y=50.0597749646&z=17&source=base&id=1927434","89"
"1","Hospoda","Klub u Sklíčka","https://www.firmy.cz/detail/2220080-klub-u-sklicka-praha-repy.html","1205"
"2","Večerka","DHA FOOD","https://www.firmy.cz/detail/13303009-dha-food-praha-zlicin.html","64"
"3","Divadlo","Divadelní studio Bubec","https://www.firmy.cz/detail/13047862-divadelni-studio-bubec-praha-reporyje.html","2810"
"4","Cukrárna","Café Globus","https://www.firmy.cz/detail/12919098-cafe-globus-praha-trebonice.html","767"
"5","Veterinář","Veterinární klinika Delta MVDr.Michael Růžička, s.r.o.","https://www.firmy.cz/detail/12957413-veterinarni-klinika-delta-mvdr-michael-ruzicka-praha-repy.html","1190"
"6","Kino","Cinema City Zličín","https://www.firmy.cz/detail/436222-cinema-city-zlicin-praha-trebonice.html","561"
"7","Škola","ZŠ a MŠ Praha 5, Nedašovská","https://www.firmy.cz/detail/1969024-zs-a-ms-praha-5-nedasovska-praha-zlicin.html","192"
"8","Obchod","METROPOLE ZLIČÍN centrum módy a zábavy","https://www.firmy.cz/detail/448136-metropole-zlicin-centrum-mody-a-zabavy-praha-trebonice.html","548"
"9","Sportoviště","Pitland","https://www.firmy.cz/detail/13251063-pitland-praha-trebonice.html","372"
"10","Bankomat","Bankomat České spořitelny","https://www.firmy.cz/detail/594869-bankomat-ceske-sporitelny-praha-trebonice.html","579"
"11","Vlak","Praha-Zličín","https://mapy.cz/zakladni?x=14.2977438277&y=50.0641750381&z=17&source=pubt&id=15212589","750"
"12","Lékárna","Dr. Max","https://www.firmy.cz/detail/2007135-dr-max-praha-trebonice.html","633"
"13","Restaurace","U sousedů na Zličíně","https://www.firmy.cz/detail/13159501-u-sousedu-na-zlicine-praha-zlicin.html","260"
"14","Bus MHD","Sídliště Zličín","https://mapy.cz/zakladni?x=14.2930875984&y=50.0603955706&z=17&source=pubt&id=15693519","215"
"15","Pošta","Pošta Praha 517 - Česká pošta, s.p.","https://www.firmy.cz/detail/431312-posta-praha-517-praha-zlicin.html","563"
"16","Metro","Zličín","https://mapy.cz/zakladni?x=14.2906764069&y=50.0537241139&z=17&source=pubt&id=15200255","588"
"17","Tram","Sídliště Řepy","https://mapy.cz/zakladni?x=14.2980560731&y=50.0654219309&z=17&source=pubt&id=15302307","874"
"18","Lékař","MUDr. Marta Mikulejská","https://www.firmy.cz/detail/381863-mudr-marta-mikulejska-praha-zlicin.html","67"
"19","Školka","Sbor Bratrské jednoty baptistů v Praze - Církev XXI. století","https://www.firmy.cz/detail/12997493-sbor-bratrske-jednoty-baptistu-v-praze-cirkev-xxi-stoleti-praha-zlicin.html","68"
