"","facility_type","facility_name","facility_iri","facility_distance"
"0","Cukrárna","Sladký časy Buchtárna","https://www.firmy.cz/detail/723940-sladky-casy-buchtarna-ostrava-moravska-ostrava.html","178"
"1","Přírodní zajímavost","Uhelná sloj v Landeku","","3843"
"2","Kino","Kino vesmír","https://www.firmy.cz/detail/12980428-kino-vesmir-ostrava-moravska-ostrava.html","226"
"3","Hřiště","Dětské hřiště Husův sad","","467"
"4","Večerka","Bez Obalu Ostrava","https://www.firmy.cz/detail/2656374-bez-obalu-ostrava-ostrava-moravska-ostrava.html","110"
"5","Hospoda","U Zrzavé Mary","https://www.firmy.cz/detail/574097-u-zrzave-mary-ostrava-moravska-ostrava.html","28"
"6","Divadlo","Divadlo Jiřího Myrona","https://www.firmy.cz/detail/401503-divadlo-jiriho-myrona-ostrava-moravska-ostrava.html","195"
"7","Veterinář","Veterinární ordinace - MVDr. Richard Saviola","https://www.firmy.cz/detail/477150-veterinarni-ordinace-mvdr-richard-saviola-ostrava-moravska-ostrava.html","980"
"8","Sportoviště","Sdružení taoistického tai chi v České republice, z.s.","https://www.firmy.cz/detail/13101681-sdruzeni-taoistickeho-tai-chi-v-ceske-republice-z-s-ostrava-moravska-ostrava.html","141"
"9","Bankomat","Bankomat ČSOB","https://www.firmy.cz/detail/599413-bankomat-csob-ostrava-moravska-ostrava.html","62"
"10","Lékárna","Lékárna Apavar","https://www.firmy.cz/detail/13074258-lekarna-apavar-ostrava-moravska-ostrava.html","26"
"11","Škola","NEWPORT INTERNATIONAL UNIVERSITY, s.r.o.","https://www.firmy.cz/detail/586886-newport-international-university-ostrava-moravska-ostrava.html","248"
"12","Bus MHD","Hotel Palace","","390"
"13","Pošta","Pošta Ostrava 39 - Česká pošta, s.p.","https://www.firmy.cz/detail/433389-posta-ostrava-39-ostrava-moravska-ostrava.html","63"
"14","Vlak","Ostrava-Stodolní","","449"
"15","Školka","MŠ Ostrava, Poděbradova","https://www.firmy.cz/detail/2322511-ms-ostrava-podebradova-ostrava-moravska-ostrava.html","211"
"16","Obchod","Forum Nová Karolina","https://www.firmy.cz/detail/13040093-forum-nova-karolina-ostrava-moravska-ostrava.html","411"
"17","Tram","Elektra","","46"
"18","Restaurace","Restaurace Spolek","https://www.firmy.cz/detail/1954850-restaurace-spolek-ostrava-moravska-ostrava.html","57"
"19","Lékař","MUDr. Jarmila Fialová","https://www.firmy.cz/detail/370609-mudr-jarmila-fialova-ostrava-moravska-ostrava.html","127"
