"","facility_type","facility_name","facility_iri","facility_distance"
"0","Cukrárna","JEDNO KAFE s.r.o., s.r.o.","https://www.firmy.cz/detail/13144478-jedno-kafe-s-r-o-praha-hloubetin.html","1282"
"1","Kino","CineStar Černý Most","https://www.firmy.cz/detail/2537569-cinestar-cerny-most-praha-cerny-most.html","4136"
"2","Hřiště","Dětské hřiště Čelákovická","","503"
"3","Přírodní zajímavost","Meandry Rokytky","","874"
"4","Večerka","Penny Market","https://www.firmy.cz/detail/207736-penny-market-praha-hloubetin.html","790"
"5","Hospoda","Hospoda Šuplík","https://www.firmy.cz/detail/13121991-hospoda-suplik-praha-kyje.html","1500"
"6","Divadlo","Divadlo Gong","https://www.firmy.cz/detail/230751-divadlo-gong-praha-liben.html","2940"
"7","Veterinář","Veterinární klinika Poděbradská","https://www.firmy.cz/detail/166978-veterinarni-klinika-podebradska-praha-hloubetin.html","391"
"8","Bankomat","Bankomat České spořitelny","https://www.firmy.cz/detail/12837487-bankomat-ceske-sporitelny-praha-hloubetin.html","810"
"9","Školka","For Junior","https://www.firmy.cz/detail/2461739-for-junior-praha-hloubetin.html","111"
"10","Lékař","MUDr. Miroslava Záhorová","https://www.firmy.cz/detail/387333-mudr-miroslava-zahorova-praha-hloubetin.html","684"
"11","Vlak","Praha-Kyje","","1107"
"12","Bus MHD","Starý Hloubětín","","398"
"13","Restaurace","U dvou smrků","https://www.firmy.cz/detail/12752647-u-dvou-smrku-praha-hloubetin.html","146"
"14","Škola","Střední zahradnická škola a Střední odborné učiliště, s.r.o.","https://www.firmy.cz/detail/13059699-stredni-zahradnicka-skola-a-stredni-odborne-uciliste-praha-hloubetin.html","515"
"15","Metro","Hloubětín","","863"
"16","Pošta","Pošta Praha 94 - Česká pošta, s.p.","https://www.firmy.cz/detail/431410-posta-praha-94-praha-hloubetin.html","848"
"17","Tram","Starý Hloubětín","","359"
"18","Obchod","Kaufland","https://www.firmy.cz/detail/13180341-kaufland-praha-hloubetin.html","1482"
"19","Lékárna","Ekolékárna Hloubětín","https://www.firmy.cz/detail/12928164-ekolekarna-hloubetin-praha-hloubetin.html","810"
"20","Sportoviště","Jiří Janoušek","https://www.firmy.cz/detail/464301-jiri-janousek-praha-hloubetin.html","624"
