"","facility_type","facility_name","facility_iri","facility_distance"
"0","Cukrárna","Cukrárna Avanti","https://www.firmy.cz/detail/2332636-cukrarna-avanti-praha-kbely.html","2930"
"1","Kino","CineStar Černý Most","https://www.firmy.cz/detail/2537569-cinestar-cerny-most-praha-cerny-most.html","4400"
"2","Hřiště","Dětské hřiště Opočínská","","309"
"3","Večerka","NORMA","https://www.firmy.cz/detail/2182197-norma-praha-vinor.html","366"
"4","Hospoda","Hospoda U Kačera","https://www.firmy.cz/detail/13115532-hospoda-u-kacera-praha-vinor.html","628"
"5","Divadlo","Divadlo Horní Počernice","https://www.firmy.cz/detail/397153-divadlo-horni-pocernice-praha-horni-pocernice.html","4535"
"6","Veterinář","MVDr. Zuzana Žežulková","https://www.firmy.cz/detail/12919416-mvdr-zuzana-zezulkova-podolanka.html","1218"
"7","Školka","ZŠ a MŠ Praha-Vinoř, Prachovická","https://www.firmy.cz/detail/626490-zs-a-ms-praha-vinor-prachovicka-praha-vinor.html","249"
"8","Obchod","Retail Park Vinoř","https://www.firmy.cz/detail/13091300-retail-park-vinor-praha.html","682"
"9","Pošta","Pošta Praha 917 - Česká pošta, s.p.","https://www.firmy.cz/detail/216690-posta-praha-917-praha-vinor.html","642"
"10","Lékárna","Lékárna Vinoř","https://www.firmy.cz/detail/375325-lekarna-vinor-praha-vinor.html","443"
"11","Bankomat","Bankomat České spořitelny","https://www.firmy.cz/detail/595011-bankomat-ceske-sporitelny-praha-kbely.html","2592"
"12","Lékař","MUDr. Tomáš Krause","https://www.firmy.cz/detail/13281626-mudr-tomas-krause-praha-vinor.html","468"
"13","Restaurace","ZŠ SPORTOVNÍ s.r.o., s.r.o.","https://www.firmy.cz/detail/13149041-zs-sportovni-s-r-o-praha-vinor.html","443"
"14","Vlak","Praha-Kbely","","2457"
"15","Škola","ZŠ a MŠ Praha-Vinoř, Prachovická","https://www.firmy.cz/detail/356120-zs-a-ms-praha-vinor-prachovicka-praha-vinor.html","249"
"16","Bus MHD","Lohenická","","222"
"17","Sportoviště","ZŠ SPORTOVNÍ s.r.o., s.r.o.","https://www.firmy.cz/detail/13000953-zs-sportovni-s-r-o-praha-vinor.html","544"
"18","Metro","Černý Most","","4399"
"19","Tram","Nový Hloubětín","","5804"
