"","facility_type","facility_name","facility_iri","facility_distance"
"0","Cukrárna","Výroba cukroví a studená kuchyně Kuncovi","https://www.firmy.cz/detail/680011-vyroba-cukrovi-a-studena-kuchyne-kuncovi-brno-malomerice.html","391"
"1","Kino","Kino Art","https://www.firmy.cz/detail/451540-kino-art-brno-veveri.html","3480"
"2","Přírodní zajímavost","Cesta rákosím","","2416"
"3","Hřiště","Dětské hřiště Cacovický mlýn","","167"
"4","Večerka","BILLA","https://www.firmy.cz/detail/13183975-billa-brno.html","201"
"5","Hospoda","Hospůdka U Koudelků","https://www.firmy.cz/detail/13112301-hospudka-u-koudelku-brno-lesna.html","1023"
"6","Divadlo","Kuk & Cuk","https://www.firmy.cz/detail/2569671-kuk-cuk-brno-lesna.html","949"
"7","Veterinář","Veterinární klinika SamVet, s.r.o.","https://www.firmy.cz/detail/13075167-veterinarni-klinika-samvet-brno-lesna.html","646"
"8","Tram","Obřanská - u školy","","258"
"9","Lékař","MUDr. Marcela Suchá","https://www.firmy.cz/detail/388741-mudr-marcela-sucha-brno-malomerice.html","698"
"10","Restaurace","Pohádková Pizzerie","https://www.firmy.cz/detail/12774584-pohadkova-pizzerie-brno-malomerice.html","498"
"11","Škola","ZŠ Brno, Hamry","https://www.firmy.cz/detail/356489-zs-brno-hamry-brno-malomerice.html","215"
"12","Školka","MŠ Brno, Marie Majerové","https://www.firmy.cz/detail/1447215-ms-brno-marie-majerove-brno-lesna.html","726"
"13","Vlak","Brno-Lesná","","1131"
"14","Pošta","Pošta Brno 22 - Česká pošta, s.p.","https://www.firmy.cz/detail/431924-posta-brno-22-brno-obrany.html","932"
"15","Lékárna","Lékárna Selská","https://www.firmy.cz/detail/13210345-lekarna-selska-brno-malomerice.html","329"
"16","Obchod","Kaufland","https://www.firmy.cz/detail/1352864-kaufland-brno-zidenice.html","2304"
"17","Sportoviště","Tělocvičná jednota Sokol Brno - Obřany - Maloměřice","https://www.firmy.cz/detail/2139108-telocvicna-jednota-sokol-brno-obrany-malomerice-brno-malomerice.html","211"
"18","Bus MHD","Obřanský most","","730"
"19","Bankomat","Bankomat Komerční banky","https://www.firmy.cz/detail/13285273-bankomat-komercni-banky-brno-lesna.html","1146"
