"","facility_type","facility_name","facility_iri","facility_distance"
"0","Cukrárna","Cukrárna - kavárna Cappuccino cafe","https://www.firmy.cz/detail/665805-cukrarna-kavarna-cappuccino-cafe-praha-zabehlice.html","1349"
"1","Kino","Multikino - Premiere Cinemas Praha Hostivař","https://www.firmy.cz/detail/12745547-multikino-premiere-cinemas-praha-hostivar-praha-hostivar.html","2311"
"2","Přírodní zajímavost","Mokřad Triangl","","2414"
"3","Hřiště","Dětské hřiště Hamr","","483"
"4","Večerka","Penny Market","https://www.firmy.cz/detail/2413001-penny-market-praha-zabehlice.html","519"
"5","Hospoda","Hospůdka U Kladiva","https://www.firmy.cz/detail/625166-hospudka-u-kladiva-praha-strasnice.html","2618"
"6","Divadlo","Divadelní studio Neklid, o.p.s. - Divadlo Neklid","https://www.firmy.cz/detail/12794645-divadelni-studio-neklid-o-p-s-divadlo-neklid-praha-vrsovice.html","2481"
"7","Veterinář","Veterinární nemocnice AA-Vet","https://www.firmy.cz/detail/173794-veterinarni-nemocnice-aa-vet-praha-zabehlice.html","842"
"8","Tram","Spořilov","","759"
"9","Bus MHD","Pod Vinicí","","229"
"10","Školka","MŠ Praha 4, Na Chodovci","https://www.firmy.cz/detail/2267125-ms-praha-4-na-chodovci-praha-zabehlice.html","868"
"11","Obchod","Kaufland","https://www.firmy.cz/detail/221320-kaufland-praha-michle.html","1100"
"12","Restaurace","Pizza Fresh","https://www.firmy.cz/detail/13342838-pizza-fresh-praha-zabehlice.html","335"
"13","Lékař","Poliklinika Zahradní Město, spol. s r.o.","https://www.firmy.cz/detail/160020-poliklinika-zahradni-mesto-praha-zabehlice.html","808"
"14","Bankomat","Bankomat Fio banky","https://www.firmy.cz/detail/2678027-bankomat-fio-banky-praha-zabehlice.html","483"
"15","Lékárna","Dr. Max","https://www.firmy.cz/detail/12804586-dr-max-praha-zabehlice.html","758"
"16","Škola","SŠES - Střední škola elektrotechniky a strojírenství","https://www.firmy.cz/detail/360999-sses-stredni-skola-elektrotechniky-a-strojirenstvi-praha-zabehlice.html","101"
"17","Vlak","Praha-Eden","","1353"
"18","Metro","Strašnická","","1745"
"19","Pošta","Pošta Praha 106 - Česká pošta, s.p.","https://www.firmy.cz/detail/431448-posta-praha-106-praha-zabehlice.html","1163"
"20","Sportoviště","Bowling Na Ovčíně","https://www.firmy.cz/detail/312273-bowling-na-ovcine-praha-zabehlice.html","403"
