"","facility_type","facility_name","facility_iri","facility_distance"
"0","Cukrárna","Coffee City s.r.o.","https://www.firmy.cz/detail/13213158-coffee-city-s-r-o-plzen-severni-predmesti.html","387"
"1","Kino","Cinema City Plzeň","https://www.firmy.cz/detail/2246853-cinema-city-plzen-plzen-jizni-predmesti.html","1755"
"2","Hřiště","Dětské hřiště Vinice","","168"
"3","Večerka","Večerka Hodonínská","https://www.firmy.cz/detail/13269512-vecerka-hodoninska-plzen-severni-predmesti.html","276"
"4","Hospoda","Mokrý Loket","https://www.firmy.cz/detail/13140225-mokry-loket-plzen-severni-predmesti.html","1193"
"5","Divadlo","Nové divadlo Plzeň","https://www.firmy.cz/detail/12956345-nove-divadlo-plzen-plzen-jizni-predmesti.html","1940"
"6","Veterinář","MUDr. Štefan Bányay","https://www.firmy.cz/detail/1962551-mudr-stefan-banyay-plzen-severni-predmesti.html","287"
"7","Restaurace","Starobrněnská pivnice","https://www.firmy.cz/detail/13117798-starobrnenska-pivnice-plzen-severni-predmesti.html","289"
"8","Bankomat","Bankomat České spořitelny","https://www.firmy.cz/detail/594003-bankomat-ceske-sporitelny-plzen-severni-predmesti.html","238"
"9","Lékař","MUDr. Jitka Štěpánková","https://www.firmy.cz/detail/13189335-mudr-jitka-stepankova-plzen-severni-predmesti.html","287"
"10","Školka","7. ZŠ a MŠ Plzeň","https://www.firmy.cz/detail/1892429-7-zs-a-ms-plzen-plzen-severni-predmesti.html","179"
"11","Pošta","Pošta Plzeň 10 - Česká pošta, s.p.","https://www.firmy.cz/detail/216652-posta-plzen-10-plzen-severni-predmesti.html","398"
"12","Obchod","Obchodní centrum Plzeň Plaza","https://www.firmy.cz/detail/13089722-obchodni-centrum-plzen-plaza-plzen-jizni-predmesti.html","1768"
"13","Bus MHD","Vinice","","218"
"14","Škola","7. ZŠ a MŠ Plzeň","https://www.firmy.cz/detail/399048-7-zs-a-ms-plzen-plzen-severni-predmesti.html","179"
"15","Lékárna","Lékárna Médeia","https://www.firmy.cz/detail/374686-lekarna-medeia-plzen-severni-predmesti.html","270"
"16","Tram","Boženy Němcové","","988"
"17","Sportoviště","Squash U Rytíře Lochoty","https://www.firmy.cz/detail/13100242-squash-u-rytire-lochoty-plzen-bolevec.html","1348"
"18","Vlak","Plzeň-Skvrňany","","2162"
