"","facility_type","facility_name","facility_iri","facility_distance"
"0","Cukrárna","Café Alegre","https://www.firmy.cz/detail/2384627-cafe-alegre-praha-smichov.html","1075"
"1","Kino","CineStar Anděl","https://www.firmy.cz/detail/2537565-cinestar-andel-praha-smichov.html","1133"
"2","Přírodní zajímavost","Kovářovic mez","","3091"
"3","Hřiště","Dětské hřiště Pechlátova","","405"
"4","Večerka","Albert Supermarket","https://www.firmy.cz/detail/209468-albert-supermarket-praha-smichov.html","529"
"5","Hospoda","Hospůdka Knoflík","https://www.firmy.cz/detail/2253647-hospudka-knoflik-praha-smichov.html","1187"
"6","Divadlo","Divadlo Orfeus","https://www.firmy.cz/detail/413053-divadlo-orfeus-praha-kosire.html","1153"
"7","Veterinář","MVDr. Jana Lukešová","https://www.firmy.cz/detail/473617-mvdr-jana-lukesova-praha-smichov.html","812"
"8","Sportoviště","Dělnická tělovýchovná jednota Santoška, z. s.","https://www.firmy.cz/detail/2177192-delnicka-telovychovna-jednota-santoska-z-s-praha-smichov.html","303"
"9","Tram","Laurová","","279"
"10","Školka","MŠ Praha, Nad Laurovou","https://www.firmy.cz/detail/2419268-ms-praha-nad-laurovou-praha-smichov.html","194"
"11","Restaurace","Restaurace U Krbu","https://www.firmy.cz/detail/2568577-restaurace-u-krbu-praha-smichov.html","278"
"12","Lékař","MEDITERRA - Rehabilitační klinika Malvazinky","https://www.firmy.cz/detail/430051-mediterra-rehabilitacni-klinika-malvazinky-praha-smichov.html","294"
"13","Metro","Radlická","","575"
"14","Pošta","Pošta Praha 518 - Česká pošta, s.p.","https://www.firmy.cz/detail/2378838-posta-praha-518-praha-radlice.html","570"
"15","Bankomat","Bankomat České spořitelny","https://www.firmy.cz/detail/594871-bankomat-ceske-sporitelny-praha-radlice.html","588"
"16","Lékárna","Na Cihlářce","https://www.firmy.cz/detail/375354-na-cihlarce-praha-smichov.html","663"
"17","Škola","ZŠ a MŠ Praha 5, Radlická","https://www.firmy.cz/detail/358995-zs-a-ms-praha-5-radlicka-praha-radlice.html","271"
"18","Vlak","Praha-Smíchov severní nást.","","920"
"19","Bus MHD","Štorkánova","","59"
"20","Obchod","Tesco","https://www.firmy.cz/detail/733908-tesco-praha-smichov.html","1285"
