"","facility_type","facility_name","facility_iri","facility_distance"
"0","Cukrárna","Cukrárna Větrník","https://www.firmy.cz/detail/13243916-cukrarna-vetrnik-uherske-hradiste-maratice.html","3834"
"1","Kino","Kino Hvězda Uherské Hradiště","https://www.firmy.cz/detail/457216-kino-hvezda-uherske-hradiste-uherske-hradiste.html","3796"
"2","Hřiště","Dětské hřiště Jarošov","","520"
"3","Večerka","HRUŠKA","https://www.firmy.cz/detail/12819351-hruska-uherske-hradiste-jarosov.html","1149"
"4","Hospoda","Stará Kotelna","https://www.firmy.cz/detail/13011148-stara-kotelna-uherske-hradiste-jarosov.html","557"
"5","Divadlo","Hoffmannovo divadlo","https://www.firmy.cz/detail/608263-hoffmannovo-divadlo-uherske-hradiste-maratice.html","3809"
"6","Veterinář","MVDr. Lubomír Hájek","https://www.firmy.cz/detail/2027898-mvdr-lubomir-hajek-uherske-hradiste-maratice.html","3467"
"7","Lékař","Ordinace praktického lékaře - MUDr.František Pospíšil","https://www.firmy.cz/detail/12862279-ordinace-praktickeho-lekare-mudr-frantisek-pospisil-uherske-hradiste-jarosov.html","975"
"8","Restaurace","Hospůdka Na Drahách","https://www.firmy.cz/detail/13113068-hospudka-na-drahach-uherske-hradiste-jarosov.html","787"
"9","Školka","ZŠ a MŠ Uherské Hradiště, Pivovarská","https://www.firmy.cz/detail/727879-zs-a-ms-uherske-hradiste-pivovarska-uherske-hradiste-jarosov.html","497"
"10","Sportoviště","Sportoviště města Uherské Hradiště","https://www.firmy.cz/detail/2596824-sportoviste-mesta-uherske-hradiste-uherske-hradiste-jarosov.html","634"
"11","Pošta","Pošta Bílovice u Uherského Hradiště - Česká pošta, s.p.","https://www.firmy.cz/detail/433439-posta-bilovice-u-uherskeho-hradiste-bilovice.html","3191"
"12","Bankomat","Bankomat MONETA Money Bank","https://www.firmy.cz/detail/659747-bankomat-moneta-money-bank-uherske-hradiste-maratice.html","3284"
"13","Vlak","Huštěnovice","","4394"
"14","Obchod","Kaufland","https://www.firmy.cz/detail/2200788-kaufland-uherske-hradiste-maratice.html","3250"
"15","Lékárna","Lékárna U Zámku","https://www.firmy.cz/detail/658683-lekarna-u-zamku-bilovice.html","2985"
"16","Škola","ZŠ a MŠ Uherské Hradiště, Pivovarská","https://www.firmy.cz/detail/359819-zs-a-ms-uherske-hradiste-pivovarska-uherske-hradiste-jarosov.html","1217"
"17","Bus MHD","Uherské Hradiště, Jarošov, Blaně","","327"
