"","facility_type","facility_name","facility_iri","facility_distance"
"0","Cukrárna","Cacao Prague","https://www.firmy.cz/detail/13233339-cacao-prague-praha-nove-mesto.html","120"
"1","Kino","Cinema City Slovanský dům","https://www.firmy.cz/detail/2679893-cinema-city-slovansky-dum-praha-nove-mesto.html","298"
"2","Hřiště","Dětské hřiště Vrchlického sady","","296"
"3","Večerka","BILLA","https://www.firmy.cz/detail/722946-billa-praha-nove-mesto.html","122"
"4","Hospoda","Batalion Café & Music Bar","https://www.firmy.cz/detail/457689-batalion-cafe-music-bar-praha-stare-mesto.html","777"
"5","Divadlo","Divadlo Hybernia","https://www.firmy.cz/detail/1355688-divadlo-hybernia-praha-nove-mesto.html","186"
"6","Veterinář","Veterinární ambulance Help","https://www.firmy.cz/detail/178079-veterinarni-ambulance-help-praha-vinohrady.html","1014"
"7","Restaurace","Le Grill Restaurant","https://www.firmy.cz/detail/2325971-le-grill-restaurant-praha-nove-mesto.html","0"
"8","Bankomat","Bankomat Pharro","https://www.firmy.cz/detail/1552702-bankomat-pharro-praha.html","122"
"9","Sportoviště","Bowling Celnice","https://www.firmy.cz/detail/12726378-bowling-celnice-praha-nove-mesto.html","123"
"10","Bus MHD","Masarykovo nádraží","","216"
"11","Lékárna","LÉKÁRNA ipc Palladium","https://www.firmy.cz/detail/2345303-lekarna-ipc-palladium-praha-nove-mesto.html","309"
"12","Škola","K-TV - středisko praktického vyučování, s.r.o.","https://www.firmy.cz/detail/424947-k-tv-stredisko-praktickeho-vyucovani-praha-nove-mesto.html","206"
"13","Školka","MŠ STARS, Praha","https://www.firmy.cz/detail/2348796-ms-stars-praha-praha-nove-mesto.html","408"
"14","Metro","Náměstí Republiky","","131"
"15","Lékař","MUDr. Iva Lánská","https://www.firmy.cz/detail/386577-mudr-iva-lanska-praha-nove-mesto.html","104"
"16","Tram","Masarykovo nádraží","","104"
"17","Vlak","Praha Masarykovo nádraží","","219"
"18","Obchod","PALLADIUM Praha","https://www.firmy.cz/detail/2238095-palladium-praha-praha-nove-mesto.html","259"
"19","Pošta","Pošta Praha 05 - Česká pošta, s.p.","https://www.firmy.cz/detail/431198-posta-praha-05-praha-stare-mesto.html","444"
