"","facility_type","facility_name","facility_iri","facility_distance"
"0","Cukrárna","Cukrárna Bártova 78/2","https://www.firmy.cz/detail/12897976-cukrarna-bartova-78-2-letovice.html","458"
"1","Hřiště","Dětské hřiště zámecký park","","150"
"2","Večerka","COOP JEDNOTA","https://www.firmy.cz/detail/12740903-coop-jednota-letovice.html","341"
"3","Hospoda","Pohostinství U Hellerů","https://www.firmy.cz/detail/13111566-pohostinstvi-u-helleru-letovice.html","298"
"4","Veterinář","Veterinární klinika Letovice, s.r.o.","https://www.firmy.cz/detail/12976808-veterinarni-klinika-letovice-letovice.html","425"
"5","Restaurace","ZÁMECKÁ PIVNICE","https://www.firmy.cz/detail/13113572-zamecka-pivnice-letovice.html","43"
"6","Lékárna","Lékárna","https://www.firmy.cz/detail/13008531-lekarna-letovice.html","491"
"7","Školka","MŠ Letovice, Čapkova","https://www.firmy.cz/detail/2177279-ms-letovice-capkova-letovice.html","362"
"8","Bus MHD","Letovice, Tyršova parkoviště","","356"
"9","Bankomat","Bankomat Komerční banky","https://www.firmy.cz/detail/591983-bankomat-komercni-banky-letovice.html","391"
"10","Pošta","Pošta Letovice - Česká pošta, s.p.","https://www.firmy.cz/detail/216107-posta-letovice-letovice.html","491"
"11","Sportoviště","Sportovní klub Masarykovy školy práce Letovice","https://www.firmy.cz/detail/2651495-sportovni-klub-masarykovy-skoly-prace-letovice-letovice.html","468"
"12","Vlak","Letovice zastávka","","797"
"13","Škola","ZŠ Letovice","https://www.firmy.cz/detail/173286-zs-letovice-letovice.html","338"
"14","Lékař","MUDr. Hana Kratochvílová","https://www.firmy.cz/detail/388304-mudr-hana-kratochvilova-letovice.html","183"
