"","facility_type","facility_name","facility_iri","facility_distance"
"0","Hřiště","Dětské hřiště Prokopova","https://mapy.cz/zakladni?x=14.4566322035&y=50.0839833132&z=17&source=base&id=1927057","371"
"1","Cukrárna","Cukrárna Lucie","https://www.firmy.cz/detail/418367-cukrarna-lucie-praha-zizkov.html","292"
"2","Hospoda","U Pižďucha","https://www.firmy.cz/detail/337127-u-pizducha-praha-zizkov.html","285"
"3","Divadlo","Žižkovské divadlo Járy Cimrmana","https://www.firmy.cz/detail/232453-zizkovske-divadlo-jary-cimrmana-praha-zizkov.html","181"
"4","Veterinář","MVDr. Jan Dubský","https://www.firmy.cz/detail/674033-mvdr-jan-dubsky-praha-zizkov.html","215"
"5","Večerka","Shalamar Foods","https://www.firmy.cz/detail/2431840-shalamar-foods-praha-zizkov.html","185"
"6","Kino","Spoiler - Filmový klub, z.s.","https://www.firmy.cz/detail/396379-spoiler-filmovy-klub-z-s-praha-zizkov.html","765"
"7","Sportoviště","Tělocvičná jednota Sokol Žižkov I","https://www.firmy.cz/detail/1947839-telocvicna-jednota-sokol-zizkov-i-praha-zizkov.html","398"
"8","Bus MHD","Tachovské náměstí","https://mapy.cz/zakladni?x=14.4522456977&y=50.0872551753&z=17&source=pubt&id=15301985","231"
"9","Lékárna","Lékárna U Matky Boží","https://www.firmy.cz/detail/658541-lekarna-u-matky-bozi-praha-zizkov.html","157"
"10","Metro","Jiřího z Poděbrad","https://mapy.cz/zakladni?x=14.4489818169&y=50.0776375129&z=17&source=pubt&id=15200275","864"
"11","Bankomat","Bankomat České spořitelny","https://www.firmy.cz/detail/594753-bankomat-ceske-sporitelny-praha-zizkov.html","120"
"12","Restaurace","Restaurace Lavička","https://www.firmy.cz/detail/1897669-restaurace-lavicka-praha-zizkov.html","96"
"13","Tram","Lipanská","https://mapy.cz/zakladni?x=14.4531737021&y=50.0840160916&z=17&source=pubt&id=15303414","165"
"14","Obchod","PAVILON, a.s.","https://www.firmy.cz/detail/451685-pavilon-praha-vinohrady.html","1154"
"15","Lékař","MUDr. Karel Semerád","https://www.firmy.cz/detail/2008223-mudr-karel-semerad-praha-zizkov.html","334"
"16","Pošta","Pošta Praha 35 - Česká pošta, s.p.","https://www.firmy.cz/detail/217488-posta-praha-35-praha-zizkov.html","325"
"17","Vlak","Praha hlavní nádraží","https://mapy.cz/zakladni?x=14.4369820737851&y=50.082990005918&z=17&source=pubt&id=15212548","1085"
"18","Školka","MŠ Praha 3, Jeseniova 4,6","https://www.firmy.cz/detail/646826-ms-praha-3-jeseniova-4-6-praha-zizkov.html","299"
"19","Škola","Základní škola, Praha 3, Cimburkova 18/600","https://www.firmy.cz/detail/358966-zakladni-skola-praha-3-cimburkova-18-600-praha-zizkov.html","110"
