"","facility_type","facility_name","facility_iri","facility_distance"
"0","Cukrárna","Anniny dorty","https://www.firmy.cz/detail/13307017-anniny-dorty-plzen-jizni-predmesti.html","490"
"1","Kino","Kino Beseda","https://www.firmy.cz/detail/12773769-kino-beseda-plzen-jizni-predmesti.html","2188"
"2","Hřiště","Dětské hřiště U Borských kasáren","","42"
"3","Večerka","Žabka","https://www.firmy.cz/detail/12976651-zabka-plzen-jizni-predmesti.html","347"
"4","Hospoda","Pivnice Slavia","https://www.firmy.cz/detail/12766272-pivnice-slavia-plzen-jizni-predmesti.html","697"
"5","Divadlo","Divadlo pod lampou, o.p.s.","https://www.firmy.cz/detail/2418226-divadlo-pod-lampou-plzen-jizni-predmesti.html","1386"
"6","Veterinář","RPVET - VETERINÁRNÍ KLINIKA A POHOTOVOST MVDr. RADEK PROTIVA a kol.","https://www.firmy.cz/detail/13318056-rpvet-veterinarni-klinika-a-pohotovost-mvdr-radek-protiva-a-kol-plzen-jizni-predmesti.html","497"
"7","Sportoviště","Tělovýchovná jednota Slavia VŠ Plzeň","https://www.firmy.cz/detail/13080612-telovychovna-jednota-slavia-vs-plzen-plzen-jizni-predmesti.html","619"
"8","Škola","Střední škola informatiky a finančních služeb Plzeň","https://www.firmy.cz/detail/360887-stredni-skola-informatiky-a-financnich-sluzeb-plzen-plzen-jizni-predmesti.html","203"
"9","Lékárna","Dr. Max LÉKÁRNA","https://www.firmy.cz/detail/2570158-dr-max-lekarna-plzen-jizni-predmesti.html","105"
"10","Bus MHD","Bory","","152"
"11","Obchod","Kaufland","https://www.firmy.cz/detail/2616232-kaufland-plzen-jizni-predmesti.html","105"
"12","Pošta","Pošta Plzeň 20 - Česká pošta, s.p.","https://www.firmy.cz/detail/216643-posta-plzen-20-plzen-jizni-predmesti.html","397"
"13","Restaurace","WOK & SUSHI","https://www.firmy.cz/detail/749212-wok-sushi-plzen-jizni-predmesti.html","112"
"14","Školka","Školka Dráčkova Sluj","https://www.firmy.cz/detail/13321700-skolka-drackova-sluj-plzen-jizni-predmesti.html","211"
"15","Tram","Bory","","148"
"16","Lékař","MUDr. Danuše Vovsíková","https://www.firmy.cz/detail/390304-mudr-danuse-vovsikova-plzen-jizni-predmesti.html","364"
"17","Vlak","Plzeň zastávka","","1402"
"18","Bankomat","Bankomat České spořitelny","https://www.firmy.cz/detail/2609929-bankomat-ceske-sporitelny-plzen-jizni-predmesti.html","105"
