"","facility_type","facility_name","facility_iri","facility_distance"
"0","Cukrárna","Cukrárna Amarena","https://www.firmy.cz/detail/12939985-cukrarna-amarena-praha-letnany.html","516"
"1","Kino","Cinema City Letňany","https://www.firmy.cz/detail/2679833-cinema-city-letnany-praha-letnany.html","470"
"2","Přírodní zajímavost","Meandry Rokytky","","4017"
"3","Hřiště","Dětské hřiště Nové Letňany","","66"
"4","Večerka","Penny Market","https://www.firmy.cz/detail/2412995-penny-market-praha-letnany.html","134"
"5","Hospoda","Pivnice Boleslavka","https://www.firmy.cz/detail/13302446-pivnice-boleslavka-praha-prosek.html","1635"
"6","Divadlo","Divadlo Pohádka","https://www.firmy.cz/detail/636143-divadlo-pohadka-praha-letnany.html","859"
"7","Veterinář","Veterinární ordinace Svobodník","https://www.firmy.cz/detail/12879016-veterinarni-ordinace-svobodnik-praha-letnany.html","805"
"8","Škola","ZŠ a MŠ generála Františka Fajtla DFC, Praha 18","https://www.firmy.cz/detail/1312413-zs-a-ms-generala-frantiska-fajtla-dfc-praha-18-praha-letnany.html","277"
"9","Lékař","Pedira s.r.o.","https://www.firmy.cz/detail/13274171-pedira-s-r-o-praha-letnany.html","277"
"10","Školka","MŠ Havířovská","https://www.firmy.cz/detail/13000098-ms-havirovska-praha-letnany.html","54"
"11","Lékárna","Lékárna IMMUNO-FLOW","https://www.firmy.cz/detail/12905026-lekarna-immuno-flow-praha-letnany.html","330"
"12","Bankomat","Bankomat České spořitelny","https://www.firmy.cz/detail/2464067-bankomat-ceske-sporitelny-praha-letnany.html","356"
"13","Restaurace","Srdcovka Skleník","https://www.firmy.cz/detail/13100034-srdcovka-sklenik-praha-letnany.html","266"
"14","Obchod","OC Letňany","https://www.firmy.cz/detail/13027865-oc-letnany-praha-letnany.html","402"
"15","Sportoviště","Letňanská tenisová škola","https://www.firmy.cz/detail/429158-letnanska-tenisova-skola-praha-letnany.html","203"
"16","Vlak","Praha-Čakovice","","1865"
"17","Bus MHD","Tupolevova","","132"
"18","Pošta","Pošta Praha 99 - Česká pošta, s.p.","https://www.firmy.cz/detail/216695-posta-praha-99-praha-letnany.html","654"
"19","Tram","Třebenická","","1967"
"20","Metro","Letňany","","1088"
