"","facility_type","facility_name","facility_iri","facility_distance"
"0","Cukrárna","Café Rybka","https://www.firmy.cz/detail/328648-cafe-rybka-praha-nove-mesto.html","144"
"1","Kino","Rock Café","https://www.firmy.cz/detail/275548-rock-cafe-praha-nove-mesto.html","363"
"2","Přírodní zajímavost","Kovářovic mez","","5531"
"3","Hřiště","Dětské hřiště Vojtěšský obvod","","243"
"4","Večerka","MANNI MINI MARKET","https://www.firmy.cz/detail/2609033-manni-mini-market-praha-nove-mesto.html","296"
"5","Divadlo","Národní divadlo","https://www.firmy.cz/detail/230553-narodni-divadlo-praha-nove-mesto.html","197"
"6","Hospoda","Batalion Café & Music Bar","https://www.firmy.cz/detail/457689-batalion-cafe-music-bar-praha-stare-mesto.html","656"
"7","Veterinář","MVDr. Katka Sviták Novozámská","https://www.firmy.cz/detail/2137713-mvdr-katka-svitak-novozamska-praha-stare-mesto.html","612"
"8","Lékárna","BENU Lékárna","https://www.firmy.cz/detail/12864634-benu-lekarna-praha-stare-mesto.html","235"
"9","Restaurace","Restaurace U Zpěváčků","https://www.firmy.cz/detail/494358-restaurace-u-zpevacku-praha-nove-mesto.html","6"
"10","Metro","Národní třída","","366"
"11","Bankomat","Raiffeisenbank - bankomat","https://www.firmy.cz/detail/631173-raiffeisenbank-bankomat-praha-stare-mesto.html","234"
"12","Pošta","Pošta Praha 51 - Česká pošta, s.p.","https://www.firmy.cz/detail/431281-posta-praha-51-praha-mala-strana.html","782"
"13","Školka","MŠ sv. Voršily v Praze","https://www.firmy.cz/detail/406704-ms-sv-vorsily-v-praze-praha-nove-mesto.html","122"
"14","Vlak","Praha hlavní nádraží","","1610"
"15","Tram","Národní divadlo","","88"
"16","Bus MHD","Jiráskovo náměstí","","445"
"17","Lékař","TeamPrevent-Santé, s.r.o.","https://www.firmy.cz/detail/313672-teamprevent-sante-s-r-o-praha-nove-mesto.html","57"
"18","Obchod","palác metro","https://www.firmy.cz/detail/143339-palac-metro-praha-stare-mesto.html","363"
"19","Sportoviště","TJ Zora Praha z.s.","https://www.firmy.cz/detail/405756-tj-zora-praha-z-s-praha-nove-mesto.html","42"
"20","Škola","ZŠ sv. Voršily, Praha 1","https://www.firmy.cz/detail/178063-zs-sv-vorsily-praha-1-praha-nove-mesto.html","88"
