"","facility_type","facility_name","facility_iri","facility_distance"
"0","Hřiště","Dětské hřiště Gagarinova","https://mapy.cz/zakladni?x=14.6472344444&y=50.6876627778&z=17&source=base&id=1930540","405"
"1","Hospoda","Hostinec U stadionu 	134","https://www.firmy.cz/detail/13134547-hostinec-u-stadionu-134-zakupy.html","278"
"2","Večerka","Potraviny Pod Zámkem","https://www.firmy.cz/detail/13327851-potraviny-pod-zamkem-zakupy.html","145"
"3","Přírodní zajímavost","Svojkovská skalní brána","https://mapy.cz/zakladni?x=14.6048033049&y=50.7242269269&z=17&source=base&id=2112485","5174"
"4","Lékař","MUDr. Juraj Császár","https://www.firmy.cz/detail/2661596-mudr-juraj-csaszar-zakupy.html","304"
"5","Sportoviště","ZŠ a MŠ Zákupy","https://www.firmy.cz/detail/2597144-zs-a-ms-zakupy-zakupy.html","527"
"6","Pošta","Pošta Zákupy - Česká pošta, s.p.","https://www.firmy.cz/detail/215477-posta-zakupy-zakupy.html","98"
"7","Bankomat","Bankomat Euronet","https://www.firmy.cz/detail/13341265-bankomat-euronet-zakupy.html","128"
"8","Školka","ZŠ a MŠ Zákupy","https://www.firmy.cz/detail/442669-zs-a-ms-zakupy-zakupy.html","527"
"9","Bus MHD","Zákupy, nám.","https://mapy.cz/zakladni?x=14.6434711371148&y=50.6844759206236&z=17&source=pubt&id=15297131","37"
"10","Restaurace","Pizza Totti","https://www.firmy.cz/detail/13292714-pizza-totti-zakupy.html","224"
"11","Vlak","Zákupy-Božíkov","https://mapy.cz/zakladni?x=14.6499855585&y=50.6786609876&z=17&source=pubt&id=15211043","810"
"12","Škola","ZŠ a MŠ Zákupy","https://www.firmy.cz/detail/360176-zs-a-ms-zakupy-zakupy.html","527"
