"","facility_type","facility_name","facility_iri","facility_distance"
"0","Cukrárna","Kavárna a cukrárna AIDA","https://www.firmy.cz/detail/13123000-kavarna-a-cukrarna-aida-uherske-hradiste.html","701"
"1","Kino","Kino Hvězda Uherské Hradiště","https://www.firmy.cz/detail/457216-kino-hvezda-uherske-hradiste-uherske-hradiste.html","1309"
"2","Přírodní zajímavost","Soutok Moravy a Olšavy","","3226"
"3","Hřiště","Dětské hřiště Štěpnická","","180"
"4","Večerka","HRUŠKA","https://www.firmy.cz/detail/12819450-hruska-uherske-hradiste.html","230"
"5","Hospoda","Pivnice U Dolečka","https://www.firmy.cz/detail/13144114-pivnice-u-dolecka-uherske-hradiste.html","304"
"6","Divadlo","Malá scéna Slováckého divadla","https://www.firmy.cz/detail/12964490-mala-scena-slovackeho-divadla-uherske-hradiste.html","919"
"7","Veterinář","Veterina Mlejnský","https://www.firmy.cz/detail/477139-veterina-mlejnsky-uherske-hradiste.html","418"
"8","Bankomat","Bankomat ČSOB","https://www.firmy.cz/detail/13252436-bankomat-csob-uherske-hradiste.html","188"
"9","Lékárna","Lékárna nemocnice","https://www.firmy.cz/detail/375938-lekarna-nemocnice-uherske-hradiste.html","188"
"10","Pošta","Pošta Uherské Hradiště 6 - Česká pošta, s.p.","https://www.firmy.cz/detail/433399-posta-uherske-hradiste-6-uherske-hradiste.html","212"
"11","Vlak","Uherské Hradiště","","492"
"12","Lékař","MUDr. Hana Vávrová","https://www.firmy.cz/detail/389992-mudr-hana-vavrova-uherske-hradiste.html","224"
"13","Školka","ZŠ a MŠ speciální Uherské Hradiště","https://www.firmy.cz/detail/2327158-zs-a-ms-specialni-uherske-hradiste-uherske-hradiste.html","447"
"14","Bus MHD","Nemocnice","","74"
"15","Obchod","Tesco","https://www.firmy.cz/detail/653537-tesco-uherske-hradiste.html","1286"
"16","Škola","Střední škola služeb, s.r.o.","https://www.firmy.cz/detail/361687-stredni-skola-sluzeb-uherske-hradiste.html","254"
"17","Sportoviště","Discgolf Kunovský les","","715"
"18","Restaurace","Restaurace Na Nádraží","https://www.firmy.cz/detail/13134645-restaurace-na-nadrazi-uherske-hradiste.html","511"
