"","facility_type","facility_name","facility_iri","facility_distance"
"0","Cukrárna","Suri Cafe","https://www.firmy.cz/detail/13298853-suri-cafe-ostrava-zabreh.html","901"
"1","Kino","Kino Luna","https://www.firmy.cz/detail/2642805-kino-luna-ostrava-zabreh.html","991"
"2","Přírodní zajímavost","Zábřežský bludný balvan","","1496"
"3","Hřiště","Dětské hřiště Pavlovova","","690"
"4","Večerka","HRUŠKA","https://www.firmy.cz/detail/12820397-hruska-ostrava-zabreh.html","83"
"5","Hospoda","Hospůdka u Hanzyho","https://www.firmy.cz/detail/13146165-hospudka-u-hanzyho-ostrava-zabreh.html","387"
"6","Divadlo","Divadlo U Lípy","https://www.firmy.cz/detail/2121467-divadlo-u-lipy-ostrava-zabreh.html","1115"
"7","Veterinář","MVDr. Petr Stankoci - Veterinární ordinace","https://www.firmy.cz/detail/1957076-mvdr-petr-stankoci-veterinarni-ordinace-ostrava-hrabuvka.html","864"
"8","Lékař","MUDr. Karla Kaňová","https://www.firmy.cz/detail/12864466-mudr-karla-kanova-ostrava-zabreh.html","96"
"9","Restaurace","Restaurace U Áji","https://www.firmy.cz/detail/13240065-restaurace-u-aji-ostrava-zabreh.html","157"
"10","Škola","ZŠ Ostrava-Zábřeh, Chrjukinova 12","https://www.firmy.cz/detail/358730-zs-ostrava-zabreh-chrjukinova-12-ostrava-zabreh.html","78"
"11","Sportoviště","Aerobik klub Ostrava","https://www.firmy.cz/detail/12897480-aerobik-klub-ostrava-ostrava-zabreh.html","206"
"12","Tram","Rodimcevova","","294"
"13","Pošta","Pošta Ostrava 4 - Česká pošta, s.p.","https://www.firmy.cz/detail/433394-posta-ostrava-4-ostrava-zabreh.html","160"
"14","Bus MHD","Náměstí SNP","","219"
"15","Lékárna","Lékárna Ambra","https://www.firmy.cz/detail/13207168-lekarna-ambra-ostrava-zabreh.html","96"
"16","Bankomat","Bankomat MONETA Money Bank","https://www.firmy.cz/detail/12780482-bankomat-moneta-money-bank-ostrava-zabreh.html","754"
"17","Školka","Soukromá základní škola a mateřská škola, s.r.o.","https://www.firmy.cz/detail/2320297-soukroma-zakladni-skola-a-materska-skola-ostrava-zabreh.html","727"
"18","Obchod","Kaufland","https://www.firmy.cz/detail/1461415-kaufland-ostrava-zabreh.html","1038"
"19","Vlak","Ostrava-Vítkovice","","1886"
