"","facility_type","facility_name","facility_iri","facility_distance"
"0","Cukrárna","U Olivy Jůzový","https://www.firmy.cz/detail/13150729-u-olivy-juzovy-brandys-nad-labem-stara-boleslav-brandys-nad-labem.html","386"
"1","Kino","Kino Brandýs nad Labem","https://www.firmy.cz/detail/12968784-kino-brandys-nad-labem-brandys-nad-labem-stara-boleslav-brandys-nad-labem.html","378"
"2","Hřiště","Dětské hřiště Kralupská","","246"
"3","Večerka","Žabka","https://www.firmy.cz/detail/13335329-zabka-brandys-nad-labem-stara-boleslav-brandys-nad-labem.html","187"
"4","Hospoda","Hospoda U Mnicha","https://www.firmy.cz/detail/2235382-hospoda-u-mnicha-brandys-nad-labem-stara-boleslav-brandys-nad-labem.html","515"
"5","Veterinář","Veterinární nemocnice  Brandýs – VetPark,  MVDr. Dominik Vlach","https://www.firmy.cz/detail/402461-veterinarni-nemocnice-brandys-vetpark-mvdr-dominik-vlach-brandys-nad-labem-stara-boleslav-brandys-nad-labem.html","435"
"6","Bankomat","Bankomat ČSOB","https://www.firmy.cz/detail/2409541-bankomat-csob-brandys-nad-labem-stara-boleslav-brandys-nad-labem.html","403"
"7","Bus MHD","Brandýs n.L.-St.Bol., Sídl.u nádr.","","87"
"8","Lékař","Nemocnice Brandýs nad Labem -  Praktický lékař pro dospělé","https://www.firmy.cz/detail/12958676-nemocnice-brandys-nad-labem-prakticky-lekar-pro-dospele-brandys-nad-labem-stara-boleslav-brandys-nad-labem.html","277"
"9","Sportoviště","Sportcentrum Brandýs s.r.o.","https://www.firmy.cz/detail/12877109-sportcentrum-brandys-s-r-o-brandys-nad-labem-stara-boleslav-brandys-nad-labem.html","456"
"10","Lékárna","Ústavní lékárna, Nemocnice Brandýs nad Labem","https://www.firmy.cz/detail/12958721-ustavni-lekarna-nemocnice-brandys-nad-labem-brandys-nad-labem-stara-boleslav-brandys-nad-labem.html","277"
"11","Školka","MŠ Brandýs nad Labem - Stará Boleslav, Chobotská","https://www.firmy.cz/detail/626441-ms-brandys-nad-labem-stara-boleslav-chobotska-brandys-nad-labem-stara-boleslav-brandys-nad-labem.html","225"
"12","Vlak","Brandýs nad Labem","","309"
"13","Restaurace","Restaurace U Mikeše","https://www.firmy.cz/detail/13318625-restaurace-u-mikese-brandys-nad-labem-stara-boleslav-brandys-nad-labem.html","129"
"14","Obchod","Kaufland","https://www.firmy.cz/detail/12982561-kaufland-brandys-nad-labem-stara-boleslav-brandys-nad-labem.html","1374"
"15","Pošta","Pošta Brandýs nad Labem-Stará Boleslav 1 - Česká pošta, s.p.","https://www.firmy.cz/detail/217389-posta-brandys-nad-labem-stara-boleslav-1-brandys-nad-labem-stara-boleslav-brandys-nad-labem.html","710"
"16","Škola","ZŠ Na Výsluní, Brandýs nad Labem-Stará Boleslav","https://www.firmy.cz/detail/356458-zs-na-vysluni-brandys-nad-labem-stara-boleslav-brandys-nad-labem-stara-boleslav-brandys-nad-labem.html","415"
