"","facility_type","facility_name","facility_iri","facility_distance"
"0","Cukrárna","Cukrárna Lada","https://www.firmy.cz/detail/12908208-cukrarna-lada-havirov.html","82"
"1","Kino","Letní kino - Městské kulturní středisko Havířov","https://www.firmy.cz/detail/13072791-letni-kino-havirov.html","645"
"2","Hřiště","Dětské hřiště Školní park","","151"
"3","Večerka","HRUŠKA","https://www.firmy.cz/detail/12819997-hruska-havirov-mesto.html","75"
"4","Hospoda","Hostinec U Lopaty","https://www.firmy.cz/detail/13148778-hostinec-u-lopaty-havirov-mesto.html","289"
"5","Veterinář","Veterinární ordinace Terra Vet","https://www.firmy.cz/detail/13330221-veterinarni-ordinace-terra-vet-havirov-mesto.html","115"
"6","Bankomat","Bankomat České spořitelny","https://www.firmy.cz/detail/592112-bankomat-ceske-sporitelny-havirov-mesto.html","64"
"7","Obchod","Obchodní centrum Elan","https://www.firmy.cz/detail/2181587-obchodni-centrum-elan-havirov-mesto.html","517"
"8","Školka","MŠ Havířov, Místní","https://www.firmy.cz/detail/2513460-ms-havirov-mistni-havirov-mesto.html","222"
"9","Lékař","MUDr. Danuše Tenčíková, s.r.o.","https://www.firmy.cz/detail/12830944-mudr-danuse-tencikova-havirov-mesto.html","240"
"10","Bus MHD","Havířov, Město, Magistrát","","123"
"11","Pošta","Pošta Havířov 11 - Česká pošta, s.p.","https://www.firmy.cz/detail/431631-posta-havirov-11-havirov-mesto.html","255"
"12","Sportoviště","Discgolf Stromovka","","492"
"13","Škola","Základní škola Havířov - Město Gorkého 1/329 okres Karviná","https://www.firmy.cz/detail/357050-zakladni-skola-havirov-mesto-gorkeho-1-329-okres-karvina-havirov-mesto.html","254"
"14","Lékárna","BENU Lékárna","https://www.firmy.cz/detail/12875767-benu-lekarna-havirov-mesto.html","521"
"15","Restaurace","Pizzerie DeMarco","https://www.firmy.cz/detail/2532252-pizzerie-demarco-havirov-mesto.html","53"
"16","Vlak","Havířov-střed","","1154"
