"","facility_type","facility_name","facility_iri","facility_distance"
"0","Cukrárna","Pekařství a kavárna DéKáčko","https://www.firmy.cz/detail/1531163-pekarstvi-a-kavarna-dekacko-jindrichuv-hradec-ii.html","136"
"1","Kino","KD Střelnice","https://www.firmy.cz/detail/2345094-kd-strelnice-jindrichuv-hradec-i.html","260"
"2","Hřiště","Dětské hřiště Mertovy sady","","301"
"3","Večerka","Jednota, spotřební družstvo v Jindřichově Hradci - COOP - TIP","https://www.firmy.cz/detail/2120508-jednota-spotrebni-druzstvo-v-jindrichove-hradci-coop-tip-jindrichuv-hradec-ii.html","230"
"4","Hospoda","Naše Hospoda Zlatá Husa","https://www.firmy.cz/detail/13239378-nase-hospoda-zlata-husa-jindrichuv-hradec-i.html","433"
"5","Veterinář","MVDr. Jan Fiala","https://www.firmy.cz/detail/471362-mvdr-jan-fiala-jindrichuv-hradec-iv.html","706"
"6","Lékárna","BENU Lékárna","https://www.firmy.cz/detail/420965-benu-lekarna-jindrichuv-hradec-ii.html","167"
"7","Sportoviště","Pohybové studio I.S.A.","https://www.firmy.cz/detail/13062172-pohybove-studio-i-s-a-jindrichuv-hradec-ii.html","46"
"8","Bus MHD","Jindřichův Hradec, Oděva","","77"
"9","Bankomat","Bankomat České spořitelny","https://www.firmy.cz/detail/12736690-bankomat-ceske-sporitelny-jindrichuv-hradec-ii.html","77"
"10","Vlak","Jindřichův Hradec","","870"
"11","Školka","4. MŠ Jindřichův Hradec, Röschova","https://www.firmy.cz/detail/1995337-4-ms-jindrichuv-hradec-roschova-jindrichuv-hradec-ii.html","321"
"12","Pošta","Pošta Jindřichův Hradec 1 - Česká pošta, s.p.","https://www.firmy.cz/detail/217096-posta-jindrichuv-hradec-1-jindrichuv-hradec-ii.html","30"
"13","Obchod","Kaufland","https://www.firmy.cz/detail/1448707-kaufland-jindrichuv-hradec-iii.html","1509"
"14","Lékař","MUDr. Jitka Čechová","https://www.firmy.cz/detail/13228997-mudr-jitka-cechova-jindrichuv-hradec-ii.html","294"
"15","Škola","Obchodní akademie T. G. Masaryka Jindřichův Hradec","https://www.firmy.cz/detail/362331-obchodni-akademie-t-g-masaryka-jindrichuv-hradec-jindrichuv-hradec-ii.html","60"
"16","Restaurace","Restaurace U Papoušků","https://www.firmy.cz/detail/2256055-restaurace-u-papousku-jindrichuv-hradec-ii.html","106"
