"","facility_type","facility_name","facility_iri","facility_distance"
"0","Cukrárna","Cukrárna Monika","https://www.firmy.cz/detail/12794781-cukrarna-monika-steti.html","330"
"1","Kino","Městské kino Štětí","https://www.firmy.cz/detail/396768-mestske-kino-steti-steti.html","443"
"2","Hřiště","Dětské hřiště Mírové náměstí","","60"
"3","Večerka","Večerka Štětí","https://www.firmy.cz/detail/13314997-vecerka-steti-steti.html","154"
"4","Hospoda","Pivnice Formanka","https://www.firmy.cz/detail/13131456-pivnice-formanka-steti.html","268"
"5","Obchod","Obchodní centrum Ve Štětí","https://www.firmy.cz/detail/13268206-obchodni-centrum-ve-steti-steti.html","412"
"6","Lékař","MUDr. Eva Ševčíková","https://www.firmy.cz/detail/388727-mudr-eva-sevcikova-steti.html","373"
"7","Školka","MŠ Štětí","https://www.firmy.cz/detail/12925262-ms-steti-steti.html","632"
"8","Bankomat","Bankomat Komerční banky","https://www.firmy.cz/detail/13338832-bankomat-komercni-banky-steti.html","173"
"9","Sportoviště","Městské koupaliště Štětí","https://www.firmy.cz/detail/2344465-mestske-koupaliste-steti-steti.html","859"
"10","Lékárna","Dr. Max LÉKÁRNA","https://www.firmy.cz/detail/13323873-dr-max-lekarna-steti.html","246"
"11","Vlak","Hněvice","","773"
"12","Škola","ZŠ T.G. Masaryka Štětí","https://www.firmy.cz/detail/359609-zs-t-g-masaryka-steti-steti.html","256"
"13","Restaurace","Hostinec U Černého koně","https://www.firmy.cz/detail/2468524-hostinec-u-cerneho-kone-steti.html","11"
"14","Bus MHD","Štětí, Mírové nám.","","38"
"15","Pošta","Pošta Štětí - Česká pošta, s.p.","https://www.firmy.cz/detail/215366-posta-steti-steti.html","318"
