"","facility_type","facility_name","facility_iri","facility_distance"
"0","Cukrárna","Cukrárna za vodou","https://www.firmy.cz/detail/13245730-cukrarna-za-vodou-bilina-mostecke-predmesti.html","900"
"1","Kino","Letní kino Bílina","https://www.firmy.cz/detail/13071399-letni-kino-bilina-bilina.html","1522"
"2","Přírodní zajímavost","Sukcesní plocha XVII A Radovesické výsypky","","3844"
"3","Hřiště","Dětské hřiště Fügnerova","","216"
"4","Večerka","JIP Potraviny","https://www.firmy.cz/detail/12922835-jip-potraviny-bilina-prazske-predmesti.html","169"
"5","Hospoda","Hospoda Pod Schodama","https://www.firmy.cz/detail/13288919-hospoda-pod-schodama-bilina-teplicke-predmesti.html","1362"
"6","Divadlo","Městské divadlo","https://www.firmy.cz/detail/13194863-mestske-divadlo-bilina.html","927"
"7","Veterinář","EgneVET","https://www.firmy.cz/detail/13311230-egnevet-bilina-prazske-predmesti.html","279"
"8","Bus MHD","Bílina, PP II škola","","81"
"9","Lékárna","BENU Lékárna","https://www.firmy.cz/detail/12847643-benu-lekarna-bilina-prazske-predmesti.html","411"
"10","Lékař","MUDr. Vladimír Volman","https://www.firmy.cz/detail/389209-mudr-vladimir-volman-bilina-prazske-predmesti.html","411"
"11","Bankomat","Bankomat UniCredit Bank Czech Republic","https://www.firmy.cz/detail/13296759-bankomat-unicredit-bank-czech-republic-bilina-prazske-predmesti.html","411"
"12","Sportoviště","Městské technické služby Bílina - Zelená hala","https://www.firmy.cz/detail/12967683-mestske-technicke-sluzby-bilina-zelena-hala-bilina-prazske-predmesti.html","396"
"13","Školka","MŠ Bílina","https://www.firmy.cz/detail/2387923-ms-bilina-bilina-prazske-predmesti.html","105"
"14","Restaurace","Restaurace Pražanka","https://www.firmy.cz/detail/13100026-restaurace-prazanka-bilina-prazske-predmesti.html","103"
"15","Škola","ZŠ Bílina, Aléská","https://www.firmy.cz/detail/356350-zs-bilina-aleska-bilina-prazske-predmesti.html","149"
"16","Obchod","Albert Hypermarket","https://www.firmy.cz/detail/12922454-albert-hypermarket-bilina-mostecke-predmesti.html","1177"
"17","Vlak","Bílina kyselka","","1338"
"18","Pošta","Pošta Bílina 1 - Česká pošta, s.p.","https://www.firmy.cz/detail/215433-posta-bilina-1-bilina.html","820"
