"","facility_type","facility_name","facility_iri","facility_distance"
"0","Cukrárna","Vanille.","https://www.firmy.cz/detail/2218301-vanille-praha-vinohrady.html","294"
"1","Kino","HopeTV","https://www.firmy.cz/detail/672889-hopetv-praha-vinohrady.html","441"
"2","Hřiště","Dětské hřiště Bezručovy sady","","359"
"3","Večerka","Potraviny Eso Market","https://www.firmy.cz/detail/2341949-potraviny-eso-market-praha-vinohrady.html","166"
"4","Hospoda","Hospoda Pohoda","https://www.firmy.cz/detail/569598-hospoda-pohoda-praha-nusle.html","954"
"5","Divadlo","Theatre ROYAL","https://www.firmy.cz/detail/805285-theatre-royal-praha-vinohrady.html","327"
"6","Veterinář","MVDr. Miroslav Měšťan","https://www.firmy.cz/detail/2487671-mvdr-miroslav-mestan-praha-vrsovice.html","369"
"7","Restaurace","Restaurace U Pošty","https://www.firmy.cz/detail/306160-restaurace-u-posty-praha-vinohrady.html","78"
"8","Lékař","MUDr. Anna Růžičková","https://www.firmy.cz/detail/390768-mudr-anna-ruzickova-praha-vinohrady.html","177"
"9","Tram","Jana Masaryka","","59"
"10","Školka","MŠ Trojlístek, Praha 2","https://www.firmy.cz/detail/2295426-ms-trojlistek-praha-2-praha-vinohrady.html","36"
"11","Pošta","Pošta Praha 2 - Česká pošta, s.p.","https://www.firmy.cz/detail/217496-posta-praha-2-praha-vinohrady.html","154"
"12","Metro","Náměstí Míru","","239"
"13","Bankomat","Bankomat MONETA Money Bank","https://www.firmy.cz/detail/2675391-bankomat-moneta-money-bank-praha-vinohrady.html","72"
"14","Lékárna","U svaté Ludmily","https://www.firmy.cz/detail/374313-u-svate-ludmily-praha-vinohrady.html","378"
"15","Škola","ZŠ Praha 2, Sázavská","https://www.firmy.cz/detail/358961-zs-praha-2-sazavska-praha-vinohrady.html","36"
"16","Bus MHD","Náměstí Míru","","206"
"17","Obchod","PAVILON, a.s.","https://www.firmy.cz/detail/451685-pavilon-praha-vinohrady.html","327"
"18","Vlak","Praha hlavní nádraží","","1031"
"19","Sportoviště","Tenisová škola Vinohrady – Jiří Brázda","https://www.firmy.cz/detail/433988-tenisova-skola-vinohrady-jiri-brazda-praha-vinohrady.html","506"
