"","facility_type","facility_name","facility_iri","facility_distance"
"0","Cukrárna","Cafe Bulldog","https://www.firmy.cz/detail/13000990-cafe-bulldog-breclav.html","212"
"1","Kino","Kino Koruna","https://www.firmy.cz/detail/451631-kino-koruna-breclav.html","983"
"2","Hřiště","Dětské hřiště u nádraží","","404"
"3","Večerka","Albert Supermarket","https://www.firmy.cz/detail/446695-albert-supermarket-breclav.html","391"
"4","Hospoda","Hospůdka U Jana","https://www.firmy.cz/detail/13089766-hospudka-u-jana-breclav.html","870"
"5","Veterinář","VM - vet s.r.o.","https://www.firmy.cz/detail/12768317-vm-vet-s-r-o-breclav.html","252"
"6","Školka","ZŠ a MŠ Břeclav, Dukelských hrdinů","https://www.firmy.cz/detail/2535845-zs-a-ms-breclav-dukelskych-hrdinu-breclav.html","618"
"7","Pošta","Pošta Břeclav 2 - Česká pošta, s.p.","https://www.firmy.cz/detail/432396-posta-breclav-2-breclav.html","619"
"8","Restaurace","Restaurace Popocatépetl","https://www.firmy.cz/detail/12771186-restaurace-popocatepetl-breclav.html","243"
"9","Vlak","Břeclav","","512"
"10","Lékař","MUDr. Bohumila Majtanová","https://www.firmy.cz/detail/389510-mudr-bohumila-majtanova-breclav.html","302"
"11","Obchod","Albert Hypermarket","https://www.firmy.cz/detail/446696-albert-hypermarket-breclav-postorna.html","2399"
"12","Bankomat","Bankomat Air Bank","https://www.firmy.cz/detail/13101232-bankomat-air-bank-breclav.html","408"
"13","Škola","ZŠ Břeclav, Slovácká","https://www.firmy.cz/detail/356581-zs-breclav-slovacka-breclav.html","261"
"14","Bus MHD","Břeclav, Jana Palacha","","465"
"15","Lékárna","Lékárna U NÁDRAŽÍ","https://www.firmy.cz/detail/2349864-lekarna-u-nadrazi-breclav.html","396"
"16","Sportoviště","Lotus Centrum","https://www.firmy.cz/detail/13202897-lotus-centrum-breclav.html","154"
