"","facility_type","facility_name","facility_iri","facility_distance"
"0","Cukrárna","Cukrárna v DM","https://www.firmy.cz/detail/13113604-cukrarna-v-dm-liberec-iii-jerab.html","1057"
"1","Kino","CineStar Liberec","https://www.firmy.cz/detail/2423444-cinestar-liberec-liberec-xxiii-doubi.html","1217"
"2","Přírodní zajímavost","Opičák","","2629"
"3","Hřiště","Dětské hřiště Gagarinova","","155"
"4","Večerka","Potraviny U Michala","https://www.firmy.cz/detail/13205315-potraviny-u-michala-liberec-vi-rochlice.html","284"
"5","Hospoda","U Řeháčků","https://www.firmy.cz/detail/13150772-u-rehacku-liberec-viii-dolni-hanychov.html","427"
"6","Divadlo","Naivní divadlo Liberec","https://www.firmy.cz/detail/230860-naivni-divadlo-liberec-liberec-iv-perstyn.html","2417"
"7","Veterinář","MVDr. Hana Nováková","https://www.firmy.cz/detail/2476337-mvdr-hana-novakova-liberec-vii-horni-ruzodol.html","165"
"8","Lékárna","Lékárna Svět","https://www.firmy.cz/detail/2503344-lekarna-svet-liberec-vii-horni-ruzodol-liberec-7.html","321"
"9","Bus MHD","Kubelíkova","","358"
"10","Bankomat","Bankomat České spořitelny","https://www.firmy.cz/detail/593145-bankomat-ceske-sporitelny-liberec-vii-horni-ruzodol.html","360"
"11","Tram","Janův Důl","","344"
"12","Restaurace","Restaurace Horizont","https://www.firmy.cz/detail/643433-restaurace-horizont-liberec-vii-horni-ruzodol.html","345"
"13","Vlak","Liberec-Horní Růžodol","","543"
"14","Obchod","OC Nisa","https://www.firmy.cz/detail/13104027-oc-nisa-liberec-xxiii-doubi.html","1222"
"15","Lékař","MUDr. Hana Baaderová","https://www.firmy.cz/detail/380146-mudr-hana-baaderova-liberec-vii-horni-ruzodol.html","298"
"16","Školka","Mateřská škola ""Hvězdička"", Liberec, Gagarinova 788/9","https://www.firmy.cz/detail/13230849-materska-skola-hvezdicka-liberec-gagarinova-788-9-liberec-vi-rochlice.html","136"
"17","Pošta","Pošta Liberec 7 - Česká pošta, s.p.","https://www.firmy.cz/detail/215257-posta-liberec-7-liberec-vii-horni-ruzodol.html","699"
"18","Sportoviště","Patriots Liberec","https://www.firmy.cz/detail/12900902-patriots-liberec-liberec.html","538"
"19","Škola","Gymnázium a Střední odborná škola pedagogická Liberec","https://www.firmy.cz/detail/361861-gymnazium-a-stredni-odborna-skola-pedagogicka-liberec-liberec-vii-horni-ruzodol.html","693"
