"","facility_type","facility_name","facility_iri","facility_distance"
"0","Hřiště","Dětské hřiště Františkánská zahrada","https://mapy.cz/zakladni?x=14.4237824485&y=50.0824938028&z=17&source=base&id=1927215","565"
"1","Cukrárna","mamacoffee","https://www.firmy.cz/detail/2515188-mamacoffee-praha-nove-mesto.html","330"
"2","Veterinář","Veterinární ambulance Help","https://www.firmy.cz/detail/178079-veterinarni-ambulance-help-praha-vinohrady.html","742"
"3","Hospoda","Batalion Café & Music Bar","https://www.firmy.cz/detail/457689-batalion-cafe-music-bar-praha-stare-mesto.html","703"
"4","Večerka","MANNI MINI MARKET","https://www.firmy.cz/detail/2511345-manni-mini-market-praha-nove-mesto.html","114"
"5","Divadlo","Divadlo v Řeznické, o.p.s.","https://www.firmy.cz/detail/2173304-divadlo-v-reznicke-praha-nove-mesto.html","191"
"6","Kino","Kino 35 Francouzský institut v Praze","https://www.firmy.cz/detail/682514-kino-35-francouzsky-institut-v-praze-praha-nove-mesto.html","150"
"7","Sportoviště","Tělocvičná jednota Sokol Pražský","https://www.firmy.cz/detail/644629-telocvicna-jednota-sokol-prazsky-praha-nove-mesto.html","165"
"8","Škola","Akademické gymnázium, škola hlavního města Prahy, Praha 1, Štěpánská 22","https://www.firmy.cz/detail/228896-akademicke-gymnazium-skola-hlavniho-mesta-prahy-praha-1-stepanska-22-praha-nove-mesto.html","111"
"9","Bus MHD","Ve Smečkách","https://mapy.cz/zakladni?x=14.426061&y=50.077327&z=17&source=pubt&id=16254070","41"
"10","Vlak","Praha hlavní nádraží","https://mapy.cz/zakladni?x=14.4369820737851&y=50.082990005918&z=17&source=pubt&id=15212548","966"
"11","Tram","Štěpánská","https://mapy.cz/zakladni?x=14.423323517&y=50.075600538&z=17&source=pubt&id=15304188","312"
"12","Bankomat","Bankomat Euronet","https://www.firmy.cz/detail/2372726-bankomat-euronet-praha-nove-mesto.html","285"
"13","Lékárna","Nemocniční lékárna VFN v Praze,odd.výdeje pro veřejnost III","https://www.firmy.cz/detail/2650769-nemocnicni-lekarna-vfn-v-praze-odd-vydeje-pro-verejnost-iii-praha-nove-mesto.html","393"
"14","Restaurace","TRATTORIA CICALA","https://www.firmy.cz/detail/335429-trattoria-cicala-praha-nove-mesto.html","158"
"15","Obchod","DESIRRED","https://www.firmy.cz/detail/483472-desirred-praha-nove-mesto.html","538"
"16","Školka","MŠ Praha 2, Na Rybníčku","https://www.firmy.cz/detail/731793-ms-praha-2-na-rybnicku-praha-nove-mesto.html","152"
"17","Metro","Muzeum","https://mapy.cz/zakladni?x=14.4299775029&y=50.0787014837&z=17&source=pubt&id=15200193","288"
"18","Lékař","Klinika GHC Praha","https://www.firmy.cz/detail/432809-klinika-ghc-praha-praha-nove-mesto.html","133"
"19","Pošta","Česká pošta, s.p.","https://www.firmy.cz/detail/198930-ceska-posta-praha-nove-mesto.html","617"
