"","facility_type","facility_name","facility_iri","facility_distance"
"0","Cukrárna","Café Garáž","https://www.firmy.cz/detail/13258883-cafe-garaz-beroun-mesto.html","3062"
"1","Kino","Kino Beroun","https://www.firmy.cz/detail/396429-kino-beroun-beroun-mesto.html","3857"
"2","Hřiště","Dětské hřiště Fučíkova","","512"
"3","Večerka","Nápoje F. Mareš","https://www.firmy.cz/detail/12831067-napoje-f-mares-kraluv-dvur.html","1058"
"4","Hospoda","Hostinec U Karla IV.","https://www.firmy.cz/detail/13147242-hostinec-u-karla-iv-kraluv-dvur-karlova-hut.html","459"
"5","Divadlo","DIVADLO CIRKUS ŽEBŘÍK","https://www.firmy.cz/detail/2274608-divadlo-cirkus-zebrik-zdice-cernin.html","4376"
"6","Veterinář","Veterinární ordinace HaF","https://www.firmy.cz/detail/12760819-veterinarni-ordinace-haf-kraluv-dvur-pocaply.html","823"
"7","Bankomat","Bankomat České spořitelny","https://www.firmy.cz/detail/593067-bankomat-ceske-sporitelny-kraluv-dvur-pocaply.html","775"
"8","Bus MHD","Králův Dvůr, Výšiny","","126"
"9","Lékárna","Lékárna U Tří zvonků","https://www.firmy.cz/detail/422002-lekarna-u-tri-zvonku-kraluv-dvur-pocaply.html","804"
"10","Sportoviště","Tělocvičná jednota Sokol Králův Dvůr","https://www.firmy.cz/detail/684549-telocvicna-jednota-sokol-kraluv-dvur-kraluv-dvur.html","838"
"11","Pošta","Pošta Králův Dvůr u Berouna - Česká pošta, s.p.","https://www.firmy.cz/detail/216862-posta-kraluv-dvur-u-berouna-kraluv-dvur-pocaply.html","821"
"12","Školka","ZŠ a MŠ Králův Dvůr - Počaply, Tyršova","https://www.firmy.cz/detail/433810-zs-a-ms-kraluv-dvur-pocaply-tyrsova-kraluv-dvur-pocaply.html","786"
"13","Lékař","MUDr. Milan Suchánek","https://www.firmy.cz/detail/298165-mudr-milan-suchanek-kraluv-dvur.html","901"
"14","Vlak","Králův Dvůr","","706"
"15","Restaurace","Restaurace U Zvonu","https://www.firmy.cz/detail/2601712-restaurace-u-zvonu-kraluv-dvur.html","762"
"16","Škola","Speciální mateřská škola Králův Dvůr","https://www.firmy.cz/detail/2071713-specialni-materska-skola-kraluv-dvur-kraluv-dvur-pocaply.html","770"
"17","Obchod","Albert Hypermarket","https://www.firmy.cz/detail/2355469-albert-hypermarket-kraluv-dvur.html","1592"
