"","facility_type","facility_name","facility_iri","facility_distance"
"0","Cukrárna","Orchard I","https://www.firmy.cz/detail/12956520-orchard-i-ostrava-moravska-ostrava.html","574"
"1","Kino","CineStar Ostrava","https://www.firmy.cz/detail/661182-cinestar-ostrava-ostrava-moravska-ostrava.html","1629"
"2","Přírodní zajímavost","Uhelná sloj v Landeku","","2258"
"3","Hřiště","Dětské hřiště Maroldova","","419"
"4","Večerka","Supermarket Quyet","https://www.firmy.cz/detail/13056556-supermarket-quyet-ostrava-privoz.html","343"
"5","Hospoda","Dřysty v kisni","https://www.firmy.cz/detail/12988076-drysty-v-kisni-ostrava-privoz.html","585"
"6","Divadlo","Loutkový svět","https://www.firmy.cz/detail/13033024-loutkovy-svet-ostrava-moravska-ostrava.html","990"
"7","Veterinář","VETPARK Ostrava, s.r.o.","https://www.firmy.cz/detail/13308555-vetpark-ostrava-ostrava-moravska-ostrava.html","1363"
"8","Bankomat","Bankomat MONETA Money Bank","https://www.firmy.cz/detail/1650838-bankomat-moneta-money-bank-ostrava-privoz.html","464"
"9","Bus MHD","Jirská osada","","76"
"10","Sportoviště","Corkers Ostrava z.s.","https://www.firmy.cz/detail/770703-corkers-ostrava-z-s-ostrava-moravska-ostrava.html","179"
"11","Vlak","Ostrava hlavní nádraží","","548"
"12","Lékárna","Lékárna U Madony","https://www.firmy.cz/detail/154236-lekarna-u-madony-ostrava-privoz.html","386"
"13","Škola","ZŠ Ostrava, Gebauerova","https://www.firmy.cz/detail/12969953-zs-ostrava-gebauerova-ostrava-privoz.html","369"
"14","Pošta","Pošta Ostrava 2","https://www.firmy.cz/detail/433391-posta-ostrava-2-ostrava-privoz.html","542"
"15","Restaurace","Restaurace Max","https://www.firmy.cz/detail/13233295-restaurace-max-ostrava-privoz.html","376"
"16","Lékař","MDDr. Václav Lampart","https://www.firmy.cz/detail/13179874-mddr-vaclav-lampart-ostrava-moravska-ostrava.html","606"
"17","Školka","Rodinné a komunitní centrum Chaloupka","https://www.firmy.cz/detail/732587-rodinne-a-komunitni-centrum-chaloupka-ostrava-moravska-ostrava.html","532"
"18","Obchod","Tesco","https://www.firmy.cz/detail/733902-tesco-ostrava-moravska-ostrava.html","1583"
"19","Tram","Náměstí S. Čecha","","387"
