"","facility_type","facility_name","facility_iri","facility_distance"
"0","Cukrárna","Cukrárna Lada","https://www.firmy.cz/detail/12915655-cukrarna-lada-havirov-sumbark.html","1353"
"1","Kino","Letní kino - Městské kulturní středisko Havířov","https://www.firmy.cz/detail/13072791-letni-kino-havirov.html","1160"
"2","Hřiště","Dětské hřiště U Tesly","","942"
"3","Večerka","Potraviny nám. T. G. Masaryka 	811","https://www.firmy.cz/detail/13056879-potraviny-nam-t-g-masaryka-811-havirov-sumbark.html","288"
"4","Hospoda","Restaurace Přístav","https://www.firmy.cz/detail/13109183-restaurace-pristav-havirov-sumbark.html","383"
"5","Veterinář","Veterinární klinika ANIVET - MVDr. Zbyněk Horák","https://www.firmy.cz/detail/1969639-veterinarni-klinika-anivet-mvdr-zbynek-horak-havirov-sumbark.html","347"
"6","Školka","MŠ Havířov","https://www.firmy.cz/detail/2333584-ms-havirov-havirov-sumbark.html","247"
"7","Sportoviště","Tenisový klub Havířov, z.s.","https://www.firmy.cz/detail/721336-tenisovy-klub-havirov-z-s-havirov-sumbark.html","381"
"8","Pošta","Pošta Havířov 3 - Česká pošta, s.p.","https://www.firmy.cz/detail/431629-posta-havirov-3-havirov-sumbark.html","321"
"9","Obchod","Tesco","https://www.firmy.cz/detail/218205-tesco-havirov-mesto.html","900"
"10","Bus MHD","Havířov, Šumbark, U nádraží","","182"
"11","Lékař","MUDr. René Turčínek","https://www.firmy.cz/detail/387379-mudr-rene-turcinek-havirov-sumbark.html","297"
"12","Škola","Střední škola polytechnická, Havířov-Šumbark","https://www.firmy.cz/detail/361233-stredni-skola-polytechnicka-havirov-sumbark-havirov-sumbark.html","261"
"13","Restaurace","GURMÁN","https://www.firmy.cz/detail/12907330-gurman-havirov.html","508"
"14","Lékárna","Lékárna Léčebné centrum","https://www.firmy.cz/detail/2202513-lekarna-lecebne-centrum-havirov-sumbark.html","297"
"15","Bankomat","Bankomat Komerční banky","https://www.firmy.cz/detail/13312525-bankomat-komercni-banky-havirov-sumbark.html","322"
"16","Vlak","Havířov","","390"
