"","facility_type","facility_name","facility_iri","facility_distance"
"0","Cukrárna","Cukrárna Markétka","https://www.firmy.cz/detail/2000124-cukrarna-marketka-most.html","352"
"1","Kino","Kino Kosmos","https://www.firmy.cz/detail/401279-kino-kosmos-most.html","1402"
"2","Hřiště","Dětské hřiště Liščí vrch","","107"
"3","Večerka","Penny Market","https://www.firmy.cz/detail/2413540-penny-market-most.html","262"
"4","Hospoda","Hospůdka U kance","https://www.firmy.cz/detail/13130999-hospudka-u-kance-most.html","433"
"5","Divadlo","Divadlo rozmanitostí","https://www.firmy.cz/detail/397090-divadlo-rozmanitosti-most.html","765"
"6","Veterinář","Veterinka U Tlapiček","https://www.firmy.cz/detail/12758413-veterinka-u-tlapicek-most.html","499"
"7","Restaurace","Pizzerie Konírna","https://www.firmy.cz/detail/2653873-pizzerie-konirna-most.html","266"
"8","Lékař","Zahradníková Iryna, MediClinic a.s.","https://www.firmy.cz/detail/12946257-zahradnikova-iryna-mediclinic-a-s-most.html","310"
"9","Školka","MŠ Most, Františka Malíka","https://www.firmy.cz/detail/2281902-ms-most-frantiska-malika-most.html","115"
"10","Bus MHD","Most, Vodárna","","120"
"11","Obchod","Retail Park Most","https://www.firmy.cz/detail/13195413-retail-park-most-most.html","711"
"12","Sportoviště","TORNÁDO SPORT, s.r.o.","https://www.firmy.cz/detail/2461765-tornado-sport-most.html","150"
"13","Bankomat","Bankomat ČSOB","https://www.firmy.cz/detail/1423738-bankomat-csob-most.html","310"
"14","Vlak","Most","","2022"
"15","Škola","18. ZŠ Most","https://www.firmy.cz/detail/358329-18-zs-most-most.html","316"
"16","Tram","Most, Velebudická","","914"
"17","Pošta","Pošta Most 11 - Česká pošta, s.p.","https://www.firmy.cz/detail/216959-posta-most-11-most.html","723"
"18","Lékárna","LÉKÁRNA MOFA","https://www.firmy.cz/detail/422118-lekarna-mofa-most.html","310"
