"","facility_type","facility_name","facility_iri","facility_distance"
"0","Cukrárna","Cukrárna Italka","https://www.firmy.cz/detail/2358510-cukrarna-italka-havirov-mesto.html","321"
"1","Kino","Kino Centrum","https://www.firmy.cz/detail/12780436-kino-centrum-havirov-mesto.html","582"
"2","Hřiště","Dětské hřiště Vardasova","","208"
"3","Večerka","HRUŠKA","https://www.firmy.cz/detail/12819366-hruska-havirov-mesto.html","186"
"4","Hospoda","Hostinec U Lopaty","https://www.firmy.cz/detail/13148778-hostinec-u-lopaty-havirov-mesto.html","117"
"5","Veterinář","Veterinární ordinace Terra Vet","https://www.firmy.cz/detail/13330221-veterinarni-ordinace-terra-vet-havirov-mesto.html","300"
"6","Pošta","Pošta Havířov 12 - Česká pošta, s.p.","https://www.firmy.cz/detail/431633-posta-havirov-12-havirov-mesto.html","422"
"7","Škola","Základní škola Havířov-Město M. Kudeříkové 14 okres Karviná, příspěvková organizace","https://www.firmy.cz/detail/357051-zakladni-skola-havirov-mesto-m-kuderikove-14-okres-karvina-prispevkova-organizace-havirov-mesto.html","266"
"8","Bankomat","Bankomat Komerční banky","https://www.firmy.cz/detail/594094-bankomat-komercni-banky-havirov-mesto.html","210"
"9","Obchod","Obchodní centrum Elan","https://www.firmy.cz/detail/2181587-obchodni-centrum-elan-havirov-mesto.html","355"
"10","Restaurace","HUMR PIZZA","https://www.firmy.cz/detail/13323810-humr-pizza-havirov-mesto.html","200"
"11","Bus MHD","Havířov, Město, obchodní dům","","252"
"12","Školka","MŠ Havířov - Město, U Stromovky","https://www.firmy.cz/detail/2287366-ms-havirov-mesto-u-stromovky-havirov-mesto.html","99"
"13","Sportoviště","Discgolf Stromovka","","177"
"14","Lékař","MUDr. Danuše Tenčíková, s.r.o.","https://www.firmy.cz/detail/12830944-mudr-danuse-tencikova-havirov-mesto.html","242"
"15","Vlak","Havířov-střed","","812"
"16","Lékárna","BENU Lékárna","https://www.firmy.cz/detail/12875767-benu-lekarna-havirov-mesto.html","371"
