"","facility_type","facility_name","facility_iri","facility_distance"
"0","Cukrárna","OVOCNÝ SVĚTOZOR","https://www.firmy.cz/detail/13151180-ovocny-svetozor-praha-stodulky.html","780"
"1","Kino","Cinema City Zličín","https://www.firmy.cz/detail/436222-cinema-city-zlicin-praha-trebonice.html","1466"
"2","Přírodní zajímavost","Kovářovic mez","","4632"
"3","Hřiště","Dětské hřiště Vondroušova","","50"
"4","Večerka","Lidl","https://www.firmy.cz/detail/13211335-lidl-praha-repy.html","310"
"5","Hospoda","Pivní bar","https://www.firmy.cz/detail/13148067-pivni-bar-praha-repy.html","529"
"6","Divadlo","Divadelní studio Bubec","https://www.firmy.cz/detail/13047862-divadelni-studio-bubec-praha-reporyje.html","2970"
"7","Veterinář","Veterinární klinika Delta MVDr.Michael Růžička, s.r.o.","https://www.firmy.cz/detail/12957413-veterinarni-klinika-delta-mvdr-michael-ruzicka-praha-repy.html","289"
"8","Škola","ZŠ generálporučíka Františka Peřiny Praha 6","https://www.firmy.cz/detail/356218-zs-generalporucika-frantiska-periny-praha-6-praha-repy.html","200"
"9","Školka","MŠ Socháňova","https://www.firmy.cz/detail/457968-ms-sochanova-praha-repy.html","229"
"10","Bus MHD","Lidečská","","252"
"11","Restaurace","Restaurace Šalanda","https://www.firmy.cz/detail/13271112-restaurace-salanda-praha-repy.html","301"
"12","Lékař","MUDr. Peter Ritter","https://www.firmy.cz/detail/389646-mudr-peter-ritter-praha-repy.html","229"
"13","Vlak","Praha-Zličín","","423"
"14","Obchod","OC Řepy","https://www.firmy.cz/detail/13328774-oc-repy-praha-repy.html","445"
"15","Pošta","Pošta Praha 618 - Česká pošta, s.p.","https://www.firmy.cz/detail/431332-posta-praha-618-praha-repy.html","445"
"16","Tram","Blatiny","","303"
"17","Lékárna","Lékárna Makovského","https://www.firmy.cz/detail/2686056-lekarna-makovskeho-praha-repy.html","285"
"18","Metro","Zličín","","1372"
"19","Sportoviště","Tenisová škola TALLENT","https://www.firmy.cz/detail/722768-tenisova-skola-tallent-praha-repy.html","200"
"20","Bankomat","Bankomat České spořitelny","https://www.firmy.cz/detail/13220709-bankomat-ceske-sporitelny-praha-repy.html","311"
