"","facility_type","facility_name","facility_iri","facility_distance"
"0","Cukrárna","velo café, s.r.o.","https://www.firmy.cz/detail/13116437-velo-cafe-kromeriz.html","20"
"1","Kino","Kino Nadsklepí","https://www.firmy.cz/detail/12749352-kino-nadsklepi-kromeriz.html","348"
"2","Přírodní zajímavost","Soutok Moravy a Hané","","3751"
"3","Hřiště","Dětské hřiště Spáčilova","","439"
"4","Večerka","Potraviny Riegrovo náměstí","https://www.firmy.cz/detail/2347789-potraviny-riegrovo-namesti-kromeriz.html","228"
"5","Divadlo","Dům kultury v Kroměříži","https://www.firmy.cz/detail/397120-dum-kultury-v-kromerizi-kromeriz.html","425"
"6","Hospoda","Pivobar něžný barbar","https://www.firmy.cz/detail/13266849-pivobar-nezny-barbar-kromeriz.html","158"
"7","Veterinář","MVDr. Ivan Popelka","https://www.firmy.cz/detail/580071-mvdr-ivan-popelka-kromeriz.html","357"
"8","Sportoviště","Tělocvičná jednota Sokol Kroměříž","https://www.firmy.cz/detail/2138250-telocvicna-jednota-sokol-kromeriz-kromeriz.html","332"
"9","Bankomat","Bankomat České spořitelny","https://www.firmy.cz/detail/593077-bankomat-ceske-sporitelny-kromeriz.html","23"
"10","Lékárna","Lékárna Velké náměstí","https://www.firmy.cz/detail/12901289-lekarna-velke-namesti-kromeriz.html","100"
"11","Lékař","MUDr. Miroslava Molíková, s.r.o.","https://www.firmy.cz/detail/12793399-mudr-miroslava-molikova-kromeriz.html","273"
"12","Obchod","Albert Hypermarket","https://www.firmy.cz/detail/446933-albert-hypermarket-kromeriz.html","703"
"13","Restaurace","Ganga Indická Restaurace","https://www.firmy.cz/detail/13044430-ganga-indicka-restaurace-kromeriz.html","11"
"14","Pošta","Pošta Kroměříž 2 - Česká pošta, s.p.","https://www.firmy.cz/detail/216109-posta-kromeriz-2-kromeriz.html","157"
"15","Škola","Základní umělecká škola Kroměříž","https://www.firmy.cz/detail/427424-zakladni-umelecka-skola-kromeriz-kromeriz.html","172"
"16","Školka","Soukromá mateřská škola KAŠPÁREK, s.r.o.","https://www.firmy.cz/detail/13326832-soukroma-materska-skola-kasparek-kromeriz.html","346"
"17","Vlak","Kroměříž","","743"
"18","Bus MHD","Kroměříž, Tovačovského","","360"
