"","facility_type","facility_name","facility_iri","facility_distance"
"0","Hřiště","Dětské hřiště U Vozovny","https://mapy.cz/zakladni?x=18.1746013479&y=49.8335610596&z=17&source=base&id=2226189","170"
"1","Hospoda","Pivnice Panoramka","https://www.firmy.cz/detail/12918166-pivnice-panoramka-ostrava-poruba.html","302"
"2","Večerka","Potraviny U Vozovny","https://www.firmy.cz/detail/13340635-potraviny-u-vozovny-ostrava-poruba.html","111"
"3","Veterinář","Veterinární klinika Yorika","https://www.firmy.cz/detail/712067-veterinarni-klinika-yorika-ostrava-poruba.html","381"
"4","Divadlo","Porubské divadlo","https://www.firmy.cz/detail/2543038-porubske-divadlo-ostrava-poruba.html","1854"
"5","Cukrárna","Cukrárna Ollies","https://www.firmy.cz/detail/12720535-cukrarna-ollies-ostrava-poruba.html","411"
"6","Kino","5D cinema Maxim","https://www.firmy.cz/detail/12950606-5d-cinema-maxim-ostrava-zabreh.html","5288"
"7","Lékárna","Lékárna u vozovny, s.r.o.","https://www.firmy.cz/detail/13085414-lekarna-u-vozovny-ostrava-poruba.html","344"
"8","Tram","Poruba vozovna","https://mapy.cz/zakladni?x=18.1753514151&y=49.8326627311&z=17&source=pubt&id=15201820","226"
"9","Školka","Mateřská škola Sluníčko - Ostrava Poruba","https://www.firmy.cz/detail/12911419-materska-skola-slunicko-ostrava-poruba-ostrava-poruba.html","139"
"10","Škola","Speciální škola Diakonie ČCE Ostrava","https://www.firmy.cz/detail/13141417-specialni-skola-diakonie-cce-ostrava-ostrava-poruba.html","176"
"11","Restaurace","Burger Bar Poruba","https://www.firmy.cz/detail/13296366-burger-bar-poruba-ostrava-poruba.html","65"
"12","Lékař","MUDr. Jana Paličková","https://www.firmy.cz/detail/12864472-mudr-jana-palickova-ostrava-poruba.html","366"
"13","Bus MHD","Poruba vozovna","https://mapy.cz/zakladni?x=18.1721519892&y=49.8336850451&z=17&source=pubt&id=15201969","56"
"14","Sportoviště","Sportovní a rekreační zařízení města Ostravy","https://www.firmy.cz/detail/423310-sportovni-a-rekreacni-zarizeni-mesta-ostravy-ostrava-poruba.html","377"
"15","Pošta","Pošta Ostrava 8 - Česká pošta, s.p.","https://www.firmy.cz/detail/433404-posta-ostrava-8-ostrava-poruba.html","408"
"16","Bankomat","Bankomat Komerční banky","https://www.firmy.cz/detail/1357114-bankomat-komercni-banky-ostrava-poruba.html","231"
"17","Obchod","REKTOR, s.r.o.","https://www.firmy.cz/detail/12978812-rektor-ostrava-poruba.html","917"
"18","Vlak","Ostrava-Třebovice","https://mapy.cz/zakladni?x=18.1956703177&y=49.8420594647&z=17&source=pubt&id=15212381","1945"
