"","facility_type","facility_name","facility_iri","facility_distance"
"0","Cukrárna","Café Alegre","https://www.firmy.cz/detail/2384627-cafe-alegre-praha-smichov.html","1433"
"1","Kino","CineStar Anděl","https://www.firmy.cz/detail/2537565-cinestar-andel-praha-smichov.html","1440"
"2","Přírodní zajímavost","Kovářovic mez","","2773"
"3","Hřiště","Dětské hřiště Na Odbočce","","166"
"4","Večerka","Albert Supermarket","https://www.firmy.cz/detail/209468-albert-supermarket-praha-smichov.html","363"
"5","Hospoda","Hospůdka Knoflík","https://www.firmy.cz/detail/2253647-hospudka-knoflik-praha-smichov.html","1590"
"6","Divadlo","Divadlo Orfeus","https://www.firmy.cz/detail/413053-divadlo-orfeus-praha-kosire.html","962"
"7","Veterinář","Veterinární klinika - MVDr. Pavel Santar, MVDr. Miloš Sedlář","https://www.firmy.cz/detail/596786-veterinarni-klinika-mvdr-pavel-santar-mvdr-milos-sedlar-praha-kosire.html","729"
"8","Pošta","Pošta Praha 56 - Česká pošta, s.p.","https://www.firmy.cz/detail/452790-posta-praha-56-praha-kosire.html","975"
"9","Restaurace","Na Vinici","https://www.firmy.cz/detail/2660804-na-vinici-praha-smichov.html","289"
"10","Lékárna","Na Cihlářce","https://www.firmy.cz/detail/375354-na-cihlarce-praha-smichov.html","531"
"11","Metro","Radlická","","695"
"12","Bus MHD","Urbanova","","116"
"13","Tram","Radlická","","602"
"14","Škola","ZUŠ Popelka","https://www.firmy.cz/detail/399054-zus-popelka-praha-kosire.html","717"
"15","Bankomat","Bankomat České spořitelny","https://www.firmy.cz/detail/594871-bankomat-ceske-sporitelny-praha-radlice.html","707"
"16","Sportoviště","TJ Vltava Praha","https://www.firmy.cz/detail/222150-tj-vltava-praha-praha-kosire.html","520"
"17","Lékař","SPOLEČNOST PRO PRACOVNÍ MEDICÍNU s.r.o.","https://www.firmy.cz/detail/2035086-spolecnost-pro-pracovni-medicinu-s-r-o-praha-smichov.html","726"
"18","Školka","Mateřská škola Praha 5 - Košíře, Peroutkova","https://www.firmy.cz/detail/407402-materska-skola-praha-5-kosire-peroutkova-praha-kosire.html","110"
"19","Obchod","Tesco","https://www.firmy.cz/detail/733908-tesco-praha-smichov.html","1560"
"20","Vlak","Praha-Jinonice","","1299"
