"","facility_type","facility_name","facility_iri","facility_distance"
"0","Cukrárna","Cukrárna Lucie","https://www.firmy.cz/detail/418367-cukrarna-lucie-praha-zizkov.html","503"
"1","Kino","Kino Aero","https://www.firmy.cz/detail/399435-kino-aero-praha-zizkov.html","800"
"2","Přírodní zajímavost","Meandry Rokytky","","4142"
"3","Hřiště","Dětské hřiště náměstí barikád","","128"
"4","Večerka","ZUKVA s.r.o.","https://www.firmy.cz/detail/313667-zukva-s-r-o-praha-zizkov.html","54"
"5","Hospoda","Pivnice Radyně","https://www.firmy.cz/detail/1957129-pivnice-radyne-praha-zizkov.html","431"
"6","Divadlo","Divadlo (bez záruky) Praha","https://www.firmy.cz/detail/475801-divadlo-bez-zaruky-praha-praha-karlin.html","890"
"7","Veterinář","MVDr. Jan Dubský","https://www.firmy.cz/detail/674033-mvdr-jan-dubsky-praha-zizkov.html","575"
"8","Pošta","Pošta Praha 32 - Česká pošta, s.p.","https://www.firmy.cz/detail/217492-posta-praha-32-praha-zizkov.html","405"
"9","Lékárna","Lékárna U Zlatého slunce","https://www.firmy.cz/detail/374838-lekarna-u-zlateho-slunce-praha-karlin.html","663"
"10","Sportoviště","Sport Vítkov, s.r.o.","https://www.firmy.cz/detail/2596462-sport-vitkov-praha-zizkov.html","389"
"11","Bankomat","Bankomat České spořitelny","https://www.firmy.cz/detail/594300-bankomat-ceske-sporitelny-praha-zizkov.html","156"
"12","Lékař","MUDr. Karel Semerád","https://www.firmy.cz/detail/2008223-mudr-karel-semerad-praha-zizkov.html","441"
"13","Škola","Střední odborná škola podnikatelská PROFIT, spol. s r.o.","https://www.firmy.cz/detail/158675-stredni-odborna-skola-podnikatelska-profit-praha-zizkov.html","166"
"14","Vlak","Praha hlavní nádraží","","1831"
"15","Tram","Biskupcova","","550"
"16","Restaurace","Debaras.cz","https://www.firmy.cz/detail/2551350-debaras-cz-praha-zizkov.html","274"
"17","Školka","ZŠ a MŠ Praha 3, Chelčického","https://www.firmy.cz/detail/2488695-zs-a-ms-praha-3-chelcickeho-praha-zizkov.html","166"
"18","Bus MHD","Černínova","","7"
"19","Obchod","Kaufland","https://www.firmy.cz/detail/1545721-kaufland-praha-liben.html","1572"
"20","Metro","Křižíkova","","852"
