"","facility_type","facility_name","facility_iri","facility_distance"
"0","Cukrárna","Veselý králíček, s.r.o.","https://www.firmy.cz/detail/13017530-vesely-kralicek-praha-radotin.html","165"
"1","Kino","Kino Radotín","https://www.firmy.cz/detail/457358-kino-radotin-praha-radotin.html","274"
"2","Hřiště","Dětské hřiště Prvomájová","","73"
"3","Večerka","Albert Supermarket","https://www.firmy.cz/detail/229766-albert-supermarket-praha-radotin.html","173"
"4","Hospoda","Solární studio","https://www.firmy.cz/detail/13121637-solarni-studio-praha-radotin.html","165"
"5","Divadlo","Divadlo Jana Kašky","https://www.firmy.cz/detail/12978086-divadlo-jana-kasky-praha-zbraslav.html","2888"
"6","Veterinář","MVDr. Jana Srpová","https://www.firmy.cz/detail/1947782-mvdr-jana-srpova-praha-radotin.html","150"
"7","Školka","MŠ Praha - Radotín, Náměstí Osvoboditelů 1368","https://www.firmy.cz/detail/12941349-ms-praha-radotin-namesti-osvoboditelu-1368-praha-radotin.html","194"
"8","Bus MHD","Prvomájová","","140"
"9","Lékař","MUDr. Pavel Koňařík","https://www.firmy.cz/detail/13289828-mudr-pavel-konarik-praha-radotin.html","298"
"10","Vlak","Praha-Radotín","","361"
"11","Pošta","Pošta Praha 512 - Česká pošta, s.p.","https://www.firmy.cz/detail/217456-posta-praha-512-praha-radotin.html","209"
"12","Lékárna","Lékárna PharmDr. Jana Schwarzová","https://www.firmy.cz/detail/375675-lekarna-pharmdr-jana-schwarzova-praha-radotin.html","331"
"13","Škola","ZŠ, Praha 5, nám. Osvoboditelů","https://www.firmy.cz/detail/358996-zs-praha-5-nam-osvoboditelu-praha-radotin.html","194"
"14","Restaurace","Restaurace Na Růžku","https://www.firmy.cz/detail/13111562-restaurace-na-ruzku-praha-radotin.html","129"
"15","Bankomat","Bankomat MONETA Money Bank","https://www.firmy.cz/detail/2675410-bankomat-moneta-money-bank-praha-radotin.html","165"
"16","Obchod","Obchodní centrum Modřany","https://www.firmy.cz/detail/13045936-obchodni-centrum-modrany-praha-modrany.html","4742"
"17","Tram","Nádraží Modřany","","3747"
"18","Sportoviště","TJ Sokol Radotín","https://www.firmy.cz/detail/403935-tj-sokol-radotin-praha-radotin.html","322"
