"","facility_type","facility_name","facility_iri","facility_distance"
"0","Cukrárna","Pekařství Pec pod Sněžkou","https://www.firmy.cz/detail/13120606-pekarstvi-pec-pod-snezkou-pec-pod-snezkou.html","77"
"1","Přírodní zajímavost","Fucknerova Paseka","","3059"
"2","Hřiště","Lemurie","","329"
"3","Večerka","Potraviny Kubík – Pec pod Sněžkou","https://www.firmy.cz/detail/13068554-potraviny-kubik-pec-pod-snezkou-pec-pod-snezkou.html","129"
"4","Hospoda","Hospoda na Peci","https://www.firmy.cz/detail/13076357-hospoda-na-peci-pec-pod-snezkou.html","35"
"5","Lékař","MUDr. Zdeněk Vrtala","https://www.firmy.cz/detail/388982-mudr-zdenek-vrtala-pec-pod-snezkou-velka-upa.html","2738"
"6","Restaurace","Burger House PECR","https://www.firmy.cz/detail/13306707-burger-house-pecr-pec-pod-snezkou.html","0"
"7","Škola","ZŠ a MŠ Pec pod Sněžkou","https://www.firmy.cz/detail/358793-zs-a-ms-pec-pod-snezkou-pec-pod-snezkou.html","314"
"8","Pošta","Pošta Pec pod Sněžkou - Česká pošta, s.p.","https://www.firmy.cz/detail/215640-posta-pec-pod-snezkou-pec-pod-snezkou.html","326"
"9","Bus MHD","Pec p.Sněžkou, dopravní terminál","","708"
"10","Sportoviště","KlonDike skate spot","https://www.firmy.cz/detail/13311164-klondike-skate-spot-pec-pod-snezkou.html","76"
"11","Bankomat","Bankomat MONETA Money Bank","https://www.firmy.cz/detail/13082313-bankomat-moneta-money-bank-pec-pod-snezkou.html","77"
"12","Školka","ZŠ a MŠ Pec pod Sněžkou","https://www.firmy.cz/detail/730773-zs-a-ms-pec-pod-snezkou-pec-pod-snezkou.html","314"
