"","facility_type","facility_name","facility_iri","facility_distance"
"0","Cukrárna","Pekařství a kavárna DéKáčko","https://www.firmy.cz/detail/1531163-pekarstvi-a-kavarna-dekacko-jindrichuv-hradec-ii.html","145"
"1","Kino","KD Střelnice","https://www.firmy.cz/detail/2345094-kd-strelnice-jindrichuv-hradec-i.html","272"
"2","Hřiště","Dětské hřiště Mertovy sady","","365"
"3","Večerka","Jednota, spotřební družstvo v Jindřichově Hradci - COOP - TIP","https://www.firmy.cz/detail/2120508-jednota-spotrebni-druzstvo-v-jindrichove-hradci-coop-tip-jindrichuv-hradec-ii.html","225"
"4","Hospoda","Naše Hospoda Zlatá Husa","https://www.firmy.cz/detail/13239378-nase-hospoda-zlata-husa-jindrichuv-hradec-i.html","459"
"5","Veterinář","Veterinární klinika JHvet","https://www.firmy.cz/detail/13230485-veterinarni-klinika-jhvet-jindrichuv-hradec-ii.html","728"
"6","Pošta","Pošta Jindřichův Hradec 1 - Česká pošta, s.p.","https://www.firmy.cz/detail/217096-posta-jindrichuv-hradec-1-jindrichuv-hradec-ii.html","78"
"7","Sportoviště","Pohybové studio I.S.A.","https://www.firmy.cz/detail/13062172-pohybove-studio-i-s-a-jindrichuv-hradec-ii.html","27"
"8","Restaurace","Pivní bar Na váze","https://www.firmy.cz/detail/13108945-pivni-bar-na-vaze-jindrichuv-hradec-ii.html","52"
"9","Školka","4. MŠ Jindřichův Hradec, Röschova","https://www.firmy.cz/detail/1995337-4-ms-jindrichuv-hradec-roschova-jindrichuv-hradec-ii.html","351"
"10","Lékárna","BENU Lékárna","https://www.firmy.cz/detail/420965-benu-lekarna-jindrichuv-hradec-ii.html","179"
"11","Bus MHD","Jindřichův Hradec, Oděva","","37"
"12","Lékař","MUDr. Jitka Čechová","https://www.firmy.cz/detail/13228997-mudr-jitka-cechova-jindrichuv-hradec-ii.html","282"
"13","Škola","Soukromá střední škola obchodu, služeb a provozu hotelů, s.r.o.","https://www.firmy.cz/detail/269772-soukroma-stredni-skola-obchodu-sluzeb-a-provozu-hotelu-jindrichuv-hradec-ii.html","81"
"14","Obchod","Kaufland","https://www.firmy.cz/detail/1448707-kaufland-jindrichuv-hradec-iii.html","1474"
"15","Vlak","Jindřichův Hradec","","816"
"16","Bankomat","Bankomat České spořitelny","https://www.firmy.cz/detail/12736690-bankomat-ceske-sporitelny-jindrichuv-hradec-ii.html","15"
