"","facility_type","facility_name","facility_iri","facility_distance"
"0","Hřiště","Dětské hřiště","https://mapy.cz/zakladni?x=14.744283901&y=50.1584606277&z=17&source=base&id=2212976","116"
"1","Přírodní zajímavost","Budečská hráz","https://mapy.cz/zakladni?x=14.8084527778&y=50.1683&z=17&source=base&id=1832586","4710"
"2","Hospoda","Pivnice Mušketýr","https://www.firmy.cz/detail/13130919-pivnice-musketyr-celakovice.html","803"
"3","Večerka","Penny Market","https://www.firmy.cz/detail/207851-penny-market-celakovice.html","130"
"4","Kino","PRODANCE - letní kino","https://www.firmy.cz/detail/12968790-prodance-letni-kino-brandys-nad-labem-stara-boleslav-stara-boleslav.html","5361"
"5","Divadlo","Divadlo BlaMa","https://www.firmy.cz/detail/12760937-divadlo-blama-novy-vestec.html","3583"
"6","Cukrárna","Cukrárna v Pasáži","https://www.firmy.cz/detail/12889501-cukrarna-v-pasazi-celakovice.html","226"
"7","Veterinář","Veterinární ordinace ERVET","https://www.firmy.cz/detail/12973767-veterinarni-ordinace-ervet-celakovice.html","709"
"8","Vlak","Čelákovice","https://mapy.cz/zakladni?x=14.7543324552&y=50.1579910776&z=17&source=pubt&id=15211137","700"
"9","Pošta","Pošta Čelákovice - Česká pošta, s.p.","https://www.firmy.cz/detail/216807-posta-celakovice-celakovice.html","758"
"10","Bus MHD","Čelákovice, Toušeňská","https://mapy.cz/zakladni?x=14.743966&y=50.156085&z=17&source=pubt&id=15719733","155"
"11","Lékárna","BENU Lékárna Čelákovice","https://www.firmy.cz/detail/13072132-benu-lekarna-celakovice-celakovice.html","696"
"12","Lékař","MUDr. Svatopluk Ježek","https://www.firmy.cz/detail/389509-mudr-svatopluk-jezek-celakovice.html","438"
"13","Obchod","Tesco","https://www.firmy.cz/detail/12741887-tesco-celakovice.html","208"
"14","Škola","Střední odborná škola Čelákovice, s.r.o.","https://www.firmy.cz/detail/361733-stredni-odborna-skola-celakovice-celakovice.html","293"
"15","Sportoviště","Okresní rada Asociace školních sportovních klubů České republiky Praha - východ","https://www.firmy.cz/detail/13046499-okresni-rada-asociace-skolnich-sportovnich-klubu-ceske-republiky-praha-vychod-celakovice.html","558"
"16","Školka","Mateřská škola Čelákovice, Rumunská 1477, okres Praha-východ","https://www.firmy.cz/detail/407370-materska-skola-celakovice-rumunska-1477-okres-praha-vychod-celakovice.html","242"
"17","Restaurace","Nová Hospoda","https://www.firmy.cz/detail/567895-nova-hospoda-celakovice.html","331"
"18","Bankomat","Bankomat České spořitelny","https://www.firmy.cz/detail/12736377-bankomat-ceske-sporitelny-celakovice.html","208"
