"","facility_type","facility_name","facility_iri","facility_distance"
"0","Hřiště","Dětské hřiště Karla Čapka","https://mapy.cz/zakladni?x=12.5469908333&y=50.18307&z=17&source=base&id=1981688","54"
"1","Přírodní zajímavost","Kamenné pařezy","https://mapy.cz/zakladni?x=12.5724269&y=50.184645&z=17&source=base&id=2117199","1856"
"2","Hospoda","Monaco","https://www.firmy.cz/detail/13137333-monaco-habartov.html","470"
"3","Večerka","Vachtová, s.r.o.","https://www.firmy.cz/detail/13056094-vachtova-habartov.html","284"
"4","Divadlo","Loutkové divadélko Kahánek","https://www.firmy.cz/detail/2288094-loutkove-divadelko-kahanek-habartov.html","100"
"5","Veterinář","MVDr. Jan Kubát","https://www.firmy.cz/detail/1975333-mvdr-jan-kubat-habartov.html","274"
"6","Pošta","Pošta Habartov - Česká pošta, s.p.","https://www.firmy.cz/detail/216444-posta-habartov-habartov.html","274"
"7","Bus MHD","Habartov, škola","https://mapy.cz/zakladni?x=12.549968341261&y=50.179997692589&z=17&source=pubt&id=15246363","455"
"8","Lékař","MUDr. Jaroslav Málek, s.r.o.","https://www.firmy.cz/detail/12847820-mudr-jaroslav-malek-habartov.html","249"
"9","Sportoviště","TJ Baník Habartov","https://www.firmy.cz/detail/2648862-tj-banik-habartov-habartov.html","278"
"10","Školka","MŠ Duhová Habartov","https://www.firmy.cz/detail/2388915-ms-duhova-habartov-habartov.html","100"
"11","Bankomat","Bankomat České spořitelny","https://www.firmy.cz/detail/592105-bankomat-ceske-sporitelny-habartov.html","278"
"12","Škola","ZŠ Habartov","https://www.firmy.cz/detail/357029-zs-habartov-habartov.html","277"
"13","Vlak","Svatava zastávka","https://mapy.cz/zakladni?x=12.607253973&y=50.1974102742&z=17&source=pubt&id=15212953","4601"
"14","Restaurace","Restaurace Na Truhlárně","https://www.firmy.cz/detail/2175831-restaurace-na-truhlarne-habartov.html","170"
