"","facility_type","facility_name","facility_iri","facility_distance"
"0","Kino","Kino Humpolec","https://www.firmy.cz/detail/396383-kino-humpolec-humpolec.html","209"
"1","Hřiště","Dětské hřiště","","99"
"2","Večerka","COOP TIP","https://www.firmy.cz/detail/2159650-coop-tip-humpolec.html","199"
"3","Divadlo","Divadlo Za komínem z. s.","https://www.firmy.cz/detail/13214723-divadlo-za-kominem-z-s-humpolec.html","375"
"4","Hospoda","Spolkový dům","https://www.firmy.cz/detail/13139033-spolkovy-dum-humpolec.html","251"
"5","Veterinář","MVDr. František Pospíšil - veterinární ošetřovna","https://www.firmy.cz/detail/12826173-mvdr-frantisek-pospisil-veterinarni-osetrovna-humpolec.html","324"
"6","Škola","Gymnázium Dr. A. Hrdličky Humpolec","https://www.firmy.cz/detail/362604-gymnazium-dr-a-hrdlicky-humpolec-humpolec.html","142"
"7","Restaurace","Restaurant Bar Tennessee","https://www.firmy.cz/detail/2598115-restaurant-bar-tennessee-humpolec.html","90"
"8","Obchod","Kaufland","https://www.firmy.cz/detail/13293027-kaufland-humpolec.html","590"
"9","Lékař","MUDr. Jarmila Fučíková","https://www.firmy.cz/detail/387993-mudr-jarmila-fucikova-humpolec.html","338"
"10","Sportoviště","ČAKS - oblast Vysočina","https://www.firmy.cz/detail/2652589-caks-oblast-vysocina-humpolec.html","173"
"11","Pošta","Pošta Humpolec - Česká pošta, s.p.","https://www.firmy.cz/detail/215187-posta-humpolec-humpolec.html","132"
"12","Bus MHD","Humpolec, pošta","","86"
"13","Školka","MŠ Humpolec, Smetanova","https://www.firmy.cz/detail/720439-ms-humpolec-smetanova-humpolec.html","255"
"14","Vlak","Humpolec","","738"
"15","Lékárna","Dr.Max LÉKÁRNA","https://www.firmy.cz/detail/12725679-dr-max-lekarna-humpolec.html","272"
"16","Bankomat","Bankomat ČSOB","https://www.firmy.cz/detail/599230-bankomat-csob-humpolec.html","132"
