"","facility_type","facility_name","facility_iri","facility_distance"
"0","Cukrárna","Cukrárna Delikates","https://www.firmy.cz/detail/2218456-cukrarna-delikates-praha-vinohrady.html","102"
"1","Kino","Cinema City Flora","https://www.firmy.cz/detail/660712-cinema-city-flora-praha-zizkov.html","253"
"2","Přírodní zajímavost","Mokřad Triangl","","4741"
"3","Hřiště","Dětské hřiště Radhošťská","","216"
"4","Večerka","Albert Supermarket","https://www.firmy.cz/detail/229738-albert-supermarket-praha-zizkov.html","272"
"5","Divadlo","Hvězdné léto pod žižkovskou věží","https://www.firmy.cz/detail/13265384-hvezdne-leto-pod-zizkovskou-vezi-praha-zizkov.html","539"
"6","Hospoda","U Pižďucha","https://www.firmy.cz/detail/337127-u-pizducha-praha-zizkov.html","1035"
"7","Veterinář","Veterinární klinika Fénix","https://www.firmy.cz/detail/2132602-veterinarni-klinika-fenix-praha-vinohrady.html","371"
"8","Lékárna","BENU Lékárna","https://www.firmy.cz/detail/2691909-benu-lekarna-praha-zizkov.html","231"
"9","Bus MHD","Flora","","203"
"10","Pošta","Pošta Praha 31 - Česká pošta, s.p.","https://www.firmy.cz/detail/217421-posta-praha-31-praha-vinohrady.html","368"
"11","Restaurace","Highland Steak House","https://www.firmy.cz/detail/2208593-highland-steak-house-praha-zizkov.html","92"
"12","Tram","Radhošťská","","90"
"13","Sportoviště","Tenisová škola TALLENT","https://www.firmy.cz/detail/2591478-tenisova-skola-tallent-praha-vinohrady.html","361"
"14","Metro","Flora","","229"
"15","Škola","Základní škola, Praha 3, Perunova","https://www.firmy.cz/detail/2392606-zakladni-skola-praha-3-perunova-praha-vinohrady.html","361"
"16","Lékař","MUDr. František Páša","https://www.firmy.cz/detail/387500-mudr-frantisek-pasa-praha-vinohrady.html","460"
"17","Školka","Mateřská škola, Praha 3, Perunova","https://www.firmy.cz/detail/358972-materska-skola-praha-3-perunova-praha-vinohrady.html","361"
"18","Bankomat","Bankomat České spořitelny","https://www.firmy.cz/detail/594768-bankomat-ceske-sporitelny-praha-vinohrady.html","129"
"19","Vlak","Praha hlavní nádraží","","1570"
"20","Obchod","PAVILON, a.s.","https://www.firmy.cz/detail/451685-pavilon-praha-vinohrady.html","1119"
