"","facility_type","facility_name","facility_iri","facility_distance"
"0","Hřiště","Dětské hřiště Fillova","https://mapy.cz/zakladni?x=14.4445521334&y=50.0426363577&z=17&source=base&id=1927359","203"
"1","Veterinář","Veterinární klinika zelená liška","https://www.firmy.cz/detail/655752-veterinarni-klinika-zelena-liska-praha-krc.html","226"
"2","Cukrárna","La Terra Coffee","https://www.firmy.cz/detail/12898977-la-terra-coffee-praha-krc.html","312"
"3","Večerka","Lidl","https://www.firmy.cz/detail/2637884-lidl-praha-krc.html","282"
"4","Kino","HopeTV","https://www.firmy.cz/detail/672889-hopetv-praha-vinohrady.html","3272"
"5","Hospoda","Hostinec U Procházků","https://www.firmy.cz/detail/573112-hostinec-u-prochazku-praha-krc.html","462"
"6","Divadlo","Divadlo Na Jezerce","https://www.firmy.cz/detail/496550-divadlo-na-jezerce-praha-nusle.html","1516"
"7","Sportoviště","TJ Zelená Liška","https://www.firmy.cz/detail/2648782-tj-zelena-liska-praha-krc.html","401"
"8","Bus MHD","Krčská","https://mapy.cz/zakladni?x=14.443153557040942&y=50.04356278964617&z=17&source=pubt&id=15302361","152"
"9","Pošta","Pošta Praha 42 - Česká pošta, s.p.","https://www.firmy.cz/detail/217484-posta-praha-42-praha-krc.html","245"
"10","Restaurace","Restaurace Botanic","https://www.firmy.cz/detail/12713107-restaurace-botanic-praha-krc.html","110"
"11","Obchod","OC DBK Budějovická","https://www.firmy.cz/detail/169885-oc-dbk-budejovicka-praha-krc.html","330"
"12","Metro","Budějovická","https://mapy.cz/zakladni?x=14.4476663217&y=50.0447839354&z=17&source=pubt&id=15200205","210"
"13","Lékárna","BENU Lékárna","https://www.firmy.cz/detail/12848189-benu-lekarna-praha-krc.html","200"
"14","Tram","Pankrác","https://mapy.cz/zakladni?x=14.43908&y=50.05223&z=17&source=pubt&id=19802667","955"
"15","Bankomat","Raiffeisenbank - bankomat","https://www.firmy.cz/detail/631178-raiffeisenbank-bankomat-praha-krc.html","200"
"16","Vlak","Praha-Krč","https://mapy.cz/zakladni?x=14.4459680257&y=50.0341635187&z=17&source=pubt&id=15212570","1148"
"17","Školka","MŠ Praha 4, Fillova","https://www.firmy.cz/detail/406807-ms-praha-4-fillova-praha-krc.html","212"
"18","Lékař","MUDR. JIŘÍ BROŽ, PRAKTICKÝ LÉKAŘ","https://www.firmy.cz/detail/387599-mudr-jiri-broz-prakticky-lekar-praha-krc.html","329"
"19","Škola","Vyšší odborná škola informačních služeb, Praha 4","https://www.firmy.cz/detail/362387-vyssi-odborna-skola-informacnich-sluzeb-praha-4-praha-krc.html","227"
