"","facility_type","facility_name","facility_iri","facility_distance"
"0","Cukrárna","Cukrárna U Gymplu","https://www.firmy.cz/detail/13163932-cukrarna-u-gymplu-trutnov-stredni-predmesti.html","2117"
"1","Kino","Kino Vesmír","https://www.firmy.cz/detail/2658912-kino-vesmir-trutnov-dolni-predmesti.html","2292"
"2","Přírodní zajímavost","Čížkovy kameny","","2676"
"3","Hřiště","Dětské hřiště Petříkovická","","1674"
"4","Večerka","Potraviny Dianka","https://www.firmy.cz/detail/1973729-potraviny-dianka-trutnov-porici.html","381"
"5","Hospoda","Pivní bar u Truta","https://www.firmy.cz/detail/13239481-pivni-bar-u-truta-trutnov-dolni-predmesti.html","1974"
"6","Veterinář","Trutnov - Vet s.r.o.","https://www.firmy.cz/detail/13163091-trutnov-vet-s-r-o-trutnov-dolni-predmesti.html","1125"
"7","Obchod","Albert Hypermarket","https://www.firmy.cz/detail/447235-albert-hypermarket-trutnov-horni-predmesti.html","3599"
"8","Bus MHD","Trutnov, Poříčí, Ječná","","230"
"9","Sportoviště","SK Horská Trutnov, z.s.","https://www.firmy.cz/detail/2228008-sk-horska-trutnov-z-s-trutnov-porici.html","0"
"10","Škola","ZŠ Trutnov, Náchodská","https://www.firmy.cz/detail/359731-zs-trutnov-nachodska-trutnov-porici.html","569"
"11","Pošta","Pošta Trutnov 3 - Česká pošta, s.p.","https://www.firmy.cz/detail/215641-posta-trutnov-3-trutnov-porici.html","307"
"12","Lékař","SALUS AEGROTI, s.r.o.","https://www.firmy.cz/detail/12840174-salus-aegroti-trutnov.html","131"
"13","Vlak","Trutnov střed","","592"
"14","Bankomat","Bankomat Komerční banky","https://www.firmy.cz/detail/592580-bankomat-komercni-banky-trutnov-porici.html","1138"
"15","Školka","MŠ Trutnov, Benešova","https://www.firmy.cz/detail/2391583-ms-trutnov-benesova-trutnov-porici.html","432"
"16","Restaurace","LA Burger","https://www.firmy.cz/detail/13288749-la-burger-trutnov-porici.html","0"
"17","Lékárna","Dr. Max LÉKÁRNA","https://www.firmy.cz/detail/13323887-dr-max-lekarna-trutnov-dolni-predmesti.html","1688"
