"","facility_type","facility_name","facility_iri","facility_distance"
"0","Cukrárna","Katrin cake&coffee","https://www.firmy.cz/detail/13121486-katrin-cake-coffee-olomouc-nova-ulice.html","469"
"1","Hřiště","Dětské hřiště Na Vozovce","","311"
"2","Kino","Kino METROPOL","https://www.firmy.cz/detail/12773593-kino-metropol-olomouc.html","1142"
"3","Večerka","Potraviny U Renči","https://www.firmy.cz/detail/13113867-potraviny-u-renci-olomouc-nova-ulice.html","281"
"4","Hospoda","Hospůdka U Kuděje","https://www.firmy.cz/detail/13124006-hospudka-u-kudeje-olomouc-nova-ulice.html","561"
"5","Veterinář","Veterinární klinika MVDr. Michael Mazoch, s.r.o.","https://www.firmy.cz/detail/12906915-veterinarni-klinika-mvdr-michael-mazoch-s-r-o-olomouc-neredin.html","537"
"6","Divadlo","Divadlo Tramtarie","https://www.firmy.cz/detail/594401-divadlo-tramtarie-olomouc-nova-ulice.html","722"
"7","Lékárna","Mgr. Pavel Kalman","https://www.firmy.cz/detail/308543-mgr-pavel-kalman-olomouc-nova-ulice.html","467"
"8","Restaurace","Bluesbar GARCH","https://www.firmy.cz/detail/13286329-bluesbar-garch-olomouc.html","153"
"9","Bus MHD","Svornosti","","155"
"10","Škola","ZŠ a MŠ logopedická Olomouc","https://www.firmy.cz/detail/232162-zs-a-ms-logopedicka-olomouc-olomouc-nova-ulice.html","263"
"11","Obchod","OD TIMPO, s.r.o.","https://www.firmy.cz/detail/642623-od-timpo-olomouc-nova-ulice.html","576"
"12","Tram","Šibeník","","165"
"13","Školka","MŠ Olomouc, Mozartova","https://www.firmy.cz/detail/13047505-ms-olomouc-mozartova-olomouc-nova-ulice.html","127"
"14","Vlak","Olomouc město","","361"
"15","Sportoviště","Lezecké centrum PAJKLAND","https://www.firmy.cz/detail/419167-lezecke-centrum-pajkland-olomouc-nova-ulice.html","523"
"16","Lékař","G.P.A. ambulance, s.r.o.","https://www.firmy.cz/detail/12834008-g-p-a-ambulance-olomouc-nova-ulice.html","275"
"17","Bankomat","Bankomat Komerční banky","https://www.firmy.cz/detail/594311-bankomat-komercni-banky-olomouc-nova-ulice.html","196"
"18","Pošta","Pošta Olomouc 4 - Česká pošta, s.p.","https://www.firmy.cz/detail/13029623-posta-olomouc-4-olomouc-nova-ulice.html","268"
