"","facility_type","facility_name","facility_iri","facility_distance"
"0","Cukrárna","Cukrárna Kavárna - Prokopovy Dorty","https://www.firmy.cz/detail/12838524-cukrarna-kavarna-prokopovy-dorty-ostrava-vyskovice.html","1211"
"1","Kino","Kino Luna","https://www.firmy.cz/detail/2642805-kino-luna-ostrava-zabreh.html","1576"
"2","Přírodní zajímavost","Zábřežský bludný balvan","","3727"
"3","Hřiště","Dětské hřiště Srbská","","209"
"4","Večerka","Můjobchod - Potraviny Jičínská","https://www.firmy.cz/detail/13255916-mujobchod-potraviny-jicinska-ostrava-vyskovice.html","124"
"5","Hospoda","Restaurace Vrtule","https://www.firmy.cz/detail/13117046-restaurace-vrtule-ostrava-vyskovice.html","408"
"6","Divadlo","Divadlo U Lípy","https://www.firmy.cz/detail/2121467-divadlo-u-lipy-ostrava-zabreh.html","3232"
"7","Veterinář","MVDr. Dana Premusová","https://www.firmy.cz/detail/1971765-mvdr-dana-premusova-ostrava-vyskovice.html","353"
"8","Sportoviště","CDU SPORT, s.r.o.","https://www.firmy.cz/detail/202757-cdu-sport-ostrava-vyskovice.html","751"
"9","Školka","MŠ Ostrava - Výškovice, Srbská","https://www.firmy.cz/detail/2287315-ms-ostrava-vyskovice-srbska-ostrava-vyskovice.html","175"
"10","Lékař","MUDr. Alena Tichá","https://www.firmy.cz/detail/387885-mudr-alena-ticha-ostrava-vyskovice.html","478"
"11","Pošta","Pošta Ostrava 47 - Česká pošta, s.p.","https://www.firmy.cz/detail/12970259-posta-ostrava-47-ostrava-vyskovice.html","478"
"12","Obchod","REKTOR, s.r.o.","https://www.firmy.cz/detail/12978808-rektor-ostrava-vyskovice.html","408"
"13","Bus MHD","Výškovice","","83"
"14","Bankomat","Bankomat České spořitelny","https://www.firmy.cz/detail/593855-bankomat-ceske-sporitelny-ostrava-vyskovice.html","358"
"15","Restaurace","Stračena Pub","https://www.firmy.cz/detail/13008619-stracena-pub-ostrava-vyskovice.html","408"
"16","Lékárna","Lékárna Terapeut","https://www.firmy.cz/detail/227569-lekarna-terapeut-ostrava-vyskovice.html","478"
"17","Tram","Výškovice","","91"
"18","Škola","ZŠ Ostrava-Výškovice, Srbská","https://www.firmy.cz/detail/358726-zs-ostrava-vyskovice-srbska-ostrava-vyskovice.html","315"
"19","Vlak","Polanka nad Odrou","","2517"
