"","facility_type","facility_name","facility_iri","facility_distance"
"0","Cukrárna","Vinohradské dorty","https://www.firmy.cz/detail/13199036-vinohradske-dorty-praha-vinohrady.html","136"
"1","Kino","Spoiler - Filmový klub, z.s.","https://www.firmy.cz/detail/396379-spoiler-filmovy-klub-z-s-praha-zizkov.html","603"
"2","Hřiště","Dětské hřiště Riegrovy sady","","219"
"3","Večerka","Potraviny Kubelíkova","https://www.firmy.cz/detail/2470833-potraviny-kubelikova-praha-zizkov.html","249"
"4","Hospoda","U Pižďucha","https://www.firmy.cz/detail/337127-u-pizducha-praha-zizkov.html","609"
"5","Divadlo","Hvězdné léto pod žižkovskou věží","https://www.firmy.cz/detail/13265384-hvezdne-leto-pod-zizkovskou-vezi-praha-zizkov.html","436"
"6","Veterinář","Veterinární klinika Panda","https://www.firmy.cz/detail/166785-veterinarni-klinika-panda-praha-vinohrady.html","25"
"7","Bus MHD","U Prdlavky","","137"
"8","Lékař","MUDr. Jana Krausová","https://www.firmy.cz/detail/389001-mudr-jana-krausova-praha-vinohrady.html","302"
"9","Škola","Základní škola, Praha 3, nám. Jiřího z Poděbrad 7,8/1685","https://www.firmy.cz/detail/356148-zakladni-skola-praha-3-nam-jiriho-z-podebrad-7-8-1685-praha-vinohrady.html","267"
"10","Restaurace","Pizza Mňam","https://www.firmy.cz/detail/2217572-pizza-mnam-praha-vinohrady.html","105"
"11","Lékárna","Lékarna Na Žižkově","https://www.firmy.cz/detail/423199-lekarna-na-zizkove-praha-zizkov.html","258"
"12","Sportoviště","Tenisová škola Vinohrady – Jiří Brázda","https://www.firmy.cz/detail/433988-tenisova-skola-vinohrady-jiri-brazda-praha-vinohrady.html","604"
"13","Školka","Piccole Pesti, s.r.o.","https://www.firmy.cz/detail/2521490-piccole-pesti-praha-vinohrady.html","143"
"14","Tram","Jiřího z Poděbrad","","357"
"15","Obchod","PAVILON, a.s.","https://www.firmy.cz/detail/451685-pavilon-praha-vinohrady.html","426"
"16","Bankomat","Bankomat Euronet","https://www.firmy.cz/detail/2372733-bankomat-euronet-praha-vinohrady.html","445"
"17","Metro","Jiřího z Poděbrad","","324"
"18","Pošta","Pošta Praha 33 - Česká pošta, s.p.","https://www.firmy.cz/detail/1994123-posta-praha-33-praha-vinohrady.html","505"
"19","Vlak","Praha hlavní nádraží","","732"
