"","facility_type","facility_name","facility_iri","facility_distance"
"0","Hřiště","Dětské hřiště Školní park","https://mapy.cz/zakladni?x=18.4277251236&y=49.7835492327&z=17&source=base&id=1929016","218"
"1","Večerka","HRUŠKA","https://www.firmy.cz/detail/12819366-hruska-havirov-mesto.html","113"
"2","Cukrárna","Cukrárna Lada","https://www.firmy.cz/detail/12908208-cukrarna-lada-havirov.html","362"
"3","Hospoda","Hostinec U Lopaty","https://www.firmy.cz/detail/13148778-hostinec-u-lopaty-havirov-mesto.html","183"
"4","Veterinář","Veterinární ordinace Terra Vet","https://www.firmy.cz/detail/13330221-veterinarni-ordinace-terra-vet-havirov-mesto.html","328"
"5","Kino","Letní kino - Městské kulturní středisko Havířov","https://www.firmy.cz/detail/13072791-letni-kino-havirov.html","762"
"6","Lékárna","BENU Lékárna","https://www.firmy.cz/detail/12875767-benu-lekarna-havirov-mesto.html","629"
"7","Obchod","Obchodní centrum Elan","https://www.firmy.cz/detail/2181587-obchodni-centrum-elan-havirov-mesto.html","616"
"8","Školka","MŠ Havířov, Místní","https://www.firmy.cz/detail/2513460-ms-havirov-mistni-havirov-mesto.html","190"
"9","Vlak","Havířov-střed","https://mapy.cz/zakladni?x=18.439728302264&y=49.788244092890395&z=17&source=pubt&id=15711416","927"
"10","Lékař","MUDr. Danuše Tenčíková, s.r.o.","https://www.firmy.cz/detail/12830944-mudr-danuse-tencikova-havirov-mesto.html","385"
"11","Pošta","Pošta Havířov 12 - Česká pošta, s.p.","https://www.firmy.cz/detail/431633-posta-havirov-12-havirov-mesto.html","271"
"12","Bankomat","Bankomat České spořitelny","https://www.firmy.cz/detail/592112-bankomat-ceske-sporitelny-havirov-mesto.html","338"
"13","Restaurace","Zappa’s Restaurant Havířov","https://www.firmy.cz/detail/13233355-zappa-s-restaurant-havirov-havirov-mesto.html","249"
"14","Sportoviště","Discgolf Stromovka","https://mapy.cz/zakladni?x=18.4317372222&y=49.7852713889&z=17&source=base&id=1982534","303"
"15","Bus MHD","Havířov, Město, Magistrát","https://mapy.cz/zakladni?x=18.4236765179704&y=49.7840930666904&z=17&source=pubt&id=15331143","318"
"16","Škola","Základní škola Havířov - Město Gorkého 1/329 okres Karviná","https://www.firmy.cz/detail/357050-zakladni-skola-havirov-mesto-gorkeho-1-329-okres-karvina-havirov-mesto.html","120"
