"","facility_type","facility_name","facility_iri","facility_distance"
"0","Cukrárna","Pekárna-cukrárna Vejprnice, s.r.o.","https://www.firmy.cz/detail/13138223-pekarna-cukrarna-vejprnice-vejprnice.html","2548"
"1","Hřiště","Dětské hřiště Na Čampuli","","56"
"2","Večerka","Můjobchod - Potraviny Na Čampuli","https://www.firmy.cz/detail/12997807-mujobchod-potraviny-na-campuli-tlucna.html","104"
"3","Hospoda","Ve Dvorku","https://www.firmy.cz/detail/13182936-ve-dvorku-nyrany.html","2150"
"4","Veterinář","MVDr. Lenka Holečková","https://www.firmy.cz/detail/2132687-mvdr-lenka-holeckova-tlucna.html","1285"
"5","Školka","ZŠ s MŠ Tlučná","https://www.firmy.cz/detail/2640120-zs-s-ms-tlucna-tlucna.html","791"
"6","Vlak","Tlučná","","529"
"7","Sportoviště","Koupaliště Tlučná","https://www.firmy.cz/detail/12764011-koupaliste-tlucna-tlucna.html","1313"
"8","Lékárna","Lékárna Devětsil","https://www.firmy.cz/detail/2501281-lekarna-devetsil-tlucna.html","716"
"9","Bus MHD","Tlučná, Čampule","","50"
"10","Restaurace","Pohostinství Salon","https://www.firmy.cz/detail/13116048-pohostinstvi-salon-tlucna.html","118"
"11","Lékař","MUDr. Jitka Sevelková","https://www.firmy.cz/detail/12864345-mudr-jitka-sevelkova-tlucna.html","791"
"12","Pošta","Pošta Tlučná - Česká pošta, s.p.","https://www.firmy.cz/detail/216534-posta-tlucna-tlucna.html","713"
"13","Bankomat","Bankomat Komerční banky","https://www.firmy.cz/detail/594645-bankomat-komercni-banky-nyrany.html","2390"
"14","Škola","ZŠ s MŠ Tlučná","https://www.firmy.cz/detail/359700-zs-s-ms-tlucna-tlucna.html","913"
