"","facility_type","facility_name","facility_iri","facility_distance"
"0","Hřiště","Dětské hřiště Karla Hlaváčka","https://mapy.cz/zakladni?x=14.4775340949&y=50.1154106335&z=17&source=base&id=1926987","260"
"1","Přírodní zajímavost","Meandry Rokytky","https://mapy.cz/zakladni?x=14.517104002655032&y=50.098337103299386&z=17&source=base&id=2338360","3660"
"2","Večerka","Potraviny V Zahradách","https://www.firmy.cz/detail/12811465-potraviny-v-zahradach-praha.html","251"
"3","Hospoda","Bar U Felixe","https://www.firmy.cz/detail/12935261-bar-u-felixe-praha-liben.html","584"
"4","Cukrárna","Kavárna pod Palmovkou","https://www.firmy.cz/detail/230739-kavarna-pod-palmovkou-praha-liben.html","1272"
"5","Divadlo","Divadlo pod Palmovkou","https://www.firmy.cz/detail/396881-divadlo-pod-palmovkou-praha-liben.html","1272"
"6","Veterinář","Veterinární ordinace Svobodník","https://www.firmy.cz/detail/12879014-veterinarni-ordinace-svobodnik-praha-liben.html","581"
"7","Kino","Kino Aero","https://www.firmy.cz/detail/399435-kino-aero-praha-zizkov.html","2959"
"8","Bus MHD","Čertův vršek","https://mapy.cz/zakladni?x=14.474054189254781&y=50.11728792289535&z=17&source=pubt&id=15304684","65"
"9","Restaurace","Restaurace u Felixe","https://www.firmy.cz/detail/2364050-restaurace-u-felixe-praha-liben.html","584"
"10","Tram","Vosmíkových","https://mapy.cz/zakladni?x=14.47357&y=50.11439&z=17&source=pubt&id=17138518","289"
"11","Metro","Ládví","https://mapy.cz/zakladni?x=14.4699200357245&y=50.1262360184081&z=17&source=pubt&id=18739348","1094"
"12","Školka","Školka Kačenka","https://www.firmy.cz/detail/12938568-skolka-kacenka-praha-liben.html","231"
"13","Bankomat","Bankomat České spořitelny","https://www.firmy.cz/detail/594940-bankomat-ceske-sporitelny-praha-liben.html","756"
"14","Škola","ZŠ Bohumila Hrabala, Praha 8","https://www.firmy.cz/detail/2258937-zs-bohumila-hrabala-praha-8-praha-liben.html","523"
"15","Lékař","MUDr. Zdeňka Bártlová","https://www.firmy.cz/detail/12742522-mudr-zdenka-bartlova-praha-liben.html","809"
"16","Sportoviště","Roman Kühnert","https://www.firmy.cz/detail/2508502-roman-kuhnert-praha-liben.html","559"
"17","Lékárna","Lékárna - Fakultní nemocnice na Bulovce","https://www.firmy.cz/detail/659788-lekarna-fakultni-nemocnice-na-bulovce-praha-liben.html","771"
"18","Pošta","Pošta Praha 85 - Česká pošta, s.p.","https://www.firmy.cz/detail/658903-posta-praha-85-praha-kobylisy.html","1088"
"19","Obchod","Kaufland","https://www.firmy.cz/detail/1457859-kaufland-praha-liben.html","1324"
"20","Vlak","Praha-Vysočany","https://mapy.cz/zakladni?x=14.4975508502&y=50.1123429996&z=17&source=pubt&id=15698647","1705"
