"","facility_type","facility_name","facility_iri","facility_distance"
"0","Cukrárna","SMAJLÍKOV","https://www.firmy.cz/detail/12890112-smajlikov-uherske-hradiste.html","850"
"1","Kino","Kino Hvězda Uherské Hradiště","https://www.firmy.cz/detail/457216-kino-hvezda-uherske-hradiste-uherske-hradiste.html","460"
"2","Přírodní zajímavost","Soutok Moravy a Olšavy","","4910"
"3","Hřiště","Dětské hřiště Za Plotem","","406"
"4","Večerka","COOP","https://www.firmy.cz/detail/2196644-coop-uherske-hradiste.html","61"
"5","Hospoda","Bistro Fontána","https://www.firmy.cz/detail/13114921-bistro-fontana-uherske-hradiste.html","67"
"6","Divadlo","Slovácké divadlo Uherské Hradiště","https://www.firmy.cz/detail/396981-slovacke-divadlo-uherske-hradiste-uherske-hradiste.html","1111"
"7","Veterinář","MVDr. Jakub Kaděra","https://www.firmy.cz/detail/649243-mvdr-jakub-kadera-uherske-hradiste-maratice.html","1088"
"8","Bus MHD","Mařatice, dol.konec","","135"
"9","Obchod","Kaufland","https://www.firmy.cz/detail/2200788-kaufland-uherske-hradiste-maratice.html","299"
"10","Lékař","MUDr. Bačová Lenka, s.r.o.","https://www.firmy.cz/detail/12862262-mudr-bacova-lenka-uherske-hradiste-maratice.html","107"
"11","Vlak","Uherské Hradiště","","1298"
"12","Pošta","Pošta Uherské Hradiště 5 - Česká pošta, s.p.","https://www.firmy.cz/detail/433397-posta-uherske-hradiste-5-uherske-hradiste-maratice.html","549"
"13","Lékárna","Dr. Max","https://www.firmy.cz/detail/2007353-dr-max-uherske-hradiste-maratice.html","265"
"14","Restaurace","La Brusla","https://www.firmy.cz/detail/12822695-la-brusla-uherske-hradiste.html","113"
"15","Bankomat","Bankomat MONETA Money Bank","https://www.firmy.cz/detail/659747-bankomat-moneta-money-bank-uherske-hradiste-maratice.html","257"
"16","Školka","MŠ Uherské Hradiště 28. října","https://www.firmy.cz/detail/2153536-ms-uherske-hradiste-28-rijna-uherske-hradiste.html","139"
"17","Sportoviště","Sport centrum Slovácká","https://www.firmy.cz/detail/479716-sport-centrum-slovacka-uherske-hradiste.html","342"
"18","Škola","ZŠ Uherské Hradiště, Sportovní","https://www.firmy.cz/detail/398966-zs-uherske-hradiste-sportovni-uherske-hradiste.html","194"
