"","facility_type","facility_name","facility_iri","facility_distance"
"0","Cukrárna","Karlovarské trdlo","https://www.firmy.cz/detail/13122218-karlovarske-trdlo-karlovy-vary.html","285"
"1","Kino","Letní KINO - Karlovy Vary","https://www.firmy.cz/detail/13330018-letni-kino-karlovy-vary-karlovy-vary.html","808"
"2","Přírodní zajímavost","Karlův hvozd","","373"
"3","Hřiště","Dětské hřiště Tylova","","45"
"4","Večerka","Mini Market U Divadla","https://www.firmy.cz/detail/13325174-mini-market-u-divadla-karlovy-vary.html","108"
"5","Hospoda","John Jameson Pub","https://www.firmy.cz/detail/654285-john-jameson-pub-karlovy-vary.html","1503"
"6","Divadlo","Karlovarské městské divadlo, o.p.s.","https://www.firmy.cz/detail/12756821-karlovarske-mestske-divadlo-o-p-s-karlovy-vary.html","118"
"7","Veterinář","MVDr. Eva Tichá","https://www.firmy.cz/detail/2656349-mvdr-eva-ticha-karlovy-vary-rybare.html","2270"
"8","Škola","Středisko praktického vyučování GRANDHOTEL PUPP, o.p.s.","https://www.firmy.cz/detail/340094-stredisko-praktickeho-vyucovani-grandhotel-pupp-karlovy-vary.html","267"
"9","Bankomat","Bankomat Euronet","https://www.firmy.cz/detail/13055628-bankomat-euronet-karlovy-vary.html","54"
"10","Restaurace","#ID Bar & Restaurant","https://www.firmy.cz/detail/13198475--id-bar-restaurant-karlovy-vary.html","79"
"11","Sportoviště","Sportcentrum Imperial","https://www.firmy.cz/detail/2658628-sportcentrum-imperial-karlovy-vary.html","301"
"12","Lékárna","CENTRAL APOTHEKE","https://www.firmy.cz/detail/13203922-central-apotheke-karlovy-vary.html","241"
"13","Vlak","Karlovy Vary dolní nádraží","","1764"
"14","Obchod","Obchodní centrum Perla","https://www.firmy.cz/detail/13219298-obchodni-centrum-perla-karlovy-vary.html","1290"
"15","Lékař","Barak & Debora s.r.o.","https://www.firmy.cz/detail/12840327-barak-debora-s-r-o-karlovy-vary.html","485"
"16","Školka","ZŠ a MŠ při zdravotnických zařízeních Karlovy Vary","https://www.firmy.cz/detail/12736566-zs-a-ms-pri-zdravotnickych-zarizenich-karlovy-vary-karlovy-vary.html","1645"
"17","Bus MHD","Lázně I","","104"
"18","Pošta","Pošta Karlovy Vary 1 - Česká pošta, s.p.","https://www.firmy.cz/detail/217581-posta-karlovy-vary-1-karlovy-vary.html","1171"
