"","facility_type","facility_name","facility_iri","facility_distance"
"0","Cukrárna","Cukrárna Emil Gaigher","https://www.firmy.cz/detail/12719971-cukrarna-emil-gaigher-pisek-budejovicke-predmesti.html","227"
"1","Kino","Kino Portyč","https://www.firmy.cz/detail/13061398-kino-portyc-pisek-prazske-predmesti.html","693"
"2","Hřiště","Dětské hřiště Mírové náměstí","","263"
"3","Večerka","Jednota, spotřební družstvo v Milevsku, okres Písek - prodejna COOP TUTY","https://www.firmy.cz/detail/2121350-jednota-spotrebni-druzstvo-v-milevsku-okres-pisek-prodejna-coop-tuty-pisek-budejovicke-predmesti.html","232"
"4","Hospoda","Hospoda U Kuliče","https://www.firmy.cz/detail/1326709-hospoda-u-kulice-pisek-budejovicke-predmesti.html","471"
"5","Divadlo","Divadlo Pod čarou","https://www.firmy.cz/detail/397064-divadlo-pod-carou-pisek-budejovicke-predmesti.html","379"
"6","Veterinář","MVDr. Martin Jehlička","https://www.firmy.cz/detail/2132502-mvdr-martin-jehlicka-pisek-budejovicke-predmesti.html","244"
"7","Škola","ZŠ Josefa Kajetána Tyla a MŠ Písek","https://www.firmy.cz/detail/358833-zs-josefa-kajetana-tyla-a-ms-pisek-pisek-budejovicke-predmesti.html","291"
"8","Lékárna","Zelená lékárna","https://www.firmy.cz/detail/376578-zelena-lekarna-pisek-budejovicke-predmesti.html","323"
"9","Restaurace","Restaurace Na Radosti","https://www.firmy.cz/detail/12941147-restaurace-na-radosti-pisek-budejovicke-predmesti.html","101"
"10","Školka","MŠ Písek, Erbenova","https://www.firmy.cz/detail/2274343-ms-pisek-erbenova-pisek-budejovicke-predmesti.html","173"
"11","Lékař","MUDr. Petr Pudík","https://www.firmy.cz/detail/386447-mudr-petr-pudik-pisek-budejovicke-predmesti.html","343"
"12","Sportoviště","Tělovýchovná jednota Budoclub Písek","https://www.firmy.cz/detail/2651297-telovychovna-jednota-budoclub-pisek-pisek-budejovicke-predmesti.html","260"
"13","Pošta","Pošta Písek 1 - Česká pošta, s.p.","https://www.firmy.cz/detail/1424184-posta-pisek-1-pisek-budejovicke-predmesti.html","478"
"14","Bankomat","Bankomat České spořitelny","https://www.firmy.cz/detail/593945-bankomat-ceske-sporitelny-pisek-budejovicke-predmesti.html","348"
"15","Bus MHD","Písek, Erbenova","","105"
"16","Vlak","Písek město","","621"
"17","Obchod","Galerie Písek","https://www.firmy.cz/detail/13061127-galerie-pisek-pisek-budejovicke-predmesti.html","1438"
