"","facility_type","facility_name","facility_iri","facility_distance"
"0","Cukrárna","Anniny dorty","https://www.firmy.cz/detail/13307017-anniny-dorty-plzen-jizni-predmesti.html","1146"
"1","Kino","Kino Beseda","https://www.firmy.cz/detail/12773769-kino-beseda-plzen-jizni-predmesti.html","2504"
"2","Hřiště","Dětské hřiště Čermákova","","639"
"3","Večerka","Žabka","https://www.firmy.cz/detail/12976651-zabka-plzen-jizni-predmesti.html","999"
"4","Hospoda","Pivnice Slavia","https://www.firmy.cz/detail/12766272-pivnice-slavia-plzen-jizni-predmesti.html","1295"
"5","Divadlo","Divadlo pod lampou, o.p.s.","https://www.firmy.cz/detail/2418226-divadlo-pod-lampou-plzen-jizni-predmesti.html","1686"
"6","Veterinář","RPVET - VETERINÁRNÍ KLINIKA A POHOTOVOST MVDr. RADEK PROTIVA a kol.","https://www.firmy.cz/detail/13318056-rpvet-veterinarni-klinika-a-pohotovost-mvdr-radek-protiva-a-kol-plzen-jizni-predmesti.html","1146"
"7","Tram","Technická","","86"
"8","Bankomat","Bankomat UniCredit Bank Czech Republic","https://www.firmy.cz/detail/12934682-bankomat-unicredit-bank-czech-republic-plzen-jizni-predmesti.html","219"
"9","Bus MHD","Goldscheiderova","","254"
"10","Restaurace","Burger King","https://www.firmy.cz/detail/13232879-burger-king-plzen.html","612"
"11","Lékař","MUDr. Danuše Vovsíková","https://www.firmy.cz/detail/390304-mudr-danuse-vovsikova-plzen-jizni-predmesti.html","1015"
"12","Lékárna","Dr. Max LÉKÁRNA","https://www.firmy.cz/detail/2570158-dr-max-lekarna-plzen-jizni-predmesti.html","667"
"13","Škola","Střední odborné učiliště stavební Plzeň","https://www.firmy.cz/detail/360785-stredni-odborne-uciliste-stavebni-plzen-plzen-jizni-predmesti.html","770"
"14","Vlak","Plzeň-Skvrňany","","1612"
"15","Obchod","Kaufland","https://www.firmy.cz/detail/2616232-kaufland-plzen-jizni-predmesti.html","667"
"16","Sportoviště","LTC Slavoj Plzeň","https://www.firmy.cz/detail/720050-ltc-slavoj-plzen-plzen-jizni-predmesti.html","1093"
"17","Školka","Školička Babetka","https://www.firmy.cz/detail/12884846-skolicka-babetka-plzen-jizni-predmesti.html","550"
"18","Pošta","Pošta Plzeň 20 - Česká pošta, s.p.","https://www.firmy.cz/detail/216643-posta-plzen-20-plzen-jizni-predmesti.html","1050"
