"","facility_type","facility_name","facility_iri","facility_distance"
"0","Cukrárna","Fun Centrum","https://www.firmy.cz/detail/13001237-fun-centrum-marianske-lazne.html","239"
"1","Kino","Kino Slavia","https://www.firmy.cz/detail/396548-kino-slavia-marianske-lazne.html","318"
"2","Přírodní zajímavost","Kamenný proud","","1854"
"3","Hřiště","Dětské hřiště Husova","","331"
"4","Večerka","Potraviny Chebská 408/9","https://www.firmy.cz/detail/13058395-potraviny-chebska-408-9-marianske-lazne.html","251"
"5","Hospoda","RECOIN s.r.o., s.r.o.","https://www.firmy.cz/detail/13149199-recoin-s-r-o-marianske-lazne.html","201"
"6","Divadlo","Městské divadlo Mariánské Lázně","https://www.firmy.cz/detail/661401-mestske-divadlo-marianske-lazne-marianske-lazne.html","1619"
"7","Veterinář","Veterinární klinika - MVDr. Petr Vodička","https://www.firmy.cz/detail/487596-veterinarni-klinika-mvdr-petr-vodicka-marianske-lazne-usovice.html","471"
"8","Sportoviště","TCF Signalbau Mariánské Lázně","https://www.firmy.cz/detail/720029-tcf-signalbau-marianske-lazne-marianske-lazne.html","386"
"9","Lékárna","BENU Lékárna","https://www.firmy.cz/detail/2601420-benu-lekarna-marianske-lazne.html","284"
"10","Bankomat","Bankomat České spořitelny","https://www.firmy.cz/detail/2274457-bankomat-ceske-sporitelny-marianske-lazne.html","89"
"11","Restaurace","Restaurace Kamenný dvůr","https://www.firmy.cz/detail/13088663-restaurace-kamenny-dvur-marianske-lazne.html","37"
"12","Bus MHD","Mariánské Lázně, Chebská křižovatka","","114"
"13","Škola","ZUŠ Fryderyka Chopina Mariánské lázně","https://www.firmy.cz/detail/412122-zus-fryderyka-chopina-marianske-lazne-marianske-lazne.html","174"
"14","Pošta","Pošta Mariánské Lázně 1 - Česká pošta, s.p.","https://www.firmy.cz/detail/216407-posta-marianske-lazne-1-marianske-lazne.html","880"
"15","Lékař","MUDr. Jaroslava Slavíková","https://www.firmy.cz/detail/387421-mudr-jaroslava-slavikova-marianske-lazne.html","37"
"16","Obchod","Kaufland","https://www.firmy.cz/detail/1361454-kaufland-marianske-lazne.html","436"
"17","Školka","MŠ Mariánské Lázně, Hlavní","https://www.firmy.cz/detail/2267285-ms-marianske-lazne-hlavni-marianske-lazne.html","115"
"18","Vlak","Mariánské Lázně město","","515"
