"","facility_type","facility_name","facility_iri","facility_distance"
"0","Cukrárna","Mrkvové dorty - Lucky Food International, s.r.o.","https://www.firmy.cz/detail/13010747-mrkvove-dorty-zlin-malenovice.html","292"
"1","Hřiště","Dětské hřiště","","387"
"2","Večerka","Potraviny ENAPO","https://www.firmy.cz/detail/13268538-potraviny-enapo-zlin-malenovice.html","174"
"3","Hospoda","Hostinec Horní","https://www.firmy.cz/detail/12904284-hostinec-horni-zlin.html","101"
"4","Divadlo","Otrokovická BESEDA s.r.o.","https://www.firmy.cz/detail/397089-otrokovicka-beseda-s-r-o-otrokovice.html","4336"
"5","Veterinář","M-Veterinární klinika","https://www.firmy.cz/detail/284022-m-veterinarni-klinika-zlin-malenovice.html","248"
"6","Vlak","Zlín-Malenovice","","398"
"7","Bus MHD","Malenovice","","13"
"8","Sportoviště","Tělocvičná jednota Sokol Malenovice","https://www.firmy.cz/detail/2138424-telocvicna-jednota-sokol-malenovice-zlin-malenovice.html","469"
"9","Pošta","Pošta Zlín 4 - Česká pošta, s.p.","https://www.firmy.cz/detail/432906-posta-zlin-4-zlin-malenovice.html","164"
"10","Lékař","MUDr. Jitka Winklerová","https://www.firmy.cz/detail/2290144-mudr-jitka-winklerova-zlin-malenovice.html","238"
"11","Škola","ZŠ Zlín, Komenského","https://www.firmy.cz/detail/360224-zs-zlin-komenskeho-zlin-malenovice.html","106"
"12","Bankomat","Bankomat Komerční banky","https://www.firmy.cz/detail/1354946-bankomat-komercni-banky-zlin-malenovice.html","210"
"13","Obchod","Obchodní centrum Domus","https://www.firmy.cz/detail/412932-obchodni-centrum-domus-zlin-malenovice.html","297"
"14","Lékárna","APOPHARM, spol. s r.o.","https://www.firmy.cz/detail/581004-apopharm-zlin-malenovice.html","238"
"15","Restaurace","Pizza Margherita","https://www.firmy.cz/detail/13116494-pizza-margherita-zlin-malenovice.html","57"
"16","Školka","MŠ Zlín, Milíčova","https://www.firmy.cz/detail/2282929-ms-zlin-milicova-zlin-malenovice.html","355"
