"","facility_type","facility_name","facility_iri","facility_distance"
"0","Hřiště","Dětské hřiště Fráni Šrámka","https://mapy.cz/zakladni?x=14.0710858282&y=50.1447147763&z=17&source=base&id=1927237","275"
"1","Veterinář","Veterinární klinika Kladno","https://www.firmy.cz/detail/171143-veterinarni-klinika-kladno-kladno.html","308"
"2","Večerka","Potraviny U Myšáka","https://www.firmy.cz/detail/13259051-potraviny-u-mysaka-kladno.html","224"
"3","Cukrárna","Cukrárna Pavlos","https://www.firmy.cz/detail/13342297-cukrarna-pavlos-kladno.html","346"
"4","Hospoda","Na Kotvě","https://www.firmy.cz/detail/13119061-na-kotve-kladno.html","233"
"5","Divadlo","Loutkové divadlo Lampion","https://www.firmy.cz/detail/733471-loutkove-divadlo-lampion-kladno.html","2028"
"6","Kino","Kino Sokol Kladno","https://www.firmy.cz/detail/13179300-kino-sokol-kladno-kladno.html","1579"
"7","Sportoviště","Sportovní víceúčelové hřiště Brjanská","https://www.firmy.cz/detail/13219353-sportovni-viceucelove-hriste-brjanska-kladno.html","140"
"8","Škola","ZŠ Kladno, Brjanská","https://www.firmy.cz/detail/357647-zs-kladno-brjanska-kladno.html","217"
"9","Pošta","Pošta Kladno 4 - Česká pošta, s.p.","https://www.firmy.cz/detail/216833-posta-kladno-4-kladno.html","381"
"10","Školka","MŠ Kladno, Studentská","https://www.firmy.cz/detail/646157-ms-kladno-studentska-kladno.html","100"
"11","Lékař","KK Bresson, s.r.o.","https://www.firmy.cz/detail/13015681-kk-bresson-kladno.html","325"
"12","Lékárna","Lékárna Jalta","https://www.firmy.cz/detail/375507-lekarna-jalta-kladno.html","420"
"13","Vlak","Kladno město","https://mapy.cz/zakladni?x=14.0836470055&y=50.1420066325&z=17&source=pubt&id=15211728","703"
"14","Restaurace","Asijské bistro Vítězná 2990","https://www.firmy.cz/detail/13144040-asijske-bistro-vitezna-2990-kladno.html","356"
"15","Bus MHD","Kladno, Vítězná","https://mapy.cz/zakladni?x=14.075493572625561&y=50.14071389213748&z=17&source=pubt&id=15200464","280"
"16","Bankomat","Bankomat MONETA Money Bank","https://www.firmy.cz/detail/2675422-bankomat-moneta-money-bank-kladno.html","364"
"17","Obchod","Central Kladno","https://www.firmy.cz/detail/12966933-central-kladno-kladno.html","2060"
