"","facility_type","facility_name","facility_iri","facility_distance"
"0","Cukrárna","Eiscafe Delikana","https://www.firmy.cz/detail/13295512-eiscafe-delikana-valasske-mezirici-krasno-nad-becvou.html","977"
"1","Kino","Letní kino Valmez","https://www.firmy.cz/detail/13071120-letni-kino-valmez-valasske-mezirici.html","633"
"2","Přírodní zajímavost","Bražiska","","3583"
"3","Hřiště","Dětské hřiště Křižná","","633"
"4","Večerka","MINIPO","https://www.firmy.cz/detail/150814-minipo-valasske-mezirici.html","452"
"5","Hospoda","Pivnice U Rychlíka","https://www.firmy.cz/detail/13134580-pivnice-u-rychlika-valasske-mezirici.html","1336"
"6","Divadlo","Divadlo Schod","https://www.firmy.cz/detail/397015-divadlo-schod-valasske-mezirici.html","1233"
"7","Veterinář","MVDr. Jarmil Dobeš","https://www.firmy.cz/detail/1975910-mvdr-jarmil-dobes-valasske-mezirici-krasno-nad-becvou.html","995"
"8","Bus MHD","Valašské Meziříčí, hřbitov","","326"
"9","Sportoviště","Valaši v pohybu z.s.","https://www.firmy.cz/detail/13079180-valasi-v-pohybu-z-s-valasske-mezirici-krasno-nad-becvou.html","1067"
"10","Pošta","Pošta Valašské Meziříčí 6 - Česká pošta, s.p.","https://www.firmy.cz/detail/433387-posta-valasske-mezirici-6-valasske-mezirici-krasno-nad-becvou.html","1190"
"11","Bankomat","Bankomat Komerční banky","https://www.firmy.cz/detail/13323940-bankomat-komercni-banky-valasske-mezirici-krasno-nad-becvou.html","599"
"12","Lékárna","Dr. Max LÉKÁRNA","https://www.firmy.cz/detail/13190351-dr-max-lekarna-valasske-mezirici-krasno-nad-becvou.html","573"
"13","Školka","MŠ Valašské Meziříčí, Seifertova","https://www.firmy.cz/detail/1952020-ms-valasske-mezirici-seifertova-valasske-mezirici-krasno-nad-becvou.html","905"
"14","Restaurace","Restaurace Holendr","https://www.firmy.cz/detail/13233177-restaurace-holendr-valasske-mezirici-krasno-nad-becvou.html","305"
"15","Škola","ZŠ Valašské Meziříčí, Masarykova","https://www.firmy.cz/detail/359902-zs-valasske-mezirici-masarykova-valasske-mezirici-krasno-nad-becvou.html","735"
"16","Vlak","Valašské Meziříčí","","1183"
"17","Obchod","Tesco","https://www.firmy.cz/detail/2358541-tesco-valasske-mezirici-krasno-nad-becvou.html","632"
"18","Lékař","MUDr. Iva Ulbrichtová, s.r.o.","https://www.firmy.cz/detail/12862998-mudr-iva-ulbrichtova-valasske-mezirici-krasno-nad-becvou.html","892"
