"","facility_type","facility_name","facility_iri","facility_distance"
"0","Cukrárna","Grand Cafe Orient","https://www.firmy.cz/detail/639735-grand-cafe-orient-praha-stare-mesto.html","133"
"1","Kino","Cinema City Slovanský dům","https://www.firmy.cz/detail/2679893-cinema-city-slovansky-dum-praha-nove-mesto.html","184"
"2","Hřiště","Dětské hřiště sportovní areál Masná","","161"
"3","Večerka","Kubík, a.s.","https://www.firmy.cz/detail/164187-kubik-praha-stare-mesto.html","77"
"4","Hospoda","Batalion Café & Music Bar","https://www.firmy.cz/detail/457689-batalion-cafe-music-bar-praha-stare-mesto.html","590"
"5","Divadlo","DIVADLO UNGELT s.r.o.","https://www.firmy.cz/detail/2613609-divadlo-ungelt-s-r-o-praha-stare-mesto.html","139"
"6","Veterinář","MVDr. Katka Sviták Novozámská","https://www.firmy.cz/detail/2137713-mvdr-katka-svitak-novozamska-praha-stare-mesto.html","781"
"7","Pošta","Pošta Praha 05 - Česká pošta, s.p.","https://www.firmy.cz/detail/431198-posta-praha-05-praha-stare-mesto.html","164"
"8","Metro","Náměstí Republiky","","132"
"9","Lékař","MUDr. Jiří Kučera","https://www.firmy.cz/detail/389067-mudr-jiri-kucera-praha-stare-mesto.html","294"
"10","Obchod","PALLADIUM Praha","https://www.firmy.cz/detail/2238095-palladium-praha-praha-nove-mesto.html","230"
"11","Školka","MŠ Praha, Masná","https://www.firmy.cz/detail/1968715-ms-praha-masna-praha-stare-mesto.html","221"
"12","Škola","Vyšší odborná škola a Střední průmyslová škola dopravní, Praha 1","https://www.firmy.cz/detail/360983-vyssi-odborna-skola-a-stredni-prumyslova-skola-dopravni-praha-1-praha-stare-mesto.html","194"
"13","Sportoviště","EDIMEX, spol. s r.o.","https://www.firmy.cz/detail/2136043-edimex-praha-nove-mesto.html","292"
"14","Restaurace","Franc Josef Restaurant","https://www.firmy.cz/detail/2230952-franc-josef-restaurant-praha-old-town.html","25"
"15","Bankomat","Bankomat Komerční banky","https://www.firmy.cz/detail/594681-bankomat-komercni-banky-praha-stare-mesto.html","133"
"16","Bus MHD","Masná","","215"
"17","Tram","Náměstí Republiky","","229"
"18","Vlak","Praha Masarykovo nádraží","","555"
"19","Lékárna","LÉKÁRNA ipc Palladium","https://www.firmy.cz/detail/2345303-lekarna-ipc-palladium-praha-nove-mesto.html","319"
