"","facility_type","facility_name","facility_iri","facility_distance"
"0","Cukrárna","Národní kavárna a cukrárna","https://www.firmy.cz/detail/13119870-narodni-kavarna-a-cukrarna-decin-i-decin.html","897"
"1","Kino","Kino Sněžník","https://www.firmy.cz/detail/2483705-kino-sneznik-decin-iv-podmokly.html","2094"
"2","Hřiště","Dětské hřiště Dvořákova","","656"
"3","Večerka","Albert Supermarket","https://www.firmy.cz/detail/446734-albert-supermarket-decin-ii-nove-mesto.html","392"
"4","Hospoda","Pivnice Chlum","https://www.firmy.cz/detail/13155319-pivnice-chlum-decin-iii-stare-mesto.html","1059"
"5","Divadlo","Letní kino Zámek Děčín","https://www.firmy.cz/detail/13326081-letni-kino-zamek-decin-decin-i-decin.html","1084"
"6","Veterinář","MVDr. Antonín Hanzl","https://www.firmy.cz/detail/475192-mvdr-antonin-hanzl-decin-iii-stare-mesto.html","1069"
"7","Bus MHD","Děčín, Narex","","38"
"8","Školka","Speciální ZŠ a MŠ Děčín, Teplická","https://www.firmy.cz/detail/2157311-specialni-zs-a-ms-decin-teplicka-decin-ii-nove-mesto.html","280"
"9","Vlak","Děčín východ","","391"
"10","Sportoviště","Tenisový klub Spartak Děčín","https://www.firmy.cz/detail/2651940-tenisovy-klub-spartak-decin-decin.html","625"
"11","Lékař","MUDr. Jiřina Miličová","https://www.firmy.cz/detail/378587-mudr-jirina-milicova-decin-i-decin.html","515"
"12","Pošta","Pošta Děčín 1 - Česká pošta, s.p.","https://www.firmy.cz/detail/215368-posta-decin-1-decin-i-decin.html","630"
"13","Restaurace","Na Růžku Kamenická","https://www.firmy.cz/detail/13253635-na-ruzku-kamenicka-decin-ii-nove-mesto.html","270"
"14","Lékárna","Lékárna Nemocnice Děčín","https://www.firmy.cz/detail/2150028-lekarna-nemocnice-decin-decin-ii-nove-mesto.html","355"
"15","Škola","ZŠ Děčín II, Kamenická","https://www.firmy.cz/detail/356802-zs-decin-ii-kamenicka-decin-ii-nove-mesto.html","301"
"16","Obchod","Kaufland","https://www.firmy.cz/detail/1335602-kaufland-decin-i-decin.html","703"
"17","Bankomat","Bankomat České spořitelny","https://www.firmy.cz/detail/13165954-bankomat-ceske-sporitelny-decin-ii-nove-mesto.html","413"
