"","facility_type","facility_name","facility_iri","facility_distance"
"0","Cukrárna","Locál café & bar","https://www.firmy.cz/detail/475963-local-cafe-bar-praha-nove-mesto.html","255"
"1","Kino","Kino Mat","https://www.firmy.cz/detail/1974792-kino-mat-praha-nove-mesto.html","759"
"2","Přírodní zajímavost","Kovářovic mez","","4923"
"3","Hřiště","Dětské hřiště Hořejší nábřeží","","408"
"4","Večerka","BILLA","https://www.firmy.cz/detail/689169-billa-praha-nove-mesto.html","488"
"5","Hospoda","Hostinec U Suchý Dásně","https://www.firmy.cz/detail/679683-hostinec-u-suchy-dasne-praha-nove-mesto.html","153"
"6","Divadlo","Minor","https://www.firmy.cz/detail/230743-minor-praha-nove-mesto.html","912"
"7","Veterinář","Veterinární klinika Na Hrádku - MVDr. Ľubica Nečasová","https://www.firmy.cz/detail/633528-veterinarni-klinika-na-hradku-mvdr-lubica-necasova-praha-nove-mesto.html","336"
"8","Bus MHD","Václavská","","383"
"9","Sportoviště","Tenisová škola TALLENT","https://www.firmy.cz/detail/722750-tenisova-skola-tallent-praha-vysehrad.html","460"
"10","Lékárna","LÉKÁRNA MORÁŇ","https://www.firmy.cz/detail/658422-lekarna-moran-praha-nove-mesto.html","443"
"11","Restaurace","Restaurace Dnister","https://www.firmy.cz/detail/2456959-restaurace-dnister-praha-nove-mesto.html","203"
"12","Metro","Karlovo náměstí","","128"
"13","Obchod","Obchodní centrum Nový Smíchov","https://www.firmy.cz/detail/579116-obchodni-centrum-novy-smichov-praha-smichov.html","933"
"14","Školka","MŠ Praha 2, Trojická","https://www.firmy.cz/detail/731792-ms-praha-2-trojicka-praha-nove-mesto.html","194"
"15","Lékař","MUDr. Kateřina Mašková","https://www.firmy.cz/detail/389115-mudr-katerina-maskova-praha-nove-mesto.html","127"
"16","Škola","Vyšší odborná škola ekonomických studií a Střední průmyslová škola potravinářských technologií, Praha 2","https://www.firmy.cz/detail/2015548-vyssi-odborna-skola-ekonomickych-studii-a-stredni-prumyslova-skola-potravinarskych-technologii-praha-2-praha-nove-mesto.html","218"
"17","Tram","Palackého náměstí (nábřeží)","","69"
"18","Pošta","Pošta Praha 5 - Česká pošta, s.p.","https://www.firmy.cz/detail/217457-posta-praha-5-praha-smichov.html","767"
"19","Bankomat","Bankomat České spořitelny","https://www.firmy.cz/detail/594703-bankomat-ceske-sporitelny-praha-nove-mesto.html","196"
"20","Vlak","Praha-Smíchov severní nást.","","1063"
