"","facility_type","facility_name","facility_iri","facility_distance"
"0","Cukrárna","Cukrárna U Školy","https://www.firmy.cz/detail/13262069-cukrarna-u-skoly-praha-modrany.html","797"
"1","Kino","Modřanský biograf","https://www.firmy.cz/detail/13272765-modransky-biograf-praha-modrany.html","1152"
"2","Přírodní zajímavost","Kovářovic mez","","4381"
"3","Hřiště","Dětské hřiště Vltavanů","","363"
"4","Večerka","Lidl","https://www.firmy.cz/detail/13323931-lidl-praha-mala-chuchle.html","788"
"5","Hospoda","Start U Veselé kozy","https://www.firmy.cz/detail/13327758-start-u-vesele-kozy-praha-velka-chuchle.html","801"
"6","Divadlo","Divadlo Na Cikorce","https://www.firmy.cz/detail/2387865-divadlo-na-cikorce-praha-modrany.html","970"
"7","Veterinář","MVDr. Daniela Králová - VETERINA TŘI V JEDNOM","https://www.firmy.cz/detail/682643-mvdr-daniela-kralova-veterina-tri-v-jednom-praha-velka-chuchle.html","484"
"8","Lékárna","Lékárna Vltava","https://www.firmy.cz/detail/2510909-lekarna-vltava-praha-modrany.html","1234"
"9","Vlak","Praha-Modřany zastávka","","1081"
"10","Bus MHD","Dostihová","","410"
"11","Bankomat","Bankomat České spořitelny","https://www.firmy.cz/detail/12987773-bankomat-ceske-sporitelny-praha.html","667"
"12","Lékař","Medicínské centrum Praha, s.r.o.","https://www.firmy.cz/detail/744975-medicinske-centrum-praha-praha-modrany.html","139"
"13","Školka","MŠ Tyršovka Praha 12, Lysinská","https://www.firmy.cz/detail/2265068-ms-tyrsovka-praha-12-lysinska-praha-modrany.html","662"
"14","Škola","Střední škola dostihového sportu a jezdectví","https://www.firmy.cz/detail/360622-stredni-skola-dostihoveho-sportu-a-jezdectvi-praha-velka-chuchle.html","554"
"15","Restaurace","Rosmarina Restaurant","https://www.firmy.cz/detail/13181547-rosmarina-restaurant-praha.html","209"
"16","Sportoviště","Freestyle park Modřany","https://www.firmy.cz/detail/12970857-freestyle-park-modrany-praha.html","178"
"17","Tram","Belárie","","135"
"18","Obchod","Kaufland","https://www.firmy.cz/detail/12700906-kaufland-praha-modrany.html","1351"
"19","Pošta","Pošta Praha 59 - Česká pošta, s.p.","https://www.firmy.cz/detail/431322-posta-praha-59-praha-velka-chuchle.html","1083"
"20","Metro","Budějovická","","4867"
