"","facility_type","facility_name","facility_iri","facility_distance"
"0","Hřiště","Dětské hřiště Bystrc","https://mapy.cz/zakladni?x=16.5254297495&y=49.2132350315&z=17&source=base&id=1927927","216"
"1","Přírodní zajímavost","Koniklecová louka","https://mapy.cz/zakladni?x=16.5518474579&y=49.1834285644&z=17&source=base&id=1921318","4040"
"2","Veterinář","Veterina Bystrc, s.r.o.","https://www.firmy.cz/detail/1424221-veterina-bystrc-brno-bystrc.html","832"
"3","Divadlo","Divadlo Strom","https://www.firmy.cz/detail/12762146-divadlo-strom-brno-zabovresky.html","4243"
"4","Večerka","Potraviny Černého","https://www.firmy.cz/detail/13265402-potraviny-cerneho-brno.html","192"
"5","Hospoda","Domeček","https://www.firmy.cz/detail/13124946-domecek-brno-bystrc.html","672"
"6","Cukrárna","Cukrárna Toffi","https://www.firmy.cz/detail/13311098-cukrarna-toffi-brno-bystrc.html","1108"
"7","Kino","Kino Lucerna","https://www.firmy.cz/detail/638240-kino-lucerna-brno-zabovresky.html","4444"
"8","Bus MHD","Černého","https://mapy.cz/zakladni?x=16.522820665611334&y=49.21409122694715&z=17&source=pubt&id=15216803","171"
"9","Restaurace","Restaurace Sportmax","https://www.firmy.cz/detail/12735731-restaurace-sportmax-brno-bystrc.html","445"
"10","Tram","Ondrouškova","https://mapy.cz/zakladni?x=16.516909404&y=49.2174060845&z=17&source=pubt&id=15205739","615"
"11","Pošta","Pošta Brno 35 - Česká pošta, s.p.","https://www.firmy.cz/detail/794875-posta-brno-35-brno-bystrc.html","889"
"12","Školka","Mateřská škola Sluníčko, Brno, Štouračova 23","https://www.firmy.cz/detail/13075330-materska-skola-slunicko-brno-stouracova-23-brno-bystrc.html","544"
"13","Sportoviště","Sport Centrum Sportmax","https://www.firmy.cz/detail/271521-sport-centrum-sportmax-brno-bystrc.html","445"
"14","Obchod","OC MAX s.r.o.","https://www.firmy.cz/detail/13171099-oc-max-s-r-o-brno-bystrc.html","832"
"15","Lékař","MUDr. Kamila Pohanková","https://www.firmy.cz/detail/12948396-mudr-kamila-pohankova-brno-bystrc.html","832"
"16","Bankomat","Bankomat UniCredit Bank Czech Republic","https://www.firmy.cz/detail/12862431-bankomat-unicredit-bank-czech-republic-brno-bystrc.html","712"
"17","Škola","ZŠ Brno, Laštůvkova","https://www.firmy.cz/detail/356519-zs-brno-lastuvkova-brno-bystrc.html","305"
"18","Lékárna","Lékárna AKÁT","https://www.firmy.cz/detail/375073-lekarna-akat-brno-bystrc.html","773"
