"","facility_type","facility_name","facility_iri","facility_distance"
"0","Cukrárna","Cukrárna Florida","https://www.firmy.cz/detail/13115878-cukrarna-florida-prostejov.html","512"
"1","Kino","Kino Metro 70","https://www.firmy.cz/detail/13118959-kino-metro-70-prostejov.html","362"
"2","Hřiště","Dětské hřiště Kostelecká","","105"
"3","Večerka","BALA Potraviny - Libuše Snášelová","https://www.firmy.cz/detail/1887838-bala-potraviny-libuse-snaselova-prostejov.html","287"
"4","Hospoda","Pivnice U Chmelů","https://www.firmy.cz/detail/13088186-pivnice-u-chmelu-prostejov.html","287"
"5","Divadlo","Městské divadlo v Prostějově","https://www.firmy.cz/detail/396947-mestske-divadlo-v-prostejove-prostejov.html","596"
"6","Veterinář","Veterinární ordinace HanáVET","https://www.firmy.cz/detail/12774577-veterinarni-ordinace-hanavet-prostejov.html","334"
"7","Lékař","MUDr. Ilona Korandová, s.r.o.","https://www.firmy.cz/detail/13107688-mudr-ilona-korandova-prostejov.html","73"
"8","Bus MHD","Prostějov, Pojišťovna","","19"
"9","Školka","MŠ Prostějov, Hanačka","https://www.firmy.cz/detail/12740732-ms-prostejov-hanacka-prostejov.html","129"
"10","Lékárna","Lékárna Mamed Prostějov","https://www.firmy.cz/detail/13279953-lekarna-mamed-prostejov-prostejov.html","435"
"11","Restaurace","Gastroexpres Zelený","https://www.firmy.cz/detail/324561-gastroexpres-zeleny-prostejov.html","253"
"12","Bankomat","Bankomat UniCredit Bank Czech Republic","https://www.firmy.cz/detail/1964788-bankomat-unicredit-bank-czech-republic-prostejov.html","558"
"13","Sportoviště","Tenisové kurty U Chmelů","https://www.firmy.cz/detail/12962926-tenisove-kurty-u-chmelu-prostejov.html","295"
"14","Vlak","Prostějov místní nádraží","","392"
"15","Pošta","Pošta Prostějov 3 - Česká pošta, s.p.","https://www.firmy.cz/detail/431292-posta-prostejov-3-prostejov.html","363"
"16","Obchod","ZLATÁ BRÁNA, s.r.o.","https://www.firmy.cz/detail/13062079-zlata-brana-prostejov.html","595"
"17","Škola","SOŠPO","https://www.firmy.cz/detail/361623-sospo-prostejov.html","254"
