"","facility_type","facility_name","facility_iri","facility_distance"
"0","Cukrárna","Kavárna Knoflík","https://www.firmy.cz/detail/12890167-kavarna-knoflik-praha-prosek.html","896"
"1","Kino","Cinema City Letňany","https://www.firmy.cz/detail/2679833-cinema-city-letnany-praha-letnany.html","1616"
"2","Přírodní zajímavost","Meandry Rokytky","","3542"
"3","Hřiště","Dětské hřiště Teplická","","176"
"4","Večerka","PONT Market","https://www.firmy.cz/detail/12996406-pont-market-praha.html","141"
"5","Hospoda","Pivnice Satanka","https://www.firmy.cz/detail/2450871-pivnice-satanka-praha-kobylisy.html","1069"
"6","Divadlo","Divadlo Pohádka","https://www.firmy.cz/detail/636143-divadlo-pohadka-praha-letnany.html","871"
"7","Veterinář","ViaVet s.r.o.","https://www.firmy.cz/detail/446808-viavet-s-r-o-praha-strizkov.html","95"
"8","Pošta","Pošta Praha 9 - Česká pošta, s.p.","https://www.firmy.cz/detail/216700-posta-praha-9-praha-strizkov.html","562"
"9","Metro","Střížkov","","117"
"10","Bus MHD","Střížkov","","100"
"11","Lékař","MUDr. Jana Jourová","https://www.firmy.cz/detail/387866-mudr-jana-jourova-praha-strizkov.html","435"
"12","Tram","Třebenická","","814"
"13","Vlak","Praha-Vysočany","","1507"
"14","Lékárna","Dr.Max LÉKÁRNA","https://www.firmy.cz/detail/13204003-dr-max-lekarna-praha-strizkov.html","177"
"15","Sportoviště","Tělovýchovná jednota Střížkov, z.s.","https://www.firmy.cz/detail/404444-telovychovna-jednota-strizkov-z-s-praha-strizkov.html","342"
"16","Škola","ZŠ Praha 9, Litvínovská","https://www.firmy.cz/detail/359016-zs-praha-9-litvinovska-praha-prosek.html","502"
"17","Obchod","Kaufland","https://www.firmy.cz/detail/1457859-kaufland-praha-liben.html","650"
"18","Restaurace","Restaurace Bella","https://www.firmy.cz/detail/2384693-restaurace-bella-praha-strizkov.html","143"
"19","Bankomat","Bankomat Fio banky","https://www.firmy.cz/detail/2678109-bankomat-fio-banky-praha.html","187"
"20","Školka","MŠ Praha 9, Litvínovská","https://www.firmy.cz/detail/2326385-ms-praha-9-litvinovska-praha-prosek.html","221"
