"","facility_type","facility_name","facility_iri","facility_distance"
"0","Hřiště","Dětské hřiště Olomoucká","https://mapy.cz/zakladni?x=17.8794878646&y=49.9327263895&z=17&source=base&id=2262499","387"
"1","Přírodní zajímavost","Louka u kruháče","https://mapy.cz/zakladni?x=17.89237725735802&y=49.91383845684783&z=17&source=base&id=2266234","2073"
"2","Večerka","TEMPO, obchodní družstvo","https://www.firmy.cz/detail/13275499-tempo-obchodni-druzstvo-opava-predmesti.html","556"
"3","Hospoda","Pohostinství U Antona","https://www.firmy.cz/detail/2024860-pohostinstvi-u-antona-opava-predmesti.html","996"
"4","Veterinář","MVDr. Renáta Hlavová","https://www.firmy.cz/detail/674399-mvdr-renata-hlavova-opava-predmesti.html","907"
"5","Cukrárna","Cukrárna Diana","https://www.firmy.cz/detail/1990334-cukrarna-diana-opava-predmesti.html","1344"
"6","Kino","Kino Mír","https://www.firmy.cz/detail/2297240-kino-mir-opava-mesto.html","2088"
"7","Divadlo","Slezské divadlo Opava","https://www.firmy.cz/detail/230941-slezske-divadlo-opava-opava-mesto.html","2045"
"8","Škola","Masarykova střední škola zemědělská","https://www.firmy.cz/detail/358615-masarykova-stredni-skola-zemedelska-opava-predmesti.html","243"
"9","Školka","ZŠ a MŠ při zdravotnickém zařízení, Opava","https://www.firmy.cz/detail/2351191-zs-a-ms-pri-zdravotnickem-zarizeni-opava-opava-predmesti.html","357"
"10","Bus MHD","Opava, Albert hypermarket","https://mapy.cz/zakladni?x=17.8766837304139&y=49.9307384826494&z=17&source=pubt&id=15308647","125"
"11","Lékárna","BENU Lékárna","https://www.firmy.cz/detail/12875760-benu-lekarna-opava-predmesti.html","172"
"12","Lékař","OASA Medical Service s.r.o., s.r.o.","https://www.firmy.cz/detail/13266459-oasa-medical-service-s-r-o-opava-predmesti.html","113"
"13","Sportoviště","Okresní rada Asociace školních sportovních klubů České republiky Opava","https://www.firmy.cz/detail/12991283-okresni-rada-asociace-skolnich-sportovnich-klubu-ceske-republiky-opava-opava-predmesti.html","525"
"14","Obchod","Kaufland","https://www.firmy.cz/detail/12835404-kaufland-opava-predmesti.html","186"
"15","Bankomat","Bankomat Air Bank","https://www.firmy.cz/detail/13032294-bankomat-air-bank-opava-predmesti.html","180"
"16","Restaurace","Banyan Bistro","https://www.firmy.cz/detail/13327749-banyan-bistro-opava-predmesti.html","235"
"17","Vlak","Opava západ","https://mapy.cz/zakladni?x=17.8886594795&y=49.9384408304&z=17&source=pubt&id=15212354","1286"
"18","Pošta","Pošta Opava 2 - Česká pošta, s.p.","https://www.firmy.cz/detail/432556-posta-opava-2-opava-predmesti.html","1321"
