"","facility_type","facility_name","facility_iri","facility_distance"
"0","Cukrárna","Cukrárna Slámovka","https://www.firmy.cz/detail/13271724-cukrarna-slamovka-praha-veleslavin.html","727"
"1","Kino","Kino Dlabačov","https://www.firmy.cz/detail/13024517-kino-dlabacov-praha-brevnov.html","2939"
"2","Hřiště","Dětské hřiště Na Lužci","","308"
"3","Večerka","Obchod - potraviny","https://www.firmy.cz/detail/13169516-obchod-potraviny-praha-vokovice.html","306"
"4","Hospoda","Pivnice Samota","https://www.firmy.cz/detail/13310383-pivnice-samota-praha-vokovice.html","687"
"5","Divadlo","Divadlo Tineola","https://www.firmy.cz/detail/401473-divadlo-tineola-praha-vokovice.html","130"
"6","Veterinář","Veterinární ordinace Červený vrch","https://www.firmy.cz/detail/446552-veterinarni-ordinace-cerveny-vrch-praha-vokovice.html","305"
"7","Škola","ZUŠ Charlotty Masarykové","https://www.firmy.cz/detail/169811-zus-charlotty-masarykove-praha-vokovice.html","280"
"8","Lékárna","BENU Lékárna","https://www.firmy.cz/detail/13196722-benu-lekarna-praha-vokovice.html","436"
"9","Tram","Nádraží Veleslavín","","269"
"10","Bankomat","Bankomat Euronet","https://www.firmy.cz/detail/13056224-bankomat-euronet-praha-veleslavin.html","266"
"11","Bus MHD","Nádraží Veleslavín","","287"
"12","Obchod","Obchodní dům Čílova","https://www.firmy.cz/detail/13157318-obchodni-dum-cilova-praha-veleslavin.html","872"
"13","Metro","Nádraží Veleslavín","","316"
"14","Sportoviště","Tenisový oddíl SK Aritma Praha","https://www.firmy.cz/detail/406270-tenisovy-oddil-sk-aritma-praha-praha-vokovice.html","242"
"15","Školka","Mateřská škola Vokovická","https://www.firmy.cz/detail/598527-materska-skola-vokovicka-praha-vokovice.html","399"
"16","Pošta","Pošta Praha 616 - Česká pošta, s.p.","https://www.firmy.cz/detail/431331-posta-praha-616-praha-veleslavin.html","885"
"17","Vlak","Praha-Veleslavín","","308"
"18","Lékař","Canadian Medical - AFI","https://www.firmy.cz/detail/13262475-canadian-medical-afi-praha-vokovice.html","507"
"19","Restaurace","Restaurace Aritma","https://www.firmy.cz/detail/13273699-restaurace-aritma-praha-vokovice.html","242"
