"","facility_type","facility_name","facility_iri","facility_distance"
"0","Hřiště","Dětské hřiště Buš","","2055"
"1","Večerka","Potraviny Lahůdky Slapy 280","https://www.firmy.cz/detail/255099-potraviny-lahudky-slapy-280-slapy.html","3059"
"2","Hospoda","Hospůdka U Holinků","https://www.firmy.cz/detail/2456844-hospudka-u-holinku-bratrinov.html","4521"
"3","Veterinář","Institut celostní péče o koně, o.p.s.","https://www.firmy.cz/detail/2626648-institut-celostni-pece-o-kone-cim.html","4633"
"4","Restaurace","Restaurace U Váňů","https://www.firmy.cz/detail/1406039-restaurace-u-vanu-bus.html","1905"
"5","Školka","MŠ Rodinka Korkyně","https://www.firmy.cz/detail/13287348-ms-rodinka-korkyne-korkyne.html","2549"
"6","Škola","Základní škola Slapy","https://www.firmy.cz/detail/359359-zakladni-skola-slapy-slapy.html","3163"
"7","Lékař","MUDr.Václav Holý","https://www.firmy.cz/detail/690163-mudr-vaclav-holy-slapy.html","3005"
"8","Bus MHD","Nové Dvory","","75"
"9","Pošta","Pošta Velká Lečice - Česká pošta, s.p.","https://www.firmy.cz/detail/217339-posta-velka-lecice-velka-lecice.html","2643"
"10","Sportoviště","Ing. Antonín Buriánek","https://www.firmy.cz/detail/12973982-ing-antonin-burianek-slapy.html","3081"
