"","facility_type","facility_name","facility_iri","facility_distance"
"0","Hřiště","Dětské hřiště Železniční plácek","https://mapy.cz/zakladni?x=14.44664778406144&y=50.0872129993497&z=17&source=base&id=2366890","192"
"1","Hospoda","U Pižďucha","https://www.firmy.cz/detail/337127-u-pizducha-praha-zizkov.html","343"
"2","Divadlo","Divadlo Ponec","https://www.firmy.cz/detail/159588-divadlo-ponec-praha-zizkov.html","88"
"3","Večerka","PONT Market","https://www.firmy.cz/detail/2580219-pont-market-praha-karlin.html","422"
"4","Cukrárna","Café Vítkov","https://www.firmy.cz/detail/157404-cafe-vitkov-praha-zizkov.html","424"
"5","Veterinář","MVDr. Jan Dubský","https://www.firmy.cz/detail/674033-mvdr-jan-dubsky-praha-zizkov.html","689"
"6","Kino","Spoiler - Filmový klub, z.s.","https://www.firmy.cz/detail/396379-spoiler-filmovy-klub-z-s-praha-zizkov.html","367"
"7","Sportoviště","Tělocvičná jednota Sokol Karlín","https://www.firmy.cz/detail/167303-telocvicna-jednota-sokol-karlin-praha-karlin.html","293"
"8","Restaurace","Restaurace U Štíra","https://www.firmy.cz/detail/2219027-restaurace-u-stira-praha.html","166"
"9","Bus MHD","U Památníku","https://mapy.cz/zakladni?x=14.44513&y=50.08692&z=17&source=pubt&id=17141749","84"
"10","Pošta","Pošta Praha 86 - Česká pošta, s.p.","https://www.firmy.cz/detail/216676-posta-praha-86-praha-karlin.html","741"
"11","Vlak","Praha hlavní nádraží","https://mapy.cz/zakladni?x=14.4369820737851&y=50.082990005918&z=17&source=pubt&id=15212548","671"
"12","Metro","Florenc","https://mapy.cz/zakladni?x=14.4393652992&y=50.0896321858&z=17&source=pubt&id=15200597","438"
"13","Škola","ZUŠ, Praha 3, Štítného","https://www.firmy.cz/detail/399091-zus-praha-3-stitneho-praha-zizkov.html","413"
"14","Tram","Viktoria Žižkov","https://mapy.cz/zakladni?x=14.4444354851&y=50.0850988536&z=17&source=pubt&id=15303789","218"
"15","Školka","Sdružení dětí Veverka, s.r.o.","https://www.firmy.cz/detail/2276033-sdruzeni-deti-veverka-praha-zizkov.html","334"
"16","Lékař","Ordinace praktického lékaře MUDr. Květoslava Kohlová","https://www.firmy.cz/detail/147546-ordinace-praktickeho-lekare-mudr-kvetoslava-kohlova-praha-karlin.html","402"
"17","Obchod","Bílá labuť","https://www.firmy.cz/detail/221990-bila-labut-praha-nove-mesto.html","793"
"18","Bankomat","Bankomat Euronet","https://www.firmy.cz/detail/1348079-bankomat-euronet-praha-zizkov.html","238"
"19","Lékárna","Lékárna U Matky Boží","https://www.firmy.cz/detail/658541-lekarna-u-matky-bozi-praha-zizkov.html","499"
