"","facility_type","facility_name","facility_iri","facility_distance"
"0","Hřiště","Dětské hřiště Ke Střelnici","https://mapy.cz/zakladni?x=15.0565238121&y=50.7632908848&z=17&source=base&id=1928161","371"
"1","Hospoda","Marek Průša","https://www.firmy.cz/detail/13139419-marek-prusa-liberec-iii-jerab.html","245"
"2","Cukrárna","Café Coffee Day","https://www.firmy.cz/detail/12725173-cafe-coffee-day-liberec-iv-perstyn.html","314"
"3","Veterinář","Veterinární klinika Nisa","https://www.firmy.cz/detail/471329-veterinarni-klinika-nisa-liberec-iii-jerab.html","438"
"4","Kino","Cinema City Liberec","https://www.firmy.cz/detail/2679906-cinema-city-liberec-liberec-iv-perstyn.html","387"
"5","Večerka","BILLA","https://www.firmy.cz/detail/450437-billa-liberec-iii-jerab.html","216"
"6","Divadlo","Naivní divadlo Liberec","https://www.firmy.cz/detail/230860-naivni-divadlo-liberec-liberec-iv-perstyn.html","627"
"7","Přírodní zajímavost","Opičák","https://mapy.cz/zakladni?x=15.0248686111&y=50.7720466667&z=17&source=base&id=1978555","2072"
"8","Bus MHD","Fügnerova","https://mapy.cz/zakladni?x=15.0568544319&y=50.7648710744&z=17&source=pubt&id=15777186","405"
"9","Sportoviště","Urban Jump Arena","https://www.firmy.cz/detail/13198647-urban-jump-arena-liberec-iii-jerab.html","314"
"10","Vlak","Liberec","https://mapy.cz/zakladni?x=15.0462577517&y=50.7615013305&z=17&source=pubt&id=15211938","442"
"11","Tram","Rybníček","https://mapy.cz/zakladni?x=15.0518660172&y=50.7652692312&z=17&source=pubt&id=15204148","162"
"12","Restaurace","Restaurace Zlatý Kohout","https://www.firmy.cz/detail/13152365-restaurace-zlaty-kohout-liberec-iii-jerab.html","64"
"13","Školka","MŠ Liberec, Matoušova","https://www.firmy.cz/detail/1458042-ms-liberec-matousova-liberec-iii-jerab.html","181"
"14","Lékárna","Dr. Max","https://www.firmy.cz/detail/13324076-dr-max-liberec-iv-perstyn.html","399"
"15","Lékař","MEDLING, s.r.o.","https://www.firmy.cz/detail/12782110-medling-liberec-iii-jerab.html","0"
"16","Bankomat","Raiffeisenbank - bankomat","https://www.firmy.cz/detail/631148-raiffeisenbank-bankomat-liberec-iii-jerab.html","186"
"17","Pošta","Pošta Liberec 2 - Česká pošta, s.p.","https://www.firmy.cz/detail/215964-posta-liberec-2-liberec-iii-jerab.html","427"
"18","Obchod","Tesco","https://www.firmy.cz/detail/218204-tesco-liberec-iv-perstyn.html","352"
"19","Škola","Dětský diagnostický ústav, středisko výchovné péče, ZŠ a dětský domov Liberec","https://www.firmy.cz/detail/1940558-detsky-diagnosticky-ustav-stredisko-vychovne-pece-zs-a-detsky-domov-liberec-liberec-iv-perstyn.html","369"
