"","facility_type","facility_name","facility_iri","facility_distance"
"0","Hřiště","Dětské hřiště U Brány","https://mapy.cz/zakladni?x=15.5865043638&y=49.3952793668&z=17&source=base&id=1927628","159"
"1","Přírodní zajímavost","Pístovské mokřady","https://mapy.cz/zakladni?x=15.5664288889&y=49.3729183333&z=17&source=base&id=1981399","3021"
"2","Hospoda","Hospoda pod věží","https://www.firmy.cz/detail/13141183-hospoda-pod-vezi-jihlava.html","134"
"3","Kino","Kino Dukla","https://www.firmy.cz/detail/12792238-kino-dukla-jihlava.html","232"
"4","Večerka","Levné potraviny - DKS Morava s.r.o.","https://www.firmy.cz/detail/13026425-levne-potraviny-dks-morava-s-r-o-jihlava.html","61"
"5","Veterinář","Veterinární ordinace Jihlava - MVDr. Marcela Cecchinato","https://www.firmy.cz/detail/12871130-veterinarni-ordinace-jihlava-mvdr-marcela-cecchinato-jihlava.html","218"
"6","Cukrárna","Cukrárna Matky Boží","https://www.firmy.cz/detail/13153292-cukrarna-matky-bozi-jihlava.html","109"
"7","Divadlo","Horácké divadlo Jihlava","https://www.firmy.cz/detail/396913-horacke-divadlo-jihlava-jihlava.html","253"
"8","Obchod","PRIOR ČESKÁ REPUBLIKA s.r.o.","https://www.firmy.cz/detail/1956976-prior-ceska-republika-s-r-o-jihlava.html","200"
"9","Lékárna","Lékárna Tilia","https://www.firmy.cz/detail/658480-lekarna-tilia-jihlava.html","85"
"10","Bankomat","Bankomat Euronet","https://www.firmy.cz/detail/13055801-bankomat-euronet-jihlava.html","46"
"11","Restaurace","Restaurace Rongvang","https://www.firmy.cz/detail/13134525-restaurace-rongvang-jihlava.html","41"
"12","Škola","Gymnázium Jihlava","https://www.firmy.cz/detail/362295-gymnazium-jihlava-jihlava.html","280"
"13","Bus MHD","Masarykovo nám.horní","https://mapy.cz/zakladni?x=15.5905914181&y=49.3962705073&z=17&source=pubt&id=15201676","163"
"14","Lékař","MUDr. VOSÁHLOVÁ s.r.o.","https://www.firmy.cz/detail/13169378-mudr-vosahlova-s-r-o-jihlava.html","85"
"15","Sportoviště","Orel jednota Jihlava","https://www.firmy.cz/detail/1960655-orel-jednota-jihlava-jihlava.html","203"
"16","Pošta","Pošta Jihlava 1 - Česká pošta, s.p.","https://www.firmy.cz/detail/215534-posta-jihlava-1-jihlava.html","141"
"17","Vlak","Jihlava město","https://mapy.cz/zakladni?x=15.5833962525&y=49.4039717279&z=17&source=pubt&id=15211652","955"
"18","Školka","Mateřská škola Zvoněnka, Dvořákova 11","https://www.firmy.cz/detail/1889501-materska-skola-zvonenka-dvorakova-11-jihlava.html","305"
