"","facility_type","facility_name","facility_iri","facility_distance"
"0","Cukrárna","NA ZMRZKU","https://www.firmy.cz/detail/13120938-na-zmrzku-hradec-kralove-novy-hradec-kralove.html","553"
"1","Kino","CineStar Hradec Králové","https://www.firmy.cz/detail/396569-cinestar-hradec-kralove-hradec-kralove-novy-hradec-kralove.html","703"
"2","Hřiště","Dětské hřiště Selicharova","","229"
"3","Přírodní zajímavost","Slepé rameno Orlice u loděnice","","2622"
"4","Večerka","BILLA","https://www.firmy.cz/detail/12957382-billa-hradec-kralove-novy-hradec-kralove.html","147"
"5","Hospoda","Pivnice U Marťase","https://www.firmy.cz/detail/13071192-pivnice-u-martase-hradec-kralove-trebes.html","180"
"6","Divadlo","Divadlo Drak","https://www.firmy.cz/detail/230884-divadlo-drak-hradec-kralove.html","1601"
"7","Veterinář","Veterinární ordinace KEVET","https://www.firmy.cz/detail/12826140-veterinarni-ordinace-kevet-hradec-kralove.html","52"
"8","Lékárna","LÉKÁRNA ipc NIKO","https://www.firmy.cz/detail/12781793-lekarna-ipc-niko-hradec-kralove-trebes.html","155"
"9","Bankomat","Bankomat České spořitelny","https://www.firmy.cz/detail/592336-bankomat-ceske-sporitelny-hradec-kralove-novy-hradec-kralove.html","414"
"10","Vlak","Hradec Králové-Kukleny","","3113"
"11","Škola","ZŠ a MŠ Pohádka, Hradec Králové","https://www.firmy.cz/detail/364781-zs-a-ms-pohadka-hradec-kralove-hradec-kralove-novy-hradec-kralove.html","245"
"12","Pošta","Pošta Hradec Králové 12 - Česká pošta, s.p.","https://www.firmy.cz/detail/216320-posta-hradec-kralove-12-hradec-kralove-novy-hradec-kralove.html","113"
"13","Lékař","MUDr. Romana Zoubelová","https://www.firmy.cz/detail/381033-mudr-romana-zoubelova-hradec-kralove-novy-hradec-kralove.html","245"
"14","Restaurace","KOZLOVKA HK","https://www.firmy.cz/detail/13294890-kozlovka-hk-hradec-kralove-trebes.html","180"
"15","Bus MHD","Benešova","","113"
"16","Školka","ZŠ a MŠ Pohádka, Hradec Králové","https://www.firmy.cz/detail/357249-zs-a-ms-pohadka-hradec-kralove-hradec-kralove-novy-hradec-kralove.html","245"
"17","Obchod","OC Futurum Hradec Králové","https://www.firmy.cz/detail/586763-oc-futurum-hradec-kralove-hradec-kralove-novy-hradec-kralove.html","784"
"18","Sportoviště","TECHNICKÉ SLUŽBY HRADEC KRÁLOVÉ","https://www.firmy.cz/detail/12898475-technicke-sluzby-hradec-kralove-hradec-kralove.html","353"
