"","facility_type","facility_name","facility_iri","facility_distance"
"0","Hřiště","Dětské hřiště","https://mapy.cz/zakladni?x=14.211621383&y=50.061006186&z=17&source=base&id=2218085","377"
"1","Večerka","Potraviny CBA","https://www.firmy.cz/detail/12972171-potraviny-cba-chyne.html","1019"
"2","Hospoda","U Hamouzů","https://www.firmy.cz/detail/13209674-u-hamouzu-chyne.html","2301"
"3","Veterinář","Veterinární ordinace Petra","https://www.firmy.cz/detail/13015434-veterinarni-ordinace-petra-rudna.html","2859"
"4","Cukrárna","RŮŽOVÁ cukrárna & kavárna","https://www.firmy.cz/detail/12851845-ruzova-cukrarna-kavarna-rudna.html","2931"
"5","Bus MHD","Chýně, Nádraží","https://mapy.cz/zakladni?x=14.21255&y=50.05896&z=17&source=pubt&id=17136336","145"
"6","Sportoviště","Paintball HraBarev.cz","https://www.firmy.cz/detail/2180550-paintball-hrabarev-cz-hostivice.html","1367"
"7","Škola","ZŠ Chýně","https://www.firmy.cz/detail/357425-zs-chyne-chyne.html","548"
"8","Pošta","Pošta Partner Chýně","https://www.firmy.cz/detail/13163113-posta-partner-chyne-chyne.html","931"
"9","Vlak","Chýně","https://mapy.cz/zakladni?x=14.2119260027&y=50.0589993516&z=17&source=pubt&id=15698436","177"
"10","Obchod","Tesco","https://www.firmy.cz/detail/12741893-tesco-hostivice.html","3198"
"11","Bankomat","Bankomat Komerční banky","https://www.firmy.cz/detail/1351722-bankomat-komercni-banky-rudna.html","2935"
"12","Školka","Školka Butterfly","https://www.firmy.cz/detail/12772584-skolka-butterfly-chyne.html","483"
"13","Lékárna","Dr. Max LÉKÁRNA","https://www.firmy.cz/detail/13335762-dr-max-lekarna-rudna.html","2939"
"14","Lékař","Rudnadent - MUDr. Kamila Branamová","https://www.firmy.cz/detail/13234250-rudnadent-mudr-kamila-branamova-rudna.html","2963"
"15","Restaurace","U veselého kuchaře","https://www.firmy.cz/detail/2114550-u-veseleho-kuchare-chyne.html","1019"
