"","facility_type","facility_name","facility_iri","facility_distance"
"0","Cukrárna","Cukrárna MiKi","https://www.firmy.cz/detail/13143368-cukrarna-miki-zabreh.html","699"
"1","Kino","Kino Retro","https://www.firmy.cz/detail/12853008-kino-retro-zabreh.html","931"
"2","Hřiště","Dětské hřiště Wolkerovy sady","","213"
"3","Večerka","Lidl","https://www.firmy.cz/detail/1950486-lidl-zabreh.html","430"
"4","Hospoda","Hospoda Zábřeh","https://www.firmy.cz/detail/13109015-hospoda-zabreh-zabreh.html","1129"
"5","Divadlo","Divadlo Václav, z.s.","https://www.firmy.cz/detail/13208988-divadlo-vaclav-z-s-zabreh-vaclavov.html","4827"
"6","Veterinář","MVDr. Petr Šebesta","https://www.firmy.cz/detail/276221-mvdr-petr-sebesta-zabreh.html","216"
"7","Školka","ZŠ a MŠ Rudolfa Pavlů, Zábřeh","https://www.firmy.cz/detail/442645-zs-a-ms-rudolfa-pavlu-zabreh-zabreh.html","582"
"8","Restaurace","Restaurace Rafanda","https://www.firmy.cz/detail/13009460-restaurace-rafanda-zabreh.html","167"
"9","Bus MHD","Zábřeh, MEP","","429"
"10","Sportoviště","El Paso Mexican Bowling","https://www.firmy.cz/detail/2025313-el-paso-mexican-bowling-zabreh.html","517"
"11","Lékař","MUDr. Ivo Mohyla","https://www.firmy.cz/detail/12978525-mudr-ivo-mohyla-zabreh.html","847"
"12","Škola","ZŠ a MŠ Rudolfa Pavlů, Zábřeh","https://www.firmy.cz/detail/360156-zs-a-ms-rudolfa-pavlu-zabreh-zabreh.html","582"
"13","Lékárna","Dr.Max LÉKÁRNA","https://www.firmy.cz/detail/13085706-dr-max-lekarna-zabreh.html","548"
"14","Pošta","Pošta Zábřeh - Česká pošta, s.p.","https://www.firmy.cz/detail/431376-posta-zabreh-zabreh.html","766"
"15","Vlak","Zábřeh na Moravě","","637"
"16","Obchod","Kaufland","https://www.firmy.cz/detail/2617032-kaufland-zabreh.html","573"
"17","Bankomat","Bankomat MONETA Money Bank","https://www.firmy.cz/detail/2674123-bankomat-moneta-money-bank-zabreh.html","565"
