"","facility_type","facility_name","facility_iri","facility_distance"
"0","Cukrárna","Café Oliver","https://www.firmy.cz/detail/12971274-cafe-oliver-teplice.html","570"
"1","Kino","Multikino - Premiere Cinemas Teplice","https://www.firmy.cz/detail/12861055-multikino-premiere-cinemas-teplice-teplice.html","1116"
"2","Přírodní zajímavost","Porcelanity u Strak","","2831"
"3","Hřiště","Dětské hřiště Zrenjaninská","","314"
"4","Večerka","Potraviny Duchcovská 413/88d","https://www.firmy.cz/detail/13061545-potraviny-duchcovska-413-88d-teplice-retenice.html","89"
"5","Hospoda","Hospůdka Vyšehrad Teplice","https://www.firmy.cz/detail/13121903-hospudka-vysehrad-teplice-teplice.html","1400"
"6","Divadlo","Krušnohorské divadlo","https://www.firmy.cz/detail/435271-krusnohorske-divadlo-teplice.html","1431"
"7","Veterinář","MVDr. Věra Hánová","https://www.firmy.cz/detail/2030919-mvdr-vera-hanova-teplice.html","480"
"8","Pošta","Pošta Teplice 3 - Česká pošta, s.p.","https://www.firmy.cz/detail/215428-posta-teplice-3-teplice-retenice.html","201"
"9","Bankomat","Bankomat České spořitelny","https://www.firmy.cz/detail/2291269-bankomat-ceske-sporitelny-teplice-retenice.html","154"
"10","Bus MHD","Teplice, Libušina","","60"
"11","Lékař","MUDr. Petr Tamler, s.r.o.","https://www.firmy.cz/detail/13282113-mudr-petr-tamler-teplice.html","263"
"12","Sportoviště","HBC Teplice","https://www.firmy.cz/detail/2257196-hbc-teplice-teplice-retenice.html","368"
"13","Vlak","Teplice zámecká zahrada","","631"
"14","Obchod","Kaufland","https://www.firmy.cz/detail/13187779-kaufland-teplice.html","870"
"15","Lékárna","Nemocniční lékárna, Nemocnice Teplice, o.z.","https://www.firmy.cz/detail/12771491-nemocnicni-lekarna-nemocnice-teplice-o-z-teplice.html","263"
"16","Škola","Střední škola AGC","https://www.firmy.cz/detail/361393-stredni-skola-agc-teplice-retenice.html","168"
"17","Restaurace","Restaurace Originál Perla","https://www.firmy.cz/detail/13266184-restaurace-original-perla-teplice-retenice.html","128"
"18","Školka","MŠ Teplice, Jaselská","https://www.firmy.cz/detail/2272951-ms-teplice-jaselska-teplice-retenice.html","248"
