"","facility_type","facility_name","facility_iri","facility_distance"
"0","Cukrárna","Cukrářství Jiří Stárek","https://www.firmy.cz/detail/13144942-cukrarstvi-jiri-starek-louny.html","534"
"1","Kino","Kino Svět Louny","https://www.firmy.cz/detail/2411773-kino-svet-louny-louny.html","1724"
"2","Hřiště","Dětské hřiště Čs. armády","","305"
"3","Večerka","JEDNOTA, spotřební družstvo v Podbořanech - COOP","https://www.firmy.cz/detail/2344468-jednota-spotrebni-druzstvo-v-podboranech-coop-louny.html","310"
"4","Divadlo","Loutkové divadlo - Spolek loutkářů v Lounech","https://www.firmy.cz/detail/12833931-loutkove-divadlo-louny.html","1098"
"5","Hospoda","XXL Pub","https://www.firmy.cz/detail/12844770-xxl-pub-louny.html","978"
"6","Veterinář","MVDr. Ladislav Vojtěchovský","https://www.firmy.cz/detail/12824764-mvdr-ladislav-vojtechovsky-louny.html","468"
"7","Bus MHD","Louny, Zahradní město","","170"
"8","Vlak","Louny střed","","815"
"9","Bankomat","Bankomat ČSOB","https://www.firmy.cz/detail/2409922-bankomat-csob-louny.html","130"
"10","Pošta","Pošta Louny 4 - Česká pošta, s.p.","https://www.firmy.cz/detail/432276-posta-louny-4-louny.html","982"
"11","Obchod","Kaufland","https://www.firmy.cz/detail/1406112-kaufland-louny.html","126"
"12","Školka","MŠ Louny, Čs. armády","https://www.firmy.cz/detail/2272994-ms-louny-cs-armady-louny.html","390"
"13","Škola","ZŠ a MŠ Kpt. Otakara Jaroše, Louny","https://www.firmy.cz/detail/358119-zs-a-ms-kpt-otakara-jarose-louny-louny.html","430"
"14","Lékárna","BENU Lékárna","https://www.firmy.cz/detail/13325481-benu-lekarna-louny.html","126"
"15","Restaurace","Restaurace Lounský žejdlík","https://www.firmy.cz/detail/13120045-restaurace-lounsky-zejdlik-louny.html","562"
"16","Lékař","MUDr. Jitka Hellingerová","https://www.firmy.cz/detail/389448-mudr-jitka-hellingerova-louny.html","138"
"17","Sportoviště","Společnost českých střelců Louny","https://www.firmy.cz/detail/12870390-spolecnost-ceskych-strelcu-louny-louny.html","251"
