"","facility_type","facility_name","facility_iri","facility_distance"
"0","Hřiště","Dětské hřiště Větrná","https://mapy.cz/zakladni?x=16.0340978241&y=48.8790188343&z=17&source=base&id=2196548","73"
"1","Přírodní zajímavost","Gránické údolí","https://mapy.cz/zakladni?x=16.0407940378&y=48.8589336662&z=17&source=base&id=1905569","2246"
"2","Cukrárna","CAFÉ SCHOOL – školní bar","https://www.firmy.cz/detail/12887085-cafe-school-skolni-bar-znojmo.html","1588"
"3","Večerka","Super Market Robinson","https://www.firmy.cz/detail/13314969-super-market-robinson-znojmo-primetice.html","122"
"4","Hospoda","Pivnice Pokr","https://www.firmy.cz/detail/13115024-pivnice-pokr-znojmo.html","1049"
"5","Veterinář","MVDr.František Dvořák","https://www.firmy.cz/detail/12877845-mvdr-frantisek-dvorak-znojmo-primetice.html","513"
"6","Divadlo","Městské divadlo Znojmo","https://www.firmy.cz/detail/230910-mestske-divadlo-znojmo-znojmo.html","3155"
"7","Kino","Kino Svět","https://www.firmy.cz/detail/151310-kino-svet-znojmo.html","2809"
"8","Škola","ZŠ Prokopa Diviše a MŠ, Znojmo - Přímětice","https://www.firmy.cz/detail/360242-zs-prokopa-divise-a-ms-znojmo-primetice-znojmo-primetice.html","272"
"9","Školka","MŠ Znojmo, Ugartova","https://www.firmy.cz/detail/750347-ms-znojmo-ugartova-znojmo-primetice.html","610"
"10","Restaurace","Bowlingbar Přímětice","https://www.firmy.cz/detail/2568738-bowlingbar-primetice-znojmo-primetice.html","122"
"11","Bus MHD","Znojmo, Přímětice, sídliště","https://mapy.cz/zakladni?x=16.0346225909&y=48.8785038266&z=17&source=pubt&id=15323786","42"
"12","Lékař","MUDr. Anna Štáfková s.r.o","https://www.firmy.cz/detail/13052741-mudr-anna-stafkova-s-r-o-znojmo-primetice.html","148"
"13","Sportoviště","TJ Sokol Přímětice","https://www.firmy.cz/detail/2654543-tj-sokol-primetice-znojmo-primetice.html","272"
"14","Obchod","Kaufland","https://www.firmy.cz/detail/1452574-kaufland-znojmo.html","2534"
"15","Lékárna","Lékárna Přímětická","https://www.firmy.cz/detail/374786-lekarna-primeticka-znojmo-primetice.html","301"
"16","Bankomat","Bankomat Komerční banky","https://www.firmy.cz/detail/2420089-bankomat-komercni-banky-znojmo.html","1546"
"17","Pošta","Pošta Znojmo 4 - Česká pošta, s.p.","https://www.firmy.cz/detail/216355-posta-znojmo-4-znojmo-primetice.html","419"
"18","Vlak","Znojmo nemocnice","https://mapy.cz/zakladni?x=16.0484154577&y=48.8654757691&z=17&source=pubt&id=15699138","1773"
