"","facility_type","facility_name","facility_iri","facility_distance"
"0","Hřiště","Dětské hřiště Vojtěšský obvod","https://mapy.cz/zakladni?x=14.4130060351&y=50.0778978389&z=17&source=base&id=1926387","333"
"1","Večerka","MANNI MINI MARKET","https://www.firmy.cz/detail/2609033-manni-mini-market-praha-nove-mesto.html","331"
"2","Cukrárna","Café Rybka","https://www.firmy.cz/detail/328648-cafe-rybka-praha-nove-mesto.html","135"
"3","Veterinář","MVDr. Katka Sviták Novozámská","https://www.firmy.cz/detail/2137713-mvdr-katka-svitak-novozamska-praha-stare-mesto.html","529"
"4","Hospoda","Batalion Café & Music Bar","https://www.firmy.cz/detail/457689-batalion-cafe-music-bar-praha-stare-mesto.html","571"
"5","Divadlo","Divadlo Viola","https://www.firmy.cz/detail/177500-divadlo-viola-praha-stare-mesto.html","141"
"6","Kino","Rock Café","https://www.firmy.cz/detail/275548-rock-cafe-praha-nove-mesto.html","274"
"7","Přírodní zajímavost","Kovářovic mez","https://mapy.cz/zakladni?x=14.36107759920759&y=50.04395254566995&z=17&source=base&id=2339664","5620"
"8","Restaurace","Restaurace Dynamo","https://www.firmy.cz/detail/328533-restaurace-dynamo-praha-nove-mesto.html","70"
"9","Tram","Národní divadlo","https://mapy.cz/zakladni?x=14.4148989687313&y=50.0814112368444&z=17&source=pubt&id=15302946","131"
"10","Školka","MŠ sv. Voršily v Praze","https://www.firmy.cz/detail/406704-ms-sv-vorsily-v-praze-praha-nove-mesto.html","32"
"11","Obchod","palác metro","https://www.firmy.cz/detail/143339-palac-metro-praha-stare-mesto.html","273"
"12","Sportoviště","Tenisová škola TALLENT","https://www.firmy.cz/detail/722748-tenisova-skola-tallent-praha-nove-mesto.html","36"
"13","Lékař","TeamPrevent-Santé, s.r.o.","https://www.firmy.cz/detail/313672-teamprevent-sante-s-r-o-praha-nove-mesto.html","104"
"14","Lékárna","BENU Lékárna","https://www.firmy.cz/detail/12864634-benu-lekarna-praha-stare-mesto.html","149"
"15","Škola","ZŠ sv. Voršily, Praha 1","https://www.firmy.cz/detail/178063-zs-sv-vorsily-praha-1-praha-nove-mesto.html","36"
"16","Metro","Národní třída","https://mapy.cz/zakladni?x=14.4197996584&y=50.0812705679&z=17&source=pubt&id=15200228","310"
"17","Vlak","Praha hlavní nádraží","https://mapy.cz/zakladni?x=14.4369820737851&y=50.082990005918&z=17&source=pubt&id=15212548","1547"
"18","Pošta","Pošta Praha 51 - Česká pošta, s.p.","https://www.firmy.cz/detail/431281-posta-praha-51-praha-mala-strana.html","821"
"19","Bankomat","Raiffeisenbank - bankomat","https://www.firmy.cz/detail/631173-raiffeisenbank-bankomat-praha-stare-mesto.html","155"
"20","Bus MHD","Jiráskovo náměstí","https://mapy.cz/zakladni?x=14.413178042753056&y=50.0758285106339&z=17&source=pubt&id=15305687","534"
