"","facility_type","facility_name","facility_iri","facility_distance"
"0","Cukrárna","Cukrárna Crystal","https://www.firmy.cz/detail/13272890-cukrarna-crystal-plzen-jizni-predmesti.html","686"
"1","Kino","Kino Beseda","https://www.firmy.cz/detail/12773769-kino-beseda-plzen-jizni-predmesti.html","1083"
"2","Hřiště","Dětské hřiště Schwarzova","","85"
"3","Večerka","Západočeské konzumní družstvo Plzeň - COOP - TIP","https://www.firmy.cz/detail/465422-zapadoceske-konzumni-druzstvo-plzen-coop-tip-plzen-jizni-predmesti.html","259"
"4","Hospoda","Krušovický Sklípek","https://www.firmy.cz/detail/288569-krusovicky-sklipek-plzen-jizni-predmesti.html","219"
"5","Divadlo","Divadlo pod lampou, o.p.s.","https://www.firmy.cz/detail/2418226-divadlo-pod-lampou-plzen-jizni-predmesti.html","283"
"6","Veterinář","Psí salón BELLA","https://www.firmy.cz/detail/12759736-psi-salon-bella-plzen-jizni-predmesti.html","462"
"7","Škola","2. ZŠ Plzeň, Schwarzova 20","https://www.firmy.cz/detail/176794-2-zs-plzen-schwarzova-20-plzen-jizni-predmesti.html","177"
"8","Bankomat","Bankomat České spořitelny","https://www.firmy.cz/detail/594021-bankomat-ceske-sporitelny-plzen-jizni-predmesti.html","421"
"9","Vlak","Plzeň-Jižní Předměstí","","306"
"10","Tram","Chodské náměstí","","326"
"11","Bus MHD","Nám. Českých bratří","","162"
"12","Sportoviště","Tenisová škola TALLENT","https://www.firmy.cz/detail/722814-tenisova-skola-tallent-plzen-jizni-predmesti.html","177"
"13","Lékař","MUDr. Miloš Krupička","https://www.firmy.cz/detail/368426-mudr-milos-krupicka-plzen-jizni-predmesti.html","403"
"14","Restaurace","Restaurace Victoria","https://www.firmy.cz/detail/574327-restaurace-victoria-plzen-jizni-predmesti.html","317"
"15","Školka","24. MŠ Plzeň, Schwarzova","https://www.firmy.cz/detail/360416-24-ms-plzen-schwarzova-plzen-jizni-predmesti.html","65"
"16","Obchod","Kaufland","https://www.firmy.cz/detail/2616232-kaufland-plzen-jizni-predmesti.html","1084"
"17","Lékárna","Lékárna U sv. Jana Nepomuckého","https://www.firmy.cz/detail/658628-lekarna-u-sv-jana-nepomuckeho-plzen-jizni-predmesti.html","312"
"18","Pošta","Pošta Plzeň 13 - Česká pošta, s.p.","https://www.firmy.cz/detail/216649-posta-plzen-13-plzen-jizni-predmesti.html","400"
