"","facility_type","facility_name","facility_iri","facility_distance"
"0","Cukrárna","Café Midi","https://www.firmy.cz/detail/13011651-cafe-midi-brandys-nad-labem-stara-boleslav-brandys-nad-labem.html","272"
"1","Kino","Kino Brandýs nad Labem","https://www.firmy.cz/detail/12968784-kino-brandys-nad-labem-brandys-nad-labem-stara-boleslav-brandys-nad-labem.html","345"
"2","Hřiště","Dětské hřiště","","213"
"3","Večerka","Potraviny CBA","https://www.firmy.cz/detail/12998409-potraviny-cba-brandys-nad-labem-stara-boleslav-brandys-nad-labem.html","282"
"4","Hospoda","Saloon Brandýs","https://www.firmy.cz/detail/13119918-saloon-brandys-brandys-nad-labem-stara-boleslav-brandys-nad-labem.html","50"
"5","Divadlo","Divadlo BlaMa","https://www.firmy.cz/detail/12760937-divadlo-blama-novy-vestec.html","3910"
"6","Veterinář","Veterinární nemocnice  Brandýs – VetPark,  MVDr. Dominik Vlach","https://www.firmy.cz/detail/402461-veterinarni-nemocnice-brandys-vetpark-mvdr-dominik-vlach-brandys-nad-labem-stara-boleslav-brandys-nad-labem.html","500"
"7","Bus MHD","Brandýs n.L.-St.Bol., U Soudu","","193"
"8","Lékárna","Dr. Max","https://www.firmy.cz/detail/12856992-dr-max-brandys-nad-labem-stara-boleslav-brandys-nad-labem.html","313"
"9","Bankomat","Bankomat České spořitelny","https://www.firmy.cz/detail/591805-bankomat-ceske-sporitelny-brandys-nad-labem-stara-boleslav-brandys-nad-labem.html","153"
"10","Sportoviště","Discgolfové hřiště Ostrůvek","","537"
"11","Školka","ZŠ Brandýs n.L. - St. Boleslav, Palachova","https://www.firmy.cz/detail/12818737-zs-brandys-n-l-st-boleslav-palachova-brandys-nad-labem-stara-boleslav-brandys-nad-labem.html","245"
"12","Pošta","Pošta Brandýs nad Labem-Stará Boleslav 1 - Česká pošta, s.p.","https://www.firmy.cz/detail/217389-posta-brandys-nad-labem-stara-boleslav-1-brandys-nad-labem-stara-boleslav-brandys-nad-labem.html","226"
"13","Restaurace","Saloon Brandýs","https://www.firmy.cz/detail/13011655-saloon-brandys-brandys-nad-labem-stara-boleslav-brandys-nad-labem.html","50"
"14","Lékař","MEDI-Sirius, s.r.o.","https://www.firmy.cz/detail/12832330-medi-sirius-brandys-nad-labem-stara-boleslav-brandys-nad-labem.html","314"
"15","Škola","Veselá škola","https://www.firmy.cz/detail/13294847-vesela-skola-brandys-nad-labem-stara-boleslav-brandys-nad-labem.html","27"
"16","Obchod","Kaufland","https://www.firmy.cz/detail/12982561-kaufland-brandys-nad-labem-stara-boleslav-brandys-nad-labem.html","1033"
"17","Vlak","Brandýs nad Labem-Zápská","","407"
