"","facility_type","facility_name","facility_iri","facility_distance"
"0","Cukrárna","Kavárna Creperie","https://www.firmy.cz/detail/2037440-kavarna-creperie-praha-vysocany.html","1102"
"1","Kino","Cinema City Letňany","https://www.firmy.cz/detail/2679833-cinema-city-letnany-praha-letnany.html","3360"
"2","Přírodní zajímavost","Meandry Rokytky","","1067"
"3","Hřiště","Dětské hřiště Svatošových","","118"
"4","Večerka","Best Price Mall","https://www.firmy.cz/detail/13325553-best-price-mall-praha-vysocany.html","293"
"5","Hospoda","Hospoda U Zdi","https://www.firmy.cz/detail/13217099-hospoda-u-zdi-praha-liben.html","1942"
"6","Divadlo","Divadlo Gong","https://www.firmy.cz/detail/230751-divadlo-gong-praha-liben.html","1997"
"7","Veterinář","Veterinární klinika Poděbradská","https://www.firmy.cz/detail/166978-veterinarni-klinika-podebradska-praha-hloubetin.html","820"
"8","Sportoviště","Discgolf Rokytka","","248"
"9","Pošta","Pošta Praha 93 - Česká pošta, s.p.","https://www.firmy.cz/detail/217419-posta-praha-93-praha-vysocany.html","1123"
"10","Tram","Kolbenova","","295"
"11","Lékař","Poliklinika Kolbenova","https://www.firmy.cz/detail/12837303-poliklinika-kolbenova-praha-vysocany.html","365"
"12","Restaurace","Stazione Felicita","https://www.firmy.cz/detail/13310141-stazione-felicita-praha-vysocany.html","282"
"13","Bankomat","Bankomat České spořitelny","https://www.firmy.cz/detail/595007-bankomat-ceske-sporitelny-praha-vysocany.html","291"
"14","Školka","Dětská skupina MONTE KIDS Vysočany","https://www.firmy.cz/detail/13329782-detska-skupina-monte-kids-vysocany-praha-vysocany.html","840"
"15","Obchod","Nákupní Centrum Fénix Vysočanská","https://www.firmy.cz/detail/613133-nakupni-centrum-fenix-vysocanska-praha-vysocany.html","1094"
"16","Lékárna","Lékárna Poděbradská","https://www.firmy.cz/detail/13317284-lekarna-podebradska-praha-vysocany.html","593"
"17","Bus MHD","Pod Krocínkou","","747"
"18","Metro","Kolbenova","","284"
"19","Vlak","Praha-Libeň","","1326"
"20","Škola","Střední odborná škola uměleckořemeslná, s.r.o.","https://www.firmy.cz/detail/272164-stredni-odborna-skola-umeleckoremeslna-praha-vysocany.html","544"
