"","facility_type","facility_name","facility_iri","facility_distance"
"0","Cukrárna","Cukrárna Pod Marjánkou","https://www.firmy.cz/detail/12887308-cukrarna-pod-marjankou-praha-brevnov.html","1804"
"1","Kino","CineStar Anděl","https://www.firmy.cz/detail/2537565-cinestar-andel-praha-smichov.html","2561"
"2","Přírodní zajímavost","Kovářovic mez","","2951"
"3","Hřiště","Dětské hřiště Nepomucká","","172"
"4","Večerka","Farmářský obchůdek","https://www.firmy.cz/detail/12811625-farmarsky-obchudek-praha.html","349"
"5","Hospoda","Restaurace Na zámyšli","https://www.firmy.cz/detail/12888232-restaurace-na-zamysli-praha-kosire.html","617"
"6","Divadlo","KAŠTAN - Scéna Unijazzu","https://www.firmy.cz/detail/397273-kastan-scena-unijazzu-praha-brevnov.html","1507"
"7","Veterinář","Veterinární klinika - MVDr. Pavel Santar, MVDr. Miloš Sedlář","https://www.firmy.cz/detail/596786-veterinarni-klinika-mvdr-pavel-santar-mvdr-milos-sedlar-praha-kosire.html","1051"
"8","Lékárna","Lékárna Melissa","https://www.firmy.cz/detail/272051-lekarna-melissa-praha-kosire.html","301"
"9","Škola","ZŠ Praha 5, Nepomucká","https://www.firmy.cz/detail/356189-zs-praha-5-nepomucka-praha-kosire.html","180"
"10","Vlak","Praha-Cibulka","","686"
"11","Tram","Kotlářka","","144"
"12","Restaurace","Restaurace Ladronka","https://www.firmy.cz/detail/248946-restaurace-ladronka-praha-smichov.html","195"
"13","Školka","MŠ Slunéčko Praha 5 - Košíře, Nepomucká","https://www.firmy.cz/detail/12733143-ms-slunecko-praha-5-kosire-nepomucka-praha-kosire.html","206"
"14","Pošta","Pošta Praha 56 - Česká pošta, s.p.","https://www.firmy.cz/detail/452790-posta-praha-56-praha-kosire.html","710"
"15","Sportoviště","TJ Banka Praha z.s.","https://www.firmy.cz/detail/422867-tj-banka-praha-z-s-praha-smichov.html","471"
"16","Bus MHD","Pod školou","","240"
"17","Bankomat","Bankomat Komerční banky","https://www.firmy.cz/detail/1348764-bankomat-komercni-banky-praha-kosire.html","417"
"18","Obchod","Kaufland","https://www.firmy.cz/detail/221319-kaufland-praha-brevnov.html","2030"
"19","Metro","Jinonice","","1804"
"20","Lékař","VÁCLAVKA, spol. s r.o.","https://www.firmy.cz/detail/201959-vaclavka-praha-kosire.html","305"
