"","facility_type","facility_name","facility_iri","facility_distance"
"0","Cukrárna","Cukrárna Lada","https://www.firmy.cz/detail/12915655-cukrarna-lada-havirov-sumbark.html","1350"
"1","Kino","Letní kino - Městské kulturní středisko Havířov","https://www.firmy.cz/detail/13072791-letni-kino-havirov.html","1633"
"2","Hřiště","Dětské hřiště U Tesly","","473"
"3","Večerka","HRUŠKA","https://www.firmy.cz/detail/12863525-hruska-havirov-sumbark.html","153"
"4","Hospoda","Hospůdka na hřišti","https://www.firmy.cz/detail/13128587-hospudka-na-hristi-havirov-sumbark.html","554"
"5","Veterinář","Veterinární klinika ANIVET - MVDr. Zbyněk Horák","https://www.firmy.cz/detail/1969639-veterinarni-klinika-anivet-mvdr-zbynek-horak-havirov-sumbark.html","201"
"6","Školka","Mateřinka","https://www.firmy.cz/detail/151196-materinka-havirov-sumbark.html","94"
"7","Bankomat","Bankomat České spořitelny","https://www.firmy.cz/detail/2464983-bankomat-ceske-sporitelny-havirov-sumbark.html","338"
"8","Obchod","Tesco","https://www.firmy.cz/detail/218205-tesco-havirov-mesto.html","1277"
"9","Lékárna","LÉKÁRNA ŠUMBARK","https://www.firmy.cz/detail/13204260-lekarna-sumbark-havirov-sumbark.html","219"
"10","Vlak","Havířov","","824"
"11","Bus MHD","Havířov, Šumbark, Vsuvky","","259"
"12","Lékař","MUDr. René Turčínek","https://www.firmy.cz/detail/387379-mudr-rene-turcinek-havirov-sumbark.html","269"
"13","Sportoviště","Sportovní Centrum ProCE TRADE","https://www.firmy.cz/detail/708439-sportovni-centrum-proce-trade-havirov-sumbark.html","118"
"14","Škola","ZŠ Havířov - Šumbark","https://www.firmy.cz/detail/357060-zs-havirov-sumbark-havirov-sumbark.html","135"
"15","Pošta","Pošta Havířov 3 - Česká pošta, s.p.","https://www.firmy.cz/detail/431629-posta-havirov-3-havirov-sumbark.html","153"
"16","Restaurace","GURMÁN","https://www.firmy.cz/detail/12907330-gurman-havirov.html","82"
