"","facility_type","facility_name","facility_iri","facility_distance"
"0","Cukrárna","Cukrárna Diana","https://www.firmy.cz/detail/1990334-cukrarna-diana-opava-predmesti.html","1693"
"1","Kino","CineStar Opava","https://www.firmy.cz/detail/12765227-cinestar-opava-opava-mesto.html","1872"
"2","Přírodní zajímavost","Bludný balvan","","2497"
"3","Hřiště","Dětské hřiště Městské sady","","602"
"4","Večerka","TERNO SUPERMARKET","https://www.firmy.cz/detail/13265798-terno-supermarket-opava-jaktar.html","853"
"5","Hospoda","Pivnice Svijany","https://www.firmy.cz/detail/13114110-pivnice-svijany-opava-predmesti.html","1315"
"6","Divadlo","Slezské divadlo Opava","https://www.firmy.cz/detail/230941-slezske-divadlo-opava-opava-mesto.html","2085"
"7","Veterinář","VETERINÁRNÍ KLINIKA MVDr. Radomíra Hynara, s.r.o.","https://www.firmy.cz/detail/2135162-veterinarni-klinika-mvdr-radomira-hynara-opava-jaktar.html","777"
"8","Bankomat","Bankomat Komerční banky","https://www.firmy.cz/detail/594152-bankomat-komercni-banky-opava-mesto.html","1865"
"9","Školka","Mateřská škola Sedmikrásky, Opava","https://www.firmy.cz/detail/688991-materska-skola-sedmikrasky-opava-opava-jaktar.html","577"
"10","Lékárna","Dr. Max LÉKÁRNA","https://www.firmy.cz/detail/13095598-dr-max-lekarna-opava-jaktar.html","827"
"11","Pošta","Pošta Opava 7 - Česká pošta, s.p.","https://www.firmy.cz/detail/432564-posta-opava-7-opava-jaktar.html","906"
"12","Vlak","Opava západ","","1545"
"13","Lékař","MUDr. Sylva Chvílová","https://www.firmy.cz/detail/387984-mudr-sylva-chvilova-opava-predmesti.html","1512"
"14","Sportoviště","HALA OPAVA","https://www.firmy.cz/detail/645226-hala-opava-opava-predmesti.html","432"
"15","Škola","ZŠ Opava, Krnovská","https://www.firmy.cz/detail/2591887-zs-opava-krnovska-opava-jaktar.html","491"
"16","Bus MHD","Opava, Jaktař, U Jaktarky","","225"
"17","Restaurace","Restaurace Raketa bowling","https://www.firmy.cz/detail/2362931-restaurace-raketa-bowling-opava-jaktar.html","225"
"18","Obchod","OPAVLEN obchodně relaxační zóna","https://www.firmy.cz/detail/199911-opavlen-obchodne-relaxacni-zona-opava-predmesti.html","695"
