"","facility_type","facility_name","facility_iri","facility_distance"
"0","Cukrárna","Martina Kolačná","https://www.firmy.cz/detail/12986032-martina-kolacna-brno-zidenice.html","723"
"1","Kino","5D cinema Maxim","https://www.firmy.cz/detail/12734839-5d-cinema-maxim-brno-mesto.html","2663"
"2","Hřiště","Dětské hřiště Ondříčkovo náměstí","","138"
"3","Přírodní zajímavost","Cesta rákosím","","3275"
"4","Večerka","Potraviny ENAPO","https://www.firmy.cz/detail/13268584-potraviny-enapo-brno-zidenice.html","401"
"5","Divadlo","Divadlo Neslyším","https://www.firmy.cz/detail/406578-divadlo-neslysim-brno-zabrdovice.html","1968"
"6","Hospoda","Hospůdka Na hřišti","https://www.firmy.cz/detail/12707503-hospudka-na-hristi-brno-zidenice.html","609"
"7","Veterinář","MVDr. Tomáš Pelikán","https://www.firmy.cz/detail/579963-mvdr-tomas-pelikan-brno-zidenice.html","330"
"8","Školka","MŠ Brno, Kamenáčky","https://www.firmy.cz/detail/407356-ms-brno-kamenacky-brno-zidenice.html","245"
"9","Sportoviště","Dětské koupaliště Juliánov","https://www.firmy.cz/detail/12970219-detske-koupaliste-julianov-brno-zidenice.html","304"
"10","Pošta","Pošta Brno 36 - Česká pošta, s.p.","https://www.firmy.cz/detail/431941-posta-brno-36-brno-zidenice.html","253"
"11","Tram","Krásného","","106"
"12","Lékárna","Lékárna Juliánov","https://www.firmy.cz/detail/13064593-lekarna-julianov-brno-zidenice.html","319"
"13","Vlak","Brno-Černovice","","1334"
"14","Škola","ZŠ Masarykova Brno, Kamenačky","https://www.firmy.cz/detail/356508-zs-masarykova-brno-kamenacky-brno-zidenice.html","353"
"15","Lékař","MUDr. Eva Bučková","https://www.firmy.cz/detail/389943-mudr-eva-buckova-brno-zidenice.html","233"
"16","Bankomat","Bankomat ČSOB","https://www.firmy.cz/detail/13198569-bankomat-csob-brno-cernovice.html","497"
"17","Bus MHD","Škroupova","","86"
"18","Obchod","Vinamo","https://www.firmy.cz/detail/13302114-vinamo-brno-cernovice.html","497"
"19","Restaurace","Hostinec U Pantátů","https://www.firmy.cz/detail/12755757-hostinec-u-pantatu-brno-zidenice.html","210"
