"","facility_type","facility_name","facility_iri","facility_distance"
"0","Cukrárna","Kavárna v Pasáži Sofie","https://www.firmy.cz/detail/13124074-kavarna-v-pasazi-sofie-praha-modrany.html","676"
"1","Kino","Modřanský biograf","https://www.firmy.cz/detail/13272765-modransky-biograf-praha-modrany.html","1661"
"2","Hřiště","Dětské hřiště Poljanovova","","86"
"3","Večerka","Smíšené zboží Rilská","https://www.firmy.cz/detail/13289059-smisene-zbozi-rilska-praha-modrany.html","144"
"4","Hospoda","Restaurace Sázava","https://www.firmy.cz/detail/13173848-restaurace-sazava-praha-modrany.html","126"
"5","Divadlo","Divadlo Na Cikorce","https://www.firmy.cz/detail/2387865-divadlo-na-cikorce-praha-modrany.html","964"
"6","Veterinář","Náš veterinář - MVDr. Nikola Hanáková","https://www.firmy.cz/detail/13011207-nas-veterinar-mvdr-nikola-hanakova-praha-modrany.html","812"
"7","Tram","Modřanská rokle","","373"
"8","Školka","MŠ Zvoneček Praha 12","https://www.firmy.cz/detail/673734-ms-zvonecek-praha-12-praha-modrany.html","188"
"9","Obchod","Obchodní pasáž Sofie","https://www.firmy.cz/detail/217785-obchodni-pasaz-sofie-praha-modrany.html","683"
"10","Lékař","MUDr. Miloš Bareš, s.r.o.","https://www.firmy.cz/detail/12838489-mudr-milos-bares-praha-modrany.html","394"
"11","Restaurace","Kebab House","https://www.firmy.cz/detail/13148704-kebab-house-praha-modrany.html","105"
"12","Škola","ZŠ Praha 12, Rakovského","https://www.firmy.cz/detail/358985-zs-praha-12-rakovskeho-praha-modrany.html","163"
"13","Bankomat","Bankomat Fio banky","https://www.firmy.cz/detail/12936423-bankomat-fio-banky-praha-modrany.html","156"
"14","Bus MHD","U Libušského potoka","","362"
"15","Sportoviště","Tenisová škola Tallent","https://www.firmy.cz/detail/722759-tenisova-skola-tallent-praha-modrany.html","163"
"16","Pošta","Pošta Praha 412 - Česká pošta, s.p.","https://www.firmy.cz/detail/217477-posta-praha-412-praha-modrany.html","762"
"17","Lékárna","Dr. Max","https://www.firmy.cz/detail/12804620-dr-max-praha-modrany.html","699"
"18","Vlak","Praha-Modřany zastávka","","1734"
"19","Metro","Budějovická","","4160"
