"","facility_type","facility_name","facility_iri","facility_distance"
"0","Cukrárna","Cukrárna Ollies","https://www.firmy.cz/detail/12720535-cukrarna-ollies-ostrava-poruba.html","532"
"1","Kino","Retrostar kino Polanka","https://www.firmy.cz/detail/12892972-retrostar-kino-polanka-ostrava-polanka-nad-odrou.html","4099"
"2","Přírodní zajímavost","Polanský bludný balvan","","4115"
"3","Hřiště","Dětské hřiště Dělnická","","268"
"4","Večerka","PEKAŘI a spol.","https://www.firmy.cz/detail/283631-pekari-a-spol-ostrava-poruba.html","264"
"5","Hospoda","Pivnice U Oblouku","https://www.firmy.cz/detail/13148786-pivnice-u-oblouku-ostrava-poruba.html","251"
"6","Divadlo","Porubské divadlo","https://www.firmy.cz/detail/2543038-porubske-divadlo-ostrava-poruba.html","1615"
"7","Veterinář","Veterinární klinika Yorika","https://www.firmy.cz/detail/712067-veterinarni-klinika-yorika-ostrava-poruba.html","616"
"8","Lékař","MUDr. Václav Tomášek","https://www.firmy.cz/detail/13293964-mudr-vaclav-tomasek-ostrava-poruba.html","186"
"9","Restaurace","AVOŠOK, spol. s r.o.","https://www.firmy.cz/detail/13114961-avosok-ostrava-poruba.html","275"
"10","Školka","Školka Exilu","https://www.firmy.cz/detail/1948074-skolka-exilu-ostrava-poruba.html","344"
"11","Bus MHD","Oblouk","","80"
"12","Pošta","Pošta Ostrava 35 - Česká pošta, s.p.","https://www.firmy.cz/detail/433347-posta-ostrava-35-ostrava-poruba.html","490"
"13","Sportoviště","Sportovní areál Poruba","https://www.firmy.cz/detail/703484-sportovni-areal-poruba-ostrava-poruba.html","430"
"14","Obchod","Albert Hypermarket","https://www.firmy.cz/detail/12928419-albert-hypermarket-ostrava-poruba.html","1164"
"15","Lékárna","Lékárna Ve Věžičkách","https://www.firmy.cz/detail/13210853-lekarna-ve-vezickach-ostrava-poruba.html","263"
"16","Škola","Jazykové gymnázium Pavla Tigrida Ostrava-Poruba","https://www.firmy.cz/detail/362514-jazykove-gymnazium-pavla-tigrida-ostrava-poruba-ostrava-poruba.html","54"
"17","Tram","Fakultní nemocnice","","787"
"18","Vlak","Ostrava-Třebovice","","2543"
"19","Bankomat","Bankomat České spořitelny","https://www.firmy.cz/detail/13170013-bankomat-ceske-sporitelny-ostrava-poruba.html","264"
