"","facility_type","facility_name","facility_iri","facility_distance"
"0","Cukrárna","Anniny dorty","https://www.firmy.cz/detail/13307017-anniny-dorty-plzen-jizni-predmesti.html","1166"
"1","Kino","Kino Beseda","https://www.firmy.cz/detail/12773769-kino-beseda-plzen-jizni-predmesti.html","2490"
"2","Hřiště","Dětské hřiště Čermákova","","637"
"3","Večerka","Žabka","https://www.firmy.cz/detail/12976651-zabka-plzen-jizni-predmesti.html","1014"
"4","Hospoda","Pivnice Slavia","https://www.firmy.cz/detail/12766272-pivnice-slavia-plzen-jizni-predmesti.html","1321"
"5","Divadlo","Divadlo pod lampou, o.p.s.","https://www.firmy.cz/detail/2418226-divadlo-pod-lampou-plzen-jizni-predmesti.html","1674"
"6","Veterinář","RPVET - VETERINÁRNÍ KLINIKA A POHOTOVOST MVDr. RADEK PROTIVA a kol.","https://www.firmy.cz/detail/13318056-rpvet-veterinarni-klinika-a-pohotovost-mvdr-radek-protiva-a-kol-plzen-jizni-predmesti.html","1161"
"7","Bankomat","Bankomat UniCredit Bank Czech Republic","https://www.firmy.cz/detail/12934682-bankomat-unicredit-bank-czech-republic-plzen-jizni-predmesti.html","188"
"8","Bus MHD","Goldscheiderova","","227"
"9","Tram","Technická","","116"
"10","Škola","Střední odborné učiliště stavební Plzeň","https://www.firmy.cz/detail/360785-stredni-odborne-uciliste-stavebni-plzen-plzen-jizni-predmesti.html","747"
"11","Lékárna","Dr. Max LÉKÁRNA","https://www.firmy.cz/detail/2570158-dr-max-lekarna-plzen-jizni-predmesti.html","680"
"12","Lékař","MEDICA SEVER s.r.o.","https://www.firmy.cz/detail/13275247-medica-sever-s-r-o-plzen-skvrnany.html","1008"
"13","Sportoviště","LTC Slavoj Plzeň","https://www.firmy.cz/detail/720050-ltc-slavoj-plzen-plzen-jizni-predmesti.html","1078"
"14","Pošta","Pošta Plzeň 20 - Česká pošta, s.p.","https://www.firmy.cz/detail/216643-posta-plzen-20-plzen-jizni-predmesti.html","1066"
"15","Školka","Školička Babetka","https://www.firmy.cz/detail/12884846-skolicka-babetka-plzen-jizni-predmesti.html","530"
"16","Obchod","Kaufland","https://www.firmy.cz/detail/2616232-kaufland-plzen-jizni-predmesti.html","680"
"17","Restaurace","Burger King","https://www.firmy.cz/detail/13232879-burger-king-plzen.html","616"
"18","Vlak","Plzeň-Skvrňany","","1577"
