"","facility_type","facility_name","facility_iri","facility_distance"
"0","Cukrárna","Costa Coffee","https://www.firmy.cz/detail/13106785-costa-coffee-ceske-budejovice-3.html","271"
"1","Kino","CineStar IGY Centrum","https://www.firmy.cz/detail/13096583-cinestar-igy-centrum-ceske-budejovice-3.html","342"
"2","Hřiště","Dětské hřiště","","140"
"3","Večerka","Můjobchod - Potraviny Harrybo","https://www.firmy.cz/detail/13163021-mujobchod-potraviny-harrybo-ceske-budejovice-3.html","204"
"4","Hospoda","Žíznivá Gumovka","https://www.firmy.cz/detail/13227416-zizniva-gumovka-ceske-budejovice-1.html","499"
"5","Divadlo","Jihočeské divadlo - Malé divadlo","https://www.firmy.cz/detail/2351551-jihoceske-divadlo-male-divadlo-ceske-budejovice-1.html","663"
"6","Veterinář","MVDr. Magda Jabulková - Veterinární ordinace","https://www.firmy.cz/detail/615689-mvdr-magda-jabulkova-veterinarni-ordinace-ceske-budejovice-3.html","399"
"7","Lékárna","LÉKÁRNA PATRIOT","https://www.firmy.cz/detail/2296119-lekarna-patriot-ceske-budejovice-3.html","147"
"8","Pošta","Pošta České Budějovice 4 - Česká pošta, s.p.","https://www.firmy.cz/detail/215235-posta-ceske-budejovice-4-ceske-budejovice-3.html","308"
"9","Restaurace","Bistrot Italia","https://www.firmy.cz/detail/13291050-bistrot-italia-ceske-budejovice-3.html","143"
"10","Škola","ZŠ a MŠ, České Budějovice, Kubatova","https://www.firmy.cz/detail/356737-zs-a-ms-ceske-budejovice-kubatova-ceske-budejovice-3.html","232"
"11","Školka","Základní škola a Mateřská škola J.Š.Baara, Jírovcova 9/a, České Budějovice","https://www.firmy.cz/detail/12974453-zakladni-skola-a-materska-skola-j-s-baara-jirovcova-9-a-ceske-budejovice-ceske-budejovice-3.html","156"
"12","Bus MHD","Družba - IGY","","199"
"13","Bankomat","Bankomat České spořitelny","https://www.firmy.cz/detail/12987952-bankomat-ceske-sporitelny-ceske-budejovice-3.html","299"
"14","Vlak","České Budějovice","","1598"
"15","Obchod","IGY Centrum","https://www.firmy.cz/detail/12731636-igy-centrum-ceske-budejovice-3.html","356"
"16","Sportoviště","Pétanque České Budějovice","","394"
"17","Lékař","Zdravotnická společnost na Pražské třídě, spol. s r.o.","https://www.firmy.cz/detail/2094904-zdravotnicka-spolecnost-na-prazske-tride-ceske-budejovice-3.html","327"
