"","facility_type","facility_name","facility_iri","facility_distance"
"0","Hřiště","Dětské hřiště Marie Majerové","https://mapy.cz/zakladni?x=18.330515&y=49.6752044444&z=17&source=base&id=2066060","278"
"1","Večerka","Pramen","https://www.firmy.cz/detail/13268883-pramen-frydek-mistek-mistek.html","306"
"2","Hospoda","Hospoda U Krbu","https://www.firmy.cz/detail/13034322-hospoda-u-krbu-frydek-mistek-mistek.html","378"
"3","Cukrárna","Cukrárna Marek","https://www.firmy.cz/detail/13149322-cukrarna-marek-frydek-mistek-mistek.html","514"
"4","Veterinář","MVDr. Radim Medek","https://www.firmy.cz/detail/1967673-mvdr-radim-medek-frydek-mistek-mistek.html","32"
"5","Kino","Kino Nová scéna Vlast","https://www.firmy.cz/detail/396685-kino-nova-scena-vlast-frydek-mistek-mistek.html","874"
"6","Divadlo","Divadlo Nová scéna Vlast","https://www.firmy.cz/detail/661522-divadlo-nova-scena-vlast-frydek-mistek-mistek.html","874"
"7","Přírodní zajímavost","Bludné balvany ve Frýdeckém lese","https://mapy.cz/zakladni?x=18.3611475613&y=49.7013257674&z=17&source=base&id=1915701","3597"
"8","Školka","MŠ Frýdek-Místek, J. Trnky","https://www.firmy.cz/detail/2153086-ms-frydek-mistek-j-trnky-frydek-mistek-mistek.html","275"
"9","Vlak","Frýdek-Místek","https://mapy.cz/zakladni?x=18.3539008711&y=49.6777676791&z=17&source=pubt&id=15211337","1485"
"10","Lékárna","Dr. Max LÉKÁRNA","https://www.firmy.cz/detail/2007371-dr-max-lekarna-frydek-mistek-mistek.html","440"
"11","Pošta","Pošta Frýdek-Místek 12 - Česká pošta, s.p.","https://www.firmy.cz/detail/432958-posta-frydek-mistek-12-frydek-mistek-mistek.html","599"
"12","Restaurace","Restaurace Morava","https://www.firmy.cz/detail/13051041-restaurace-morava-frydek-mistek-mistek.html","305"
"13","Sportoviště","SVČ Klíč","https://www.firmy.cz/detail/13296074-svc-klic-frydek-mistek-mistek.html","769"
"14","Škola","Gymnázium Petra Bezruče Frýdek-Místek","https://www.firmy.cz/detail/360935-gymnazium-petra-bezruce-frydek-mistek-frydek-mistek-mistek.html","304"
"15","Bus MHD","Místek, ČSA věž.domy","https://mapy.cz/zakladni?x=18.333819673&y=49.6735880565&z=17&source=pubt&id=15216258","65"
"16","Bankomat","Bankomat Air Bank","https://www.firmy.cz/detail/13032307-bankomat-air-bank-frydek-mistek-mistek.html","418"
"17","Obchod","Tesco","https://www.firmy.cz/detail/218198-tesco-frydek-mistek-mistek.html","440"
"18","Lékař","SAGENA s.r.o.","https://www.firmy.cz/detail/12984963-sagena-s-r-o-frydek-mistek-mistek.html","511"
