"","facility_type","facility_name","facility_iri","facility_distance"
"0","Hřiště","Dětské hřiště Kaizlovy sady","https://mapy.cz/zakladni?x=14.4602722227&y=50.0949207886&z=17&source=base&id=1927065","397"
"1","Přírodní zajímavost","Meandry Rokytky","https://mapy.cz/zakladni?x=14.517104002655032&y=50.098337103299386&z=17&source=base&id=2338360","4459"
"2","Divadlo","Divadlo (bez záruky) Praha","https://www.firmy.cz/detail/475801-divadlo-bez-zaruky-praha-praha-karlin.html","557"
"3","Veterinář","MVDr. Daniel Barek - Veterinární Klinika U Tunelu","https://www.firmy.cz/detail/402428-mvdr-daniel-barek-veterinarni-klinika-u-tunelu-praha-karlin.html","381"
"4","Večerka","Albert Supermarket","https://www.firmy.cz/detail/2425665-albert-supermarket-praha-karlin.html","187"
"5","Cukrárna","Lahůdky na faře","https://www.firmy.cz/detail/12977160-lahudky-na-fare-praha-karlin.html","431"
"6","Hospoda","Pivnice Radyně","https://www.firmy.cz/detail/1957129-pivnice-radyne-praha-zizkov.html","1027"
"7","Kino","Kino Aero","https://www.firmy.cz/detail/399435-kino-aero-praha-zizkov.html","1266"
"8","Školka","ZŠ a MŠ Praha 8, Lyčkovo náměstí","https://www.firmy.cz/detail/724264-zs-a-ms-praha-8-lyckovo-namesti-praha-karlin.html","252"
"9","Metro","Křižíkova","https://mapy.cz/zakladni?x=14.4515221285123&y=50.0936728974408&z=17&source=pubt&id=15200171","248"
"10","Bus MHD","Lukášova","https://mapy.cz/zakladni?x=14.45838&y=50.08824&z=17&source=pubt&id=21967022","663"
"11","Obchod","Kaufland","https://www.firmy.cz/detail/1545721-kaufland-praha-liben.html","1331"
"12","Tram","Urxova","https://mapy.cz/zakladni?x=14.4564698307&y=50.0952029274&z=17&source=pubt&id=15729274","189"
"13","Bankomat","Bankomat ČSOB","https://www.firmy.cz/detail/599662-bankomat-csob-praha-karlin.html","227"
"14","Škola","ZŠ a MŠ Praha 8, Lyčkovo náměstí","https://www.firmy.cz/detail/356233-zs-a-ms-praha-8-lyckovo-namesti-praha-karlin.html","252"
"15","Vlak","Praha-Bubny","https://mapy.cz/zakladni?x=14.4390160637&y=50.1022888272&z=17&source=pubt&id=15212553","1480"
"16","Restaurace","U Zábranských","https://www.firmy.cz/detail/568427-u-zabranskych-praha.html","144"
"17","Lékárna","Lékárna U Zlatého slunce","https://www.firmy.cz/detail/374838-lekarna-u-zlateho-slunce-praha-karlin.html","97"
"18","Sportoviště","Tenisová škola TALLENT","https://www.firmy.cz/detail/153033-tenisova-skola-tallent-praha-karlin.html","311"
"19","Lékař","Doc.MUDr. Bohumil Seifert, Ph.D.","https://www.firmy.cz/detail/389888-doc-mudr-bohumil-seifert-ph-d-praha-karlin.html","31"
"20","Pošta","Pošta Praha 86 - Česká pošta, s.p.","https://www.firmy.cz/detail/216676-posta-praha-86-praha-karlin.html","488"
