"","facility_type","facility_name","facility_iri","facility_distance"
"0","Hřiště","Dětské hřiště Zbýšov","https://mapy.cz/zakladni?x=16.3449164&y=49.1577786&z=17&source=base&id=2062273","104"
"1","Cukrárna","Cukrárna a kavárna Caramella","https://www.firmy.cz/detail/13288636-cukrarna-a-kavarna-caramella-oslavany.html","3512"
"2","Hospoda","Miloš Hudec","https://www.firmy.cz/detail/13115818-milos-hudec-zbysov.html","209"
"3","Večerka","HRUŠKA","https://www.firmy.cz/detail/13201043-hruska-zbysov.html","201"
"4","Kino","Kino Oslavany","https://www.firmy.cz/detail/451597-kino-oslavany-oslavany.html","3474"
"5","Veterinář","AXA Veterinární klinika Rosice","https://www.firmy.cz/detail/13271696-axa-veterinarni-klinika-rosice-rosice.html","4055"
"6","Školka","MŠ Zbýšov","https://www.firmy.cz/detail/12908118-ms-zbysov-zbysov.html","163"
"7","Pošta","Pošta Zbýšov u Brna - Česká pošta, s.p.","https://www.firmy.cz/detail/216139-posta-zbysov-u-brna-zbysov.html","562"
"8","Lékárna","Lékárna Levandule, s.r.o.","https://www.firmy.cz/detail/12908126-lekarna-levandule-zbysov.html","301"
"9","Restaurace","Hornický dům","https://www.firmy.cz/detail/565201-hornicky-dum-zbysov.html","305"
"10","Bankomat","Bankomat České spořitelny","https://www.firmy.cz/detail/596699-bankomat-ceske-sporitelny-zbysov.html","301"
"11","Vlak","Zastávka u Brna","https://mapy.cz/zakladni?x=16.3586634229&y=49.1874897096&z=17&source=pubt&id=15213355","3495"
"12","Škola","ZŠ Zbýšov, J. A. Komenského","https://www.firmy.cz/detail/360193-zs-zbysov-j-a-komenskeho-zbysov.html","141"
"13","Sportoviště","Koupaliště Zbýšov","https://www.firmy.cz/detail/12908133-koupaliste-zbysov-zbysov.html","188"
"14","Lékař","MeditrinePraktik s.r.o.","https://www.firmy.cz/detail/13119239-meditrinepraktik-s-r-o-zbysov.html","301"
"15","Bus MHD","Zbýšov, Poustka","https://mapy.cz/zakladni?x=16.346543913244&y=49.1587154799236&z=17&source=pubt&id=15219709","250"
