"","facility_type","facility_name","facility_iri","facility_distance"
"0","Cukrárna","Cukrárna Upekla","https://www.firmy.cz/detail/13176957-cukrarna-upekla-pribram-ii.html","85"
"1","Kino","Letní kino Příbram","https://www.firmy.cz/detail/13001448-letni-kino-pribram-pribram-viii.html","2420"
"2","Přírodní zajímavost","Motýlí step Pichce","","1188"
"3","Hřiště","Dětské hřiště třída Kpt. Olesinského","","323"
"4","Večerka","KORUNA PB, s.r.o.","https://www.firmy.cz/detail/13327078-koruna-pb-pribram-ii.html","62"
"5","Hospoda","Pivnice Na Růžku","https://www.firmy.cz/detail/13152932-pivnice-na-ruzku-pribram-iv.html","1347"
"6","Divadlo","Divadlo A. Dvořáka Příbram","https://www.firmy.cz/detail/397055-divadlo-a-dvoraka-pribram-pribram-vii.html","1928"
"7","Veterinář","MVDr. Irina Žoluděva","https://www.firmy.cz/detail/2661720-mvdr-irina-zoludeva-pribram-ii.html","279"
"8","Bus MHD","Příbram, Stadion Horymír","","85"
"9","Sportoviště","StudioBára3P","https://www.firmy.cz/detail/2323520-studiobara3p-pribram-ii.html","46"
"10","Restaurace","Restaurace Spartak","https://www.firmy.cz/detail/13109447-restaurace-spartak-pribram-ii.html","46"
"11","Bankomat","Bankomat České spořitelny","https://www.firmy.cz/detail/12837319-bankomat-ceske-sporitelny-pribram-ii.html","878"
"12","Školka","MŠ Kličkova vila","https://www.firmy.cz/detail/2124254-ms-klickova-vila-pribram-ii.html","399"
"13","Pošta","Pošta Příbram 1 - Česká pošta, s.p.","https://www.firmy.cz/detail/217337-posta-pribram-1-pribram-i.html","927"
"14","Škola","Základní škola pod Svatou Horou, Příbram","https://www.firmy.cz/detail/359104-zakladni-skola-pod-svatou-horou-pribram-pribram-ii.html","374"
"15","Lékárna","Lékárna Pod Svatou Horou","https://www.firmy.cz/detail/12976363-lekarna-pod-svatou-horou-pribram-iii.html","1004"
"16","Lékař","MUDr. Zuzana Fialová","https://www.firmy.cz/detail/13002169-mudr-zuzana-fialova-pribram-iii.html","1016"
"17","Obchod","OC SKALKA, spol. s r.o.","https://www.firmy.cz/detail/12994294-oc-skalka-pribram-iii.html","1186"
"18","Vlak","Příbram","","1507"
