"","facility_type","facility_name","facility_iri","facility_distance"
"0","Cukrárna","Karlovarské cukrářství","https://www.firmy.cz/detail/13152065-karlovarske-cukrarstvi-praha-kobylisy.html","296"
"1","Kino","Cinema City Letňany","https://www.firmy.cz/detail/2679833-cinema-city-letnany-praha-letnany.html","2754"
"2","Přírodní zajímavost","Meandry Rokytky","","4993"
"3","Hřiště","Dětské hřiště Hrubého","","43"
"4","Večerka","Iceland","https://www.firmy.cz/detail/12892874-iceland-praha-kobylisy.html","252"
"5","Hospoda","Restaurace Pod Hájem","https://www.firmy.cz/detail/13021295-restaurace-pod-hajem-praha-liben.html","576"
"6","Divadlo","Divadlo Karla Hackera","https://www.firmy.cz/detail/2030639-divadlo-karla-hackera-praha-kobylisy.html","909"
"7","Veterinář","Veterinární ordinace MVDr.Martin Otáhal","https://www.firmy.cz/detail/473620-veterinarni-ordinace-mvdr-martin-otahal-praha-kobylisy.html","35"
"8","Bankomat","Raiffeisenbank - bankomat","https://www.firmy.cz/detail/12717052-raiffeisenbank-bankomat-praha-kobylisy.html","244"
"9","Metro","Ládví","","340"
"10","Pošta","Pošta Praha 82 - Česká pošta, s.p.","https://www.firmy.cz/detail/431384-posta-praha-82-praha-kobylisy.html","276"
"11","Bus MHD","Ládví","","372"
"12","Škola","Heřmánek Praha, základní škola a gymnázium","https://www.firmy.cz/detail/13107086-hermanek-praha-zakladni-skola-a-gymnazium-praha-kobylisy.html","124"
"13","Školka","Heřmánek - mateřská škola","https://www.firmy.cz/detail/2624903-hermanek-materska-skola-praha-kobylisy.html","131"
"14","Restaurace","KFC","https://www.firmy.cz/detail/13229115-kfc-praha-kobylisy.html","319"
"15","Obchod","Obchodní dům Ládví","https://www.firmy.cz/detail/13187057-obchodni-dum-ladvi-praha-kobylisy.html","295"
"16","Lékař","MUDr. Zuzana Jedličková","https://www.firmy.cz/detail/2490501-mudr-zuzana-jedlickova-praha-kobylisy.html","131"
"17","Tram","Kyselova","","368"
"18","Vlak","Praha-Holešovice","","2789"
"19","Sportoviště","Koupaliště Ládví","https://www.firmy.cz/detail/12901187-koupaliste-ladvi-praha-kobylisy.html","195"
"20","Lékárna","BENU Lékárna","https://www.firmy.cz/detail/13163128-benu-lekarna-praha-kobylisy.html","253"
