"","facility_type","facility_name","facility_iri","facility_distance"
"0","Cukrárna","Designové a luxusní dorty a cukrárna GULJARDO","https://www.firmy.cz/detail/13271004-designove-a-luxusni-dorty-a-cukrarna-guljardo-praha-kunratice.html","217"
"1","Kino","Cinema City Chodov","https://www.firmy.cz/detail/13098016-cinema-city-chodov-praha-chodov.html","2019"
"2","Hřiště","Dětské hřiště Zelené údolí","","81"
"3","Večerka","Vic Family Market","https://www.firmy.cz/detail/13311314-vic-family-market-praha-krc.html","370"
"4","Divadlo","Loutkové divadlo Zvoneček","https://www.firmy.cz/detail/397112-loutkove-divadlo-zvonecek-praha-lhotka.html","2524"
"5","Hospoda","Hostinec Ve Mlýně","https://www.firmy.cz/detail/13079723-hostinec-ve-mlyne-praha-krc.html","853"
"6","Veterinář","Vetix - veterinární ordinace Krč","https://www.firmy.cz/detail/13332976-vetix-veterinarni-ordinace-krc-praha-krc.html","990"
"7","Škola","ZŠ Compass","https://www.firmy.cz/detail/12829216-zs-compass-praha-kunratice.html","375"
"8","Metro","Roztyly","","2075"
"9","Tram","Levského","","2775"
"10","Restaurace","PJ Gastro Group, s.r.o.","https://www.firmy.cz/detail/13123284-pj-gastro-group-praha-krc.html","305"
"11","Lékárna","Institut Klinické a Experimentální medicíny - Ústavní lékárna","https://www.firmy.cz/detail/422719-institut-klinicke-a-experimentalni-mediciny-ustavni-lekarna-praha-krc.html","470"
"12","Bus MHD","Ústavy Akademie věd","","217"
"13","Lékař","MUDr. Jitka Steppanová","https://www.firmy.cz/detail/390592-mudr-jitka-steppanova-praha-krc.html","305"
"14","Školka","MATEŘSKÁ ŠKOLA ZEMĚKOULE","https://www.firmy.cz/detail/2148675-materska-skola-zemekoule-praha-kunratice.html","500"
"15","Bankomat","Bankomat ČSOB","https://www.firmy.cz/detail/599593-bankomat-csob-praha-krc.html","470"
"16","Sportoviště","TJ Mládí Krč","https://www.firmy.cz/detail/2648767-tj-mladi-krc-praha-krc.html","1092"
"17","Pošta","Pošta Praha 411 - Česká pošta, s.p.","https://www.firmy.cz/detail/217478-posta-praha-411-praha-lhotka.html","1099"
"18","Obchod","OC Kunratice","https://www.firmy.cz/detail/13045926-oc-kunratice-praha-kunratice.html","1120"
"19","Vlak","Praha-Krč","","2226"
