"","facility_type","facility_name","facility_iri","facility_distance"
"0","Cukrárna","Mamacoffee","https://www.firmy.cz/detail/2109500-mamacoffee-praha-vinohrady.html","312"
"1","Kino","HopeTV","https://www.firmy.cz/detail/672889-hopetv-praha-vinohrady.html","396"
"2","Hřiště","Dětské hřiště Karlovo náměstí","","707"
"3","Večerka","MANNI MINI MARKET","https://www.firmy.cz/detail/2511347-manni-mini-market-praha-vinohrady.html","260"
"4","Divadlo","Divadlo na Vinohradech","https://www.firmy.cz/detail/230745-divadlo-na-vinohradech-praha-vinohrady.html","576"
"5","Hospoda","Hostinec U Suchý Dásně","https://www.firmy.cz/detail/679683-hostinec-u-suchy-dasne-praha-nove-mesto.html","986"
"6","Veterinář","Veterinární ambulance Help","https://www.firmy.cz/detail/178079-veterinarni-ambulance-help-praha-vinohrady.html","707"
"7","Tram","I. P. Pavlova","","167"
"8","Školka","MŠ Praha 2, Na Rybníčku","https://www.firmy.cz/detail/731793-ms-praha-2-na-rybnicku-praha-nove-mesto.html","359"
"9","Obchod","DESIRRED","https://www.firmy.cz/detail/483472-desirred-praha-nove-mesto.html","939"
"10","Sportoviště","Tenisová škola Vinohrady – Jiří Brázda","https://www.firmy.cz/detail/433988-tenisova-skola-vinohrady-jiri-brazda-praha-vinohrady.html","748"
"11","Pošta","Pošta Praha 24 - Česká pošta, s.p.","https://www.firmy.cz/detail/431217-posta-praha-24-praha-vinohrady.html","465"
"12","Bankomat","Bankomat Euronet","https://www.firmy.cz/detail/604303-bankomat-euronet-praha-vinohrady.html","173"
"13","Restaurace","Restaurace LEGENDA","https://www.firmy.cz/detail/420290-restaurace-legenda-praha-nove-mesto.html","68"
"14","Vlak","Praha hlavní nádraží","","1112"
"15","Metro","I. P. Pavlova","","78"
"16","Lékárna","BENU Lékárna","https://www.firmy.cz/detail/13189195-benu-lekarna-praha-vinohrady.html","212"
"17","Škola","Vyšší odborná škola zdravotnická Suverenního řádu maltézských rytířů Praha, Ječná","https://www.firmy.cz/detail/362670-vyssi-odborna-skola-zdravotnicka-suverenniho-radu-maltezskych-rytiru-praha-jecna-praha-nove-mesto.html","260"
"18","Bus MHD","I. P. Pavlova","","61"
"19","Lékař","Poliklinika IPP, s.r.o.","https://www.firmy.cz/detail/641173-poliklinika-ipp-praha-vinohrady.html","87"
