"","facility_type","facility_name","facility_iri","facility_distance"
"0","Cukrárna","Cukrárna u Alči","https://www.firmy.cz/detail/13242059-cukrarna-u-alci-ostrava-moravska-ostrava.html","279"
"1","Kino","Kino vesmír","https://www.firmy.cz/detail/12980428-kino-vesmir-ostrava-moravska-ostrava.html","1426"
"2","Přírodní zajímavost","Uhelná sloj v Landeku","","2221"
"3","Hřiště","Dětské hřiště Maroldova","","511"
"4","Večerka","Penny Market","https://www.firmy.cz/detail/207812-penny-market-ostrava-moravska-ostrava.html","96"
"5","Divadlo","Divadlo 12","https://www.firmy.cz/detail/13216354-divadlo-12-ostrava-moravska-ostrava.html","1467"
"6","Hospoda","Kurnik Šopa Hospoda®","https://www.firmy.cz/detail/13107855-kurnik-sopa-hospoda-ostrava-moravska-ostrava.html","197"
"7","Veterinář","VETPARK Ostrava, s.r.o.","https://www.firmy.cz/detail/13308555-vetpark-ostrava-ostrava-moravska-ostrava.html","461"
"8","Lékař","MUDr. Hana Lankočí","https://www.firmy.cz/detail/386813-mudr-hana-lankoci-ostrava-moravska-ostrava.html","267"
"9","Bankomat","Bankomat Komerční banky","https://www.firmy.cz/detail/594286-bankomat-komercni-banky-ostrava-moravska-ostrava.html","381"
"10","Bus MHD","Vozovna trolejbusů","","60"
"11","Obchod","Obchodní centrum LASO","https://www.firmy.cz/detail/2071391-obchodni-centrum-laso-ostrava-moravska-ostrava.html","1591"
"12","Restaurace","Restaurace Adagio","https://www.firmy.cz/detail/12888053-restaurace-adagio-ostrava-moravska-ostrava.html","67"
"13","Sportoviště","Sportovní hala Ostrava - Přívoz","https://www.firmy.cz/detail/703490-sportovni-hala-ostrava-privoz-ostrava-moravska-ostrava.html","293"
"14","Školka","MŠ Ostrava, Křižíkova","https://www.firmy.cz/detail/2142452-ms-ostrava-krizikova-ostrava-moravska-ostrava.html","377"
"15","Pošta","Pošta Ostrava 40 - Česká pošta, s.p.","https://www.firmy.cz/detail/433366-posta-ostrava-40-ostrava-moravska-ostrava.html","596"
"16","Lékárna","Lékárna AGEL","https://www.firmy.cz/detail/13204305-lekarna-agel-ostrava-moravska-ostrava.html","406"
"17","Tram","Muglinovská","","305"
"18","Škola","ZŠ Ostrava, Nádražní","https://www.firmy.cz/detail/358666-zs-ostrava-nadrazni-ostrava-moravska-ostrava.html","416"
"19","Vlak","Ostrava hlavní nádraží","","1121"
