"","facility_type","facility_name","facility_iri","facility_distance"
"0","Cukrárna","Zámecká Cukrárna","https://www.firmy.cz/detail/13143000-zamecka-cukrarna-frydek-mistek-frydek.html","109"
"1","Kino","5D cinema Maxim","https://www.firmy.cz/detail/12950607-5d-cinema-maxim-frydek-mistek-frydek.html","483"
"2","Přírodní zajímavost","Bludné balvany ve Frýdeckém lese","","2099"
"3","Hřiště","Dětské hřiště Jižní svahy","","209"
"4","Večerka","Korejské potraviny s.r.o. - KORPOT.CZ","https://www.firmy.cz/detail/12903054-korejske-potraviny-s-r-o-korpot-cz-frydek-mistek-frydek.html","212"
"5","Hospoda","Restaurace Růžový Pahorek","https://www.firmy.cz/detail/13119613-restaurace-ruzovy-pahorek-frydek-mistek-frydek.html","400"
"6","Divadlo","Divadlo Nová scéna Vlast","https://www.firmy.cz/detail/661522-divadlo-nova-scena-vlast-frydek-mistek-mistek.html","876"
"7","Veterinář","MVDr. Vítězslav Novák","https://www.firmy.cz/detail/283616-mvdr-vitezslav-novak-frydek-mistek-frydek.html","757"
"8","Lékař","CASTAMED - MUDr. Ivana Kaszturová","https://www.firmy.cz/detail/2493817-castamed-mudr-ivana-kaszturova-frydek-mistek-frydek.html","291"
"9","Vlak","Frýdek-Místek","","946"
"10","Sportoviště","Jumpcentrum - trampolínový park F-M","https://www.firmy.cz/detail/13101605-jumpcentrum-trampolinovy-park-f-m-frydek-mistek-frydek.html","435"
"11","Restaurace","Restaurace Rodem","https://www.firmy.cz/detail/13076159-restaurace-rodem-frydek-mistek-frydek.html","48"
"12","Bankomat","Bankomat Fio banky","https://www.firmy.cz/detail/12804843-bankomat-fio-banky-frydek-mistek-frydek.html","153"
"13","Pošta","Pošta Frýdek-Místek 13 - Česká pošta, s.p.","https://www.firmy.cz/detail/432959-posta-frydek-mistek-13-frydek-mistek-frydek.html","696"
"14","Obchod","Kaufland","https://www.firmy.cz/detail/738648-kaufland-frydek-mistek-frydek.html","289"
"15","Bus MHD","Frýdek-Místek, Frýdek, Zámecké náměstí","","80"
"16","Školka","Školička Zvoneček","https://www.firmy.cz/detail/12724965-skolicka-zvonecek-frydek-mistek.html","321"
"17","Lékárna","Dr. Max LÉKÁRNA","https://www.firmy.cz/detail/2007369-dr-max-lekarna-frydek-mistek-frydek.html","289"
"18","Škola","Střední odborná škola požární ochrany a Vyšší odborná škola požární ochrany ve Frýdku-Místku","https://www.firmy.cz/detail/1903539-stredni-odborna-skola-pozarni-ochrany-a-vyssi-odborna-skola-pozarni-ochrany-ve-frydku-mistku-frydek-mistek-mistek.html","323"
