"","facility_type","facility_name","facility_iri","facility_distance"
"0","Cukrárna","Anniny dorty","https://www.firmy.cz/detail/13307017-anniny-dorty-plzen-jizni-predmesti.html","481"
"1","Kino","Kino Beseda","https://www.firmy.cz/detail/12773769-kino-beseda-plzen-jizni-predmesti.html","2590"
"2","Hřiště","Dětské hřiště Borský park","","168"
"3","Večerka","BILLA","https://www.firmy.cz/detail/437729-billa-plzen-doudlevce.html","290"
"4","Hospoda","Pivnice Slavia","https://www.firmy.cz/detail/12766272-pivnice-slavia-plzen-jizni-predmesti.html","156"
"5","Divadlo","Divadlo pod lampou, o.p.s.","https://www.firmy.cz/detail/2418226-divadlo-pod-lampou-plzen-jizni-predmesti.html","1897"
"6","Veterinář","RPVET - VETERINÁRNÍ KLINIKA A POHOTOVOST MVDr. RADEK PROTIVA a kol.","https://www.firmy.cz/detail/13318056-rpvet-veterinarni-klinika-a-pohotovost-mvdr-radek-protiva-a-kol-plzen-jizni-predmesti.html","691"
"7","Restaurace","Golden Fish restaurant & Lobby bar","https://www.firmy.cz/detail/665262-golden-fish-restaurant-lobby-bar-plzen-jizni-predmesti.html","0"
"8","Bankomat","Bankomat České spořitelny","https://www.firmy.cz/detail/594023-bankomat-ceske-sporitelny-plzen-doudlevce.html","290"
"9","Lékárna","Lékárna LUNA","https://www.firmy.cz/detail/13204230-lekarna-luna-plzen-doudlevce.html","290"
"10","Vlak","Plzeň-Doudlevce","","950"
"11","Škola","26. základní škola Plzeň, Skupova 22, příspěvková organizace","https://www.firmy.cz/detail/358867-26-zakladni-skola-plzen-skupova-22-prispevkova-organizace-plzen-jizni-predmesti.html","294"
"12","Sportoviště","Handball klub Slavia VŠ Plzeň","https://www.firmy.cz/detail/12982556-handball-klub-slavia-vs-plzen-plzen-jizni-predmesti.html","156"
"13","Bus MHD","Sídliště Bory","","294"
"14","Školka","Mateřská škola kardinála Berana Plzeň","https://www.firmy.cz/detail/13328634-materska-skola-kardinala-berana-plzen-plzen-jizni-predmesti.html","309"
"15","Pošta","Pošta Partner Plzeň 16","https://www.firmy.cz/detail/13099337-posta-partner-plzen-16-plzen-doudlevce.html","290"
"16","Lékař","MUDr. Danuše Vovsíková","https://www.firmy.cz/detail/390304-mudr-danuse-vovsikova-plzen-jizni-predmesti.html","523"
"17","Obchod","Kaufland","https://www.firmy.cz/detail/2616232-kaufland-plzen-jizni-predmesti.html","898"
"18","Tram","Borský park","","633"
