"","facility_type","facility_name","facility_iri","facility_distance"
"0","Hřiště","Dětské hřiště Karmelitánská","","259"
"1","Večerka","HIT CENTRUM, s.r.o.","https://www.firmy.cz/detail/13205302-hit-centrum-pacov.html","165"
"2","Hospoda","Rodinný minipivovar Pacov","https://www.firmy.cz/detail/12974176-rodinny-minipivovar-pacov-pacov.html","96"
"3","Veterinář","MVDr. Josef Peroutka","https://www.firmy.cz/detail/12826226-mvdr-josef-peroutka-pacov.html","324"
"4","Restaurace","Restaurace a pizzerie Na náměstí","https://www.firmy.cz/detail/725493-restaurace-a-pizzerie-na-namesti-pacov.html","70"
"5","Lékárna","Lékárna Pacov","https://www.firmy.cz/detail/376577-lekarna-pacov-pacov.html","225"
"6","Bankomat","Bankomat Komerční banky","https://www.firmy.cz/detail/597706-bankomat-komercni-banky-pacov.html","18"
"7","Lékař","MUDr. Jan Konečný","https://www.firmy.cz/detail/391041-mudr-jan-konecny-pacov.html","225"
"8","Školka","Církevní mateřská škola a Středisko volného času Pacov","https://www.firmy.cz/detail/718266-cirkevni-materska-skola-a-stredisko-volneho-casu-pacov-pacov.html","547"
"9","Pošta","Pošta Pacov - Česká pošta, s.p.","https://www.firmy.cz/detail/215164-posta-pacov-pacov.html","206"
"10","Škola","ZŠ Pacov","https://www.firmy.cz/detail/358763-zs-pacov-pacov.html","119"
"11","Bus MHD","Pacov, Na růžku","","243"
"12","Vlak","Pacov","","1642"
"13","Sportoviště","Město Pacov - Volejbal","https://www.firmy.cz/detail/13084431-mesto-pacov-volejbal-pacov.html","262"
