"","facility_type","facility_name","facility_iri","facility_distance"
"0","Cukrárna","Café Coffee Day","https://www.firmy.cz/detail/650529-cafe-coffee-day-praha-smichov.html","659"
"1","Kino","CineStar Anděl","https://www.firmy.cz/detail/2537565-cinestar-andel-praha-smichov.html","659"
"2","Přírodní zajímavost","Kovářovic mez","","3962"
"3","Hřiště","Dětské hřiště Holečkova","","151"
"4","Večerka","Tuyen Le Thi - OVOCE ZELENINA","https://www.firmy.cz/detail/2464821-tuyen-le-thi-ovoce-zelenina-praha-kosire.html","321"
"5","Hospoda","Hospůdka Knoflík","https://www.firmy.cz/detail/2253647-hospudka-knoflik-praha-smichov.html","905"
"6","Divadlo","Divadlo Orfeus","https://www.firmy.cz/detail/413053-divadlo-orfeus-praha-kosire.html","307"
"7","Veterinář","MVDr. Jana Lukešová","https://www.firmy.cz/detail/473617-mvdr-jana-lukesova-praha-smichov.html","771"
"8","Školka","ZŠ a MŠ Praha 5, Grafická","https://www.firmy.cz/detail/2416925-zs-a-ms-praha-5-graficka-praha-smichov.html","208"
"9","Škola","ZŠ a MŠ Praha 5, Grafická","https://www.firmy.cz/detail/356194-zs-a-ms-praha-5-graficka-praha-smichov.html","155"
"10","Bus MHD","Holečkova","","202"
"11","Vlak","Praha-Smíchov severní nást.","","1446"
"12","Tram","Bertramka","","111"
"13","Restaurace","Restaurace Pod Černým vrchem","https://www.firmy.cz/detail/333475-restaurace-pod-cernym-vrchem-praha-kosire.html","306"
"14","Pošta","Pošta Praha 53 - Česká pošta, s.p.","https://www.firmy.cz/detail/431282-posta-praha-53-praha-smichov.html","700"
"15","Obchod","Tesco","https://www.firmy.cz/detail/733908-tesco-praha-smichov.html","659"
"16","Sportoviště","MaxLasergame, s.r.o.","https://www.firmy.cz/detail/12740237-maxlasergame-praha-smichov.html","110"
"17","Lékař","SPOLEČNOST PRO PRACOVNÍ MEDICÍNU s.r.o.","https://www.firmy.cz/detail/2035086-spolecnost-pro-pracovni-medicinu-s-r-o-praha-smichov.html","474"
"18","Bankomat","Bankomat ČSOB","https://www.firmy.cz/detail/636703-bankomat-csob-praha-smichov.html","696"
"19","Lékárna","EUC Lékárna Kartouzská","https://www.firmy.cz/detail/13162323-euc-lekarna-kartouzska-praha-smichov.html","639"
"20","Metro","Anděl","","845"
