"","facility_type","facility_name","facility_iri","facility_distance"
"0","Cukrárna","Cafe Cukrárna","https://www.firmy.cz/detail/2466910-cafe-cukrarna-novy-bor.html","405"
"1","Přírodní zajímavost","Skalní průrva","","2788"
"2","Kino","Městské kino Nový Bor","https://www.firmy.cz/detail/451871-mestske-kino-novy-bor-novy-bor.html","747"
"3","Hřiště","Dětské hřiště Rumburských hrdinů","","82"
"4","Večerka","Potraviny Rumburských hrdinů 820","https://www.firmy.cz/detail/13055045-potraviny-rumburskych-hrdinu-820-novy-bor-arnultovice.html","74"
"5","Hospoda","Krušovická hospůdka","https://www.firmy.cz/detail/13022258-krusovicka-hospudka-novy-bor.html","742"
"6","Divadlo","Městské divadlo Nový Bor","https://www.firmy.cz/detail/397078-mestske-divadlo-novy-bor-novy-bor-arnultovice.html","860"
"7","Veterinář","MVDr. Tomáš Mohyla","https://www.firmy.cz/detail/471337-mvdr-tomas-mohyla-novy-bor.html","617"
"8","Sportoviště","Pétanque Nový Bor","","375"
"9","Vlak","Nový Bor","","1044"
"10","Restaurace","Restaurace Atrium","https://www.firmy.cz/detail/12956889-restaurace-atrium-novy-bor-arnultovice.html","374"
"11","Lékař","MUDr. Jana Kahounová","https://www.firmy.cz/detail/386423-mudr-jana-kahounova-novy-bor.html","399"
"12","Škola","ZŠ praktická Nový Bor, náměstí Míru","https://www.firmy.cz/detail/358480-zs-prakticka-novy-bor-namesti-miru-novy-bor.html","400"
"13","Pošta","Pošta Nový Bor - Česká pošta, s.p.","https://www.firmy.cz/detail/431831-posta-novy-bor-novy-bor.html","564"
"14","Bus MHD","Nový Bor, Lesní hřbitov","","199"
"15","Školka","MŠ Kytička Nový Bor, Kalinova","https://www.firmy.cz/detail/12731385-ms-kyticka-novy-bor-kalinova-novy-bor.html","391"
"16","Obchod","Kaufland","https://www.firmy.cz/detail/12787193-kaufland-novy-bor-arnultovice.html","1295"
"17","Lékárna","Dr.Max LÉKÁRNA","https://www.firmy.cz/detail/2644987-dr-max-lekarna-novy-bor.html","636"
"18","Bankomat","Bankomat MONETA Money Bank","https://www.firmy.cz/detail/603128-bankomat-moneta-money-bank-novy-bor.html","426"
