"","facility_type","facility_name","facility_iri","facility_distance"
"0","Hřiště","Dětské hřiště Chrastavice","","4352"
"1","Večerka","Potraviny ENAPO","https://www.firmy.cz/detail/13269629-potraviny-enapo-blizejov.html","1450"
"2","Hospoda","Bližejovská hospoda - Jan Vrba","https://www.firmy.cz/detail/13116470-blizejovska-hospoda-blizejov.html","1496"
"3","Veterinář","MVDr. Jan Vojta - všeobecná veterinární činnost","https://www.firmy.cz/detail/2116226-mvdr-jan-vojta-vseobecna-veterinarni-cinnost-blizejov.html","1758"
"4","Bus MHD","Blížejov, Nahošice","","110"
"5","Pošta","Pošta Blížejov - Česká pošta, s.p.","https://www.firmy.cz/detail/217544-posta-blizejov-blizejov.html","1574"
"6","Restaurace","Karel Karman","https://www.firmy.cz/detail/2257366-karel-karman-blizejov-privozec.html","2085"
"7","Vlak","Blížejov","","1725"
"8","Školka","MŠ Blížejov","https://www.firmy.cz/detail/2506914-ms-blizejov-blizejov.html","1485"
"9","Škola","ZŠ a MŠ Blížejov","https://www.firmy.cz/detail/356385-zs-a-ms-blizejov-blizejov.html","1485"
