"","facility_type","facility_name","facility_iri","facility_distance"
"0","Cukrárna","Cukrárna U Jelínků","https://www.firmy.cz/detail/2566913-cukrarna-u-jelinku-milovice-mlada.html","334"
"1","Kino","Kino Lysá nad Labem","https://www.firmy.cz/detail/13157855-kino-lysa-nad-labem-lysa-nad-labem.html","3380"
"2","Přírodní zajímavost","Tůně a mokřady Josefov","","1475"
"3","Hřiště","Dětské hřiště","","62"
"4","Večerka","Tesco Supermarket","https://www.firmy.cz/detail/2354410-tesco-supermarket-milovice-mlada.html","459"
"5","Hospoda","Pivnice RKDM","https://www.firmy.cz/detail/12972580-pivnice-rkdm-milovice-mlada.html","485"
"6","Veterinář","MVDr. Vladimír Pišl","https://www.firmy.cz/detail/2141306-mvdr-vladimir-pisl-milovice-mlada.html","249"
"7","Lékárna","Lékárna v Italské","https://www.firmy.cz/detail/2606433-lekarna-v-italske-milovice-mlada.html","379"
"8","Škola","Základní škola Juventa","https://www.firmy.cz/detail/12940822-zakladni-skola-juventa-milovice-mlada.html","521"
"9","Školka","Pidilidi","https://www.firmy.cz/detail/12940682-pidilidi-milovice-mlada.html","365"
"10","Restaurace","Restaurace U Jelínků","https://www.firmy.cz/detail/665724-restaurace-u-jelinku-milovice-mlada.html","334"
"11","Bankomat","Bankomat České spořitelny","https://www.firmy.cz/detail/2609914-bankomat-ceske-sporitelny-milovice-mlada.html","352"
"12","Obchod","Obchodní centrum Lysá","https://www.firmy.cz/detail/2340418-obchodni-centrum-lysa-lysa-nad-labem.html","3541"
"13","Lékař","MUDr. Oxana Tauchenová","https://www.firmy.cz/detail/385538-mudr-oxana-tauchenova-milovice-mlada.html","458"
"14","Sportoviště","Hakenův stadion","https://www.firmy.cz/detail/12995954-hakenuv-stadion-milovice.html","603"
"15","Vlak","Milovice","","707"
"16","Pošta","Pošta Milovice nad Labem 3 - Česká pošta, s.p.","https://www.firmy.cz/detail/217394-posta-milovice-nad-labem-3-milovice-mlada.html","576"
"17","Bus MHD","Milovice, radnice","","332"
