"","facility_type","facility_name","facility_iri","facility_distance"
"0","Cukrárna","Cukrárna Na Musilech 349/26","https://www.firmy.cz/detail/276302-cukrarna-na-musilech-349-26-praha-libus.html","160"
"1","Kino","Cinema City Chodov","https://www.firmy.cz/detail/13098016-cinema-city-chodov-praha-chodov.html","3089"
"2","Hřiště","Dětské hřiště K Lukám","","21"
"3","Večerka","VIVACOMEX, spol. s r.o.","https://www.firmy.cz/detail/1896113-vivacomex-praha-pisnice.html","687"
"4","Hospoda","Občerstvení U Báti","https://www.firmy.cz/detail/2175877-obcerstveni-u-bati-praha-libus.html","180"
"5","Divadlo","Loutkové divadlo Zvoneček","https://www.firmy.cz/detail/397112-loutkove-divadlo-zvonecek-praha-lhotka.html","2982"
"6","Veterinář","Veterinární nemocnice Libuš","https://www.firmy.cz/detail/601292-veterinarni-nemocnice-libus-praha-libus.html","474"
"7","Pošta","Pošta Praha 413 - Česká pošta, s.p.","https://www.firmy.cz/detail/217476-posta-praha-413-praha-libus.html","302"
"8","Lékárna","Písnická lékárna","https://www.firmy.cz/detail/13272782-pisnicka-lekarna-praha-pisnice.html","687"
"9","Škola","Wonderland Academy","https://www.firmy.cz/detail/2444568-wonderland-academy-praha-libus.html","204"
"10","Obchod","OC Kunratice","https://www.firmy.cz/detail/13045926-oc-kunratice-praha-kunratice.html","832"
"11","Lékař","Praktická lékařka - MUDr. Andrea Trčková","https://www.firmy.cz/detail/387802-prakticka-lekarka-mudr-andrea-trckova-praha-libus.html","200"
"12","Bankomat","Bankomat Komerční banky","https://www.firmy.cz/detail/2423286-bankomat-komercni-banky-praha-libus.html","438"
"13","Restaurace","Restaurace Božská Komedie","https://www.firmy.cz/detail/2174022-restaurace-bozska-komedie-praha-libus.html","226"
"14","Školka","MŠ K Lukám","https://www.firmy.cz/detail/406851-ms-k-lukam-praha-libus.html","140"
"15","Bus MHD","Libuš","","174"
"16","Vlak","Praha-Krč","","3250"
"17","Tram","Levského","","2114"
"18","Sportoviště","Tělocvičná jednota Sokol Libuš","https://www.firmy.cz/detail/637910-telocvicna-jednota-sokol-libus-praha-libus.html","370"
"19","Metro","Chodov","","3174"
