"","facility_type","facility_name","facility_iri","facility_distance"
"0","Hřiště","Dětské hřiště U Párníků","https://mapy.cz/zakladni?x=14.5347201783&y=50.149589638&z=17&source=base&id=1926938","342"
"1","Večerka","Tesco Expres","https://www.firmy.cz/detail/2501775-tesco-expres-praha-cakovice.html","37"
"2","Cukrárna","Cukrárna Sladká dílna","https://www.firmy.cz/detail/13152113-cukrarna-sladka-dilna-praha-cakovice.html","548"
"3","Hospoda","Vít Janečka","https://www.firmy.cz/detail/13136750-vit-janecka-velen-mirovice.html","2159"
"4","Veterinář","Veterinární ordinace Svobodník","https://www.firmy.cz/detail/12879016-veterinarni-ordinace-svobodnik-praha-letnany.html","2068"
"5","Kino","Cinema City Letňany","https://www.firmy.cz/detail/2679833-cinema-city-letnany-praha-letnany.html","2528"
"6","Divadlo","Divadlo Pohádka","https://www.firmy.cz/detail/636143-divadlo-pohadka-praha-letnany.html","3357"
"7","Bus MHD","Čakovice","https://mapy.cz/zakladni?x=14.530661&y=50.151176&z=17&source=pubt&id=15744883","15"
"8","Obchod","IMPERA obchodní centrum","https://www.firmy.cz/detail/13323703-impera-obchodni-centrum-praha.html","808"
"9","Sportoviště","Koupaliště Čakovice","https://www.firmy.cz/detail/12988193-koupaliste-cakovice-praha-cakovice.html","545"
"10","Lékař","Prakticul, s.r.o.","https://www.firmy.cz/detail/13293746-prakticul-praha-cakovice.html","116"
"11","Restaurace","Restaurace U Michala","https://www.firmy.cz/detail/13057146-restaurace-u-michala-praha-cakovice.html","170"
"12","Bankomat","Bankomat České spořitelny","https://www.firmy.cz/detail/595015-bankomat-ceske-sporitelny-praha.html","456"
"13","Školka","Angličtina Praha 9 Engfore","https://www.firmy.cz/detail/12699723-anglictina-praha-9-engfore-praha-cakovice.html","297"
"14","Škola","Základní škola a Mateřská škola Dr. Edvarda Beneše, Praha - Čakovice","https://www.firmy.cz/detail/356248-zakladni-skola-a-materska-skola-dr-edvarda-benese-praha-cakovice-praha-cakovice.html","306"
"15","Vlak","Praha-Čakovice","https://mapy.cz/zakladni?x=14.5193859204&y=50.1489307424&z=17&source=pubt&id=15212555","829"
"16","Pošta","Pošta Praha 96 - Česká pošta, s.p.","https://www.firmy.cz/detail/216698-posta-praha-96-praha-cakovice.html","559"
"17","Lékárna","Lékárna Cukrovarská","https://www.firmy.cz/detail/12730782-lekarna-cukrovarska-praha-cakovice.html","63"
"18","Metro","Letňany","https://mapy.cz/zakladni?x=14.5157636082262&y=50.1256649022&z=17&source=pubt&id=15200285","3015"
"19","Tram","Sídliště Ďáblice","https://mapy.cz/zakladni?x=14.4797513603&y=50.1327561559&z=17&source=pubt&id=15304972","4152"
