"","facility_type","facility_name","facility_iri","facility_distance"
"0","Cukrárna","Zákusky Rubín","https://www.firmy.cz/detail/13120198-zakusky-rubin-trutnov-stredni-predmesti.html","117"
"1","Kino","Kino Vesmír","https://www.firmy.cz/detail/2658912-kino-vesmir-trutnov-dolni-predmesti.html","1256"
"2","Hřiště","Dětské hřiště U Školy","","303"
"3","Večerka","BILLA","https://www.firmy.cz/detail/212054-billa-trutnov-stredni-predmesti.html","558"
"4","Hospoda","Pivnice Na Bouchalce","https://www.firmy.cz/detail/239253-pivnice-na-bouchalce-trutnov-horni-predmesti.html","454"
"5","Veterinář","Veterinář, s.r.o.","https://www.firmy.cz/detail/270435-veterinar-trutnov-stredni-predmesti.html","479"
"6","Sportoviště","Fan ́s George Trutnov","https://www.firmy.cz/detail/2302615-fan-s-george-trutnov-trutnov-stredni-predmesti.html","80"
"7","Bus MHD","Trutnov, Horská Šestidomí","","134"
"8","Školka","MŠ Trutnov, Tkalcovská","https://www.firmy.cz/detail/2391614-ms-trutnov-tkalcovska-trutnov-stredni-predmesti.html","269"
"9","Pošta","Pošta Trutnov 1 - Česká pošta, s.p.","https://www.firmy.cz/detail/215646-posta-trutnov-1-trutnov-stredni-predmesti.html","970"
"10","Restaurace","Alvazo grill & restaurant","https://www.firmy.cz/detail/13231387-alvazo-grill-restaurant-trutnov-stredni-predmesti.html","314"
"11","Vlak","Trutnov hlavní nádraží","","764"
"12","Bankomat","Bankomat České spořitelny","https://www.firmy.cz/detail/596293-bankomat-ceske-sporitelny-trutnov-horni-predmesti.html","529"
"13","Lékárna","Dr. Max LÉKÁRNA","https://www.firmy.cz/detail/12920141-dr-max-lekarna-trutnov-horni-predmesti.html","538"
"14","Škola","ZŠ Trutnov, V Domcích","https://www.firmy.cz/detail/359729-zs-trutnov-v-domcich-trutnov-horni-predmesti.html","266"
"15","Obchod","Albert Hypermarket","https://www.firmy.cz/detail/447235-albert-hypermarket-trutnov-horni-predmesti.html","548"
"16","Lékař","MUDr. Irena Stiehlová","https://www.firmy.cz/detail/12833442-mudr-irena-stiehlova-trutnov-stredni-predmesti.html","526"
