"","facility_type","facility_name","facility_iri","facility_distance"
"0","Cukrárna","Bertík Café - Dětský koutek s kavárnou","https://www.firmy.cz/detail/13010963-bertik-cafe-detsky-koutek-s-kavarnou-most.html","193"
"1","Kino","Kino Kosmos","https://www.firmy.cz/detail/401279-kino-kosmos-most.html","878"
"2","Hřiště","Dětské hřiště Lipová","","206"
"3","Večerka","Potraviny Šeříková 1120/28","https://www.firmy.cz/detail/2604708-potraviny-serikova-1120-28-most.html","93"
"4","Hospoda","Hospůdka U kance","https://www.firmy.cz/detail/13130999-hospudka-u-kance-most.html","116"
"5","Divadlo","Divadlo rozmanitostí","https://www.firmy.cz/detail/397090-divadlo-rozmanitosti-most.html","235"
"6","Veterinář","Veterinka U Tlapiček","https://www.firmy.cz/detail/12758413-veterinka-u-tlapicek-most.html","103"
"7","Lékárna","LÉKÁRNA MOFA","https://www.firmy.cz/detail/422118-lekarna-mofa-most.html","282"
"8","Lékař","Zahradníková Iryna, MediClinic a.s.","https://www.firmy.cz/detail/12946257-zahradnikova-iryna-mediclinic-a-s-most.html","282"
"9","Pošta","Pošta Most 11 - Česká pošta, s.p.","https://www.firmy.cz/detail/216959-posta-most-11-most.html","375"
"10","Škola","ZŠ Most, Rozmarýnová","https://www.firmy.cz/detail/358331-zs-most-rozmarynova-most.html","129"
"11","Školka","MŠ Most, Růžová","https://www.firmy.cz/detail/722069-ms-most-ruzova-most.html","95"
"12","Bankomat","Bankomat ČSOB","https://www.firmy.cz/detail/1423738-bankomat-csob-most.html","282"
"13","Sportoviště","Pétanque aquadrom","","516"
"14","Bus MHD","Most, 14.ZŠ","","231"
"15","Tram","Most, Velebudická","","908"
"16","Restaurace","Plzeňský restaurant","https://www.firmy.cz/detail/343288-plzensky-restaurant-most.html","63"
"17","Obchod","Retail Park Most","https://www.firmy.cz/detail/13195413-retail-park-most-most.html","921"
"18","Vlak","Most","","1824"
