"","facility_type","facility_name","facility_iri","facility_distance"
"0","Cukrárna","Cukrárna Pod Marjánkou","https://www.firmy.cz/detail/12887308-cukrarna-pod-marjankou-praha-brevnov.html","355"
"1","Kino","Cinema City Nový Smíchov","https://www.firmy.cz/detail/2679838-cinema-city-novy-smichov-praha-smichov.html","2547"
"2","Hřiště","Dětské hřiště Junácká","","144"
"3","Večerka","Z-Market","https://www.firmy.cz/detail/12788101-z-market-praha-brevnov.html","184"
"4","Hospoda","Hostinec Drinopol","https://www.firmy.cz/detail/328447-hostinec-drinopol-praha-brevnov.html","201"
"5","Divadlo","KAŠTAN - Scéna Unijazzu","https://www.firmy.cz/detail/397273-kastan-scena-unijazzu-praha-brevnov.html","816"
"6","Veterinář","MVDr. Josef Kubeček","https://www.firmy.cz/detail/275654-mvdr-josef-kubecek-praha-brevnov.html","197"
"7","Obchod","Kaufland","https://www.firmy.cz/detail/221319-kaufland-praha-brevnov.html","2492"
"8","Bus MHD","Kajetánka","","124"
"9","Sportoviště","Tělocvičná jednota Sokol Praha - Břevnov","https://www.firmy.cz/detail/159402-telocvicna-jednota-sokol-praha-brevnov-praha-brevnov.html","469"
"10","Lékař","MUDr. Renáta Ryvolová","https://www.firmy.cz/detail/385693-mudr-renata-ryvolova-praha-brevnov.html","169"
"11","Škola","ZŠ Marjánka, Praha 6","https://www.firmy.cz/detail/458969-zs-marjanka-praha-6-praha-brevnov.html","265"
"12","Metro","Bořislavka","","1501"
"13","Lékárna","Lékárna Bělohorská","https://www.firmy.cz/detail/12721462-lekarna-belohorska-praha-brevnov.html","441"
"14","Bankomat","Bankomat MONETA Money Bank","https://www.firmy.cz/detail/603024-bankomat-moneta-money-bank-praha-brevnov.html","256"
"15","Restaurace","Bernard PUB U Bílého Lva","https://www.firmy.cz/detail/2502077-bernard-pub-u-bileho-lva-praha-brevnov.html","248"
"16","Vlak","Praha-Veleslavín","","2111"
"17","Tram","Drinopol","","173"
"18","Pošta","Pošta Praha 69 - Česká pošta, s.p.","https://www.firmy.cz/detail/216722-posta-praha-69-praha-brevnov.html","558"
"19","Školka","ZŠ a MŠ J. A. Komenského, Praha 6","https://www.firmy.cz/detail/725240-zs-a-ms-j-a-komenskeho-praha-6-praha-brevnov.html","175"
