"","facility_type","facility_name","facility_iri","facility_distance"
"0","Cukrárna","Cukrárna Sladká dílna","https://www.firmy.cz/detail/13333187-cukrarna-sladka-dilna-praha-veleslavin.html","329"
"1","Kino","Kino Dlabačov","https://www.firmy.cz/detail/13024517-kino-dlabacov-praha-brevnov.html","2516"
"2","Hřiště","Dětské hřiště Nad Alejí","","142"
"3","Večerka","Můjobchod - Potraviny B&T","https://www.firmy.cz/detail/12997219-mujobchod-potraviny-b-t-praha-brevnov.html","130"
"4","Hospoda","PIVNÍ BAR Skřítek","https://www.firmy.cz/detail/13114640-pivni-bar-skritek-praha-brevnov.html","82"
"5","Divadlo","KAŠTAN - Scéna Unijazzu","https://www.firmy.cz/detail/397273-kastan-scena-unijazzu-praha-brevnov.html","1149"
"6","Veterinář","Veterinární klinika Červený vrch, s.r.o.","https://www.firmy.cz/detail/595558-veterinarni-klinika-cerveny-vrch-praha-veleslavin.html","413"
"7","Pošta","Pošta Praha 616 - Česká pošta, s.p.","https://www.firmy.cz/detail/431331-posta-praha-616-praha-veleslavin.html","530"
"8","Škola","Gymnázium Nad Alejí","https://www.firmy.cz/detail/306041-gymnazium-nad-aleji-praha-brevnov.html","143"
"9","Tram","Petřiny","","298"
"10","Obchod","Obchodní dům Čílova","https://www.firmy.cz/detail/13157318-obchodni-dum-cilova-praha-veleslavin.html","409"
"11","Lékárna","Lékárna Hvězda Petřiny","https://www.firmy.cz/detail/583640-lekarna-hvezda-petriny-praha-veleslavin.html","360"
"12","Bankomat","Bankomat ČSOB","https://www.firmy.cz/detail/13035405-bankomat-csob-praha.html","269"
"13","Lékař","MUDr. Věra Pudláková, s.r.o.","https://www.firmy.cz/detail/12835877-mudr-vera-pudlakova-praha-brevnov.html","1030"
"14","Sportoviště","Tělovýchovná jednota Ústřední vojenská jednota o.s.","https://www.firmy.cz/detail/404451-telovychovna-jednota-ustredni-vojenska-jednota-o-s-praha-brevnov.html","345"
"15","Školka","MŠ Volavkova","https://www.firmy.cz/detail/470617-ms-volavkova-praha-brevnov.html","58"
"16","Restaurace","Restaurace Nad Alejí","https://www.firmy.cz/detail/13114622-restaurace-nad-aleji-praha-brevnov.html","82"
"17","Metro","Petřiny","","116"
"18","Bus MHD","Nad Markétou","","239"
"19","Vlak","Praha-Veleslavín","","1069"
