"","facility_type","facility_name","facility_iri","facility_distance"
"0","Hřiště","Dětské hřiště Slapy","https://mapy.cz/zakladni?x=14.4006578943&y=49.8129333004&z=17&source=base&id=1927330","108"
"1","Večerka","Potraviny Lahůdky Slapy 280","https://www.firmy.cz/detail/255099-potraviny-lahudky-slapy-280-slapy.html","403"
"2","Hospoda","Hospoda V Proudech","https://www.firmy.cz/detail/13258140-hospoda-v-proudech-stechovice-trebenice.html","3142"
"3","Veterinář","Institut celostní péče o koně, o.p.s.","https://www.firmy.cz/detail/2626648-institut-celostni-pece-o-kone-cim.html","3710"
"4","Cukrárna","Hájek & Hájková, s.r.o.","https://www.firmy.cz/detail/2598632-hajek-hajkova-stechovice.html","4459"
"5","Školka","Mateřská škola Slapy","https://www.firmy.cz/detail/727965-materska-skola-slapy-slapy.html","365"
"6","Pošta","Pošta Slapy nad Vltavou - Česká pošta, s.p.","https://www.firmy.cz/detail/216666-posta-slapy-nad-vltavou-slapy.html","132"
"7","Restaurace","Restaurace U Neužilu","https://www.firmy.cz/detail/13232274-restaurace-u-neuzilu-slapy.html","164"
"8","Škola","Základní škola Slapy","https://www.firmy.cz/detail/359359-zakladni-skola-slapy-slapy.html","365"
"9","Bus MHD","Slapy, Jednota","https://mapy.cz/zakladni?x=14.398664&y=49.812704&z=17&source=pubt&id=15304720","183"
"10","Lékárna","Dr.Max LÉKÁRNA","https://www.firmy.cz/detail/13260555-dr-max-lekarna-stechovice.html","4441"
"11","Sportoviště","Ing. Antonín Buriánek","https://www.firmy.cz/detail/12973982-ing-antonin-burianek-slapy.html","437"
"12","Lékař","MUDr.Václav Holý","https://www.firmy.cz/detail/690163-mudr-vaclav-holy-slapy.html","835"
"13","Bankomat","Bankomat České spořitelny","https://www.firmy.cz/detail/12737607-bankomat-ceske-sporitelny-stechovice.html","4407"
