"","facility_type","facility_name","facility_iri","facility_distance"
"0","Cukrárna","Cukrárna Gusto","https://www.firmy.cz/detail/12929445-cukrarna-gusto-kromeriz.html","310"
"1","Kino","Kino Nadsklepí","https://www.firmy.cz/detail/12749352-kino-nadsklepi-kromeriz.html","816"
"2","Přírodní zajímavost","Soutok Moravy a Hané","","4250"
"3","Hřiště","Dětské hřiště Spáčilova","","28"
"4","Večerka","Albert Supermarket","https://www.firmy.cz/detail/446936-albert-supermarket-kromeriz.html","113"
"5","Hospoda","Pivnice U Ferbínka","https://www.firmy.cz/detail/242909-pivnice-u-ferbinka-kromeriz.html","465"
"6","Divadlo","Dům kultury v Kroměříži","https://www.firmy.cz/detail/397120-dum-kultury-v-kromerizi-kromeriz.html","233"
"7","Veterinář","MVDr. Roman Zavřel - PrimaVet","https://www.firmy.cz/detail/2208462-mvdr-roman-zavrel-primavet-kromeriz.html","882"
"8","Sportoviště","Discgolf Erbenovo nábřeží","","157"
"9","Bus MHD","Kroměříž, Švabinského ZŠ","","196"
"10","Lékař","Praktický lékař pro děti a dorost - MUDr. František Švec","https://www.firmy.cz/detail/1907074-prakticky-lekar-pro-deti-a-dorost-mudr-frantisek-svec-kromeriz.html","269"
"11","Vlak","Kroměříž","","465"
"12","Školka","Mateřská škola, Kroměříž, Mánesova 3880","https://www.firmy.cz/detail/13188680-materska-skola-kromeriz-manesova-3880-kromeriz.html","286"
"13","Pošta","Pošta Kroměříž 1 - Česká pošta, s.p.","https://www.firmy.cz/detail/215889-posta-kromeriz-1-kromeriz.html","159"
"14","Obchod","Albert Hypermarket","https://www.firmy.cz/detail/446933-albert-hypermarket-kromeriz.html","414"
"15","Bankomat","Bankomat České spořitelny","https://www.firmy.cz/detail/593074-bankomat-ceske-sporitelny-kromeriz.html","246"
"16","Škola","ZŠ Zámoraví, Kroměříž","https://www.firmy.cz/detail/357846-zs-zamoravi-kromeriz-kromeriz.html","220"
"17","Lékárna","POLIMEDCENTRUM ZLATÝ LEV s.r.o., Lékárna U zlatého lva","https://www.firmy.cz/detail/376244-polimedcentrum-zlaty-lev-s-r-o-lekarna-u-zlateho-lva-kromeriz.html","269"
"18","Restaurace","Kozlovna Oskol","https://www.firmy.cz/detail/13260049-kozlovna-oskol-kromeriz.html","88"
