"","facility_type","facility_name","facility_iri","facility_distance"
"0","Cukrárna","Cukrárna u Pavlínky","https://www.firmy.cz/detail/13112295-cukrarna-u-pavlinky-frydek-mistek-mistek.html","440"
"1","Kino","Kino Nová scéna Vlast","https://www.firmy.cz/detail/396685-kino-nova-scena-vlast-frydek-mistek-mistek.html","843"
"2","Přírodní zajímavost","Bludné balvany ve Frýdeckém lese","","3325"
"3","Hřiště","Dětské hřiště Ostravská","","287"
"4","Večerka","Pramen","https://www.firmy.cz/detail/13268883-pramen-frydek-mistek-mistek.html","48"
"5","Divadlo","Divadlo Nová scéna Vlast","https://www.firmy.cz/detail/661522-divadlo-nova-scena-vlast-frydek-mistek-mistek.html","843"
"6","Hospoda","Pivní Bar Maršál","https://www.firmy.cz/detail/13166862-pivni-bar-marsal-frydek-mistek-mistek.html","295"
"7","Veterinář","MVDr. Radim Medek","https://www.firmy.cz/detail/1967673-mvdr-radim-medek-frydek-mistek-mistek.html","381"
"8","Restaurace","Restaurace Morava","https://www.firmy.cz/detail/13051041-restaurace-morava-frydek-mistek-mistek.html","68"
"9","Lékař","SAGENA s.r.o.","https://www.firmy.cz/detail/12984963-sagena-s-r-o-frydek-mistek-mistek.html","445"
"10","Bankomat","Bankomat ČSOB","https://www.firmy.cz/detail/13252366-bankomat-csob-frydek-mistek-mistek.html","428"
"11","Obchod","Tesco","https://www.firmy.cz/detail/218198-tesco-frydek-mistek-mistek.html","691"
"12","Pošta","Pošta Frýdek-Místek 12 - Česká pošta, s.p.","https://www.firmy.cz/detail/432958-posta-frydek-mistek-12-frydek-mistek-mistek.html","615"
"13","Bus MHD","Místek, ul. 17. listopadu","","140"
"14","Školka","MŠ Frýdek-Místek, J. Trnky","https://www.firmy.cz/detail/2153086-ms-frydek-mistek-j-trnky-frydek-mistek-mistek.html","119"
"15","Lékárna","AZlekarna.cz","https://www.firmy.cz/detail/2107703-azlekarna-cz-frydek-mistek-mistek.html","508"
"16","Sportoviště","SVČ Klíč","https://www.firmy.cz/detail/13296074-svc-klic-frydek-mistek-mistek.html","573"
"17","Škola","Základní škola Frýdek-Místek, Československé armády 570","https://www.firmy.cz/detail/357004-zakladni-skola-frydek-mistek-ceskoslovenske-armady-570-frydek-mistek-mistek.html","185"
"18","Vlak","Frýdek-Místek","","1463"
