"","facility_type","facility_name","facility_iri","facility_distance"
"0","Hřiště","Dětské hřiště u rybníčka","https://mapy.cz/zakladni?x=17.21786879&y=49.590412103&z=17&source=base&id=2181228","373"
"1","Večerka","Lidl","https://www.firmy.cz/detail/13295151-lidl-olomouc-nova-ulice.html","656"
"2","Hospoda","Jadrošova krčma","https://www.firmy.cz/detail/13189157-jadrosova-krcma-olomouc-neredin.html","540"
"3","Kino","CineStar Olomouc","https://www.firmy.cz/detail/661181-cinestar-olomouc-olomouc-repcin.html","1054"
"4","Veterinář","Veterinární klinika MVDr. Michael Mazoch, s.r.o.","https://www.firmy.cz/detail/12906915-veterinarni-klinika-mvdr-michael-mazoch-s-r-o-olomouc-neredin.html","787"
"5","Cukrárna","NM DESSERTS","https://www.firmy.cz/detail/13274778-nm-desserts-olomouc-neredin.html","720"
"6","Divadlo","Divadlo Tramtarie","https://www.firmy.cz/detail/594401-divadlo-tramtarie-olomouc-nova-ulice.html","1905"
"7","Obchod","OD TIMPO, s.r.o.","https://www.firmy.cz/detail/642623-od-timpo-olomouc-nova-ulice.html","656"
"8","Vlak","Olomouc město","https://mapy.cz/zakladni?x=17.241190942&y=49.5941205238&z=17&source=pubt&id=15212337","1521"
"9","Bankomat","Bankomat České spořitelny","https://www.firmy.cz/detail/593746-bankomat-ceske-sporitelny-olomouc-nova-ulice.html","656"
"10","Lékárna","Dr. Max","https://www.firmy.cz/detail/12856835-dr-max-olomouc-repcin.html","926"
"11","Tram","Neředín, Krematorium","https://mapy.cz/zakladni?x=17.2179269022&y=49.5954603258&z=17&source=pubt&id=15203083","276"
"12","Lékař","Ordinace Neředín - Mazoch Igor MUDr.","https://www.firmy.cz/detail/12834025-ordinace-neredin-mazoch-igor-mudr-olomouc-neredin.html","640"
"13","Škola","Fakultní ZŠ Olomouc, Tererovo nám.","https://www.firmy.cz/detail/358562-fakultni-zs-olomouc-tererovo-nam-olomouc-nova-ulice.html","775"
"14","Restaurace","Restaurace u Rytíře","https://www.firmy.cz/detail/2545128-restaurace-u-rytire-olomouc-neredin.html","146"
"15","Školka","MŠ Barevný svět Olomouc","https://www.firmy.cz/detail/2258721-ms-barevny-svet-olomouc-olomouc-neredin.html","542"
"16","Pošta","Pošta Olomouc 10 - Česká pošta, s.p.","https://www.firmy.cz/detail/215756-posta-olomouc-10-olomouc-nova-ulice.html","1062"
"17","Sportoviště","TJ Dukla Olomouc","https://www.firmy.cz/detail/1342119-tj-dukla-olomouc-olomouc-neredin.html","219"
"18","Bus MHD","Neředín, Krematorium","https://mapy.cz/zakladni?x=17.2173502081&y=49.5953319455&z=17&source=pubt&id=15203228","291"
