"","facility_type","facility_name","facility_iri","facility_distance"
"0","Cukrárna","Speed Caffé","https://www.firmy.cz/detail/12881696-speed-caffe-tachov.html","536"
"1","Kino","Kino Mže","https://www.firmy.cz/detail/396537-kino-mze-tachov.html","376"
"2","Hřiště","Dětské hřiště Třešňová","","50"
"3","Večerka","COOP - TUTY","https://www.firmy.cz/detail/2161752-coop-tuty-tachov.html","201"
"4","Hospoda","SportCentrum Forte","https://www.firmy.cz/detail/470192-sportcentrum-forte-tachov.html","531"
"5","Veterinář","MVDr. František Krys","https://www.firmy.cz/detail/2694630-mvdr-frantisek-krys-tachov.html","610"
"6","Škola","ZŠ Tachov, Hornická","https://www.firmy.cz/detail/359652-zs-tachov-hornicka-tachov.html","303"
"7","Lékař","MUDr. Naděžda Bydžovská","https://www.firmy.cz/detail/382261-mudr-nadezda-bydzovska-tachov.html","354"
"8","Sportoviště","Bowling Bar Tachov","https://www.firmy.cz/detail/13331129-bowling-bar-tachov-tachov.html","535"
"9","Pošta","Pošta Tachov 1 - Česká pošta, s.p.","https://www.firmy.cz/detail/216517-posta-tachov-1-tachov.html","509"
"10","Školka","MŠ Tachov, Sadová","https://www.firmy.cz/detail/2107380-ms-tachov-sadova-tachov.html","328"
"11","Bus MHD","Tachov, sídl. západ","","206"
"12","Bankomat","Bankomat ČSOB","https://www.firmy.cz/detail/1443727-bankomat-csob-tachov.html","509"
"13","Vlak","Tachov","","840"
"14","Restaurace","Restaurace Hornická 2124","https://www.firmy.cz/detail/13153434-restaurace-hornicka-2124-tachov.html","215"
"15","Lékárna","Dr. Max LÉKÁRNA","https://www.firmy.cz/detail/2425473-dr-max-lekarna-tachov.html","515"
"16","Obchod","OC Kaskády","https://www.firmy.cz/detail/13268732-oc-kaskady-tachov.html","515"
