"","facility_type","facility_name","facility_iri","facility_distance"
"0","Cukrárna","Cafe Miller","https://www.firmy.cz/detail/13017560-cafe-miller-kladno-krocehlavy.html","100"
"1","Kino","Kino Hutník","https://www.firmy.cz/detail/396729-kino-hutnik-kladno-krocehlavy.html","1684"
"2","Hřiště","Dětské hřiště U Pražanky","","104"
"3","Večerka","Večerka Wednesbury","https://www.firmy.cz/detail/13288807-vecerka-wednesbury-kladno-krocehlavy.html","144"
"4","Hospoda","Hospůdka Háčko","https://www.firmy.cz/detail/13110582-hospudka-hacko-kladno-krocehlavy.html","136"
"5","Divadlo","Městské divadlo Kladno","https://www.firmy.cz/detail/1970001-mestske-divadlo-kladno-kladno.html","1909"
"6","Veterinář","MVDr. Petr Prokeš","https://www.firmy.cz/detail/592518-mvdr-petr-prokes-kladno-krocehlavy.html","195"
"7","Bankomat","Bankomat České spořitelny","https://www.firmy.cz/detail/593000-bankomat-ceske-sporitelny-kladno-krocehlavy.html","115"
"8","Sportoviště","Bowling Flóra Kladno","https://www.firmy.cz/detail/13282965-bowling-flora-kladno-kladno-krocehlavy.html","382"
"9","Bus MHD","Kladno, Wednesbury","","83"
"10","Lékař","MUDr. Olga Šustová","https://www.firmy.cz/detail/387840-mudr-olga-sustova-kladno-krocehlavy.html","242"
"11","Školka","MŠ Kladno, Vrchlického","https://www.firmy.cz/detail/731283-ms-kladno-vrchlickeho-kladno-krocehlavy.html","203"
"12","Obchod","Kaufland","https://www.firmy.cz/detail/1406115-kaufland-kladno-krocehlavy.html","690"
"13","Škola","ZŠ a MŠ Kladno, Ukrajinská","https://www.firmy.cz/detail/356091-zs-a-ms-kladno-ukrajinska-kladno-krocehlavy.html","233"
"14","Lékárna","U Zlatého draka","https://www.firmy.cz/detail/376369-u-zlateho-draka-kladno-krocehlavy.html","242"
"15","Vlak","Kladno","","1056"
"16","Restaurace","Restaurace Pražanka","https://www.firmy.cz/detail/13221052-restaurace-prazanka-kladno-krocehlavy.html","100"
"17","Pošta","Pošta Kladno 6 - Česká pošta, s.p.","https://www.firmy.cz/detail/216841-posta-kladno-6-kladno-krocehlavy.html","337"
