"","facility_type","facility_name","facility_iri","facility_distance"
"0","Cukrárna","Ice La Torta","https://www.firmy.cz/detail/12791026-ice-la-torta-praha-mala-strana.html","942"
"1","Kino","Cinema City Nový Smíchov","https://www.firmy.cz/detail/2679838-cinema-city-novy-smichov-praha-smichov.html","2108"
"2","Hřiště","Dětské hřiště Za Hládkovem","","95"
"3","Večerka","Z-Market","https://www.firmy.cz/detail/12788101-z-market-praha-brevnov.html","1075"
"4","Hospoda","U Černého vola","https://www.firmy.cz/detail/2682464-u-cerneho-vola-praha-hradcany.html","574"
"5","Divadlo","DIVADLO UNGELT, s.r.o.","https://www.firmy.cz/detail/2615819-divadlo-ungelt-praha-hradcany.html","666"
"6","Veterinář","MVDr. Aleš Müller","https://www.firmy.cz/detail/2139641-mvdr-ales-muller-praha-brevnov.html","602"
"7","Škola","ZUŠ Praha 6, Nad Alejí, Morstadtova","https://www.firmy.cz/detail/2403808-zus-praha-6-nad-aleji-morstadtova-praha-hradcany.html","179"
"8","Bus MHD","Na Petynce","","187"
"9","Lékárna","Lék.Nem.Milosrd.sester sv.K.Boromejského v Praze","https://www.firmy.cz/detail/2307552-lek-nem-milosrd-sester-sv-k-boromejskeho-v-praze-praha-mala-strana.html","903"
"10","Pošta","Pošta Praha 612 - Česká pošta, s.p.","https://www.firmy.cz/detail/217422-posta-praha-612-praha-stresovice.html","56"
"11","Sportoviště","Koupaliště Petynka","https://www.firmy.cz/detail/2358159-koupaliste-petynka-praha-stresovice.html","248"
"12","Bankomat","Bankomat Komerční banky","https://www.firmy.cz/detail/594686-bankomat-komercni-banky-praha-hradcany.html","464"
"13","Lékař","MUDr. Martina Malá","https://www.firmy.cz/detail/389083-mudr-martina-mala-praha-brevnov.html","867"
"14","Vlak","Praha-Dejvice","","1460"
"15","Restaurace","Burger Pub Na Hubálce","https://www.firmy.cz/detail/12795758-burger-pub-na-hubalce-praha-stresovice.html","136"
"16","Obchod","Obchodní centrum Nový Smíchov","https://www.firmy.cz/detail/579116-obchodni-centrum-novy-smichov-praha-smichov.html","2180"
"17","Školka","PhDr. Hana Topolánková","https://www.firmy.cz/detail/2675440-phdr-hana-topolankova-praha-stresovice.html","36"
"18","Metro","Dejvická","","1408"
"19","Tram","Hládkov","","221"
