"","facility_type","facility_name","facility_iri","facility_distance"
"0","Hřiště","Dětské hřiště","https://mapy.cz/zakladni?x=14.462586830619045&y=50.01174248759772&z=17&source=base&id=2326248","197"
"1","Večerka","Smíšené zboží Mirotická 9","https://www.firmy.cz/detail/13292929-smisene-zbozi-miroticka-9-praha-lhotka.html","462"
"2","Veterinář","Veterinární nemocnice Libuš","https://www.firmy.cz/detail/601292-veterinarni-nemocnice-libus-praha-libus.html","344"
"3","Hospoda","Občerstvení U Báti","https://www.firmy.cz/detail/2175877-obcerstveni-u-bati-praha-libus.html","502"
"4","Cukrárna","Perníčkovi","https://www.firmy.cz/detail/13284276-pernickovi-praha-libus.html","197"
"5","Divadlo","Loutkové divadlo Zvoneček","https://www.firmy.cz/detail/397112-loutkove-divadlo-zvonecek-praha-lhotka.html","2412"
"6","Kino","Cinema City Chodov","https://www.firmy.cz/detail/13098016-cinema-city-chodov-praha-chodov.html","3030"
"7","Škola","ZŠ a MŠ Praha 12, Smolkova","https://www.firmy.cz/detail/358986-zs-a-ms-praha-12-smolkova-praha-kamyk.html","702"
"8","Restaurace","Cafe Restaurant New Fantasy","https://www.firmy.cz/detail/13095763-cafe-restaurant-new-fantasy-praha-libus.html","121"
"9","Lékař","Praktická lékařka - MUDr. Andrea Trčková","https://www.firmy.cz/detail/387802-prakticka-lekarka-mudr-andrea-trckova-praha-libus.html","599"
"10","Tram","Levského","https://mapy.cz/zakladni?x=14.4360799568&y=50.0051219&z=17&source=pubt&id=15300415","1841"
"11","Školka","Soukromá mateřská škola Beránek","https://www.firmy.cz/detail/12757822-soukroma-materska-skola-beranek-praha-libus.html","391"
"12","Obchod","OC Kunratice","https://www.firmy.cz/detail/13045926-oc-kunratice-praha-kunratice.html","1137"
"13","Metro","Chodov","https://mapy.cz/zakladni?x=14.4913169&y=50.0309086&z=17&source=pubt&id=15200211","3117"
"14","Bus MHD","U Zvoničky","https://mapy.cz/zakladni?x=14.4601469053&y=50.0105516041&z=17&source=pubt&id=15303524","107"
"15","Lékárna","Dr. Max","https://www.firmy.cz/detail/13001325-dr-max-praha-kunratice.html","1101"
"16","Sportoviště","Tělocvičná jednota Sokol Libuš","https://www.firmy.cz/detail/637910-telocvicna-jednota-sokol-libus-praha-libus.html","843"
"17","Vlak","Praha-Krč","https://mapy.cz/zakladni?x=14.4459680257&y=50.0341635187&z=17&source=pubt&id=15212570","2709"
"18","Pošta","Pošta Praha 413 - Česká pošta, s.p.","https://www.firmy.cz/detail/217476-posta-praha-413-praha-libus.html","286"
"19","Bankomat","Bankomat Komerční banky","https://www.firmy.cz/detail/2423286-bankomat-komercni-banky-praha-libus.html","173"
