"","facility_type","facility_name","facility_iri","facility_distance"
"0","Cukrárna","Kavárna Atrium","https://www.firmy.cz/detail/2651565-kavarna-atrium-pardubice-zelene-predmesti.html","107"
"1","Kino","CineStar Pardubice","https://www.firmy.cz/detail/2109581-cinestar-pardubice-pardubice-zelene-predmesti.html","327"
"2","Hřiště","Dětské hřiště Karlovina","","270"
"3","Večerka","Žabka","https://www.firmy.cz/detail/13331115-zabka-pardubice-zelene-predmesti.html","96"
"4","Divadlo","Východočeské divadlo Pardubice","https://www.firmy.cz/detail/396998-vychodoceske-divadlo-pardubice-pardubice-zelene-predmesti.html","320"
"5","Hospoda","Excelent Pub","https://www.firmy.cz/detail/13111691-excelent-pub-pardubice-zelene-predmesti.html","41"
"6","Veterinář","Veterina na Višňovce","https://www.firmy.cz/detail/12965556-veterina-na-visnovce-pardubice-zelene-predmesti.html","939"
"7","Školka","MŠ Pardubice, K Polabinám","https://www.firmy.cz/detail/1880709-ms-pardubice-k-polabinam-pardubice-zelene-predmesti.html","649"
"8","Restaurace","Plzeňka Pardubice","https://www.firmy.cz/detail/12713298-plzenka-pardubice-pardubice-zelene-predmesti.html","96"
"9","Lékárna","Lékárna ve Smilovce","https://www.firmy.cz/detail/13204550-lekarna-ve-smilovce-pardubice-zelene-predmesti.html","69"
"10","Obchod","OC Grand Pardubice","https://www.firmy.cz/detail/13057413-oc-grand-pardubice-pardubice-zelene-predmesti.html","347"
"11","Vlak","Pardubice-Pardubičky","","1199"
"12","Lékař","Genermed, s.r.o.","https://www.firmy.cz/detail/13172753-genermed-pardubice-zelene-predmesti.html","322"
"13","Sportoviště","Tenisový klub Pernštýn 1897 Pardubice","https://www.firmy.cz/detail/159736-tenisovy-klub-pernstyn-1897-pardubice-pardubice-zelene-predmesti.html","670"
"14","Bankomat","Bankomat České spořitelny","https://www.firmy.cz/detail/593871-bankomat-ceske-sporitelny-pardubice-zelene-predmesti.html","165"
"15","Škola","Základní škola Pardubice, Bratranců Veverkových 866","https://www.firmy.cz/detail/358769-zakladni-skola-pardubice-bratrancu-veverkovych-866-pardubice-zelene-predmesti.html","105"
"16","Pošta","Pošta Pardubice 1 - Česká pošta, s.p.","https://www.firmy.cz/detail/452739-posta-pardubice-1-pardubice-zelene-predmesti.html","221"
"17","Bus MHD","Třída Míru","","135"
