"","facility_type","facility_name","facility_iri","facility_distance"
"0","Cukrárna","Kavárna MonRo","https://www.firmy.cz/detail/12883202-kavarna-monro-brno-stare-brno.html","269"
"1","Kino","Cinema City Velký Špalíček","https://www.firmy.cz/detail/2679905-cinema-city-velky-spalicek-brno-mesto.html","500"
"2","Přírodní zajímavost","Koniklecová louka","","3847"
"3","Hřiště","Dětské hřiště Vodní","","81"
"4","Večerka","Žabka","https://www.firmy.cz/detail/13257108-zabka-brno-stare-brno.html","42"
"5","Hospoda","U Bernardýna","https://www.firmy.cz/detail/13145624-u-bernardyna-brno-stare-brno.html","269"
"6","Divadlo","Malá Amerika","https://www.firmy.cz/detail/12926234-mala-amerika-brno-stare-brno.html","363"
"7","Veterinář","Veterinární ordinace - MVDr. Klára Palicová","https://www.firmy.cz/detail/13185639-veterinarni-ordinace-mvdr-klara-palicova-brno-stare-brno.html","667"
"8","Lékárna","Lékárna LEMON","https://www.firmy.cz/detail/13301534-lekarna-lemon-brno-stare-brno.html","25"
"9","Bankomat","Bankomat Fio banky","https://www.firmy.cz/detail/12730430-bankomat-fio-banky-brno-stare-brno.html","206"
"10","Vlak","Brno hlavní nádraží","","655"
"11","Pošta","Pošta Brno 10 - Česká pošta, s.p.","https://www.firmy.cz/detail/13048279-posta-brno-10-brno-mesto.html","479"
"12","Tram","Hybešova","","43"
"13","Školka","Sdružená škola Majka - miniškolka","https://www.firmy.cz/detail/13084534-sdruzena-skola-majka-miniskolka-brno-stare-brno.html","78"
"14","Bus MHD","Soukenická","","204"
"15","Škola","Sdružená škola Majka","https://www.firmy.cz/detail/13085992-sdruzena-skola-majka-brno-stare-brno.html","78"
"16","Sportoviště","Tenisová škola TALLENT","https://www.firmy.cz/detail/13172751-tenisova-skola-tallent-brno-stare-brno.html","328"
"17","Obchod","Tržnice Brno","https://www.firmy.cz/detail/13106425-trznice-brno-brno-mesto.html","491"
"18","Restaurace","Samuel's","https://www.firmy.cz/detail/13261846-samuel-s-brno-stare-brno.html","25"
"19","Lékař","MUDr. Miluše Kakrdová","https://www.firmy.cz/detail/385749-mudr-miluse-kakrdova-brno-stare-brno.html","111"
