"","facility_type","facility_name","facility_iri","facility_distance"
"0","Cukrárna","Shothouse","https://www.firmy.cz/detail/13286217-shothouse-havirov-mesto.html","263"
"1","Hřiště","Dětské hřiště Mánesova","","51"
"2","Kino","Kino Centrum","https://www.firmy.cz/detail/12780436-kino-centrum-havirov-mesto.html","486"
"3","Večerka","HRUŠKA","https://www.firmy.cz/detail/12863532-hruska-havirov-mesto.html","238"
"4","Hospoda","Bagetérie Lexi","https://www.firmy.cz/detail/12954140-bageterie-lexi-havirov-mesto.html","216"
"5","Veterinář","Veterinární ordinace u Nemocnice","https://www.firmy.cz/detail/13319420-veterinarni-ordinace-u-nemocnice-havirov-mesto.html","378"
"6","Školka","MŠ Havířov, Resslova","https://www.firmy.cz/detail/407410-ms-havirov-resslova-havirov-mesto.html","206"
"7","Lékárna","Nemocniční lékárna","https://www.firmy.cz/detail/2653332-nemocnicni-lekarna-havirov-mesto.html","422"
"8","Bus MHD","Havířov, Město, střed","","251"
"9","Škola","Střední průmyslová škola elektrotechnická, Havířov","https://www.firmy.cz/detail/362589-stredni-prumyslova-skola-elektrotechnicka-havirov-havirov-mesto.html","106"
"10","Bankomat","Bankomat ČSOB","https://www.firmy.cz/detail/13252641-bankomat-csob-havirov-mesto.html","324"
"11","Vlak","Havířov-střed","","848"
"12","Restaurace","Adria pizza","https://www.firmy.cz/detail/13149403-adria-pizza-havirov-mesto.html","197"
"13","Obchod","Obchodní centrum Elan","https://www.firmy.cz/detail/2181587-obchodni-centrum-elan-havirov-mesto.html","425"
"14","Lékař","MUDr. Jana Staňurová","https://www.firmy.cz/detail/385634-mudr-jana-stanurova-havirov-mesto.html","391"
"15","Pošta","Pošta Havířov 1 - Česká pošta, s.p.","https://www.firmy.cz/detail/431627-posta-havirov-1-havirov-mesto.html","342"
"16","Sportoviště","Tenisové kurty Paulát","https://www.firmy.cz/detail/13095949-tenisove-kurty-paulat-havirov-mesto.html","77"
