"","facility_type","facility_name","facility_iri","facility_distance"
"0","Hřiště","Dětské hřiště E. F. Buriana","https://mapy.cz/zakladni?x=18.4364327152&y=49.7781842875&z=17&source=base&id=1929004","284"
"1","Večerka","HRUŠKA","https://www.firmy.cz/detail/12820546-hruska-havirov-mesto.html","156"
"2","Veterinář","Veterinární ordinace u Nemocnice","https://www.firmy.cz/detail/13319420-veterinarni-ordinace-u-nemocnice-havirov-mesto.html","750"
"3","Cukrárna","Shothouse","https://www.firmy.cz/detail/13286217-shothouse-havirov-mesto.html","454"
"4","Hospoda","Hospůdka u Lenina","https://www.firmy.cz/detail/13169583-hospudka-u-lenina-havirov-mesto.html","71"
"5","Kino","Kino Centrum","https://www.firmy.cz/detail/12780436-kino-centrum-havirov-mesto.html","622"
"6","Bus MHD","Havířov, Město, u fontány Jitřenka","https://mapy.cz/zakladni?x=18.441700983&y=49.7778869412&z=17&source=pubt&id=15295279","98"
"7","Škola","ZŠ Havířov, 1. máje","https://www.firmy.cz/detail/357049-zs-havirov-1-maje-havirov-mesto.html","162"
"8","Obchod","Obchodní centrum Elan","https://www.firmy.cz/detail/2181587-obchodni-centrum-elan-havirov-mesto.html","694"
"9","Bankomat","Bankomat Komerční banky","https://www.firmy.cz/detail/12973620-bankomat-komercni-banky-havirov-mesto.html","308"
"10","Pošta","Pošta Havířov 1 - Česká pošta, s.p.","https://www.firmy.cz/detail/431627-posta-havirov-1-havirov-mesto.html","592"
"11","Restaurace","Dr.Grill","https://www.firmy.cz/detail/13261031-dr-grill-havirov-mesto.html","86"
"12","Lékař","MUDr. Lucie Šebestová s.r.o.","https://www.firmy.cz/detail/12862656-mudr-lucie-sebestova-s-r-o-havirov-mesto.html","502"
"13","Školka","Mateřská škola, Havířov - KLUBÍČKO","https://www.firmy.cz/detail/1968054-materska-skola-havirov-klubicko-havirov-mesto.html","176"
"14","Vlak","Havířov-střed","https://mapy.cz/zakladni?x=18.439728302264&y=49.788244092890395&z=17&source=pubt&id=15711416","1165"
"15","Lékárna","Lékárna U Elišky","https://www.firmy.cz/detail/421095-lekarna-u-elisky-havirov-mesto.html","156"
"16","Sportoviště","Horolezecký oddíl Tatran Havířov","https://www.firmy.cz/detail/2325561-horolezecky-oddil-tatran-havirov-havirov-mesto.html","218"
