"","facility_type","facility_name","facility_iri","facility_distance"
"0","Cukrárna","Rebel's Coffee House","https://www.firmy.cz/detail/13123892-rebel-s-coffee-house-kladno.html","304"
"1","Kino","Kino Sokol Kladno","https://www.firmy.cz/detail/13179300-kino-sokol-kladno-kladno.html","1142"
"2","Přírodní zajímavost","Vodní park Čabárna","","5912"
"3","Hřiště","Dětské hřiště Nové Kladno","","454"
"4","Večerka","Penny Market","https://www.firmy.cz/detail/2413149-penny-market-kladno.html","105"
"5","Divadlo","Loutkové divadlo Lampion","https://www.firmy.cz/detail/733471-loutkove-divadlo-lampion-kladno.html","1603"
"6","Hospoda","Hospoda TJ Slovan","https://www.firmy.cz/detail/13111333-hospoda-tj-slovan-kladno-rozdelov.html","520"
"7","Veterinář","Veterinární klinika Kladno","https://www.firmy.cz/detail/171143-veterinarni-klinika-kladno-kladno.html","449"
"8","Školka","MŠ Kladno, Moskevská","https://www.firmy.cz/detail/731309-ms-kladno-moskevska-kladno.html","489"
"9","Bus MHD","Kladno, Tylova","","67"
"10","Obchod","Central Kladno","https://www.firmy.cz/detail/12966933-central-kladno-kladno.html","1562"
"11","Lékárna","Lékárna Jalta","https://www.firmy.cz/detail/375507-lekarna-jalta-kladno.html","564"
"12","Restaurace","Restaurace U Admirála","https://www.firmy.cz/detail/13145981-restaurace-u-admirala-kladno.html","126"
"13","Lékař","KK Bresson, s.r.o.","https://www.firmy.cz/detail/13015681-kk-bresson-kladno.html","531"
"14","Vlak","Kladno město","","208"
"15","Pošta","Pošta Kladno 4 - Česká pošta, s.p.","https://www.firmy.cz/detail/216833-posta-kladno-4-kladno.html","529"
"16","Bankomat","Bankomat ČSOB","https://www.firmy.cz/detail/597851-bankomat-csob-kladno.html","529"
"17","Škola","ZŠ Kladno, Moskevská","https://www.firmy.cz/detail/357649-zs-kladno-moskevska-kladno.html","418"
"18","Sportoviště","LTC Slovan Kladno - Tenisový klub","https://www.firmy.cz/detail/169399-ltc-slovan-kladno-tenisovy-klub-kladno-rozdelov.html","598"
