"","facility_type","facility_name","facility_iri","facility_distance"
"0","Cukrárna","Cukrárna Mocca","https://www.firmy.cz/detail/12947216-cukrarna-mocca-teplice.html","117"
"1","Kino","Multikino - Premiere Cinemas Teplice","https://www.firmy.cz/detail/12861055-multikino-premiere-cinemas-teplice-teplice.html","156"
"2","Přírodní zajímavost","Porcelanity u Strak","","2959"
"3","Hřiště","Dětské hřiště Zámecká zahrada","","616"
"4","Večerka","Lidl","https://www.firmy.cz/detail/13341158-lidl-teplice.html","137"
"5","Divadlo","Krušnohorské divadlo","https://www.firmy.cz/detail/435271-krusnohorske-divadlo-teplice.html","479"
"6","Hospoda","Hospůdka Vyšehrad Teplice","https://www.firmy.cz/detail/13121903-hospudka-vysehrad-teplice-teplice.html","663"
"7","Veterinář","MVDr. Věra Hánová","https://www.firmy.cz/detail/2030919-mvdr-vera-hanova-teplice.html","514"
"8","Bus MHD","Teplice, Alejní","","43"
"9","Školka","MŠ Čtyřlístek Teplice","https://www.firmy.cz/detail/770536-ms-ctyrlistek-teplice-teplice.html","188"
"10","Restaurace","Pizzeria da Salvatore","https://www.firmy.cz/detail/13114244-pizzeria-da-salvatore-teplice.html","167"
"11","Lékař","MUDr. Julie Rauchová","https://www.firmy.cz/detail/2453678-mudr-julie-rauchova-teplice.html","373"
"12","Lékárna","Dr.Max LÉKÁRNA","https://www.firmy.cz/detail/13280004-dr-max-lekarna-teplice.html","106"
"13","Obchod","Kaufland","https://www.firmy.cz/detail/13187779-kaufland-teplice.html","103"
"14","Pošta","Pošta Teplice 1 - Česká pošta, s.p.","https://www.firmy.cz/detail/215426-posta-teplice-1-teplice.html","299"
"15","Vlak","Teplice zámecká zahrada","","793"
"16","Sportoviště","Lanový park Teplice","https://www.firmy.cz/detail/13199196-lanovy-park-teplice-teplice.html","102"
"17","Bankomat","Bankomat MONETA Money Bank","https://www.firmy.cz/detail/13219782-bankomat-moneta-money-bank-teplice.html","134"
"18","Škola","Gymnázium Teplice","https://www.firmy.cz/detail/362446-gymnazium-teplice-teplice.html","151"
