"","facility_type","facility_name","facility_iri","facility_distance"
"0","Cukrárna","Cukrárna - kavárna U Zlaté konvice Kadaň","https://www.firmy.cz/detail/12815599-cukrarna-kavarna-u-zlate-konvice-kadan-kadan.html","1190"
"1","Kino","Kino Hvězda","https://www.firmy.cz/detail/2344098-kino-hvezda-kadan.html","517"
"2","Hřiště","Dětské hřiště u DDM Šuplík","","74"
"3","Večerka","Potraviny ESO","https://www.firmy.cz/detail/13090487-potraviny-eso-kadan.html","193"
"4","Hospoda","Pub Česká hospoda","https://www.firmy.cz/detail/2539992-pub-ceska-hospoda-kadan.html","226"
"5","Veterinář","MVDr. Michaela Čuprová","https://www.firmy.cz/detail/12935192-mvdr-michaela-cuprova-kadan.html","1108"
"6","Restaurace","Labyrint klub bowling","https://www.firmy.cz/detail/431862-labyrint-klub-bowling-kadan.html","193"
"7","Pošta","Pošta Kadaň 1 - Česká pošta, s.p.","https://www.firmy.cz/detail/215307-posta-kadan-1-kadan.html","527"
"8","Bankomat","Bankomat České spořitelny","https://www.firmy.cz/detail/12987532-bankomat-ceske-sporitelny-kadan.html","200"
"9","Lékař","MUDr. Eva Mayerová","https://www.firmy.cz/detail/12803075-mudr-eva-mayerova-kadan.html","367"
"10","Obchod","Kaufland","https://www.firmy.cz/detail/1452573-kaufland-kadan.html","754"
"11","Lékárna","Lékárna Gemini","https://www.firmy.cz/detail/2628441-lekarna-gemini-kadan.html","367"
"12","Sportoviště","Město Kadaň - Plážový volejbal","https://www.firmy.cz/detail/13084488-mesto-kadan-plazovy-volejbal-kadan.html","180"
"13","Škola","ZŠ Kadaň, Na Podlesí","https://www.firmy.cz/detail/357576-zs-kadan-na-podlesi-kadan.html","361"
"14","Bus MHD","Kadaň, Jana Roháče, Šuplík","","88"
"15","Školka","MŠ Barvička","https://www.firmy.cz/detail/1996039-ms-barvicka-kadan.html","283"
"16","Vlak","Kadaň","","951"
