"","facility_type","facility_name","facility_iri","facility_distance"
"0","Cukrárna","Cukrárna U Berušky","https://www.firmy.cz/detail/2625534-cukrarna-u-berusky-praha-ujezd-nad-lesy.html","2427"
"1","Hřiště","Dětské hřiště Nad Proutnicí","","301"
"2","Večerka","Albert Supermarket","https://www.firmy.cz/detail/652911-albert-supermarket-praha-ujezd-nad-lesy.html","1429"
"3","Hospoda","U Javůrků","https://www.firmy.cz/detail/13251023-u-javurku-kvetnice.html","348"
"4","Divadlo","Depresivní děti touží po penězích","https://www.firmy.cz/detail/1907707-depresivni-deti-touzi-po-penezich-praha-ujezd-nad-lesy.html","1303"
"5","Veterinář","Vetordinace - MVDr. Miloslav Hod","https://www.firmy.cz/detail/206533-vetordinace-praha-ujezd-nad-lesy.html","2465"
"6","Pošta","Pošta Sibřina - Česká pošta, s.p.","https://www.firmy.cz/detail/217404-posta-sibrina-sibrina.html","861"
"7","Sportoviště","Mgr. Jiří Vrňák","https://www.firmy.cz/detail/429193-mgr-jiri-vrnak-praha-ujezd-nad-lesy.html","1316"
"8","Bus MHD","Květnice, Za Mlýnem","","181"
"9","Škola","Základní škola a Mateřská škola Sibřina","https://www.firmy.cz/detail/13279541-zakladni-skola-a-materska-skola-sibrina-sibrina.html","1119"
"10","Školka","Mateřská škola Květnice","https://www.firmy.cz/detail/13276904-materska-skola-kvetnice-kvetnice.html","561"
"11","Restaurace","Restaurace Lávka","https://www.firmy.cz/detail/13105233-restaurace-lavka-kvetnice.html","277"
"12","Lékař","Všeobecná lékařka Újezd, s.r.o.","https://www.firmy.cz/detail/12777527-vseobecna-lekarka-ujezd-praha-ujezd-nad-lesy.html","1284"
"13","Vlak","Praha-Klánovice","","3305"
"14","Bankomat","Bankomat České spořitelny","https://www.firmy.cz/detail/595023-bankomat-ceske-sporitelny-praha-ujezd-nad-lesy.html","2283"
"15","Lékárna","Lékárna Rohožník, s.r.o.","https://www.firmy.cz/detail/376573-lekarna-rohoznik-praha-ujezd-nad-lesy.html","1284"
