"","facility_type","facility_name","facility_iri","facility_distance"
"0","Hřiště","Dětské hřiště Školská","https://mapy.cz/zakladni?x=18.55541404495949&y=49.84686128628161&z=17&source=base&id=2353321","178"
"1","Večerka","Potraviny TERNO","https://www.firmy.cz/detail/13135662-potraviny-terno-karvina-raj.html","301"
"2","Cukrárna","Slivkafé Karviná","https://www.firmy.cz/detail/12968138-slivkafe-karvina-karvina-mizerov.html","980"
"3","Veterinář","VET ANIMALS HELP, s.r.o.","https://www.firmy.cz/detail/1954789-vet-animals-help-karvina-raj.html","97"
"4","Kino","Filmový klub Karviná","https://www.firmy.cz/detail/664777-filmovy-klub-karvina-karvina-mizerov.html","980"
"5","Hospoda","Hospůdka Na Pokroku","https://www.firmy.cz/detail/13108960-hospudka-na-pokroku-karvina-raj.html","465"
"6","Lékař","MUDr. Dorota Lacinová","https://www.firmy.cz/detail/12777042-mudr-dorota-lacinova-karvina-raj.html","287"
"7","Školka","ZŠ a MŠ U Lesa, Karviná","https://www.firmy.cz/detail/12978132-zs-a-ms-u-lesa-karvina-karvina-raj.html","429"
"8","Obchod","Tesco","https://www.firmy.cz/detail/649019-tesco-karvina-raj.html","385"
"9","Vlak","Karviná hlavní nádraží","https://mapy.cz/zakladni?x=18.5267129183&y=49.8556585934&z=17&source=pubt&id=15211715","2406"
"10","Bus MHD","Karviná, Ráj, sídliště","https://mapy.cz/zakladni?x=18.5574917931752&y=49.8454188335276&z=17&source=pubt&id=15324955","222"
"11","Sportoviště","Oldřich Gavenda","https://www.firmy.cz/detail/2430870-oldrich-gavenda-karvina-raj.html","203"
"12","Restaurace","Restaurace ELEFANT B & K","https://www.firmy.cz/detail/13154600-restaurace-elefant-b-k-karvina-raj.html","414"
"13","Pošta","Pošta Karviná 9 - Česká pošta, s.p.","https://www.firmy.cz/detail/2378879-posta-karvina-9-karvina-raj.html","355"
"14","Bankomat","Bankomat České spořitelny","https://www.firmy.cz/detail/2290018-bankomat-ceske-sporitelny-karvina-raj.html","242"
"15","Lékárna","Lékárna KHN v Ráji","https://www.firmy.cz/detail/12729459-lekarna-khn-v-raji-karvina-raj.html","307"
"16","Škola","Základní škola a Mateřská škola Školská, Karviná, příspěvková organizace","https://www.firmy.cz/detail/357631-zakladni-skola-a-materska-skola-skolska-karvina-prispevkova-organizace-karvina-raj.html","65"
