"","facility_type","facility_name","facility_iri","facility_distance"
"0","Cukrárna","Café Garáž","https://www.firmy.cz/detail/13258883-cafe-garaz-beroun-mesto.html","882"
"1","Kino","Kino Beroun","https://www.firmy.cz/detail/396429-kino-beroun-beroun-mesto.html","1691"
"2","Hřiště","Dětské hřiště třída Míru","","265"
"3","Večerka","Penny Market","https://www.firmy.cz/detail/2413130-penny-market-beroun-mesto.html","286"
"4","Hospoda","Pivnice U Koček","https://www.firmy.cz/detail/13321596-pivnice-u-kocek-beroun-mesto.html","960"
"5","Veterinář","Veterinární ordinace MVDr. Petr Volf","https://www.firmy.cz/detail/746039-veterinarni-ordinace-mvdr-petr-volf-beroun-mesto.html","392"
"6","Bankomat","Bankomat České spořitelny","https://www.firmy.cz/detail/12838472-bankomat-ceske-sporitelny-beroun-mesto.html","286"
"7","Škola","Střední zdravotnická škola Beroun","https://www.firmy.cz/detail/361009-stredni-zdravotnicka-skola-beroun-beroun-mesto.html","115"
"8","Restaurace","Česká hospůdka Beroun","https://www.firmy.cz/detail/13123025-ceska-hospudka-beroun-beroun-mesto.html","86"
"9","Vlak","Králův Dvůr","","1518"
"10","Lékárna","Lékárna BETA","https://www.firmy.cz/detail/13209558-lekarna-beta-beroun-mesto.html","408"
"11","Bus MHD","Beroun, sídl.","","68"
"12","Lékař","Humilitas s.r.o. - MUDr. Klaudia Větrovská","https://www.firmy.cz/detail/2604785-humilitas-s-r-o-mudr-klaudia-vetrovska-beroun-mesto.html","574"
"13","Školka","Dětský domov a Mateřská škola speciální Beroun","https://www.firmy.cz/detail/700370-detsky-domov-a-materska-skola-specialni-beroun-beroun-mesto.html","115"
"14","Pošta","Pošta Beroun 4 - Česká pošta, s.p.","https://www.firmy.cz/detail/216872-posta-beroun-4-beroun-mesto.html","413"
"15","Obchod","Obchodní centrum Hvězda","https://www.firmy.cz/detail/13163476-obchodni-centrum-hvezda-beroun-mesto.html","308"
"16","Sportoviště","Sportonví areál Karla Čapka 1457","https://www.firmy.cz/detail/692373-sportonvi-areal-karla-capka-1457-beroun-mesto.html","352"
