"","facility_type","facility_name","facility_iri","facility_distance"
"0","Cukrárna","Milujeme Dorty","https://www.firmy.cz/detail/13261360-milujeme-dorty-dvur-kralove-nad-labem.html","449"
"1","Kino","Kino Svět","https://www.firmy.cz/detail/2585502-kino-svet-dvur-kralove-nad-labem.html","601"
"2","Hřiště","Dětské hřiště Nad Parkem","","148"
"3","Večerka","COOP Dvůr Králové nad Labem, družstvo","https://www.firmy.cz/detail/12983973-coop-dvur-kralove-nad-labem-dvur-kralove-nad-labem.html","267"
"4","Hospoda","Pivovarská pivnice Tambor","https://www.firmy.cz/detail/13154302-pivovarska-pivnice-tambor-dvur-kralove-nad-labem.html","1764"
"5","Divadlo","Hankův dům, městské kulturní zařízení","https://www.firmy.cz/detail/396827-hankuv-dum-mestske-kulturni-zarizeni-dvur-kralove-nad-labem.html","611"
"6","Veterinář","Veterinární ordinace - MVDr. Lukáš Pavlačík, Ph.D.","https://www.firmy.cz/detail/2601592-veterinarni-ordinace-mvdr-lukas-pavlacik-ph-d-dvur-kralove-nad-labem.html","226"
"7","Škola","ZŠ Schulzovy sady, Dvůr Králové nad Labem","https://www.firmy.cz/detail/396317-zs-schulzovy-sady-dvur-kralove-nad-labem-dvur-kralove-nad-labem.html","164"
"8","Vlak","Dvůr Králové nad Labem","","2705"
"9","Sportoviště","Letní stadion Dvůr Králové nad Labem","https://www.firmy.cz/detail/2631074-letni-stadion-dvur-kralove-nad-labem-dvur-kralove-nad-labem.html","732"
"10","Bus MHD","Dvůr Králové nad Labem, pošta","","220"
"11","Pošta","Pošta Dvůr Králové nad Labem - Česká pošta, s.p.","https://www.firmy.cz/detail/433260-posta-dvur-kralove-nad-labem-dvur-kralove-nad-labem.html","258"
"12","Školka","ZŠ a MŠ při dětské léčebně, Dvůr Králové nad Labem","https://www.firmy.cz/detail/2658943-zs-a-ms-pri-detske-lecebne-dvur-kralove-nad-labem-dvur-kralove-nad-labem.html","238"
"13","Lékař","Dětská ordinace Dvůr Králové s.r.o.","https://www.firmy.cz/detail/13283881-detska-ordinace-dvur-kralove-s-r-o-dvur-kralove-nad-labem.html","196"
"14","Obchod","Kaufland","https://www.firmy.cz/detail/2616619-kaufland-dvur-kralove-nad-labem.html","781"
"15","Lékárna","BENU Lékárna","https://www.firmy.cz/detail/12744491-benu-lekarna-dvur-kralove-nad-labem.html","480"
"16","Restaurace","Středověká krčma Starý Pivovar","https://www.firmy.cz/detail/2614465-stredoveka-krcma-stary-pivovar-dvur-kralove-nad-labem.html","362"
"17","Bankomat","Bankomat ČSOB","https://www.firmy.cz/detail/2577088-bankomat-csob-dvur-kralove-nad-labem.html","297"
