"","facility_type","facility_name","facility_iri","facility_distance"
"0","Hřiště","Dětské hřiště U Kaple","https://mapy.cz/zakladni?x=14.1868547239&y=50.7678603324&z=17&source=base&id=2119637","677"
"1","Večerka","JEDNOTA, spotřební družstvo v Rakovníku","https://www.firmy.cz/detail/2549655-jednota-spotrebni-druzstvo-v-rakovniku-decin-vi-letna.html","103"
"2","Cukrárna","Cukrárna ViDu","https://www.firmy.cz/detail/13322815-cukrarna-vidu-decin-vi-letna.html","413"
"3","Veterinář","MVDr. Martin Hanzlík","https://www.firmy.cz/detail/470883-mvdr-martin-hanzlik-decin-vii-chrochvice.html","859"
"4","Hospoda","Na Rychtě","https://www.firmy.cz/detail/13120586-na-rychte-decin-vi-letna.html","239"
"5","Divadlo","Městské divadlo Děčín","https://www.firmy.cz/detail/396943-mestske-divadlo-decin-decin-iv-podmokly.html","1607"
"6","Kino","Kino Sněžník","https://www.firmy.cz/detail/2483705-kino-sneznik-decin-iv-podmokly.html","1423"
"7","Vlak","Křešice u Děčína","https://mapy.cz/zakladni?x=14.2039921512&y=50.7568686711&z=17&source=pubt&id=15211860","1433"
"8","Lékař","MUDr. Hana Chvátalová","https://www.firmy.cz/detail/390772-mudr-hana-chvatalova-decin-vi-letna.html","520"
"9","Sportoviště","TJ Doprava Děčín","https://www.firmy.cz/detail/2651706-tj-doprava-decin-decin-vii-chrochvice.html","703"
"10","Lékárna","Lékárna Želenice","https://www.firmy.cz/detail/304250-lekarna-zelenice-decin-vi-letna.html","347"
"11","Pošta","Pošta Děčín 3 - Česká pošta, s.p.","https://www.firmy.cz/detail/215370-posta-decin-3-decin-vi-letna.html","337"
"12","Bus MHD","Děčín, Želenice","https://mapy.cz/zakladni?x=14.1869814063&y=50.7617298778&z=17&source=pubt&id=15330612","126"
"13","Školka","ZŠ a MŠ Děčín, Školní","https://www.firmy.cz/detail/1954991-zs-a-ms-decin-skolni-decin-vi-letna.html","84"
"14","Restaurace","Restaurace Nautilus","https://www.firmy.cz/detail/642815-restaurace-nautilus-decin-vi-letna.html","406"
"15","Škola","ZŠ a MŠ Děčín, Školní","https://www.firmy.cz/detail/356808-zs-a-ms-decin-skolni-decin-vi-letna.html","216"
"16","Obchod","Albert Hypermarket","https://www.firmy.cz/detail/447034-albert-hypermarket-decin-iv-podmokly.html","1248"
"17","Bankomat","Bankomat Komerční banky","https://www.firmy.cz/detail/13204442-bankomat-komercni-banky-decin-vi-letna.html","406"
