"","facility_type","facility_name","facility_iri","facility_distance"
"0","Cukrárna","Cukrářská výroba Jaroslava Koudelková","https://www.firmy.cz/detail/657586-cukrarska-vyroba-jaroslava-koudelkova-prostejov.html","872"
"1","Kino","Kino Metro 70","https://www.firmy.cz/detail/13118959-kino-metro-70-prostejov.html","1557"
"2","Hřiště","Dětské hřiště Belgická","","45"
"3","Večerka","Lidl","https://www.firmy.cz/detail/2635599-lidl-prostejov.html","195"
"4","Hospoda","Hostinec u Anděla","https://www.firmy.cz/detail/12896024-hostinec-u-andela-prostejov.html","510"
"5","Divadlo","Městské divadlo v Prostějově","https://www.firmy.cz/detail/396947-mestske-divadlo-v-prostejove-prostejov.html","1864"
"6","Veterinář","MVDr. Pavel Ratiborský","https://www.firmy.cz/detail/1945283-mvdr-pavel-ratiborsky-prostejov.html","599"
"7","Restaurace","Restaurace ŠNYT","https://www.firmy.cz/detail/12943594-restaurace-snyt-prostejov-krasice.html","278"
"8","Sportoviště","Bowling U tří králů","https://www.firmy.cz/detail/12806662-bowling-u-tri-kralu-prostejov.html","98"
"9","Bus MHD","Krasice, rozc.","","109"
"10","Pošta","Pošta Prostějov 4 - Česká pošta, s.p.","https://www.firmy.cz/detail/431295-posta-prostejov-4-prostejov.html","409"
"11","Bankomat","Bankomat České spořitelny","https://www.firmy.cz/detail/595027-bankomat-ceske-sporitelny-prostejov.html","256"
"12","Lékárna","Dr. Max","https://www.firmy.cz/detail/2525938-dr-max-prostejov.html","255"
"13","Škola","ZŠ a MŠ Jana Železného, Prostějov","https://www.firmy.cz/detail/359052-zs-a-ms-jana-zelezneho-prostejov-prostejov.html","525"
"14","Vlak","Prostějov místní nádraží","","1845"
"15","Školka","Cyrilometodějské gymnázium, základní škola a mateřská škola v Prostějově","https://www.firmy.cz/detail/2477595-cyrilometodejske-gymnazium-zakladni-skola-a-materska-skola-v-prostejove-prostejov.html","373"
"16","Obchod","Obchodní pasáž Anděl","https://www.firmy.cz/detail/12959270-obchodni-pasaz-andel-prostejov.html","273"
"17","Lékař","MUDr. Marcela Labounková, s.r.o.","https://www.firmy.cz/detail/13285652-mudr-marcela-labounkova-prostejov.html","109"
