"","facility_type","facility_name","facility_iri","facility_distance"
"0","Hřiště","Dětské hřiště Školní","https://mapy.cz/zakladni?x=14.050911432132125&y=49.98880394965951&z=17&source=base&id=2178164","288"
"1","Večerka","COOP","https://www.firmy.cz/detail/2123689-coop-hyskov.html","79"
"2","Cukrárna","Hudlísek cafe","https://www.firmy.cz/detail/12986954-hudlisek-cafe-beroun-zavodi.html","3026"
"3","Hospoda","Restaurace U Tygra","https://www.firmy.cz/detail/13120748-restaurace-u-tygra-beroun-mesto.html","2503"
"4","Veterinář","Veterinární ordinace MVDr. Petr Volf","https://www.firmy.cz/detail/746039-veterinarni-ordinace-mvdr-petr-volf-beroun-mesto.html","3255"
"5","Kino","Kino Beroun","https://www.firmy.cz/detail/396429-kino-beroun-beroun-mesto.html","3051"
"6","Školka","MŠ Ledňáček, Hýskov","https://www.firmy.cz/detail/2113075-ms-lednacek-hyskov-hyskov.html","171"
"7","Pošta","Pošta Hýskov - Česká pošta, s.p.","https://www.firmy.cz/detail/216865-posta-hyskov-hyskov.html","62"
"8","Restaurace","Restaurace u Bóny","https://www.firmy.cz/detail/13175691-restaurace-u-bony-hyskov.html","92"
"9","Škola","ZŠ Hýskov","https://www.firmy.cz/detail/357327-zs-hyskov-hyskov.html","323"
"10","Bus MHD","Hýskov, Prefa","https://mapy.cz/zakladni?x=14.04876866316613&y=49.98777593648656&z=17&source=pubt&id=15323212","97"
"11","Vlak","Hýskov","https://mapy.cz/zakladni?x=14.0447536924&y=49.9888462917&z=17&source=pubt&id=15211535","270"
"12","Lékárna","BENU Lékárna","https://www.firmy.cz/detail/421923-benu-lekarna-beroun-mesto.html","3027"
"13","Obchod","Květ Beroun, a.s.","https://www.firmy.cz/detail/12846052-kvet-beroun-beroun-centrum.html","3120"
"14","Bankomat","Bankomat České spořitelny","https://www.firmy.cz/detail/12987804-bankomat-ceske-sporitelny-beroun-mesto.html","2990"
"15","Lékař","Mediprax Beroun, s.r.o. - Ordinace Hýskov","https://www.firmy.cz/detail/13278031-mediprax-beroun-s-r-o-ordinace-hyskov-hyskov.html","62"
"16","Sportoviště","TJ Tennis club Hýskov","https://www.firmy.cz/detail/341862-tj-tennis-club-hyskov-hyskov.html","876"
