"","facility_type","facility_name","facility_iri","facility_distance"
"0","Cukrárna","Mléčný bar NAPROTI","https://www.firmy.cz/detail/2681012-mlecny-bar-naproti-ostrava-moravska-ostrava.html","1527"
"1","Kino","Minikino","https://www.firmy.cz/detail/669940-minikino-ostrava-moravska-ostrava.html","1548"
"2","Přírodní zajímavost","Uhelná sloj v Landeku","","3495"
"3","Hřiště","Dětské hřiště Keltičkova","","872"
"4","Večerka","Potraviny Nguyen","https://www.firmy.cz/detail/13333728-potraviny-nguyen-ostrava-muglinov.html","480"
"5","Hospoda","Hospoda V Korunce 108/14","https://www.firmy.cz/detail/13139601-hospoda-v-korunce-108-14-ostrava-hermanice.html","870"
"6","Divadlo","Komorní scéna Aréna","https://www.firmy.cz/detail/396926-komorni-scena-arena-ostrava-moravska-ostrava.html","1324"
"7","Veterinář","MVDr. Barbora Jelonková","https://www.firmy.cz/detail/1346648-mvdr-barbora-jelonkova-ostrava-muglinov.html","328"
"8","Lékárna","Lékárna Bazalka, s.r.o.","https://www.firmy.cz/detail/676547-lekarna-bazalka-ostrava-slezska-ostrava.html","345"
"9","Lékař","MUDr. Petra Šugarková","https://www.firmy.cz/detail/2221686-mudr-petra-sugarkova-ostrava-slezska-ostrava.html","84"
"10","Bankomat","Bankomat Komerční banky","https://www.firmy.cz/detail/12956874-bankomat-komercni-banky-ostrava.html","1000"
"11","Obchod","Obchodní centrum LASO","https://www.firmy.cz/detail/2071391-obchodni-centrum-laso-ostrava-moravska-ostrava.html","1520"
"12","Tram","Důl Jindřich","","1807"
"13","Pošta","Pošta Ostrava 12 - Česká pošta, s.p.","https://www.firmy.cz/detail/433413-posta-ostrava-12-ostrava-muglinov.html","516"
"14","Vlak","Ostrava-Stodolní","","2309"
"15","Restaurace","Lukáš Pazdyka","https://www.firmy.cz/detail/13109749-lukas-pazdyka-ostrava-slezska-ostrava.html","206"
"16","Sportoviště","Bowling Rubín","https://www.firmy.cz/detail/2457360-bowling-rubin-ostrava-slezska-ostrava.html","871"
"17","Bus MHD","Gymnázium","","46"
"18","Škola","Gymnázium Hladnov a Jazyková škola s právem státní jazykové zkoušky, Ostrava","https://www.firmy.cz/detail/361097-gymnazium-hladnov-a-jazykova-skola-s-pravem-statni-jazykove-zkousky-ostrava-ostrava-slezska-ostrava.html","132"
"19","Školka","MŠ Slezská Ostrava, Jaklovecká","https://www.firmy.cz/detail/12903079-ms-slezska-ostrava-jaklovecka-ostrava-slezska-ostrava.html","434"
