"","facility_type","facility_name","facility_iri","facility_distance"
"0","Cukrárna","Cukrárna U Čížků","https://www.firmy.cz/detail/13278821-cukrarna-u-cizku-jirkov.html","776"
"1","Kino","KINO JIRKOV, s.r.o.","https://www.firmy.cz/detail/12963927-kino-jirkov-jirkov.html","705"
"2","Hřiště","Dětské hřiště v areálu volného času Vinařice","","240"
"3","Večerka","Smíšené zboží K. Marxe	1691","https://www.firmy.cz/detail/13059926-smisene-zbozi-k-marxe-1691-jirkov.html","421"
"4","Hospoda","Hospůdka U Krtka","https://www.firmy.cz/detail/13115075-hospudka-u-krtka-jirkov.html","353"
"5","Divadlo","Městské divadlo Chomutov","https://www.firmy.cz/detail/2644644-mestske-divadlo-chomutov-chomutov.html","4461"
"6","Veterinář","MVDr. Magda Jašková","https://www.firmy.cz/detail/2131882-mvdr-magda-jaskova-jirkov.html","427"
"7","Restaurace","Restaurace HBC Kapitán","https://www.firmy.cz/detail/12810963-restaurace-hbc-kapitan-jirkov.html","276"
"8","Škola","ZŠ Jirkov, Studentská","https://www.firmy.cz/detail/398909-zs-jirkov-studentska-jirkov.html","103"
"9","Vlak","Jirkov","","1293"
"10","Bus MHD","Jirkov, Horník","","53"
"11","Obchod","Tesco","https://www.firmy.cz/detail/455678-tesco-jirkov.html","575"
"12","Pošta","Pošta Jirkov 3 - Česká pošta, s.p.","https://www.firmy.cz/detail/215282-posta-jirkov-3-jirkov.html","107"
"13","Lékař","MUDr. Eva Vytasilová","https://www.firmy.cz/detail/386090-mudr-eva-vytasilova-jirkov.html","598"
"14","Bankomat","Bankomat ČSOB","https://www.firmy.cz/detail/12965640-bankomat-csob-jirkov.html","352"
"15","Školka","MŠ Čtyřlístek","https://www.firmy.cz/detail/2405273-ms-ctyrlistek-jirkov.html","238"
"16","Lékárna","Lékárna U Zlaté koruny","https://www.firmy.cz/detail/13210788-lekarna-u-zlate-koruny-jirkov.html","598"
"17","Sportoviště","Tenisový klub Jirkov","https://www.firmy.cz/detail/2264328-tenisovy-klub-jirkov-jirkov.html","788"
