"","facility_type","facility_name","facility_iri","facility_distance"
"0","Cukrárna","Cukrárna Vendula","https://www.firmy.cz/detail/12904042-cukrarna-vendula-holesov.html","131"
"1","Kino","Kino Svět","https://www.firmy.cz/detail/396469-kino-svet-holesov.html","228"
"2","Hřiště","Dětské hřiště Tyršova","","612"
"3","Večerka","Adam potraviny","https://www.firmy.cz/detail/12956482-adam-potraviny-holesov.html","107"
"4","Hospoda","Bowling club","https://www.firmy.cz/detail/13123631-bowling-club-holesov.html","290"
"5","Veterinář","VetPol Holešov - Veterinární ordinace Poláškovi","https://www.firmy.cz/detail/12866979-vetpol-holesov-veterinarni-ordinace-polaskovi-holesov.html","153"
"6","Sportoviště","Bowling Club Holešov","https://www.firmy.cz/detail/13157342-bowling-club-holesov-holesov.html","290"
"7","Restaurace","Restaurace U Černé Kaple","https://www.firmy.cz/detail/13133633-restaurace-u-cerne-kaple-holesov.html","221"
"8","Vlak","Holešov","","879"
"9","Lékař","EUC Klinika Zlín a.s., PL pro dospělé","https://www.firmy.cz/detail/13275715-euc-klinika-zlin-a-s-pl-pro-dospele-holesov.html","162"
"10","Pošta","Pošta Holešov - Česká pošta, s.p.","https://www.firmy.cz/detail/431918-posta-holesov-holesov.html","413"
"11","Lékárna","Lékárna Pod Věží, s.r.o.","https://www.firmy.cz/detail/375129-lekarna-pod-vezi-holesov.html","168"
"12","Školka","MŠ Holešov, Masarykova","https://www.firmy.cz/detail/2537427-ms-holesov-masarykova-holesov.html","405"
"13","Škola","1. ZŠ Holešov","https://www.firmy.cz/detail/357137-1-zs-holesov-holesov.html","314"
"14","Bus MHD","Holešov, nám.","","149"
"15","Bankomat","Bankomat Komerční banky","https://www.firmy.cz/detail/597641-bankomat-komercni-banky-holesov.html","68"
"16","Obchod","Obchodní centrum IRIS","https://www.firmy.cz/detail/13202512-obchodni-centrum-iris-holesov.html","885"
