"","facility_type","facility_name","facility_iri","facility_distance"
"0","Cukrárna","Café Coffee Day","https://www.firmy.cz/detail/650529-cafe-coffee-day-praha-smichov.html","800"
"1","Kino","CineStar Anděl","https://www.firmy.cz/detail/2537565-cinestar-andel-praha-smichov.html","779"
"2","Přírodní zajímavost","Kovářovic mez","","3847"
"3","Hřiště","Dětské hřiště Holečkova","","27"
"4","Večerka","Tuyen Le Thi - OVOCE ZELENINA","https://www.firmy.cz/detail/2464821-tuyen-le-thi-ovoce-zelenina-praha-kosire.html","182"
"5","Divadlo","Divadlo Orfeus","https://www.firmy.cz/detail/413053-divadlo-orfeus-praha-kosire.html","165"
"6","Hospoda","Hospůdka Knoflík","https://www.firmy.cz/detail/2253647-hospudka-knoflik-praha-smichov.html","1024"
"7","Veterinář","MVDr. Jana Lukešová","https://www.firmy.cz/detail/473617-mvdr-jana-lukesova-praha-smichov.html","846"
"8","Lékař","SPOLEČNOST PRO PRACOVNÍ MEDICÍNU s.r.o.","https://www.firmy.cz/detail/2035086-spolecnost-pro-pracovni-medicinu-s-r-o-praha-smichov.html","384"
"9","Lékárna","Na Cihlářce","https://www.firmy.cz/detail/375354-na-cihlarce-praha-smichov.html","614"
"10","Bus MHD","Hřebenka","","253"
"11","Škola","ZŠ a MŠ Praha 5, Grafická","https://www.firmy.cz/detail/356194-zs-a-ms-praha-5-graficka-praha-smichov.html","294"
"12","Metro","Anděl","","969"
"13","Bankomat","Bankomat České spořitelny","https://www.firmy.cz/detail/594929-bankomat-ceske-sporitelny-praha-brevnov.html","777"
"14","Obchod","Tesco","https://www.firmy.cz/detail/733908-tesco-praha-smichov.html","794"
"15","Tram","Bertramka","","135"
"16","Sportoviště","MaxLasergame, s.r.o.","https://www.firmy.cz/detail/12740237-maxlasergame-praha-smichov.html","109"
"17","Školka","ZŠ a MŠ Praha 5, Grafická","https://www.firmy.cz/detail/2416925-zs-a-ms-praha-5-graficka-praha-smichov.html","79"
"18","Pošta","Pošta Praha 53 - Česká pošta, s.p.","https://www.firmy.cz/detail/431282-posta-praha-53-praha-smichov.html","777"
"19","Restaurace","Restaurace Pod Černým vrchem","https://www.firmy.cz/detail/333475-restaurace-pod-cernym-vrchem-praha-kosire.html","185"
"20","Vlak","Praha-Smíchov severní nást.","","1516"
