"","facility_type","facility_name","facility_iri","facility_distance"
"0","Hřiště","Dětské hřiště park Malého prince","https://mapy.cz/zakladni?x=17.2285054442&y=49.5913217081&z=17&source=base&id=2226386","246"
"1","Večerka","Lidl","https://www.firmy.cz/detail/13295151-lidl-olomouc-nova-ulice.html","372"
"2","Hospoda","Jadrošova krčma","https://www.firmy.cz/detail/13189157-jadrosova-krcma-olomouc-neredin.html","335"
"3","Kino","CineStar Olomouc","https://www.firmy.cz/detail/661181-cinestar-olomouc-olomouc-repcin.html","1371"
"4","Veterinář","Veterinární klinika MVDr. Michael Mazoch, s.r.o.","https://www.firmy.cz/detail/12906915-veterinarni-klinika-mvdr-michael-mazoch-s-r-o-olomouc-neredin.html","747"
"5","Cukrárna","Cukrárna - kavárna Pusinka","https://www.firmy.cz/detail/2233751-cukrarna-kavarna-pusinka-olomouc.html","459"
"6","Divadlo","Divadlo Tramtarie","https://www.firmy.cz/detail/594401-divadlo-tramtarie-olomouc-nova-ulice.html","1658"
"7","Bus MHD","Jílová","https://mapy.cz/zakladni?x=17.232019792420058&y=49.59063294259216&z=17&source=pubt&id=15203187","496"
"8","Pošta","Pošta Olomouc 10 - Česká pošta, s.p.","https://www.firmy.cz/detail/215756-posta-olomouc-10-olomouc-nova-ulice.html","678"
"9","Restaurace","Kateřina Macková","https://www.firmy.cz/detail/13113369-katerina-mackova-olomouc-neredin.html","376"
"10","Lékárna","Mgr. Pavel Kalman","https://www.firmy.cz/detail/308543-mgr-pavel-kalman-olomouc-nova-ulice.html","556"
"11","Tram","Hřbitovy","https://mapy.cz/zakladni?x=17.2236970723&y=49.5959747713&z=17&source=pubt&id=15203084","573"
"12","Bankomat","Bankomat České spořitelny","https://www.firmy.cz/detail/593746-bankomat-ceske-sporitelny-olomouc-nova-ulice.html","372"
"13","Lékař","MUDr. Otakar Svitavský","https://www.firmy.cz/detail/386490-mudr-otakar-svitavsky-olomouc-nova-ulice.html","570"
"14","Školka","MŠ Olomouc, Jílová","https://www.firmy.cz/detail/2152831-ms-olomouc-jilova-olomouc-neredin.html","348"
"15","Vlak","Olomouc město","https://mapy.cz/zakladni?x=17.241190942&y=49.5941205238&z=17&source=pubt&id=15212337","1210"
"16","Sportoviště","TJ Dukla Olomouc","https://www.firmy.cz/detail/1342119-tj-dukla-olomouc-olomouc-neredin.html","649"
"17","Obchod","OD TIMPO, s.r.o.","https://www.firmy.cz/detail/642623-od-timpo-olomouc-nova-ulice.html","372"
"18","Škola","Základní umělecká škola Iši Krejčího Olomouc, odloučené pracoviště Jílová 43A","https://www.firmy.cz/detail/12834249-zakladni-umelecka-skola-isi-krejciho-olomouc-odloucene-pracoviste-jilova-43a-olomouc-nova-ulice.html","425"
