"","facility_type","facility_name","facility_iri","facility_distance"
"0","Hřiště","Dětské hřiště Cyrila Boudy","https://mapy.cz/zakladni?x=14.0726134056&y=50.2293836564&z=17&source=base&id=1927312","294"
"1","Večerka","BILLA","https://www.firmy.cz/detail/450465-billa-slany.html","356"
"2","Hospoda","Na Růžku","https://www.firmy.cz/detail/13122221-na-ruzku-slany.html","924"
"3","Kino","Městské kino Slaný","https://www.firmy.cz/detail/2607315-mestske-kino-slany-slany.html","1169"
"4","Cukrárna","Cukrárna Na Londě","https://www.firmy.cz/detail/13145679-cukrarna-na-londe-slany.html","1034"
"5","Veterinář","MVDr. Ivan Soukup","https://www.firmy.cz/detail/12904079-mvdr-ivan-soukup-slany.html","509"
"6","Divadlo","Městské divadlo Slaný","https://www.firmy.cz/detail/653930-mestske-divadlo-slany-slany.html","784"
"7","Bus MHD","Slaný, Mírová","https://mapy.cz/zakladni?x=14.0719281056458&y=50.2268938415849&z=17&source=pubt&id=15333806","58"
"8","Pošta","Pošta Slaný 3 - Česká pošta, s.p.","https://www.firmy.cz/detail/217285-posta-slany-3-slany.html","426"
"9","Školka","MŠ Slaný, Cyrila Boudy","https://www.firmy.cz/detail/2096849-ms-slany-cyrila-boudy-slany.html","256"
"10","Bankomat","Bankomat MONETA Money Bank","https://www.firmy.cz/detail/12779872-bankomat-moneta-money-bank-slany.html","716"
"11","Restaurace","Restaurace Zimák","https://www.firmy.cz/detail/2629445-restaurace-zimak-slany.html","290"
"12","Vlak","Slaný","https://mapy.cz/zakladni?x=14.0757385745&y=50.2285865135&z=17&source=pubt&id=15212826","298"
"13","Sportoviště","VSH Slaný (Víceúčelová sportovní hala Slaný, spol. s r.o.)","https://www.firmy.cz/detail/269490-vsh-slany-viceucelova-sportovni-hala-slany-spol-s-r-o-slany.html","290"
"14","Škola","ZŠ Slaný, Rabasova","https://www.firmy.cz/detail/359357-zs-slany-rabasova-slany.html","152"
"15","Lékař","MUDr. Blanka Kučerová","https://www.firmy.cz/detail/197416-mudr-blanka-kucerova-slany.html","315"
"16","Lékárna","BENU Lékárna","https://www.firmy.cz/detail/13302670-benu-lekarna-slany.html","751"
"17","Obchod","Kaufland","https://www.firmy.cz/detail/1357218-kaufland-slany.html","1152"
