"","facility_type","facility_name","facility_iri","facility_distance"
"0","Cukrárna","JEDNO KAFE s.r.o., s.r.o.","https://www.firmy.cz/detail/13144478-jedno-kafe-s-r-o-praha-hloubetin.html","628"
"1","Přírodní zajímavost","Meandry Rokytky","","1526"
"2","Hřiště","Dětské hřiště Klánovická","","54"
"3","Kino","CineStar Černý Most","https://www.firmy.cz/detail/2537569-cinestar-cerny-most-praha-cerny-most.html","3505"
"4","Večerka","Penny Market","https://www.firmy.cz/detail/207736-penny-market-praha-hloubetin.html","225"
"5","Hospoda","Hospoda Šuplík","https://www.firmy.cz/detail/13121991-hospoda-suplik-praha-kyje.html","1453"
"6","Divadlo","Divadlo Gong","https://www.firmy.cz/detail/230751-divadlo-gong-praha-liben.html","3468"
"7","Veterinář","Veterinární klinika Poděbradská","https://www.firmy.cz/detail/166978-veterinarni-klinika-podebradska-praha-hloubetin.html","751"
"8","Lékárna","Ekolékárna Hloubětín","https://www.firmy.cz/detail/12928164-ekolekarna-hloubetin-praha-hloubetin.html","201"
"9","Škola","MŠ speciální, ZŠ praktická a speciální Praha 9, Svépravická","https://www.firmy.cz/detail/2341423-ms-specialni-zs-prakticka-a-specialni-praha-9-svepravicka-praha-hloubetin.html","106"
"10","Bankomat","Bankomat České spořitelny","https://www.firmy.cz/detail/12837487-bankomat-ceske-sporitelny-praha-hloubetin.html","201"
"11","Lékař","MUDr. Miroslava Záhorová","https://www.firmy.cz/detail/387333-mudr-miroslava-zahorova-praha-hloubetin.html","79"
"12","Bus MHD","Bazén Hloubětín","","119"
"13","Restaurace","Hostinec V Chaloupkách","https://www.firmy.cz/detail/324938-hostinec-v-chaloupkach-praha-hloubetin.html","223"
"14","Tram","Hloubětín","","285"
"15","Obchod","Kaufland","https://www.firmy.cz/detail/13180341-kaufland-praha-hloubetin.html","848"
"16","Školka","MŠ Praha 9, Šestajovická","https://www.firmy.cz/detail/2265887-ms-praha-9-sestajovicka-praha-hloubetin.html","51"
"17","Vlak","Praha-Kyje","","813"
"18","Sportoviště","Jiří Janoušek","https://www.firmy.cz/detail/464301-jiri-janousek-praha-hloubetin.html","163"
"19","Pošta","Pošta Praha 94 - Česká pošta, s.p.","https://www.firmy.cz/detail/431410-posta-praha-94-praha-hloubetin.html","227"
"20","Metro","Hloubětín","","284"
