"","facility_type","facility_name","facility_iri","facility_distance"
"0","Cukrárna","Obecní cukrárna Neslovice","https://www.firmy.cz/detail/13180139-obecni-cukrarna-neslovice-neslovice.html","851"
"1","Kino","Kino Réna","https://www.firmy.cz/detail/451590-kino-rena-ivancice.html","3917"
"2","Přírodní zajímavost","Stromokruh Evropy","","4351"
"3","Hřiště","Dětské hřiště Neslovice","","695"
"4","Večerka","Potraviny ENAPO","https://www.firmy.cz/detail/12889583-potraviny-enapo-neslovice.html","851"
"5","Hospoda","Petra Procházková","https://www.firmy.cz/detail/13150616-petra-prochazkova-oslavany-padochov.html","2803"
"6","Veterinář","Veterinární klinika MVDr.Marek Šupica","https://www.firmy.cz/detail/1318215-veterinarni-klinika-mvdr-marek-supica-ivancice.html","3846"
"7","Pošta","Pošta Neslovice - Česká pošta, s.p.","https://www.firmy.cz/detail/216129-posta-neslovice-neslovice.html","658"
"8","Vlak","Ivančice město","","4071"
"9","Škola","ZŠ a MŠ Neslovice","https://www.firmy.cz/detail/358412-zs-a-ms-neslovice-neslovice.html","1063"
"10","Restaurace","Restaurace Dobrá chvíle","https://www.firmy.cz/detail/2592512-restaurace-dobra-chvile-neslovice.html","614"
"11","Sportoviště","Lanové centrum Neslovice","","621"
"12","Lékař","MUDr. Josef Fiala","https://www.firmy.cz/detail/387538-mudr-josef-fiala-ivancice.html","3732"
"13","Školka","MŠ Neslovice, Hlavní","https://www.firmy.cz/detail/12880800-ms-neslovice-hlavni-neslovice.html","760"
"14","Lékárna","Lékárna M.K.P. service","https://www.firmy.cz/detail/421661-lekarna-m-k-p-service-ivancice.html","3834"
"15","Obchod","Tesco","https://www.firmy.cz/detail/12750609-tesco-ivancice.html","3996"
"16","Bus MHD","Neslovice","","788"
"17","Bankomat","Bankomat ČSOB","https://www.firmy.cz/detail/599334-bankomat-csob-ivancice.html","3728"
