"","facility_type","facility_name","facility_iri","facility_distance"
"0","Cukrárna","Jazz café","https://www.firmy.cz/detail/12971229-jazz-cafe-liberec-xxiii-doubi.html","1859"
"1","Kino","CineStar Liberec","https://www.firmy.cz/detail/2423444-cinestar-liberec-liberec-xxiii-doubi.html","1971"
"2","Přírodní zajímavost","Opičák","","3986"
"3","Hřiště","Dětské hřiště Pastelová","","83"
"4","Večerka","Albert Supermarket","https://www.firmy.cz/detail/446948-albert-supermarket-liberec-vi-rochlice-liberec-vi.html","91"
"5","Hospoda","Hospoda Tenisové kurty","https://www.firmy.cz/detail/13120734-hospoda-tenisove-kurty-liberec-vi-rochlice.html","579"
"6","Divadlo","Spojáček","https://www.firmy.cz/detail/2112674-spojacek-liberec-xxv-vesec.html","1998"
"7","Veterinář","Kolafa, s.r.o.","https://www.firmy.cz/detail/13222281-kolafa-liberec.html","244"
"8","Bankomat","Bankomat MONETA Money Bank","https://www.firmy.cz/detail/2259642-bankomat-moneta-money-bank-liberec-vi-rochlice.html","74"
"9","Obchod","Kaufland","https://www.firmy.cz/detail/2198571-kaufland-liberec-vii-horni-ruzodol.html","1133"
"10","Bus MHD","Krejčího","","129"
"11","Lékárna","Lékárna Sano","https://www.firmy.cz/detail/12861497-lekarna-sano-liberec-vi-rochlice.html","102"
"12","Vlak","Liberec-Rochlice","","876"
"13","Pošta","Pošta Liberec 6 - Česká pošta, s.p.","https://www.firmy.cz/detail/215742-posta-liberec-6-liberec-vi-rochlice.html","82"
"14","Sportoviště","TENIS ROCHLICE s.r.o.","https://www.firmy.cz/detail/675039-tenis-rochlice-s-r-o-liberec-vi-rochlice.html","579"
"15","Tram","Sídliště Nové Vratislavice","","528"
"16","Lékař","Rochlimed s.r.o.","https://www.firmy.cz/detail/13283201-rochlimed-s-r-o-liberec-vi-rochlice.html","706"
"17","Restaurace","Chateau de Gusto","https://www.firmy.cz/detail/13318677-chateau-de-gusto-liberec-vi-rochlice.html","250"
"18","Škola","ZŠ Liberec Dobiášova","https://www.firmy.cz/detail/357986-zs-liberec-dobiasova-liberec-vi-rochlice.html","471"
"19","Školka","MŠ Kytička Liberec","https://www.firmy.cz/detail/1458695-ms-kyticka-liberec-liberec-vi-rochlice.html","602"
