"","facility_type","facility_name","facility_iri","facility_distance"
"0","Hřiště","Dětské hřiště Kollárova","https://mapy.cz/zakladni?x=17.3870638986&y=48.947630853&z=17&source=base&id=2103044","80"
"1","Hospoda","Hospoda u nádraží","https://www.firmy.cz/detail/13138639-hospoda-u-nadrazi-veseli-nad-moravou.html","309"
"2","Večerka","Potraviny Kollárova","https://www.firmy.cz/detail/13289012-potraviny-kollarova-veseli-nad-moravou.html","75"
"3","Cukrárna","Cukrárna Gusto","https://www.firmy.cz/detail/12968626-cukrarna-gusto-veseli-nad-moravou.html","323"
"4","Veterinář","MVDr. Dušan Dvořáček, výkon odborné veterinární činnosti","https://www.firmy.cz/detail/277328-mvdr-dusan-dvoracek-vykon-odborne-veterinarni-cinnosti-veseli-nad-moravou.html","898"
"5","Kino","Veselské kulturní centrum","https://www.firmy.cz/detail/12915237-veselske-kulturni-centrum-veseli-nad-moravou.html","391"
"6","Lékárna","Lékárna Na Poliklinice","https://www.firmy.cz/detail/2427529-lekarna-na-poliklinice-veseli-nad-moravou.html","248"
"7","Bus MHD","Veselí nad Moravou, Purkyňova","https://mapy.cz/zakladni?x=17.3867044515041&y=48.949818682139&z=17&source=pubt&id=15223718","177"
"8","Pošta","Pošta Veselí nad Moravou - Česká pošta, s.p.","https://www.firmy.cz/detail/433430-posta-veseli-nad-moravou-veseli-nad-moravou.html","490"
"9","Školka","MŠ Veselí nad Moravou, Kollárova","https://www.firmy.cz/detail/2625981-ms-veseli-nad-moravou-kollarova-veseli-nad-moravou.html","117"
"10","Škola","Základní škola a praktická škola Veselí nad Moravou, příspěvková organizace","https://www.firmy.cz/detail/2610185-zakladni-skola-a-prakticka-skola-veseli-nad-moravou-prispevkova-organizace-veseli-nad-moravou.html","53"
"11","Lékař","MUDr. Eva Bezděková","https://www.firmy.cz/detail/387402-mudr-eva-bezdekova-veseli-nad-moravou.html","117"
"12","Bankomat","Bankomat Komerční banky","https://www.firmy.cz/detail/2685913-bankomat-komercni-banky-veseli-nad-moravou.html","334"
"13","Sportoviště","Bowlinghall","https://www.firmy.cz/detail/2420372-bowlinghall-veseli-nad-moravou.html","493"
"14","Restaurace","Herna Club Atlantida","https://www.firmy.cz/detail/12975790-herna-club-atlantida-veseli-nad-moravou.html","310"
"15","Obchod","Kaufland","https://www.firmy.cz/detail/12700896-kaufland-veseli-nad-moravou.html","325"
"16","Vlak","Veselí nad Moravou","https://mapy.cz/zakladni?x=17.38262312891234&y=48.94884598684118&z=17&source=pubt&id=15213223","288"
