"","facility_type","facility_name","facility_iri","facility_distance"
"0","Cukrárna","Choco Café","https://www.firmy.cz/detail/2288649-choco-cafe-praha-stare-mesto.html","258"
"1","Kino","Kino Ponrepo","https://www.firmy.cz/detail/396455-kino-ponrepo-praha-stare-mesto.html","245"
"2","Přírodní zajímavost","Kovářovic mez","","5746"
"3","Hřiště","Dětské hřiště most Legií","","300"
"4","Večerka","MANNI MINI MARKET","https://www.firmy.cz/detail/2609033-manni-mini-market-praha-nove-mesto.html","624"
"5","Hospoda","Prague Beer Museum","https://www.firmy.cz/detail/12720695-prague-beer-museum-praha-stare-mesto.html","245"
"6","Divadlo","Divadlo U Valšů","https://www.firmy.cz/detail/657747-divadlo-u-valsu-praha-stare-mesto.html","99"
"7","Veterinář","MVDr. Katka Sviták Novozámská","https://www.firmy.cz/detail/2137713-mvdr-katka-svitak-novozamska-praha-stare-mesto.html","300"
"8","Tram","Národní divadlo","","81"
"9","Sportoviště","Tenisová škola TALLENT","https://www.firmy.cz/detail/722748-tenisova-skola-tallent-praha-nove-mesto.html","274"
"10","Pošta","Pošta Praha 01 - Česká pošta, s.p.","https://www.firmy.cz/detail/217506-posta-praha-01-praha-stare-mesto.html","640"
"11","Škola","SPSŠ Betlémská - Střední průmyslová škola strojnická Praha","https://www.firmy.cz/detail/362768-spss-betlemska-stredni-prumyslova-skola-strojnicka-praha-praha-stare-mesto.html","102"
"12","Restaurace","Restaurace Století","https://www.firmy.cz/detail/335002-restaurace-stoleti-praha-stare-mesto.html","34"
"13","Školka","MŠ sv. Voršily v Praze","https://www.firmy.cz/detail/406704-ms-sv-vorsily-v-praze-praha-nove-mesto.html","268"
"14","Lékař","doc. MUDr. Josef Dolenský, CSc.","https://www.firmy.cz/detail/1971145-doc-mudr-josef-dolensky-csc-praha-stare-mesto.html","166"
"15","Obchod","palác metro","https://www.firmy.cz/detail/143339-palac-metro-praha-stare-mesto.html","292"
"16","Vlak","Praha Masarykovo nádraží","","1536"
"17","Lékárna","BENU Lékárna","https://www.firmy.cz/detail/12864634-benu-lekarna-praha-stare-mesto.html","181"
"18","Bus MHD","Mariánské náměstí","","552"
"19","Metro","Národní třída","","437"
"20","Bankomat","Raiffeisenbank - bankomat","https://www.firmy.cz/detail/631173-raiffeisenbank-bankomat-praha-stare-mesto.html","152"
