"","facility_type","facility_name","facility_iri","facility_distance"
"0","Cukrárna","Cafe bar na Andělce","https://www.firmy.cz/detail/12848581-cafe-bar-na-andelce-praha-stresovice.html","1374"
"1","Kino","Kino Dlabačov","https://www.firmy.cz/detail/13024517-kino-dlabacov-praha-brevnov.html","1957"
"2","Hřiště","Dětské hřiště Nigerijská","","178"
"3","Večerka","BILLA","https://www.firmy.cz/detail/212089-billa-praha-vokovice.html","299"
"4","Divadlo","Divadlo Tineola","https://www.firmy.cz/detail/401473-divadlo-tineola-praha-vokovice.html","1342"
"5","Hospoda","Hospoda Stará Ořechovka","https://www.firmy.cz/detail/12997296-hospoda-stara-orechovka-praha-stresovice.html","1366"
"6","Veterinář","MVDr. Anatólii Bank","https://www.firmy.cz/detail/1994107-mvdr-anatolii-bank-praha-dejvice.html","515"
"7","Školka","Mateřská škola Motýlek, příspěvková organizace","https://www.firmy.cz/detail/406928-materska-skola-motylek-prispevkova-organizace-praha-vokovice.html","59"
"8","Vlak","Praha-Veleslavín","","1239"
"9","Sportoviště","Badmintonový klub Praha","https://www.firmy.cz/detail/13075368-badmintonovy-klub-praha-praha-vokovice.html","453"
"10","Lékař","MUDr. Zdenka Šmejkalová","https://www.firmy.cz/detail/381443-mudr-zdenka-smejkalova-praha-vokovice.html","354"
"11","Bus MHD","Bořislavka","","105"
"12","Lékárna","BENU Lékárna","https://www.firmy.cz/detail/12848171-benu-lekarna-praha-vokovice.html","296"
"13","Tram","Bořislavka","","105"
"14","Restaurace","Pizza Bořislavka","https://www.firmy.cz/detail/13036226-pizza-borislavka-praha.html","170"
"15","Pošta","Pošta Praha 65 - Česká pošta, s.p.","https://www.firmy.cz/detail/216702-posta-praha-65-praha-vokovice.html","257"
"16","Metro","Bořislavka","","72"
"17","Bankomat","Raiffeisenbank - bankomat","https://www.firmy.cz/detail/1348980-raiffeisenbank-bankomat-praha-vokovice.html","164"
"18","Škola","Gymnázium Praha 6, Arabská","https://www.firmy.cz/detail/362410-gymnazium-praha-6-arabska-praha-vokovice.html","191"
"19","Obchod","Kaufland","https://www.firmy.cz/detail/12720219-kaufland-praha-dejvice.html","2583"
