"","facility_type","facility_name","facility_iri","facility_distance"
"0","Cukrárna","Cukrárna Simona","https://www.firmy.cz/detail/13269986-cukrarna-simona-praha-modrany.html","593"
"1","Kino","Modřanský biograf","https://www.firmy.cz/detail/13272765-modransky-biograf-praha-modrany.html","1313"
"2","Přírodní zajímavost","Kovářovic mez","","5368"
"3","Hřiště","Dětské hřiště Mádrova","","140"
"4","Večerka","BILLA","https://www.firmy.cz/detail/212070-billa-praha-modrany.html","297"
"5","Divadlo","Divadlo Na Cikorce","https://www.firmy.cz/detail/2387865-divadlo-na-cikorce-praha-modrany.html","282"
"6","Hospoda","Pivnice Modřany","https://www.firmy.cz/detail/12993019-pivnice-modrany-praha-modrany.html","339"
"7","Veterinář","Náš veterinář - MVDr. Nikola Hanáková","https://www.firmy.cz/detail/13011207-nas-veterinar-mvdr-nikola-hanakova-praha-modrany.html","730"
"8","Bankomat","Bankomat Air Bank","https://www.firmy.cz/detail/13306697-bankomat-air-bank-praha-modrany.html","223"
"9","Lékárna","Dr. Max","https://www.firmy.cz/detail/12804620-dr-max-praha-modrany.html","242"
"10","Bus MHD","Družná","","32"
"11","Tram","Poliklinika Modřany","","810"
"12","Školka","Marché Montessori","https://www.firmy.cz/detail/12859328-marche-montessori-praha-modrany.html","156"
"13","Metro","Budějovická","","4190"
"14","Pošta","Pošta Praha 412 - Česká pošta, s.p.","https://www.firmy.cz/detail/217477-posta-praha-412-praha-modrany.html","703"
"15","Restaurace","Restaurace Kutilova 	3061","https://www.firmy.cz/detail/13119647-restaurace-kutilova-3061-praha-modrany.html","260"
"16","Obchod","Kaufland","https://www.firmy.cz/detail/12700906-kaufland-praha-modrany.html","211"
"17","Sportoviště","Tenisová škola Tallent","https://www.firmy.cz/detail/722759-tenisova-skola-tallent-praha-modrany.html","535"
"18","Vlak","Praha-Modřany zastávka","","1350"
"19","Škola","Rakouské gymnázium v Praze, o.p.s.","https://www.firmy.cz/detail/363387-rakouske-gymnazium-v-praze-praha-modrany.html","207"
"20","Lékař","MIA-Dent s.r.o.","https://www.firmy.cz/detail/13186462-mia-dent-s-r-o-praha-modrany.html","260"
