"","facility_type","facility_name","facility_iri","facility_distance"
"0","Cukrárna","Kavárna a cukrárna AIDA","https://www.firmy.cz/detail/13123000-kavarna-a-cukrarna-aida-uherske-hradiste.html","314"
"1","Kino","Kino Hvězda Uherské Hradiště","https://www.firmy.cz/detail/457216-kino-hvezda-uherske-hradiste-uherske-hradiste.html","927"
"2","Přírodní zajímavost","Soutok Moravy a Olšavy","","3619"
"3","Hřiště","Dětské hřiště Na Splávku","","218"
"4","Večerka","Enfin potraviny","https://www.firmy.cz/detail/649346-enfin-potraviny-uherske-hradiste.html","350"
"5","Divadlo","Malá scéna Slováckého divadla","https://www.firmy.cz/detail/12964490-mala-scena-slovackeho-divadla-uherske-hradiste.html","570"
"6","Hospoda","Pivnice U Dolečka","https://www.firmy.cz/detail/13144114-pivnice-u-dolecka-uherske-hradiste.html","121"
"7","Veterinář","Veterina Mlejnský","https://www.firmy.cz/detail/477139-veterina-mlejnsky-uherske-hradiste.html","123"
"8","Lékař","ZapaMedica, s.r.o.","https://www.firmy.cz/detail/12862278-zapamedica-uherske-hradiste.html","251"
"9","Restaurace","Restaurace Na Nádraží","https://www.firmy.cz/detail/13134645-restaurace-na-nadrazi-uherske-hradiste.html","115"
"10","Sportoviště","Sportoviště města Uherské Hradiště","https://www.firmy.cz/detail/2596825-sportoviste-mesta-uherske-hradiste-uherske-hradiste.html","746"
"11","Škola","Obchodní akademie, Vyšší odborná škola a Jazyková škola s právem státní jazykové zkoušky Uherské Hradiště","https://www.firmy.cz/detail/362244-obchodni-akademie-vyssi-odborna-skola-a-jazykova-skola-s-pravem-statni-jazykove-zkousky-uherske-hradiste-uherske-hradiste.html","232"
"12","Bankomat","Bankomat Komerční banky","https://www.firmy.cz/detail/597654-bankomat-komercni-banky-uherske-hradiste.html","325"
"13","Lékárna","Farmacie Nádražní, s.r.o","https://www.firmy.cz/detail/13292988-farmacie-nadrazni-s-r-o-uherske-hradiste.html","164"
"14","Školka","ZŠ a MŠ speciální Uherské Hradiště","https://www.firmy.cz/detail/2327158-zs-a-ms-specialni-uherske-hradiste-uherske-hradiste.html","230"
"15","Obchod","Tesco","https://www.firmy.cz/detail/653537-tesco-uherske-hradiste.html","1030"
"16","Vlak","Uherské Hradiště","","95"
"17","Bus MHD","Uherské Hradiště, žel.st.","","152"
"18","Pošta","Pošta Uherské Hradiště 1 - Česká pošta, s.p.","https://www.firmy.cz/detail/433390-posta-uherske-hradiste-1-uherske-hradiste.html","422"
