"","facility_type","facility_name","facility_iri","facility_distance"
"0","Cukrárna","CrossCafe Doubravka","https://www.firmy.cz/detail/13273627-crosscafe-doubravka-plzen-doubravka.html","781"
"1","Kino","Kino Beseda","https://www.firmy.cz/detail/12773769-kino-beseda-plzen-jizni-predmesti.html","3206"
"2","Hřiště","Dětské hřiště Kolmá","","146"
"3","Večerka","Večerka Místní krámek","https://www.firmy.cz/detail/13255785-vecerka-mistni-kramek-plzen-doubravka.html","96"
"4","Hospoda","Pivnice U Pietasu","https://www.firmy.cz/detail/288596-pivnice-u-pietasu-plzen-lobzy.html","1220"
"5","Divadlo","Loutkové divadlo Špalíček","https://www.firmy.cz/detail/2269287-loutkove-divadlo-spalicek-plzen-doubravka.html","534"
"6","Veterinář","MVDr. Gabriela Lejčková - VETKVAM.cz","https://www.firmy.cz/detail/13029603-mvdr-gabriela-lejckova-vetkvam-cz-plzen-lobzy.html","1642"
"7","Bus MHD","Husův park","","277"
"8","Vlak","Plzeň-Doubravka","","105"
"9","Škola","ZŠ a MŠ pro zrakově postižené a vady řeči Plzeň, Lazaretní","https://www.firmy.cz/detail/2127835-zs-a-ms-pro-zrakove-postizene-a-vady-reci-plzen-lazaretni-plzen-doubravka.html","125"
"10","Lékárna","Lékárna Mateřídouška","https://www.firmy.cz/detail/12826321-lekarna-materidouska-plzen-doubravka.html","443"
"11","Pošta","Pošta Plzeň 19 - Česká pošta, s.p.","https://www.firmy.cz/detail/216644-posta-plzen-19-plzen-doubravka.html","450"
"12","Bankomat","Bankomat České spořitelny","https://www.firmy.cz/detail/593978-bankomat-ceske-sporitelny-plzen-doubravka.html","447"
"13","Školka","ZŠ a MŠ pro zrakově postižené a vady řeči Plzeň, Lazaretní","https://www.firmy.cz/detail/2127838-zs-a-ms-pro-zrakove-postizene-a-vady-reci-plzen-lazaretni-plzen-doubravka.html","125"
"14","Sportoviště","Bowling Lucerna","https://www.firmy.cz/detail/2353459-bowling-lucerna-plzen-doubravka.html","686"
"15","Lékař","MUDr. Irena Kaslová","https://www.firmy.cz/detail/388038-mudr-irena-kaslova-plzen-doubravka.html","528"
"16","Obchod","Obchodní dům AAA","https://www.firmy.cz/detail/649915-obchodni-dum-aaa-plzen-lobzy.html","1132"
"17","Restaurace","Club Skleník","https://www.firmy.cz/detail/13135387-club-sklenik-plzen-doubravka.html","104"
"18","Tram","Hlavní nádraží","","2604"
