"","facility_type","facility_name","facility_iri","facility_distance"
"0","Cukrárna","Cukrárna U Gymplu","https://www.firmy.cz/detail/13163932-cukrarna-u-gymplu-trutnov-stredni-predmesti.html","623"
"1","Kino","Kino Vesmír","https://www.firmy.cz/detail/2658912-kino-vesmir-trutnov-dolni-predmesti.html","971"
"2","Hřiště","Dětské hřiště Středisko volného času","","647"
"3","Večerka","Potraviny ESO","https://www.firmy.cz/detail/2344938-potraviny-eso-trutnov-stredni-predmesti.html","713"
"4","Hospoda","Národní Dům","https://www.firmy.cz/detail/13135400-narodni-dum-trutnov-stredni-predmesti.html","763"
"5","Veterinář","Bronislav Hlubůček","https://www.firmy.cz/detail/2502403-bronislav-hlubucek-trutnov-stredni-predmesti.html","619"
"6","Lékárna","Loise Lane, a.s.","https://www.firmy.cz/detail/12901557-loise-lane-trutnov-stredni-predmesti.html","801"
"7","Bus MHD","Trutnov, Humlův Kopec","","176"
"8","Školka","MŠ Trutnov, Novodvorská","https://www.firmy.cz/detail/2391593-ms-trutnov-novodvorska-trutnov-stredni-predmesti.html","570"
"9","Lékař","MUDr. Michal Kuhn s.r.o.","https://www.firmy.cz/detail/13204376-mudr-michal-kuhn-s-r-o-trutnov-stredni-predmesti.html","618"
"10","Sportoviště","Systema Trutnov z.s.","https://www.firmy.cz/detail/12976502-systema-trutnov-z-s-trutnov-stredni-predmesti.html","662"
"11","Vlak","Trutnov hlavní nádraží","","716"
"12","Škola","Gymnázium Trutnov, Jiráskovo náměstí","https://www.firmy.cz/detail/362216-gymnazium-trutnov-jiraskovo-namesti-trutnov-stredni-predmesti.html","619"
"13","Restaurace","Hostinec Dvoračka","https://www.firmy.cz/detail/13341966-hostinec-dvoracka-trutnov-dolni-predmesti.html","534"
"14","Bankomat","Bankomat Komerční banky","https://www.firmy.cz/detail/13332922-bankomat-komercni-banky-trutnov-dolni-predmesti.html","897"
"15","Pošta","Pošta Trutnov 1 - Česká pošta, s.p.","https://www.firmy.cz/detail/215646-posta-trutnov-1-trutnov-stredni-predmesti.html","1052"
"16","Obchod","Tesco Extra","https://www.firmy.cz/detail/12883388-tesco-extra-trutnov-dolni-stare-mesto.html","1563"
