"","facility_type","facility_name","facility_iri","facility_distance"
"0","Cukrárna","Hájek & Hájková, s.r.o.","https://www.firmy.cz/detail/2598627-hajek-hajkova-praha-smichov.html","1291"
"1","Kino","CineStar Anděl","https://www.firmy.cz/detail/2537565-cinestar-andel-praha-smichov.html","1398"
"2","Přírodní zajímavost","Kovářovic mez","","2827"
"3","Hřiště","Dětské hřiště Pechlátova","","245"
"4","Večerka","Albert Supermarket","https://www.firmy.cz/detail/209468-albert-supermarket-praha-smichov.html","629"
"5","Hospoda","Hospůdka Knoflík","https://www.firmy.cz/detail/2253647-hospudka-knoflik-praha-smichov.html","1456"
"6","Divadlo","Divadlo Orfeus","https://www.firmy.cz/detail/413053-divadlo-orfeus-praha-kosire.html","1318"
"7","Veterinář","MVDr. Jana Lukešová","https://www.firmy.cz/detail/473617-mvdr-jana-lukesova-praha-smichov.html","1080"
"8","Bankomat","Bankomat České spořitelny","https://www.firmy.cz/detail/594871-bankomat-ceske-sporitelny-praha-radlice.html","319"
"9","Obchod","Tesco","https://www.firmy.cz/detail/733908-tesco-praha-smichov.html","1549"
"10","Restaurace","Restaurace U Krbu","https://www.firmy.cz/detail/2568577-restaurace-u-krbu-praha-smichov.html","242"
"11","Vlak","Praha-Smíchov severní nást.","","1141"
"12","Tram","Škola Radlice","","131"
"13","Školka","ZŠ a MŠ Praha 5, Radlická","https://www.firmy.cz/detail/2662427-zs-a-ms-praha-5-radlicka-praha-radlice.html","120"
"14","Škola","ZŠ a MŠ Praha 5, Radlická","https://www.firmy.cz/detail/358995-zs-a-ms-praha-5-radlicka-praha-radlice.html","120"
"15","Pošta","Pošta Praha 53 - Česká pošta, s.p.","https://www.firmy.cz/detail/431282-posta-praha-53-praha-smichov.html","1102"
"16","Lékař","MEDITERRA - Rehabilitační klinika Malvazinky","https://www.firmy.cz/detail/430051-mediterra-rehabilitacni-klinika-malvazinky-praha-smichov.html","563"
"17","Metro","Radlická","","306"
"18","Lékárna","Na Cihlářce","https://www.firmy.cz/detail/375354-na-cihlarce-praha-smichov.html","807"
"19","Sportoviště","Sportcentrum Radlice","https://www.firmy.cz/detail/2307582-sportcentrum-radlice-praha.html","384"
"20","Bus MHD","Štorkánova","","165"
