"","facility_type","facility_name","facility_iri","facility_distance"
"0","Cukrárna","Donut Worry Be Happy","https://www.firmy.cz/detail/13310481-donut-worry-be-happy-zlin.html","1159"
"1","Kino","5D cinema Maxim","https://www.firmy.cz/detail/12871624-5d-cinema-maxim-zlin.html","2356"
"2","Hřiště","Dětské hřiště M. Alše","","130"
"3","Večerka","JIP Cash & Carry Zlín","https://www.firmy.cz/detail/13183205-jip-cash-carry-zlin-zlin-prstne.html","301"
"4","Divadlo","Divadlo OPONA","https://www.firmy.cz/detail/2326192-divadlo-opona-zlin.html","2137"
"5","Hospoda","Soptík Bar","https://www.firmy.cz/detail/13111570-soptik-bar-zlin.html","471"
"6","Veterinář","MVDr. Miroslava Umýsová","https://www.firmy.cz/detail/12776160-mvdr-miroslava-umysova-zlin-prstne.html","410"
"7","Restaurace","Indická restaurace Pushkar","https://www.firmy.cz/detail/13183466-indicka-restaurace-pushkar-zlin-prstne.html","255"
"8","Bus MHD","Alšova","","31"
"9","Obchod","Albert Hypermarket","https://www.firmy.cz/detail/12922451-albert-hypermarket-zlin-prstne.html","428"
"10","Sportoviště","Laser aréna Zóna 123","https://www.firmy.cz/detail/2675632-laser-arena-zona-123-zlin.html","577"
"11","Lékař","MUDr. Zdenka Hanulíková","https://www.firmy.cz/detail/389247-mudr-zdenka-hanulikova-zlin-prstne.html","663"
"12","Škola","Základní umělecká škola HARMONIE Zlín, s.r.o.","https://www.firmy.cz/detail/430072-zakladni-umelecka-skola-harmonie-zlin-zlin-prstne.html","151"
"13","Pošta","Pošta Zlín 3 - Česká pošta, s.p.","https://www.firmy.cz/detail/432900-posta-zlin-3-zlin-prstne.html","410"
"14","Školka","Dětský domov, MŠ, ZŠ a Praktická škola Zlín","https://www.firmy.cz/detail/12932442-detsky-domov-ms-zs-a-prakticka-skola-zlin-zlin.html","862"
"15","Vlak","Zlín-Prštné","","362"
"16","Bankomat","Bankomat České spořitelny","https://www.firmy.cz/detail/596709-bankomat-ceske-sporitelny-zlin-prstne.html","474"
"17","Lékárna","Lékárna Ormiga","https://www.firmy.cz/detail/2000857-lekarna-ormiga-zlin.html","1165"
