"","facility_type","facility_name","facility_iri","facility_distance"
"0","Cukrárna","Cukrárna 17. listopadu 1335","https://www.firmy.cz/detail/12740377-cukrarna-17-listopadu-1335-mlada-boleslav-ii.html","198"
"1","Kino","CineStar Mladá Boleslav","https://www.firmy.cz/detail/2109584-cinestar-mlada-boleslav-mlada-boleslav-ii.html","1257"
"2","Přírodní zajímavost","Syslí kolonie","","484"
"3","Hřiště","Dětské hřiště Nový park","","119"
"4","Večerka","COOP","https://www.firmy.cz/detail/2354317-coop-mlada-boleslav-ii.html","168"
"5","Hospoda","Pivnice Bingo u kolejí","https://www.firmy.cz/detail/2465415-pivnice-bingo-u-koleji-mlada-boleslav-ii.html","1247"
"6","Divadlo","Městské divadlo Mladá Boleslav","https://www.firmy.cz/detail/401491-mestske-divadlo-mlada-boleslav-mlada-boleslav-ii.html","1713"
"7","Veterinář","Veterinární ordinace MBvet","https://www.firmy.cz/detail/1328851-veterinarni-ordinace-mbvet-mlada-boleslav-ii.html","639"
"8","Bus MHD","Na Radouči","","127"
"9","Lékárna","BENU Lékárna","https://www.firmy.cz/detail/2303103-benu-lekarna-mlada-boleslav-ii.html","417"
"10","Restaurace","Kavárna Nejen kafe","https://www.firmy.cz/detail/13146811-kavarna-nejen-kafe-mlada-boleslav-ii.html","256"
"11","Bankomat","Bankomat ČSOB","https://www.firmy.cz/detail/12943973-bankomat-csob-mlada-boleslav-ii.html","167"
"12","Školka","MŠ Čtyřlístek Mladá Boleslav","https://www.firmy.cz/detail/2112309-ms-ctyrlistek-mlada-boleslav-mlada-boleslav-ii.html","265"
"13","Obchod","Albert Hypermarket","https://www.firmy.cz/detail/12920919-albert-hypermarket-kosmonosy.html","620"
"14","Pošta","Pošta Mladá Boleslav 2 - Česká pošta, s.p.","https://www.firmy.cz/detail/2378993-posta-mlada-boleslav-2-mlada-boleslav-ii.html","346"
"15","Sportoviště","FitStudio","https://www.firmy.cz/detail/2241439-fitstudio-mlada-boleslav-ii.html","391"
"16","Lékař","INTERPRAX, s.r.o.","https://www.firmy.cz/detail/13286644-interprax-mlada-boleslav-ii.html","264"
"17","Vlak","Mladá Boleslav město","","1413"
"18","Škola","ZŠ a MŠ Mladá Boleslav, 17. listopadu","https://www.firmy.cz/detail/358253-zs-a-ms-mlada-boleslav-17-listopadu-mlada-boleslav-ii.html","391"
