"","facility_type","facility_name","facility_iri","facility_distance"
"0","Cukrárna","Johanka","https://www.firmy.cz/detail/672704-johanka-pisek-vnitrni-mesto.html","65"
"1","Kino","Kino Portyč","https://www.firmy.cz/detail/13061398-kino-portyc-pisek-prazske-predmesti.html","358"
"2","Hřiště","Dětské hřiště - Tylova","","220"
"3","Večerka","BEZ. spolkový obchod váženým zbožím","https://www.firmy.cz/detail/13299792-bez-spolkovy-obchod-vazenym-zbozim-pisek-vnitrni-mesto.html","283"
"4","Hospoda","Green pub","https://www.firmy.cz/detail/12927585-green-pub-pisek-vnitrni-mesto.html","103"
"5","Divadlo","Divadlo Fráni Šrámka","https://www.firmy.cz/detail/12983574-divadlo-frani-sramka-pisek-budejovicke-predmesti.html","205"
"6","Veterinář","MVDr. Simona Petrová","https://www.firmy.cz/detail/2059321-mvdr-simona-petrova-pisek-vnitrni-mesto.html","292"
"7","Škola","Vyšší odborná škola restaurátorská, s.r.o.","https://www.firmy.cz/detail/361526-vyssi-odborna-skola-restauratorska-pisek-vnitrni-mesto.html","33"
"8","Bankomat","Bankomat ČSOB","https://www.firmy.cz/detail/597921-bankomat-csob-pisek-vnitrni-mesto.html","26"
"9","Lékař","MUDr. Milan Bečka","https://www.firmy.cz/detail/383915-mudr-milan-becka-pisek-vnitrni-mesto.html","79"
"10","Sportoviště","Laser arena Písek","https://www.firmy.cz/detail/12928075-laser-arena-pisek-pisek-vnitrni-mesto.html","171"
"11","Obchod","Galerie Písek","https://www.firmy.cz/detail/13061127-galerie-pisek-pisek-budejovicke-predmesti.html","849"
"12","Bus MHD","Písek, Velké nám.","","97"
"13","Restaurace","Restaurace La Varenne","https://www.firmy.cz/detail/13258564-restaurace-la-varenne-pisek-vnitrni-mesto.html","28"
"14","Vlak","Písek jih","","865"
"15","Lékárna","Lékárna U sv. Anny","https://www.firmy.cz/detail/12776518-lekarna-u-sv-anny-pisek-vnitrni-mesto.html","79"
"16","Školka","5. MŠ - Fugnerovo nám. - ZŠ Josefa Kajetána Tyla a MŠ Písek","https://www.firmy.cz/detail/1276440-5-ms-fugnerovo-nam-pisek-budejovicke-predmesti.html","139"
"17","Pošta","Pošta Písek 1 - Česká pošta, s.p.","https://www.firmy.cz/detail/1424184-posta-pisek-1-pisek-budejovicke-predmesti.html","321"
