"","facility_type","facility_name","facility_iri","facility_distance"
"0","Hřiště","Dětské hřiště Chvaletická","https://mapy.cz/zakladni?x=14.5483738838&y=50.1040072282&z=17&source=base&id=2095305","89"
"1","Večerka","Penny Market","https://www.firmy.cz/detail/12859596-penny-market-praha-hloubetin.html","456"
"2","Veterinář","MetropoleVet","https://www.firmy.cz/detail/12988353-metropolevet-praha-kyje.html","962"
"3","Hospoda","Šenk Na Rajské","https://www.firmy.cz/detail/12814379-senk-na-rajske-praha.html","912"
"4","Přírodní zajímavost","Meandry Rokytky","https://mapy.cz/zakladni?x=14.517104002655032&y=50.098337103299386&z=17&source=base&id=2338360","2406"
"5","Cukrárna","JEDNO KAFE s.r.o., s.r.o.","https://www.firmy.cz/detail/13144478-jedno-kafe-s-r-o-praha-hloubetin.html","366"
"6","Kino","CineStar Černý Most","https://www.firmy.cz/detail/2537569-cinestar-cerny-most-praha-cerny-most.html","2601"
"7","Divadlo","Přírodní divadlo Dády Stoklasy","https://www.firmy.cz/detail/13159295-prirodni-divadlo-dady-stoklasy-praha-horni-pocernice.html","4025"
"8","Bankomat","Bankomat ČSOB","https://www.firmy.cz/detail/13252880-bankomat-csob-praha.html","652"
"9","Pošta","Pošta Praha 98 - Česká pošta, s.p.","https://www.firmy.cz/detail/431412-posta-praha-98-praha-cerny-most.html","685"
"10","Sportoviště","Tělocvičná jednota Sokol Hloubětín","https://www.firmy.cz/detail/2128183-telocvicna-jednota-sokol-hloubetin-praha-hloubetin.html","205"
"11","Restaurace","Restaurace TONG","https://www.firmy.cz/detail/13308565-restaurace-tong-praha-kyje.html","367"
"12","Vlak","Praha-Kyje","https://mapy.cz/zakladni?x=14.5432331997&y=50.0975432851&z=17&source=pubt&id=15212571","863"
"13","Lékař","MUDr. Janečková Zdeňka, MediClinic a.s.","https://www.firmy.cz/detail/12946076-mudr-janeckova-zdenka-mediclinic-a-s-praha-kyje.html","424"
"14","Školka","MŠ Praha 9, Chvaletická","https://www.firmy.cz/detail/2146267-ms-praha-9-chvaleticka-praha-hloubetin.html","66"
"15","Metro","Rajská zahrada","https://mapy.cz/zakladni?x=14.5600868784&y=50.1066927772&z=17&source=pubt&id=15200159","800"
"16","Lékárna","Dr.Max LÉKÁRNA","https://www.firmy.cz/detail/12804581-dr-max-lekarna-praha-kyje.html","424"
"17","Obchod","Kaufland","https://www.firmy.cz/detail/13180341-kaufland-praha-hloubetin.html","636"
"18","Škola","ZŠ, Praha 9, Chvaletická","https://www.firmy.cz/detail/356260-zs-praha-9-chvaleticka-praha-hloubetin.html","81"
"19","Tram","Lehovec","https://mapy.cz/zakladni?x=14.5479878194&y=50.1068189092&z=17&source=pubt&id=15304323","319"
"20","Bus MHD","Sídliště Lehovec","https://mapy.cz/zakladni?x=14.54923829481922&y=50.10321495244697&z=17&source=pubt&id=15304179","107"
