"","facility_type","facility_name","facility_iri","facility_distance"
"0","Cukrárna","Café Coffee Day","https://www.firmy.cz/detail/650529-cafe-coffee-day-praha-smichov.html","488"
"1","Kino","Cinema City Nový Smíchov","https://www.firmy.cz/detail/2679838-cinema-city-novy-smichov-praha-smichov.html","397"
"2","Přírodní zajímavost","Kovářovic mez","","4702"
"3","Hřiště","Dětské hřiště Rošických","","267"
"4","Večerka","Tesco Expres","https://www.firmy.cz/detail/2414024-tesco-expres-praha-smichov.html","242"
"5","Hospoda","Hospůdka Knoflík","https://www.firmy.cz/detail/2253647-hospudka-knoflik-praha-smichov.html","842"
"6","Divadlo","Švandovo divadlo na Smíchově","https://www.firmy.cz/detail/230741-svandovo-divadlo-na-smichove-praha-smichov.html","206"
"7","Veterinář","MVDr. Jana Lukešová","https://www.firmy.cz/detail/473617-mvdr-jana-lukesova-praha-smichov.html","1041"
"8","Tram","Švandovo divadlo","","220"
"9","Metro","Anděl","","755"
"10","Vlak","Praha-Smíchov severní nást.","","1585"
"11","Bus MHD","Kobrova","","207"
"12","Školka","Střední škola, ZŠ a MŠ pro sluchově postižené Praha 5","https://www.firmy.cz/detail/2196419-stredni-skola-zs-a-ms-pro-sluchove-postizene-praha-5-praha-smichov.html","299"
"13","Bankomat","Bankomat ČSOB","https://www.firmy.cz/detail/599633-bankomat-csob-praha-smichov.html","274"
"14","Škola","Střední odborná škola Praha, Drtinova","https://www.firmy.cz/detail/361818-stredni-odborna-skola-praha-drtinova-praha-smichov.html","208"
"15","Sportoviště","Miloš Strnad PhDr. - Sportaktiv","https://www.firmy.cz/detail/249051-milos-strnad-phdr-sportaktiv-praha-smichov.html","246"
"16","Restaurace","Restaurace Julian","https://www.firmy.cz/detail/2620929-restaurace-julian-praha-smichov.html","281"
"17","Lékař","MUDr. Tomáš Dambrich","https://www.firmy.cz/detail/387283-mudr-tomas-dambrich-praha-smichov.html","360"
"18","Obchod","Obchodní centrum Nový Smíchov","https://www.firmy.cz/detail/579116-obchodni-centrum-novy-smichov-praha-smichov.html","517"
"19","Pošta","Pošta Praha 51 - Česká pošta, s.p.","https://www.firmy.cz/detail/431281-posta-praha-51-praha-mala-strana.html","418"
"20","Lékárna","Nad Knížecí","https://www.firmy.cz/detail/375034-nad-knizeci-praha-smichov.html","971"
