"","facility_type","facility_name","facility_iri","facility_distance"
"0","Cukrárna","Ludmila Horníková - Kavárna Maluj","https://www.firmy.cz/detail/1316809-ludmila-hornikova-kavarna-maluj-praha-vinohrady.html","110"
"1","Kino","Cinema City Flora","https://www.firmy.cz/detail/660712-cinema-city-flora-praha-zizkov.html","551"
"2","Přírodní zajímavost","Mokřad Triangl","","4695"
"3","Hřiště","Dětské hřiště Sobotecká","","146"
"4","Večerka","BILLA","https://www.firmy.cz/detail/689203-billa-praha-vinohrady.html","43"
"5","Divadlo","Divadelní společnost Josefa Dvořáka","https://www.firmy.cz/detail/396839-divadelni-spolecnost-josefa-dvoraka-praha-vrsovice.html","407"
"6","Hospoda","U Pižďucha","https://www.firmy.cz/detail/337127-u-pizducha-praha-zizkov.html","1263"
"7","Veterinář","MVDr. Alexandr Skácel","https://www.firmy.cz/detail/445613-mvdr-alexandr-skacel-praha-vinohrady.html","305"
"8","Lékař","MUDr. František Páša","https://www.firmy.cz/detail/387500-mudr-frantisek-pasa-praha-vinohrady.html","174"
"9","Lékárna","U Robina","https://www.firmy.cz/detail/658538-u-robina-praha-vinohrady.html","296"
"10","Pošta","Pošta Praha 33 - Česká pošta, s.p.","https://www.firmy.cz/detail/1994123-posta-praha-33-praha-vinohrady.html","412"
"11","Tram","Perunova","","141"
"12","Restaurace","Restaurace Vinohradská","https://www.firmy.cz/detail/2236165-restaurace-vinohradska-praha-vinohrady.html","222"
"13","Vlak","Praha-Vršovice","","1344"
"14","Bankomat","Bankomat České spořitelny","https://www.firmy.cz/detail/594768-bankomat-ceske-sporitelny-praha-vinohrady.html","237"
"15","Bus MHD","Orionka","","183"
"16","Sportoviště","Tenisová škola TALLENT","https://www.firmy.cz/detail/2591478-tenisova-skola-tallent-praha-vinohrady.html","187"
"17","Obchod","PAVILON, a.s.","https://www.firmy.cz/detail/451685-pavilon-praha-vinohrady.html","1033"
"18","Škola","Základní škola, Praha 3, Perunova","https://www.firmy.cz/detail/2392606-zakladni-skola-praha-3-perunova-praha-vinohrady.html","187"
"19","Školka","Mateřská škola, Praha 3, Perunova","https://www.firmy.cz/detail/358972-materska-skola-praha-3-perunova-praha-vinohrady.html","187"
"20","Metro","Flora","","411"
