"","facility_type","facility_name","facility_iri","facility_distance"
"0","Cukrárna","PICCADILLY STORE & CAFFE","https://www.firmy.cz/detail/13291783-piccadilly-store-caffe-brno-kralovo-pole.html","340"
"1","Kino","Kino Lucerna","https://www.firmy.cz/detail/638240-kino-lucerna-brno-zabovresky.html","1206"
"2","Přírodní zajímavost","Přírodní zahrada U Smrku","","882"
"3","Hřiště","Dětské hřiště na Slovanském náměstí","","272"
"4","Večerka","BRNĚNKA","https://www.firmy.cz/detail/12787568-brnenka-brno-kralovo-pole.html","321"
"5","Hospoda","Hospůdka u Štýblů","https://www.firmy.cz/detail/13310839-hospudka-u-styblu-brno-kralovo-pole.html","350"
"6","Divadlo","Bezbariérové divadlo Barka","https://www.firmy.cz/detail/661273-bezbarierove-divadlo-barka-brno-kralovo-pole.html","95"
"7","Veterinář","MVDr. Antonín Pantůček","https://www.firmy.cz/detail/2690752-mvdr-antonin-pantucek-brno-kralovo-pole.html","210"
"8","Bankomat","Bankomat ČSOB","https://www.firmy.cz/detail/599318-bankomat-csob-brno-kralovo-pole.html","374"
"9","Školka","MŠ Brno, Vackova","https://www.firmy.cz/detail/407491-ms-brno-vackova-brno-kralovo-pole.html","111"
"10","Sportoviště","Vojenská tělovýchovná jednota Vojenské akademie v Brně","https://www.firmy.cz/detail/2651506-vojenska-telovychovna-jednota-vojenske-akademie-v-brne-brno-kralovo-pole.html","207"
"11","Tram","Jungmannova","","365"
"12","Vlak","Brno-Královo Pole","","1210"
"13","Pošta","Pošta Brno 12 - Česká pošta, s.p.","https://www.firmy.cz/detail/216021-posta-brno-12-brno-kralovo-pole.html","638"
"14","Restaurace","PUB","https://www.firmy.cz/detail/13136483-pub-brno-kralovo-pole.html","150"
"15","Bus MHD","Charvatská","","127"
"16","Obchod","OC Perla, a.s.","https://www.firmy.cz/detail/12875818-oc-perla-brno-zabovresky.html","923"
"17","Škola","Gymnázium Brno, Slovanské náměstí","https://www.firmy.cz/detail/360846-gymnazium-brno-slovanske-namesti-brno-kralovo-pole.html","241"
"18","Lékárna","Lékárna Dobrovského","https://www.firmy.cz/detail/1359551-lekarna-dobrovskeho-brno-kralovo-pole.html","191"
"19","Lékař","Centrum zdravotnických služeb, s.r.o.","https://www.firmy.cz/detail/187864-centrum-zdravotnickych-sluzeb-brno-kralovo-pole.html","191"
