"","facility_type","facility_name","facility_iri","facility_distance"
"0","Cukrárna","Cukrárna, Café U Anděla","https://www.firmy.cz/detail/2400510-cukrarna-cafe-u-andela-straznice.html","257"
"1","Kino","Kino Svět","https://www.firmy.cz/detail/677490-kino-svet-straznice.html","370"
"2","Hřiště","Dětské hřiště Kostelní","","271"
"3","Večerka","BALA potraviny - Jitka Nováková","https://www.firmy.cz/detail/1771709-bala-potraviny-jitka-novakova-straznice.html","119"
"4","Hospoda","Slovácký Šenk","https://www.firmy.cz/detail/13119924-slovacky-senk-straznice.html","488"
"5","Veterinář","MVDr. Jana Neugebauerová Běhalová","https://www.firmy.cz/detail/12816118-mvdr-jana-neugebauerova-behalova-straznice.html","485"
"6","Pošta","Pošta Strážnice - Česká pošta, s.p.","https://www.firmy.cz/detail/433357-posta-straznice-straznice.html","392"
"7","Restaurace","Hotel Strážnice - restaurace","https://www.firmy.cz/detail/13146785-hotel-straznice-restaurace-straznice.html","147"
"8","Škola","Purkyňovo gymnázium Strážnice","https://www.firmy.cz/detail/362474-purkynovo-gymnazium-straznice-straznice.html","150"
"9","Bus MHD","Strážnice, ZŠ Marie Kudeříkové","","327"
"10","Lékárna","Dr. Max","https://www.firmy.cz/detail/2007336-dr-max-straznice.html","196"
"11","Sportoviště","AUTOKEMPINK Strážnice - koupaliště","https://www.firmy.cz/detail/12882206-autokempink-straznice-koupaliste-straznice.html","1295"
"12","Vlak","Strážnice","","265"
"13","Lékař","MUDr. Blanka Jugasová","https://www.firmy.cz/detail/13283776-mudr-blanka-jugasova-straznice.html","384"
"14","Bankomat","Bankomat České spořitelny","https://www.firmy.cz/detail/596139-bankomat-ceske-sporitelny-straznice.html","123"
"15","Školka","MŠ Strážnice, Radějovská","https://www.firmy.cz/detail/2581820-ms-straznice-radejovska-straznice.html","359"
