"","facility_type","facility_name","facility_iri","facility_distance"
"0","Hřiště","Dětské hřiště Východní","https://mapy.cz/zakladni?x=12.8925599903&y=50.2357573231&z=17&source=base&id=2119726","278"
"1","Přírodní zajímavost","Karlův hvozd","https://mapy.cz/zakladni?x=12.88314066464389&y=50.21667178915505&z=17&source=base&id=2344863","2467"
"2","Veterinář","MVDr. Jaroslav Štekl","https://www.firmy.cz/detail/625301-mvdr-jaroslav-stekl-dalovice.html","532"
"3","Večerka","Můjobchod - Potraviny U Haničky","https://www.firmy.cz/detail/12997999-mujobchod-potraviny-u-hanicky-karlovy-vary-drahovice.html","96"
"4","Hospoda","Pivnice Drahomíra","https://www.firmy.cz/detail/668384-pivnice-drahomira-karlovy-vary-drahovice.html","711"
"5","Cukrárna","Cukrárna Ovo Bar Kamilka","https://www.firmy.cz/detail/13058476-cukrarna-ovo-bar-kamilka-karlovy-vary.html","1468"
"6","Divadlo","Divadlo Dagmar","https://www.firmy.cz/detail/396851-divadlo-dagmar-karlovy-vary-drahovice.html","653"
"7","Kino","Kino Drahomíra z.s.","https://www.firmy.cz/detail/13126576-kino-drahomira-z-s-karlovy-vary-drahovice.html","978"
"8","Bus MHD","Východní","https://mapy.cz/zakladni?x=12.892799216081578&y=50.23671431380003&z=17&source=pubt&id=15200661","184"
"9","Školka","2. MŠ Karlovy Vary - Vilová","https://www.firmy.cz/detail/2072245-2-ms-karlovy-vary-vilova-karlovy-vary-bohatice.html","974"
"10","Restaurace","SeaBowl","https://www.firmy.cz/detail/13100938-seabowl-karlovy-vary-drahovice.html","96"
"11","Lékař","MUDr. Josef Košťál","https://www.firmy.cz/detail/12945830-mudr-josef-kostal-karlovy-vary-drahovice.html","114"
"12","Sportoviště","SeaBowl","https://www.firmy.cz/detail/13100937-seabowl-karlovy-vary-drahovice.html","96"
"13","Škola","ZŠ Jana Amose Komenského, Karlovy Vary","https://www.firmy.cz/detail/357602-zs-jana-amose-komenskeho-karlovy-vary-karlovy-vary-drahovice.html","396"
"14","Pošta","Pošta Karlovy Vary 20 - Česká pošta, s.p.","https://www.firmy.cz/detail/217585-posta-karlovy-vary-20-karlovy-vary-drahovice.html","547"
"15","Vlak","Karlovy Vary","https://mapy.cz/zakladni?x=12.86668864137042&y=50.23548353110124&z=17&source=pubt&id=15698550","1798"
"16","Obchod","Obchodní centrum Perla","https://www.firmy.cz/detail/13219298-obchodni-centrum-perla-karlovy-vary.html","1698"
"17","Bankomat","Bankomat Euronet","https://www.firmy.cz/detail/13055646-bankomat-euronet-karlovy-vary.html","1124"
"18","Lékárna","Lékárna U Gymnázia","https://www.firmy.cz/detail/420968-lekarna-u-gymnazia-karlovy-vary-drahovice.html","527"
