"","facility_type","facility_name","facility_iri","facility_distance"
"0","Cukrárna","Cukrárna Pod Marjánkou","https://www.firmy.cz/detail/12887308-cukrarna-pod-marjankou-praha-brevnov.html","497"
"1","Kino","Cinema City Nový Smíchov","https://www.firmy.cz/detail/2679838-cinema-city-novy-smichov-praha-smichov.html","2572"
"2","Přírodní zajímavost","Kovářovic mez","","4465"
"3","Hřiště","Dětské hřiště Junácká","","140"
"4","Večerka","Večerka Bělohorská 243","https://www.firmy.cz/detail/12720046-vecerka-belohorska-243-praha-brevnov.html","12"
"5","Hospoda","Hostinec Drinopol","https://www.firmy.cz/detail/328447-hostinec-drinopol-praha-brevnov.html","90"
"6","Divadlo","KAŠTAN - Scéna Unijazzu","https://www.firmy.cz/detail/397273-kastan-scena-unijazzu-praha-brevnov.html","656"
"7","Veterinář","MVDr. Josef Kubeček","https://www.firmy.cz/detail/275654-mvdr-josef-kubecek-praha-brevnov.html","121"
"8","Škola","Soukromá základní škola Cesta k úspěchu v Praze","https://www.firmy.cz/detail/2606011-soukroma-zakladni-skola-cesta-k-uspechu-v-praze-praha-brevnov.html","279"
"9","Restaurace","Bernard PUB U Bílého Lva","https://www.firmy.cz/detail/2502077-bernard-pub-u-bileho-lva-praha-brevnov.html","34"
"10","Tram","Drinopol","","46"
"11","Lékař","MUDr. Gabriela Valtrová","https://www.firmy.cz/detail/385696-mudr-gabriela-valtrova-praha-brevnov.html","85"
"12","Pošta","Pošta Praha 69 - Česká pošta, s.p.","https://www.firmy.cz/detail/216722-posta-praha-69-praha-brevnov.html","416"
"13","Bus MHD","Kajetánka","","324"
"14","Školka","ZŠ a MŠ J. A. Komenského, Praha 6","https://www.firmy.cz/detail/725240-zs-a-ms-j-a-komenskeho-praha-6-praha-brevnov.html","204"
"15","Lékárna","Lékárna Bělohorská","https://www.firmy.cz/detail/12721462-lekarna-belohorska-praha-brevnov.html","290"
"16","Bankomat","Bankomat ČSOB","https://www.firmy.cz/detail/599638-bankomat-csob-praha-brevnov.html","169"
"17","Obchod","Kaufland","https://www.firmy.cz/detail/221319-kaufland-praha-brevnov.html","2301"
"18","Metro","Bořislavka","","1658"
"19","Vlak","Praha-Veleslavín","","2112"
"20","Sportoviště","TJ Břevnov","https://www.firmy.cz/detail/222250-tj-brevnov-praha-brevnov.html","456"
