"","facility_type","facility_name","facility_iri","facility_distance"
"0","Hřiště","Dětské hřiště Na Hliněnce","","95"
"1","Večerka","Můjobchod - Potraviny U Patrika","https://www.firmy.cz/detail/12997422-mujobchod-potraviny-u-patrika-nova-vcelnice.html","115"
"2","Hospoda","Pivnice Na Nechybě","https://www.firmy.cz/detail/12934508-pivnice-na-nechybe-nova-vcelnice.html","268"
"3","Vlak","Nová Včelnice","","207"
"4","Lékař","MUDr. Alena Urbanová","https://www.firmy.cz/detail/370716-mudr-alena-urbanova-nova-vcelnice.html","275"
"5","Restaurace","Restaurace U Zámku","https://www.firmy.cz/detail/13113105-restaurace-u-zamku-nova-vcelnice.html","319"
"6","Lékárna","OOVL - L Tilia","https://www.firmy.cz/detail/12889881-oovl-l-tilia-nova-vcelnice.html","115"
"7","Školka","MŠ Nová Včelnice","https://www.firmy.cz/detail/2622830-ms-nova-vcelnice-nova-vcelnice.html","433"
"8","Bankomat","Bankomat ČSOB","https://www.firmy.cz/detail/1423761-bankomat-csob-nova-vcelnice.html","115"
"9","Pošta","Pošta Nová Včelnice - Česká pošta, s.p.","https://www.firmy.cz/detail/217102-posta-nova-vcelnice-nova-vcelnice.html","115"
"10","Bus MHD","Nová Včelnice, žel.st.","","186"
"11","Sportoviště","Město Nová Včelnice - Hokejbal","https://www.firmy.cz/detail/13084026-mesto-nova-vcelnice-hokejbal-nova-vcelnice.html","535"
"12","Škola","ZŠ Nová Včelnice","https://www.firmy.cz/detail/358441-zs-nova-vcelnice-nova-vcelnice.html","729"
