"","facility_type","facility_name","facility_iri","facility_distance"
"0","Cukrárna","Pekařství a kavárna DéKáčko","https://www.firmy.cz/detail/12810430-pekarstvi-a-kavarna-dekacko-ceske-budejovice.html","125"
"1","Kino","CineStar IGY Centrum","https://www.firmy.cz/detail/13096583-cinestar-igy-centrum-ceske-budejovice-3.html","643"
"2","Hřiště","Dětské hřiště","","456"
"3","Večerka","Potraviny U Martina","https://www.firmy.cz/detail/13245947-potraviny-u-martina-ceske-budejovice-3.html","64"
"4","Hospoda","Hospůdka pod Úrovní","https://www.firmy.cz/detail/13137834-hospudka-pod-urovni-ceske-budejovice-3.html","242"
"5","Divadlo","Jihočeské divadlo - Malé divadlo","https://www.firmy.cz/detail/2351551-jihoceske-divadlo-male-divadlo-ceske-budejovice-1.html","316"
"6","Veterinář","MVDr. Magda Jabulková - Veterinární ordinace","https://www.firmy.cz/detail/615689-mvdr-magda-jabulkova-veterinarni-ordinace-ceske-budejovice-3.html","717"
"7","Sportoviště","Tenisový kurt Sokolský ostrov","https://www.firmy.cz/detail/13245154-tenisovy-kurt-sokolsky-ostrov-ceske-budejovice.html","758"
"8","Školka","MŠ pro sluchově postižené České Budějovice","https://www.firmy.cz/detail/2295433-ms-pro-sluchove-postizene-ceske-budejovice-ceske-budejovice-3.html","253"
"9","Lékař","MUDr. Marie Kocánová s.r.o.","https://www.firmy.cz/detail/13287323-mudr-marie-kocanova-s-r-o-ceske-budejovice-3.html","222"
"10","Bus MHD","J.Š.Baara","","19"
"11","Bankomat","Bankomat MONETA Money Bank","https://www.firmy.cz/detail/603052-bankomat-moneta-money-bank-ceske-budejovice-3.html","226"
"12","Škola","Základní škola a Mateřská škola J.Š.Baara, Jírovcova 9/a, České Budějovice","https://www.firmy.cz/detail/356736-zakladni-skola-a-materska-skola-j-s-baara-jirovcova-9-a-ceske-budejovice-ceske-budejovice-3.html","79"
"13","Restaurace","Restaurace U Rychty","https://www.firmy.cz/detail/12890206-restaurace-u-rychty-ceske-budejovice-3.html","55"
"14","Obchod","Mariánská - nákupní centrum","https://www.firmy.cz/detail/13170642-marianska-nakupni-centrum-ceske-budejovice-3.html","428"
"15","Lékárna","Medipharma.cz","https://www.firmy.cz/detail/2676184-medipharma-cz-ceske-budejovice-3.html","118"
"16","Pošta","Pošta České Budějovice 1 - Česká pošta, s.p.","https://www.firmy.cz/detail/452759-posta-ceske-budejovice-1-ceske-budejovice-6.html","639"
"17","Vlak","České Budějovice","","982"
