"","facility_type","facility_name","facility_iri","facility_distance"
"0","Hřiště","Dětské hřiště U Kovárny","https://mapy.cz/zakladni?x=17.2266605072&y=49.593241271&z=17&source=base&id=2177215","90"
"1","Večerka","Lidl","https://www.firmy.cz/detail/13295151-lidl-olomouc-nova-ulice.html","178"
"2","Hospoda","Jadrošova krčma","https://www.firmy.cz/detail/13189157-jadrosova-krcma-olomouc-neredin.html","125"
"3","Kino","CineStar Olomouc","https://www.firmy.cz/detail/661181-cinestar-olomouc-olomouc-repcin.html","1244"
"4","Veterinář","Veterinární klinika MVDr. Michael Mazoch, s.r.o.","https://www.firmy.cz/detail/12906915-veterinarni-klinika-mvdr-michael-mazoch-s-r-o-olomouc-neredin.html","542"
"5","Cukrárna","Cukrárna - kavárna Pusinka","https://www.firmy.cz/detail/2233751-cukrarna-kavarna-pusinka-olomouc.html","372"
"6","Divadlo","Divadlo Tramtarie","https://www.firmy.cz/detail/594401-divadlo-tramtarie-olomouc-nova-ulice.html","1475"
"7","Obchod","OD TIMPO, s.r.o.","https://www.firmy.cz/detail/642623-od-timpo-olomouc-nova-ulice.html","178"
"8","Bus MHD","Kmochova","https://mapy.cz/zakladni?x=17.23117645636585&y=49.593075819735105&z=17&source=pubt&id=15203182","318"
"9","Tram","Hřbitovy","https://mapy.cz/zakladni?x=17.2236970723&y=49.5959747713&z=17&source=pubt&id=15203084","455"
"10","Školka","MŠ Barevný svět Olomouc","https://www.firmy.cz/detail/2258721-ms-barevny-svet-olomouc-olomouc-neredin.html","334"
"11","Restaurace","Restaurace Red Wolf","https://www.firmy.cz/detail/12805408-restaurace-red-wolf-olomouc-nova-ulice.html","357"
"12","Vlak","Olomouc město","https://mapy.cz/zakladni?x=17.241190942&y=49.5941205238&z=17&source=pubt&id=15212337","1049"
"13","Škola","Fakultní ZŠ Olomouc, Tererovo nám.","https://www.firmy.cz/detail/358562-fakultni-zs-olomouc-tererovo-nam-olomouc-nova-ulice.html","395"
"14","Bankomat","Bankomat České spořitelny","https://www.firmy.cz/detail/593746-bankomat-ceske-sporitelny-olomouc-nova-ulice.html","178"
"15","Lékař","Ordinace praktického lékaře Olomouc, s.r.o.","https://www.firmy.cz/detail/12833833-ordinace-praktickeho-lekare-olomouc-olomouc-nova-ulice.html","502"
"16","Lékárna","Mgr. Pavel Kalman","https://www.firmy.cz/detail/308543-mgr-pavel-kalman-olomouc-nova-ulice.html","432"
"17","Sportoviště","TJ Dukla Olomouc","https://www.firmy.cz/detail/1342119-tj-dukla-olomouc-olomouc-neredin.html","635"
"18","Pošta","Pošta Olomouc 10 - Česká pošta, s.p.","https://www.firmy.cz/detail/215756-posta-olomouc-10-olomouc-nova-ulice.html","563"
