"","facility_type","facility_name","facility_iri","facility_distance"
"0","Hřiště","Dětské hřiště Třešňová","https://mapy.cz/zakladni?x=15.0628997222&y=50.7828044444&z=17&source=base&id=2006188","264"
"1","Hospoda","U Jelena","https://www.firmy.cz/detail/13123476-u-jelena-liberec-xiv-ruprechtice.html","402"
"2","Cukrárna","Bylo nebylo - dětská herna s kavárnou","https://www.firmy.cz/detail/13197465-bylo-nebylo-detska-herna-s-kavarnou-liberec-xiii-nove-pavlovice-liberec-13.html","505"
"3","Večerka","Tesco Supermarket","https://www.firmy.cz/detail/2601939-tesco-supermarket-liberec-xiv-ruprechtice.html","178"
"4","Veterinář","MVDr. Jana Schrammová","https://www.firmy.cz/detail/13167453-mvdr-jana-schrammova-liberec-xiii-nove-pavlovice.html","401"
"5","Divadlo","Malé divadlo","https://www.firmy.cz/detail/397046-male-divadlo-liberec-i-stare-mesto.html","1189"
"6","Kino","Kino Varšava","https://www.firmy.cz/detail/12951225-kino-varsava-liberec-i-stare-mesto.html","1361"
"7","Přírodní zajímavost","Opičák","https://mapy.cz/zakladni?x=15.0248686111&y=50.7720466667&z=17&source=base&id=1978555","2705"
"8","Bus MHD","ZŠ Vrchlického","https://mapy.cz/zakladni?x=15.0580090805066&y=50.7822111185153&z=17&source=pubt&id=15209732","124"
"9","Bankomat","Bankomat ČSOB","https://www.firmy.cz/detail/598491-bankomat-csob-liberec-xiv-ruprechtice.html","178"
"10","Restaurace","Restaurace U Hokejky","https://www.firmy.cz/detail/13124154-restaurace-u-hokejky-liberec-xiv-ruprechtice.html","95"
"11","Sportoviště","Statutární město Liberec - Tenis","https://www.firmy.cz/detail/13077036-statutarni-mesto-liberec-tenis-liberec-i-stare-mesto.html","89"
"12","Obchod","Albert Hypermarket","https://www.firmy.cz/detail/12920902-albert-hypermarket-liberec-i-stare-mesto.html","918"
"13","Školka","MŠ Beruška Liberec","https://www.firmy.cz/detail/1458043-ms-beruska-liberec-liberec-xiv-ruprechtice.html","313"
"14","Lékař","MUDr. Jiří Teufl","https://www.firmy.cz/detail/390723-mudr-jiri-teufl-liberec-xiv-ruprechtice.html","95"
"15","Vlak","Stráž nad Nisou","https://mapy.cz/zakladni?x=15.0256242229&y=50.7885914519&z=17&source=pubt&id=15212907","2437"
"16","Lékárna","Lékárna U Slunce","https://www.firmy.cz/detail/13204283-lekarna-u-slunce-liberec-xiv-ruprechtice-liberec-14.html","95"
"17","Pošta","Pošta Liberec 14 - Česká pošta, s.p.","https://www.firmy.cz/detail/215521-posta-liberec-14-liberec-xiv-ruprechtice.html","144"
"18","Škola","ZŠ Liberec, Sokolovská","https://www.firmy.cz/detail/358003-zs-liberec-sokolovska-liberec-xiii-nove-pavlovice.html","116"
"19","Tram","Muzeum - Galerie Lázně","https://mapy.cz/zakladni?x=15.0682566144&y=50.7741850787&z=17&source=pubt&id=15204068","1175"
