"","facility_type","facility_name","facility_iri","facility_distance"
"0","Cukrárna","Cukrárna 17. listopadu 1335","https://www.firmy.cz/detail/12740377-cukrarna-17-listopadu-1335-mlada-boleslav-ii.html","518"
"1","Kino","CineStar Mladá Boleslav","https://www.firmy.cz/detail/2109584-cinestar-mlada-boleslav-mlada-boleslav-ii.html","1202"
"2","Přírodní zajímavost","Syslí kolonie","","988"
"3","Hřiště","Dětské hřiště u Veteriny Mládežnická","","165"
"4","Večerka","Penny Market","https://www.firmy.cz/detail/2413106-penny-market-mlada-boleslav-ii.html","219"
"5","Hospoda","Pivnice Bingo u kolejí","https://www.firmy.cz/detail/2465415-pivnice-bingo-u-koleji-mlada-boleslav-ii.html","1274"
"6","Divadlo","Městské divadlo Mladá Boleslav","https://www.firmy.cz/detail/2178157-mestske-divadlo-mlada-boleslav-mlada-boleslav-ii.html","1868"
"7","Veterinář","Veterinární ordinace MBvet","https://www.firmy.cz/detail/1328851-veterinarni-ordinace-mbvet-mlada-boleslav-ii.html","841"
"8","Obchod","Tesco Extra","https://www.firmy.cz/detail/12741905-tesco-extra-kosmonosy.html","370"
"9","Restaurace","Restaurace U Kvakoše","https://www.firmy.cz/detail/2371819-restaurace-u-kvakose-mlada-boleslav-ii.html","223"
"10","Lékař","MUDr. Miroslava Pekařová","https://www.firmy.cz/detail/387121-mudr-miroslava-pekarova-mlada-boleslav-ii.html","267"
"11","Bus MHD","Havlíčkova FOKY","","88"
"12","Sportoviště","SPINNING - MB, Jana Hladíková","https://www.firmy.cz/detail/586970-spinning-mb-jana-hladikova-mlada-boleslav-ii.html","406"
"13","Škola","ZŠ a MŠ Mladá Boleslav, 17. listopadu","https://www.firmy.cz/detail/358253-zs-a-ms-mlada-boleslav-17-listopadu-mlada-boleslav-ii.html","546"
"14","Lékárna","Lékárna 12","https://www.firmy.cz/detail/374867-lekarna-12-mlada-boleslav-ii.html","267"
"15","Vlak","Mladá Boleslav město","","1360"
"16","Bankomat","Bankomat Komerční banky","https://www.firmy.cz/detail/12786643-bankomat-komercni-banky-mlada-boleslav-ii.html","219"
"17","Školka","MŠ Čtyřlístek Mladá Boleslav","https://www.firmy.cz/detail/2112309-ms-ctyrlistek-mlada-boleslav-mlada-boleslav-ii.html","444"
"18","Pošta","Pošta Mladá Boleslav 2 - Česká pošta, s.p.","https://www.firmy.cz/detail/2378993-posta-mlada-boleslav-2-mlada-boleslav-ii.html","223"
