"","facility_type","facility_name","facility_iri","facility_distance"
"0","Cukrárna","CrossCafe Galerie Slovany","https://www.firmy.cz/detail/12858831-crosscafe-galerie-slovany-plzen-vychodni-predmesti.html","464"
"1","Kino","Kino Beseda","https://www.firmy.cz/detail/12773769-kino-beseda-plzen-jizni-predmesti.html","2519"
"2","Hřiště","Dětské hřiště Brojova","","276"
"3","Večerka","Můjobchod - Potraviny Francouzská","https://www.firmy.cz/detail/13163885-mujobchod-potraviny-francouzska-plzen-vychodni-predmesti.html","219"
"4","Hospoda","Pivnice Na Desítce","https://www.firmy.cz/detail/13261593-pivnice-na-desitce-plzen-koterov.html","517"
"5","Divadlo","Divadelní spolek Jezírko","https://www.firmy.cz/detail/740611-divadelni-spolek-jezirko-plzen-vychodni-predmesti.html","604"
"6","Veterinář","Veterinární ordinace Na Slovanech","https://www.firmy.cz/detail/2137489-veterinarni-ordinace-na-slovanech-plzen-vychodni-predmesti.html","88"
"7","Bus MHD","Pošta Francouzská","","203"
"8","Pošta","Pošta Plzeň 7 - Česká pošta, s.p.","https://www.firmy.cz/detail/216655-posta-plzen-7-plzen-vychodni-predmesti.html","304"
"9","Restaurace","Restaurace U Králů","https://www.firmy.cz/detail/12834903-restaurace-u-kralu-plzen-vychodni-predmesti.html","315"
"10","Tram","Vřesová","","278"
"11","Lékař","MUDr. Zdeněk Čech","https://www.firmy.cz/detail/389592-mudr-zdenek-cech-plzen-vychodni-predmesti.html","263"
"12","Škola","21. ZŠ Plzeň","https://www.firmy.cz/detail/358869-21-zs-plzen-plzen-vychodni-predmesti.html","217"
"13","Lékárna","Dr. Max LÉKÁRNA","https://www.firmy.cz/detail/13001301-dr-max-lekarna-plzen-vychodni-predmesti.html","340"
"14","Bankomat","Bankomat ČSOB","https://www.firmy.cz/detail/636763-bankomat-csob-plzen-vychodni-predmesti.html","306"
"15","Vlak","Plzeň-Koterov","","1379"
"16","Školka","17. MŠ Plzeň","https://www.firmy.cz/detail/1359948-17-ms-plzen-plzen-vychodni-predmesti.html","190"
"17","Obchod","Galerie Slovany, s.r.o.","https://www.firmy.cz/detail/2301407-galerie-slovany-plzen-vychodni-predmesti.html","478"
"18","Sportoviště","Tenisové kurty Sokol Plzeň - Doudlevce","https://www.firmy.cz/detail/13068227-tenisove-kurty-sokol-plzen-doudlevce-plzen-vychodni-predmesti.html","731"
