"","facility_type","facility_name","facility_iri","facility_distance"
"0","Cukrárna","Cukrárna Studánka","https://www.firmy.cz/detail/335042-cukrarna-studanka-praha-nove-mesto.html","111"
"1","Kino","Kino Mat","https://www.firmy.cz/detail/1974792-kino-mat-praha-nove-mesto.html","384"
"2","Přírodní zajímavost","Kovářovic mez","","5226"
"3","Hřiště","Dětské hřiště Vojtěšský obvod","","275"
"4","Večerka","BILLA","https://www.firmy.cz/detail/689169-billa-praha-nove-mesto.html","232"
"5","Hospoda","Hostinec U Suchý Dásně","https://www.firmy.cz/detail/679683-hostinec-u-suchy-dasne-praha-nove-mesto.html","570"
"6","Divadlo","Minor","https://www.firmy.cz/detail/230743-minor-praha-nove-mesto.html","576"
"7","Veterinář","Veterinární klinika Na Hrádku - MVDr. Ľubica Nečasová","https://www.firmy.cz/detail/633528-veterinarni-klinika-na-hradku-mvdr-lubica-necasova-praha-nove-mesto.html","560"
"8","Bus MHD","Jiráskovo náměstí","","41"
"9","Obchod","Quadrio","https://www.firmy.cz/detail/2042979-quadrio-praha-nove-mesto.html","721"
"10","Vlak","Praha-Smíchov severní nást.","","1471"
"11","Restaurace","Potrefená husa","https://www.firmy.cz/detail/671385-potrefena-husa-praha-nove-mesto.html","0"
"12","Tram","Jiráskovo náměstí","","77"
"13","Školka","ZŠ a MŠ Praha 2, Resslova","https://www.firmy.cz/detail/770593-zs-a-ms-praha-2-resslova-praha-nove-mesto.html","255"
"14","Lékař","online24, s.r.o.","https://www.firmy.cz/detail/579737-online24-praha-nove-mesto.html","324"
"15","Bankomat","Raiffeisenbank - bankomat","https://www.firmy.cz/detail/631176-raiffeisenbank-bankomat-praha-nove-mesto.html","265"
"16","Lékárna","LÉKÁRNA MORÁŇ","https://www.firmy.cz/detail/658422-lekarna-moran-praha-nove-mesto.html","288"
"17","Škola","ČAO, Resslova 5, Praha 2","https://www.firmy.cz/detail/362411-cao-resslova-5-praha-2-praha-nove-mesto.html","69"
"18","Metro","Karlovo náměstí","","224"
"19","Pošta","Pošta Praha 5 - Česká pošta, s.p.","https://www.firmy.cz/detail/217457-posta-praha-5-praha-smichov.html","630"
"20","Sportoviště","BestFit Studio Smíchov","https://www.firmy.cz/detail/12700206-bestfit-studio-smichov-praha-smichov.html","499"
