"","facility_type","facility_name","facility_iri","facility_distance"
"0","Hřiště","Dětské hřiště Vlašská","https://mapy.cz/zakladni?x=14.3965637143&y=50.0866456561&z=17&source=base&id=1926342","194"
"1","Cukrárna","Bread gap - fresh sandwiches","https://www.firmy.cz/detail/12709423-bread-gap-fresh-sandwiches-praha-mala-strana.html","486"
"2","Hospoda","U Černého vola","https://www.firmy.cz/detail/2682464-u-cerneho-vola-praha-hradcany.html","340"
"3","Divadlo","DIVADLO UNGELT, s.r.o.","https://www.firmy.cz/detail/2615819-divadlo-ungelt-praha-hradcany.html","384"
"4","Večerka","Potraviny Karmelitská 270","https://www.firmy.cz/detail/2219817-potraviny-karmelitska-270-praha-mala-strana.html","532"
"5","Veterinář","MVDr. Aleš Müller","https://www.firmy.cz/detail/2139641-mvdr-ales-muller-praha-brevnov.html","1314"
"6","Kino","Kino Ponrepo","https://www.firmy.cz/detail/396455-kino-ponrepo-praha-stare-mesto.html","1608"
"7","Bus MHD","Šporkova","https://mapy.cz/zakladni?x=14.397959166329874&y=50.087368598749876&z=17&source=pubt&id=15301703","149"
"8","Škola","Základní a praktická škola Jaroslava Ježka pro zrakově postižené","https://www.firmy.cz/detail/361975-zakladni-a-prakticka-skola-jaroslava-jezka-pro-zrakove-postizene-praha-hradcany.html","305"
"9","Tram","Malostranské náměstí","https://mapy.cz/zakladni?x=14.4043268731&y=50.0879770613&z=17&source=pubt&id=15300541","553"
"10","Školka","MŠ Praha 1, Hellichova","https://www.firmy.cz/detail/406822-ms-praha-1-hellichova-praha-mala-strana.html","655"
"11","Vlak","Praha-Dejvice","https://mapy.cz/zakladni?x=14.3996359142&y=50.0969651071&z=17&source=pubt&id=15212556","978"
"12","Lékař","MUDr. Miroslava Chromá - praktický lékař pro dospělé","https://www.firmy.cz/detail/385911-mudr-miroslava-chroma-prakticky-lekar-pro-dospele-praha-mala-strana.html","244"
"13","Lékárna","Lék.Nem.Milosrd.sester sv.K.Boromejského v Praze","https://www.firmy.cz/detail/2307552-lek-nem-milosrd-sester-sv-k-boromejskeho-v-praze-praha-mala-strana.html","152"
"14","Sportoviště","Česká obec sokolská","https://www.firmy.cz/detail/177172-ceska-obec-sokolska-praha-mala-strana.html","807"
"15","Restaurace","Restaurace a vinárna U Císařů","https://www.firmy.cz/detail/443473-restaurace-a-vinarna-u-cisaru-praha-hradcany.html","130"
"16","Bankomat","Bankomat ČSOB","https://www.firmy.cz/detail/2409964-bankomat-csob-praha-hradcany.html","459"
"17","Pošta","Pošta Praha 012 - Česká pošta, s.p.","https://www.firmy.cz/detail/217498-posta-praha-012-praha-hradcany.html","301"
"18","Metro","Malostranská","https://mapy.cz/zakladni?x=14.4094780925&y=50.090845403&z=17&source=pubt&id=15200259","958"
"19","Obchod","palác metro","https://www.firmy.cz/detail/143339-palac-metro-praha-stare-mesto.html","1683"
