"","facility_type","facility_name","facility_iri","facility_distance"
"0","Cukrárna","Smetanová cukrárna","https://www.firmy.cz/detail/2586762-smetanova-cukrarna-praha-dolni-mecholupy.html","525"
"1","Kino","Multikino - Premiere Cinemas Praha Hostivař","https://www.firmy.cz/detail/12745547-multikino-premiere-cinemas-praha-hostivar-praha-hostivar.html","2680"
"2","Přírodní zajímavost","Mokřad Triangl","","2579"
"3","Hřiště","Dětské hřiště Dolnoměcholupská","","102"
"4","Večerka","Potraviny Dolnoměcholupská 39/48","https://www.firmy.cz/detail/13058588-potraviny-dolnomecholupska-39-48-praha-dolni-mecholupy.html","390"
"5","Hospoda","Pivnice U Tomáše","https://www.firmy.cz/detail/13232026-pivnice-u-tomase-praha-dolni-mecholupy.html","477"
"6","Divadlo","Loutkové divadlo Frydolín","https://www.firmy.cz/detail/397086-loutkove-divadlo-frydolin-praha-hostivar.html","1364"
"7","Veterinář","MVDr. Lukáš Naxera - veterinární klinika","https://www.firmy.cz/detail/657788-mvdr-lukas-naxera-veterinarni-klinika-praha-dolni-mecholupy.html","315"
"8","Bus MHD","U Střediska","","273"
"9","Obchod","Štěrboholy Retail Park","https://www.firmy.cz/detail/13185713-sterboholy-retail-park-praha.html","1180"
"10","Škola","Základní škola Dolní Měcholupy","https://www.firmy.cz/detail/356123-zakladni-skola-dolni-mecholupy-praha-dolni-mecholupy.html","481"
"11","Lékárna","Hostivařská lékárna s.r.o.","https://www.firmy.cz/detail/13208850-hostivarska-lekarna-s-r-o-praha-hostivar.html","1055"
"12","Vlak","Praha-Hostivař","","1166"
"13","Restaurace","Měcholupský park","https://www.firmy.cz/detail/13301139-mecholupsky-park-praha-dolni-mecholupy.html","487"
"14","Tram","Nádraží Hostivař","","1263"
"15","Bankomat","Bankomat UniCredit Bank Czech Republic","https://www.firmy.cz/detail/12987165-bankomat-unicredit-bank-czech-republic-praha-dolni-mecholupy.html","284"
"16","Školka","MŠ Dolní Měcholupy Praha","https://www.firmy.cz/detail/807829-ms-dolni-mecholupy-praha-praha-dolni-mecholupy.html","523"
"17","Sportoviště","Venkovní víceúčelové hřiště Dolní Měcholupy - tenisové kurty","https://www.firmy.cz/detail/13265222-venkovni-viceucelove-hriste-dolni-mecholupy-tenisove-kurty-praha.html","372"
"18","Metro","Háje","","3449"
"19","Pošta","Pošta Dolní Měcholupy - Česká pošta, s.p.","https://www.firmy.cz/detail/217156-posta-dolni-mecholupy-praha-dolni-mecholupy.html","284"
"20","Lékař","Dolnoměcholupská zdravotní s.r.o.","https://www.firmy.cz/detail/12839032-dolnomecholupska-zdravotni-s-r-o-praha-dolni-mecholupy.html","284"
