"","facility_type","facility_name","facility_iri","facility_distance"
"0","Cukrárna","Cukrárna Ollies","https://www.firmy.cz/detail/12720535-cukrarna-ollies-ostrava-poruba.html","1698"
"1","Kino","5D cinema Maxim","https://www.firmy.cz/detail/12950606-5d-cinema-maxim-ostrava-zabreh.html","3314"
"2","Přírodní zajímavost","Zábřežský bludný balvan","","3759"
"3","Hřiště","Dětské hřiště Vietnamská","","51"
"4","Večerka","Lidl","https://www.firmy.cz/detail/1955164-lidl-ostrava-svinov.html","457"
"5","Hospoda","Hospůdka Na pátém","https://www.firmy.cz/detail/13101013-hospudka-na-patem-ostrava-poruba.html","331"
"6","Divadlo","Porubské divadlo","https://www.firmy.cz/detail/2543038-porubske-divadlo-ostrava-poruba.html","249"
"7","Veterinář","MVDr. Jan Nytra - veterinární klinika","https://www.firmy.cz/detail/274228-mvdr-jan-nytra-veterinarni-klinika-ostrava-poruba.html","331"
"8","Bus MHD","Mongolská","","29"
"9","Sportoviště","Sportovní hala Svinov","https://www.firmy.cz/detail/13234753-sportovni-hala-svinov-ostrava-svinov.html","619"
"10","Pošta","Pošta Ostrava 36 - Česká pošta, s.p.","https://www.firmy.cz/detail/2591818-posta-ostrava-36-ostrava-trebovice.html","768"
"11","Bankomat","Bankomat Komerční banky","https://www.firmy.cz/detail/594248-bankomat-komercni-banky-ostrava-poruba.html","705"
"12","Lékař","MOJE AMBULANCE","https://www.firmy.cz/detail/2141114-moje-ambulance-ostrava-poruba.html","794"
"13","Školka","ZŠ a MŠ Ostrava-Poruba, Ukrajinská","https://www.firmy.cz/detail/12820615-zs-a-ms-ostrava-poruba-ukrajinska-ostrava-poruba.html","183"
"14","Škola","ZŠ a MŠ Ostrava-Poruba, Ukrajinská","https://www.firmy.cz/detail/1972680-zs-a-ms-ostrava-poruba-ukrajinska-ostrava-poruba.html","183"
"15","Restaurace","Restaurace Parlament","https://www.firmy.cz/detail/2215291-restaurace-parlament-ostrava-poruba.html","379"
"16","Vlak","Ostrava-Svinov","","1115"
"17","Lékárna","Dr. Max LÉKÁRNA","https://www.firmy.cz/detail/2007391-dr-max-lekarna-ostrava-poruba.html","425"
"18","Obchod","Kaufland","https://www.firmy.cz/detail/1532037-kaufland-ostrava-poruba.html","454"
"19","Tram","Třebovice, OC","","532"
