"","facility_type","facility_name","facility_iri","facility_distance"
"0","Cukrárna","Cafe Decada","https://www.firmy.cz/detail/2627206-cafe-decada-praha-liben.html","840"
"1","Kino","Kino Aero","https://www.firmy.cz/detail/399435-kino-aero-praha-zizkov.html","1923"
"2","Přírodní zajímavost","Meandry Rokytky","","2099"
"3","Hřiště","Dětské hřiště U Nové školy","","433"
"4","Večerka","Tesco Expres","https://www.firmy.cz/detail/12883781-tesco-expres-praha-liben.html","357"
"5","Hospoda","POHÁDKA","https://www.firmy.cz/detail/643952-pohadka-praha-liben.html","277"
"6","Divadlo","Divadlo Gong","https://www.firmy.cz/detail/230751-divadlo-gong-praha-liben.html","358"
"7","Veterinář","MVDr. Eva Šeráková","https://www.firmy.cz/detail/477968-mvdr-eva-serakova-praha-vysocany.html","931"
"8","Sportoviště","KAJOT INTACTO","https://www.firmy.cz/detail/12932166-kajot-intacto-praha-liben.html","212"
"9","Škola","Střední škola a vyšší odborná škola umělecká a řemeslná","https://www.firmy.cz/detail/2231035-stredni-skola-a-vyssi-odborna-skola-umelecka-a-remeslna-praha-liben.html","279"
"10","Restaurace","Burger King","https://www.firmy.cz/detail/2646454-burger-king-praha-liben.html","82"
"11","Vlak","Praha-Libeň","","940"
"12","Obchod","Albert Hypermarket","https://www.firmy.cz/detail/12924399-albert-hypermarket-praha-liben.html","76"
"13","Pošta","Pošta Praha 8 - Česká pošta, s.p.","https://www.firmy.cz/detail/216711-posta-praha-8-praha-liben.html","878"
"14","Metro","Českomoravská","","412"
"15","Bankomat","Bankomat ČSOB","https://www.firmy.cz/detail/12777656-bankomat-csob-praha-liben.html","92"
"16","Bus MHD","Českomoravská","","315"
"17","Lékárna","Lékárna Cithara","https://www.firmy.cz/detail/12969935-lekarna-cithara-praha-liben.html","107"
"18","Školka","MŠ Praha, U Nové školy","https://www.firmy.cz/detail/623335-ms-praha-u-nove-skoly-praha-vysocany.html","425"
"19","Tram","Ocelářská","","34"
"20","Lékař","Městská nemocnice následné péče","https://www.firmy.cz/detail/159403-mestska-nemocnice-nasledne-pece-praha-vysocany.html","611"
