"","facility_type","facility_name","facility_iri","facility_distance"
"0","Cukrárna","CUKRÁRNA DIAM","https://www.firmy.cz/detail/13029765-cukrarna-diam-brno-bystrc.html","240"
"1","Přírodní zajímavost","Koniklecová louka","","5459"
"2","Hřiště","Dětské hřiště Křepelčí","","59"
"3","Večerka","Albert Supermarket","https://www.firmy.cz/detail/12953406-albert-supermarket-brno-bystrc.html","273"
"4","Hospoda","Putyka","https://www.firmy.cz/detail/13131256-putyka-brno-zebetin.html","291"
"5","Veterinář","Veterinární centrum Akuvet","https://www.firmy.cz/detail/13230978-veterinarni-centrum-akuvet-brno-bystrc.html","174"
"6","Lékárna","Lékárna Kamechy","https://www.firmy.cz/detail/12971743-lekarna-kamechy-brno-bystrc.html","273"
"7","Restaurace","PIZZA DON MARCO","https://www.firmy.cz/detail/13035078-pizza-don-marco-brno-zebetin.html","75"
"8","Bus MHD","Říčanská","","159"
"9","Tram","Ečerova","","872"
"10","Školka","Mateřská škola KAMECHY, Brno, Kavčí 3","https://www.firmy.cz/detail/13098813-materska-skola-kamechy-brno-kavci-3-brno-bystrc.html","163"
"11","Bankomat","Bankomat Fio banky","https://www.firmy.cz/detail/12950498-bankomat-fio-banky-brno.html","244"
"12","Sportoviště","Forest Walking Park Brno - Přehrada","","515"
"13","Pošta","Pošta Brno 41 - Česká pošta, s.p.","https://www.firmy.cz/detail/12785621-posta-brno-41-brno-zebetin.html","1366"
"14","Lékař","Ordinace Řiháčkovi, s.r.o.","https://www.firmy.cz/detail/13287316-ordinace-rihackovi-brno-zebetin.html","291"
"15","Škola","ZŠ Brno, Otevřená","https://www.firmy.cz/detail/356516-zs-brno-otevrena-brno-zebetin.html","1107"
"16","Obchod","OC MAX s.r.o.","https://www.firmy.cz/detail/13171099-oc-max-s-r-o-brno-bystrc.html","1587"
