"","facility_type","facility_name","facility_iri","facility_distance"
"0","Cukrárna","Rodinné centrum Pampalánie","https://www.firmy.cz/detail/12952995-rodinne-centrum-pampalanie-usti-nad-labem-severni-terasa.html","602"
"1","Kino","Letní kino Ústí nad Labem","https://www.firmy.cz/detail/2556284-letni-kino-usti-nad-labem-usti-nad-labem.html","1471"
"2","Hřiště","Dětské hřiště Severní Terasa","","386"
"3","Večerka","NORMA","https://www.firmy.cz/detail/2182325-norma-usti-nad-labem-severni-terasa.html","61"
"4","Hospoda","Sport Pivnice Dřevák","https://www.firmy.cz/detail/12895702-sport-pivnice-drevak-usti-nad-labem-severni-terasa.html","473"
"5","Divadlo","Severočeské divadlo, s.r.o.","https://www.firmy.cz/detail/12720983-severoceske-divadlo-usti-nad-labem-centrum.html","1940"
"6","Veterinář","Veterinární klinika Mi-Vet","https://www.firmy.cz/detail/177515-veterinarni-klinika-mi-vet-usti-nad-labem-severni-terasa.html","342"
"7","Bankomat","Vkladomat České spořitelny","https://www.firmy.cz/detail/13238685-vkladomat-ceske-sporitelny-usti-nad-labem-severni-terasa.html","326"
"8","Pošta","Pošta Ústí nad Labem 11 - Česká pošta, s.p.","https://www.firmy.cz/detail/215961-posta-usti-nad-labem-11-usti-nad-labem-severni-terasa.html","488"
"9","Vlak","Ústí nad Labem západ","","2166"
"10","Bus MHD","Krušnohorská","","115"
"11","Lékař","MUDr. Jurčová PRAKTIK, s.r.o.","https://www.firmy.cz/detail/12842636-mudr-jurcova-praktik-usti-nad-labem-severni-terasa.html","649"
"12","Restaurace","Restaurace Brooklyn","https://www.firmy.cz/detail/749535-restaurace-brooklyn-usti-nad-labem-severni-terasa.html","139"
"13","Obchod","Albert Hypermarket","https://www.firmy.cz/detail/229751-albert-hypermarket-usti-nad-labem-severni-terasa.html","326"
"14","Lékárna","Dr. Max","https://www.firmy.cz/detail/12857068-dr-max-usti-nad-labem-severni-terasa.html","326"
"15","Školka","MŠ Stříbrníky Ústí nad Labem","https://www.firmy.cz/detail/1620084-ms-stribrniky-usti-nad-labem-usti-nad-labem-severni-terasa.html","584"
"16","Škola","Gymnázium a Střední odborná škola dr. Václava Šmejkala, Ústí nad Labem","https://www.firmy.cz/detail/361796-gymnazium-a-stredni-odborna-skola-dr-vaclava-smejkala-usti-nad-labem-usti-nad-labem-severni-terasa.html","246"
"17","Sportoviště","SK Severák Ústí nad Labem","https://www.firmy.cz/detail/2650599-sk-severak-usti-nad-labem-usti-nad-labem-severni-terasa.html","396"
