"","facility_type","facility_name","facility_iri","facility_distance"
"0","Cukrárna","Shothouse","https://www.firmy.cz/detail/13286217-shothouse-havirov-mesto.html","402"
"1","Kino","Kino Centrum","https://www.firmy.cz/detail/12780436-kino-centrum-havirov-mesto.html","619"
"2","Hřiště","Dětské hřiště Mánesova","","236"
"3","Večerka","HRUŠKA","https://www.firmy.cz/detail/12863532-hruska-havirov-mesto.html","185"
"4","Hospoda","Autobar","https://www.firmy.cz/detail/13277623-autobar-havirov-mesto.html","145"
"5","Veterinář","Veterinární ordinace u Nemocnice","https://www.firmy.cz/detail/13319420-veterinarni-ordinace-u-nemocnice-havirov-mesto.html","518"
"6","Restaurace","Vegan House","https://www.firmy.cz/detail/13309606-vegan-house-havirov-mesto.html","161"
"7","Lékárna","Lékárna U Elišky","https://www.firmy.cz/detail/421095-lekarna-u-elisky-havirov-mesto.html","342"
"8","Sportoviště","Tenisové kurty Paulát","https://www.firmy.cz/detail/13095949-tenisove-kurty-paulat-havirov-mesto.html","113"
"9","Lékař","DOKTOR MONTAG, s.r.o.","https://www.firmy.cz/detail/2669657-doktor-montag-havirov-mesto.html","521"
"10","Bus MHD","Havířov, Město, Mozartova","","198"
"11","Bankomat","Bankomat Komerční banky","https://www.firmy.cz/detail/12973620-bankomat-komercni-banky-havirov-mesto.html","428"
"12","Pošta","Pošta Havířov 1 - Česká pošta, s.p.","https://www.firmy.cz/detail/431627-posta-havirov-1-havirov-mesto.html","511"
"13","Školka","MŠ Havířov, Resslova","https://www.firmy.cz/detail/407410-ms-havirov-resslova-havirov-mesto.html","86"
"14","Obchod","Obchodní centrum Elan","https://www.firmy.cz/detail/2181587-obchodni-centrum-elan-havirov-mesto.html","603"
"15","Škola","Střední průmyslová škola elektrotechnická, Havířov","https://www.firmy.cz/detail/362589-stredni-prumyslova-skola-elektrotechnicka-havirov-havirov-mesto.html","135"
"16","Vlak","Havířov-střed","","913"
