"","facility_type","facility_name","facility_iri","facility_distance"
"0","Cukrárna","MaMa's Caffé","https://www.firmy.cz/detail/13155978-mama-s-caffe-plzen-vychodni-predmesti.html","41"
"1","Kino","Kino Beseda","https://www.firmy.cz/detail/12773769-kino-beseda-plzen-jizni-predmesti.html","1157"
"2","Hřiště","Dětské hřiště","","329"
"3","Večerka","Večerka MP","https://www.firmy.cz/detail/12960334-vecerka-mp-plzen-vychodni-predmesti.html","124"
"4","Hospoda","Hemingway Pub","https://www.firmy.cz/detail/2456163-hemingway-pub-plzen-vychodni-predmesti.html","10"
"5","Divadlo","Divadlo Dialog","https://www.firmy.cz/detail/401465-divadlo-dialog-plzen-jizni-predmesti.html","1332"
"6","Veterinář","Veterinární ordinace Slovany","https://www.firmy.cz/detail/470912-veterinarni-ordinace-slovany-plzen-vychodni-predmesti.html","616"
"7","Sportoviště","Laser Game Plzeň","https://www.firmy.cz/detail/13098320-laser-game-plzen-plzen-vychodni-predmesti.html","185"
"8","Tram","U Duhy","","129"
"9","Obchod","Galerie Slovany, s.r.o.","https://www.firmy.cz/detail/2301407-galerie-slovany-plzen-vychodni-predmesti.html","1069"
"10","Restaurace","Masala Ghar","https://www.firmy.cz/detail/13096006-masala-ghar-plzen-vychodni-predmesti.html","82"
"11","Bus MHD","U Duhy","","221"
"12","Bankomat","Bankomat České spořitelny","https://www.firmy.cz/detail/593970-bankomat-ceske-sporitelny-plzen-vychodni-predmesti.html","247"
"13","Lékař","LV - praktický lékař s.r.o.","https://www.firmy.cz/detail/13283322-lv-prakticky-lekar-s-r-o-plzen-vychodni-predmesti.html","193"
"14","Vlak","Plzeň hlavní nádraží","","596"
"15","Lékárna","Na Slovanské","https://www.firmy.cz/detail/376043-na-slovanske-plzen-vychodni-predmesti.html","173"
"16","Školka","Centrum Cvrček","https://www.firmy.cz/detail/13343453-centrum-cvrcek-plzen-vychodni-predmesti.html","127"
"17","Pošta","Pošta Plzeň 8 - Česká pošta, s.p.","https://www.firmy.cz/detail/216660-posta-plzen-8-plzen-vychodni-predmesti.html","479"
"18","Škola","Církevní gymnázium Plzeň","https://www.firmy.cz/detail/361766-cirkevni-gymnazium-plzen-plzen-vychodni-predmesti.html","134"
