"","facility_type","facility_name","facility_iri","facility_distance"
"0","Cukrárna","Cukrárna Dolce Vita","https://www.firmy.cz/detail/13016450-cukrarna-dolce-vita-kladno.html","168"
"1","Kino","Kino Sokol Kladno","https://www.firmy.cz/detail/13179300-kino-sokol-kladno-kladno.html","90"
"2","Přírodní zajímavost","Vodní park Čabárna","","4798"
"3","Hřiště","Dětské hřiště Zádušní","","208"
"4","Večerka","Centrum nákup ANPRO","https://www.firmy.cz/detail/13306844-centrum-nakup-anpro-kladno.html","106"
"5","Hospoda","Klub Moo","https://www.firmy.cz/detail/13095802-klub-moo-kladno.html","572"
"6","Divadlo","Loutkové divadlo Lampion","https://www.firmy.cz/detail/733471-loutkove-divadlo-lampion-kladno.html","382"
"7","Veterinář","Veterinární ordinace ANEŽKA","https://www.firmy.cz/detail/13013573-veterinarni-ordinace-anezka-kladno.html","466"
"8","Bankomat","Bankomat Air Bank","https://www.firmy.cz/detail/13100794-bankomat-air-bank-kladno.html","18"
"9","Škola","ZŠ Kladno, Vašatova","https://www.firmy.cz/detail/357653-zs-kladno-vasatova-kladno.html","136"
"10","Pošta","Pošta Kladno 5 - Česká pošta, s.p.","https://www.firmy.cz/detail/216835-posta-kladno-5-kladno.html","181"
"11","Lékárna","Lékárna Centrum","https://www.firmy.cz/detail/189597-lekarna-centrum-kladno.html","175"
"12","Restaurace","Restaurace Průchodní 346","https://www.firmy.cz/detail/13113957-restaurace-pruchodni-346-kladno.html","19"
"13","Bus MHD","Kladno, Nám. Svobody","","55"
"14","Sportoviště","Diamond Angels Academy","https://www.firmy.cz/detail/12740434-diamond-angels-academy-kladno.html","71"
"15","Lékař","LENIPELI s.r.o.","https://www.firmy.cz/detail/12835771-lenipeli-s-r-o-kladno.html","226"
"16","Obchod","Central Kladno","https://www.firmy.cz/detail/12966933-central-kladno-kladno.html","576"
"17","Vlak","Kladno-Ostrovec","","723"
"18","Školka","Mateřská škola Duhový svět","https://www.firmy.cz/detail/12746593-materska-skola-duhovy-svet-kladno.html","702"
