"","facility_type","facility_name","facility_iri","facility_distance"
"0","Cukrárna","Vnitroblok","https://www.firmy.cz/detail/13252118-vnitroblok-plzen-skvrnany.html","1676"
"1","Kino","Cinema City Plzeň","https://www.firmy.cz/detail/2246853-cinema-city-plzen-plzen-jizni-predmesti.html","4457"
"2","Hřiště","Dětské hřiště Kreuzmannova","","1427"
"3","Večerka","Pekařství Kučera","https://www.firmy.cz/detail/2628132-pekarstvi-kucera-plzen-skvrnany.html","1575"
"4","Divadlo","Loutkové divadlo V Boudě","https://www.firmy.cz/detail/401478-loutkove-divadlo-v-boude-plzen-skvrnany.html","1725"
"5","Veterinář","MVDr. Lenka Holečková","https://www.firmy.cz/detail/306622-mvdr-lenka-holeckova-plzen.html","907"
"6","Hospoda","Tělovýchovná jednota Vodní stavby Plzeň, z. s.","https://www.firmy.cz/detail/13145777-telovychovna-jednota-vodni-stavby-plzen-z-s-plzen-skvrnany.html","1120"
"7","Lékař","MUDr. Jaroslava Hodková","https://www.firmy.cz/detail/389244-mudr-jaroslava-hodkova-plzen-nova-hospoda.html","55"
"8","Lékárna","Lékárna Skvrňany","https://www.firmy.cz/detail/376231-lekarna-skvrnany-plzen-skvrnany.html","1479"
"9","Restaurace","Restaurace Sokolovna","https://www.firmy.cz/detail/2117150-restaurace-sokolovna-plzen-nova-hospoda.html","553"
"10","Obchod","MAKRO Cash & Carry","https://www.firmy.cz/detail/325619-makro-cash-carry-plzen-skvrnany.html","792"
"11","Bankomat","Bankomat ČSOB","https://www.firmy.cz/detail/13035108-bankomat-csob-plzen-skvrnany.html","792"
"12","Pošta","Pošta Nová Hospoda","https://www.firmy.cz/detail/13307212-posta-nova-hospoda-plzen-nova-hospoda.html","55"
"13","Bus MHD","Nová Hospoda","","239"
"14","Škola","33. ZŠ Plzeň","https://www.firmy.cz/detail/356115-33-zs-plzen-plzen-skvrnany.html","1359"
"15","Školka","70. MŠ Plzeň","https://www.firmy.cz/detail/360447-70-ms-plzen-plzen-skvrnany.html","1321"
"16","Sportoviště","Tělocvičná jednota Sokol Plzeň - Nová Hospoda, o.s.","https://www.firmy.cz/detail/2131901-telocvicna-jednota-sokol-plzen-nova-hospoda-o-s-plzen-nova-hospoda.html","553"
"17","Tram","Macháčkova","","1471"
"18","Vlak","Plzeň-Zadní Skvrňany","","1883"
