"","facility_type","facility_name","facility_iri","facility_distance"
"0","Hřiště","Dětské hřiště Okružní","https://mapy.cz/zakladni?x=17.661022355&y=49.0271360733&z=17&source=base&id=1928735","85"
"1","Večerka","Penny Market","https://www.firmy.cz/detail/207822-penny-market-uhersky-brod.html","131"
"2","Hospoda","Hospůdka Černá Hora","https://www.firmy.cz/detail/12879921-hospudka-cerna-hora-uhersky-brod.html","1027"
"3","Cukrárna","BonCafé","https://www.firmy.cz/detail/13125009-boncafe-uhersky-brod.html","1003"
"4","Veterinář","Veterinární klinika Kaděra, s.r.o.","https://www.firmy.cz/detail/12940244-veterinarni-klinika-kadera-s-r-o-uhersky-brod.html","870"
"5","Kino","Kino Máj","https://www.firmy.cz/detail/396554-kino-maj-uhersky-brod.html","380"
"6","Divadlo","Divadlo Brod","https://www.firmy.cz/detail/2321789-divadlo-brod-uhersky-brod.html","1015"
"7","Sportoviště","Tenisový klub TSRM, z.s.","https://www.firmy.cz/detail/12859457-tenisovy-klub-tsrm-z-s-uhersky-brod.html","777"
"8","Vlak","Uherský Brod","https://mapy.cz/zakladni?x=17.6435150458&y=49.0218068642&z=17&source=pubt&id=15698568","1357"
"9","Restaurace","Restaurace Borka","https://www.firmy.cz/detail/12753537-restaurace-borka-uhersky-brod.html","78"
"10","Školka","MŠ Uherský Brod, Obchodní","https://www.firmy.cz/detail/1986567-ms-uhersky-brod-obchodni-uhersky-brod.html","361"
"11","Bus MHD","Uherský Brod, Močidla","https://mapy.cz/zakladni?x=17.6597066381211&y=49.0260733005167&z=17&source=pubt&id=15311322","85"
"12","Bankomat","Bankomat ČSOB","https://www.firmy.cz/detail/12965671-bankomat-csob-uhersky-brod.html","554"
"13","Škola","ZŠ Uherský Brod, Pod Vinohrady","https://www.firmy.cz/detail/359824-zs-uhersky-brod-pod-vinohrady-uhersky-brod.html","520"
"14","Pošta","Pošta Uherský Brod 2 - Česká pošta, s.p.","https://www.firmy.cz/detail/433591-posta-uhersky-brod-2-uhersky-brod.html","310"
"15","Lékárna","Lékárna Uherský Brod - sídliště","https://www.firmy.cz/detail/376270-lekarna-uhersky-brod-sidliste-uhersky-brod.html","674"
"16","Lékař","MUDr. Roman Kouša","https://www.firmy.cz/detail/390789-mudr-roman-kousa-uhersky-brod.html","576"
"17","Obchod","Tesco","https://www.firmy.cz/detail/653538-tesco-uhersky-brod.html","554"
