"","facility_type","facility_name","facility_iri","facility_distance"
"0","Cukrárna","Cukrárna Aida","https://www.firmy.cz/detail/13138858-cukrarna-aida-brno-komin.html","670"
"1","Kino","Kino Lucerna","https://www.firmy.cz/detail/638240-kino-lucerna-brno-zabovresky.html","1853"
"2","Přírodní zajímavost","Přírodní zahrada U Smrku","","2114"
"3","Hřiště","Dětské hřiště na Kozí hoře","","236"
"4","Večerka","Smíšené zboží U Helči","https://www.firmy.cz/detail/12753476-smisene-zbozi-u-helci-brno-komin.html","602"
"5","Hospoda","Pivnice - KOMÍN PUB","https://www.firmy.cz/detail/13171373-pivnice-komin-pub-brno-komin.html","435"
"6","Divadlo","Divadlo Strom","https://www.firmy.cz/detail/12762146-divadlo-strom-brno-zabovresky.html","1707"
"7","Veterinář","Veterinární klinika Dr. Snášila","https://www.firmy.cz/detail/286686-veterinarni-klinika-dr-snasila-brno-komin.html","339"
"8","Pošta","Pošta Brno 24 - Česká pošta, s.p.","https://www.firmy.cz/detail/431926-posta-brno-24-brno-komin.html","228"
"9","Lékárna","Lékárna Komín","https://www.firmy.cz/detail/13169266-lekarna-komin-brno-komin.html","694"
"10","Restaurace","Burger bar Kominíček","https://www.firmy.cz/detail/13094548-burger-bar-kominicek-brno-komin.html","64"
"11","Obchod","OC Perla, a.s.","https://www.firmy.cz/detail/12875818-oc-perla-brno-zabovresky.html","1408"
"12","Tram","Komín, smyčka","","535"
"13","Škola","Střední škola informatiky, poštovnictví a finančnictví Brno","https://www.firmy.cz/detail/231609-stredni-skola-informatiky-postovnictvi-a-financnictvi-brno-brno-komin.html","431"
"14","Sportoviště","Tenisová škola TALLENT","https://www.firmy.cz/detail/722853-tenisova-skola-tallent-brno-komin.html","466"
"15","Lékař","MUDr. Martina Nedělníková","https://www.firmy.cz/detail/1351024-mudr-martina-nedelnikova-brno-komin.html","431"
"16","Bankomat","Bankomat MONETA Money Bank","https://www.firmy.cz/detail/2250672-bankomat-moneta-money-bank-brno-komin.html","634"
"17","Bus MHD","Štursova","","213"
"18","Vlak","Brno-Královo Pole","","2846"
"19","Školka","Lištička - lesní mateřská škola","https://www.firmy.cz/detail/13324014-listicka-lesni-materska-skola-brno.html","315"
