"","facility_type","facility_name","facility_iri","facility_distance"
"0","Cukrárna","Vagón cafe bar","https://www.firmy.cz/detail/13045441-vagon-cafe-bar-frydek-mistek.html","154"
"1","Kino","Kino Nová scéna Vlast","https://www.firmy.cz/detail/396685-kino-nova-scena-vlast-frydek-mistek-mistek.html","1023"
"2","Přírodní zajímavost","Bludné balvany ve Frýdeckém lese","","3533"
"3","Hřiště","Dětské hřiště Janáčkův park","","239"
"4","Večerka","HRUŠKA","https://www.firmy.cz/detail/13206458-hruska-frydek-mistek-mistek.html","225"
"5","Hospoda","Hostinec U Goje","https://www.firmy.cz/detail/13115682-hostinec-u-goje-stare-mesto.html","884"
"6","Divadlo","Divadlo Nová scéna Vlast","https://www.firmy.cz/detail/661522-divadlo-nova-scena-vlast-frydek-mistek-mistek.html","1023"
"7","Veterinář","MVDr. Dalibor Ress","https://www.firmy.cz/detail/1970359-mvdr-dalibor-ress-frydek-mistek-mistek.html","423"
"8","Pošta","Pošta Frýdek-Místek 14 - Česká pošta, s.p.","https://www.firmy.cz/detail/432960-posta-frydek-mistek-14-frydek-mistek-mistek.html","206"
"9","Vlak","Frýdek-Místek","","877"
"10","Obchod","PRIOR ČESKÁ REPUBLIKA s.r.o.","https://www.firmy.cz/detail/1956970-prior-ceska-republika-s-r-o-frydek-mistek-mistek.html","753"
"11","Škola","Střední škola, ZŠ a MŠ Frýdek-Místek","https://www.firmy.cz/detail/362735-stredni-skola-zs-a-ms-frydek-mistek-frydek-mistek-mistek.html","221"
"12","Lékárna","Lékárna Viola","https://www.firmy.cz/detail/13210897-lekarna-viola-frydek-mistek-mistek.html","1017"
"13","Bus MHD","Místek, Baseballové hřiště","","117"
"14","Školka","Mateřská škola se zdravotnickou péčí, s.r.o.","https://www.firmy.cz/detail/1950444-materska-skola-se-zdravotnickou-peci-frydek-mistek-mistek.html","210"
"15","Lékař","MUDr. Monika Šiková","https://www.firmy.cz/detail/1969433-mudr-monika-sikova-frydek-mistek-mistek.html","481"
"16","Restaurace","Restaurace Jadran","https://www.firmy.cz/detail/441865-restaurace-jadran-frydek-mistek-mistek.html","206"
"17","Sportoviště","Bowlingové centrum Jadran","https://www.firmy.cz/detail/13071454-bowlingove-centrum-jadran-frydek-mistek-mistek.html","206"
"18","Bankomat","Bankomat MONETA Money Bank","https://www.firmy.cz/detail/1691461-bankomat-moneta-money-bank-frydek-mistek-mistek.html","753"
