"","facility_type","facility_name","facility_iri","facility_distance"
"0","Cukrárna","MOCCO BAR - SAFARI","https://www.firmy.cz/detail/13115617-mocco-bar-safari-vodnany-i.html","238"
"1","Kino","Kino Vodňany","https://www.firmy.cz/detail/457648-kino-vodnany-vodnany-ii.html","148"
"2","Hřiště","Dětské hřiště v parku Jana Pavla II.","","90"
"3","Večerka","COOP","https://www.firmy.cz/detail/12949326-coop-vodnany-ii.html","210"
"4","Hospoda","Hospůdka na Statku U Šťástků","https://www.firmy.cz/detail/12982363-hospudka-na-statku-u-stastku-vodnany-ii.html","940"
"5","Divadlo","Loutkové divadlo Pimprlata","https://www.firmy.cz/detail/12720831-loutkove-divadlo-pimprlata-vodnany-ii.html","148"
"6","Veterinář","MVDr. Lenka Vajsová","https://www.firmy.cz/detail/12910040-mvdr-lenka-vajsova-vodnany-i.html","410"
"7","Pošta","Pošta Vodňany - Česká pošta, s.p.","https://www.firmy.cz/detail/216975-posta-vodnany-vodnany-ii.html","0"
"8","Lékař","MUDr. Jan Egert","https://www.firmy.cz/detail/387125-mudr-jan-egert-vodnany-i.html","232"
"9","Školka","Mateřská škola SLUNÍČKO Vodňany, s.r.o.","https://www.firmy.cz/detail/662702-materska-skola-slunicko-vodnany-vodnany-ii.html","578"
"10","Lékárna","BENU Lékárna","https://www.firmy.cz/detail/12744487-benu-lekarna-vodnany-i.html","251"
"11","Restaurace","Restaurace U Zástavů","https://www.firmy.cz/detail/337929-restaurace-u-zastavu-vodnany-ii.html","213"
"12","Vlak","Vodňany","","90"
"13","Bus MHD","Vodňany, žel.st.","","91"
"14","Bankomat","Bankomat ČSOB","https://www.firmy.cz/detail/2579248-bankomat-csob-vodnany-ii.html","0"
"15","Škola","Střední odborné učiliště služeb Vodňany","https://www.firmy.cz/detail/759470-stredni-odborne-uciliste-sluzeb-vodnany-vodnany-ii.html","218"
"16","Sportoviště","Koupaliště Vodňany","https://www.firmy.cz/detail/13329967-koupaliste-vodnany-vodnany.html","341"
