"","facility_type","facility_name","facility_iri","facility_distance"
"0","Cukrárna","Cukrárna U Losa","https://www.firmy.cz/detail/2197073-cukrarna-u-losa-brno-zidenice.html","858"
"1","Kino","5D cinema Maxim","https://www.firmy.cz/detail/12734839-5d-cinema-maxim-brno-mesto.html","3998"
"2","Přírodní zajímavost","Cesta rákosím","","2097"
"3","Hřiště","Dětské hřiště Čejkovická","","574"
"4","Večerka","Lidl","https://www.firmy.cz/detail/12716447-lidl-brno-lisen.html","267"
"5","Hospoda","Hospůdka Na hřišti","https://www.firmy.cz/detail/12707503-hospudka-na-hristi-brno-zidenice.html","881"
"6","Divadlo","divadlo LÍŠEŇ","https://www.firmy.cz/detail/2145854-divadlo-lisen-brno-lisen.html","2436"
"7","Veterinář","Veterinární ordinace MVDr. Boris Seman","https://www.firmy.cz/detail/12898615-veterinarni-ordinace-mvdr-boris-seman-brno-zidenice.html","1096"
"8","Lékárna","BENU Lékárna","https://www.firmy.cz/detail/13301370-benu-lekarna-brno-lisen.html","579"
"9","Lékař","Praktlek, s.r.o.","https://www.firmy.cz/detail/13293712-praktlek-brno-lisen.html","326"
"10","Bus MHD","Malá Klajdovka","","284"
"11","Tram","Líšeňská","","127"
"12","Sportoviště","Badminton Líšeň.cz","https://www.firmy.cz/detail/13162654-badminton-lisen-cz-brno-lisen.html","473"
"13","Pošta","Pošta Brno 28 - Česká pošta, s.p.","https://www.firmy.cz/detail/216047-posta-brno-28-brno-lisen.html","822"
"14","Školka","MŠ International School of Brno","https://www.firmy.cz/detail/13218073-ms-international-school-of-brno-brno-zidenice.html","399"
"15","Bankomat","Bankomat MONETA Money Bank","https://www.firmy.cz/detail/13218728-bankomat-moneta-money-bank-brno-lisen.html","267"
"16","Restaurace","Restaurace Bowling centrum Brno","https://www.firmy.cz/detail/13155983-restaurace-bowling-centrum-brno-brno-zidenice.html","254"
"17","Vlak","Brno-Židenice","","2321"
"18","Obchod","Líšeňské centrum obchodu a služeb, s.r.o.","https://www.firmy.cz/detail/2510623-lisenske-centrum-obchodu-a-sluzeb-brno-lisen.html","1139"
"19","Škola","Střední škola strojírenská a elektrotechnická Brno, Trnkova","https://www.firmy.cz/detail/360764-stredni-skola-strojirenska-a-elektrotechnicka-brno-trnkova-brno-lisen.html","242"
