"","facility_type","facility_name","facility_iri","facility_distance"
"0","Cukrárna","CUKRÁŘSTVÍ ONDŘEJÍČKOVI, s.r.o.","https://www.firmy.cz/detail/2010110-cukrarstvi-ondrejickovi-otovice.html","925"
"1","Kino","Kino Drahomíra z.s.","https://www.firmy.cz/detail/13126576-kino-drahomira-z-s-karlovy-vary-drahovice.html","2442"
"2","Přírodní zajímavost","Karlův hvozd","","4449"
"3","Hřiště","Dětské hřiště Hlavní","","996"
"4","Večerka","Jednota, spotřební družstvo v Toužimi – COOP","https://www.firmy.cz/detail/2345022-jednota-spotrebni-druzstvo-v-touzimi-coop-dalovice.html","1067"
"5","Hospoda","Hospoda Děpoltovická 	225","https://www.firmy.cz/detail/13108724-hospoda-depoltovicka-225-otovice.html","977"
"6","Divadlo","Divadlo Dagmar","https://www.firmy.cz/detail/396851-divadlo-dagmar-karlovy-vary-drahovice.html","2699"
"7","Veterinář","MVDr. Jaroslav Štekl","https://www.firmy.cz/detail/625301-mvdr-jaroslav-stekl-dalovice.html","1616"
"8","Vlak","Dalovice","","217"
"9","Bus MHD","Nádraží Dalovice","","64"
"10","Škola","ZŠ a MŠ Regionu Karlovarský venkov, Otovice","https://www.firmy.cz/detail/2644619-zs-a-ms-regionu-karlovarsky-venkov-otovice-otovice.html","1018"
"11","Školka","ZŠ a MŠ Regionu Karlovarský venkov, Otvice","https://www.firmy.cz/detail/2644622-zs-a-ms-regionu-karlovarsky-venkov-otvice-otovice.html","1018"
"12","Restaurace","Restaurace Krčma","https://www.firmy.cz/detail/13155600-restaurace-krcma-dalovice.html","1032"
"13","Pošta","Pošta Otovice u Karlových Var - Česká pošta, s.p.","https://www.firmy.cz/detail/216577-posta-otovice-u-karlovych-var-otovice.html","893"
"14","Sportoviště","TJ Čechie Dalovice","https://www.firmy.cz/detail/13077504-tj-cechie-dalovice-dalovice.html","1454"
"15","Bankomat","Bankomat Euronet","https://www.firmy.cz/detail/13055646-bankomat-euronet-karlovy-vary.html","2533"
"16","Obchod","Obchodní centrum Perla","https://www.firmy.cz/detail/13219298-obchodni-centrum-perla-karlovy-vary.html","3167"
"17","Lékárna","Lékárna U Gymnázia","https://www.firmy.cz/detail/420968-lekarna-u-gymnazia-karlovy-vary-drahovice.html","2367"
"18","Lékař","MUDr. Sylva Holíková","https://www.firmy.cz/detail/387209-mudr-sylva-holikova-otovice.html","363"
