"","facility_type","facility_name","facility_iri","facility_distance"
"0","Cukrárna","Kavárna v Pasáži Sofie","https://www.firmy.cz/detail/13124074-kavarna-v-pasazi-sofie-praha-modrany.html","1208"
"1","Kino","Modřanský biograf","https://www.firmy.cz/detail/13272765-modransky-biograf-praha-modrany.html","1972"
"2","Hřiště","Dětské hřiště Pavelkova","","182"
"3","Večerka","Potraviny Flop TOP","https://www.firmy.cz/detail/13341064-potraviny-flop-top-praha-modrany.html","355"
"4","Divadlo","Divadlo Na Cikorce","https://www.firmy.cz/detail/2387865-divadlo-na-cikorce-praha-modrany.html","1961"
"5","Hospoda","Corso hospoda","https://www.firmy.cz/detail/12992965-corso-hospoda-praha-modrany.html","982"
"6","Veterinář","Vethope s.r.o. - veterinární klinika","https://www.firmy.cz/detail/12949094-vethope-s-r-o-veterinarni-klinika-praha-modrany.html","1256"
"7","Restaurace","Restaurant Mont Fort Praha","https://www.firmy.cz/detail/12764805-restaurant-mont-fort-praha-praha-modrany.html","324"
"8","Školka","MŠ Pertoldova","https://www.firmy.cz/detail/12790557-ms-pertoldova-praha-modrany.html","282"
"9","Sportoviště","Tenisová škola Tallent","https://www.firmy.cz/detail/722759-tenisova-skola-tallent-praha-modrany.html","1296"
"10","Bus MHD","Na Beránku","","157"
"11","Škola","ZŠ a MŠ Na Beránku, Praha 12","https://www.firmy.cz/detail/356178-zs-a-ms-na-beranku-praha-12-praha-modrany.html","282"
"12","Bankomat","Bankomat Fio banky","https://www.firmy.cz/detail/12936423-bankomat-fio-banky-praha-modrany.html","1098"
"13","Obchod","Obchodní pasáž Sofie","https://www.firmy.cz/detail/217785-obchodni-pasaz-sofie-praha-modrany.html","1212"
"14","Tram","Sídliště Modřany","","714"
"15","Pošta","Pošta Praha 412 - Česká pošta, s.p.","https://www.firmy.cz/detail/217477-posta-praha-412-praha-modrany.html","1268"
"16","Lékárna","Lékárna Scarabeus","https://www.firmy.cz/detail/12799840-lekarna-scarabeus-praha-modrany.html","1279"
"17","Metro","Roztyly","","5418"
"18","Lékař","MUDr. Miloš Bareš, s.r.o.","https://www.firmy.cz/detail/12838489-mudr-milos-bares-praha-modrany.html","1116"
"19","Vlak","Praha-Modřany zastávka","","2078"
