"","facility_type","facility_name","facility_iri","facility_distance"
"0","Cukrárna","Cukrárna Pomeranč","https://www.firmy.cz/detail/12992954-cukrarna-pomeranc-praha-motol.html","500"
"1","Kino","Kino Dlabačov","https://www.firmy.cz/detail/13024517-kino-dlabacov-praha-brevnov.html","3339"
"2","Přírodní zajímavost","Kovářovic mez","","3993"
"3","Hřiště","Dětské hřiště Za Oborou","","217"
"4","Večerka","Samoobsluha Achillea","https://www.firmy.cz/detail/12993017-samoobsluha-achillea-praha-motol.html","497"
"5","Hospoda","Pivnice Darda","https://www.firmy.cz/detail/13111765-pivnice-darda-praha-repy.html","943"
"6","Divadlo","KAŠTAN - Scéna Unijazzu","https://www.firmy.cz/detail/397273-kastan-scena-unijazzu-praha-brevnov.html","1958"
"7","Veterinář","Veterinární klinika - MVDr. Jaroslava Doškářová","https://www.firmy.cz/detail/471775-veterinarni-klinika-mvdr-jaroslava-doskarova-praha-motol.html","771"
"8","Sportoviště","Přírodní koupaliště Motol","https://www.firmy.cz/detail/13115406-prirodni-koupaliste-motol-praha.html","737"
"9","Vlak","Praha-Stodůlky","","1698"
"10","Školka","V Kolonce, o.p.s.","https://www.firmy.cz/detail/2682597-v-kolonce-praha-brevnov.html","141"
"11","Obchod","Kaufland","https://www.firmy.cz/detail/221319-kaufland-praha-brevnov.html","279"
"12","Lékárna","BENU Lékárna","https://www.firmy.cz/detail/13218523-benu-lekarna-praha-brevnov.html","332"
"13","Bankomat","Bankomat ČSOB","https://www.firmy.cz/detail/2578736-bankomat-csob-praha-brevnov.html","279"
"14","Škola","ZŠ a MŠ T. G. Masaryka, Praha 6, Bělohorská","https://www.firmy.cz/detail/2392698-zs-a-ms-t-g-masaryka-praha-6-belohorska-praha-brevnov.html","365"
"15","Lékař","Oddělení primární péče FN v Motole","https://www.firmy.cz/detail/12992089-oddeleni-primarni-pece-fn-v-motole-praha-motol.html","390"
"16","Tram","Malý Břevnov","","171"
"17","Restaurace","KIMCHI","https://www.firmy.cz/detail/2396863-kimchi-praha-brevnov.html","254"
"18","Metro","Nemocnice Motol","","342"
"19","Pošta","Pošta Praha 616 - Česká pošta, s.p.","https://www.firmy.cz/detail/431331-posta-praha-616-praha-veleslavin.html","1754"
"20","Bus MHD","Malý Břevnov","","246"
