"","facility_type","facility_name","facility_iri","facility_distance"
"0","Hřiště","Dětské hřiště Puškinova","https://mapy.cz/zakladni?x=13.3712322222&y=49.7464927778&z=17&source=base&id=2059032","178"
"1","Cukrárna","Buena Vista Club","https://www.firmy.cz/detail/2072468-buena-vista-club-plzen-jizni-predmesti.html","59"
"2","Večerka","Albert Supermarket","https://www.firmy.cz/detail/2246433-albert-supermarket-plzen-jizni-predmesti.html","190"
"3","Hospoda","Parlament rock club","https://www.firmy.cz/detail/13135689-parlament-rock-club-plzen-jizni-predmesti.html","101"
"4","Kino","Cinema City Plzeň","https://www.firmy.cz/detail/2246853-cinema-city-plzen-plzen-jizni-predmesti.html","187"
"5","Veterinář","Medicus veterinarius, s.r.o.","https://www.firmy.cz/detail/1908178-medicus-veterinarius-plzen-jizni-predmesti.html","422"
"6","Divadlo","Nové divadlo Plzeň","https://www.firmy.cz/detail/12956345-nove-divadlo-plzen-plzen-jizni-predmesti.html","228"
"7","Bus MHD","Divadlo J. K. Tyla","https://mapy.cz/zakladni?x=13.3700894282&y=49.7454680722&z=17&source=pubt&id=15697842","258"
"8","Školka","49. MŠ Plzeň","https://www.firmy.cz/detail/360431-49-ms-plzen-plzen-jizni-predmesti.html","172"
"9","Sportoviště","fit studio aerobic Robert Narovec","https://www.firmy.cz/detail/12913038-fit-studio-aerobic-robert-narovec-plzen-jizni-predmesti.html","331"
"10","Lékárna","Dr. Max LÉKÁRNA","https://www.firmy.cz/detail/12856901-dr-max-lekarna-plzen-jizni-predmesti.html","206"
"11","Pošta","Pošta Plzeň 1 - Česká pošta, s.p.","https://www.firmy.cz/detail/452750-posta-plzen-1-plzen-vnitrni-mesto.html","379"
"12","Restaurace","ACW SALOON","https://www.firmy.cz/detail/2628659-acw-saloon-plzen-jizni-predmesti.html","37"
"13","Bankomat","Bankomat Komerční banky","https://www.firmy.cz/detail/13213794-bankomat-komercni-banky-plzen-jizni-predmesti.html","144"
"14","Vlak","Plzeň-Jižní Předměstí","https://mapy.cz/zakladni?x=13.3674535638&y=49.7401195443&z=17&source=pubt&id=15212478","867"
"15","Tram","Palackého náměstí","https://mapy.cz/zakladni?x=13.3698607002509&y=49.7485130491889&z=17&source=pubt&id=15697887","82"
"16","Lékař","MUDr. Dagmar Minářová PL, s.r.o.","https://www.firmy.cz/detail/12796591-mudr-dagmar-minarova-pl-plzen.html","238"
"17","Obchod","Obchodní centrum Plzeň Plaza","https://www.firmy.cz/detail/13089722-obchodni-centrum-plzen-plaza-plzen-jizni-predmesti.html","206"
"18","Škola","Bezpečnostně právní akademie Plzeň, s.r.o., střední škola","https://www.firmy.cz/detail/361549-bezpecnostne-pravni-akademie-plzen-s-r-o-stredni-skola-plzen-jizni-predmesti.html","349"
