"","facility_type","facility_name","facility_iri","facility_distance"
"0","Kino","Kino Telnice","https://www.firmy.cz/detail/674542-kino-telnice-telnice.html","4529"
"1","Hřiště","Dětské hřiště U kostela","","3584"
"2","Večerka","TRAVEL FREE SHOP","https://www.firmy.cz/detail/2644558-travel-free-shop-petrovice.html","3519"
"3","Škola","ZŠ a MŠ Petrovice","https://www.firmy.cz/detail/358813-zs-a-ms-petrovice-petrovice.html","3614"
"4","Restaurace","Martin John","https://www.firmy.cz/detail/13167063-martin-john-petrovice.html","3362"
"5","Lékárna","Lékárna Petrovice","https://www.firmy.cz/detail/741352-lekarna-petrovice-petrovice.html","5160"
"6","Pošta","Pošta Petrovice u Ústí nad Labem","https://www.firmy.cz/detail/432265-posta-petrovice-u-usti-nad-labem-petrovice.html","3686"
"7","Bus MHD","Petrovice, Krásný Les","","495"
"8","Školka","ZŠ a MŠ Petrovice","https://www.firmy.cz/detail/724022-zs-a-ms-petrovice-petrovice.html","3614"
"9","Lékař","MUDr. Zdeněk Postler","https://www.firmy.cz/detail/13275676-mudr-zdenek-postler-telnice.html","4662"
