"","facility_type","facility_name","facility_iri","facility_distance"
"0","Cukrárna","Cukrárna a kavárna Oli","https://www.firmy.cz/detail/13108374-cukrarna-a-kavarna-oli-vratimov.html","3953"
"1","Kino","Letní kino - Městské kulturní středisko Havířov","https://www.firmy.cz/detail/13072791-letni-kino-havirov.html","3905"
"2","Hřiště","Dětské hřiště Šenov","","1425"
"3","Večerka","Potraviny Na Lapačce","https://www.firmy.cz/detail/13276714-potraviny-na-lapacce-senov.html","1213"
"4","Hospoda","Klub U Brbloně","https://www.firmy.cz/detail/13332848-klub-u-brblone-vratimov-horni-datyne.html","1057"
"5","Veterinář","Veterinární ordinace Šenov","https://www.firmy.cz/detail/2233421-veterinarni-ordinace-senov-senov.html","1473"
"6","Bus MHD","Šenov, Volenství","","24"
"7","Bankomat","Bankomat České spořitelny","https://www.firmy.cz/detail/596203-bankomat-ceske-sporitelny-senov.html","1463"
"8","Restaurace","Restaurace U Ryšky","https://www.firmy.cz/detail/333864-restaurace-u-rysky-senov.html","99"
"9","Pošta","Pošta Partner Vratimov 3","https://www.firmy.cz/detail/13099089-posta-partner-vratimov-3-vratimov-horni-datyne.html","1223"
"10","Lékař","MUDr. Jan Mařádek, s.r.o.","https://www.firmy.cz/detail/12846346-mudr-jan-maradek-senov.html","1480"
"11","Školka","MŠ Šenov","https://www.firmy.cz/detail/2285716-ms-senov-senov.html","1329"
"12","Obchod","Tesco","https://www.firmy.cz/detail/218205-tesco-havirov-mesto.html","4392"
"13","Tram","Nová Huť hlavní brána","","5237"
"14","Škola","ZUŠ Viléma Wünsche Šenov","https://www.firmy.cz/detail/399082-zus-vilema-wunsche-senov-senov.html","1379"
"15","Vlak","Šenov","","566"
"16","Sportoviště","Hřiště s umělým trávníkem","https://www.firmy.cz/detail/13078819-hriste-s-umelym-travnikem-vratimov.html","3361"
"17","Lékárna","Šenovská lékárna","https://www.firmy.cz/detail/421605-senovska-lekarna-senov.html","1480"
