"","facility_type","facility_name","facility_iri","facility_distance"
"0","Přírodní zajímavost","Třemešské rybníky","https://mapy.cz/zakladni?x=16.990600604&y=49.9491061883&z=17&source=base&id=1722991","2470"
"1","Hřiště","Parčík Divadelníček","https://mapy.cz/zakladni?x=16.9766073233&y=49.9652416239&z=17&source=base&id=2241252","423"
"2","Cukrárna","Sweet Cake's","https://www.firmy.cz/detail/13296099-sweet-cake-s-sumperk.html","225"
"3","Veterinář","MVDr. Kateřina Zeliková - Körner","https://www.firmy.cz/detail/2133224-mvdr-katerina-zelikova-korner-sumperk.html","228"
"4","Večerka","Potraviny CBA","https://www.firmy.cz/detail/13320743-potraviny-cba-sumperk.html","138"
"5","Hospoda","U Švábů","https://www.firmy.cz/detail/13111743-u-svabu-sumperk.html","350"
"6","Divadlo","Divadlo Šumperk, s.r.o.","https://www.firmy.cz/detail/272786-divadlo-sumperk-s-r-o-sumperk.html","389"
"7","Kino","Kino Oko","https://www.firmy.cz/detail/232381-kino-oko-sumperk.html","614"
"8","Škola","Vyšší odborná škola a Střední průmyslová škola, Šumperk","https://www.firmy.cz/detail/361109-vyssi-odborna-skola-a-stredni-prumyslova-skola-sumperk-sumperk.html","144"
"9","Bankomat","Bankomat MONETA Money Bank","https://www.firmy.cz/detail/1691728-bankomat-moneta-money-bank-sumperk.html","307"
"10","Sportoviště","Herna d9vítka","https://www.firmy.cz/detail/13326454-herna-d9vitka-sumperk.html","269"
"11","Školka","Mateřská škola Sluníčko Šumperk, Evaldova 25","https://www.firmy.cz/detail/407224-materska-skola-slunicko-sumperk-evaldova-25-sumperk.html","162"
"12","Lékárna","Pilulka Lékárna","https://www.firmy.cz/detail/13273664-pilulka-lekarna-sumperk.html","380"
"13","Pošta","Pošta Šumperk 1 - Česká pošta, s.p.","https://www.firmy.cz/detail/431338-posta-sumperk-1-sumperk.html","283"
"14","Obchod","Kaufland","https://www.firmy.cz/detail/1477279-kaufland-sumperk.html","586"
"15","Lékař","MUDr. David Bednář - COOPERMED","https://www.firmy.cz/detail/12861168-mudr-david-bednar-coopermed-sumperk.html","380"
"16","Bus MHD","Šumperk, Husitská Jiráskovy sady","https://mapy.cz/zakladni?x=16.9753721258703&y=49.9692847764321&z=17&source=pubt&id=15293687","54"
"17","Restaurace","Restaurace Pod Kaštanem","https://www.firmy.cz/detail/13097720-restaurace-pod-kastanem-sumperk.html","185"
"18","Vlak","Šumperk","https://mapy.cz/zakladni?x=16.9831069887&y=49.9617970766&z=17&source=pubt&id=15213011","982"
