"","facility_type","facility_name","facility_iri","facility_distance"
"0","Cukrárna","Cukrárna a Kavárna Na Míráku","https://www.firmy.cz/detail/12846155-cukrarna-a-kavarna-na-miraku-mlada-boleslav.html","408"
"1","Kino","CineStar Mladá Boleslav","https://www.firmy.cz/detail/2109584-cinestar-mlada-boleslav-mlada-boleslav-ii.html","1447"
"2","Přírodní zajímavost","Syslí kolonie","","2631"
"3","Hřiště","Dětské hřiště park Štěpánka","","369"
"4","Večerka","Potraviny Miloš Matoušek","https://www.firmy.cz/detail/2116234-potraviny-milos-matousek-mlada-boleslav-ii.html","203"
"5","Hospoda","KUFR Hospůdka","https://www.firmy.cz/detail/13185314-kufr-hospudka-mlada-boleslav-i.html","188"
"6","Divadlo","Městské divadlo Mladá Boleslav","https://www.firmy.cz/detail/401491-mestske-divadlo-mlada-boleslav-mlada-boleslav-ii.html","668"
"7","Veterinář","CHOVATEL L +  L  s. r. o.","https://www.firmy.cz/detail/13161784-chovatel-l-l-s-r-o-mlada-boleslav-ii.html","236"
"8","Školka","ZŠ T. G. Masaryka a MŠ Mladá Boleslav","https://www.firmy.cz/detail/433886-zs-t-g-masaryka-a-ms-mlada-boleslav-mlada-boleslav-iii.html","165"
"9","Škola","ZŠ T. G. Masaryka a MŠ Mladá Boleslav","https://www.firmy.cz/detail/358260-zs-t-g-masaryka-a-ms-mlada-boleslav-mlada-boleslav-iii.html","165"
"10","Restaurace","eMBe pivovar","https://www.firmy.cz/detail/13195115-embe-pivovar-mlada-boleslav-iii.html","0"
"11","Sportoviště","LTC Mladá Boleslav, o.s.","https://www.firmy.cz/detail/1695052-ltc-mlada-boleslav-o-s-mlada-boleslav-iii.html","510"
"12","Lékárna","Lékárna Centrálka","https://www.firmy.cz/detail/375306-lekarna-centralka-mlada-boleslav-ii.html","323"
"13","Pošta","Pošta Mladá Boleslav 1 - Česká pošta, s.p.","https://www.firmy.cz/detail/217182-posta-mlada-boleslav-1-mlada-boleslav-ii.html","366"
"14","Lékař","RESO MB - MUDr. Oldřich Šlégl","https://www.firmy.cz/detail/12890023-reso-mb-mudr-oldrich-slegl-mlada-boleslav-ii.html","287"
"15","Obchod","BONDY CENTRUM","https://www.firmy.cz/detail/13215694-bondy-centrum-mlada-boleslav-ii.html","1395"
"16","Bankomat","Bankomat ČSOB","https://www.firmy.cz/detail/597871-bankomat-csob-mlada-boleslav-ii.html","238"
"17","Bus MHD","Mladá Boleslav, Podolec","","160"
"18","Vlak","Mladá Boleslav hl.nádr.","","1301"
