"","facility_type","facility_name","facility_iri","facility_distance"
"0","Cukrárna","Art Café","https://www.firmy.cz/detail/12919900-art-cafe-olomouc-povel.html","622"
"1","Kino","5D cinema Maxim","https://www.firmy.cz/detail/12950601-5d-cinema-maxim-olomouc.html","1716"
"2","Hřiště","Dětské hřiště Peškova","","165"
"3","Večerka","Potraviny Fischerova","https://www.firmy.cz/detail/13278845-potraviny-fischerova-olomouc-nove-sady.html","198"
"4","Divadlo","Divadlo na Šantovce, o.p.s.","https://www.firmy.cz/detail/12833588-divadlo-na-santovce-olomouc.html","1762"
"5","Hospoda","Pivnice Arx","https://www.firmy.cz/detail/13113248-pivnice-arx-olomouc-nove-sady.html","475"
"6","Veterinář","Veterinární ordinace OrdinaVet","https://www.firmy.cz/detail/12984041-veterinarni-ordinace-ordinavet-olomouc-povel.html","918"
"7","Sportoviště","Taťana Čechovská","https://www.firmy.cz/detail/12835007-tatana-cechovska-olomouc.html","1714"
"8","Lékárna","Fit Lékárna","https://www.firmy.cz/detail/13168822-fit-lekarna-olomouc-nove-sady.html","390"
"9","Lékař","MUDr. Jana Bomberová","https://www.firmy.cz/detail/12860268-mudr-jana-bomberova-olomouc-nove-sady.html","197"
"10","Vlak","Olomouc-Nové Sady","","605"
"11","Bus MHD","Slavonínská","","100"
"12","Restaurace","Restaurace U Klásků","https://www.firmy.cz/detail/12844153-restaurace-u-klasku-olomouc-povel.html","121"
"13","Škola","Fakultní základní škola dr. Milady Horákové a Mateřská škola Olomouc, Rožňavská 21, příspěvková organizace","https://www.firmy.cz/detail/358587-fakultni-zakladni-skola-dr-milady-horakove-a-materska-skola-olomouc-roznavska-21-prispevkova-organizace-olomouc-nove-sady.html","383"
"14","Tram","Trnkova","","968"
"15","Školka","Eduka Bábetko z.s.","https://www.firmy.cz/detail/13278536-eduka-babetko-z-s-olomouc-povel.html","342"
"16","Pošta","Pošta Olomouc 12 - Česká pošta, s.p.","https://www.firmy.cz/detail/215270-posta-olomouc-12-olomouc-povel.html","956"
"17","Bankomat","Bankomat Komerční banky","https://www.firmy.cz/detail/12786960-bankomat-komercni-banky-olomouc-nove-sady.html","413"
"18","Obchod","Nákupní galerie EG CENTRUM, s.r.o.","https://www.firmy.cz/detail/12807048-nakupni-galerie-eg-centrum-olomouc-nova-ulice.html","1590"
