"","facility_type","facility_name","facility_iri","facility_distance"
"0","Cukrárna","Cukrárna Toffi","https://www.firmy.cz/detail/13311098-cukrarna-toffi-brno-bystrc.html","1105"
"1","Kino","Brno Autokino","https://www.firmy.cz/detail/13328637-brno-autokino-brno-pisarky.html","4516"
"2","Přírodní zajímavost","Koniklecová louka","","3938"
"3","Hřiště","Dětské hřiště Bystrc","","157"
"4","Večerka","Potraviny Černého","https://www.firmy.cz/detail/13265402-potraviny-cerneho-brno.html","42"
"5","Hospoda","Domeček","https://www.firmy.cz/detail/13124946-domecek-brno-bystrc.html","845"
"6","Divadlo","Divadlo Strom","https://www.firmy.cz/detail/12762146-divadlo-strom-brno-zabovresky.html","4315"
"7","Veterinář","Veterina Bystrc, s.r.o.","https://www.firmy.cz/detail/1424221-veterina-bystrc-brno-bystrc.html","937"
"8","Restaurace","Restaurace Sportmax","https://www.firmy.cz/detail/12735731-restaurace-sportmax-brno-bystrc.html","486"
"9","Obchod","OC MAX s.r.o.","https://www.firmy.cz/detail/13171099-oc-max-s-r-o-brno-bystrc.html","937"
"10","Bus MHD","Černého","","41"
"11","Sportoviště","Sport Centrum Sportmax","https://www.firmy.cz/detail/271521-sport-centrum-sportmax-brno-bystrc.html","493"
"12","Bankomat","Bankomat UniCredit Bank Czech Republic","https://www.firmy.cz/detail/12862431-bankomat-unicredit-bank-czech-republic-brno-bystrc.html","823"
"13","Škola","ZŠ Brno, Laštůvkova","https://www.firmy.cz/detail/356519-zs-brno-lastuvkova-brno-bystrc.html","467"
"14","Lékař","MUDr. Kamila Pohanková","https://www.firmy.cz/detail/12948396-mudr-kamila-pohankova-brno-bystrc.html","937"
"15","Lékárna","Lékárna AKÁT","https://www.firmy.cz/detail/375073-lekarna-akat-brno-bystrc.html","879"
"16","Školka","Mateřská škola Sluníčko, Brno, Štouračova 23","https://www.firmy.cz/detail/13075330-materska-skola-slunicko-brno-stouracova-23-brno-bystrc.html","495"
"17","Pošta","Pošta Brno 35 - Česká pošta, s.p.","https://www.firmy.cz/detail/794875-posta-brno-35-brno-bystrc.html","993"
"18","Tram","Ondrouškova","","631"
