"","facility_type","facility_name","facility_iri","facility_distance"
"0","Cukrárna","Café Solare","https://www.firmy.cz/detail/13050856-cafe-solare-horsovsky-tyn-mesto.html","974"
"1","Kino","Kino Horšovský Týn","https://www.firmy.cz/detail/451826-kino-horsovsky-tyn-horsovsky-tyn-mesto.html","1114"
"2","Hřiště","Dětské hřiště Vančurova","","201"
"3","Přírodní zajímavost","Horšovská obora","","1287"
"4","Večerka","Potraviny PLUS","https://www.firmy.cz/detail/13330111-potraviny-plus-horsovsky-tyn-male-predmesti.html","86"
"5","Hospoda","Hostinec Jana Littrowa 120","https://www.firmy.cz/detail/13137643-hostinec-jana-littrowa-120-horsovsky-tyn-mesto.html","962"
"6","Veterinář","Veterina Šlajs","https://www.firmy.cz/detail/13221983-veterina-slajs-horsovsky-tyn-velke-predmesti.html","897"
"7","Bankomat","Platbomat České spořitelny","https://www.firmy.cz/detail/592167-platbomat-ceske-sporitelny-horsovsky-tyn-mesto.html","947"
"8","Sportoviště","SPORTOVNÍ KLUB LAVIS","https://www.firmy.cz/detail/661277-sportovni-klub-lavis-horsovsky-tyn-male-predmesti.html","68"
"9","Bus MHD","Horšovský Týn, Plastik","","429"
"10","Školka","MŠ Horšovský Týn","https://www.firmy.cz/detail/2127884-ms-horsovsky-tyn-horsovsky-tyn-male-predmesti.html","167"
"11","Lékař","MUDr. Luboš Kolář","https://www.firmy.cz/detail/386235-mudr-lubos-kolar-horsovsky-tyn-male-predmesti.html","531"
"12","Škola","ZŠ a Odborná škola Horšovský Týn","https://www.firmy.cz/detail/679279-zs-a-odborna-skola-horsovsky-tyn-horsovsky-tyn-male-predmesti.html","416"
"13","Restaurace","Restaurace Sídliště","https://www.firmy.cz/detail/232636-restaurace-sidliste-horsovsky-tyn-male-predmesti.html","93"
"14","Lékárna","Mariina lékárna","https://www.firmy.cz/detail/421408-mariina-lekarna-horsovsky-tyn-male-predmesti.html","511"
"15","Pošta","Pošta Horšovský Týn - Česká pošta, s.p.","https://www.firmy.cz/detail/217546-posta-horsovsky-tyn-horsovsky-tyn-velke-predmesti.html","1072"
"16","Vlak","Horšovský Týn","","905"
