"","facility_type","facility_name","facility_iri","facility_distance"
"0","Cukrárna","Cukrárna - kavárna Cappuccino cafe","https://www.firmy.cz/detail/665805-cukrarna-kavarna-cappuccino-cafe-praha-zabehlice.html","1345"
"1","Přírodní zajímavost","Mokřad Triangl","","2219"
"2","Kino","Multikino - Premiere Cinemas Praha Hostivař","https://www.firmy.cz/detail/12745547-multikino-premiere-cinemas-praha-hostivar-praha-hostivar.html","2050"
"3","Hřiště","Dětské hřiště Na Slatince","","228"
"4","Večerka","Penny Market","https://www.firmy.cz/detail/2413001-penny-market-praha-zabehlice.html","376"
"5","Hospoda","Hospůdka U Kladiva","https://www.firmy.cz/detail/625166-hospudka-u-kladiva-praha-strasnice.html","2767"
"6","Divadlo","SKAZKA, spol. s r.o.","https://www.firmy.cz/detail/2048564-skazka-praha-hostivar.html","2512"
"7","Veterinář","Veterinární nemocnice AA-Vet","https://www.firmy.cz/detail/173794-veterinarni-nemocnice-aa-vet-praha-zabehlice.html","673"
"8","Škola","SŠES - Střední škola elektrotechniky a strojírenství","https://www.firmy.cz/detail/360999-sses-stredni-skola-elektrotechniky-a-strojirenstvi-praha-zabehlice.html","311"
"9","Bus MHD","V Korytech","","171"
"10","Tram","Spořilov","","743"
"11","Vlak","Praha-Zahradní Město","","1274"
"12","Bankomat","Bankomat Fio banky","https://www.firmy.cz/detail/2678027-bankomat-fio-banky-praha-zabehlice.html","389"
"13","Sportoviště","Bowling Na Ovčíně","https://www.firmy.cz/detail/312273-bowling-na-ovcine-praha-zabehlice.html","252"
"14","Metro","Strašnická","","1858"
"15","Pošta","Pošta Praha 106 - Česká pošta, s.p.","https://www.firmy.cz/detail/431448-posta-praha-106-praha-zabehlice.html","938"
"16","Lékař","Poliklinika Zahradní Město, spol. s r.o.","https://www.firmy.cz/detail/160020-poliklinika-zahradni-mesto-praha-zabehlice.html","562"
"17","Lékárna","Dr. Max","https://www.firmy.cz/detail/12804586-dr-max-praha-zabehlice.html","521"
"18","Školka","MŠ Praha 10, Chmelová","https://www.firmy.cz/detail/2315468-ms-praha-10-chmelova-praha-zabehlice.html","709"
"19","Restaurace","Restaurace U Barbary","https://www.firmy.cz/detail/2217698-restaurace-u-barbary-praha-zabehlice.html","331"
"20","Obchod","Kaufland","https://www.firmy.cz/detail/221320-kaufland-praha-michle.html","1324"
