"","facility_type","facility_name","facility_iri","facility_distance"
"0","Cukrárna","Cukrárna Dřevěné městečko","https://www.firmy.cz/detail/13332836-cukrarna-drevene-mestecko-roznov-pod-radhostem.html","496"
"1","Kino","Kino Panorama","https://www.firmy.cz/detail/2585216-kino-panorama-roznov-pod-radhostem.html","307"
"2","Hřiště","Dětské hřiště u OD Láz","","533"
"3","Večerka","HRUŠKA","https://www.firmy.cz/detail/13023561-hruska-roznov-pod-radhostem.html","298"
"4","Hospoda","Restaurace LAZY","https://www.firmy.cz/detail/2627683-restaurace-lazy-roznov-pod-radhostem.html","603"
"5","Veterinář","MVDr. Dana Korbášová","https://www.firmy.cz/detail/1976165-mvdr-dana-korbasova-roznov-pod-radhostem.html","487"
"6","Školka","MŠ Rožnov pod Radhoštěm, 5. května","https://www.firmy.cz/detail/2111298-ms-roznov-pod-radhostem-5-kvetna-roznov-pod-radhostem.html","351"
"7","Vlak","Rožnov pod Radhoštěm","","990"
"8","Sportoviště","Atletické hřiště Dany Zátopkové","","102"
"9","Lékárna","Lékárna Rubus","https://www.firmy.cz/detail/12906491-lekarna-rubus-roznov-pod-radhostem.html","281"
"10","Pošta","Pošta Rožnov pod Radhoštěm 1 - Česká pošta, s.p.","https://www.firmy.cz/detail/433365-posta-roznov-pod-radhostem-1-roznov-pod-radhostem.html","947"
"11","Restaurace","Restaurace El Greco","https://www.firmy.cz/detail/2541843-restaurace-el-greco-roznov-pod-radhostem.html","228"
"12","Bankomat","Bankomat MONETA Money Bank","https://www.firmy.cz/detail/2259852-bankomat-moneta-money-bank-roznov-pod-radhostem.html","712"
"13","Obchod","OC Fastmall","https://www.firmy.cz/detail/13209117-oc-fastmall-roznov-pod-radhostem.html","1468"
"14","Bus MHD","Rožnov pod Radhoštěm, Dolní Paseky, palírna","","215"
"15","Lékař","MUDr. Aleš Vojkůvka, s.r.o.","https://www.firmy.cz/detail/12861990-mudr-ales-vojkuvka-roznov-pod-radhostem.html","281"
"16","Škola","ZŠ Sedmikráska, o.p.s.","https://www.firmy.cz/detail/359237-zs-sedmikraska-o-p-s-roznov-pod-radhostem.html","106"
