"","facility_type","facility_name","facility_iri","facility_distance"
"0","Cukrárna","Cukrárna T","https://www.firmy.cz/detail/13115513-cukrarna-t-kostelec-nad-orlici.html","724"
"1","Kino","Kino Rabštejn","https://www.firmy.cz/detail/1970681-kino-rabstejn-kostelec-nad-orlici.html","833"
"2","Hřiště","Dětské hřiště U Váhy","","445"
"3","Večerka","Penny Market","https://www.firmy.cz/detail/2413689-penny-market-kostelec-nad-orlici.html","287"
"4","Hospoda","Obecní Hospoda Tutleky","https://www.firmy.cz/detail/13083692-obecni-hospoda-tutleky-tutleky.html","2144"
"5","Veterinář","MVDr. Richard Minařík","https://www.firmy.cz/detail/1895301-mvdr-richard-minarik-kostelec-nad-orlici.html","1016"
"6","Školka","MŠ Kostelec nad Orlicí, Mánesova","https://www.firmy.cz/detail/1905264-ms-kostelec-nad-orlici-manesova-kostelec-nad-orlici.html","363"
"7","Bankomat","Bankomat ČSOB","https://www.firmy.cz/detail/12768441-bankomat-csob-kostelec-nad-orlici.html","494"
"8","Bus MHD","Kostelec n.Orl., Povidlov","","201"
"9","Restaurace","Hotel Panský Dům","https://www.firmy.cz/detail/13288910-hotel-pansky-dum-kostelec-nad-orlici.html","618"
"10","Lékárna","Mgr. Marie Horáková","https://www.firmy.cz/detail/375786-mgr-marie-horakova-kostelec-nad-orlici.html","738"
"11","Škola","Dětský domov se školou a ZŠ Kostelec nad Orlicí","https://www.firmy.cz/detail/2683604-detsky-domov-se-skolou-a-zs-kostelec-nad-orlici-kostelec-nad-orlici.html","502"
"12","Obchod","Tesco","https://www.firmy.cz/detail/1696264-tesco-rychnov-nad-kneznou.html","5384"
"13","Vlak","Kostelec nad Orlicí","","612"
"14","Sportoviště","Koupaliště Kostelec nad Orlicí","https://www.firmy.cz/detail/12993142-koupaliste-kostelec-nad-orlici-kostelec-nad-orlici.html","754"
"15","Lékař","MUDr. Ilona Talavašková, s.r.o.","https://www.firmy.cz/detail/12844393-mudr-ilona-talavaskova-kostelec-nad-orlici.html","971"
"16","Pošta","Pošta Kostelec nad Orlicí - Česká pošta, s.p.","https://www.firmy.cz/detail/215688-posta-kostelec-nad-orlici-kostelec-nad-orlici.html","841"
