"","facility_type","facility_name","facility_iri","facility_distance"
"0","Cukrárna","Cukrárna Verona","https://www.firmy.cz/detail/13115475-cukrarna-verona-hlucin.html","832"
"1","Přírodní zajímavost","Kozmické ptačí louky","","3707"
"2","Hřiště","Dětské hřiště u ZŠ Roviny","","1302"
"3","Večerka","HRUŠKA","https://www.firmy.cz/detail/12819984-hruska-hlucin.html","320"
"4","Hospoda","Hospůdka pod Lípou","https://www.firmy.cz/detail/13109114-hospudka-pod-lipou-hlucin.html","1505"
"5","Veterinář","HERRIOVET, s.r.o.","https://www.firmy.cz/detail/2239492-herriovet-hlucin.html","789"
"6","Pošta","Pošta Hlučín - Česká pošta, s.p.","https://www.firmy.cz/detail/432698-posta-hlucin-hlucin.html","823"
"7","Školka","MŠ Hlučín, Severní","https://www.firmy.cz/detail/2317515-ms-hlucin-severni-hlucin.html","173"
"8","Bus MHD","Hlučín sídliště","","215"
"9","Škola","ZŠ Hlučín, Hornická","https://www.firmy.cz/detail/357104-zs-hlucin-hornicka-hlucin.html","372"
"10","Lékař","Angiologická ambulance s.r.o.","https://www.firmy.cz/detail/12912400-angiologicka-ambulance-s-r-o-hlucin.html","446"
"11","Vlak","Hlučín","","572"
"12","Lékárna","Lékárna Hlučín","https://www.firmy.cz/detail/374474-lekarna-hlucin-hlucin.html","516"
"13","Restaurace","Chacharova Pizza","https://www.firmy.cz/detail/13310427-chacharova-pizza-hlucin.html","269"
"14","Sportoviště","Sport a kultura Hlučín","https://www.firmy.cz/detail/2352584-sport-a-kultura-hlucin-hlucin.html","695"
"15","Bankomat","Bankomat České spořitelny","https://www.firmy.cz/detail/12987545-bankomat-ceske-sporitelny-hlucin.html","749"
