"","facility_type","facility_name","facility_iri","facility_distance"
"0","Cukrárna","hamko cz s. r. o.","https://www.firmy.cz/detail/2637752-hamko-cz-s-r-o-praha-nusle.html","566"
"1","Kino","HopeTV","https://www.firmy.cz/detail/672889-hopetv-praha-vinohrady.html","791"
"2","Hřiště","Dětské hřiště park Folimanka","","330"
"3","Večerka","BILLA","https://www.firmy.cz/detail/212080-billa-praha-vinohrady.html","342"
"4","Hospoda","Hospoda Pohoda","https://www.firmy.cz/detail/569598-hospoda-pohoda-praha-nusle.html","382"
"5","Divadlo","Divadlo Na Fidlovačce","https://www.firmy.cz/detail/396872-divadlo-na-fidlovacce-praha-nusle.html","197"
"6","Veterinář","Veterinární klinika Nusle","https://www.firmy.cz/detail/640960-veterinarni-klinika-nusle-praha-nusle.html","360"
"7","Pošta","Pošta Praha 416 - Česká pošta, s.p.","https://www.firmy.cz/detail/217473-posta-praha-416-praha-nusle.html","366"
"8","Lékař","MUDr. Petr König","https://www.firmy.cz/detail/380946-mudr-petr-konig-praha-vinohrady.html","524"
"9","Vlak","Praha-Vršovice","","985"
"10","Škola","ZŠ Praha 4, Křesomyslova","https://www.firmy.cz/detail/358987-zs-praha-4-kresomyslova-praha-nusle.html","173"
"11","Metro","Vyšehrad","","415"
"12","Lékárna","Lékárna Jaromírova","https://www.firmy.cz/detail/2371593-lekarna-jaromirova-praha-nusle.html","369"
"13","Bankomat","Bankomat Komerční banky","https://www.firmy.cz/detail/594014-bankomat-komercni-banky-praha-nusle.html","341"
"14","Tram","Divadlo Na Fidlovačce","","206"
"15","Školka","Dětské studio Žofka","https://www.firmy.cz/detail/441499-detske-studio-zofka-praha-vinohrady.html","129"
"16","Obchod","PAVILON, a.s.","https://www.firmy.cz/detail/451685-pavilon-praha-vinohrady.html","1329"
"17","Restaurace","Excelsior Pub","https://www.firmy.cz/detail/2560363-excelsior-pub-praha-vinohrady.html","274"
"18","Bus MHD","Praha, Karlov","","458"
"19","Sportoviště","Pemitennis","https://www.firmy.cz/detail/2017948-pemitennis-praha-nusle.html","610"
