"","facility_type","facility_name","facility_iri","facility_distance"
"0","Cukrárna","Káva a zmrzlina U Bláhů","https://www.firmy.cz/detail/13154039-kava-a-zmrzlina-u-blahu-liberec-iv-perstyn.html","1087"
"1","Kino","Cinema City Liberec","https://www.firmy.cz/detail/2679906-cinema-city-liberec-liberec-iv-perstyn.html","1169"
"2","Přírodní zajímavost","Opičák","","3063"
"3","Hřiště","Dětské hřiště U Potůčku","","387"
"4","Večerka","Smíšené zboží Boleslavova 416","https://www.firmy.cz/detail/292113-smisene-zbozi-boleslavova-416-liberec-vi-rochlice.html","495"
"5","Divadlo","Naivní divadlo Liberec","https://www.firmy.cz/detail/230860-naivni-divadlo-liberec-liberec-iv-perstyn.html","1257"
"6","Hospoda","Hostinec u Vávrů","https://www.firmy.cz/detail/12964344-hostinec-u-vavru-liberec-vii-horni-ruzodol.html","29"
"7","Veterinář","Kolafa, s.r.o.","https://www.firmy.cz/detail/13222281-kolafa-liberec.html","894"
"8","Škola","Střední škola právní - Právní akademie, s.r.o.","https://www.firmy.cz/detail/269067-stredni-skola-pravni-pravni-akademie-liberec-vii-horni-ruzodol-liberec-7.html","306"
"9","Bankomat","Bankomat České spořitelny","https://www.firmy.cz/detail/12838628-bankomat-ceske-sporitelny-liberec-vii-horni-ruzodol.html","652"
"10","Obchod","Kaufland","https://www.firmy.cz/detail/2198571-kaufland-liberec-vii-horni-ruzodol.html","646"
"11","Vlak","Liberec-Rochlice","","1044"
"12","Lékárna","Dr.Max","https://www.firmy.cz/detail/2525546-dr-max-liberec-vii-horni-ruzodol-liberec-7.html","646"
"13","Tram","Mlýnská","","862"
"14","Pošta","Pošta Liberec 6 - Česká pošta, s.p.","https://www.firmy.cz/detail/215742-posta-liberec-6-liberec-vi-rochlice.html","841"
"15","Restaurace","Restaurace U Hroznu","https://www.firmy.cz/detail/12927878-restaurace-u-hroznu-liberec-vii-horni-ruzodol-liberec-7.html","386"
"16","Bus MHD","U Močálu","","47"
"17","Sportoviště","TENIS ROCHLICE s.r.o.","https://www.firmy.cz/detail/675039-tenis-rochlice-s-r-o-liberec-vi-rochlice.html","346"
"18","Školka","MŠ Kamarád Liberec, Dělnická","https://www.firmy.cz/detail/598233-ms-kamarad-liberec-delnicka-liberec-vi-rochlice.html","297"
"19","Lékař","MUDr. Marta Kleprlíková","https://www.firmy.cz/detail/13272135-mudr-marta-kleprlikova-liberec-iv-perstyn.html","182"
