"","facility_type","facility_name","facility_iri","facility_distance"
"0","Cukrárna","Kavárna Galerie Reistna","https://www.firmy.cz/detail/13136614-kavarna-galerie-reistna-valtice.html","242"
"1","Hřiště","Dětské hřiště Valtice","","429"
"2","Večerka","COOP - Jednota, spotřební družstvo v Mikulově","https://www.firmy.cz/detail/2350587-coop-jednota-spotrebni-druzstvo-v-mikulove-valtice.html","229"
"3","Divadlo","Laienbühne Schrattenberg","","3236"
"4","Veterinář","MVDr. Dušan Kočí","https://www.firmy.cz/detail/477113-mvdr-dusan-koci-valtice.html","674"
"5","Lékárna","Nemocnice Valtice s.r.o. - Lékárna","https://www.firmy.cz/detail/422892-nemocnice-valtice-s-r-o-lekarna-valtice.html","262"
"6","Bankomat","Bankomat Euronet","https://www.firmy.cz/detail/12857417-bankomat-euronet-valtice.html","289"
"7","Škola","ZŠ Valtice","https://www.firmy.cz/detail/359911-zs-valtice-valtice.html","370"
"8","Pošta","Pošta Valtice - Česká pošta, s.p.","https://www.firmy.cz/detail/432606-posta-valtice-valtice.html","314"
"9","Sportoviště","Sporthala Valtice","https://www.firmy.cz/detail/12760827-sporthala-valtice-valtice.html","610"
"10","Školka","MŠ Valtice","https://www.firmy.cz/detail/2282468-ms-valtice-valtice.html","474"
"11","Lékař","Nemocnice Valtice s.r.o. - Praktický lékař pro dospělé","https://www.firmy.cz/detail/13243341-nemocnice-valtice-s-r-o-prakticky-lekar-pro-dospele-valtice.html","350"
"12","Vlak","Valtice město","","900"
"13","Bus MHD","Valtice, nemocnice","","251"
"14","Restaurace","Restaurace Amalia","https://www.firmy.cz/detail/13241986-restaurace-amalia-valtice.html","146"
