"","facility_type","facility_name","facility_iri","facility_distance"
"0","Cukrárna","CrossCafe Knihovna","https://www.firmy.cz/detail/13273638-crosscafe-knihovna-hradec-kralove.html","246"
"1","Kino","Letní kino Širák","https://www.firmy.cz/detail/396345-letni-kino-sirak-hradec-kralove.html","165"
"2","Přírodní zajímavost","Slepé rameno Orlice u loděnice","","2293"
"3","Hřiště","Dětské hřiště Pod Zámečkem","","660"
"4","Večerka","Můj obchod - Potraviny Na náměstí","https://www.firmy.cz/detail/13262866-muj-obchod-potraviny-na-namesti-hradec-kralove.html","621"
"5","Hospoda","Hospůdka Letňák","https://www.firmy.cz/detail/13081546-hospudka-letnak-hradec-kralove.html","165"
"6","Divadlo","Divadlo Drak","https://www.firmy.cz/detail/230884-divadlo-drak-hradec-kralove.html","470"
"7","Veterinář","MVDr. Ivana Hantschová","https://www.firmy.cz/detail/1967432-mvdr-ivana-hantschova-hradec-kralove-trebes.html","1265"
"8","Lékárna","Lékárna Na Záchrance","https://www.firmy.cz/detail/13038305-lekarna-na-zachrance-hradec-kralove-novy-hradec-kralove.html","648"
"9","Obchod","OC Futurum Hradec Králové","https://www.firmy.cz/detail/586763-oc-futurum-hradec-kralove-hradec-kralove-novy-hradec-kralove.html","1298"
"10","Bankomat","Bankomat ČSOB","https://www.firmy.cz/detail/1358995-bankomat-csob-hradec-kralove.html","319"
"11","Sportoviště","HBC Hradec Králové 1988, z.s.","https://www.firmy.cz/detail/1730523-hbc-hradec-kralove-1988-z-s-hradec-kralove.html","302"
"12","Vlak","Hradec Králové hlavní nádraží","","2054"
"13","Bus MHD","Heyrovského","","294"
"14","Škola","Střední škola a vyšší odborná škola aplikované kybernetiky s.r.o.","https://www.firmy.cz/detail/270310-stredni-skola-a-vyssi-odborna-skola-aplikovane-kybernetiky-s-r-o-hradec-kralove.html","53"
"15","Restaurace","Kampus Bistro","https://www.firmy.cz/detail/13256585-kampus-bistro-hradec-kralove.html","156"
"16","Školka","ZŠ a MŠ při Fakultní nemocnici, Hradec Králové","https://www.firmy.cz/detail/2400221-zs-a-ms-pri-fakultni-nemocnici-hradec-kralove-hradec-kralove-novy-hradec-kralove.html","676"
"17","Pošta","Pošta Hradec Králové 1 - Česká pošta, s.p.","https://www.firmy.cz/detail/215968-posta-hradec-kralove-1-hradec-kralove.html","626"
"18","Lékař","Mgr. Ivanka Boumová","https://www.firmy.cz/detail/368641-mgr-ivanka-boumova-hradec-kralove.html","284"
