"","facility_type","facility_name","facility_iri","facility_distance"
"0","Cukrárna","Cukrárna a Lahůdky U Veselé Rakvičky","https://www.firmy.cz/detail/2674325-cukrarna-a-lahudky-u-vesele-rakvicky-dobrichovice.html","475"
"1","Kino","Kino Řevnice","https://www.firmy.cz/detail/2419722-kino-revnice-revnice.html","2841"
"2","Hřiště","Dětské hřiště park 5. května","","146"
"3","Večerka","Lidl","https://www.firmy.cz/detail/2372767-lidl-lety.html","369"
"4","Hospoda","Pivní dvůr, s.r.o.","https://www.firmy.cz/detail/13123584-pivni-dvur-revnice.html","2411"
"5","Divadlo","Lesní divadlo Řevnice","https://www.firmy.cz/detail/13007318-lesni-divadlo-revnice-revnice.html","3319"
"6","Veterinář","MVDr. Vojtěch Veverka","https://www.firmy.cz/detail/2694991-mvdr-vojtech-veverka-dobrichovice.html","90"
"7","Bankomat","Bankomat ČSOB","https://www.firmy.cz/detail/636676-bankomat-csob-dobrichovice.html","183"
"8","Škola","Základní umělecká škola Dobřichovice","https://www.firmy.cz/detail/1743582-zakladni-umelecka-skola-dobrichovice-dobrichovice.html","267"
"9","Obchod","OC LETY obchodní centrum","https://www.firmy.cz/detail/13161365-oc-lety-obchodni-centrum-lety.html","722"
"10","Lékař","Laureus, s.r.o.","https://www.firmy.cz/detail/2608493-laureus-dobrichovice.html","348"
"11","Školka","MŠ Dobřichovice","https://www.firmy.cz/detail/2277791-ms-dobrichovice-dobrichovice.html","822"
"12","Bus MHD","Dobřichovice, rozc.Karlík","","271"
"13","Lékárna","BENU Lékárna","https://www.firmy.cz/detail/13189197-benu-lekarna-dobrichovice.html","348"
"14","Pošta","Pošta Dobřichovice - Česká pošta, s.p.","https://www.firmy.cz/detail/216677-posta-dobrichovice-dobrichovice.html","362"
"15","Restaurace","Restaurace Panská Zahrada","https://www.firmy.cz/detail/13319964-restaurace-panska-zahrada-dobrichovice.html","183"
"16","Vlak","Dobřichovice","","1316"
"17","Sportoviště","Tělocvičná jednota Sokol Dobřichovice","https://www.firmy.cz/detail/231608-telocvicna-jednota-sokol-dobrichovice-dobrichovice.html","529"
