"","facility_type","facility_name","facility_iri","facility_distance"
"0","Cukrárna","Cukrárna Fiala","https://www.firmy.cz/detail/12831001-cukrarna-fiala-benatky-nad-jizerou.html","687"
"1","Hřiště","Dětské hřiště u tenisového kurtu","","83"
"2","Večerka","Enapo","https://www.firmy.cz/detail/12838396-enapo-benatky-nad-jizerou.html","16"
"3","Hospoda","U Horvátů","https://www.firmy.cz/detail/12838232-u-horvatu-benatky-nad-jizerou-i.html","94"
"4","Divadlo","Bazilišek benátský z. s.","https://www.firmy.cz/detail/13052611-bazilisek-benatsky-z-s-benatky-nad-jizerou-i.html","216"
"5","Veterinář","Veterina Tycho","https://www.firmy.cz/detail/13229297-veterina-tycho-benatky-nad-jizerou-i.html","91"
"6","Bankomat","Bankomat České spořitelny","https://www.firmy.cz/detail/13250237-bankomat-ceske-sporitelny-benatky-nad-jizerou-i.html","71"
"7","Lékárna","Na náměstí","https://www.firmy.cz/detail/323442-na-namesti-benatky-nad-jizerou-i.html","71"
"8","Bus MHD","Benátky nad Jizerou, Husovo nám.","","98"
"9","Pošta","Pošta Benátky nad Jizerou 1 - Česká pošta, s.p.","https://www.firmy.cz/detail/217178-posta-benatky-nad-jizerou-1-benatky-nad-jizerou-i.html","71"
"10","Školka","Mateřská škola Jizerka","https://www.firmy.cz/detail/2266154-materska-skola-jizerka-benatky-nad-jizerou-ii.html","413"
"11","Škola","ZŠ Benátky nad Jizerou, Husovo nám.","https://www.firmy.cz/detail/356312-zs-benatky-nad-jizerou-husovo-nam-benatky-nad-jizerou-i.html","56"
"12","Vlak","Zdětín u Chotětova","","3810"
"13","Lékař","MUDr. Michaela Kmentová","https://www.firmy.cz/detail/12849842-mudr-michaela-kmentova-benatky-nad-jizerou-i.html","140"
"14","Restaurace","Pizzeria Adelanté","https://www.firmy.cz/detail/659739-pizzeria-adelante-benatky-nad-jizerou-i.html","401"
"15","Sportoviště","Sokol Benátky n. Jiz.","https://www.firmy.cz/detail/2129409-sokol-benatky-n-jiz-benatky-nad-jizerou-i.html","151"
