"","facility_type","facility_name","facility_iri","facility_distance"
"0","Cukrárna","Shothouse","https://www.firmy.cz/detail/13286217-shothouse-havirov-mesto.html","415"
"1","Kino","Kino Centrum","https://www.firmy.cz/detail/12780436-kino-centrum-havirov-mesto.html","626"
"2","Hřiště","Dětské hřiště Mánesova","","271"
"3","Večerka","HRUŠKA","https://www.firmy.cz/detail/12863532-hruska-havirov-mesto.html","160"
"4","Hospoda","Autobar","https://www.firmy.cz/detail/13277623-autobar-havirov-mesto.html","183"
"5","Veterinář","Veterinární ordinace u Nemocnice","https://www.firmy.cz/detail/13319420-veterinarni-ordinace-u-nemocnice-havirov-mesto.html","568"
"6","Sportoviště","Tenisové kurty Paulát","https://www.firmy.cz/detail/13095949-tenisove-kurty-paulat-havirov-mesto.html","155"
"7","Vlak","Havířov-střed","","962"
"8","Restaurace","Vegan House","https://www.firmy.cz/detail/13309606-vegan-house-havirov-mesto.html","112"
"9","Pošta","Pošta Havířov 1 - Česká pošta, s.p.","https://www.firmy.cz/detail/431627-posta-havirov-1-havirov-mesto.html","532"
"10","Lékař","MUDr. Lucie Šebestová s.r.o.","https://www.firmy.cz/detail/12862656-mudr-lucie-sebestova-s-r-o-havirov-mesto.html","570"
"11","Lékárna","Lékárna U Elišky","https://www.firmy.cz/detail/421095-lekarna-u-elisky-havirov-mesto.html","291"
"12","Bus MHD","Havířov, Město, u fontány Jitřenka","","213"
"13","Školka","MŠ Havířov, Resslova","https://www.firmy.cz/detail/407410-ms-havirov-resslova-havirov-mesto.html","61"
"14","Obchod","Obchodní centrum Elan","https://www.firmy.cz/detail/2181587-obchodni-centrum-elan-havirov-mesto.html","627"
"15","Škola","Střední průmyslová škola elektrotechnická, Havířov","https://www.firmy.cz/detail/362589-stredni-prumyslova-skola-elektrotechnicka-havirov-havirov-mesto.html","153"
"16","Bankomat","Bankomat Komerční banky","https://www.firmy.cz/detail/12973620-bankomat-komercni-banky-havirov-mesto.html","384"
