"","facility_type","facility_name","facility_iri","facility_distance"
"0","Cukrárna","Cukrárna Křešínská 131/8","https://www.firmy.cz/detail/162378-cukrarna-kresinska-131-8-praha-uhrineves.html","644"
"1","Kino","ÚČKO Kino","https://www.firmy.cz/detail/12965466-ucko-kino-praha-uhrineves.html","1238"
"2","Hřiště","Dětské hřiště V Bytovkách","","110"
"3","Večerka","Žabka","https://www.firmy.cz/detail/12976631-zabka-praha-uhrineves.html","238"
"4","Hospoda","U 2 dubů","https://www.firmy.cz/detail/13016552-u-2-dubu-praha-kreslice.html","2591"
"5","Divadlo","Divadlo U22","https://www.firmy.cz/detail/12903111-divadlo-u22-praha-uhrineves.html","1238"
"6","Veterinář","Veterinární klinika Uhříněves s.r.o.","https://www.firmy.cz/detail/13074652-veterinarni-klinika-uhrineves-s-r-o-praha-uhrineves.html","403"
"7","Restaurace","Uhas žízeň","https://www.firmy.cz/detail/13320575-uhas-zizen-praha-uhrineves.html","238"
"8","Bus MHD","Picassova","","216"
"9","Bankomat","Bankomat Komerční banky","https://www.firmy.cz/detail/13320546-bankomat-komercni-banky-praha.html","432"
"10","Sportoviště","SK Čechie Uhříněves, z.s.","https://www.firmy.cz/detail/2648496-sk-cechie-uhrineves-z-s-praha-uhrineves.html","882"
"11","Lékárna","Lékárna U krále Jiřího","https://www.firmy.cz/detail/13194659-lekarna-u-krale-jiriho-praha-uhrineves.html","688"
"12","Škola","ZUŠ Lyra s.r.o.","https://www.firmy.cz/detail/427152-zus-lyra-s-r-o-praha-uhrineves.html","58"
"13","Vlak","Praha-Uhříněves","","417"
"14","Školka","Soukromá mateřská škola Pod buky, s.r.o.","https://www.firmy.cz/detail/12955400-soukroma-materska-skola-pod-buky-praha-uhrineves.html","274"
"15","Obchod","Kaufland","https://www.firmy.cz/detail/13019504-kaufland-praha-horni-mecholupy.html","1998"
"16","Pošta","Pošta Praha 114 - Česká pošta, s.p.","https://www.firmy.cz/detail/2376643-posta-praha-114-praha-uhrineves.html","768"
"17","Lékař","MUDr. Renata Šimjáková","https://www.firmy.cz/detail/13107901-mudr-renata-simjakova-praha-uhrineves.html","437"
"18","Tram","Nádraží Hostivař","","4431"
