"","facility_type","facility_name","facility_iri","facility_distance"
"0","Hřiště","Dětské hřiště u Žižkova pramene","https://mapy.cz/zakladni?x=15.1263230825&y=50.1495672476&z=17&source=base&id=2114341","235"
"1","Cukrárna","Kavárna Viola","https://www.firmy.cz/detail/12915023-kavarna-viola-podebrady-iii.html","868"
"2","Hospoda","Pivnice u Sparťana","https://www.firmy.cz/detail/13301686-pivnice-u-spartana-podebrady-iii.html","538"
"3","Večerka","JEDNOTA, spotřební družstvo v Nymburce - COOP","https://www.firmy.cz/detail/726886-jednota-spotrebni-druzstvo-v-nymburce-coop-podebrady-v.html","166"
"4","Veterinář","MVDr. Petr Coufal","https://www.firmy.cz/detail/2139119-mvdr-petr-coufal-podebrady-iii.html","522"
"5","Kino","Zámecký biograf","https://www.firmy.cz/detail/2697562-zamecky-biograf-podebrady-i.html","1212"
"6","Divadlo","Divadlo Na Kovárně","https://www.firmy.cz/detail/2697557-divadlo-na-kovarne-podebrady-i.html","1155"
"7","Restaurace","Gabriela Lylová","https://www.firmy.cz/detail/13112700-gabriela-lylova-podebrady-iii.html","434"
"8","Bus MHD","Poděbrady, žel.st.","https://mapy.cz/zakladni?x=15.1243677735&y=50.1487653069&z=17&source=pubt&id=15302013","334"
"9","Škola","ZŠ T. G. Masaryka","https://www.firmy.cz/detail/12915025-zs-t-g-masaryka-podebrady-iii.html","629"
"10","Pošta","Pošta Poděbrady 2 - Česká pošta, s.p.","https://www.firmy.cz/detail/12785133-posta-podebrady-2-podebrady-iii.html","532"
"11","Školka","MŠ Poděbrady, nám. T.G.Masaryka","https://www.firmy.cz/detail/12912846-ms-podebrady-nam-t-g-masaryka-podebrady-iii.html","449"
"12","Sportoviště","Monika Sobotková","https://www.firmy.cz/detail/412261-monika-sobotkova-podebrady-iii.html","588"
"13","Vlak","Poděbrady","https://mapy.cz/zakladni?x=15.1236876671&y=50.1495743393&z=17&source=pubt&id=15212490","272"
"14","Lékárna","LÉKÁRNA V ALEJI, s.r.o.","https://www.firmy.cz/detail/12843040-lekarna-v-aleji-podebrady-iii.html","411"
"15","Lékař","MUDr. Jaroslav Pivoňka","https://www.firmy.cz/detail/390475-mudr-jaroslav-pivonka-podebrady-iii.html","427"
"16","Obchod","Tesco","https://www.firmy.cz/detail/12750637-tesco-podebrady-kluk.html","2698"
"17","Bankomat","Bankomat České spořitelny","https://www.firmy.cz/detail/594042-bankomat-ceske-sporitelny-podebrady-iii.html","298"
