"","facility_type","facility_name","facility_iri","facility_distance"
"0","Cukrárna","Eiscafe Delikana","https://www.firmy.cz/detail/13123166-eiscafe-delikana-prerov-i-mesto.html","1275"
"1","Kino","Kino Hvězda","https://www.firmy.cz/detail/13025002-kino-hvezda-prerov-i-mesto.html","1253"
"2","Hřiště","Dětské hřiště tř. Gen. Janouška","","305"
"3","Večerka","HRUŠKA","https://www.firmy.cz/detail/12819740-hruska-prerov-i-mesto.html","366"
"4","Hospoda","Pivnice Dukla & Bar Vagon","https://www.firmy.cz/detail/13120076-pivnice-dukla-bar-vagon-prerov-i-mesto.html","230"
"5","Divadlo","Loutkové divadlo Sokol Přerov","https://www.firmy.cz/detail/13157581-loutkove-divadlo-sokol-prerov-prerov-i-mesto.html","1681"
"6","Veterinář","Veterinární klinika - MVDr. Tomáš Barbořík","https://www.firmy.cz/detail/12855308-veterinarni-klinika-mvdr-tomas-barborik-prerov-i-mesto.html","1451"
"7","Restaurace","Restaurace Harmonie","https://www.firmy.cz/detail/564602-restaurace-harmonie-prerov-i-mesto.html","303"
"8","Lékař","MUDr. Stanislava Marečková","https://www.firmy.cz/detail/381263-mudr-stanislava-mareckova-prerov-i-mesto.html","225"
"9","Bankomat","Bankomat ČSOB","https://www.firmy.cz/detail/599288-bankomat-csob-prerov-i-mesto.html","226"
"10","Lékárna","Repharm, a.s.","https://www.firmy.cz/detail/13223968-repharm-prerov-i-mesto.html","234"
"11","Školka","MŠ Přerov, Dvořákova","https://www.firmy.cz/detail/2290991-ms-prerov-dvorakova-prerov-i-mesto.html","234"
"12","Sportoviště","Discgolf Laguna","","541"
"13","Škola","ZŠ Přerov, Dvořákova","https://www.firmy.cz/detail/2290988-zs-prerov-dvorakova-prerov-i-mesto.html","234"
"14","Pošta","Pošta Přerov 5 - Česká pošta, s.p.","https://www.firmy.cz/detail/431449-posta-prerov-5-prerov-i-mesto.html","712"
"15","Bus MHD","Přerov, nem.Meopta","","21"
"16","Obchod","THEIAEPSILON – Obchodní a nákupní centrum Kasárna Přerov - REALSANT, s.r.o.","https://www.firmy.cz/detail/13101976-theiaepsilon-obchodni-a-nakupni-centrum-kasarna-prerov-prerov-i-mesto.html","712"
"17","Vlak","Přerov","","2125"
