"","facility_type","facility_name","facility_iri","facility_distance"
"0","Hřiště","Dětské hřiště","https://mapy.cz/zakladni?x=14.049276523244089&y=50.64437528808383&z=17&source=base&id=2339678","710"
"1","Večerka","Můj obchod - AD supermarket","https://www.firmy.cz/detail/13262871-muj-obchod-ad-supermarket-usti-nad-labem-strekov.html","221"
"2","Veterinář","MVDr. Václav Poživil","https://www.firmy.cz/detail/639726-mvdr-vaclav-pozivil-usti-nad-labem-strekov.html","883"
"3","Hospoda","Hospůdka u Nebožtíka","https://www.firmy.cz/detail/13107561-hospudka-u-neboztika-usti-nad-labem-strekov.html","829"
"4","Cukrárna","Kavárna PRAHA","https://www.firmy.cz/detail/2603760-kavarna-praha-usti-nad-labem-strekov.html","1231"
"5","Kino","Cinema City Ústí nad Labem","https://www.firmy.cz/detail/2679909-cinema-city-usti-nad-labem-usti-nad-labem-centrum.html","1739"
"6","Divadlo","Činoherní studio města Ústí nad Labem","https://www.firmy.cz/detail/13085276-cinoherni-studio-mesta-usti-nad-labem-usti-nad-labem-strekov.html","1085"
"7","Vlak","Ústí nad Labem-Střekov","https://mapy.cz/zakladni?x=14.0486995374&y=50.6499081176&z=17&source=pubt&id=15698445","604"
"8","Školka","Mateřská škola  V Zeleni","https://www.firmy.cz/detail/13211169-materska-skola-v-zeleni-usti-nad-labem-strekov.html","80"
"9","Restaurace","Klubová restaurace u Karla IV.","https://www.firmy.cz/detail/12897050-klubova-restaurace-u-karla-iv-usti-nad-labem.html","376"
"10","Pošta","Pošta Ústí nad Labem 6 - Česká pošta, s.p.","https://www.firmy.cz/detail/215957-posta-usti-nad-labem-6-usti-nad-labem-strekov.html","860"
"11","Bus MHD","V Zeleni","https://mapy.cz/zakladni?x=14.056516415304706&y=50.64981294519506&z=17&source=pubt&id=15203733","150"
"12","Bankomat","Bankomat Komerční banky","https://www.firmy.cz/detail/13031349-bankomat-komercni-banky-usti-nad-labem-strekov.html","242"
"13","Sportoviště","Lasergame Ústí","https://www.firmy.cz/detail/13279832-lasergame-usti-usti-nad-labem-strekov.html","467"
"14","Lékař","MUDr. Věra Doutnáčová","https://www.firmy.cz/detail/388698-mudr-vera-doutnacova-usti-nad-labem-strekov.html","247"
"15","Obchod","Forum Ústí nad Labem","https://www.firmy.cz/detail/13270111-forum-usti-nad-labem-usti-nad-labem-centrum.html","1592"
"16","Škola","ZŠ Ústí nad Labem, Karla IV.","https://www.firmy.cz/detail/359864-zs-usti-nad-labem-karla-iv-usti-nad-labem-strekov.html","223"
"17","Lékárna","Dr. Max LÉKÁRNA","https://www.firmy.cz/detail/12942271-dr-max-lekarna-usti-nad-labem-centrum.html","1592"
