"","facility_type","facility_name","facility_iri","facility_distance"
"0","Cukrárna","Ostravanka Coffee Shop","https://www.firmy.cz/detail/12793545-ostravanka-coffee-shop-ostrava.html","40"
"1","Kino","Kino vesmír","https://www.firmy.cz/detail/12980428-kino-vesmir-ostrava-moravska-ostrava.html","177"
"2","Přírodní zajímavost","Uhelná sloj v Landeku","","3662"
"3","Hřiště","Dětské hřiště Husův sad","","188"
"4","Večerka","Bez Obalu Ostrava","https://www.firmy.cz/detail/2656374-bez-obalu-ostrava-ostrava-moravska-ostrava.html","209"
"5","Hospoda","MIRROR PUB & BILBOVA NORA","https://www.firmy.cz/detail/12939950-mirror-pub-bilbova-nora-ostrava-moravska-ostrava.html","270"
"6","Divadlo","Divadlo 12","https://www.firmy.cz/detail/13216354-divadlo-12-ostrava-moravska-ostrava.html","94"
"7","Veterinář","Veterinární ordinace - MVDr. Richard Saviola","https://www.firmy.cz/detail/477150-veterinarni-ordinace-mvdr-richard-saviola-ostrava-moravska-ostrava.html","1264"
"8","Školka","MŠ Ostrava, Dvořákova","https://www.firmy.cz/detail/2333638-ms-ostrava-dvorakova-ostrava-moravska-ostrava.html","139"
"9","Lékárna","BENU Lékárna","https://www.firmy.cz/detail/2234016-benu-lekarna-ostrava-moravska-ostrava.html","25"
"10","Pošta","Pošta Ostrava 1 - Česká pošta, s.p.","https://www.firmy.cz/detail/452777-posta-ostrava-1-ostrava-moravska-ostrava.html","104"
"11","Obchod","Obchodní centrum LASO","https://www.firmy.cz/detail/2071391-obchodni-centrum-laso-ostrava-moravska-ostrava.html","238"
"12","Bankomat","Vkladomat mBank","https://www.firmy.cz/detail/13133145-vkladomat-mbank-ostrava-moravska-ostrava.html","185"
"13","Lékař","BENESANO s.r.o.","https://www.firmy.cz/detail/12864662-benesano-s-r-o-ostrava-moravska-ostrava.html","170"
"14","Škola","NEWPORT INTERNATIONAL UNIVERSITY, s.r.o.","https://www.firmy.cz/detail/586886-newport-international-university-ostrava-moravska-ostrava.html","126"
"15","Tram","Stodolní","","274"
"16","Vlak","Ostrava-Stodolní","","690"
"17","Bus MHD","Husův sad","","247"
"18","Sportoviště","Tělocvičná jednota Sokol Moravská Ostrava 1","https://www.firmy.cz/detail/12782738-telocvicna-jednota-sokol-moravska-ostrava-1-ostrava-moravska-ostrava.html","157"
"19","Restaurace","Restaurace U Rady","https://www.firmy.cz/detail/12843030-restaurace-u-rady-ostrava-moravska-ostrava.html","39"
