"","facility_type","facility_name","facility_iri","facility_distance"
"0","Cukrárna","Vinotéka & Cukrárna Provence","https://www.firmy.cz/detail/13334698-vinoteka-cukrarna-provence-vsetin.html","928"
"1","Kino","Kino Vatra","https://www.firmy.cz/detail/1271652-kino-vatra-vsetin.html","1028"
"2","Hřiště","Dětské hřiště Družstevní","","146"
"3","Večerka","BALA potraviny - Minimarket Astra","https://www.firmy.cz/detail/13173978-bala-potraviny-minimarket-astra-vsetin.html","142"
"4","Hospoda","Restaurace Benátky 904","https://www.firmy.cz/detail/13117951-restaurace-benatky-904-vsetin.html","678"
"5","Divadlo","Loutkové divadélko Kohútek","https://www.firmy.cz/detail/1909094-loutkove-divadelko-kohutek-vsetin.html","920"
"6","Veterinář","Veterinární ordinace MVDr. Robert Just","https://www.firmy.cz/detail/13099632-veterinarni-ordinace-mvdr-robert-just-vsetin.html","650"
"7","Bus MHD","Vsetín, Rybníky, Družstevní","","80"
"8","Lékárna","Lékárna","https://www.firmy.cz/detail/305786-lekarna-vsetin.html","877"
"9","Bankomat","Bankomat Fio banky","https://www.firmy.cz/detail/12807705-bankomat-fio-banky-vsetin.html","833"
"10","Pošta","Pošta Vsetín 1 - Česká pošta, s.p.","https://www.firmy.cz/detail/216330-posta-vsetin-1-vsetin.html","865"
"11","Lékař","MUDr. Josef Machala","https://www.firmy.cz/detail/385535-mudr-josef-machala-vsetin.html","294"
"12","Školka","MŠ Vsetín, Benátky","https://www.firmy.cz/detail/2294476-ms-vsetin-benatky-vsetin.html","223"
"13","Obchod","Smetanova obchodní galerie","https://www.firmy.cz/detail/13226731-smetanova-obchodni-galerie-vsetin.html","1193"
"14","Škola","ZŠ Vsetín, Trávníky","https://www.firmy.cz/detail/360111-zs-vsetin-travniky-vsetin.html","366"
"15","Sportoviště","Jan Tichý - Sportovní trenér","https://www.firmy.cz/detail/13214834-jan-tichy-sportovni-trener-vsetin.html","354"
"16","Restaurace","Restaurace Amerika Rybníky","https://www.firmy.cz/detail/13233197-restaurace-amerika-rybniky-vsetin.html","272"
"17","Vlak","Vsetín","","1156"
