"","facility_type","facility_name","facility_iri","facility_distance"
"0","Cukrárna","Cukrárna - kavárna Cappuccino cafe","https://www.firmy.cz/detail/665805-cukrarna-kavarna-cappuccino-cafe-praha-zabehlice.html","765"
"1","Kino","Multikino - Premiere Cinemas Praha Hostivař","https://www.firmy.cz/detail/12745547-multikino-premiere-cinemas-praha-hostivar-praha-hostivar.html","2225"
"2","Hřiště","Dětské hřiště Měchenická","","25"
"3","Přírodní zajímavost","Mokřad Triangl","","2636"
"4","Večerka","Albert Supermarket","https://www.firmy.cz/detail/447089-albert-supermarket-praha-zabehlice.html","373"
"5","Hospoda","Hostinec U Parku","https://www.firmy.cz/detail/337032-hostinec-u-parku-praha-nusle.html","2929"
"6","Divadlo","SKAZKA, spol. s r.o.","https://www.firmy.cz/detail/2048564-skazka-praha-hostivar.html","2444"
"7","Veterinář","Well - vet., s.r.o.","https://www.firmy.cz/detail/597536-well-vet-praha-zabehlice.html","217"
"8","Restaurace","Hamerský sklípek","https://www.firmy.cz/detail/12919050-hamersky-sklipek-praha.html","168"
"9","Tram","Spořilov","","310"
"10","Obchod","Kaufland","https://www.firmy.cz/detail/221320-kaufland-praha-michle.html","1304"
"11","Sportoviště","TJ Meteor Spořilov o.s.","https://www.firmy.cz/detail/2648761-tj-meteor-sporilov-o-s-praha-zabehlice.html","355"
"12","Lékárna","Pilule, s.r.o.","https://www.firmy.cz/detail/2518600-pilule-praha-zabehlice.html","401"
"13","Bankomat","Bankomat Fio banky","https://www.firmy.cz/detail/2678027-bankomat-fio-banky-praha-zabehlice.html","319"
"14","Bus MHD","Měchenická","","127"
"15","Lékař","POLIKLINIKA SPOŘILOV s.r.o.","https://www.firmy.cz/detail/376929-poliklinika-sporilov-s-r-o-praha-zabehlice.html","578"
"16","Pošta","Pošta Praha 41 - Česká pošta, s.p.","https://www.firmy.cz/detail/217485-posta-praha-41-praha-zabehlice.html","395"
"17","Vlak","Praha-Zahradní Město","","1830"
"18","Škola","ZŠ Na Chodovci","https://www.firmy.cz/detail/356186-zs-na-chodovci-praha-zabehlice.html","208"
"19","Metro","Roztyly","","1539"
"20","Školka","MŠ Praha 4, Na Chodovci","https://www.firmy.cz/detail/2267125-ms-praha-4-na-chodovci-praha-zabehlice.html","97"
