"","facility_type","facility_name","facility_iri","facility_distance"
"0","Hřiště","Dětské hřiště ZOO horní vstup","https://mapy.cz/zakladni?x=14.0562511111&y=50.6672969444&z=17&source=base&id=2005412","683"
"1","Večerka","Van Bac Bui - potraviny","https://www.firmy.cz/detail/13311973-van-bac-bui-potraviny-usti-nad-labem-severni-terasa.html","134"
"2","Veterinář","MVDr. Lubomír Vojtek","https://www.firmy.cz/detail/274104-mvdr-lubomir-vojtek-usti-nad-labem-krasne-brezno.html","1126"
"3","Hospoda","Hospůdka Údolí","https://www.firmy.cz/detail/13134391-hospudka-udoli-usti-nad-labem-centrum.html","854"
"4","Cukrárna","Cukrárna U geparda","https://www.firmy.cz/detail/13048336-cukrarna-u-geparda-usti-nad-labem-krasne-brezno.html","746"
"5","Divadlo","Činoherní studio města Ústí nad Labem","https://www.firmy.cz/detail/13085276-cinoherni-studio-mesta-usti-nad-labem-usti-nad-labem-strekov.html","1937"
"6","Kino","Letní kino Ústí nad Labem","https://www.firmy.cz/detail/2556284-letni-kino-usti-nad-labem-usti-nad-labem.html","1618"
"7","Sportoviště","Ústecká krajská asociace Sport pro všechny","https://www.firmy.cz/detail/1891174-ustecka-krajska-asociace-sport-pro-vsechny-usti-nad-labem-severni-terasa.html","699"
"8","Bus MHD","Poláčkova","https://mapy.cz/zakladni?x=14.053704853776088&y=50.674196741084316&z=17&source=pubt&id=15203597","119"
"9","Pošta","Pošta Ústí nad Labem 11 - Česká pošta, s.p.","https://www.firmy.cz/detail/215961-posta-usti-nad-labem-11-usti-nad-labem-severni-terasa.html","1233"
"10","Obchod","Albert Hypermarket","https://www.firmy.cz/detail/229751-albert-hypermarket-usti-nad-labem-severni-terasa.html","1367"
"11","Lékárna","Lékárna U Slunce","https://www.firmy.cz/detail/376180-lekarna-u-slunce-usti-nad-labem-severni-terasa.html","395"
"12","Školka","Soukromá MŠ Domino","https://www.firmy.cz/detail/12891037-soukroma-ms-domino-usti-nad-labem-severni-terasa.html","311"
"13","Lékař","MUDr. Vlastimil Klát s.r.o.","https://www.firmy.cz/detail/13104455-mudr-vlastimil-klat-s-r-o-usti-nad-labem-severni-terasa.html","314"
"14","Škola","ZŠ Ústí nad Labem, Rabasova","https://www.firmy.cz/detail/359871-zs-usti-nad-labem-rabasova-usti-nad-labem-severni-terasa.html","130"
"15","Restaurace","Restaurace Slavia","https://www.firmy.cz/detail/13110514-restaurace-slavia-usti-nad-labem-severni-terasa.html","238"
"16","Vlak","Ústí nad Labem hlavní nádraží","https://mapy.cz/zakladni?x=14.0445763365&y=50.6594875336&z=17&source=pubt&id=15213131","1701"
"17","Bankomat","Bankomat ČSOB","https://www.firmy.cz/detail/597403-bankomat-csob-usti-nad-labem-krasne-brezno.html","1081"
