"","facility_type","facility_name","facility_iri","facility_distance"
"0","Cukrárna","Klub Atlantik","https://www.firmy.cz/detail/669942-klub-atlantik-ostrava-moravska-ostrava.html","82"
"1","Kino","Studio Karel","https://www.firmy.cz/detail/12950378-studio-karel-ostrava-moravska-ostrava.html","202"
"2","Přírodní zajímavost","Uhelná sloj v Landeku","","3720"
"3","Hřiště","Dětské hřiště Husův sad","","244"
"4","Večerka","BILLA","https://www.firmy.cz/detail/437757-billa-ostrava-moravska-ostrava.html","167"
"5","Hospoda","MIRROR PUB & BILBOVA NORA","https://www.firmy.cz/detail/12939950-mirror-pub-bilbova-nora-ostrava-moravska-ostrava.html","310"
"6","Divadlo","Divadlo 12","https://www.firmy.cz/detail/13216354-divadlo-12-ostrava-moravska-ostrava.html","148"
"7","Veterinář","Veterinární ordinace - MVDr. Richard Saviola","https://www.firmy.cz/detail/477150-veterinarni-ordinace-mvdr-richard-saviola-ostrava-moravska-ostrava.html","1306"
"8","Lékárna","BENU Lékárna","https://www.firmy.cz/detail/2234016-benu-lekarna-ostrava-moravska-ostrava.html","71"
"9","Tram","Elektra","","296"
"10","Škola","NEWPORT INTERNATIONAL UNIVERSITY, s.r.o.","https://www.firmy.cz/detail/586886-newport-international-university-ostrava-moravska-ostrava.html","100"
"11","Restaurace","Restaurace Pupík Trattoria Italiana","https://www.firmy.cz/detail/12921376-restaurace-pupik-trattoria-italiana-ostrava-moravska-ostrava.html","62"
"12","Lékař","BENESANO s.r.o.","https://www.firmy.cz/detail/12864662-benesano-s-r-o-ostrava-moravska-ostrava.html","117"
"13","Bankomat","Bankomat České spořitelny","https://www.firmy.cz/detail/2290969-bankomat-ceske-sporitelny-ostrava-moravska-ostrava.html","154"
"14","Vlak","Ostrava-Stodolní","","741"
"15","Bus MHD","Most M. Sýkory","","237"
"16","Školka","MŠ Ostrava, Dvořákova","https://www.firmy.cz/detail/2333638-ms-ostrava-dvorakova-ostrava-moravska-ostrava.html","213"
"17","Obchod","Obchodní centrum LASO","https://www.firmy.cz/detail/2071391-obchodni-centrum-laso-ostrava-moravska-ostrava.html","164"
"18","Sportoviště","SKS GAMES, s.r.o.","https://www.firmy.cz/detail/12797496-sks-games-ostrava-moravska-ostrava.html","189"
"19","Pošta","Pošta Ostrava 1 - Česká pošta, s.p.","https://www.firmy.cz/detail/452777-posta-ostrava-1-ostrava-moravska-ostrava.html","168"
