"","facility_type","facility_name","facility_iri","facility_distance"
"0","Cukrárna","Pražírna kávy Jedna Radost","https://www.firmy.cz/detail/13163653-prazirna-kavy-jedna-radost-ceske-budejovice-1.html","168"
"1","Kino","CineStar IGY Centrum","https://www.firmy.cz/detail/13096583-cinestar-igy-centrum-ceske-budejovice-3.html","642"
"2","Hřiště","Dětské hřiště","","482"
"3","Večerka","BILLA","https://www.firmy.cz/detail/13163631-billa-ceske-budejovice-3.html","20"
"4","Hospoda","Žíznivá Gumovka","https://www.firmy.cz/detail/13227416-zizniva-gumovka-ceske-budejovice-1.html","119"
"5","Divadlo","Jihočeské divadlo - Malé divadlo","https://www.firmy.cz/detail/2351551-jihoceske-divadlo-male-divadlo-ceske-budejovice-1.html","291"
"6","Veterinář","MVDr. Magda Jabulková - Veterinární ordinace","https://www.firmy.cz/detail/615689-mvdr-magda-jabulkova-veterinarni-ordinace-ceske-budejovice-3.html","719"
"7","Restaurace","Budějcká Srdcovka","https://www.firmy.cz/detail/13183837-budejcka-srdcovka-ceske-budejovice-3.html","40"
"8","Obchod","Mariánská - nákupní centrum","https://www.firmy.cz/detail/13170642-marianska-nakupni-centrum-ceske-budejovice-3.html","1"
"9","Bus MHD","Mariánské náměstí","","144"
"10","Lékárna","LÉKÁRNA PATRIOT","https://www.firmy.cz/detail/2296119-lekarna-patriot-ceske-budejovice-3.html","256"
"11","Školka","Anglická školka Abacus English Preschool","https://www.firmy.cz/detail/12988123-anglicka-skolka-abacus-english-preschool-ceske-budejovice-3.html","151"
"12","Škola","Obchodní akademie, České Budějovice","https://www.firmy.cz/detail/362176-obchodni-akademie-ceske-budejovice-ceske-budejovice-3.html","93"
"13","Lékař","MUDr. Jolana Trochtová","https://www.firmy.cz/detail/389202-mudr-jolana-trochtova-ceske-budejovice-1.html","192"
"14","Pošta","Pošta České Budějovice 4 - Česká pošta, s.p.","https://www.firmy.cz/detail/215235-posta-ceske-budejovice-4-ceske-budejovice-3.html","676"
"15","Vlak","České Budějovice","","1281"
"16","Sportoviště","Tenisový kurt Sokolský ostrov","https://www.firmy.cz/detail/13245154-tenisovy-kurt-sokolsky-ostrov-ceske-budejovice.html","452"
"17","Bankomat","Bankomat Komerční banky","https://www.firmy.cz/detail/13049105-bankomat-komercni-banky-ceske-budejovice-1.html","265"
