"","facility_type","facility_name","facility_iri","facility_distance"
"0","Cukrárna","Café Atrium","https://www.firmy.cz/detail/12933786-cafe-atrium-chomutov.html","122"
"1","Kino","Kino Svět","https://www.firmy.cz/detail/2644646-kino-svet-chomutov.html","1047"
"2","Hřiště","Dětské hřiště sady Čs. armády","","607"
"3","Večerka","Potraviny T&I","https://www.firmy.cz/detail/13256911-potraviny-t-i-chomutov.html","24"
"4","Divadlo","Městské divadlo Chomutov","https://www.firmy.cz/detail/2644644-mestske-divadlo-chomutov-chomutov.html","661"
"5","Hospoda","Hospoda Tržnice","https://www.firmy.cz/detail/13247823-hospoda-trznice-chomutov.html","196"
"6","Veterinář","Veterinární klinika Chomutov s.r.o.","https://www.firmy.cz/detail/1887984-veterinarni-klinika-chomutov-s-r-o-chomutov.html","406"
"7","Lékárna","Lékárna Na náměstí |Urtica Lékárna","https://www.firmy.cz/detail/13200295-lekarna-na-namesti-urtica-lekarna-chomutov.html","144"
"8","Bus MHD","Chomutov, Riegrova","","93"
"9","Škola","ZŠ Chomutov,  Na Příkopech","https://www.firmy.cz/detail/357372-zs-chomutov-na-prikopech-chomutov.html","170"
"10","Obchod","Kaufland","https://www.firmy.cz/detail/12855793-kaufland-chomutov.html","495"
"11","Sportoviště","Městská sportovní hala Chomutov","https://www.firmy.cz/detail/684617-mestska-sportovni-hala-chomutov-chomutov.html","374"
"12","Školka","MŠ Chomutov, Palackého","https://www.firmy.cz/detail/1345643-ms-chomutov-palackeho-chomutov.html","348"
"13","Bankomat","Bankomat MONETA Money Bank","https://www.firmy.cz/detail/603510-bankomat-moneta-money-bank-chomutov.html","127"
"14","Pošta","Pošta Chomutov 2 - Česká pošta, s.p.","https://www.firmy.cz/detail/658734-posta-chomutov-2-chomutov.html","543"
"15","Lékař","MUDr. Milan Jedlička","https://www.firmy.cz/detail/390513-mudr-milan-jedlicka-chomutov.html","262"
"16","Restaurace","Restaurace Gest","https://www.firmy.cz/detail/2552438-restaurace-gest-chomutov.html","45"
"17","Vlak","Chomutov město","","1219"
