"","facility_type","facility_name","facility_iri","facility_distance"
"0","Cukrárna","Cukrárna U koupaliště","https://www.firmy.cz/detail/12821838-cukrarna-u-koupaliste-louny.html","4407"
"1","Kino","Kino Svět Louny","https://www.firmy.cz/detail/2411773-kino-svet-louny-louny.html","4568"
"2","Přírodní zajímavost","Touchovická stráň","","2780"
"3","Hřiště","Dětské hřiště","","444"
"4","Večerka","JEDNOTA, spotřební družstvo v Podbořanech - COOP","https://www.firmy.cz/detail/2565553-jednota-spotrebni-druzstvo-v-podboranech-coop-jimlin-zemechy.html","69"
"5","Hospoda","Dobrý pramen","https://www.firmy.cz/detail/13124250-dobry-pramen-zbrasin.html","3263"
"6","Divadlo","Vrchlického divadlo","https://www.firmy.cz/detail/397157-vrchlickeho-divadlo-louny.html","4682"
"7","Veterinář","MVDr. Stanislav Křivan","https://www.firmy.cz/detail/1318003-mvdr-stanislav-krivan-louny.html","4284"
"8","Vlak","Jimlín","","121"
"9","Restaurace","Občerstvení Shell","https://www.firmy.cz/detail/13122822-obcerstveni-shell-louny.html","3833"
"10","Školka","ZŠ a MŠ Zeměchy","https://www.firmy.cz/detail/442780-zs-a-ms-zemechy-jimlin-zemechy.html","232"
"11","Pošta","Pošta Jimlín - Česká pošta, s.p.","https://www.firmy.cz/detail/13329804-posta-jimlin-jimlin-zemechy.html","81"
"12","Bus MHD","Jimlín, Zeměchy","","74"
"13","Bankomat","Bankomat České spořitelny","https://www.firmy.cz/detail/593248-bankomat-ceske-sporitelny-louny.html","3980"
"14","Škola","ZŠ a MŠ Zeměchy","https://www.firmy.cz/detail/360203-zs-a-ms-zemechy-jimlin-zemechy.html","202"
"15","Sportoviště","Tenisové kurty Březno u Loun - Alena Sunkovská","https://www.firmy.cz/detail/12790770-tenisove-kurty-brezno-u-loun-postoloprty-brezno.html","3494"
"16","Lékař","MUDr. Iveta Bušáková","https://www.firmy.cz/detail/12756013-mudr-iveta-busakova-louny.html","4478"
"17","Lékárna","BENU lékárna","https://www.firmy.cz/detail/13186971-benu-lekarna-louny.html","4292"
