"","facility_type","facility_name","facility_iri","facility_distance"
"0","Hřiště","Dětské hřiště Křejpského","https://mapy.cz/zakladni?x=14.5135855789&y=50.0276904847&z=17&source=base&id=1926459","274"
"1","Večerka","BILLA","https://www.firmy.cz/detail/12784296-billa-praha-chodov.html","76"
"2","Cukrárna","Cukrárna Amarilis","https://www.firmy.cz/detail/2570922-cukrarna-amarilis-praha-haje.html","1120"
"3","Veterinář","Veterinární ambulance AA-Vet","https://www.firmy.cz/detail/646998-veterinarni-ambulance-aa-vet-praha-chodov.html","417"
"4","Hospoda","U Kajmana","https://www.firmy.cz/detail/13156223-u-kajmana-praha-chodov.html","281"
"5","Divadlo","SKAZKA, spol. s r.o.","https://www.firmy.cz/detail/2048564-skazka-praha-hostivar.html","2137"
"6","Přírodní zajímavost","Mokřad Triangl","https://mapy.cz/zakladni?x=14.5188041667&y=50.0615525&z=17&source=base&id=1981356","3969"
"7","Kino","Cinema City Chodov","https://www.firmy.cz/detail/13098016-cinema-city-chodov-praha-chodov.html","1904"
"8","Restaurace","PIZZA GRANDE","https://www.firmy.cz/detail/12985334-pizza-grande-praha-chodov.html","0"
"9","Pošta","Pošta Praha 415 - Česká pošta, s.p.","https://www.firmy.cz/detail/431273-posta-praha-415-praha-chodov.html","655"
"10","Bankomat","Bankomat Komerční banky","https://www.firmy.cz/detail/13033985-bankomat-komercni-banky-praha-chodov.html","86"
"11","Lékárna","BENU lékárna","https://www.firmy.cz/detail/13268276-benu-lekarna-praha-chodov.html","99"
"12","Obchod","OC Opatovská","https://www.firmy.cz/detail/13273144-oc-opatovska-praha-chodov.html","90"
"13","Školka","MŠ Praha 4, Křejpského","https://www.firmy.cz/detail/646830-ms-praha-4-krejpskeho-praha-chodov.html","190"
"14","Škola","ZŠ a SŠ waldorfská","https://www.firmy.cz/detail/469051-zs-a-ss-waldorfska-praha-chodov.html","252"
"15","Sportoviště","Pražský rekreační stolní tenis","https://www.firmy.cz/detail/2652351-prazsky-rekreacni-stolni-tenis-praha-chodov.html","232"
"16","Metro","Opatov","https://mapy.cz/zakladni?x=14.5083966198207&y=50.0276274768643&z=17&source=pubt&id=19419426","591"
"17","Bus MHD","Ke Kateřinkám","https://mapy.cz/zakladni?x=14.5155580083&y=50.0251754703&z=17&source=pubt&id=15302689","93"
"18","Lékař","MEDICO, spol. s r.o.","https://www.firmy.cz/detail/376990-medico-praha-chodov.html","113"
"19","Vlak","Praha-Hostivař","https://mapy.cz/zakladni?x=14.5382405134&y=50.0550223431&z=17&source=pubt&id=15212564","3600"
"20","Tram","Na Groši","https://mapy.cz/zakladni?x=14.5237713355&y=50.0529111075&z=17&source=pubt&id=15301077","3052"
