"","facility_type","facility_name","facility_iri","facility_distance"
"0","Hřiště","Dětské hřiště Buková","https://mapy.cz/zakladni?x=15.5578690767&y=49.4060522987&z=17&source=base&id=2111977","177"
"1","Přírodní zajímavost","Pístovské mokřady","https://mapy.cz/zakladni?x=15.5664288889&y=49.3729183333&z=17&source=base&id=1981399","3828"
"2","Kino","Kino Dukla","https://www.firmy.cz/detail/12792238-kino-dukla-jihlava.html","2432"
"3","Hospoda","Formanská pošta","https://www.firmy.cz/detail/13188191-formanska-posta-jihlava-horni-kosov.html","392"
"4","Večerka","Originální delikatesy","https://www.firmy.cz/detail/13209026-originalni-delikatesy-jihlava-horni-kosov.html","372"
"5","Veterinář","MVDr. Michael Horský - veterinární ordinace","https://www.firmy.cz/detail/663824-mvdr-michael-horsky-veterinarni-ordinace-jihlava.html","1718"
"6","Cukrárna","Cukrárna Máslové trubičky","https://www.firmy.cz/detail/12944349-cukrarna-maslove-trubicky-jihlava.html","1770"
"7","Divadlo","BOBODIVADLO","https://www.firmy.cz/detail/580320-bobodivadlo-jihlava.html","2087"
"8","Školka","Mateřská škola Jarní 22a, Jihlava","https://www.firmy.cz/detail/1889513-materska-skola-jarni-22a-jihlava-jihlava-horni-kosov.html","383"
"9","Pošta","Pošta Jihlava 5 - Česká pošta, s.p.","https://www.firmy.cz/detail/217557-posta-jihlava-5-jihlava-horni-kosov.html","306"
"10","Bus MHD","Horní Kosov","https://mapy.cz/zakladni?x=15.5562310505&y=49.4039742732&z=17&source=pubt&id=15699890","297"
"11","Lékař","MUDr. Klára Hodáčová","https://www.firmy.cz/detail/12832695-mudr-klara-hodacova-jihlava-stare-hory.html","647"
"12","Restaurace","Steak House Dolina","https://www.firmy.cz/detail/2454204-steak-house-dolina-jihlava.html","1010"
"13","Sportoviště","„Na pohodu”","https://www.firmy.cz/detail/197622--na-pohodu-jihlava-horni-kosov.html","151"
"14","Vlak","Jihlava-Staré Hory","https://mapy.cz/zakladni?x=15.568058444&y=49.4102600778&z=17&source=pubt&id=15211654","989"
"15","Lékárna","Dr. Max LÉKÁRNA","https://www.firmy.cz/detail/13321777-dr-max-lekarna-jihlava-pistov.html","1437"
"16","Škola","ZŠ Jihlava, Jarní","https://www.firmy.cz/detail/2587414-zs-jihlava-jarni-jihlava-horni-kosov.html","396"
"17","Bankomat","Bankomat České spořitelny","https://www.firmy.cz/detail/2289489-bankomat-ceske-sporitelny-jihlava.html","1011"
"18","Obchod","Aventin Shopping Jihlava","https://www.firmy.cz/detail/13319014-aventin-shopping-jihlava-jihlava.html","1340"
