"","facility_type","facility_name","facility_iri","facility_distance"
"0","Cukrárna","Kavárna MonRo","https://www.firmy.cz/detail/12883202-kavarna-monro-brno-stare-brno.html","111"
"1","Kino","Cinema City Velký Špalíček","https://www.firmy.cz/detail/2679905-cinema-city-velky-spalicek-brno-mesto.html","651"
"2","Přírodní zajímavost","Koniklecová louka","","3548"
"3","Hřiště","Dětské hřiště Vodní","","278"
"4","Večerka","Můjobchod - Potraviny Petr Škrabal","https://www.firmy.cz/detail/476581-mujobchod-potraviny-petr-skrabal-brno-stare-brno.html","264"
"5","Hospoda","Unleaded coffee","https://www.firmy.cz/detail/13128981-unleaded-coffee-brno-stare-brno.html","54"
"6","Divadlo","Divadlo Husa na provázku","https://www.firmy.cz/detail/231629-divadlo-husa-na-provazku-brno-mesto.html","638"
"7","Veterinář","Veterinární ordinace - MVDr. Klára Palicová","https://www.firmy.cz/detail/13185639-veterinarni-ordinace-mvdr-klara-palicova-brno-stare-brno.html","333"
"8","Vlak","Brno hlavní nádraží","","963"
"9","Tram","Nemocnice u sv. Anny","","145"
"10","Pošta","Pošta Brno 3 - Česká pošta, s.p.","https://www.firmy.cz/detail/431875-posta-brno-3-brno-stare-brno.html","472"
"11","Lékárna","Nemocniční lékárna - Fakultní nemocnice u sv. Anny v Brně","https://www.firmy.cz/detail/377427-nemocnicni-lekarna-fakultni-nemocnice-u-sv-anny-v-brne-brno-stare-brno.html","139"
"12","Lékař","Medical Center","https://www.firmy.cz/detail/1558573-medical-center-brno-stare-brno.html","179"
"13","Restaurace","Restaurace BORGO AGNESE","https://www.firmy.cz/detail/2201671-restaurace-borgo-agnese-brno-stare-brno.html","212"
"14","Obchod","Velký Špalíček","https://www.firmy.cz/detail/1546677-velky-spalicek-brno-mesto.html","639"
"15","Sportoviště","Lenka Navrátilová","https://www.firmy.cz/detail/2595317-lenka-navratilova-brno-stare-brno.html","198"
"16","Bus MHD","Mendlovo náměstí","","416"
"17","Bankomat","Bankomat Komerční banky","https://www.firmy.cz/detail/591994-bankomat-komercni-banky-brno-stare-brno.html","141"
"18","Školka","MŠ Zdislava, Brno","https://www.firmy.cz/detail/191410-ms-zdislava-brno-brno-mesto.html","387"
"19","Škola","Gymnázium J.G.Mendela a jeho zařízení a Základní umělecká škola","https://www.firmy.cz/detail/361594-gymnazium-j-g-mendela-a-jeho-zarizeni-a-zakladni-umelecka-skola-brno-stare-brno.html","251"
