"","facility_type","facility_name","facility_iri","facility_distance"
"0","Cukrárna","Orchard I","https://www.firmy.cz/detail/12956520-orchard-i-ostrava-moravska-ostrava.html","610"
"1","Kino","CineStar Ostrava","https://www.firmy.cz/detail/661182-cinestar-ostrava-ostrava-moravska-ostrava.html","1662"
"2","Přírodní zajímavost","Uhelná sloj v Landeku","","2222"
"3","Hřiště","Dětské hřiště Maroldova","","434"
"4","Večerka","Supermarket Quyet","https://www.firmy.cz/detail/13056556-supermarket-quyet-ostrava-privoz.html","319"
"5","Hospoda","Dřysty v kisni","https://www.firmy.cz/detail/12988076-drysty-v-kisni-ostrava-privoz.html","554"
"6","Divadlo","Loutkový svět","https://www.firmy.cz/detail/13033024-loutkovy-svet-ostrava-moravska-ostrava.html","1018"
"7","Veterinář","VETPARK Ostrava, s.r.o.","https://www.firmy.cz/detail/13308555-vetpark-ostrava-ostrava-moravska-ostrava.html","1373"
"8","Lékárna","Lékárna U Madony","https://www.firmy.cz/detail/154236-lekarna-u-madony-ostrava-privoz.html","365"
"9","Bankomat","Bankomat MONETA Money Bank","https://www.firmy.cz/detail/1650838-bankomat-moneta-money-bank-ostrava-privoz.html","424"
"10","Bus MHD","Jirská osada","","49"
"11","Pošta","Pošta Ostrava 2","https://www.firmy.cz/detail/433391-posta-ostrava-2-ostrava-privoz.html","504"
"12","Škola","ZŠ Ostrava, Gebauerova","https://www.firmy.cz/detail/12969953-zs-ostrava-gebauerova-ostrava-privoz.html","355"
"13","Školka","Rodinné a komunitní centrum Chaloupka","https://www.firmy.cz/detail/732587-rodinne-a-komunitni-centrum-chaloupka-ostrava-moravska-ostrava.html","544"
"14","Restaurace","Restaurace Max","https://www.firmy.cz/detail/13233295-restaurace-max-ostrava-privoz.html","344"
"15","Lékař","MDDr. Václav Lampart","https://www.firmy.cz/detail/13179874-mddr-vaclav-lampart-ostrava-moravska-ostrava.html","618"
"16","Sportoviště","Corkers Ostrava z.s.","https://www.firmy.cz/detail/770703-corkers-ostrava-z-s-ostrava-moravska-ostrava.html","218"
"17","Vlak","Ostrava hlavní nádraží","","508"
"18","Obchod","Tesco","https://www.firmy.cz/detail/733902-tesco-ostrava-moravska-ostrava.html","1614"
"19","Tram","Náměstí S. Čecha","","364"
