"","facility_type","facility_name","facility_iri","facility_distance"
"0","Cukrárna","Kafírna Zlaté zrnko","https://www.firmy.cz/detail/13261559-kafirna-zlate-zrnko-zlin.html","823"
"1","Kino","Multikino Golden Apple Cinema","https://www.firmy.cz/detail/2138121-multikino-golden-apple-cinema-zlin.html","1172"
"2","Hřiště","Dětské hřiště Zálešná I","","87"
"3","Večerka","Jednota, spotřební družstvo ve Zlíně - COOP","https://www.firmy.cz/detail/2607935-jednota-spotrebni-druzstvo-ve-zline-coop-zlin.html","198"
"4","Divadlo","Divadlo Malá scéna Zlín","https://www.firmy.cz/detail/396936-divadlo-mala-scena-zlin-zlin.html","636"
"5","Hospoda","Pivnice Boston","https://www.firmy.cz/detail/13136154-pivnice-boston-zlin.html","869"
"6","Veterinář","Veterinární klinika AAnimalCare","https://www.firmy.cz/detail/1986357-veterinarni-klinika-aanimalcare-zlin.html","399"
"7","Sportoviště","Zlínská šermířská společnost","https://www.firmy.cz/detail/2518835-zlinska-sermirska-spolecnost-zlin.html","604"
"8","Lékárna","Lékárna Alfa Farm","https://www.firmy.cz/detail/2429169-lekarna-alfa-farm-zlin.html","511"
"9","Obchod","Kaufland","https://www.firmy.cz/detail/1690955-kaufland-zlin.html","835"
"10","Pošta","Pošta Zlín 7 - Česká pošta, s.p.","https://www.firmy.cz/detail/432905-posta-zlin-7-zlin.html","825"
"11","Restaurace","Sportarena u Jeleňa","https://www.firmy.cz/detail/2332826-sportarena-u-jelena-zlin.html","202"
"12","Bus MHD","Padělky IX.","","173"
"13","Vlak","Zlín-Podvesná","","723"
"14","Školka","MŠ Zlín, Kúty","https://www.firmy.cz/detail/2370594-ms-zlin-kuty-zlin.html","263"
"15","Škola","ZŠ Komenského II, Zlín","https://www.firmy.cz/detail/360212-zs-komenskeho-ii-zlin-zlin.html","59"
"16","Lékař","A-MEDICOS ZLÍN s.r.o.","https://www.firmy.cz/detail/12863477-a-medicos-zlin-s-r-o-zlin.html","259"
"17","Bankomat","Bankomat České spořitelny","https://www.firmy.cz/detail/12836548-bankomat-ceske-sporitelny-zlin.html","531"
