"","facility_type","facility_name","facility_iri","facility_distance"
"0","Cukrárna","Shisha Room Dvin","https://www.firmy.cz/detail/12935886-shisha-room-dvin-praha-cerny-most.html","1234"
"1","Kino","CineStar Černý Most","https://www.firmy.cz/detail/2537569-cinestar-cerny-most-praha-cerny-most.html","1715"
"2","Přírodní zajímavost","Meandry Rokytky","","3796"
"3","Hřiště","Dětské hřiště Paculova","","1051"
"4","Večerka","Potraviny Na Růžku","https://www.firmy.cz/detail/12754186-potraviny-na-ruzku-praha.html","954"
"5","Divadlo","Přírodní divadlo Dády Stoklasy","https://www.firmy.cz/detail/13159295-prirodni-divadlo-dady-stoklasy-praha-horni-pocernice.html","3215"
"6","Hospoda","U Lachtana","https://www.firmy.cz/detail/13209482-u-lachtana-praha-kyje.html","560"
"7","Veterinář","MetropoleVet","https://www.firmy.cz/detail/12988353-metropolevet-praha-kyje.html","842"
"8","Školka","Be Happy montessori mateřská škola","https://www.firmy.cz/detail/13150275-be-happy-montessori-materska-skola-praha-hloubetin.html","642"
"9","Restaurace","Restaurace Na Hrádku","https://www.firmy.cz/detail/2462131-restaurace-na-hradku-praha-kyje.html","665"
"10","Metro","Rajská zahrada","","939"
"11","Lékárna","Lékárna U Rajské zahrady","https://www.firmy.cz/detail/659704-lekarna-u-rajske-zahrady-praha-cerny-most.html","1121"
"12","Bus MHD","Sicherova","","153"
"13","Sportoviště","TH Satalice, spol. s r.o.","https://www.firmy.cz/detail/158498-th-satalice-praha-satalice.html","832"
"14","Obchod","MAKRO Cash & Carry","https://www.firmy.cz/detail/325620-makro-cash-carry-praha-horni-pocernice.html","1123"
"15","Vlak","Praha-Satalice","","1010"
"16","Pošta","Pošta Praha 98 - Česká pošta, s.p.","https://www.firmy.cz/detail/431412-posta-praha-98-praha-cerny-most.html","1125"
"17","Bankomat","Bankomat ČSOB","https://www.firmy.cz/detail/12966053-bankomat-csob-praha-horni-pocernice.html","1104"
"18","Lékař","MUDr. Zdeněk Valentík","https://www.firmy.cz/detail/385952-mudr-zdenek-valentik-praha-cerny-most.html","1104"
"19","Škola","Soukromé střední odborné učiliště ATHOZ, spol. s r.o.","https://www.firmy.cz/detail/362443-soukrome-stredni-odborne-uciliste-athoz-praha-kyje.html","831"
"20","Tram","Lehovec","","1442"
