"","facility_type","facility_name","facility_iri","facility_distance"
"0","Cukrárna","Učňovská cukrárna","https://www.firmy.cz/detail/12819209-ucnovska-cukrarna-kladno-krocehlavy.html","83"
"1","Kino","Kino Hutník","https://www.firmy.cz/detail/396729-kino-hutnik-kladno-krocehlavy.html","902"
"2","Hřiště","Dětské hřiště Italská","","57"
"3","Večerka","Akční potraviny SOVÁK","https://www.firmy.cz/detail/13242192-akcni-potraviny-sovak-kladno-krocehlavy.html","18"
"4","Divadlo","Městské divadlo Kladno","https://www.firmy.cz/detail/1970001-mestske-divadlo-kladno-kladno.html","1531"
"5","Hospoda","Na základně","https://www.firmy.cz/detail/570154-na-zakladne-kladno-krocehlavy.html","555"
"6","Veterinář","Veterinární ambulance MVDr. Jan Černý","https://www.firmy.cz/detail/599736-veterinarni-ambulance-mvdr-jan-cerny-kladno-krocehlavy.html","265"
"7","Bus MHD","Kladno, U Kauflandu","","108"
"8","Restaurace","Pizza House","https://www.firmy.cz/detail/13339326-pizza-house-kladno-krocehlavy.html","134"
"9","Obchod","Kaufland","https://www.firmy.cz/detail/1406115-kaufland-kladno-krocehlavy.html","198"
"10","Škola","Střední škola designu a řemesel Kladno","https://www.firmy.cz/detail/361368-stredni-skola-designu-a-remesel-kladno-kladno-krocehlavy.html","345"
"11","Lékař","Ordinace PL MUDr. Zdenka Korbová s.r.o.","https://www.firmy.cz/detail/12726065-ordinace-pl-mudr-zdenka-korbova-s-r-o-kladno-krocehlavy.html","100"
"12","Bankomat","Bankomat Komerční banky","https://www.firmy.cz/detail/596110-bankomat-komercni-banky-kladno-krocehlavy.html","155"
"13","Lékárna","Dr. Max LÉKÁRNA","https://www.firmy.cz/detail/2007055-dr-max-lekarna-kladno-krocehlavy.html","167"
"14","Sportoviště","Sportovní klub Panteři Kladno","https://www.firmy.cz/detail/12961068-sportovni-klub-panteri-kladno-kladno-krocehlavy.html","327"
"15","Školka","ZŠ a MŠ Kladno, Vodárenská","https://www.firmy.cz/detail/731121-zs-a-ms-kladno-vodarenska-kladno-krocehlavy.html","373"
"16","Pošta","Pošta Kladno 6 - Česká pošta, s.p.","https://www.firmy.cz/detail/216841-posta-kladno-6-kladno-krocehlavy.html","562"
"17","Vlak","Kladno","","380"
