"","facility_type","facility_name","facility_iri","facility_distance"
"0","Cukrárna","Happy Pops Café  - Prague Cakepop Shop & Café","https://www.firmy.cz/detail/2697476-happy-pops-cafe-prague-cakepop-shop-cafe-praha-nusle.html","199"
"1","Kino","HopeTV","https://www.firmy.cz/detail/672889-hopetv-praha-vinohrady.html","1569"
"2","Hřiště","Dětské hřiště Jiráskovy sady","","395"
"3","Večerka","Smíšené zboží Táborská 23","https://www.firmy.cz/detail/2467827-smisene-zbozi-taborska-23-praha-nusle.html","261"
"4","Hospoda","BEER BAR Na Veseli","https://www.firmy.cz/detail/2553652-beer-bar-na-veseli-praha-nusle.html","485"
"5","Divadlo","TotO Divadlo","https://www.firmy.cz/detail/2262258-toto-divadlo-praha-nusle.html","335"
"6","Veterinář","Veterinární klinika Nusle","https://www.firmy.cz/detail/640960-veterinarni-klinika-nusle-praha-nusle.html","514"
"7","Restaurace","Restaurace Klepáč","https://www.firmy.cz/detail/330284-restaurace-klepac-praha-nusle.html","81"
"8","Obchod","Arkády Pankrác","https://www.firmy.cz/detail/2245240-arkady-pankrac-praha-nusle.html","925"
"9","Metro","Pražského povstání","","304"
"10","Lékárna","Lékárna U sv. Pankráce","https://www.firmy.cz/detail/422787-lekarna-u-sv-pankrace-praha-nusle.html","395"
"11","Lékař","MS Medical, s.r.o.","https://www.firmy.cz/detail/2560380-ms-medical-praha-nusle.html","192"
"12","Školka","MŠ Prospect","https://www.firmy.cz/detail/679634-ms-prospect-praha-nusle.html","444"
"13","Bus MHD","Pražského povstání","","230"
"14","Škola","ZUŠ Praha 4, Lounských","https://www.firmy.cz/detail/427093-zus-praha-4-lounskych-praha-nusle.html","111"
"15","Sportoviště","Český florbal","https://www.firmy.cz/detail/198358-cesky-florbal-praha-nusle.html","314"
"16","Bankomat","Bankomat ČSOB","https://www.firmy.cz/detail/599589-bankomat-csob-praha-nusle.html","249"
"17","Pošta","Pošta Praha 416 - Česká pošta, s.p.","https://www.firmy.cz/detail/217473-posta-praha-416-praha-nusle.html","688"
"18","Vlak","Praha-Vršovice","","1063"
"19","Tram","Palouček","","244"
