"","facility_type","facility_name","facility_iri","facility_distance"
"0","Cukrárna","Cukrárna Podbořany","https://www.firmy.cz/detail/12968850-cukrarna-podborany-podborany.html","317"
"1","Kino","Městské kino Podbořany","https://www.firmy.cz/detail/2474406-mestske-kino-podborany-podborany.html","172"
"2","Hřiště","Dětské hřiště Kpt. Nálepky","","185"
"3","Večerka","Večerka Dukelská 192","https://www.firmy.cz/detail/12895797-vecerka-dukelska-192-podborany.html","105"
"4","Hospoda","Restaurace Krásný Dvůr 2","https://www.firmy.cz/detail/13123922-restaurace-krasny-dvur-2-krasny-dvur-vysoke-trebusice.html","3223"
"5","Veterinář","Špergl - veterinární ordinace","https://www.firmy.cz/detail/618909-spergl-veterinarni-ordinace-podborany.html","285"
"6","Lékař","MUDr. Marie Storčáková","https://www.firmy.cz/detail/387587-mudr-marie-storcakova-podborany.html","285"
"7","Sportoviště","Tělovýchovná jednota Baník Buškovice","https://www.firmy.cz/detail/2381185-telovychovna-jednota-banik-buskovice-podborany.html","448"
"8","Škola","ZUŠ Podbořany","https://www.firmy.cz/detail/427192-zus-podborany-podborany.html","181"
"9","Bankomat","Bankomat ČSOB","https://www.firmy.cz/detail/1423981-bankomat-csob-podborany.html","211"
"10","Školka","MŠ Podbořany, Bratří Čapků","https://www.firmy.cz/detail/2547779-ms-podborany-bratri-capku-podborany.html","559"
"11","Vlak","Podbořany","","843"
"12","Restaurace","Asia bistro Mai Lan","https://www.firmy.cz/detail/12895671-asia-bistro-mai-lan-podborany.html","105"
"13","Pošta","Pošta Podbořany - Česká pošta, s.p.","https://www.firmy.cz/detail/432278-posta-podborany-podborany.html","211"
"14","Lékárna","U Zlatého anděla","https://www.firmy.cz/detail/618908-u-zlateho-andela-podborany.html","285"
"15","Bus MHD","Podbořany, Žatecká","","167"
