"","facility_type","facility_name","facility_iri","facility_distance"
"0","Hřiště","Dětské hřiště Vlnařská","https://mapy.cz/zakladni?x=15.0710983774&y=50.7622253496&z=17&source=base&id=1928160","124"
"1","Hospoda","Hospoda Pohoda","https://www.firmy.cz/detail/13116548-hospoda-pohoda-liberec-xv-stary-harcov.html","887"
"2","Cukrárna","Liberecká pražírna","https://www.firmy.cz/detail/12941266-liberecka-prazirna-liberec-iv-perstyn.html","911"
"3","Veterinář","MVDr. Jiří Jiroudek - Veterina Oblačná","https://www.firmy.cz/detail/2135004-mvdr-jiri-jiroudek-veterina-oblacna-liberec-v-kristianov.html","548"
"4","Kino","Cinema City Liberec","https://www.firmy.cz/detail/2679906-cinema-city-liberec-liberec-iv-perstyn.html","1107"
"5","Večerka","Pramen","https://www.firmy.cz/detail/12812260-pramen-liberec-vi-rochlice.html","367"
"6","Divadlo","Naivní divadlo Liberec","https://www.firmy.cz/detail/230860-naivni-divadlo-liberec-liberec-iv-perstyn.html","995"
"7","Přírodní zajímavost","Opičák","https://mapy.cz/zakladni?x=15.0248686111&y=50.7720466667&z=17&source=base&id=1978555","3317"
"8","Sportoviště","TJ PROVAS Liberec","https://www.firmy.cz/detail/2652889-tj-provas-liberec-liberec-vi-rochlice.html","291"
"9","Bus MHD","Textilana","https://mapy.cz/zakladni?x=15.0692300189&y=50.7651567357&z=17&source=pubt&id=15711589","246"
"10","Restaurace","Restaurace Centrum","https://www.firmy.cz/detail/1912232-restaurace-centrum-liberec-v-kristianov.html","488"
"11","Školka","MŠ Motýlek Liberec","https://www.firmy.cz/detail/407380-ms-motylek-liberec-liberec-vi-rochlice.html","284"
"12","Škola","ZŠ Liberec, Broumovská","https://www.firmy.cz/detail/358011-zs-liberec-broumovska-liberec-vi-rochlice.html","302"
"13","Lékař","MUDr. Vlastimil Vindyš","https://www.firmy.cz/detail/385899-mudr-vlastimil-vindys-liberec-vi-rochlice.html","324"
"14","Lékárna","EUC Lékárna","https://www.firmy.cz/detail/13244459-euc-lekarna-liberec-v-kristianov.html","664"
"15","Tram","Textilana","https://mapy.cz/zakladni?x=15.0673986414&y=50.7648441703&z=17&source=pubt&id=15204180","268"
"16","Pošta","Pošta Liberec 1 - Česká pošta, s.p.","https://www.firmy.cz/detail/215967-posta-liberec-1-liberec-i-stare-mesto.html","1096"
"17","Vlak","Liberec","https://mapy.cz/zakladni?x=15.0462577517&y=50.7615013305&z=17&source=pubt&id=15211938","1664"
"18","Obchod","Obchodní centrum LBC","https://www.firmy.cz/detail/12975672-obchodni-centrum-lbc-liberec-iv-perstyn.html","944"
"19","Bankomat","Bankomat České spořitelny","https://www.firmy.cz/detail/593142-bankomat-ceske-sporitelny-liberec-vi-rochlice.html","316"
