"","facility_type","facility_name","facility_iri","facility_distance"
"0","Cukrárna","Cukrárna Amarilis","https://www.firmy.cz/detail/13334795-cukrarna-amarilis-praha-zizkov.html","62"
"1","Kino","Kino Aero","https://www.firmy.cz/detail/399435-kino-aero-praha-zizkov.html","569"
"2","Přírodní zajímavost","Meandry Rokytky","","2940"
"3","Hřiště","Dětské hřiště park Židovské pece","","126"
"4","Večerka","Penny Market","https://www.firmy.cz/detail/2413003-penny-market-praha-zizkov.html","621"
"5","Divadlo","Divadlo Kámen","https://www.firmy.cz/detail/197593-divadlo-kamen-praha-karlin.html","1112"
"6","Hospoda","Pivnice Radyně","https://www.firmy.cz/detail/1957129-pivnice-radyne-praha-zizkov.html","869"
"7","Veterinář","Veterinární klinika ABC","https://www.firmy.cz/detail/590664-veterinarni-klinika-abc-praha-zizkov.html","752"
"8","Pošta","Pošta Praha 3 - Česká pošta, s.p.","https://www.firmy.cz/detail/2102474-posta-praha-3-praha-zizkov.html","822"
"9","Bankomat","Bankomat České spořitelny","https://www.firmy.cz/detail/594748-bankomat-ceske-sporitelny-praha-zizkov.html","512"
"10","Restaurace","Restaurace Stará Promiň","https://www.firmy.cz/detail/1351593-restaurace-stara-promin-praha-zizkov.html","475"
"11","Metro","Želivského","","1084"
"12","Lékař","MUDr. Tomáš Veselý všeobecné lékařství","https://www.firmy.cz/detail/387495-mudr-tomas-vesely-vseobecne-lekarstvi-praha-zizkov.html","274"
"13","Lékárna","Místní Lékárna Na Vápence","https://www.firmy.cz/detail/375016-mistni-lekarna-na-vapence-praha-zizkov.html","531"
"14","Tram","Vozovna Žižkov","","451"
"15","Obchod","Kaufland","https://www.firmy.cz/detail/12803234-kaufland-praha-hrdlorezy.html","1551"
"16","Bus MHD","Olgy Havlové","","111"
"17","Sportoviště","Vysoká škola ekonomická v Praze - Sportovní areál","https://www.firmy.cz/detail/12705399-vysoka-skola-ekonomicka-v-praze-sportovni-areal-praha-strasnice.html","668"
"18","Vlak","Praha-Libeň","","2138"
"19","Škola","Gymnázium Na Pražačce, Praha 3, Nad Ohradou 23","https://www.firmy.cz/detail/362283-gymnazium-na-prazacce-praha-3-nad-ohradou-23-praha-zizkov.html","530"
"20","Školka","Mateřská škola U Veverek","https://www.firmy.cz/detail/646824-materska-skola-u-veverek-praha-zizkov.html","370"
