"","facility_type","facility_name","facility_iri","facility_distance"
"0","Cukrárna","Eiscafe Delikana","https://www.firmy.cz/detail/13294607-eiscafe-delikana-karvina-frystat.html","777"
"1","Kino","Kino Ex","https://www.firmy.cz/detail/396409-kino-ex-karvina-nove-mesto.html","376"
"2","Hřiště","Dětské hřiště Květinová","","260"
"3","Večerka","Enapo","https://www.firmy.cz/detail/13135635-enapo-karvina-nove-mesto.html","253"
"4","Hospoda","Pivnice U Čápa","https://www.firmy.cz/detail/12898269-pivnice-u-capa-karvina-nove-mesto.html","735"
"5","Veterinář","MVDr. Jiří Michejda","https://www.firmy.cz/detail/286072-mvdr-jiri-michejda-karvina-frystat.html","1004"
"6","Škola","Gymnázium Karviná","https://www.firmy.cz/detail/314680-gymnazium-karvina-karvina-nove-mesto.html","301"
"7","Lékař","MUDr. Alena Skálová","https://www.firmy.cz/detail/386634-mudr-alena-skalova-karvina-nove-mesto.html","483"
"8","Sportoviště","STaRS Karviná, s.r.o.","https://www.firmy.cz/detail/721386-stars-karvina-karvina-nove-mesto.html","108"
"9","Bus MHD","Karviná, Nové Město, ČSAD","","235"
"10","Restaurace","Restaurace Cihelní 1652/51","https://www.firmy.cz/detail/13121644-restaurace-cihelni-1652-51-karvina-nove-mesto.html","98"
"11","Pošta","Pošta Karviná 61 - Česká pošta, s.p.","https://www.firmy.cz/detail/431429-posta-karvina-61-karvina-nove-mesto.html","445"
"12","Obchod","Albert Hypermarket","https://www.firmy.cz/detail/449318-albert-hypermarket-karvina-frystat.html","579"
"13","Školka","Základní škola a Mateřská škola Dělnická - U Vilíka","https://www.firmy.cz/detail/12854839-zakladni-skola-a-materska-skola-delnicka-u-vilika-karvina-nove-mesto.html","855"
"14","Bankomat","Bankomat České spořitelny","https://www.firmy.cz/detail/592981-bankomat-ceske-sporitelny-karvina-nove-mesto.html","520"
"15","Vlak","Karviná hlavní nádraží","","856"
"16","Lékárna","Lékárna Alfa","https://www.firmy.cz/detail/2629102-lekarna-alfa-karvina-nove-mesto.html","483"
