"","facility_type","facility_name","facility_iri","facility_distance"
"0","Cukrárna","Café Bar Citadela Litvínov","https://www.firmy.cz/detail/13025962-cafe-bar-citadela-litvinov-litvinov-horni-litvinov.html","1918"
"1","Kino","3D kino Citadela Litvínov","https://www.firmy.cz/detail/13236248-3d-kino-citadela-litvinov-litvinov-horni-litvinov.html","1918"
"2","Přírodní zajímavost","Osecký dub","","3905"
"3","Hřiště","Dětské hřiště Vrchlického","","639"
"4","Večerka","Potraviny CBA","https://www.firmy.cz/detail/12997297-potraviny-cba-lom.html","837"
"5","Hospoda","Restaurace u kurtů","https://www.firmy.cz/detail/13118316-restaurace-u-kurtu-litvinov-horni-litvinov.html","1345"
"6","Divadlo","Docela velké divadlo","https://www.firmy.cz/detail/402086-docela-velke-divadlo-litvinov-horni-litvinov.html","2887"
"7","Veterinář","Veterina Vlková - Podkrušnohorská veterina","https://www.firmy.cz/detail/13275200-veterina-vlkova-podkrusnohorska-veterina-litvinov-horni-litvinov.html","2482"
"8","Restaurace","Richard Balázs","https://www.firmy.cz/detail/13111758-richard-balazs-litvinov-horni-litvinov.html","1171"
"9","Bankomat","Bankomat Air Bank","https://www.firmy.cz/detail/13101301-bankomat-air-bank-litvinov-horni-litvinov.html","1829"
"10","Obchod","Kaufland","https://www.firmy.cz/detail/12733563-kaufland-litvinov-horni-litvinov.html","2441"
"11","Školka","MŠ Loučná","https://www.firmy.cz/detail/13145334-ms-loucna-lom-loucna.html","1183"
"12","Lékárna","Dr. Max LÉKÁRNA","https://www.firmy.cz/detail/12884314-dr-max-lekarna-litvinov-horni-litvinov.html","2469"
"13","Tram","Litvínov, Citadela","","1796"
"14","Škola","ZŠ Lom","https://www.firmy.cz/detail/358094-zs-lom-lom.html","312"
"15","Pošta","Pošta Partner","https://www.firmy.cz/detail/13222538-posta-partner-lom.html","1163"
"16","Bus MHD","Lom, Geologický průzkum","","212"
"17","Lékař","Rokyta PL, s.r.o.","https://www.firmy.cz/detail/12830504-rokyta-pl-lom-loucna.html","1203"
"18","Sportoviště","Sportovní hala Litvínov","https://www.firmy.cz/detail/718196-sportovni-hala-litvinov-litvinov-horni-litvinov.html","1171"
"19","Vlak","Lom u Mostu zastávka","","546"
