"","facility_type","facility_name","facility_iri","facility_distance"
"0","Cukrárna","Suri Cafe","https://www.firmy.cz/detail/13298853-suri-cafe-ostrava-zabreh.html","1053"
"1","Kino","Kino Luna","https://www.firmy.cz/detail/2642805-kino-luna-ostrava-zabreh.html","1090"
"2","Přírodní zajímavost","Zábřežský bludný balvan","","1728"
"3","Hřiště","Dětské hřiště lesopark Bělský les","","511"
"4","Večerka","Večerka Narcis","https://www.firmy.cz/detail/12712879-vecerka-narcis-ostrava-zabreh.html","226"
"5","Hospoda","J.I. Sprint","https://www.firmy.cz/detail/13146191-j-i-sprint-ostrava-hrabuvka.html","562"
"6","Divadlo","Divadlo U Lípy","https://www.firmy.cz/detail/2121467-divadlo-u-lipy-ostrava-zabreh.html","1048"
"7","Veterinář","MVDr. Petr Stankoci - Veterinární ordinace","https://www.firmy.cz/detail/1957076-mvdr-petr-stankoci-veterinarni-ordinace-ostrava-hrabuvka.html","667"
"8","Lékař","MUDr. Karla Kaňová","https://www.firmy.cz/detail/12864466-mudr-karla-kanova-ostrava-zabreh.html","274"
"9","Restaurace","Restaurace Minigolf","https://www.firmy.cz/detail/1962058-restaurace-minigolf-ostrava-zabreh.html","159"
"10","Bus MHD","Náměstí SNP","","357"
"11","Lékárna","Lékárna Ambra","https://www.firmy.cz/detail/13207168-lekarna-ambra-ostrava-zabreh.html","274"
"12","Sportoviště","Aerobik klub Ostrava","https://www.firmy.cz/detail/12897480-aerobik-klub-ostrava-ostrava-zabreh.html","261"
"13","Školka","MŠ Harmonie Ostrava - Hrabůvka, Mitušova","https://www.firmy.cz/detail/2296778-ms-harmonie-ostrava-hrabuvka-mitusova-ostrava-hrabuvka.html","563"
"14","Bankomat","Bankomat MONETA Money Bank","https://www.firmy.cz/detail/12780482-bankomat-moneta-money-bank-ostrava-zabreh.html","948"
"15","Vlak","Ostrava-Vítkovice","","1860"
"16","Obchod","Kaufland","https://www.firmy.cz/detail/1461415-kaufland-ostrava-zabreh.html","1340"
"17","Tram","Rodimcevova","","574"
"18","Pošta","Pošta Ostrava 4 - Česká pošta, s.p.","https://www.firmy.cz/detail/433394-posta-ostrava-4-ostrava-zabreh.html","345"
"19","Škola","ZŠ Ostrava-Zábřeh, Chrjukinova 12","https://www.firmy.cz/detail/358730-zs-ostrava-zabreh-chrjukinova-12-ostrava-zabreh.html","261"
