"","facility_type","facility_name","facility_iri","facility_distance"
"0","Cukrárna","Cukrárna a kavárna Natali","https://www.firmy.cz/detail/12931851-cukrarna-a-kavarna-natali-kralupy-nad-vltavou-lobecek.html","304"
"1","Kino","Kino Vltava","https://www.firmy.cz/detail/396488-kino-vltava-kralupy-nad-vltavou-lobecek.html","315"
"2","Hřiště","Dětské hřiště Štefánikova","","124"
"3","Večerka","Maxi Market - Potraviny U Tomáše","https://www.firmy.cz/detail/13058398-maxi-market-potraviny-u-tomase-kralupy-nad-vltavou-lobecek.html","226"
"4","Hospoda","Restaurace Chemik","https://www.firmy.cz/detail/329709-restaurace-chemik-kralupy-nad-vltavou-lobecek.html","305"
"5","Divadlo","Divadelní soubor ""Scéna"" v Kralupech N/ Vlt.","https://www.firmy.cz/detail/397172-divadelni-soubor-scena-v-kralupech-n-vlt-kralupy-nad-vltavou-lobecek.html","289"
"6","Veterinář","Veterina Kralupy, s.r.o.","https://www.firmy.cz/detail/12914882-veterina-kralupy-kralupy-nad-vltavou-lobecek.html","700"
"7","Škola","Střední odborná škola a Střední odborné učiliště, Kralupy nad Vltavou","https://www.firmy.cz/detail/361012-stredni-odborna-skola-a-stredni-odborne-uciliste-kralupy-nad-vltavou-kralupy-nad-vltavou-lobecek.html","252"
"8","Bankomat","Bankomat České spořitelny","https://www.firmy.cz/detail/593065-bankomat-ceske-sporitelny-kralupy-nad-vltavou-lobecek.html","266"
"9","Lékař","MUDr. Vladimír Horák","https://www.firmy.cz/detail/386430-mudr-vladimir-horak-kralupy-nad-vltavou-lobecek.html","217"
"10","Školka","MŠ Kralupy nad Vltavou, Dr. E. Beneše","https://www.firmy.cz/detail/2684843-ms-kralupy-nad-vltavou-dr-e-benese-kralupy-nad-vltavou-lobecek.html","194"
"11","Bus MHD","Kralupy nad Vltavou, Masarykova","","179"
"12","Restaurace","Restaurace U Živce","https://www.firmy.cz/detail/13150732-restaurace-u-zivce-kralupy-nad-vltavou-lobecek.html","56"
"13","Sportoviště","Sportovní areál v Kralupech nad Vltavou","https://www.firmy.cz/detail/2671850-sportovni-areal-v-kralupech-nad-vltavou-kralupy-nad-vltavou-lobecek.html","294"
"14","Lékárna","Lékárna Lobeček, s.r.o.","https://www.firmy.cz/detail/2620459-lekarna-lobecek-kralupy-nad-vltavou-lobecek.html","188"
"15","Obchod","Tesco","https://www.firmy.cz/detail/653529-tesco-kralupy-nad-vltavou-lobecek.html","394"
"16","Vlak","Kralupy nad Vltavou","","1280"
"17","Pošta","Pošta Kralupy nad Vltavou 3 - Česká pošta, s.p.","https://www.firmy.cz/detail/216802-posta-kralupy-nad-vltavou-3-kralupy-nad-vltavou-lobecek.html","345"
