"","facility_type","facility_name","facility_iri","facility_distance"
"0","Hřiště","Dětské hřiště","https://mapy.cz/zakladni?x=14.4773292717&y=48.9987841152&z=17&source=base&id=2083681","97"
"1","Hospoda","Pivní bar Šimi","https://www.firmy.cz/detail/13273401-pivni-bar-simi-ceske-budejovice-2.html","1719"
"2","Večerka","BILLA stop & shop","https://www.firmy.cz/detail/13102022-billa-stop-shop-ceske-budejovice.html","401"
"3","Kino","CineStar IGY Centrum","https://www.firmy.cz/detail/13096583-cinestar-igy-centrum-ceske-budejovice-3.html","1712"
"4","Cukrárna","Sweet Donut","https://www.firmy.cz/detail/13261397-sweet-donut-ceske-budejovice-3.html","1676"
"5","Veterinář","Aurum Vet s.r.o.","https://www.firmy.cz/detail/2632036-aurum-vet-s-r-o-ceske-budejovice-3.html","584"
"6","Divadlo","Jihočeské divadlo - Malé divadlo","https://www.firmy.cz/detail/2351551-jihoceske-divadlo-male-divadlo-ceske-budejovice-1.html","2469"
"7","Bus MHD","Kněžské Dvory, škola","https://mapy.cz/zakladni?x=14.4758811738&y=49.0003914267&z=17&source=pubt&id=15206768","120"
"8","Obchod","Albert Hypermarket","https://www.firmy.cz/detail/12926967-albert-hypermarket-ceske-budejovice-3.html","840"
"9","Vlak","České Budějovice severní zastávka","https://mapy.cz/zakladni?x=14.4793767822&y=48.9947847331&z=17&source=pubt&id=15211181","554"
"10","Restaurace","Restaurace Mauricius","https://www.firmy.cz/detail/13116991-restaurace-mauricius-ceske-budejovice-3.html","364"
"11","Lékař","MUDr. Pavel Sláma, s.r.o.","https://www.firmy.cz/detail/13103968-mudr-pavel-slama-ceske-budejovice-3.html","74"
"12","Pošta","Pošta Depo České Budějovice 71","https://www.firmy.cz/detail/13162835-posta-depo-ceske-budejovice-71-ceske-budejovice-3.html","649"
"13","Lékárna","Lékárna v Ternu s.r.o.","https://www.firmy.cz/detail/13211025-lekarna-v-ternu-s-r-o-ceske-budejovice-3.html","749"
"14","Sportoviště","inski - inski České Budějovice, z.s.","https://www.firmy.cz/detail/13253754-inski-ceske-budejovice-3.html","413"
"15","Bankomat","Bankomat České spořitelny","https://www.firmy.cz/detail/591948-bankomat-ceske-sporitelny-ceske-budejovice-3.html","717"
"16","Školka","Mateřská škola, Čéčova 40/1, České Budějovice","https://www.firmy.cz/detail/1696412-materska-skola-cecova-40-1-ceske-budejovice-ceske-budejovice-3.html","1311"
"17","Škola","Střední škola obchodní, České Budějovice, Husova 9","https://www.firmy.cz/detail/13191064-stredni-skola-obchodni-ceske-budejovice-husova-9-ceske-budejovice-3.html","1219"
