"","facility_type","facility_name","facility_iri","facility_distance"
"0","Hřiště","Dětské hřiště","https://mapy.cz/zakladni?x=18.2593622222&y=49.8745197222&z=17&source=base&id=2067788","288"
"1","Přírodní zajímavost","Uhelná sloj v Landeku","https://mapy.cz/zakladni?x=18.2692044444&y=49.8672338889&z=17&source=base&id=1981598","1013"
"2","Večerka","HRUŠKA","https://www.firmy.cz/detail/12820262-hruska-ostrava-petrkovice.html","404"
"3","Hospoda","Restaurace U Kaple 130/10a","https://www.firmy.cz/detail/13137853-restaurace-u-kaple-130-10a-ostrava-petrkovice.html","256"
"4","Veterinář","LandekVet","https://www.firmy.cz/detail/12781028-landekvet-ostrava-petrkovice.html","243"
"5","Cukrárna","Cukrárna Marie","https://www.firmy.cz/detail/13124554-cukrarna-marie-ostrava.html","265"
"6","Kino","CineStar Ostrava","https://www.firmy.cz/detail/661182-cinestar-ostrava-ostrava-moravska-ostrava.html","4475"
"7","Divadlo","Loutkový svět","https://www.firmy.cz/detail/13033024-loutkovy-svet-ostrava-moravska-ostrava.html","3787"
"8","Restaurace","UPWEAR.CZ","https://www.firmy.cz/detail/13112707-upwear-cz-ostrava-petrkovice.html","383"
"9","Obchod","Outlet Arena Moravia","https://www.firmy.cz/detail/13181729-outlet-arena-moravia-ostrava-privoz.html","1330"
"10","Škola","ZŠ Ostrava-Petřkovice, Hlučínská","https://www.firmy.cz/detail/358695-zs-ostrava-petrkovice-hlucinska-ostrava-petrkovice.html","295"
"11","Lékař","AD Landek klinika, s.r.o.","https://www.firmy.cz/detail/13267192-ad-landek-klinika-ostrava-petrkovice.html","0"
"12","Pošta","Pošta Ostrava 29 - Česká pošta, s.p.","https://www.firmy.cz/detail/433453-posta-ostrava-29-ostrava-petrkovice.html","324"
"13","Tram","Přívoz, Hlučínská","https://mapy.cz/zakladni?x=18.2656028945&y=49.8606448617&z=17&source=pubt&id=15201863","1419"
"14","Vlak","Ostrava hlavní nádraží","https://mapy.cz/zakladni?x=18.2670593754&y=49.8514937322&z=17&source=pubt&id=15212374","2410"
"15","Školka","Mateřská škola Ostrava-Petřkovice, U Kaple 670, příspěvková organizace","https://www.firmy.cz/detail/13059996-materska-skola-ostrava-petrkovice-u-kaple-670-prispevkova-organizace-ostrava-petrkovice.html","72"
"16","Sportoviště","Veřejné lezecká stěna","https://mapy.cz/zakladni?x=18.2601361803&y=49.8741954511&z=17&source=base&id=2129019","291"
"17","Bankomat","Bankomat Komerční banky","https://www.firmy.cz/detail/13203643-bankomat-komercni-banky-ostrava-privoz.html","1324"
"18","Lékárna","Lékárna Petřkovice","https://www.firmy.cz/detail/12958576-lekarna-petrkovice-ostrava-petrkovice.html","251"
"19","Bus MHD","Petřkovice kaple","https://mapy.cz/zakladni?x=18.2587373111&y=49.8715578417&z=17&source=pubt&id=15202103","123"
