"","facility_type","facility_name","facility_iri","facility_distance"
"0","Cukrárna","Cukrárna Bohéma","https://www.firmy.cz/detail/13134717-cukrarna-bohema-olomouc.html","148"
"1","Kino","Kino METROPOL","https://www.firmy.cz/detail/12773593-kino-metropol-olomouc.html","583"
"2","Hřiště","Dětské hřiště Sady Flora","","364"
"3","Večerka","Albert Supermarket","https://www.firmy.cz/detail/1411076-albert-supermarket-olomouc.html","157"
"4","Hospoda","Hospůdka U Kuděje","https://www.firmy.cz/detail/13124006-hospudka-u-kudeje-olomouc-nova-ulice.html","262"
"5","Divadlo","Moravské divadlo Olomouc","https://www.firmy.cz/detail/230940-moravske-divadlo-olomouc-olomouc.html","266"
"6","Veterinář","Veterinární klinika Špruček, s.r.o.","https://www.firmy.cz/detail/12934299-veterinarni-klinika-sprucek-olomouc.html","107"
"7","Školka","Mezinárodní Montessori škola Olomouc - mateřská škola a základní škola, z.ú.","https://www.firmy.cz/detail/12919131-mezinarodni-montessori-skola-olomouc-materska-skola-a-zakladni-skola-z-u-olomouc.html","209"
"8","Sportoviště","Petr Skácel - Grafikajinak","https://www.firmy.cz/detail/2062879-petr-skacel-grafikajinak-olomouc.html","188"
"9","Škola","Soukromá základní škola Dobré nálady, školská právnická osoba","https://www.firmy.cz/detail/13029388-soukroma-zakladni-skola-dobre-nalady-skolska-pravnicka-osoba-olomouc.html","212"
"10","Vlak","Olomouc město","","463"
"11","Pošta","Pošta Olomouc 8 - Česká pošta, s.p.","https://www.firmy.cz/detail/216196-posta-olomouc-8-olomouc.html","259"
"12","Obchod","Galerie Moritz, a.s.","https://www.firmy.cz/detail/616507-galerie-moritz-olomouc.html","374"
"13","Lékař","MEDICOM`S spol. s r.o.","https://www.firmy.cz/detail/658532-medicom-s-spol-s-r-o-olomouc.html","137"
"14","Bus MHD","Náměstí Hrdinů","","166"
"15","Restaurace","Restaurace Sunrise","https://www.firmy.cz/detail/13109388-restaurace-sunrise-olomouc.html","158"
"16","Bankomat","Bankomat Komerční banky","https://www.firmy.cz/detail/594310-bankomat-komercni-banky-olomouc.html","90"
"17","Lékárna","Lékárna U Červeného kostela","https://www.firmy.cz/detail/658789-lekarna-u-cerveneho-kostela-olomouc.html","80"
"18","Tram","Okresní soud","","164"
