"","facility_type","facility_name","facility_iri","facility_distance"
"0","Cukrárna","Cukrárna Split","https://www.firmy.cz/detail/1956740-cukrarna-split-pardubice-zelene-predmesti.html","2333"
"1","Kino","Cinema City Pardubice","https://www.firmy.cz/detail/2319456-cinema-city-pardubice-pardubice-zelene-predmesti.html","3788"
"2","Hřiště","Dětské hřiště Dražkovice","","300"
"3","Večerka","Potraviny Dražkovice","https://www.firmy.cz/detail/13259061-potraviny-drazkovice-pardubice-drazkovice.html","453"
"4","Hospoda","Hostinec U Farmáře","https://www.firmy.cz/detail/1985183-hostinec-u-farmare-pardubice-drazkovice.html","308"
"5","Divadlo","Divadlo NerušKruh","https://www.firmy.cz/detail/13262119-divadlo-neruskruh-pardubice-zelene-predmesti.html","2799"
"6","Veterinář","Veterinární nemocnice AESCULAP, s.r.o.","https://www.firmy.cz/detail/589812-veterinarni-nemocnice-aesculap-pardubice-nove-jesencany.html","2148"
"7","Bankomat","Bankomat ČSOB","https://www.firmy.cz/detail/599211-bankomat-csob-pardubice-zelene-predmesti.html","2406"
"8","Lékař","Centrum zdravotní péče DAJANA Pardubice - MUDr. Naděžda Dvořáková","https://www.firmy.cz/detail/12883724-centrum-zdravotni-pece-dajana-pardubice-mudr-nadezda-dvorakova-ostresany.html","2102"
"9","Bus MHD","Dražkovice,dolní","","65"
"10","Lékárna","Dr.Max LÉKÁRNA","https://www.firmy.cz/detail/2646479-dr-max-lekarna-pardubice-zelene-predmesti.html","2263"
"11","Škola","ZŠ a MŠ Mikulovice","https://www.firmy.cz/detail/358772-zs-a-ms-mikulovice-mikulovice.html","1582"
"12","Vlak","Staré Jesenčany","","1255"
"13","Restaurace","Restaurace Na Rozkoši u Kulatý báby","https://www.firmy.cz/detail/567999-restaurace-na-rozkosi-u-kulaty-baby-pardubice-zelene-predmesti.html","1509"
"14","Obchod","Kaufland","https://www.firmy.cz/detail/2617039-kaufland-pardubice-zelene-predmesti.html","2482"
"15","Sportoviště","IHC Bonfire Střída Pardubice","https://www.firmy.cz/detail/753132-ihc-bonfire-strida-pardubice-pardubice-zelene-predmesti.html","1390"
"16","Pošta","Pošta Pardubice 23 - Česká pošta, s.p.","https://www.firmy.cz/detail/215340-posta-pardubice-23-pardubice-drazkovice.html","402"
"17","Školka","MŠ Pardubice, Dražkovice","https://www.firmy.cz/detail/1974079-ms-pardubice-drazkovice-pardubice-drazkovice.html","159"
