"","facility_type","facility_name","facility_iri","facility_distance"
"0","Cukrárna","TRIO MALÝ HÁJ","https://www.firmy.cz/detail/13182793-trio-maly-haj-praha-dolni-mecholupy.html","272"
"1","Kino","Multikino - Premiere Cinemas Praha Hostivař","https://www.firmy.cz/detail/12745547-multikino-premiere-cinemas-praha-hostivar-praha-hostivar.html","3006"
"2","Přírodní zajímavost","Mokřad Triangl","","2464"
"3","Hřiště","Dětské hřiště U Školy","","197"
"4","Večerka","Iceland","https://www.firmy.cz/detail/13189292-iceland-praha-sterboholy.html","255"
"5","Hospoda","Pivnice U Tomáše","https://www.firmy.cz/detail/13232026-pivnice-u-tomase-praha-dolni-mecholupy.html","1379"
"6","Divadlo","Loutkové divadlo Frydolín","https://www.firmy.cz/detail/397086-loutkove-divadlo-frydolin-praha-hostivar.html","1849"
"7","Veterinář","Veterinární ordinace MiaVet","https://www.firmy.cz/detail/13239222-veterinarni-ordinace-miavet-praha-dolni-mecholupy.html","1116"
"8","Bankomat","Bankomat ČSOB","https://www.firmy.cz/detail/13252357-bankomat-csob-praha-sterboholy.html","255"
"9","Školka","MŠ Praha 10, Pod Areálem","https://www.firmy.cz/detail/12897831-ms-praha-10-pod-arealem-praha-sterboholy.html","317"
"10","Lékárna","Dr.Max LÉKÁRNA","https://www.firmy.cz/detail/13207587-dr-max-lekarna-praha-sterboholy.html","345"
"11","Lékař","Dolnoměcholupská zdravotní s.r.o.","https://www.firmy.cz/detail/12839032-dolnomecholupska-zdravotni-s-r-o-praha-dolni-mecholupy.html","1207"
"12","Bus MHD","Štěrboholy","","329"
"13","Sportoviště","Sportovní areál Hamr","https://www.firmy.cz/detail/13234734-sportovni-areal-hamr-praha-sterboholy.html","213"
"14","Škola","ZŠ a MŠ Praha 10, U Školy","https://www.firmy.cz/detail/358951-zs-a-ms-praha-10-u-skoly-praha-sterboholy.html","211"
"15","Obchod","Štěrboholy Retail Park","https://www.firmy.cz/detail/13185713-sterboholy-retail-park-praha.html","239"
"16","Pošta","Pošta Praha 104 - Česká pošta, s.p.","https://www.firmy.cz/detail/1353060-posta-praha-104-praha-sterboholy.html","801"
"17","Restaurace","Restaurace Gourmet","https://www.firmy.cz/detail/13192897-restaurace-gourmet-praha.html","288"
"18","Vlak","Praha-Hostivař","","1799"
"19","Metro","Depo Hostivař","","2676"
"20","Tram","Ústřední dílny DP","","1469"
