"","facility_type","facility_name","facility_iri","facility_distance"
"0","Hřiště","Dětské hřiště Pivcova","https://mapy.cz/zakladni?x=14.3712127778&y=50.0317388889&z=17&source=base&id=2058572","142"
"1","Večerka","Albert Supermarket","https://www.firmy.cz/detail/13212682-albert-supermarket-praha-hlubocepy.html","74"
"2","Hospoda","Club bar Korlin","https://www.firmy.cz/detail/13111066-club-bar-korlin-praha-hlubocepy.html","149"
"3","Kino","AutoKino Ledárny","https://www.firmy.cz/detail/13312696-autokino-ledarny-praha.html","2711"
"4","Veterinář","Veterinární klinika Anima, spol. s r.o.","https://www.firmy.cz/detail/2390292-veterinarni-klinika-anima-praha-hlubocepy.html","408"
"5","Cukrárna","La Zmrzka","https://www.firmy.cz/detail/13326421-la-zmrzka-praha-hlubocepy.html","351"
"6","Divadlo","Divadlo Glans","https://www.firmy.cz/detail/2343652-divadlo-glans-praha-stodulky.html","2511"
"7","Přírodní zajímavost","Kovářovic mez","https://mapy.cz/zakladni?x=14.36107759920759&y=50.04395254566995&z=17&source=base&id=2339664","1537"
"8","Metro","Nové Butovice","https://mapy.cz/zakladni?x=14.3532972324&y=50.0508205626&z=17&source=pubt&id=15200249","2466"
"9","Sportoviště","Tenisová hala Barrandov","https://www.firmy.cz/detail/13068559-tenisova-hala-barrandov-praha-hlubocepy.html","514"
"10","Bus MHD","Záhorského","https://mapy.cz/zakladni?x=14.37027&y=50.03028&z=17&source=pubt&id=17090305","120"
"11","Tram","Sídliště Barrandov","https://mapy.cz/zakladni?x=14.368767443&y=50.0314919964&z=17&source=pubt&id=15301664","56"
"12","Školka","MŠ Barrandov","https://www.firmy.cz/detail/12817240-ms-barrandov-praha-hlubocepy.html","137"
"13","Pošta","Pošta Partner - Praha 500","https://www.firmy.cz/detail/13291767-posta-partner-praha-500-praha-hlubocepy.html","415"
"14","Lékař","MUDr. Ivo EZECHIÁŠ","https://www.firmy.cz/detail/386656-mudr-ivo-ezechias-praha-hlubocepy.html","452"
"15","Restaurace","Pho Viet 68","https://www.firmy.cz/detail/13310173-pho-viet-68-praha-hlubocepy.html","86"
"16","Obchod","Albert Hypermarket","https://www.firmy.cz/detail/186474-albert-hypermarket-praha-jinonice.html","2023"
"17","Lékárna","Lékárna Poliklinika Barrandov","https://www.firmy.cz/detail/13001866-lekarna-poliklinika-barrandov-praha-hlubocepy.html","453"
"18","Bankomat","Bankomat České spořitelny","https://www.firmy.cz/detail/594882-bankomat-ceske-sporitelny-praha-hlubocepy.html","379"
"19","Vlak","Praha-Holyně","https://mapy.cz/zakladni?x=14.3484573687&y=50.0328044166&z=17&source=pubt&id=15212561","1507"
"20","Škola","Soukromá základní umělecká škola Music Art, v.o.s.","https://www.firmy.cz/detail/2215750-soukroma-zakladni-umelecka-skola-music-art-praha-hlubocepy.html","319"
