"","facility_type","facility_name","facility_iri","facility_distance"
"0","Cukrárna","Cukrárna a kavárna RIO","https://www.firmy.cz/detail/611935-cukrarna-a-kavarna-rio-pribram-vii.html","964"
"1","Přírodní zajímavost","Lado u Lazeckého mlýna","","770"
"2","Kino","Letní kino Příbram","https://www.firmy.cz/detail/13001448-letni-kino-pribram-pribram-viii.html","1412"
"3","Hřiště","Dětské hřiště Drkolnovská","","68"
"4","Večerka","BILLA","https://www.firmy.cz/detail/212065-billa-pribram-vii.html","126"
"5","Hospoda","U Císaře Rudolfa II.","https://www.firmy.cz/detail/13011925-u-cisare-rudolfa-ii-pribram-v-zdabor.html","95"
"6","Divadlo","Divadlo A. Dvořáka Příbram","https://www.firmy.cz/detail/397055-divadlo-a-dvoraka-pribram-pribram-vii.html","1475"
"7","Veterinář","Veterinární klinika Na Zdaboři","https://www.firmy.cz/detail/471737-veterinarni-klinika-na-zdabori-pribram-v-zdabor.html","259"
"8","Bankomat","Bankomat České spořitelny","https://www.firmy.cz/detail/595041-bankomat-ceske-sporitelny-pribram-vii.html","121"
"9","Lékař","Ordinace praktického a závodního lékaře 1 - Oblastní nemocnice Příbram","https://www.firmy.cz/detail/12995770-ordinace-praktickeho-a-zavodniho-lekare-1-oblastni-nemocnice-pribram-pribram-v-zdabor.html","348"
"10","Škola","ZŠ Příbram, Školní","https://www.firmy.cz/detail/359108-zs-pribram-skolni-pribram-viii.html","924"
"11","Bus MHD","Příbram, Drkolnov, Slunná","","78"
"12","Pošta","Pošta Příbram 4 - Česká pošta, s.p.","https://www.firmy.cz/detail/217334-posta-pribram-4-pribram-v-zdabor.html","665"
"13","Lékárna","Lékárna Devětsil","https://www.firmy.cz/detail/12906051-lekarna-devetsil-pribram-v-zdabor.html","285"
"14","Obchod","Tesco","https://www.firmy.cz/detail/2358932-tesco-pribram-v-zdabor.html","471"
"15","Vlak","Příbram sídliště","","1249"
"16","Sportoviště","Oxygen Příbram","https://www.firmy.cz/detail/448458-oxygen-pribram-pribram-viii.html","1273"
"17","Restaurace","Česká Pivnice","https://www.firmy.cz/detail/2110824-ceska-pivnice-pribram-vi-brezove-hory.html","262"
"18","Školka","MŠ Klubíčko Příbram","https://www.firmy.cz/detail/2120173-ms-klubicko-pribram-pribram-vii.html","602"
