"","facility_type","facility_name","facility_iri","facility_distance"
"0","Cukrárna","Laura Coffee","https://www.firmy.cz/detail/2699135-laura-coffee-ostrava-hrabuvka.html","635"
"1","Kino","Kino Luna","https://www.firmy.cz/detail/2642805-kino-luna-ostrava-zabreh.html","2533"
"2","Přírodní zajímavost","Zábřežský bludný balvan","","2162"
"3","Hřiště","Dětské hřiště Klegova","","640"
"4","Večerka","Potraviny - Reda","https://www.firmy.cz/detail/2324841-potraviny-reda-ostrava-hrabuvka.html","212"
"5","Divadlo","Divadlo U Lípy","https://www.firmy.cz/detail/2121467-divadlo-u-lipy-ostrava-zabreh.html","698"
"6","Hospoda","Pivnice Plecháč","https://www.firmy.cz/detail/13149115-pivnice-plechac-ostrava-hrabuvka.html","212"
"7","Veterinář","MVDr. Oldřich Barvenčík","https://www.firmy.cz/detail/443783-mvdr-oldrich-barvencik-ostrava-hrabuvka.html","583"
"8","Tram","Jubilejní kolonie","","307"
"9","Vlak","Ostrava-Vítkovice","","985"
"10","Bankomat","Bankomat UniCredit Bank Czech Republic","https://www.firmy.cz/detail/12767973-bankomat-unicredit-bank-czech-republic-ostrava-hrabuvka.html","646"
"11","Sportoviště","TJ Metasport, spolek","https://www.firmy.cz/detail/759502-tj-metasport-spolek-ostrava-hrabuvka.html","476"
"12","Pošta","Pošta Ostrava 46","https://www.firmy.cz/detail/433384-posta-ostrava-46-ostrava-hrabuvka.html","635"
"13","Lékař","MUDr. Dostalíková Pavla, s.r.o.","https://www.firmy.cz/detail/12830974-mudr-dostalikova-pavla-ostrava-hrabuvka.html","203"
"14","Bus MHD","Učiliště Vítkovic","","95"
"15","Školka","MŠ Harmonie Ostrava - Hrabůvka, Zlepšovatelů","https://www.firmy.cz/detail/2296766-ms-harmonie-ostrava-hrabuvka-zlepsovatelu-ostrava-hrabuvka.html","283"
"16","Lékárna","Lékárna U Edisona","https://www.firmy.cz/detail/2674218-lekarna-u-edisona-ostrava-hrabuvka.html","330"
"17","Obchod","MAKRO Cash & Carry","https://www.firmy.cz/detail/325616-makro-cash-carry-ostrava-hrabova.html","1984"
"18","Škola","Vyšší odborná škola, střední umělecká škola a základní umělecká škola","https://www.firmy.cz/detail/204310-vyssi-odborna-skola-stredni-umelecka-skola-a-zakladni-umelecka-skola-ostrava-hrabuvka.html","104"
"19","Restaurace","Ostravarna U Jubilejní","https://www.firmy.cz/detail/13151063-ostravarna-u-jubilejni-ostrava-hrabuvka.html","156"
