"","facility_type","facility_name","facility_iri","facility_distance"
"0","Hřiště","Dětské hřiště U Libeňského pivovaru","https://mapy.cz/zakladni?x=14.4746589667&y=50.1087079646&z=17&source=base&id=1927002","270"
"1","Přírodní zajímavost","Meandry Rokytky","https://mapy.cz/zakladni?x=14.517104002655032&y=50.098337103299386&z=17&source=base&id=2338360","3261"
"2","Cukrárna","Kavárna pod Palmovkou","https://www.firmy.cz/detail/230739-kavarna-pod-palmovkou-praha-liben.html","109"
"3","Veterinář","ERIKA veterinární klinika - MVDr. Pavel Hron","https://www.firmy.cz/detail/261989-erika-veterinarni-klinika-mvdr-pavel-hron-praha-liben.html","138"
"4","Večerka","Smíšené zboží Zenklova 27","https://www.firmy.cz/detail/12796941-smisene-zbozi-zenklova-27-praha.html","81"
"5","Divadlo","Divadlo pod Palmovkou","https://www.firmy.cz/detail/396881-divadlo-pod-palmovkou-praha-liben.html","109"
"6","Kino","Kino Aero","https://www.firmy.cz/detail/399435-kino-aero-praha-zizkov.html","1797"
"7","Hospoda","Pivní bar Napalmě","https://www.firmy.cz/detail/12761309-pivni-bar-napalme-praha-liben.html","264"
"8","Bankomat","Bankomat České spořitelny","https://www.firmy.cz/detail/594945-bankomat-ceske-sporitelny-praha-liben.html","134"
"9","Tram","Divadlo pod Palmovkou","https://mapy.cz/zakladni?x=14.4727535147&y=50.1056494781&z=17&source=pubt&id=15304856","97"
"10","Lékárna","Lékárna U Libeňského zámečku","https://www.firmy.cz/detail/658401-lekarna-u-libenskeho-zamecku-praha-liben.html","18"
"11","Školka","MŠ Praha 8, Kotlaska","https://www.firmy.cz/detail/2265768-ms-praha-8-kotlaska-praha-liben.html","262"
"12","Lékař","MUDr. Kristina Kostovová","https://www.firmy.cz/detail/389652-mudr-kristina-kostovova-praha-liben.html","235"
"13","Metro","Palmovka","https://mapy.cz/zakladni?x=14.4757438001&y=50.1052223143&z=17&source=pubt&id=15693448","230"
"14","Pošta","Pošta Praha 8 - Česká pošta, s.p.","https://www.firmy.cz/detail/216711-posta-praha-8-praha-liben.html","475"
"15","Sportoviště","GOLF CLUB SLAVIA","https://www.firmy.cz/detail/2375235-golf-club-slavia-praha-liben.html","202"
"16","Restaurace","Vegetariánská restaurace Góvinda","https://www.firmy.cz/detail/12703063-vegetarianska-restaurace-govinda-praha-liben.html","143"
"17","Škola","ZŠ Bohumila Hrabala, Praha 8","https://www.firmy.cz/detail/356242-zs-bohumila-hrabala-praha-8-praha-liben.html","116"
"18","Vlak","Praha-Vysočany","https://mapy.cz/zakladni?x=14.4975508502&y=50.1123429996&z=17&source=pubt&id=15698647","1857"
"19","Bus MHD","Palmovka","https://mapy.cz/zakladni?x=14.4749405319&y=50.1045081621&z=17&source=pubt&id=15693727","253"
"20","Obchod","Kaufland","https://www.firmy.cz/detail/1545721-kaufland-praha-liben.html","588"
