"","facility_type","facility_name","facility_iri","facility_distance"
"0","Cukrárna","Laura Coffee","https://www.firmy.cz/detail/2699135-laura-coffee-ostrava-hrabuvka.html","531"
"1","Kino","Kino Luna","https://www.firmy.cz/detail/2642805-kino-luna-ostrava-zabreh.html","2292"
"2","Hřiště","Dětské hřiště Krestova","","504"
"3","Přírodní zajímavost","Zábřežský bludný balvan","","2850"
"4","Večerka","HRUŠKA","https://www.firmy.cz/detail/12820534-hruska-ostrava-hrabuvka.html","122"
"5","Hospoda","Pivnice Venuše","https://www.firmy.cz/detail/2456045-pivnice-venuse-ostrava-hrabuvka.html","121"
"6","Divadlo","Divadlo U Lípy","https://www.firmy.cz/detail/2121467-divadlo-u-lipy-ostrava-zabreh.html","1463"
"7","Veterinář","VETERINA U LESA, spol. s r.o.","https://www.firmy.cz/detail/12975472-veterina-u-lesa-ostrava-hrabuvka.html","733"
"8","Bus MHD","Hrabůvka, Poli­klinika","","163"
"9","Bankomat","Bankomat MONETA Money Bank","https://www.firmy.cz/detail/659789-bankomat-moneta-money-bank-ostrava-hrabuvka.html","144"
"10","Školka","ZŠ a MŠ Ostrava-Hrabůvka, A. Kučery","https://www.firmy.cz/detail/2492809-zs-a-ms-ostrava-hrabuvka-a-kucery-ostrava-hrabuvka.html","241"
"11","Tram","Josefa Kotase","","156"
"12","Pošta","Pošta Ostrava 5 - Česká pošta, s.p.","https://www.firmy.cz/detail/433398-posta-ostrava-5-ostrava-hrabuvka.html","471"
"13","Lékař","MUDr. Irena Ladiniková","https://www.firmy.cz/detail/386334-mudr-irena-ladinikova-ostrava-hrabuvka.html","293"
"14","Škola","ZŠ a MŠ Ostrava-Hrabůvka, A. Kučery","https://www.firmy.cz/detail/358675-zs-a-ms-ostrava-hrabuvka-a-kucery-ostrava-hrabuvka.html","348"
"15","Obchod","MAKRO Cash & Carry","https://www.firmy.cz/detail/325616-makro-cash-carry-ostrava-hrabova.html","1149"
"16","Lékárna","Lékárna Poliklinika","https://www.firmy.cz/detail/2650428-lekarna-poliklinika-ostrava-hrabuvka.html","293"
"17","Restaurace","Pivnice Školka","https://www.firmy.cz/detail/13205097-pivnice-skolka-ostrava-hrabuvka.html","117"
"18","Vlak","Ostrava-Vítkovice","","2038"
"19","Sportoviště","Discgolf hřiště Bělský les","","1106"
