"","facility_type","facility_name","facility_iri","facility_distance"
"0","Cukrárna","Ludmila Horníková - Kavárna Maluj","https://www.firmy.cz/detail/1316809-ludmila-hornikova-kavarna-maluj-praha-vinohrady.html","585"
"1","Kino","Cinema City Flora","https://www.firmy.cz/detail/660712-cinema-city-flora-praha-zizkov.html","1049"
"2","Přírodní zajímavost","Mokřad Triangl","","4486"
"3","Hřiště","Dětské hřiště Slovinská","","121"
"4","Večerka","AGLO Trading","https://www.firmy.cz/detail/652274-aglo-trading-praha-vrsovice.html","426"
"5","Divadlo","Divadelní společnost Josefa Dvořáka","https://www.firmy.cz/detail/396839-divadelni-spolecnost-josefa-dvoraka-praha-vrsovice.html","233"
"6","Hospoda","Hostinec U Parku","https://www.firmy.cz/detail/337032-hostinec-u-parku-praha-nusle.html","1373"
"7","Veterinář","VETPOINT - veterinární klinika","https://www.firmy.cz/detail/162085-vetpoint-veterinarni-klinika-praha-vrsovice.html","53"
"8","Pošta","Pošta Praha 101 - Česká pošta, s.p.","https://www.firmy.cz/detail/431434-posta-praha-101-praha-vrsovice.html","382"
"9","Tram","Vršovické náměstí","","194"
"10","Obchod","Tesco Extra","https://www.firmy.cz/detail/733906-tesco-extra-praha-vrsovice.html","847"
"11","Škola","Základní škola Karla Čapka, Praha 10, Kodaňská 16/658","https://www.firmy.cz/detail/356142-zakladni-skola-karla-capka-praha-10-kodanska-16-658-praha-vrsovice.html","78"
"12","Bus MHD","Slovinská","","97"
"13","Lékárna","Lékárna Lemon","https://www.firmy.cz/detail/423012-lekarna-lemon-praha-vrsovice.html","167"
"14","Sportoviště","Malá lezecká stěna Kavkazská","","345"
"15","Školka","MŠ Praha 10, Kodaňská","https://www.firmy.cz/detail/2242771-ms-praha-10-kodanska-praha-vrsovice.html","159"
"16","Metro","Flora","","857"
"17","Bankomat","Bankomat České spořitelny","https://www.firmy.cz/detail/2464132-bankomat-ceske-sporitelny-praha-vrsovice.html","417"
"18","Lékař","MUDr. Jan Haber","https://www.firmy.cz/detail/2261592-mudr-jan-haber-praha-vrsovice.html","399"
"19","Vlak","Praha-Vršovice","","929"
"20","Restaurace","Gulliver","https://www.firmy.cz/detail/1971753-gulliver-praha-vrsovice.html","76"
