"","facility_type","facility_name","facility_iri","facility_distance"
"0","Cukrárna","Café Coffee Day","https://www.firmy.cz/detail/650529-cafe-coffee-day-praha-smichov.html","451"
"1","Kino","CineStar Anděl","https://www.firmy.cz/detail/2537565-cinestar-andel-praha-smichov.html","454"
"2","Přírodní zajímavost","Kovářovic mez","","4058"
"3","Hřiště","Dětské hřiště park Sacré Coeur","","276"
"4","Večerka","Tuyen Le Thi - OVOCE ZELENINA","https://www.firmy.cz/detail/2464821-tuyen-le-thi-ovoce-zelenina-praha-kosire.html","501"
"5","Hospoda","Hospůdka Knoflík","https://www.firmy.cz/detail/2253647-hospudka-knoflik-praha-smichov.html","699"
"6","Divadlo","Divadlo Orfeus","https://www.firmy.cz/detail/413053-divadlo-orfeus-praha-kosire.html","493"
"7","Veterinář","MVDr. Jana Lukešová","https://www.firmy.cz/detail/473617-mvdr-jana-lukesova-praha-smichov.html","617"
"8","Tram","Bertramka","","186"
"9","Bankomat","Bankomat ČSOB","https://www.firmy.cz/detail/636703-bankomat-csob-praha-smichov.html","493"
"10","Vlak","Praha-Smíchov severní nást.","","1286"
"11","Metro","Anděl","","636"
"12","Pošta","Pošta Praha 53 - Česká pošta, s.p.","https://www.firmy.cz/detail/431282-posta-praha-53-praha-smichov.html","547"
"13","Lékárna","EUC Lékárna Kartouzská","https://www.firmy.cz/detail/13162323-euc-lekarna-kartouzska-praha-smichov.html","446"
"14","Školka","Střední škola, ZŠ a MŠ pro sluchově postižené Praha 5","https://www.firmy.cz/detail/2196419-stredni-skola-zs-a-ms-pro-sluchove-postizene-praha-5-praha-smichov.html","395"
"15","Sportoviště","Sport Mrázovka","https://www.firmy.cz/detail/2673921-sport-mrazovka-praha-smichov.html","417"
"16","Obchod","Tesco","https://www.firmy.cz/detail/733908-tesco-praha-smichov.html","448"
"17","Restaurace","Ristorante Il Giardino Toscano","https://www.firmy.cz/detail/329762-ristorante-il-giardino-toscano-praha-smichov.html","324"
"18","Škola","ZŠ a MŠ Praha 5, Grafická","https://www.firmy.cz/detail/356194-zs-a-ms-praha-5-graficka-praha-smichov.html","57"
"19","Bus MHD","Holečkova","","152"
"20","Lékař","Program Health Plus","https://www.firmy.cz/detail/2549537-program-health-plus-praha-smichov.html","391"
