"","facility_type","facility_name","facility_iri","facility_distance"
"0","Cukrárna","Mléčný bar NAPROTI","https://www.firmy.cz/detail/2681012-mlecny-bar-naproti-ostrava-moravska-ostrava.html","530"
"1","Kino","Minikino","https://www.firmy.cz/detail/669940-minikino-ostrava-moravska-ostrava.html","550"
"2","Přírodní zajímavost","Uhelná sloj v Landeku","","3670"
"3","Hřiště","Dětské hřiště Keltičkova","","315"
"4","Večerka","HRUŠKA","https://www.firmy.cz/detail/12953535-hruska-ostrava-slezska-ostrava.html","437"
"5","Divadlo","Komorní scéna Aréna","https://www.firmy.cz/detail/396926-komorni-scena-arena-ostrava-moravska-ostrava.html","325"
"6","Hospoda","Lenka Grézlová","https://www.firmy.cz/detail/13114354-lenka-grezlova-ostrava-slezska-ostrava.html","437"
"7","Veterinář","VETPARK Ostrava, s.r.o.","https://www.firmy.cz/detail/13308555-vetpark-ostrava-ostrava-moravska-ostrava.html","1208"
"8","Pošta","Pošta Ostrava 10 - Česká pošta, s.p.","https://www.firmy.cz/detail/433408-posta-ostrava-10-ostrava-slezska-ostrava.html","104"
"9","Lékař","Centrum letecké medicíny, s.r.o.","https://www.firmy.cz/detail/12913171-centrum-letecke-mediciny-ostrava-moravska-ostrava.html","413"
"10","Obchod","Obchodní centrum LASO","https://www.firmy.cz/detail/2071391-obchodni-centrum-laso-ostrava-moravska-ostrava.html","523"
"11","Lékárna","Lékárna AGEL","https://www.firmy.cz/detail/12887510-lekarna-agel-ostrava-moravska-ostrava.html","413"
"12","Bus MHD","Náměstí J. Gagarina","","143"
"13","Sportoviště","Bowling Rubín","https://www.firmy.cz/detail/2457360-bowling-rubin-ostrava-slezska-ostrava.html","437"
"14","Tram","Výstaviště","","916"
"15","Bankomat","Bankomat České spořitelny","https://www.firmy.cz/detail/593836-bankomat-ceske-sporitelny-ostrava-moravska-ostrava.html","508"
"16","Škola","ZUŠ Edvarda Runda, Ostrava Keltičkova","https://www.firmy.cz/detail/430176-zus-edvarda-runda-ostrava-keltickova-ostrava-slezska-ostrava.html","257"
"17","Vlak","Ostrava-Stodolní","","1366"
"18","Restaurace","Restaurace Belvedér","https://www.firmy.cz/detail/12793327-restaurace-belveder-ostrava-slezska-ostrava.html","101"
"19","Školka","Mickeyho mikrojesle a školka, Dětská skupina","https://www.firmy.cz/detail/13245371-mickeyho-mikrojesle-a-skolka-detska-skupina-ostrava-slezska-ostrava.html","466"
