"","facility_type","facility_name","facility_iri","facility_distance"
"0","Cukrárna","Cukrárna U Radnice","https://www.firmy.cz/detail/461944-cukrarna-u-radnice-litvinov-horni-litvinov.html","232"
"1","Kino","3D kino Citadela Litvínov","https://www.firmy.cz/detail/13236248-3d-kino-citadela-litvinov-litvinov-horni-litvinov.html","1541"
"2","Hřiště","Dětské hřiště K. Světlé","","201"
"3","Večerka","Potraviny TH","https://www.firmy.cz/detail/12997287-potraviny-th-litvinov-horni-litvinov.html","157"
"4","Hospoda","Pivnice U Klacka","https://www.firmy.cz/detail/13145215-pivnice-u-klacka-litvinov-horni-litvinov.html","240"
"5","Divadlo","Docela velké divadlo","https://www.firmy.cz/detail/402086-docela-velke-divadlo-litvinov-horni-litvinov.html","114"
"6","Veterinář","VeterinaMost, s.r.o.","https://www.firmy.cz/detail/13175146-veterinamost-litvinov-horni-litvinov.html","468"
"7","Tram","Litvínov, poliklinika","","320"
"8","Bankomat","Bankomat ČSOB","https://www.firmy.cz/detail/1423181-bankomat-csob-litvinov-horni-litvinov.html","188"
"9","Bus MHD","Litvínov, Ruská ul.","","137"
"10","Restaurace","Restaurace Benar","https://www.firmy.cz/detail/13120618-restaurace-benar-litvinov-horni-litvinov.html","114"
"11","Škola","ZŠ a MŠ Litvínov, Ruská","https://www.firmy.cz/detail/358084-zs-a-ms-litvinov-ruska-litvinov-horni-litvinov.html","168"
"12","Lékař","ESMEDICA Litvínov s.r.o.","https://www.firmy.cz/detail/13169895-esmedica-litvinov-s-r-o-litvinov-horni-litvinov.html","304"
"13","Školka","ZŠ a MŠ Litvínov, Soukenická","https://www.firmy.cz/detail/2447397-zs-a-ms-litvinov-soukenicka-litvinov-horni-litvinov.html","229"
"14","Sportoviště","Sportovní hala Tenba","https://www.firmy.cz/detail/12714849-sportovni-hala-tenba-litvinov-horni-litvinov.html","216"
"15","Vlak","Litvínov","","838"
"16","Pošta","Pošta Litvínov 1 - Česká pošta, s.p.","https://www.firmy.cz/detail/216951-posta-litvinov-1-litvinov-horni-litvinov.html","207"
"17","Obchod","Tesco","https://www.firmy.cz/detail/12729388-tesco-litvinov-horni-litvinov.html","545"
"18","Lékárna","BENU Lékárna","https://www.firmy.cz/detail/13003188-benu-lekarna-litvinov-horni-litvinov.html","368"
