"","facility_type","facility_name","facility_iri","facility_distance"
"0","Cukrárna","Cukrárna Slánská 1706/2","https://www.firmy.cz/detail/12795118-cukrarna-slanska-1706-2-praha.html","701"
"1","Přírodní zajímavost","Kovářovic mez","","5106"
"2","Hřiště","Dětské hřiště Španielova","","247"
"3","Kino","Cinema City Zličín","https://www.firmy.cz/detail/436222-cinema-city-zlicin-praha-trebonice.html","2051"
"4","Večerka","NORMA","https://www.firmy.cz/detail/2182177-norma-praha-repy.html","139"
"5","Hospoda","Klub u Sklíčka","https://www.firmy.cz/detail/2220080-klub-u-sklicka-praha-repy.html","373"
"6","Divadlo","MEZINÁRODNÍ CENTRUM TANCE","https://www.firmy.cz/detail/2465676-mezinarodni-centrum-tance-praha-stodulky.html","3659"
"7","Veterinář","Veterinární klinika OK-VET","https://www.firmy.cz/detail/439625-veterinarni-klinika-ok-vet-praha-repy.html","205"
"8","Sportoviště","Sportovní centrum Řepy","https://www.firmy.cz/detail/13329840-sportovni-centrum-repy-praha-repy.html","610"
"9","Tram","Blatiny","","496"
"10","Restaurace","Kozel na Rybníčku","https://www.firmy.cz/detail/12980199-kozel-na-rybnicku-praha-repy.html","138"
"11","Obchod","NAMIR CZ","https://www.firmy.cz/detail/670448-namir-cz-praha-repy.html","374"
"12","Lékárna","Lékárna Řepy","https://www.firmy.cz/detail/13204395-lekarna-repy-praha-repy.html","466"
"13","Škola","ZUŠ Blatiny Praha 6, Španielova","https://www.firmy.cz/detail/398968-zus-blatiny-praha-6-spanielova-praha-repy.html","169"
"14","Bus MHD","Ke Kaménce","","128"
"15","Vlak","Praha-Zličín","","755"
"16","Lékař","MUDr. Helena Blatná","https://www.firmy.cz/detail/12974920-mudr-helena-blatna-praha-repy.html","235"
"17","Školka","Rozmarýnek","https://www.firmy.cz/detail/12796444-rozmarynek-praha-repy.html","228"
"18","Metro","Zličín","","2022"
"19","Pošta","Pošta Praha 618 - Česká pošta, s.p.","https://www.firmy.cz/detail/431332-posta-praha-618-praha-repy.html","756"
"20","Bankomat","Bankomat České spořitelny","https://www.firmy.cz/detail/13220709-bankomat-ceske-sporitelny-praha-repy.html","531"
