"","facility_type","facility_name","facility_iri","facility_distance"
"0","Hřiště","Dětské hřiště Dvořákova","https://mapy.cz/zakladni?x=13.4664907468&y=49.6954812252&z=17&source=base&id=1926155","679"
"1","Hospoda","Lidový dům Starý plzenec","https://www.firmy.cz/detail/13276459-lidovy-dum-stary-plzenec-stary-plzenec.html","1086"
"2","Večerka","Enapo potraviny","https://www.firmy.cz/detail/13133607-enapo-potraviny-stary-plzenec.html","343"
"3","Veterinář","Veterinární ordinace StarVet","https://www.firmy.cz/detail/2111708-veterinarni-ordinace-starvet-stary-plzenec.html","1352"
"4","Cukrárna","Muffin Café","https://www.firmy.cz/detail/12756178-muffin-cafe-losina.html","2856"
"5","Kino","CineStar Plzeň","https://www.firmy.cz/detail/662177-cinestar-plzen-plzen-cernice.html","3524"
"6","Sportoviště","Tělocvičná jednota Sokol Starý Plzenec","https://www.firmy.cz/detail/2131908-telocvicna-jednota-sokol-stary-plzenec-stary-plzenec.html","518"
"7","Škola","ZŠ Starý Plzenec","https://www.firmy.cz/detail/359458-zs-stary-plzenec-stary-plzenec.html","416"
"8","Bankomat","Bankomat České spořitelny","https://www.firmy.cz/detail/596118-bankomat-ceske-sporitelny-stary-plzenec.html","499"
"9","Restaurace","Staroplzenecká restaurace","https://www.firmy.cz/detail/13116352-staroplzenecka-restaurace-stary-plzenec.html","344"
"10","Obchod","Olympia Plzeň","https://www.firmy.cz/detail/13098117-olympia-plzen-plzen-cernice.html","3661"
"11","Vlak","Starý Plzenec","https://mapy.cz/zakladni?x=13.4781647751&y=49.6952736398&z=17&source=pubt&id=15212889","294"
"12","Lékař","MUDr. Petr Novák, praktický lékař, s.r.o.","https://www.firmy.cz/detail/12859435-mudr-petr-novak-prakticky-lekar-stary-plzenec.html","456"
"13","Školka","MŠ Starý Plzenec","https://www.firmy.cz/detail/2127858-ms-stary-plzenec-stary-plzenec.html","631"
"14","Bus MHD","Starý Plzenec, Nad tratí","https://mapy.cz/zakladni?x=13.4741095389&y=49.692901574&z=17&source=pubt&id=15699275","102"
"15","Lékárna","Lékárna Starý Plzenec s.r.o.","https://www.firmy.cz/detail/12859440-lekarna-stary-plzenec-s-r-o-stary-plzenec.html","551"
"16","Pošta","Pošta Starý Plzenec - Česká pošta, s.p.","https://www.firmy.cz/detail/216603-posta-stary-plzenec-stary-plzenec.html","497"
"17","Tram","Světovar","https://mapy.cz/zakladni?x=13.41263962&y=49.72761154&z=17&source=pubt&id=15697682","5902"
