"","facility_type","facility_name","facility_iri","facility_distance"
"0","Cukrárna","Suri Cafe","https://www.firmy.cz/detail/13298853-suri-cafe-ostrava-zabreh.html","894"
"1","Kino","Kino Luna","https://www.firmy.cz/detail/2642805-kino-luna-ostrava-zabreh.html","1017"
"2","Přírodní zajímavost","Zábřežský bludný balvan","","1335"
"3","Hřiště","Dětské hřiště Pavlovova","","724"
"4","Večerka","Potraviny Slunce","https://www.firmy.cz/detail/13240066-potraviny-slunce-ostrava-zabreh.html","104"
"5","Hospoda","Hospůdka u Hanzyho","https://www.firmy.cz/detail/13146165-hospudka-u-hanzyho-ostrava-zabreh.html","355"
"6","Divadlo","Divadlo U Lípy","https://www.firmy.cz/detail/2121467-divadlo-u-lipy-ostrava-zabreh.html","1153"
"7","Veterinář","MVDr. Petr Stankoci - Veterinární ordinace","https://www.firmy.cz/detail/1957076-mvdr-petr-stankoci-veterinarni-ordinace-ostrava-hrabuvka.html","983"
"8","Obchod","Kaufland","https://www.firmy.cz/detail/1461415-kaufland-ostrava-zabreh.html","854"
"9","Bankomat","Bankomat MONETA Money Bank","https://www.firmy.cz/detail/12780482-bankomat-moneta-money-bank-ostrava-zabreh.html","720"
"10","Lékař","MUDr. Marcela Prokopová","https://www.firmy.cz/detail/388974-mudr-marcela-prokopova-ostrava-zabreh.html","193"
"11","Lékárna","Lékárna Sano Zábřeh","https://www.firmy.cz/detail/13204516-lekarna-sano-zabreh-ostrava-zabreh.html","231"
"12","Sportoviště","Aerobic Team KN Ostrava","https://www.firmy.cz/detail/624622-aerobic-team-kn-ostrava-ostrava-zabreh.html","237"
"13","Škola","ZUŠ Sologubova, Ostrava","https://www.firmy.cz/detail/430084-zus-sologubova-ostrava-ostrava-zabreh.html","130"
"14","Školka","Soukromá základní škola a mateřská škola, s.r.o.","https://www.firmy.cz/detail/2320297-soukroma-zakladni-skola-a-materska-skola-ostrava-zabreh.html","651"
"15","Vlak","Ostrava-Vítkovice","","1881"
"16","Pošta","Pošta Ostrava 4 - Česká pošta, s.p.","https://www.firmy.cz/detail/433394-posta-ostrava-4-ostrava-zabreh.html","273"
"17","Bus MHD","Náměstí SNP","","327"
"18","Tram","Rodimcevova","","123"
"19","Restaurace","Restaurace U Áji","https://www.firmy.cz/detail/13240065-restaurace-u-aji-ostrava-zabreh.html","95"
