"","facility_type","facility_name","facility_iri","facility_distance"
"0","Cukrárna","ZigZag Caffé Music Bar","https://www.firmy.cz/detail/13121055-zigzag-caffe-music-bar-karlovy-vary.html","180"
"1","Kino","Kino Čas","https://www.firmy.cz/detail/13125984-kino-cas-karlovy-vary.html","234"
"2","Přírodní zajímavost","Karlův hvozd","","1647"
"3","Hřiště","Dětské hřiště Moskevská","","905"
"4","Večerka","Mini Market Moskevská","https://www.firmy.cz/detail/13319532-mini-market-moskevska-karlovy-vary.html","29"
"5","Hospoda","John Jameson Pub","https://www.firmy.cz/detail/654285-john-jameson-pub-karlovy-vary.html","237"
"6","Divadlo","Karlovarské městské divadlo, o.p.s.","https://www.firmy.cz/detail/12756821-karlovarske-mestske-divadlo-o-p-s-karlovy-vary.html","1210"
"7","Veterinář","MVDr. Eva Tichá","https://www.firmy.cz/detail/2656349-mvdr-eva-ticha-karlovy-vary-rybare.html","970"
"8","Bus MHD","Svahová","","51"
"9","Pošta","Pošta Karlovy Vary 1 - Česká pošta, s.p.","https://www.firmy.cz/detail/217581-posta-karlovy-vary-1-karlovy-vary.html","276"
"10","Lékárna","BENU Lékárna","https://www.firmy.cz/detail/420858-benu-lekarna-karlovy-vary.html","57"
"11","Škola","Základní škola a střední škola Karlovy Vary","https://www.firmy.cz/detail/2659825-zakladni-skola-a-stredni-skola-karlovy-vary-karlovy-vary.html","150"
"12","Obchod","Obchodní centrum Perla","https://www.firmy.cz/detail/13219298-obchodni-centrum-perla-karlovy-vary.html","153"
"13","Lékař","Praktická lékařka MUDr. Jaroslava Švandrlíková","https://www.firmy.cz/detail/387625-prakticka-lekarka-mudr-jaroslava-svandrlikova-karlovy-vary.html","183"
"14","Restaurace","Královská Srdcovka Karlovy Vary","https://www.firmy.cz/detail/13235643-kralovska-srdcovka-karlovy-vary-karlovy-vary.html","47"
"15","Vlak","Karlovy Vary dolní nádraží","","490"
"16","Školka","ZŠ a MŠ při zdravotnických zařízeních Karlovy Vary","https://www.firmy.cz/detail/12736566-zs-a-ms-pri-zdravotnickych-zarizenich-karlovy-vary-karlovy-vary.html","663"
"17","Sportoviště","Bazén Thermal","https://www.firmy.cz/detail/1351355-bazen-thermal-karlovy-vary.html","631"
"18","Bankomat","Raiffeisenbank - bankomat","https://www.firmy.cz/detail/631169-raiffeisenbank-bankomat-karlovy-vary.html","16"
