"","facility_type","facility_name","facility_iri","facility_distance"
"0","Cukrárna","U Dědouška","https://www.firmy.cz/detail/2637465-u-dedouska-teplice.html","97"
"1","Kino","Kino Květen","https://www.firmy.cz/detail/435268-kino-kveten-teplice.html","631"
"2","Přírodní zajímavost","Porcelanity u Strak","","3577"
"3","Hřiště","Dětské hřiště Šanovské sady","","125"
"4","Večerka","Můjobchod - Potraviny Pod Letnou","https://www.firmy.cz/detail/13317231-mujobchod-potraviny-pod-letnou-teplice.html","324"
"5","Hospoda","Hospůdka U Veselýho Mandlu","https://www.firmy.cz/detail/13079074-hospudka-u-veselyho-mandlu-teplice.html","96"
"6","Divadlo","Krušnohorské divadlo","https://www.firmy.cz/detail/435271-krusnohorske-divadlo-teplice.html","500"
"7","Veterinář","MVDr. Jaroslava Radoušová","https://www.firmy.cz/detail/2621440-mvdr-jaroslava-radousova-teplice.html","329"
"8","Lékař","Praktik TEPLICE, s.r.o.","https://www.firmy.cz/detail/13107476-praktik-teplice-teplice.html","263"
"9","Lékárna","Lékárna Jasmín","https://www.firmy.cz/detail/658387-lekarna-jasmin-teplice.html","315"
"10","Restaurace","U Černý kočky","https://www.firmy.cz/detail/12717118-u-cerny-kocky-teplice.html","130"
"11","Obchod","Nákupní centrum Fontána Teplice","https://www.firmy.cz/detail/12866624-nakupni-centrum-fontana-teplice-teplice.html","733"
"12","Sportoviště","Okresní sportovní sdružení Teplice","https://www.firmy.cz/detail/745625-okresni-sportovni-sdruzeni-teplice-teplice.html","235"
"13","Škola","Základní umělecká škola Teplice","https://www.firmy.cz/detail/2221367-zakladni-umelecka-skola-teplice-teplice.html","197"
"14","Pošta","Pošta Teplice 8 - Česká pošta, s.p.","https://www.firmy.cz/detail/215425-posta-teplice-8-teplice.html","351"
"15","Školka","PROFI ŠKOLKA","https://www.firmy.cz/detail/13176880-profi-skolka-teplice.html","236"
"16","Vlak","Teplice v Čechách","","646"
"17","Bus MHD","Teplice, Zeyerovo náměstí","","224"
"18","Bankomat","Bankomat ČSOB","https://www.firmy.cz/detail/597371-bankomat-csob-teplice.html","272"
