"","facility_type","facility_name","facility_iri","facility_distance"
"0","Cukrárna","Kavárna a cukrárna AIDA","https://www.firmy.cz/detail/13123000-kavarna-a-cukrarna-aida-uherske-hradiste.html","661"
"1","Kino","Kino Hvězda Uherské Hradiště","https://www.firmy.cz/detail/457216-kino-hvezda-uherske-hradiste-uherske-hradiste.html","1279"
"2","Přírodní zajímavost","Soutok Moravy a Olšavy","","3267"
"3","Hřiště","Dětské hřiště Štěpnická","","168"
"4","Večerka","HRUŠKA","https://www.firmy.cz/detail/12819450-hruska-uherske-hradiste.html","218"
"5","Hospoda","Pivnice U Dolečka","https://www.firmy.cz/detail/13144114-pivnice-u-dolecka-uherske-hradiste.html","276"
"6","Divadlo","Malá scéna Slováckého divadla","https://www.firmy.cz/detail/12964490-mala-scena-slovackeho-divadla-uherske-hradiste.html","875"
"7","Veterinář","Veterina Mlejnský","https://www.firmy.cz/detail/477139-veterina-mlejnsky-uherske-hradiste.html","392"
"8","Lékárna","Lékárna nemocnice","https://www.firmy.cz/detail/375938-lekarna-nemocnice-uherske-hradiste.html","219"
"9","Školka","ZŠ a MŠ speciální Uherské Hradiště","https://www.firmy.cz/detail/2327158-zs-a-ms-specialni-uherske-hradiste-uherske-hradiste.html","402"
"10","Bus MHD","Nemocnice","","70"
"11","Restaurace","Restaurace Na Nádraží","https://www.firmy.cz/detail/13134645-restaurace-na-nadrazi-uherske-hradiste.html","474"
"12","Lékař","MUDr. Hana Vávrová","https://www.firmy.cz/detail/389992-mudr-hana-vavrova-uherske-hradiste.html","248"
"13","Bankomat","Bankomat ČSOB","https://www.firmy.cz/detail/12844928-bankomat-csob-uherske-hradiste.html","204"
"14","Obchod","Tesco","https://www.firmy.cz/detail/653537-tesco-uherske-hradiste.html","1277"
"15","Vlak","Uherské Hradiště","","455"
"16","Pošta","Pošta Uherské Hradiště 6 - Česká pošta, s.p.","https://www.firmy.cz/detail/433399-posta-uherske-hradiste-6-uherske-hradiste.html","198"
"17","Škola","Střední škola služeb, s.r.o.","https://www.firmy.cz/detail/361687-stredni-skola-sluzeb-uherske-hradiste.html","239"
"18","Sportoviště","Discgolf Kunovský les","","758"
