"","facility_type","facility_name","facility_iri","facility_distance"
"0","Hřiště","Dětské hřiště Peškova","https://mapy.cz/zakladni?x=17.2522647607&y=49.5728933917&z=17&source=base&id=2113183","179"
"1","Večerka","Potraviny Fischerova","https://www.firmy.cz/detail/13278845-potraviny-fischerova-olomouc-nove-sady.html","95"
"2","Hospoda","Pivnice Arx","https://www.firmy.cz/detail/13113248-pivnice-arx-olomouc-nove-sady.html","368"
"3","Cukrárna","Art Café","https://www.firmy.cz/detail/12919900-art-cafe-olomouc-povel.html","666"
"4","Kino","5D cinema Maxim","https://www.firmy.cz/detail/12950601-5d-cinema-maxim-olomouc.html","1674"
"5","Veterinář","Veterinární ordinace OrdinaVet","https://www.firmy.cz/detail/12984041-veterinarni-ordinace-ordinavet-olomouc-povel.html","934"
"6","Divadlo","Divadlo na Šantovce, o.p.s.","https://www.firmy.cz/detail/12833588-divadlo-na-santovce-olomouc.html","1716"
"7","Vlak","Olomouc-Nové Sady","https://mapy.cz/zakladni?x=17.2607462612&y=49.5709734398&z=17&source=pubt&id=15212340","504"
"8","Tram","Trnkova","https://mapy.cz/zakladni?x=17.25719801777482&y=49.57954288173438&z=17&source=pubt&id=15316610","911"
"9","Školka","Fakultní ZŠ a MŠ Olomouc, Střední novosadská","https://www.firmy.cz/detail/2590867-fakultni-zs-a-ms-olomouc-stredni-novosadska-olomouc-nove-sady.html","364"
"10","Škola","Fakultní základní škola dr. Milady Horákové a Mateřská škola Olomouc, Rožňavská 21, příspěvková organizace","https://www.firmy.cz/detail/358587-fakultni-zakladni-skola-dr-milady-horakove-a-materska-skola-olomouc-roznavska-21-prispevkova-organizace-olomouc-nove-sady.html","361"
"11","Restaurace","Restaurace U Klásků","https://www.firmy.cz/detail/12844153-restaurace-u-klasku-olomouc-povel.html","179"
"12","Bus MHD","Slavonínská","https://mapy.cz/zakladni?x=17.2531363410785&y=49.57065772929957&z=17&source=pubt&id=15203143","121"
"13","Lékárna","Fit Lékárna","https://www.firmy.cz/detail/13168822-fit-lekarna-olomouc-nove-sady.html","435"
"14","Sportoviště","TJ MILO Olomouc, z.s.","https://www.firmy.cz/detail/1335442-tj-milo-olomouc-z-s-olomouc-nove-sady.html","368"
"15","Lékař","MUDr. Jana Bomberová","https://www.firmy.cz/detail/12860268-mudr-jana-bomberova-olomouc-nove-sady.html","90"
"16","Pošta","Pošta Olomouc 12 - Česká pošta, s.p.","https://www.firmy.cz/detail/215270-posta-olomouc-12-olomouc-povel.html","1010"
"17","Obchod","Albert Hypermarket","https://www.firmy.cz/detail/12924402-albert-hypermarket-olomouc.html","1659"
"18","Bankomat","Bankomat Komerční banky","https://www.firmy.cz/detail/12786960-bankomat-komercni-banky-olomouc-nove-sady.html","457"
