"","facility_type","facility_name","facility_iri","facility_distance"
"0","Kino","Letní kino Mostkovice","https://www.firmy.cz/detail/1552038-letni-kino-mostkovice-mostkovice.html","1344"
"1","Hřiště","Dětské hřiště U Parku","","388"
"2","Večerka","BALA potraviny","https://www.firmy.cz/detail/1887840-bala-potraviny-plumlov.html","313"
"3","Hospoda","Hostinec Sokolovna","https://www.firmy.cz/detail/13110915-hostinec-sokolovna-mostkovice.html","2769"
"4","Bus MHD","Plumlov","","342"
"5","Lékař","MUDr. Martina Anderová","https://www.firmy.cz/detail/2488292-mudr-martina-anderova-plumlov.html","204"
"6","Bankomat","Bankomat Fio banky","https://www.firmy.cz/detail/2678074-bankomat-fio-banky-plumlov.html","331"
"7","Školka","Mateřská škola Plumlov, příspěvková organizace","https://www.firmy.cz/detail/13051877-materska-skola-plumlov-prispevkova-organizace-plumlov.html","133"
"8","Pošta","Pošta Plumlov - Česká pošta, s.p.","https://www.firmy.cz/detail/431308-posta-plumlov-plumlov.html","285"
"9","Lékárna","Lékárna Plumlov, s.r.o.","https://www.firmy.cz/detail/422706-lekarna-plumlov-plumlov.html","204"
"10","Škola","ZŠ Plumlov","https://www.firmy.cz/detail/358850-zs-plumlov-plumlov.html","224"
"11","Sportoviště","Střelnice Plumlov","","595"
"12","Obchod","Albert Hypermarket","https://www.firmy.cz/detail/12928185-albert-hypermarket-prostejov-cechovice.html","4455"
"13","Restaurace","Restaurace Pácl","https://www.firmy.cz/detail/12993196-restaurace-pacl-plumlov.html","394"
