"","facility_type","facility_name","facility_iri","facility_distance"
"0","Přírodní zajímavost","Uhelná sloj v Landeku","https://mapy.cz/zakladni?x=18.2692044444&y=49.8672338889&z=17&source=base&id=1981598","2758"
"1","Hřiště","Dětské hřiště Bieblova","https://mapy.cz/zakladni?x=18.2822455196&y=49.8407743168&z=17&source=base&id=2059181","339"
"2","Cukrárna","Čauky mňauky cafe","https://www.firmy.cz/detail/13057787-cauky-mnauky-cafe-ostrava-moravska-ostrava.html","572"
"3","Hospoda","Hobit club","https://www.firmy.cz/detail/1989230-hobit-club-ostrava-moravska-ostrava.html","638"
"4","Večerka","Potraviny ANGELA","https://www.firmy.cz/detail/1954144-potraviny-angela-ostrava.html","132"
"5","Kino","Kino vesmír","https://www.firmy.cz/detail/12980428-kino-vesmir-ostrava-moravska-ostrava.html","880"
"6","Divadlo","Divadlo 12","https://www.firmy.cz/detail/13216354-divadlo-12-ostrava-moravska-ostrava.html","940"
"7","Veterinář","VETPARK Ostrava, s.r.o.","https://www.firmy.cz/detail/13308555-vetpark-ostrava-ostrava-moravska-ostrava.html","757"
"8","Vlak","Ostrava-Stodolní","https://mapy.cz/zakladni?x=18.2809778624&y=49.8344412946&z=17&source=pubt&id=15213504","1044"
"9","Pošta","Pošta Ostrava 40 - Česká pošta, s.p.","https://www.firmy.cz/detail/433366-posta-ostrava-40-ostrava-moravska-ostrava.html","376"
"10","Lékař","MedicalHelp Česká republika s.r.o.","https://www.firmy.cz/detail/13276518-medicalhelp-ceska-republika-s-r-o-ostrava-moravska-ostrava.html","191"
"11","Bus MHD","Hornická poliklinika","https://mapy.cz/zakladni?x=18.28632411195541&y=49.84563688043274&z=17&source=pubt&id=15202207","380"
"12","Restaurace","Restaurace Na Plynární","https://www.firmy.cz/detail/13333284-restaurace-na-plynarni-ostrava-moravska-ostrava.html","161"
"13","Obchod","Obchodní centrum LASO","https://www.firmy.cz/detail/2071391-obchodni-centrum-laso-ostrava-moravska-ostrava.html","1131"
"14","Bankomat","Bankomat České spořitelny","https://www.firmy.cz/detail/593832-bankomat-ceske-sporitelny-ostrava-moravska-ostrava.html","445"
"15","Sportoviště","Outdoor club","https://www.firmy.cz/detail/13082138-outdoor-club-ostrava-moravska-ostrava.html","275"
"16","Školka","MŠ Ostrava, Křižíkova","https://www.firmy.cz/detail/2142452-ms-ostrava-krizikova-ostrava-moravska-ostrava.html","237"
"17","Škola","ZŠ Ostrava, Nádražní","https://www.firmy.cz/detail/358666-zs-ostrava-nadrazni-ostrava-moravska-ostrava.html","274"
"18","Tram","Křižíkova","https://mapy.cz/zakladni?x=18.2804165628&y=49.8455108646&z=17&source=pubt&id=15202711","215"
"19","Lékárna","Lékárna Salus","https://www.firmy.cz/detail/2476180-lekarna-salus-ostrava-moravska-ostrava.html","202"
