"","facility_type","facility_name","facility_iri","facility_distance"
"0","Cukrárna","Accademia dell caffe","https://www.firmy.cz/detail/2236866-accademia-dell-caffe-bruntal.html","454"
"1","Kino","Kino Centrum Bruntál","https://www.firmy.cz/detail/13157478-kino-centrum-bruntal-bruntal.html","588"
"2","Přírodní zajímavost","Lom u Marburku","","1534"
"3","Hřiště","Dětské hřiště K. H. Máchy","","61"
"4","Večerka","HRUŠKA","https://www.firmy.cz/detail/12820018-hruska-bruntal.html","95"
"5","Hospoda","Hostinec U Toma","https://www.firmy.cz/detail/2691430-hostinec-u-toma-bruntal.html","423"
"6","Divadlo","Městské divadlo Bruntál","https://www.firmy.cz/detail/661545-mestske-divadlo-bruntal-bruntal.html","748"
"7","Veterinář","MVDr. Josef Mužík","https://www.firmy.cz/detail/286088-mvdr-josef-muzik-bruntal.html","561"
"8","Škola","ZUŠ Bruntál","https://www.firmy.cz/detail/427613-zus-bruntal-bruntal.html","390"
"9","Bus MHD","Bruntál, ČUS","","58"
"10","Bankomat","Bankomat Komerční banky","https://www.firmy.cz/detail/12959920-bankomat-komercni-banky-bruntal.html","264"
"11","Restaurace","Pizzerie Fresh","https://www.firmy.cz/detail/2596596-pizzerie-fresh-bruntal.html","49"
"12","Školka","MŠ Mahenka Bruntál, Komenského","https://www.firmy.cz/detail/191592-ms-mahenka-bruntal-komenskeho-bruntal.html","194"
"13","Vlak","Bruntál","","460"
"14","Sportoviště","TJ Praděd Bruntál","https://www.firmy.cz/detail/2655056-tj-praded-bruntal-bruntal.html","309"
"15","Lékárna","Lékárna AGEL","https://www.firmy.cz/detail/12891155-lekarna-agel-bruntal.html","285"
"16","Obchod","Obchodní dům KOALA, spol. s r.o.","https://www.firmy.cz/detail/283594-obchodni-dum-koala-bruntal.html","559"
"17","Pošta","Pošta Bruntál 1 - Česká pošta, s.p.","https://www.firmy.cz/detail/432142-posta-bruntal-1-bruntal.html","530"
"18","Lékař","1. praktická ambulance, s.r.o.","https://www.firmy.cz/detail/2504291-1-prakticka-ambulance-bruntal.html","285"
