"","facility_type","facility_name","facility_iri","facility_distance"
"0","Cukrárna","Julius Meinl","https://www.firmy.cz/detail/13209053-julius-meinl-brno-bohunice.html","1570"
"1","Kino","Brno Autokino","https://www.firmy.cz/detail/13328637-brno-autokino-brno-pisarky.html","3170"
"2","Přírodní zajímavost","Koniklecová louka","","2241"
"3","Hřiště","Dětské hřiště Bosonožská","","295"
"4","Večerka","RYNEK","https://www.firmy.cz/detail/13163129-rynek-brno-stary-liskovec.html","576"
"5","Hospoda","Pivnice DON","https://www.firmy.cz/detail/13153350-pivnice-don-brno-stary-liskovec.html","576"
"6","Veterinář","ABClinic veterinární klinika","https://www.firmy.cz/detail/477132-abclinic-veterinarni-klinika-brno-stary-liskovec.html","448"
"7","Divadlo","Malá Amerika","https://www.firmy.cz/detail/12926234-mala-amerika-brno-stare-brno.html","4533"
"8","Pošta","Pošta Brno 25 - Česká pošta, s.p.","https://www.firmy.cz/detail/216043-posta-brno-25-brno-stary-liskovec.html","597"
"9","Bankomat","Bankomat ČSOB","https://www.firmy.cz/detail/599305-bankomat-csob-brno-stary-liskovec.html","597"
"10","Vlak","Brno-Starý Lískovec","","855"
"11","Restaurace","Restaurace U Ligače","https://www.firmy.cz/detail/13102991-restaurace-u-ligace-brno-stary-liskovec.html","176"
"12","Bus MHD","Brno, Točná","","210"
"13","Obchod","OC Kavkaz","https://www.firmy.cz/detail/13171080-oc-kavkaz-brno-bohunice.html","1093"
"14","Tram","Dunajská","","592"
"15","Školka","MŠ Kosmonautů, Brno","https://www.firmy.cz/detail/13045386-ms-kosmonautu-brno-brno-stary-liskovec.html","405"
"16","Lékárna","Lékárna Jemelkova","https://www.firmy.cz/detail/2593688-lekarna-jemelkova-brno-stary-liskovec.html","594"
"17","Sportoviště","Orel jednota Brno - Starý Lískovec","https://www.firmy.cz/detail/1962335-orel-jednota-brno-stary-liskovec-brno-stary-liskovec.html","36"
"18","Lékař","MUDr. Helena Jandíková","https://www.firmy.cz/detail/390594-mudr-helena-jandikova-brno-stary-liskovec.html","287"
"19","Škola","ZŠ Brno, Bosonožská","https://www.firmy.cz/detail/356482-zs-brno-bosonozska-brno-stary-liskovec.html","379"
