"","facility_type","facility_name","facility_iri","facility_distance"
"0","Hřiště","Dětské hřiště Dlouhá","https://mapy.cz/zakladni?x=14.043404&y=50.661054&z=17&source=base&id=2060696","222"
"1","Večerka","Bezobalový obchod ŠPAJZ","https://www.firmy.cz/detail/13335821-bezobalovy-obchod-spajz-usti-nad-labem-centrum.html","140"
"2","Veterinář","Veterina Skřivánek","https://www.firmy.cz/detail/13081086-veterina-skrivanek-usti-nad-labem-centrum.html","934"
"3","Cukrárna","Café Max","https://www.firmy.cz/detail/2548565-cafe-max-usti-nad-labem-centrum.html","141"
"4","Hospoda","Ústecká pivotéka","https://www.firmy.cz/detail/13189615-ustecka-pivoteka-usti-nad-labem-centrum.html","294"
"5","Kino","Cinema City Ústí nad Labem","https://www.firmy.cz/detail/2679909-cinema-city-usti-nad-labem-usti-nad-labem-centrum.html","352"
"6","Divadlo","Severočeské divadlo, s.r.o.","https://www.firmy.cz/detail/12720983-severoceske-divadlo-usti-nad-labem-centrum.html","444"
"7","Lékárna","BENU Lékárna","https://www.firmy.cz/detail/12933541-benu-lekarna-usti-nad-labem-centrum.html","257"
"8","Sportoviště","YMCA Ústí nad Labem","https://www.firmy.cz/detail/735283-ymca-usti-nad-labem-usti-nad-labem-centrum.html","504"
"9","Škola","Střední škola obchodu a služeb, s.r.o.","https://www.firmy.cz/detail/361422-stredni-skola-obchodu-a-sluzeb-usti-nad-labem-centrum.html","104"
"10","Restaurace","Srdcovka","https://www.firmy.cz/detail/13308794-srdcovka-usti-nad-labem-centrum.html","47"
"11","Lékař","MEDICINSPORT, spol. s r.o.","https://www.firmy.cz/detail/304222-medicinsport-usti-nad-labem-centrum.html","255"
"12","Bus MHD","Mírové náměstí","https://mapy.cz/zakladni?x=14.0411522985&y=50.6601481043&z=17&source=pubt&id=15704731","176"
"13","Školka","MŠ Centrum Ústí nad Labem","https://www.firmy.cz/detail/1270692-ms-centrum-usti-nad-labem-usti-nad-labem-centrum.html","209"
"14","Vlak","Ústí nad Labem hlavní nádraží","https://mapy.cz/zakladni?x=14.0445763365&y=50.6594875336&z=17&source=pubt&id=15213131","381"
"15","Bankomat","Bankomat ČSOB","https://www.firmy.cz/detail/2579124-bankomat-csob-usti-nad-labem-centrum.html","109"
"16","Pošta","Pošta Ústí nad Labem 1 - Česká pošta, s.p.","https://www.firmy.cz/detail/217063-posta-usti-nad-labem-1-usti-nad-labem-centrum.html","573"
"17","Obchod","Obchodní centrum Sever","https://www.firmy.cz/detail/13265743-obchodni-centrum-sever-usti-nad-labem-centrum.html","215"
