"","facility_type","facility_name","facility_iri","facility_distance"
"0","Cukrárna","Costa Coffee","https://www.firmy.cz/detail/2670666-costa-coffee-praha-krc.html","624"
"1","Kino","HopeTV","https://www.firmy.cz/detail/672889-hopetv-praha-vinohrady.html","2813"
"2","Hřiště","Dětské hřiště Vokáčova","","146"
"3","Večerka","Albert Supermarket","https://www.firmy.cz/detail/229749-albert-supermarket-praha-michle.html","264"
"4","Divadlo","Divadlo Na Jezerce","https://www.firmy.cz/detail/496550-divadlo-na-jezerce-praha-nusle.html","1024"
"5","Hospoda","Hostinec U Procházků","https://www.firmy.cz/detail/573112-hostinec-u-prochazku-praha-krc.html","356"
"6","Veterinář","Veterinární klinika zelená liška","https://www.firmy.cz/detail/655752-veterinarni-klinika-zelena-liska-praha-krc.html","375"
"7","Pošta","Pošta Praha 4 - Česká pošta, s.p.","https://www.firmy.cz/detail/216681-posta-praha-4-praha-krc.html","301"
"8","Tram","Pankrác","","614"
"9","Lékárna","BB Centrum","https://www.firmy.cz/detail/658593-bb-centrum-praha-michle.html","618"
"10","Restaurace","NOLA Restaurant & Café","https://www.firmy.cz/detail/13001250-nola-restaurant-cafe-praha-krc.html","386"
"11","Obchod","OC DBK Budějovická","https://www.firmy.cz/detail/169885-oc-dbk-budejovicka-praha-krc.html","607"
"12","Bankomat","Bankomat Fio banky","https://www.firmy.cz/detail/2678060-bankomat-fio-banky-praha-michle.html","211"
"13","Bus MHD","Zelená liška","","184"
"14","Škola","ZŠ Praha 4, Bítovská","https://www.firmy.cz/detail/358981-zs-praha-4-bitovska-praha-michle.html","408"
"15","Metro","Budějovická","","458"
"16","Školka","Naše sluníčka","https://www.firmy.cz/detail/406693-nase-slunicka-praha-michle.html","279"
"17","Lékař","MOJE AMBULANCE","https://www.firmy.cz/detail/12889518-moje-ambulance-praha-nusle.html","505"
"18","Vlak","Praha-Kačerov","","1402"
"19","Sportoviště","PTU","https://www.firmy.cz/detail/745388-ptu-praha-michle.html","97"
