"","facility_type","facility_name","facility_iri","facility_distance"
"0","Cukrárna","Kavárna a pekárnička ""U Koláčků""","https://www.firmy.cz/detail/13233938-kavarna-a-pekarnicka-u-kolacku-prostejov.html","656"
"1","Kino","Kino Metro 70","https://www.firmy.cz/detail/13118959-kino-metro-70-prostejov.html","1135"
"2","Hřiště","Dětské hřiště Šárka","","185"
"3","Večerka","Potraviny Na Růžku","https://www.firmy.cz/detail/2334698-potraviny-na-ruzku-prostejov.html","72"
"4","Hospoda","Hospoda U Námořníka","https://www.firmy.cz/detail/13191833-hospoda-u-namornika-prostejov.html","30"
"5","Divadlo","Divadlo Point","https://www.firmy.cz/detail/13207554-divadlo-point-prostejov.html","370"
"6","Veterinář","Veterinární klinika Veterix","https://www.firmy.cz/detail/2113245-veterinarni-klinika-veterix-prostejov.html","722"
"7","Bus MHD","Prostějov, Šárka lékárna","","145"
"8","Škola","ART ECON - Vyšší odborná škola, s.r.o.","https://www.firmy.cz/detail/361656-art-econ-vyssi-odborna-skola-s-r-o-prostejov.html","370"
"9","Školka","Mateřská škola Prostějov, ul. Šárka 4a","https://www.firmy.cz/detail/12887011-materska-skola-prostejov-ul-sarka-4a-prostejov.html","310"
"10","Restaurace","Pizza La Putica","https://www.firmy.cz/detail/2679160-pizza-la-putica-prostejov.html","112"
"11","Bankomat","Bankomat ČSOB","https://www.firmy.cz/detail/599286-bankomat-csob-prostejov.html","480"
"12","Lékař","MUDr. Pavel Svoboda - MEDIPAS s.r.o.","https://www.firmy.cz/detail/12750057-mudr-pavel-svoboda-medipas-s-r-o-prostejov.html","432"
"13","Lékárna","Lékárna Šárka","https://www.firmy.cz/detail/12804229-lekarna-sarka-prostejov.html","112"
"14","Pošta","Pošta Prostějov 8 - Česká pošta, s.p.","https://www.firmy.cz/detail/431301-posta-prostejov-8-prostejov.html","318"
"15","Obchod","Kaufland","https://www.firmy.cz/detail/1532041-kaufland-prostejov.html","521"
"16","Vlak","Prostějov hlavní nádraží","","878"
"17","Sportoviště","Sokolská Župa Prostějovská","https://www.firmy.cz/detail/403953-sokolska-zupa-prostejovska-prostejov.html","826"
