"","facility_type","facility_name","facility_iri","facility_distance"
"0","Hřiště","Rákosníčkovo hřiště","https://mapy.cz/zakladni?x=17.6975268691&y=50.092471203&z=17&source=base&id=1926121","629"
"1","Přírodní zajímavost","Bývalá pískovna Cvilín","https://mapy.cz/zakladni?x=17.71929633068848&y=50.070756267267484&z=17&source=base&id=2321935","3497"
"2","Hospoda","U Brežněva","https://www.firmy.cz/detail/13139517-u-brezneva-krnov-pod-bezrucovym-vrchem.html","459"
"3","Cukrárna","Cukrárna Oáza","https://www.firmy.cz/detail/278585-cukrarna-oaza-krnov-pod-bezrucovym-vrchem.html","1144"
"4","Večerka","Potraviny Maxima Gorkého 1","https://www.firmy.cz/detail/237905-potraviny-maxima-gorkeho-1-krnov.html","179"
"5","Kino","Kino Mír 70","https://www.firmy.cz/detail/2585148-kino-mir-70-krnov-pod-cvilinem.html","1284"
"6","Veterinář","Veterinární ordinace Žeryk","https://www.firmy.cz/detail/2096453-veterinarni-ordinace-zeryk-krnov-pod-bezrucovym-vrchem.html","868"
"7","Divadlo","Městské divadlo Krnov","https://www.firmy.cz/detail/661546-mestske-divadlo-krnov-krnov-pod-bezrucovym-vrchem.html","829"
"8","Školka","MŠ Krnov, Jiráskova","https://www.firmy.cz/detail/661485-ms-krnov-jiraskova-krnov-pod-bezrucovym-vrchem.html","55"
"9","Pošta","Pošta Krnov 2 - Česká pošta, s.p.","https://www.firmy.cz/detail/432339-posta-krnov-2-krnov-pod-bezrucovym-vrchem.html","931"
"10","Škola","ZŠ Krnov, Janáčkovo náměstí","https://www.firmy.cz/detail/357835-zs-krnov-janackovo-namesti-krnov-pod-bezrucovym-vrchem.html","352"
"11","Vlak","Krnov","https://mapy.cz/zakladni?x=17.6833907128&y=50.0888919639&z=17&source=pubt&id=15211841","1068"
"12","Lékař","Můj doktor, s.r.o.","https://www.firmy.cz/detail/12863010-muj-doktor-krnov-pod-bezrucovym-vrchem.html","547"
"13","Bus MHD","Krnov, nemocnice hl. brána","https://mapy.cz/zakladni?x=17.6890712496&y=50.0962583161&z=17&source=pubt&id=15310336","209"
"14","Bankomat","Bankomat České spořitelny","https://www.firmy.cz/detail/2302769-bankomat-ceske-sporitelny-krnov-pod-bezrucovym-vrchem.html","181"
"15","Restaurace","Výčep U nemocnice","https://www.firmy.cz/detail/13343154-vycep-u-nemocnice-krnov-pod-bezrucovym-vrchem.html","175"
"16","Lékárna","Lékárna Na poliklinice","https://www.firmy.cz/detail/13333424-lekarna-na-poliklinice-krnov-pod-bezrucovym-vrchem.html","884"
"17","Obchod","Albert Hypermarket","https://www.firmy.cz/detail/446932-albert-hypermarket-krnov-pod-bezrucovym-vrchem.html","986"
"18","Sportoviště","Koupaliště Krnov","https://www.firmy.cz/detail/13207411-koupaliste-krnov-krnov-pod-bezrucovym-vrchem.html","196"
