"","facility_type","facility_name","facility_iri","facility_distance"
"0","Hřiště","Dětské hřiště U Tesly","https://mapy.cz/zakladni?x=18.399349801914155&y=49.799687754043575&z=17&source=base&id=2357374","746"
"1","Hospoda","Hospůdka na hřišti","https://www.firmy.cz/detail/13128587-hospudka-na-hristi-havirov-sumbark.html","326"
"2","Večerka","Potraviny nám. T. G. Masaryka 	811","https://www.firmy.cz/detail/13056879-potraviny-nam-t-g-masaryka-811-havirov-sumbark.html","60"
"3","Veterinář","Veterinární klinika ANIVET - MVDr. Zbyněk Horák","https://www.firmy.cz/detail/1969639-veterinarni-klinika-anivet-mvdr-zbynek-horak-havirov-sumbark.html","99"
"4","Cukrárna","Cukrárna Lada","https://www.firmy.cz/detail/12915655-cukrarna-lada-havirov-sumbark.html","1207"
"5","Kino","Letní kino - Městské kulturní středisko Havířov","https://www.firmy.cz/detail/13072791-letni-kino-havirov.html","1382"
"6","Lékař","MUDr. René Turčínek","https://www.firmy.cz/detail/387379-mudr-rene-turcinek-havirov-sumbark.html","44"
"7","Vlak","Havířov","https://mapy.cz/zakladni?x=18.4125438808&y=49.7917388734&z=17&source=pubt&id=15211361","551"
"8","Bankomat","Bankomat Komerční banky","https://www.firmy.cz/detail/13312525-bankomat-komercni-banky-havirov-sumbark.html","448"
"9","Škola","ZŠ Havířov, Školní","https://www.firmy.cz/detail/357063-zs-havirov-skolni-havirov-sumbark.html","84"
"10","Školka","MŠ Havířov-Šumbark, Okružní","https://www.firmy.cz/detail/633819-ms-havirov-sumbark-okruzni-havirov-sumbark.html","157"
"11","Bus MHD","Havířov, Šumbark, Obránců míru","https://mapy.cz/zakladni?x=18.4062374061614&y=49.7946122629392&z=17&source=pubt&id=15285257","107"
"12","Pošta","Pošta Havířov 3 - Česká pošta, s.p.","https://www.firmy.cz/detail/431629-posta-havirov-3-havirov-sumbark.html","164"
"13","Restaurace","GURMÁN","https://www.firmy.cz/detail/12907330-gurman-havirov.html","344"
"14","Obchod","Tesco","https://www.firmy.cz/detail/218205-tesco-havirov-mesto.html","998"
"15","Sportoviště","Tenisový klub Havířov, z.s.","https://www.firmy.cz/detail/721336-tenisovy-klub-havirov-z-s-havirov-sumbark.html","343"
"16","Lékárna","Lékárna Léčebné centrum","https://www.firmy.cz/detail/2202513-lekarna-lecebne-centrum-havirov-sumbark.html","44"
