"","facility_type","facility_name","facility_iri","facility_distance"
"0","Cukrárna","Cukrárna, Kavárna Šlágr","https://www.firmy.cz/detail/2503534-cukrarna-kavarna-slagr-praha-vinohrady.html","646"
"1","Kino","HopeTV","https://www.firmy.cz/detail/672889-hopetv-praha-vinohrady.html","572"
"2","Hřiště","Dětské hřiště U Havlíčkových sadů","","495"
"3","Večerka","BILLA","https://www.firmy.cz/detail/212080-billa-praha-vinohrady.html","402"
"4","Hospoda","Hospoda Pohoda","https://www.firmy.cz/detail/569598-hospoda-pohoda-praha-nusle.html","350"
"5","Divadlo","Divadlo bez hranic","https://www.firmy.cz/detail/636343-divadlo-bez-hranic-praha-nusle.html","405"
"6","Veterinář","MVDr. Miroslav Měšťan","https://www.firmy.cz/detail/2487671-mvdr-miroslav-mestan-praha-vrsovice.html","508"
"7","Škola","Dětský domov se školou, středisko výchovné péče a ZŚ, Praha 2","https://www.firmy.cz/detail/1786447-detsky-domov-se-skolou-stredisko-vychovne-pece-a-zs-praha-2-praha-vinohrady.html","212"
"8","Tram","Nuselské schody","","190"
"9","Restaurace","Excelsior Pub","https://www.firmy.cz/detail/2560363-excelsior-pub-praha-vinohrady.html","153"
"10","Školka","Dětské studio Žofka","https://www.firmy.cz/detail/441499-detske-studio-zofka-praha-vinohrady.html","295"
"11","Obchod","PAVILON, a.s.","https://www.firmy.cz/detail/451685-pavilon-praha-vinohrady.html","960"
"12","Lékárna","Dr.Max","https://www.firmy.cz/detail/2646471-dr-max-praha-nusle.html","533"
"13","Sportoviště","Pétanque Havlíčkovy sady","","417"
"14","Lékař","MUDr. Anna Růžičková","https://www.firmy.cz/detail/390768-mudr-anna-ruzickova-praha-vinohrady.html","462"
"15","Bus MHD","Praha, Karlov","","581"
"16","Metro","Náměstí Míru","","716"
"17","Bankomat","Bankomat Komerční banky","https://www.firmy.cz/detail/595973-bankomat-komercni-banky-praha-nusle.html","485"
"18","Vlak","Praha-Vršovice","","804"
"19","Pošta","Pošta Praha 416 - Česká pošta, s.p.","https://www.firmy.cz/detail/217473-posta-praha-416-praha-nusle.html","410"
