"","facility_type","facility_name","facility_iri","facility_distance"
"0","Hřiště","Dětské hřiště Bělocerkevská","https://mapy.cz/zakladni?x=14.4696296285&y=50.0727631453&z=17&source=base&id=1927047","86"
"1","Přírodní zajímavost","Mokřad Triangl","https://mapy.cz/zakladni?x=14.5188041667&y=50.0615525&z=17&source=base&id=1981356","3801"
"2","Cukrárna","OVOCNÝ SVĚTOZOR","https://www.firmy.cz/detail/2359021-ovocny-svetozor-praha-zizkov.html","827"
"3","Večerka","Tesco Expres","https://www.firmy.cz/detail/2568708-tesco-expres-praha-vrsovice.html","177"
"4","Hospoda","Pivnice Los v Oslu","https://www.firmy.cz/detail/12702728-pivnice-los-v-oslu-praha-vinohrady.html","1162"
"5","Divadlo","Divadelní společnost Josefa Dvořáka","https://www.firmy.cz/detail/396839-divadelni-spolecnost-josefa-dvoraka-praha-vrsovice.html","667"
"6","Veterinář","MVDr. Mgr. Kateřina Malíková","https://www.firmy.cz/detail/2518849-mvdr-mgr-katerina-malikova-praha-vrsovice.html","209"
"7","Kino","Cinema City Flora","https://www.firmy.cz/detail/660712-cinema-city-flora-praha-zizkov.html","920"
"8","Bus MHD","Bělocerkevská","https://mapy.cz/zakladni?x=14.469958385&y=50.0719070679&z=17&source=pubt&id=15305303","136"
"9","Obchod","Tesco Extra","https://www.firmy.cz/detail/733906-tesco-extra-praha-vrsovice.html","572"
"10","Bankomat","Bankomat České spořitelny","https://www.firmy.cz/detail/2464204-bankomat-ceske-sporitelny-praha-vrsovice.html","186"
"11","Lékař","MUDr. Lubomíra Ščuková","https://www.firmy.cz/detail/389434-mudr-lubomira-scukova-praha-vrsovice.html","133"
"12","Metro","Želivského","https://mapy.cz/zakladni?x=14.4735295231&y=50.0782258663&z=17&source=pubt&id=15200280","718"
"13","Restaurace","Restaurace Havana","https://www.firmy.cz/detail/2241680-restaurace-havana-praha-vrsovice.html","114"
"14","Lékárna","Lékárna Vinohrady","https://www.firmy.cz/detail/2341175-lekarna-vinohrady-praha-vinohrady.html","608"
"15","Sportoviště","Tenisová škola RETURN","https://www.firmy.cz/detail/740307-tenisova-skola-return-praha-vinohrady.html","486"
"16","Škola","ZŠ Praha 10, U Roháčových kasáren","https://www.firmy.cz/detail/356127-zs-praha-10-u-rohacovych-kasaren-praha-vrsovice.html","254"
"17","Tram","Slavia","https://mapy.cz/zakladni?x=14.4706575443&y=50.0695516214&z=17&source=pubt&id=15305921","379"
"18","Školka","MŠ U Roháčových kasáren, Praha 10","https://www.firmy.cz/detail/478930-ms-u-rohacovych-kasaren-praha-10-praha-vrsovice.html","198"
"19","Pošta","Pošta Praha 100 - Česká pošta, s.p.","https://www.firmy.cz/detail/2591025-posta-praha-100-praha-vrsovice.html","578"
"20","Vlak","Praha-Eden","https://mapy.cz/zakladni?x=14.4717813004041&y=50.0657103621663&z=17&source=pubt&id=18415989","808"
