"","facility_type","facility_name","facility_iri","facility_distance"
"0","Cukrárna","Zámecká cukrárna","https://www.firmy.cz/detail/13116071-zamecka-cukrarna-klasterec-nad-ohri.html","482"
"1","Kino","Letní kino Klášterec nad Ohří","https://www.firmy.cz/detail/13326183-letni-kino-klasterec-nad-ohri-klasterec-nad-ohri.html","640"
"2","Hřiště","Dětské hřiště u školy","","366"
"3","Večerka","Lidl","https://www.firmy.cz/detail/1900651-lidl-klasterec-nad-ohri.html","384"
"4","Hospoda","Klášterecká restaurace","https://www.firmy.cz/detail/12807479-klasterecka-restaurace-klasterec-nad-ohri.html","527"
"5","Veterinář","MVDr. Štěpánka Kotoučová","https://www.firmy.cz/detail/2033342-mvdr-stepanka-kotoucova-klasterec-nad-ohri.html","154"
"6","Vlak","Klášterec nad Ohří","","1660"
"7","Bus MHD","Klášterec nad Ohří, Koupaliště","","181"
"8","Škola","ZŠ Klášterec nad Ohří, Školní","https://www.firmy.cz/detail/357663-zs-klasterec-nad-ohri-skolni-klasterec-nad-ohri.html","347"
"9","Pošta","Pošta Klášterec nad Ohří 2 - Česká pošta, s.p.","https://www.firmy.cz/detail/433502-posta-klasterec-nad-ohri-2-klasterec-nad-ohri.html","513"
"10","Školka","MŠ Stonožka","https://www.firmy.cz/detail/12975723-ms-stonozka-klasterec-nad-ohri.html","251"
"11","Lékárna","Dr.Max LÉKÁRNA","https://www.firmy.cz/detail/13280128-dr-max-lekarna-klasterec-nad-ohri.html","536"
"12","Obchod","Tesco","https://www.firmy.cz/detail/2195391-tesco-klasterec-nad-ohri.html","299"
"13","Sportoviště","SK saně Klášterec","https://www.firmy.cz/detail/2648586-sk-sane-klasterec-klasterec-nad-ohri.html","318"
"14","Bankomat","Bankomat MONETA Money Bank","https://www.firmy.cz/detail/2394562-bankomat-moneta-money-bank-klasterec-nad-ohri.html","302"
"15","Lékař","MUDr. Jitka Mrnková","https://www.firmy.cz/detail/389486-mudr-jitka-mrnkova-klasterec-nad-ohri.html","565"
"16","Restaurace","Satanka bar","https://www.firmy.cz/detail/13090517-satanka-bar-klasterec-nad-ohri.html","179"
