"","facility_type","facility_name","facility_iri","facility_distance"
"0","Cukrárna","Rebel's Coffee House","https://www.firmy.cz/detail/13123892-rebel-s-coffee-house-kladno.html","131"
"1","Kino","Kino Sokol Kladno","https://www.firmy.cz/detail/13179300-kino-sokol-kladno-kladno.html","1437"
"2","Přírodní zajímavost","Vodní park Čabárna","","6236"
"3","Hřiště","Dětské hřiště Vítězná","","453"
"4","Večerka","BILLA stop & shop","https://www.firmy.cz/detail/13102048-billa-stop-shop-kladno.html","159"
"5","Divadlo","Loutkové divadlo Lampion","https://www.firmy.cz/detail/733471-loutkove-divadlo-lampion-kladno.html","1897"
"6","Hospoda","Hospoda TJ Slovan","https://www.firmy.cz/detail/13111333-hospoda-tj-slovan-kladno-rozdelov.html","511"
"7","Veterinář","Veterinární klinika Kladno","https://www.firmy.cz/detail/171143-veterinarni-klinika-kladno-kladno.html","622"
"8","Pošta","Pošta Kladno 4 - Česká pošta, s.p.","https://www.firmy.cz/detail/216833-posta-kladno-4-kladno.html","291"
"9","Restaurace","Asijské bistro Vítězná 2990","https://www.firmy.cz/detail/13144040-asijske-bistro-vitezna-2990-kladno.html","179"
"10","Lékař","KK Bresson, s.r.o.","https://www.firmy.cz/detail/13015681-kk-bresson-kladno.html","697"
"11","Bankomat","Bankomat ČSOB","https://www.firmy.cz/detail/597851-bankomat-csob-kladno.html","291"
"12","Školka","MŠ Kladno, Moskevská","https://www.firmy.cz/detail/731309-ms-kladno-moskevska-kladno.html","185"
"13","Lékárna","Lékárna Jalta","https://www.firmy.cz/detail/375507-lekarna-jalta-kladno.html","308"
"14","Bus MHD","Kladno, Vítězná","","247"
"15","Škola","ZŠ Kladno, Moskevská","https://www.firmy.cz/detail/357649-zs-kladno-moskevska-kladno.html","94"
"16","Vlak","Kladno město","","518"
"17","Obchod","Central Kladno","https://www.firmy.cz/detail/12966933-central-kladno-kladno.html","1805"
"18","Sportoviště","LTC Slovan Kladno - Tenisový klub","https://www.firmy.cz/detail/169399-ltc-slovan-kladno-tenisovy-klub-kladno-rozdelov.html","608"
