"","facility_type","facility_name","facility_iri","facility_distance"
"0","Cukrárna","Level One","https://www.firmy.cz/detail/12828315-level-one-jablonec-nad-nisou.html","938"
"1","Kino","Kino Junior","https://www.firmy.cz/detail/13333340-kino-junior-jablonec-nad-nisou.html","818"
"2","Hřiště","Dětské hřiště Kokonínská","","567"
"3","Večerka","Potraviny Nová Pasířská 	4118/1","https://www.firmy.cz/detail/13055460-potraviny-nova-pasirska-4118-1-jablonec-nad-nisou.html","734"
"4","Divadlo","Městské divadlo Jablonec nad Nisou, o.p.s.","https://www.firmy.cz/detail/396944-mestske-divadlo-jablonec-nad-nisou-jablonec-nad-nisou.html","929"
"5","Hospoda","RestauraceJungmannova 602/5","https://www.firmy.cz/detail/13118401-restauracejungmannova-602-5-jablonec-nad-nisou.html","981"
"6","Veterinář","MVDr. Jaromír BAUDYŠ - veterinární ošetřovna","https://www.firmy.cz/detail/2118786-mvdr-jaromir-baudys-veterinarni-osetrovna-jablonec-nad-nisou.html","891"
"7","Bankomat","Bankomat České spořitelny","https://www.firmy.cz/detail/12857419-bankomat-ceske-sporitelny-jablonec-nad-nisou.html","663"
"8","Pošta","Pošta Jablonec nad Nisou 1 - Česká pošta, s.p.","https://www.firmy.cz/detail/215524-posta-jablonec-nad-nisou-1-jablonec-nad-nisou.html","975"
"9","Sportoviště","Tělovýchovná jednota LIAZ Jablonec nad Nisou","https://www.firmy.cz/detail/169999-telovychovna-jednota-liaz-jablonec-nad-nisou-jablonec-nad-nisou.html","250"
"10","Školka","MŠ Jablonec nad Nisou, Střelecká","https://www.firmy.cz/detail/2549217-ms-jablonec-nad-nisou-strelecka-jablonec-nad-nisou.html","289"
"11","Bus MHD","Revoluční","","99"
"12","Restaurace","Bistro VEGIT-POINT","https://www.firmy.cz/detail/13183716-bistro-vegit-point-jablonec-nad-nisou.html","260"
"13","Obchod","Nákupní centrum VENDO PARK","https://www.firmy.cz/detail/13261999-nakupni-centrum-vendo-park-jablonec-nad-nisou.html","529"
"14","Lékař","Ordinace praktického lékaře Jablonec n.N. s.r.o.","https://www.firmy.cz/detail/13286785-ordinace-praktickeho-lekare-jablonec-n-n-s-r-o-jablonec-nad-nisou.html","449"
"15","Lékárna","BENU Lékárna","https://www.firmy.cz/detail/12847639-benu-lekarna-jablonec-nad-nisou.html","531"
"16","Škola","ZŠ Jablonec nad Nisou, Pivovarská","https://www.firmy.cz/detail/357445-zs-jablonec-nad-nisou-pivovarska-jablonec-nad-nisou.html","75"
"17","Vlak","Jablonec nad Nisou","","672"
