"","facility_type","facility_name","facility_iri","facility_distance"
"0","Cukrárna","JEDNO KAFE s.r.o., s.r.o.","https://www.firmy.cz/detail/13144478-jedno-kafe-s-r-o-praha-hloubetin.html","405"
"1","Kino","CineStar Černý Most","https://www.firmy.cz/detail/2537569-cinestar-cerny-most-praha-cerny-most.html","2541"
"2","Přírodní zajímavost","Meandry Rokytky","","2467"
"3","Hřiště","Dětské hřiště Chvaletická","","82"
"4","Večerka","Penny Market","https://www.firmy.cz/detail/12859596-penny-market-praha-hloubetin.html","458"
"5","Hospoda","Šenk Na Rajské","https://www.firmy.cz/detail/12814379-senk-na-rajske-praha.html","850"
"6","Divadlo","Přírodní divadlo Dády Stoklasy","https://www.firmy.cz/detail/13159295-prirodni-divadlo-dady-stoklasy-praha-horni-pocernice.html","3968"
"7","Veterinář","MetropoleVet","https://www.firmy.cz/detail/12988353-metropolevet-praha-kyje.html","900"
"8","Lékárna","Dr.Max LÉKÁRNA","https://www.firmy.cz/detail/12804581-dr-max-lekarna-praha-kyje.html","405"
"9","Bankomat","Bankomat ČSOB","https://www.firmy.cz/detail/13252880-bankomat-csob-praha.html","661"
"10","Bus MHD","Sídliště Lehovec","","155"
"11","Školka","MŠ Praha 9, Chvaletická","https://www.firmy.cz/detail/2146267-ms-praha-9-chvaleticka-praha-hloubetin.html","92"
"12","Škola","ZŠ, Praha 9, Chvaletická","https://www.firmy.cz/detail/356260-zs-praha-9-chvaleticka-praha-hloubetin.html","71"
"13","Lékař","MUDr. Janečková Zdeňka, MediClinic a.s.","https://www.firmy.cz/detail/12946076-mudr-janeckova-zdenka-mediclinic-a-s-praha-kyje.html","405"
"14","Metro","Rajská zahrada","","738"
"15","Vlak","Praha-Kyje","","917"
"16","Obchod","Kaufland","https://www.firmy.cz/detail/13180341-kaufland-praha-hloubetin.html","643"
"17","Sportoviště","MTV Fitness & Squash","https://www.firmy.cz/detail/13097776-mtv-fitness-squash-praha-kyje.html","639"
"18","Restaurace","Restaurace TONG","https://www.firmy.cz/detail/13308565-restaurace-tong-praha-kyje.html","305"
"19","Tram","Lehovec","","319"
"20","Pošta","Pošta Praha 98 - Česká pošta, s.p.","https://www.firmy.cz/detail/431412-posta-praha-98-praha-cerny-most.html","625"
