"","facility_type","facility_name","facility_iri","facility_distance"
"0","Cukrárna","Cukrárna Amarilis","https://www.firmy.cz/detail/2570922-cukrarna-amarilis-praha-haje.html","492"
"1","Kino","Cinema City Chodov","https://www.firmy.cz/detail/13098016-cinema-city-chodov-praha-chodov.html","2261"
"2","Přírodní zajímavost","Mokřad Triangl","","3405"
"3","Hřiště","Dětské hřiště Podjavorinské","","69"
"4","Večerka","Albert Supermarket","https://www.firmy.cz/detail/209470-albert-supermarket-praha-chodov.html","330"
"5","Divadlo","SKAZKA, spol. s r.o.","https://www.firmy.cz/detail/2048564-skazka-praha-hostivar.html","1565"
"6","Hospoda","Hospoda Severka","https://www.firmy.cz/detail/13240896-hospoda-severka-praha-chodov.html","333"
"7","Veterinář","Regia Vet - veterinární klinika","https://www.firmy.cz/detail/759397-regia-vet-veterinarni-klinika-praha-chodov.html","230"
"8","Obchod","Obchodní centrum Háje","https://www.firmy.cz/detail/13272506-obchodni-centrum-haje-praha-haje.html","493"
"9","Metro","Háje","","265"
"10","Pošta","Pošta Praha 415 - Česká pošta, s.p.","https://www.firmy.cz/detail/431273-posta-praha-415-praha-chodov.html","355"
"11","Lékárna","Dr. Max","https://www.firmy.cz/detail/12920123-dr-max-praha-chodov.html","113"
"12","Školka","Mateřská škola, Praha 4, Konstantinova 1480","https://www.firmy.cz/detail/169956-materska-skola-praha-4-konstantinova-1480-praha-chodov.html","254"
"13","Škola","ZŠ a Střední škola Praha 4, Kupeckého","https://www.firmy.cz/detail/356162-zs-a-stredni-skola-praha-4-kupeckeho-praha-haje.html","212"
"14","Bankomat","Bankomat České spořitelny","https://www.firmy.cz/detail/2464015-bankomat-ceske-sporitelny-praha-haje.html","318"
"15","Bus MHD","Modrá škola","","134"
"16","Sportoviště","Volnočasový areál Kupeckého","","184"
"17","Restaurace","Jihoměstská restaurace","https://www.firmy.cz/detail/2675523-jihomestska-restaurace-praha-chodov.html","169"
"18","Lékař","Poliklinika Michnova","https://www.firmy.cz/detail/2580295-poliklinika-michnova-praha-chodov.html","113"
"19","Tram","Na Groši","","2439"
"20","Vlak","Praha-Hostivař","","2908"
