"","facility_type","facility_name","facility_iri","facility_distance"
"0","Hřiště","Dětské hřiště Jilemnického","https://mapy.cz/zakladni?x=18.4208613317&y=49.7839106468&z=17&source=base&id=1929005","197"
"1","Večerka","PEKAŘI a spol.","https://www.firmy.cz/detail/2608288-pekari-a-spol-havirov-mesto.html","359"
"2","Cukrárna","Cukrárna Lada","https://www.firmy.cz/detail/12908208-cukrarna-lada-havirov.html","469"
"3","Hospoda","Malá Jamajka","https://www.firmy.cz/detail/13121947-mala-jamajka-havirov-mesto.html","382"
"4","Veterinář","Veterinární ordinace Terra Vet","https://www.firmy.cz/detail/13330221-veterinarni-ordinace-terra-vet-havirov-mesto.html","518"
"5","Kino","Letní kino - Městské kulturní středisko Havířov","https://www.firmy.cz/detail/13072791-letni-kino-havirov.html","345"
"6","Lékárna","BENU Lékárna","https://www.firmy.cz/detail/12875767-benu-lekarna-havirov-mesto.html","923"
"7","Škola","ZUŠ Bohuslava Martinů, Havířov","https://www.firmy.cz/detail/399187-zus-bohuslava-martinu-havirov-havirov-mesto.html","242"
"8","Bankomat","Bankomat ČSOB","https://www.firmy.cz/detail/636843-bankomat-csob-havirov-mesto.html","294"
"9","Školka","Základní škola a Mateřská škola Havířov - Město Na Nábřeží, příspěvková organizace","https://www.firmy.cz/detail/1278268-zakladni-skola-a-materska-skola-havirov-mesto-na-nabrezi-prispevkova-organizace-havirov-mesto.html","190"
"10","Obchod","Tesco","https://www.firmy.cz/detail/218205-tesco-havirov-mesto.html","661"
"11","Sportoviště","Letní koupaliště Jindřich","https://www.firmy.cz/detail/703103-letni-koupaliste-jindrich-havirov-mesto.html","558"
"12","Restaurace","Pizzerie Boršičanka","https://www.firmy.cz/detail/13335617-pizzerie-borsicanka-havirov-mesto.html","185"
"13","Vlak","Havířov","https://mapy.cz/zakladni?x=18.4125438808&y=49.7917388734&z=17&source=pubt&id=15211361","939"
"14","Lékař","Mgr. Zdeňka Obtulovičová","https://www.firmy.cz/detail/368798-mgr-zdenka-obtulovicova-havirov-mesto.html","201"
"15","Pošta","Pošta Havířov 11 - Česká pošta, s.p.","https://www.firmy.cz/detail/431631-posta-havirov-11-havirov-mesto.html","169"
"16","Bus MHD","Havířov, Město, u podloubí","https://mapy.cz/zakladni?x=18.42002615667&y=49.7860093724561&z=17&source=pubt&id=15291345","118"
