"","facility_type","facility_name","facility_iri","facility_distance"
"0","Cukrárna","Eiscafe Delikana","https://www.firmy.cz/detail/13294607-eiscafe-delikana-karvina-frystat.html","818"
"1","Kino","Kino Ex","https://www.firmy.cz/detail/396409-kino-ex-karvina-nove-mesto.html","209"
"2","Hřiště","Dětské hřiště Květinová","","378"
"3","Večerka","Enapo","https://www.firmy.cz/detail/13135635-enapo-karvina-nove-mesto.html","176"
"4","Hospoda","Pivnice U Čápa","https://www.firmy.cz/detail/12898269-pivnice-u-capa-karvina-nove-mesto.html","538"
"5","Veterinář","Veterinární ordinace TRIAS","https://www.firmy.cz/detail/2331003-veterinarni-ordinace-trias-karvina-nove-mesto.html","802"
"6","Sportoviště","STaRS Karviná, s.r.o.","https://www.firmy.cz/detail/721386-stars-karvina-karvina-nove-mesto.html","257"
"7","Školka","Základní škola a Mateřská škola Dělnická - U Máji","https://www.firmy.cz/detail/12854835-zakladni-skola-a-materska-skola-delnicka-u-maji-karvina-nove-mesto.html","675"
"8","Restaurace","Restaurace Cihelní 1652/51","https://www.firmy.cz/detail/13121644-restaurace-cihelni-1652-51-karvina-nove-mesto.html","258"
"9","Pošta","Pošta Karviná 61 - Česká pošta, s.p.","https://www.firmy.cz/detail/431429-posta-karvina-61-karvina-nove-mesto.html","241"
"10","Lékař","MUDr. Alena Skálová","https://www.firmy.cz/detail/386634-mudr-alena-skalova-karvina-nove-mesto.html","290"
"11","Lékárna","Lékárna Alfa","https://www.firmy.cz/detail/2629102-lekarna-alfa-karvina-nove-mesto.html","290"
"12","Bus MHD","Karviná, Nové Město, stadion házené","","260"
"13","Škola","ZŠ Karviná, Cihelní","https://www.firmy.cz/detail/357624-zs-karvina-cihelni-karvina-nove-mesto.html","243"
"14","Bankomat","Bankomat ČSOB","https://www.firmy.cz/detail/2409876-bankomat-csob-karvina-nove-mesto.html","318"
"15","Obchod","Albert Hypermarket","https://www.firmy.cz/detail/449318-albert-hypermarket-karvina-frystat.html","630"
"16","Vlak","Karviná hlavní nádraží","","929"
