"","facility_type","facility_name","facility_iri","facility_distance"
"0","Cukrárna","Restaurace a kavárna  BO ASI !","https://www.firmy.cz/detail/12961112-restaurace-a-kavarna-bo-asi-ostrava-marianske-hory.html","823"
"1","Kino","ETÁŽ","https://www.firmy.cz/detail/13265760-etaz-ostrava.html","486"
"2","Přírodní zajímavost","Zábřežský bludný balvan","","3052"
"3","Hřiště","Dětské hřiště náměstí Jiřího Myrona","","405"
"4","Večerka","HRUŠKA","https://www.firmy.cz/detail/12820425-hruska-ostrava-moravska-ostrava.html","281"
"5","Hospoda","Restaurace Na Šalamouně","https://www.firmy.cz/detail/13149925-restaurace-na-salamoune-ostrava-moravska-ostrava.html","533"
"6","Divadlo","Divadlo Petra Bezruče","https://www.firmy.cz/detail/475774-divadlo-petra-bezruce-ostrava-moravska-ostrava.html","764"
"7","Veterinář","Veterinární ordinace - MVDr. Richard Saviola","https://www.firmy.cz/detail/477150-veterinarni-ordinace-mvdr-richard-saviola-ostrava-moravska-ostrava.html","746"
"8","Restaurace","Miroslava Roušarová - Restaurace","https://www.firmy.cz/detail/13113890-miroslava-rousarova-restaurace-ostrava-moravska-ostrava.html","309"
"9","Školka","Mikrojesle a Dětská skupina MiniSovičky","https://www.firmy.cz/detail/13211669-mikrojesle-a-detska-skupina-minisovicky-ostrava.html","205"
"10","Lékař","ADAMED spol. s r.o.","https://www.firmy.cz/detail/12764579-adamed-spol-s-r-o-ostrava-moravska-ostrava.html","281"
"11","Škola","Střední škola elektrotechnická Ostrava","https://www.firmy.cz/detail/361237-stredni-skola-elektrotechnicka-ostrava-ostrava-moravska-ostrava.html","100"
"12","Bus MHD","Na Jízdárně","","180"
"13","Tram","Dolní Vítkovice Hlubina","","358"
"14","Sportoviště","Bumper Games","https://www.firmy.cz/detail/12906857-bumper-games-ostrava-moravska-ostrava.html","386"
"15","Bankomat","Bankomat České spořitelny","https://www.firmy.cz/detail/13169998-bankomat-ceske-sporitelny-ostrava-moravska-ostrava.html","576"
"16","Obchod","Kaufland","https://www.firmy.cz/detail/1534393-kaufland-ostrava-moravska-ostrava.html","745"
"17","Vlak","Ostrava střed","","911"
"18","Pošta","Pošta Ostrava 41 - Česká pošta, s.p.","https://www.firmy.cz/detail/433369-posta-ostrava-41-ostrava-moravska-ostrava.html","578"
"19","Lékárna","Lékárna VESALION","https://www.firmy.cz/detail/12797712-lekarna-vesalion-ostrava-moravska-ostrava.html","778"
