"","facility_type","facility_name","facility_iri","facility_distance"
"0","Cukrárna","Kavárna Globe","https://www.firmy.cz/detail/329022-kavarna-globe-praha-nove-mesto.html","152"
"1","Kino","Kino Mat","https://www.firmy.cz/detail/1974792-kino-mat-praha-nove-mesto.html","349"
"2","Přírodní zajímavost","Kovářovic mez","","5325"
"3","Hřiště","Dětské hřiště Vojtěšský obvod","","116"
"4","Večerka","MANNI MINI MARKET","https://www.firmy.cz/detail/2609033-manni-mini-market-praha-nove-mesto.html","250"
"5","Hospoda","Hostinec U Suchý Dásně","https://www.firmy.cz/detail/679683-hostinec-u-suchy-dasne-praha-nove-mesto.html","756"
"6","Divadlo","Národní divadlo","https://www.firmy.cz/detail/230553-narodni-divadlo-praha-nove-mesto.html","423"
"7","Veterinář","Veterinární klinika Na Hrádku - MVDr. Ľubica Nečasová","https://www.firmy.cz/detail/633528-veterinarni-klinika-na-hradku-mvdr-lubica-necasova-praha-nove-mesto.html","734"
"8","Školka","Mateřská škola Pštrossova","https://www.firmy.cz/detail/197736-materska-skola-pstrossova-praha-nove-mesto.html","118"
"9","Lékárna","LÉKÁRNA MORÁŇ","https://www.firmy.cz/detail/658422-lekarna-moran-praha-nove-mesto.html","423"
"10","Bus MHD","Jiráskovo náměstí","","198"
"11","Škola","Gymnázium Jana Palacha, Praha 1","https://www.firmy.cz/detail/361486-gymnazium-jana-palacha-praha-1-praha-nove-mesto.html","129"
"12","Sportoviště","TJ Zora Praha z.s.","https://www.firmy.cz/detail/405756-tj-zora-praha-z-s-praha-nove-mesto.html","294"
"13","Bankomat","Bankomat MONETA Money Bank","https://www.firmy.cz/detail/602933-bankomat-moneta-money-bank-praha-nove-mesto.html","349"
"14","Pošta","Pošta Praha 5 - Česká pošta, s.p.","https://www.firmy.cz/detail/217457-posta-praha-5-praha-smichov.html","628"
"15","Tram","Jiráskovo náměstí","","108"
"16","Vlak","Praha-Smíchov severní nást.","","1626"
"17","Obchod","Quadrio","https://www.firmy.cz/detail/2042979-quadrio-praha-nove-mesto.html","590"
"18","Restaurace","Restaurace Orlík","https://www.firmy.cz/detail/306015-restaurace-orlik-praha-nove-mesto.html","25"
"19","Lékař","TeamPrevent-Santé, s.r.o.","https://www.firmy.cz/detail/313672-teamprevent-sante-s-r-o-praha-nove-mesto.html","241"
"20","Metro","Karlovo náměstí","","350"
