"","facility_type","facility_name","facility_iri","facility_distance"
"0","Cukrárna","Cukrárna U Bena","https://www.firmy.cz/detail/12971506-cukrarna-u-bena-probostov.html","558"
"1","Kino","Kino Květen","https://www.firmy.cz/detail/435268-kino-kveten-teplice.html","2607"
"2","Přírodní zajímavost","Odkaliště Proboštov","","2007"
"3","Hřiště","Dětské hřiště Obránců míru","","96"
"4","Večerka","Můjobchod - Kubík Market","https://www.firmy.cz/detail/13060311-mujobchod-kubik-market-teplice-trnovany.html","125"
"5","Hospoda","Pivnice Legenda","https://www.firmy.cz/detail/13153131-pivnice-legenda-teplice-trnovany.html","366"
"6","Divadlo","Krušnohorské divadlo","https://www.firmy.cz/detail/435271-krusnohorske-divadlo-teplice.html","2515"
"7","Veterinář","MVDR. BOHUSLAV SEHNAL","https://www.firmy.cz/detail/1998266-mvdr-bohuslav-sehnal-teplice-trnovany.html","599"
"8","Lékař","Lékař Teplice s.r.o.","https://www.firmy.cz/detail/12973654-lekar-teplice-s-r-o-teplice-trnovany.html","388"
"9","Restaurace","Luna Club 07","https://www.firmy.cz/detail/2321948-luna-club-07-teplice-trnovany.html","174"
"10","Škola","ZŠ s rozšířenou výukou hudební výchovy, Teplice, Maršovská","https://www.firmy.cz/detail/359673-zs-s-rozsirenou-vyukou-hudebni-vychovy-teplice-marsovska-teplice-trnovany.html","82"
"11","Vlak","Proboštov","","525"
"12","Bus MHD","Teplice, Maršovská","","44"
"13","Bankomat","Bankomat ČSOB","https://www.firmy.cz/detail/597379-bankomat-csob-teplice-trnovany.html","404"
"14","Pošta","Pošta Teplice 10 - Česká pošta, s.p.","https://www.firmy.cz/detail/215432-posta-teplice-10-teplice-trnovany.html","174"
"15","Obchod","Kaufland","https://www.firmy.cz/detail/1545724-kaufland-teplice-trnovany.html","426"
"16","Školka","Mateřská škola Na Kopečku, Bohosudovská 111, Teplice","https://www.firmy.cz/detail/13057928-materska-skola-na-kopecku-bohosudovska-111-teplice-teplice-sobedruhy.html","324"
"17","Sportoviště","ClubBox Václava Poláka z.s.","https://www.firmy.cz/detail/12993996-clubbox-vaclava-polaka-z-s-teplice-trnovany.html","162"
"18","Lékárna","Dr. Max LÉKÁRNA","https://www.firmy.cz/detail/2007258-dr-max-lekarna-teplice-trnovany.html","366"
