"","facility_type","facility_name","facility_iri","facility_distance"
"0","Cukrárna","Cukrárna Diana","https://www.firmy.cz/detail/1990334-cukrarna-diana-opava-predmesti.html","314"
"1","Kino","CineStar Opava","https://www.firmy.cz/detail/12765227-cinestar-opava-opava-mesto.html","759"
"2","Přírodní zajímavost","Bludný balvan","","1209"
"3","Hřiště","Rákosníčkovo hřiště Komenda","","717"
"4","Večerka","HRUŠKA - KOMFOR","https://www.firmy.cz/detail/2546303-hruska-komfor-opava-predmesti.html","276"
"5","Hospoda","Pivnice Svijany","https://www.firmy.cz/detail/13114110-pivnice-svijany-opava-predmesti.html","91"
"6","Divadlo","Slezské divadlo Opava","https://www.firmy.cz/detail/230941-slezske-divadlo-opava-opava-mesto.html","848"
"7","Veterinář","Veterinární klinika Palackého","https://www.firmy.cz/detail/1555337-veterinarni-klinika-palackeho-opava-predmesti.html","592"
"8","Bus MHD","Opava, U soudu","","282"
"9","Vlak","Opava západ","","246"
"10","Lékárna","Lékárna POLIKLINIKA, s.r.o.","https://www.firmy.cz/detail/421921-lekarna-poliklinika-opava-predmesti.html","227"
"11","Pošta","Pošta Opava 2 - Česká pošta, s.p.","https://www.firmy.cz/detail/432556-posta-opava-2-opava-predmesti.html","211"
"12","Lékař","MUDr. Iva Dluhošová","https://www.firmy.cz/detail/388521-mudr-iva-dluhosova-opava-predmesti.html","227"
"13","Školka","MŠ Opava, Havlíčkova","https://www.firmy.cz/detail/2285089-ms-opava-havlickova-opava-predmesti.html","257"
"14","Škola","Obchodní akademie a Střední odborná škola logistická, Opava","https://www.firmy.cz/detail/173270-obchodni-akademie-a-stredni-odborna-skola-logisticka-opava-opava-predmesti.html","174"
"15","Obchod","OC Breda & Weinstein","https://www.firmy.cz/detail/12735258-oc-breda-weinstein-opava-mesto.html","720"
"16","Sportoviště","Sportcentrum Opava","https://www.firmy.cz/detail/13317498-sportcentrum-opava-opava-predmesti.html","448"
"17","Bankomat","Bankomat MONETA Money Bank","https://www.firmy.cz/detail/12780544-bankomat-moneta-money-bank-opava-mesto.html","670"
"18","Restaurace","Pizza Fresca","https://www.firmy.cz/detail/13309649-pizza-fresca-opava-predmesti.html","210"
