"","facility_type","facility_name","facility_iri","facility_distance"
"0","Cukrárna","Cukrárna Jarníkova","https://www.firmy.cz/detail/13303085-cukrarna-jarnikova-praha-chodov.html","297"
"1","Kino","Cinema City Chodov","https://www.firmy.cz/detail/13098016-cinema-city-chodov-praha-chodov.html","769"
"2","Přírodní zajímavost","Mokřad Triangl","","4774"
"3","Hřiště","Dětské hřiště K Novému hradu","","84"
"4","Večerka","Potraviny Jana Růžičky","https://www.firmy.cz/detail/1959002-potraviny-jana-ruzicky-praha-kunratice.html","208"
"5","Hospoda","Hospůdka U Studánky","https://www.firmy.cz/detail/13112840-hospudka-u-studanky-praha-kunratice.html","1187"
"6","Divadlo","SKAZKA, spol. s r.o.","https://www.firmy.cz/detail/2048564-skazka-praha-hostivar.html","3317"
"7","Veterinář","MVDr. Václav Čížek","https://www.firmy.cz/detail/2412398-mvdr-vaclav-cizek-praha-chodov.html","1856"
"8","Škola","ZŠ Campanus, Praha 4","https://www.firmy.cz/detail/356158-zs-campanus-praha-4-praha-chodov.html","362"
"9","Lékař","MUDr. Jiří Šalanský - praktický lékař","https://www.firmy.cz/detail/13286944-mudr-jiri-salansky-prakticky-lekar-praha-kunratice.html","118"
"10","Lékárna","Lékárna Flora","https://www.firmy.cz/detail/12953236-lekarna-flora-praha-kunratice.html","159"
"11","Metro","Chodov","","849"
"12","Bus MHD","U Kunratického lesa","","131"
"13","Sportoviště","Veřejné hřiště na míčové hry Hornomlýnská","","214"
"14","Bankomat","Bankomat Fio banky","https://www.firmy.cz/detail/2678044-bankomat-fio-banky-praha-kunratice.html","422"
"15","Školka","Sportovní školka Play Wisely","https://www.firmy.cz/detail/13132837-sportovni-skolka-play-wisely-praha-kunratice.html","159"
"16","Restaurace","AUCO Vietnamese Restaurant","https://www.firmy.cz/detail/13270052-auco-vietnamese-restaurant-praha-kunratice.html","192"
"17","Obchod","OC Slunečnice","https://www.firmy.cz/detail/13047905-oc-slunecnice-praha-chodov.html","458"
"18","Tram","Spořilov","","2979"
"19","Vlak","Praha-Kačerov","","2672"
"20","Pošta","Pošta Praha 414 - Česká pošta, s.p.","https://www.firmy.cz/detail/217475-posta-praha-414-praha-chodov.html","727"
