"","facility_type","facility_name","facility_iri","facility_distance"
"0","Cukrárna","Cukrárna Emil Gaigher","https://www.firmy.cz/detail/12703652-cukrarna-emil-gaigher-praha-smichov.html","323"
"1","Kino","Cinema City Nový Smíchov","https://www.firmy.cz/detail/2679838-cinema-city-novy-smichov-praha-smichov.html","604"
"2","Přírodní zajímavost","Kovářovic mez","","4683"
"3","Hřiště","Dětské hřiště Hořejší nábřeží","","308"
"4","Večerka","Albert Supermarket","https://www.firmy.cz/detail/229746-albert-supermarket-praha-smichov.html","474"
"5","Hospoda","Hospůdka Knoflík","https://www.firmy.cz/detail/2253647-hospudka-knoflik-praha-smichov.html","446"
"6","Divadlo","Švandovo divadlo na Smíchově","https://www.firmy.cz/detail/230741-svandovo-divadlo-na-smichove-praha-smichov.html","817"
"7","Veterinář","Veterinární klinika Na Hrádku - MVDr. Ľubica Nečasová","https://www.firmy.cz/detail/633528-veterinarni-klinika-na-hradku-mvdr-lubica-necasova-praha-nove-mesto.html","662"
"8","Metro","Karlovo náměstí","","341"
"9","Restaurace","Restaurace Admiral","https://www.firmy.cz/detail/2538876-restaurace-admiral-praha.html","106"
"10","Lékař","MUDr. Zuzana Felixová","https://www.firmy.cz/detail/389783-mudr-zuzana-felixova-praha-smichov.html","218"
"11","Sportoviště","BestFit Studio Smíchov","https://www.firmy.cz/detail/12700206-bestfit-studio-smichov-praha-smichov.html","279"
"12","Vlak","Praha-Smíchov severní nást.","","934"
"13","Školka","MŠ Praha 2, Trojická","https://www.firmy.cz/detail/731792-ms-praha-2-trojicka-praha-nove-mesto.html","506"
"14","Lékárna","LÉKÁRNA MORÁŇ","https://www.firmy.cz/detail/658422-lekarna-moran-praha-nove-mesto.html","682"
"15","Pošta","Pošta Praha 5 - Česká pošta, s.p.","https://www.firmy.cz/detail/217457-posta-praha-5-praha-smichov.html","521"
"16","Škola","Vyšší odborná škola ekonomických studií a Střední průmyslová škola potravinářských technologií, Praha 2","https://www.firmy.cz/detail/2015548-vyssi-odborna-skola-ekonomickych-studii-a-stredni-prumyslova-skola-potravinarskych-technologii-praha-2-praha-nove-mesto.html","440"
"17","Obchod","Obchodní centrum Nový Smíchov","https://www.firmy.cz/detail/579116-obchodni-centrum-novy-smichov-praha-smichov.html","610"
"18","Bus MHD","Na Knížecí","","467"
"19","Tram","Zborovská","","181"
"20","Bankomat","Bankomat České spořitelny","https://www.firmy.cz/detail/594703-bankomat-ceske-sporitelny-praha-nove-mesto.html","396"
