"","facility_type","facility_name","facility_iri","facility_distance"
"0","Cukrárna","Cafe PapáTo","https://www.firmy.cz/detail/12713132-cafe-papato-rokycany.html","225"
"1","Hřiště","Dětské hřiště Františka Černého","","64"
"2","Večerka","COOP","https://www.firmy.cz/detail/2489438-coop-rokycany-stred.html","201"
"3","Hospoda","Pivnice U Chmelířů","https://www.firmy.cz/detail/12882905-pivnice-u-chmeliru-rokycany-plzenske-predmesti.html","739"
"4","Veterinář","MVDr. Václav Vozák","https://www.firmy.cz/detail/13035825-mvdr-vaclav-vozak-rokycany-nove-mesto.html","357"
"5","Vlak","Rokycany","","494"
"6","Lékárna","Lékárna FARMACUM","https://www.firmy.cz/detail/194261-lekarna-farmacum-rokycany-stred.html","174"
"7","Bankomat","Bankomat ČSOB","https://www.firmy.cz/detail/596975-bankomat-csob-rokycany-stred.html","107"
"8","Sportoviště","Fit studio aerobic Narovec","https://www.firmy.cz/detail/12913041-fit-studio-aerobic-narovec-rokycany-stred.html","88"
"9","Bus MHD","Rokycany, Soukenická","","328"
"10","Lékař","MUDr. Jiří Petříček s.r.o.","https://www.firmy.cz/detail/12864473-mudr-jiri-petricek-s-r-o-rokycany-stred.html","174"
"11","Pošta","Pošta Rokycany 1 - Česká pošta, s.p.","https://www.firmy.cz/detail/216559-posta-rokycany-1-rokycany-nove-mesto.html","377"
"12","Škola","Základní škola Rokycany, ulice Míru 64, příspěvková organizace","https://www.firmy.cz/detail/359184-zakladni-skola-rokycany-ulice-miru-64-prispevkova-organizace-rokycany-stred.html","297"
"13","Restaurace","Pizza Italia & Doner Kebab","https://www.firmy.cz/detail/13228183-pizza-italia-doner-kebab-rokycany-stred.html","161"
"14","Obchod","Kaufland","https://www.firmy.cz/detail/2198489-kaufland-rokycany-nove-mesto.html","523"
"15","Školka","MŠ Rokycany, U Saské brány, Třebízského - MŠ Saská","https://www.firmy.cz/detail/677813-ms-rokycany-u-saske-brany-trebizskeho-ms-saska-rokycany-stred.html","291"
