"","facility_type","facility_name","facility_iri","facility_distance"
"0","Cukrárna","Cukrárna Avanti","https://www.firmy.cz/detail/2332636-cukrarna-avanti-praha-kbely.html","119"
"1","Kino","CineStar Černý Most","https://www.firmy.cz/detail/2537569-cinestar-cerny-most-praha-cerny-most.html","3403"
"2","Přírodní zajímavost","Meandry Rokytky","","4527"
"3","Hřiště","Dětské hřiště Rožďalovická","","33"
"4","Večerka","Farmářský KRÁM","https://www.firmy.cz/detail/13164554-farmarsky-kram-praha-kbely.html","195"
"5","Hospoda","Pivnice U Marešů","https://www.firmy.cz/detail/13118950-pivnice-u-maresu-praha-kbely.html","399"
"6","Divadlo","Divadlo Pohádka","https://www.firmy.cz/detail/636143-divadlo-pohadka-praha-letnany.html","3730"
"7","Veterinář","MVDr. Ondřej Čapek","https://www.firmy.cz/detail/634744-mvdr-ondrej-capek-praha-kbely.html","494"
"8","Lékárna","Lékárna Royale Kbely","https://www.firmy.cz/detail/2672196-lekarna-royale-kbely-praha-kbely.html","142"
"9","Metro","Letňany","","2702"
"10","Bankomat","Bankomat MONETA Money Bank","https://www.firmy.cz/detail/2674687-bankomat-moneta-money-bank-praha-kbely.html","210"
"11","Pošta","Pošta Praha 97 - Česká pošta, s.p.","https://www.firmy.cz/detail/216697-posta-praha-97-praha-kbely.html","492"
"12","Lékař","MUDr. VÍT KŘEHNÁČ","https://www.firmy.cz/detail/13030270-mudr-vit-krehnac-praha-kbely.html","343"
"13","Bus MHD","Kbely","","102"
"14","Sportoviště","Pavel Duffek","https://www.firmy.cz/detail/12883817-pavel-duffek-praha-kbely.html","461"
"15","Restaurace","Zastávka U Srubu","https://www.firmy.cz/detail/13034665-zastavka-u-srubu-praha-kbely.html","164"
"16","Vlak","Praha-Kbely","","384"
"17","Škola","Akademie tělesné výchovy a sportu PALESTRA – VOŠ, s. r. o.","https://www.firmy.cz/detail/361970-akademie-telesne-vychovy-a-sportu-palestra-vos-s-r-o-praha-kbely.html","374"
"18","Obchod","Kaufland","https://www.firmy.cz/detail/13180341-kaufland-praha-hloubetin.html","2588"
"19","Tram","Lehovec","","2799"
"20","Školka","Mateřská škola Letců","https://www.firmy.cz/detail/13080498-materska-skola-letcu-praha-kbely.html","480"
