"","facility_type","facility_name","facility_iri","facility_distance"
"0","Hřiště","Dětské hřiště Jiřího Tomana","https://mapy.cz/zakladni?x=15.7580527472&y=50.048034014&z=17&source=base&id=1928097","106"
"1","Večerka","JEDNOTA, spotřební družstvo v Pardubicích - COOP","https://www.firmy.cz/detail/2343604-jednota-spotrebni-druzstvo-v-pardubicich-coop-pardubice-polabiny.html","150"
"2","Kino","Letní kino Pardubice","https://www.firmy.cz/detail/13332119-letni-kino-pardubice-pardubice.html","955"
"3","Hospoda","Hramat Club Polabiny","https://www.firmy.cz/detail/13112057-hramat-club-polabiny-pardubice-polabiny.html","256"
"4","Cukrárna","Kafíčko Polabiny","https://www.firmy.cz/detail/13199989-kaficko-polabiny-pardubice-polabiny.html","132"
"5","Veterinář","MVDr. Martin Plecháček","https://www.firmy.cz/detail/308056-mvdr-martin-plechacek-pardubice-trnova.html","341"
"6","Divadlo","Divadlo 29","https://www.firmy.cz/detail/13236989-divadlo-29-pardubice-stare-mesto.html","1905"
"7","Restaurace","Restaurace a pivnice Na Palubě","https://www.firmy.cz/detail/13021240-restaurace-a-pivnice-na-palube-pardubice-polabiny.html","147"
"8","Škola","ZŠ Pardubice-Polabiny, Prodloužená","https://www.firmy.cz/detail/358785-zs-pardubice-polabiny-prodlouzena-pardubice-polabiny.html","130"
"9","Lékař","Praktik Polabiny, s.r.o.","https://www.firmy.cz/detail/13285792-praktik-polabiny-pardubice-polabiny.html","222"
"10","Pošta","Pošta Pardubice 9 - Česká pošta, s.p.","https://www.firmy.cz/detail/215336-posta-pardubice-9-pardubice-polabiny.html","78"
"11","Školka","Lentilka - integrační školka a rehabilitační centrum","https://www.firmy.cz/detail/13280189-lentilka-integracni-skolka-a-rehabilitacni-centrum-pardubice-polabiny.html","151"
"12","Bus MHD","Polabiny, Bělehradská","https://mapy.cz/zakladni?x=15.7562314004&y=50.0471242233&z=17&source=pubt&id=15201317","196"
"13","Bankomat","Bankomat ČSOB","https://www.firmy.cz/detail/2409948-bankomat-csob-pardubice-polabiny.html","117"
"14","Lékárna","Na Trojce","https://www.firmy.cz/detail/308062-na-trojce-pardubice-polabiny.html","445"
"15","Sportoviště","Crossminton Pardubice","https://www.firmy.cz/detail/13078175-crossminton-pardubice-pardubice-polabiny.html","110"
"16","Vlak","Pardubice-Rosice nad Labem","https://mapy.cz/zakladni?x=15.7427404432&y=50.0454293828&z=17&source=pubt&id=15212414","1094"
"17","Obchod","Kaufland","https://www.firmy.cz/detail/1350832-kaufland-pardubice-rosice.html","497"
