"","facility_type","facility_name","facility_iri","facility_distance"
"0","Večerka","FRESHtát","https://www.firmy.cz/detail/13266497-freshtat-frenstat-pod-radhostem.html","160"
"1","Hřiště","Dětské hřiště Školská čtvrrť","https://mapy.cz/zakladni?x=18.2028109152&y=49.5439658807&z=17&source=base&id=2181480","485"
"2","Veterinář","MVDr. Jana Látalová","https://www.firmy.cz/detail/2505267-mvdr-jana-latalova-frenstat-pod-radhostem.html","1252"
"3","Hospoda","Pivnice Havrlant","https://www.firmy.cz/detail/2555295-pivnice-havrlant-frenstat-pod-radhostem.html","936"
"4","Cukrárna","Cyklopražírna kávy U Karla","https://www.firmy.cz/detail/13129307-cykloprazirna-kavy-u-karla-frenstat-pod-radhostem.html","791"
"5","Kino","Kino Frenštát pod Radhoštěm","https://www.firmy.cz/detail/456491-kino-frenstat-pod-radhostem-frenstat-pod-radhostem.html","876"
"6","Školka","MŠ Frenštát pod Radhoštěm, Školská čtvrť","https://www.firmy.cz/detail/724232-ms-frenstat-pod-radhostem-skolska-ctvrt-frenstat-pod-radhostem.html","338"
"7","Škola","Gymnázium a Střední průmyslová škola elektrotechniky a informatiky, Frenštát pod Radhoštěm","https://www.firmy.cz/detail/232159-gymnazium-a-stredni-prumyslova-skola-elektrotechniky-a-informatiky-frenstat-pod-radhostem-frenstat-pod-radhostem.html","427"
"8","Bankomat","Bankomat MONETA Money Bank","https://www.firmy.cz/detail/12900466-bankomat-moneta-money-bank-frenstat-pod-radhostem.html","716"
"9","Pošta","Pošta Frenštát pod Radhoštěm - Česká pošta, s.p.","https://www.firmy.cz/detail/433675-posta-frenstat-pod-radhostem-frenstat-pod-radhostem.html","965"
"10","Lékárna","Dr. Max LÉKÁRNA","https://www.firmy.cz/detail/2648273-dr-max-lekarna-frenstat-pod-radhostem.html","869"
"11","Restaurace","Hospoda U Bobra","https://www.firmy.cz/detail/13094668-hospoda-u-bobra-frenstat-pod-radhostem.html","203"
"12","Lékař","MUDr. Táňa Vojtíšková, s.r.o.","https://www.firmy.cz/detail/13106060-mudr-tana-vojtiskova-frenstat-pod-radhostem.html","720"
"13","Sportoviště","Město Frenštát pod Radhoštěm - sportovní hala","https://www.firmy.cz/detail/12946419-mesto-frenstat-pod-radhostem-sportovni-hala-frenstat-pod-radhostem.html","84"
"14","Vlak","Frenštát pod Radhoštěm město","https://mapy.cz/zakladni?x=18.2082335359&y=49.5445308226&z=17&source=pubt&id=15699073","525"
"15","Bus MHD","Frenštát pod Radhoštěm, sídliště","https://mapy.cz/zakladni?x=18.2077284964926&y=49.5422027753943&z=17&source=pubt&id=15290116","273"
