"","facility_type","facility_name","facility_iri","facility_distance"
"0","Cukrárna","Cukrárna Edith","https://www.firmy.cz/detail/13285229-cukrarna-edith-hradec-kralove-novy-hradec-kralove.html","138"
"1","Kino","CineStar Hradec Králové","https://www.firmy.cz/detail/396569-cinestar-hradec-kralove-hradec-kralove-novy-hradec-kralove.html","704"
"2","Přírodní zajímavost","Slepé rameno Orlice u loděnice","","1773"
"3","Hřiště","Dětské hřiště Malšovice","","228"
"4","Večerka","AN Supermarket potraviny","https://www.firmy.cz/detail/13059492-an-supermarket-potraviny-hradec-kralove-novy-hradec-kralove.html","442"
"5","Divadlo","Divadlo Drak","https://www.firmy.cz/detail/230884-divadlo-drak-hradec-kralove.html","1925"
"6","Hospoda","Palma","https://www.firmy.cz/detail/13118104-palma-hradec-kralove-novy-hradec-kralove.html","442"
"7","Veterinář","HKvet veterinární klinika","https://www.firmy.cz/detail/402422-hkvet-veterinarni-klinika-hradec-kralove-novy-hradec-kralove.html","405"
"8","Škola","ZŠ Hradec Králové, Štefcova","https://www.firmy.cz/detail/357253-zs-hradec-kralove-stefcova-hradec-kralove-novy-hradec-kralove.html","531"
"9","Lékárna","BENU Lékárna","https://www.firmy.cz/detail/658206-benu-lekarna-hradec-kralove-novy-hradec-kralove.html","564"
"10","Bankomat","Bankomat ČSOB","https://www.firmy.cz/detail/12768409-bankomat-csob-hradec-kralove-novy-hradec-kralove.html","471"
"11","Školka","Mateřská škola Zvoneček, Hradec Králové, Čajkovského 1093","https://www.firmy.cz/detail/1554250-materska-skola-zvonecek-hradec-kralove-cajkovskeho-1093-hradec-kralove-novy-hradec-kralove.html","366"
"12","Obchod","Tesco","https://www.firmy.cz/detail/429303-tesco-hradec-kralove-novy-hradec-kralove.html","536"
"13","Restaurace","Restaurace Aquarium","https://www.firmy.cz/detail/12725781-restaurace-aquarium-hradec-kralove-novy-hradec-kralove.html","143"
"14","Sportoviště","A-Sport, zábavní centrum","https://www.firmy.cz/detail/12723565-a-sport-zabavni-centrum-hradec-kralove-novy-hradec-kralove.html","464"
"15","Bus MHD","Plachta - U Parku","","203"
"16","Pošta","Pošta Hradec Králové 9 - Česká pošta, s.p.","https://www.firmy.cz/detail/215981-posta-hradec-kralove-9-hradec-kralove-novy-hradec-kralove.html","485"
"17","Lékař","MUDr. Jana Šmídová","https://www.firmy.cz/detail/12958001-mudr-jana-smidova-hradec-kralove-novy-hradec-kralove.html","505"
"18","Vlak","Hradec Králové-Slezské Předměstí","","2992"
