"","facility_type","facility_name","facility_iri","facility_distance"
"0","Cukrárna","Kinokavárna Centrum","https://www.firmy.cz/detail/12841867-kinokavarna-centrum-havirov-mesto.html","666"
"1","Kino","Kino Centrum","https://www.firmy.cz/detail/12780436-kino-centrum-havirov-mesto.html","666"
"2","Hřiště","Dětské hřiště Lučina","","187"
"3","Večerka","HRUŠKA","https://www.firmy.cz/detail/12820027-hruska-havirov-mesto.html","55"
"4","Hospoda","Hospůdka u Lenina","https://www.firmy.cz/detail/13169583-hospudka-u-lenina-havirov-mesto.html","566"
"5","Veterinář","Veterina Na Nábřeží","https://www.firmy.cz/detail/1947067-veterina-na-nabrezi-havirov-mesto.html","738"
"6","Školka","MŠ Havířov, Lípová","https://www.firmy.cz/detail/12871692-ms-havirov-lipova-havirov-mesto.html","223"
"7","Lékař","MUDr. Lucie Šebestová s.r.o.","https://www.firmy.cz/detail/12862656-mudr-lucie-sebestova-s-r-o-havirov-mesto.html","463"
"8","Škola","ZŠ Havířov, 1. máje","https://www.firmy.cz/detail/357049-zs-havirov-1-maje-havirov-mesto.html","459"
"9","Obchod","Kaufland","https://www.firmy.cz/detail/1545096-kaufland-havirov-podlesi.html","631"
"10","Bus MHD","Havířov, Město, Slezská","","161"
"11","Sportoviště","Lezecká stěna Havířov","https://www.firmy.cz/detail/13178466-lezecka-stena-havirov-havirov-mesto.html","138"
"12","Restaurace","Restaurace Nelli","https://www.firmy.cz/detail/13119376-restaurace-nelli-havirov-mesto.html","163"
"13","Lékárna","Lékárna Na Národní","https://www.firmy.cz/detail/659545-lekarna-na-narodni-havirov-mesto.html","548"
"14","Bankomat","Bankomat MONETA Money Bank","https://www.firmy.cz/detail/603413-bankomat-moneta-money-bank-havirov-podlesi.html","631"
"15","Pošta","Pošta Havířov 1 - Česká pošta, s.p.","https://www.firmy.cz/detail/431627-posta-havirov-1-havirov-mesto.html","789"
"16","Vlak","Havířov-střed","","1657"
