"","facility_type","facility_name","facility_iri","facility_distance"
"0","Cukrárna","OVOCNÝ SVĚTOZOR","https://www.firmy.cz/detail/13151180-ovocny-svetozor-praha-stodulky.html","606"
"1","Kino","Cinema City Zličín","https://www.firmy.cz/detail/436222-cinema-city-zlicin-praha-trebonice.html","2332"
"2","Přírodní zajímavost","Kovářovic mez","","4393"
"3","Hřiště","Dětské hřiště Laudova","","36"
"4","Večerka","BILLA","https://www.firmy.cz/detail/212082-billa-praha-repy.html","354"
"5","Hospoda","Pivnice Herna Bílý Beránek","https://www.firmy.cz/detail/12946367-pivnice-herna-bily-beranek-praha-repy.html","426"
"6","Divadlo","MEZINÁRODNÍ CENTRUM TANCE","https://www.firmy.cz/detail/2465676-mezinarodni-centrum-tance-praha-stodulky.html","3019"
"7","Veterinář","Veterinární klinika Delta MVDr.Michael Růžička, s.r.o.","https://www.firmy.cz/detail/12957413-veterinarni-klinika-delta-mvdr-michael-ruzicka-praha-repy.html","797"
"8","Pošta","Pošta Praha 618 - Česká pošta, s.p.","https://www.firmy.cz/detail/431332-posta-praha-618-praha-repy.html","446"
"9","Školka","MŠ Praha 6, Brunnerova","https://www.firmy.cz/detail/2067097-ms-praha-6-brunnerova-praha-repy.html","116"
"10","Bankomat","Bankomat ČSOB","https://www.firmy.cz/detail/1424163-bankomat-csob-praha-repy.html","446"
"11","Obchod","OC Řepy","https://www.firmy.cz/detail/13328774-oc-repy-praha-repy.html","446"
"12","Vlak","Praha-Zličín","","1138"
"13","Lékař","MUDr. David DRESLER - praktický lékař a homeopatie","https://www.firmy.cz/detail/391068-mudr-david-dresler-prakticky-lekar-a-homeopatie-praha-repy.html","306"
"14","Lékárna","Lékárna Řepy","https://www.firmy.cz/detail/13204395-lekarna-repy-praha-repy.html","305"
"15","Metro","Nemocnice Motol","","2130"
"16","Bus MHD","K Trninám","","97"
"17","Sportoviště","Tenisová škola TALLENT","https://www.firmy.cz/detail/722768-tenisova-skola-tallent-praha-repy.html","666"
"18","Tram","Slánská","","461"
"19","Restaurace","McDonald's","https://www.firmy.cz/detail/430303-mcdonald-s-praha.html","416"
"20","Škola","Japonská škola v Praze","https://www.firmy.cz/detail/13251519-japonska-skola-v-praze-praha-repy.html","160"
