"","facility_type","facility_name","facility_iri","facility_distance"
"0","Cukrárna","Cukrárna","https://www.firmy.cz/detail/13097673-cukrarna-doksy.html","390"
"1","Kino","Kino Máj","https://www.firmy.cz/detail/396648-kino-maj-doksy.html","825"
"2","Přírodní zajímavost","Břehyňská průrva","","2617"
"3","Hřiště","Dětské hřiště Nerudova","","227"
"4","Večerka","Potraviny P&T","https://www.firmy.cz/detail/13332206-potraviny-p-t-doksy.html","377"
"5","Hospoda","Pohostinství U VEJRA","https://www.firmy.cz/detail/13044439-pohostinstvi-u-vejra-bezdez.html","5332"
"6","Veterinář","MVDr. Jan Vácha","https://www.firmy.cz/detail/2028793-mvdr-jan-vacha-doksy.html","688"
"7","Pošta","Pošta Doksy - Česká pošta, s.p.","https://www.firmy.cz/detail/431828-posta-doksy-doksy.html","339"
"8","Restaurace","Jiří Goldbricht","https://www.firmy.cz/detail/13134085-jiri-goldbricht-doksy.html","385"
"9","Bankomat","Platbomat České spořitelny","https://www.firmy.cz/detail/13239680-platbomat-ceske-sporitelny-doksy.html","371"
"10","Bus MHD","Doksy, Mimoňská","","391"
"11","Vlak","Doksy","","1462"
"12","Sportoviště","Tenisový klub Doksy","https://www.firmy.cz/detail/679988-tenisovy-klub-doksy-doksy.html","189"
"13","Lékař","MUDr. Petr Bakal","https://www.firmy.cz/detail/368476-mudr-petr-bakal-doksy.html","350"
"14","Škola","ZUŠ Doksy","https://www.firmy.cz/detail/429877-zus-doksy-doksy.html","560"
"15","Školka","MŠ Doksy, Libušina","https://www.firmy.cz/detail/1988172-ms-doksy-libusina-doksy.html","609"
"16","Lékárna","Lékárna U Matky Boží","https://www.firmy.cz/detail/658432-lekarna-u-matky-bozi-doksy.html","358"
