"","facility_type","facility_name","facility_iri","facility_distance"
"0","Cukrárna","Pekařství a kavárna DéKáčko","https://www.firmy.cz/detail/12810430-pekarstvi-a-kavarna-dekacko-ceske-budejovice.html","525"
"1","Kino","CineStar IGY Centrum","https://www.firmy.cz/detail/13096583-cinestar-igy-centrum-ceske-budejovice-3.html","955"
"2","Hřiště","Dětské hřiště","","139"
"3","Večerka","BILLA","https://www.firmy.cz/detail/2686050-billa-ceske-budejovice-3.html","345"
"4","Hospoda","Bar Bryčka","https://www.firmy.cz/detail/2652355-bar-brycka-ceske-budejovice-3.html","362"
"5","Divadlo","Jihočeské divadlo - Malé divadlo","https://www.firmy.cz/detail/2351551-jihoceske-divadlo-male-divadlo-ceske-budejovice-1.html","725"
"6","Veterinář","MVDr. Magda Jabulková - Veterinární ordinace","https://www.firmy.cz/detail/615689-mvdr-magda-jabulkova-veterinarni-ordinace-ceske-budejovice-3.html","1008"
"7","Školka","Církevní MŠ České Budějovice, Lipenská","https://www.firmy.cz/detail/1901023-cirkevni-ms-ceske-budejovice-lipenska-ceske-budejovice-3.html","413"
"8","Obchod","PRIOR ČESKÁ REPUBLIKA s.r.o.","https://www.firmy.cz/detail/1956946-prior-ceska-republika-s-r-o-ceske-budejovice-6.html","728"
"9","Vlak","České Budějovice","","750"
"10","Bus MHD","Skuherského","","109"
"11","Sportoviště","SKV - sportovní klub vozíčkářů Králové České Budějovice","https://www.firmy.cz/detail/2286382-skv-sportovni-klub-vozickaru-kralove-ceske-budejovice-ceske-budejovice-3.html","650"
"12","Lékárna","Medipharma.cz","https://www.firmy.cz/detail/2676184-medipharma-cz-ceske-budejovice-3.html","543"
"13","Pošta","Pošta České Budějovice 2 - Česká pošta, s.p.","https://www.firmy.cz/detail/215225-posta-ceske-budejovice-2-ceske-budejovice-6.html","618"
"14","Škola","ZUŠ B. Jeremiáše","https://www.firmy.cz/detail/427257-zus-b-jeremiase-ceske-budejovice-3.html","313"
"15","Restaurace","Čínská restaurace Štěstí","https://www.firmy.cz/detail/13135498-cinska-restaurace-stesti-ceske-budejovice-3.html","211"
"16","Bankomat","Bankomat MONETA Money Bank","https://www.firmy.cz/detail/603052-bankomat-moneta-money-bank-ceske-budejovice-3.html","610"
"17","Lékař","MUDr. Karel Wróbel","https://www.firmy.cz/detail/390388-mudr-karel-wrobel-ceske-budejovice-4.html","312"
