"","facility_type","facility_name","facility_iri","facility_distance"
"0","Cukrárna","Cukrárna Ovo Bar Kamilka","https://www.firmy.cz/detail/13058476-cukrarna-ovo-bar-kamilka-karlovy-vary.html","547"
"1","Kino","Kino Drahomíra z.s.","https://www.firmy.cz/detail/13126576-kino-drahomira-z-s-karlovy-vary-drahovice.html","387"
"2","Přírodní zajímavost","Karlův hvozd","","2136"
"3","Hřiště","Dětské hřiště Horní Drahovice","","591"
"4","Večerka","Lidl","https://www.firmy.cz/detail/2374133-lidl-karlovy-vary.html","56"
"5","Divadlo","Divadlo Dagmar","https://www.firmy.cz/detail/396851-divadlo-dagmar-karlovy-vary-drahovice.html","1164"
"6","Hospoda","Pivnice Tequila Bar","https://www.firmy.cz/detail/13148877-pivnice-tequila-bar-karlovy-vary.html","145"
"7","Veterinář","MVDr. Eva Tichá","https://www.firmy.cz/detail/2656349-mvdr-eva-ticha-karlovy-vary-rybare.html","688"
"8","Bus MHD","Vítězná","","75"
"9","Pošta","Pošta Karlovy Vary 9 - Česká pošta, s.p.","https://www.firmy.cz/detail/216327-posta-karlovy-vary-9-karlovy-vary-drahovice.html","505"
"10","Lékař","MUDr. Pavel Smutný","https://www.firmy.cz/detail/387797-mudr-pavel-smutny-karlovy-vary-drahovice.html","391"
"11","Vlak","Karlovy Vary","","477"
"12","Restaurace","Restaurace La Hospoda","https://www.firmy.cz/detail/13207200-restaurace-la-hospoda-karlovy-vary.html","219"
"13","Lékárna","Ústavní lékárna","https://www.firmy.cz/detail/420995-ustavni-lekarna-karlovy-vary.html","324"
"14","Školka","ZŠ a MŠ při zdravotnických zařízeních Karlovy Vary","https://www.firmy.cz/detail/12736566-zs-a-ms-pri-zdravotnickych-zarizenich-karlovy-vary-karlovy-vary.html","145"
"15","Sportoviště","Bazén Thermal","https://www.firmy.cz/detail/1351355-bazen-thermal-karlovy-vary.html","786"
"16","Škola","ZŠ a MŠ při zdravotnických zařízeních Karlovy Vary","https://www.firmy.cz/detail/12736564-zs-a-ms-pri-zdravotnickych-zarizenich-karlovy-vary-karlovy-vary.html","324"
"17","Bankomat","Bankomat Euronet","https://www.firmy.cz/detail/13055646-bankomat-euronet-karlovy-vary.html","256"
"18","Obchod","Obchodní centrum Perla","https://www.firmy.cz/detail/13219298-obchodni-centrum-perla-karlovy-vary.html","598"
