"","facility_type","facility_name","facility_iri","facility_distance"
"0","Cukrárna","Kavárna Dobrá trafika","https://www.firmy.cz/detail/427908-kavarna-dobra-trafika-praha-vinohrady.html","221"
"1","Kino","HopeTV","https://www.firmy.cz/detail/672889-hopetv-praha-vinohrady.html","609"
"2","Hřiště","Dětské hřiště Bezručovy sady","","170"
"3","Večerka","France Gourmet","https://www.firmy.cz/detail/2657440-france-gourmet-praha-vrsovice.html","271"
"4","Hospoda","Hospoda Pohoda","https://www.firmy.cz/detail/569598-hospoda-pohoda-praha-nusle.html","922"
"5","Divadlo","Theatre ROYAL","https://www.firmy.cz/detail/805285-theatre-royal-praha-vinohrady.html","403"
"6","Veterinář","MVDr. Miroslav Měšťan","https://www.firmy.cz/detail/2487671-mvdr-miroslav-mestan-praha-vrsovice.html","230"
"7","Vlak","Praha-Vršovice","","1027"
"8","Bankomat","Bankomat MONETA Money Bank","https://www.firmy.cz/detail/2675391-bankomat-moneta-money-bank-praha-vinohrady.html","201"
"9","Lékař","MUDr. Anna Růžičková","https://www.firmy.cz/detail/390768-mudr-anna-ruzickova-praha-vinohrady.html","218"
"10","Metro","Náměstí Míru","","428"
"11","Restaurace","Restaurace U Pošty","https://www.firmy.cz/detail/306160-restaurace-u-posty-praha-vinohrady.html","145"
"12","Škola","ZŠ Praha 2, Sázavská","https://www.firmy.cz/detail/358961-zs-praha-2-sazavska-praha-vinohrady.html","222"
"13","Sportoviště","Pétanque Havlíčkovy sady","","652"
"14","Lékárna","U svaté Ludmily","https://www.firmy.cz/detail/374313-u-svate-ludmily-praha-vinohrady.html","564"
"15","Pošta","Pošta Praha 2 - Česká pošta, s.p.","https://www.firmy.cz/detail/217496-posta-praha-2-praha-vinohrady.html","127"
"16","Bus MHD","Náměstí Míru","","397"
"17","Školka","MŠ Trojlístek, Praha 2","https://www.firmy.cz/detail/2295426-ms-trojlistek-praha-2-praha-vinohrady.html","222"
"18","Obchod","PAVILON, a.s.","https://www.firmy.cz/detail/451685-pavilon-praha-vinohrady.html","379"
"19","Tram","Jana Masaryka","","127"
