"","facility_type","facility_name","facility_iri","facility_distance"
"0","Cukrárna","Cukrárna Emil Gaigher","https://www.firmy.cz/detail/12719969-cukrarna-emil-gaigher-praha-smichov.html","183"
"1","Kino","Cinema City Nový Smíchov","https://www.firmy.cz/detail/2679838-cinema-city-novy-smichov-praha-smichov.html","153"
"2","Přírodní zajímavost","Kovářovic mez","","4628"
"3","Hřiště","Dětské hřiště park Sacré Coeur","","291"
"4","Večerka","Cukrárna - lahůdky 21","https://www.firmy.cz/detail/2450631-cukrarna-lahudky-21-praha-smichov.html","154"
"5","Hospoda","Hospůdka Knoflík","https://www.firmy.cz/detail/2253647-hospudka-knoflik-praha-smichov.html","572"
"6","Divadlo","Švandovo divadlo na Smíchově","https://www.firmy.cz/detail/230741-svandovo-divadlo-na-smichove-praha-smichov.html","271"
"7","Veterinář","MVDr. Jana Lukešová","https://www.firmy.cz/detail/473617-mvdr-jana-lukesova-praha-smichov.html","838"
"8","Restaurace","Restaurace U svatého Filipa a Jakuba","https://www.firmy.cz/detail/12711654-restaurace-u-svateho-filipa-a-jakuba-praha-smichov.html","121"
"9","Metro","Anděl","","490"
"10","Tram","Arbesovo náměstí","","55"
"11","Škola","Střední odborná škola Praha, Drtinova","https://www.firmy.cz/detail/361818-stredni-odborna-skola-praha-drtinova-praha-smichov.html","127"
"12","Vlak","Praha-Smíchov severní nást.","","1317"
"13","Lékař","MUDr. Tomáš Dambrich","https://www.firmy.cz/detail/387283-mudr-tomas-dambrich-praha-smichov.html","190"
"14","Školka","Střední škola, ZŠ a MŠ pro sluchově postižené Praha 5","https://www.firmy.cz/detail/2196419-stredni-skola-zs-a-ms-pro-sluchove-postizene-praha-5-praha-smichov.html","452"
"15","Bankomat","Bankomat Komerční banky","https://www.firmy.cz/detail/596020-bankomat-komercni-banky-praha-smichov.html","81"
"16","Sportoviště","ARBES - squash a fitness centrum","https://www.firmy.cz/detail/475825-arbes-squash-a-fitness-centrum-praha-smichov.html","188"
"17","Pošta","Pošta Praha 5 - Česká pošta, s.p.","https://www.firmy.cz/detail/217457-posta-praha-5-praha-smichov.html","183"
"18","Bus MHD","Arbesovo náměstí","","186"
"19","Obchod","Obchodní centrum Nový Smíchov","https://www.firmy.cz/detail/579116-obchodni-centrum-novy-smichov-praha-smichov.html","296"
"20","Lékárna","EUC Lékárna Kartouzská","https://www.firmy.cz/detail/13162323-euc-lekarna-kartouzska-praha-smichov.html","190"
