"","facility_type","facility_name","facility_iri","facility_distance"
"0","Hřiště","Dětské hřiště náměstí SNP","https://mapy.cz/zakladni?x=16.6210846056&y=49.2183133187&z=17&source=base&id=2095340","185"
"1","Přírodní zajímavost","Přírodní zahrada U Smrku","https://mapy.cz/zakladni?x=16.58765420430356&y=49.22807918152045&z=17&source=base&id=2324158","2845"
"2","Hospoda","Hospůdka U Koudelků","https://www.firmy.cz/detail/13112301-hospudka-u-koudelku-brno-lesna.html","881"
"3","Cukrárna","Fügner Café - Radek Strážnický","https://www.firmy.cz/detail/13141491-fugner-cafe-brno-cerna-pole.html","293"
"4","Večerka","Potraviny konzum Černý","https://www.firmy.cz/detail/12798006-potraviny-konzum-cerny-brno-cerna-pole.html","148"
"5","Veterinář","VeriVet","https://www.firmy.cz/detail/13247412-verivet-brno-cerna-pole.html","261"
"6","Divadlo","Divadlo Kufr","https://www.firmy.cz/detail/585512-divadlo-kufr-brno-husovice.html","707"
"7","Kino","Kino Art","https://www.firmy.cz/detail/451540-kino-art-brno-veveri.html","2079"
"8","Bankomat","Bankomat ČSOB","https://www.firmy.cz/detail/12898012-bankomat-csob-brno-cerna-pole.html","140"
"9","Restaurace","Restaurant dalešického pivovaru BETLÉM","https://www.firmy.cz/detail/12970001-restaurant-dalesickeho-pivovaru-betlem-brno-cerna-pole.html","127"
"10","Školka","MŠ Brno, nám. SNP 25a","https://www.firmy.cz/detail/1447224-ms-brno-nam-snp-25a-brno-cerna-pole.html","278"
"11","Bus MHD","Štefánikova čtvrť","https://mapy.cz/zakladni?x=16.6276194468&y=49.2172667567&z=17&source=pubt&id=15205368","305"
"12","Obchod","Nákupní centrum Královo Pole","https://www.firmy.cz/detail/671101-nakupni-centrum-kralovo-pole-brno-ponava.html","1093"
"13","Lékárna","Lékárna Plus","https://www.firmy.cz/detail/2687248-lekarna-plus-brno-cerna-pole.html","161"
"14","Pošta","Pošta Brno 13 - Česká pošta, s.p.","https://www.firmy.cz/detail/216032-posta-brno-13-brno-cerna-pole.html","702"
"15","Vlak","Brno-Lesná","https://mapy.cz/zakladni?x=16.6264546944&y=49.22077435&z=17&source=pubt&id=15698556","399"
"16","Tram","Štefánikova čtvrť","https://mapy.cz/zakladni?x=16.6278469692&y=49.2171699056&z=17&source=pubt&id=15205366","323"
"17","Sportoviště","TJ TESLA BRNO","https://www.firmy.cz/detail/186461-tj-tesla-brno-brno-lesna.html","610"
"18","Lékař","MUDr. Eva Hamžová","https://www.firmy.cz/detail/385909-mudr-eva-hamzova-brno-cerna-pole.html","496"
"19","Škola","Soukromá základní škola Lesná, s.r.o.","https://www.firmy.cz/detail/356480-soukroma-zakladni-skola-lesna-brno-cerna-pole.html","252"
