"","facility_type","facility_name","facility_iri","facility_distance"
"0","Cukrárna","Cukrárna Anděl","https://www.firmy.cz/detail/13175159-cukrarna-andel-stare-mesto.html","408"
"1","Kino","Kino Hvězda Uherské Hradiště","https://www.firmy.cz/detail/457216-kino-hvezda-uherske-hradiste-uherske-hradiste.html","2610"
"2","Přírodní zajímavost","Soutok Moravy a Olšavy","","4157"
"3","Hřiště","Dětské hřiště Úprkova","","226"
"4","Večerka","Potraviny Kouřímová","https://www.firmy.cz/detail/276035-potraviny-kourimova-stare-mesto.html","133"
"5","Hospoda","Hospoda U Kokavců","https://www.firmy.cz/detail/13108646-hospoda-u-kokavcu-uherske-hradiste.html","1399"
"6","Divadlo","Malá scéna Slováckého divadla","https://www.firmy.cz/detail/12964490-mala-scena-slovackeho-divadla-uherske-hradiste.html","1848"
"7","Veterinář","Veterinární ordinace, MVDr. František Luňák","https://www.firmy.cz/detail/156881-veterinarni-ordinace-mvdr-frantisek-lunak-stare-mesto.html","1570"
"8","Pošta","Pošta Staré Město u Uherského Hradiště - Česká pošta, s.p.","https://www.firmy.cz/detail/433392-posta-stare-mesto-u-uherskeho-hradiste-stare-mesto.html","779"
"9","Sportoviště","Koupaliště Širůch","https://www.firmy.cz/detail/13332291-koupaliste-siruch-stare-mesto.html","491"
"10","Školka","Miniškolka Rybníček","https://www.firmy.cz/detail/12966609-miniskolka-rybnicek-stare-mesto.html","493"
"11","Bankomat","Bankomat České spořitelny","https://www.firmy.cz/detail/596114-bankomat-ceske-sporitelny-stare-mesto.html","847"
"12","Škola","Střední odborná škola a Gymnázium Staré Město","https://www.firmy.cz/detail/308639-stredni-odborna-skola-a-gymnazium-stare-mesto-stare-mesto.html","149"
"13","Bus MHD","Staré Město, Velehradská","","43"
"14","Lékárna","Lékárna Za Mlýnem, s.r.o.","https://www.firmy.cz/detail/12826941-lekarna-za-mlynem-s-r-o-stare-mesto.html","649"
"15","Restaurace","Restaurace Svatoplukova 951","https://www.firmy.cz/detail/13135466-restaurace-svatoplukova-951-stare-mesto.html","219"
"16","Obchod","Albert Hypermarket","https://www.firmy.cz/detail/12924540-albert-hypermarket-stare-mesto.html","1061"
"17","Lékař","MUDr. Dalibor Houfek, s.r.o.","https://www.firmy.cz/detail/12862272-mudr-dalibor-houfek-stare-mesto.html","546"
"18","Vlak","Staré Město u Uherského Hradiště","","1351"
