"","facility_type","facility_name","facility_iri","facility_distance"
"0","Hřiště","Dětské hřiště v zámecké zahradě","https://mapy.cz/zakladni?x=17.7340125&y=49.5505052778&z=17&source=base&id=1932701","95"
"1","Kino","Letní kino Hranice","https://www.firmy.cz/detail/13071117-letni-kino-hranice-hranice-i-mesto.html","624"
"2","Večerka","TEMPO, obchodní družstvo","https://www.firmy.cz/detail/13315390-tempo-obchodni-druzstvo-hranice-i-mesto.html","193"
"3","Hospoda","Hranický ŠENK","https://www.firmy.cz/detail/13273380-hranicky-senk-hranice-i-mesto.html","1018"
"4","Cukrárna","Slezská Cukrárna Tivoli","https://www.firmy.cz/detail/13275082-slezska-cukrarna-tivoli-hranice-i-mesto.html","175"
"5","Veterinář","IC-VET - MVDr. Zuzana Škarková","https://www.firmy.cz/detail/12998157-ic-vet-mvdr-zuzana-skarkova-hranice-i-mesto.html","329"
"6","Divadlo","Divadlo Stará Střelnice","https://www.firmy.cz/detail/13157587-divadlo-stara-strelnice-hranice-i-mesto.html","1033"
"7","Lékař","MUDr. Eva Vitovská, praktická lékařka, s.r.o.","https://www.firmy.cz/detail/12831803-mudr-eva-vitovska-prakticka-lekarka-hranice-i-mesto.html","73"
"8","Sportoviště","Orel jednota Hranice","https://www.firmy.cz/detail/1963567-orel-jednota-hranice-hranice-i-mesto.html","113"
"9","Vlak","Hranice na Moravě město","https://mapy.cz/zakladni?x=17.7418406084&y=49.5458492882&z=17&source=pubt&id=15211498","706"
"10","Lékárna","Dr.Max LÉKÁRNA","https://www.firmy.cz/detail/2007400-dr-max-lekarna-hranice-i-mesto.html","88"
"11","Školka","ZŠ a MŠ Hranice, Šromotovo","https://www.firmy.cz/detail/2661291-zs-a-ms-hranice-sromotovo-hranice-i-mesto.html","221"
"12","Bankomat","Bankomat MONETA Money Bank","https://www.firmy.cz/detail/603340-bankomat-moneta-money-bank-hranice-i-mesto.html","10"
"13","Bus MHD","Hranice, Komenského","https://mapy.cz/zakladni?x=17.73642525658195&y=49.55005758073592&z=17&source=pubt&id=22472181","99"
"14","Pošta","Pošta Hranice 1 - Česká pošta, s.p.","https://www.firmy.cz/detail/658849-posta-hranice-1-hranice-i-mesto.html","274"
"15","Obchod","Kaufland","https://www.firmy.cz/detail/1534397-kaufland-hranice-i-mesto.html","903"
"16","Restaurace","Konšelská restaurace","https://www.firmy.cz/detail/13287917-konselska-restaurace-hranice-i-mesto.html","77"
"17","Škola","ZŠ a MŠ Hranice, Šromotovo","https://www.firmy.cz/detail/357284-zs-a-ms-hranice-sromotovo-hranice-i-mesto.html","221"
