"","facility_type","facility_name","facility_iri","facility_distance"
"0","Cukrárna","Kavárna Caffe Sentiments","https://www.firmy.cz/detail/13104920-kavarna-caffe-sentiments-jablonec-nad-nisou.html","229"
"1","Kino","Kino Radnice","https://www.firmy.cz/detail/13333338-kino-radnice-jablonec-nad-nisou.html","363"
"2","Hřiště","Dětské hřiště Zlatá","","515"
"3","Večerka","Prodejna smíšeného zboží","https://www.firmy.cz/detail/13230920-prodejna-smiseneho-zbozi-jablonec-nad-nisou.html","135"
"4","Hospoda","RestauraceJungmannova 602/5","https://www.firmy.cz/detail/13118401-restauracejungmannova-602-5-jablonec-nad-nisou.html","266"
"5","Divadlo","Městské divadlo Jablonec nad Nisou, o.p.s.","https://www.firmy.cz/detail/396944-mestske-divadlo-jablonec-nad-nisou-jablonec-nad-nisou.html","696"
"6","Veterinář","MVDr. Hana Flejberková","https://www.firmy.cz/detail/1982096-mvdr-hana-flejberkova-jablonec-nad-nisou.html","497"
"7","Sportoviště","Vodní nádrž Mšeno","https://www.firmy.cz/detail/13042959-vodni-nadrz-mseno-jablonec-nad-nisou.html","903"
"8","Školka","MŠ Jablonec nad Nisou, Slunečná","https://www.firmy.cz/detail/12732852-ms-jablonec-nad-nisou-slunecna-jablonec-nad-nisou.html","324"
"9","Restaurace","Restaurace Country Saloon","https://www.firmy.cz/detail/12826433-restaurace-country-saloon-jablonec-nad-nisou.html","266"
"10","Vlak","Jablonec nad Nisou centrum","","521"
"11","Pošta","Pošta Jablonec nad Nisou 1 - Česká pošta, s.p.","https://www.firmy.cz/detail/215524-posta-jablonec-nad-nisou-1-jablonec-nad-nisou.html","624"
"12","Obchod","Central Jablonec","https://www.firmy.cz/detail/13045427-central-jablonec-jablonec-nad-nisou.html","606"
"13","Bankomat","Vkladomat mBank","https://www.firmy.cz/detail/13190395-vkladomat-mbank-jablonec-nad-nisou.html","422"
"14","Lékárna","BENU Lékárna","https://www.firmy.cz/detail/658462-benu-lekarna-jablonec-nad-nisou.html","484"
"15","Škola","Základní umělecká škola Jablonec nad Nisou","https://www.firmy.cz/detail/2145808-zakladni-umelecka-skola-jablonec-nad-nisou-jablonec-nad-nisou.html","243"
"16","Lékař","Ordinace pro Vás s.r.o.","https://www.firmy.cz/detail/13270911-ordinace-pro-vas-s-r-o-jablonec-nad-nisou.html","183"
"17","Bus MHD","Mlýnská","","36"
