"","facility_type","facility_name","facility_iri","facility_distance"
"0","Cukrárna","Cukrárna U geparda","https://www.firmy.cz/detail/13048336-cukrarna-u-geparda-usti-nad-labem-krasne-brezno.html","642"
"1","Kino","Letní kino Ústí nad Labem","https://www.firmy.cz/detail/2556284-letni-kino-usti-nad-labem-usti-nad-labem.html","2225"
"2","Hřiště","Dětské hřiště V Oblouku","","212"
"3","Večerka","Můjobchod - Potraviny U Milana","https://www.firmy.cz/detail/12998219-mujobchod-potraviny-u-milana-usti-nad-labem-krasne-brezno.html","193"
"4","Hospoda","Hospoda Žíža","https://www.firmy.cz/detail/13111191-hospoda-ziza-usti-nad-labem-krasne-brezno.html","584"
"5","Divadlo","Činoherní studio města Ústí nad Labem","https://www.firmy.cz/detail/13085276-cinoherni-studio-mesta-usti-nad-labem-usti-nad-labem-strekov.html","2057"
"6","Veterinář","MVDr. Lubomír Vojtek","https://www.firmy.cz/detail/274104-mvdr-lubomir-vojtek-usti-nad-labem-krasne-brezno.html","784"
"7","Lékař","MUDr. Martina Hrtánková","https://www.firmy.cz/detail/387082-mudr-martina-hrtankova-usti-nad-labem-krasne-brezno.html","760"
"8","Pošta","Pošta Ústí nad Labem 7 - Česká pošta, s.p.","https://www.firmy.cz/detail/215960-posta-usti-nad-labem-7-usti-nad-labem-krasne-brezno.html","581"
"9","Bankomat","Bankomat ČSOB","https://www.firmy.cz/detail/597403-bankomat-csob-usti-nad-labem-krasne-brezno.html","325"
"10","Restaurace","Restaurace U Knížete","https://www.firmy.cz/detail/12906954-restaurace-u-knizete-usti-nad-labem.html","193"
"11","Škola","ZŠ Ústí nad Labem, Anežky České","https://www.firmy.cz/detail/359857-zs-usti-nad-labem-anezky-ceske-usti-nad-labem-krasne-brezno.html","368"
"12","Školka","Mateřská škola Pomněnka, Ústí nad Labem, Přemyslovců 652/14, příspěvková organizace","https://www.firmy.cz/detail/1599974-materska-skola-pomnenka-usti-nad-labem-premyslovcu-652-14-prispevkova-organizace-usti-nad-labem-krasne-brezno.html","164"
"13","Vlak","Ústí nad Labem sever","","1249"
"14","Sportoviště","T-CLUB, s.r.o.","https://www.firmy.cz/detail/12894918-t-club-usti-nad-labem-krasne-brezno.html","442"
"15","Obchod","Obchodní centrum Sever","https://www.firmy.cz/detail/13265743-obchodni-centrum-sever-usti-nad-labem-centrum.html","2181"
"16","Lékárna","Lékárna REMEDIUM","https://www.firmy.cz/detail/227558-lekarna-remedium-usti-nad-labem-krasne-brezno.html","760"
"17","Bus MHD","Dvojdomí","","66"
