"","facility_type","facility_name","facility_iri","facility_distance"
"0","Hřiště","Dětské hřiště u hotelu Všemina","","102"
"1","Večerka","Potraviny ENAPO","https://www.firmy.cz/detail/13269154-potraviny-enapo-trnava.html","1525"
"2","Školka","ZŠ a MŠ Všemina","https://www.firmy.cz/detail/727240-zs-a-ms-vsemina-vsemina.html","1536"
"3","Sportoviště","Lanové centrum a lezecká stěna","","285"
"4","Restaurace","Všemina Grand Restaurant","https://www.firmy.cz/detail/13311559-vsemina-grand-restaurant-vsemina.html","73"
"5","Pošta","Pošta Trnava u Zlína - Česká pošta, s.p.","https://www.firmy.cz/detail/432923-posta-trnava-u-zlina-trnava.html","1551"
"6","Škola","ZŠ a MŠ Všemina","https://www.firmy.cz/detail/359392-zs-a-ms-vsemina-vsemina.html","1536"
"7","Lékař","MUDr. Hana Blanarčíková","https://www.firmy.cz/detail/12863056-mudr-hana-blanarcikova-liptal.html","4453"
"8","Bus MHD","Trnava, Papradná","","1241"
