"","facility_type","facility_name","facility_iri","facility_distance"
"0","Cukrárna","Cukrárna Ovo Bar Kamilka","https://www.firmy.cz/detail/13058476-cukrarna-ovo-bar-kamilka-karlovy-vary.html","1159"
"1","Kino","Kino Drahomíra z.s.","https://www.firmy.cz/detail/13126576-kino-drahomira-z-s-karlovy-vary-drahovice.html","594"
"2","Přírodní zajímavost","Karlův hvozd","","2398"
"3","Hřiště","Dětské hřiště Vilová","","378"
"4","Večerka","Potraviny Mattoniho nábřeží 	314","https://www.firmy.cz/detail/13057546-potraviny-mattoniho-nabrezi-314-karlovy-vary-drahovice.html","412"
"5","Divadlo","Divadlo Dagmar","https://www.firmy.cz/detail/396851-divadlo-dagmar-karlovy-vary-drahovice.html","684"
"6","Hospoda","Pivnice Drahomíra","https://www.firmy.cz/detail/668384-pivnice-drahomira-karlovy-vary-drahovice.html","366"
"7","Veterinář","MVDr. Jaroslav Štekl","https://www.firmy.cz/detail/625301-mvdr-jaroslav-stekl-dalovice.html","465"
"8","Lékař","MUDr. Josef Anderle","https://www.firmy.cz/detail/388607-mudr-josef-anderle-karlovy-vary-drahovice.html","313"
"9","Bus MHD","Prašná","","133"
"10","Lékárna","Lékárna U Gymnázia","https://www.firmy.cz/detail/420968-lekarna-u-gymnazia-karlovy-vary-drahovice.html","313"
"11","Pošta","Pošta Karlovy Vary 9 - Česká pošta, s.p.","https://www.firmy.cz/detail/216327-posta-karlovy-vary-9-karlovy-vary-drahovice.html","462"
"12","Obchod","Obchodní centrum Perla","https://www.firmy.cz/detail/13219298-obchodni-centrum-perla-karlovy-vary.html","1366"
"13","Sportoviště","Multifunkční sportovní areál ZŠ Jana Amose Komenského","https://www.firmy.cz/detail/2623753-multifunkcni-sportovni-areal-zs-jana-amose-komenskeho-karlovy-vary-drahovice.html","152"
"14","Školka","2. MŠ Karlovy Vary - Vilová","https://www.firmy.cz/detail/2072245-2-ms-karlovy-vary-vilova-karlovy-vary-bohatice.html","556"
"15","Vlak","Karlovy Vary","","1375"
"16","Restaurace","Australian Pub","https://www.firmy.cz/detail/677180-australian-pub-karlovy-vary-drahovice.html","96"
"17","Škola","ZŠ Jana Amose Komenského, Karlovy Vary","https://www.firmy.cz/detail/357602-zs-jana-amose-komenskeho-karlovy-vary-karlovy-vary-drahovice.html","152"
"18","Bankomat","Bankomat Euronet","https://www.firmy.cz/detail/13055646-bankomat-euronet-karlovy-vary.html","738"
