"","facility_type","facility_name","facility_iri","facility_distance"
"0","Hřiště","Dětské hřiště Norská","https://mapy.cz/zakladni?x=17.226915351&y=49.5986828685&z=17&source=base&id=2177216","662"
"1","Večerka","Potraviny U Renči","https://www.firmy.cz/detail/13113867-potraviny-u-renci-olomouc-nova-ulice.html","152"
"2","Hospoda","Hospůdka U Kuděje","https://www.firmy.cz/detail/13124006-hospudka-u-kudeje-olomouc-nova-ulice.html","826"
"3","Kino","Kino METROPOL","https://www.firmy.cz/detail/12773593-kino-metropol-olomouc.html","1189"
"4","Veterinář","Veterinární klinika MVDr. Michael Mazoch, s.r.o.","https://www.firmy.cz/detail/12906915-veterinarni-klinika-mvdr-michael-mazoch-s-r-o-olomouc-neredin.html","516"
"5","Divadlo","Divadlo Tramtarie","https://www.firmy.cz/detail/594401-divadlo-tramtarie-olomouc-nova-ulice.html","715"
"6","Cukrárna","NM DESSERTS","https://www.firmy.cz/detail/13274778-nm-desserts-olomouc-neredin.html","583"
"7","Tram","Šibeník","https://mapy.cz/zakladni?x=17.2375393392&y=49.5965841364&z=17&source=pubt&id=15203076","273"
"8","Bankomat","Bankomat Komerční banky","https://www.firmy.cz/detail/594311-bankomat-komercni-banky-olomouc-nova-ulice.html","253"
"9","Vlak","Olomouc-Hejčín","https://mapy.cz/zakladni?x=17.2366112569&y=49.6023089412&z=17&source=pubt&id=15212338","386"
"10","Lékárna","Lékárna V Ušáku","https://www.firmy.cz/detail/2603991-lekarna-v-usaku-olomouc-nova-ulice.html","593"
"11","Bus MHD","Šibeník","https://mapy.cz/zakladni?x=17.2368071117&y=49.5978217202&z=17&source=pubt&id=15203225","126"
"12","Restaurace","U Zlaté koule","https://www.firmy.cz/detail/13098429-u-zlate-koule-olomouc-nova-ulice.html","286"
"13","Škola","Gymnázium, Olomouc - Hejčín","https://www.firmy.cz/detail/360956-gymnazium-olomouc-hejcin-olomouc-hejcin.html","427"
"14","Obchod","OD TIMPO, s.r.o.","https://www.firmy.cz/detail/642623-od-timpo-olomouc-nova-ulice.html","821"
"15","Lékař","MUDr. Olga Smékalová","https://www.firmy.cz/detail/390216-mudr-olga-smekalova-olomouc-nova-ulice.html","593"
"16","Sportoviště","Česká asociace pohybem ke zdraví z.s.","https://www.firmy.cz/detail/12929537-ceska-asociace-pohybem-ke-zdravi-z-s-olomouc-hejcin.html","427"
"17","Školka","MŠ Sedmikráska Olomouc","https://www.firmy.cz/detail/407205-ms-sedmikraska-olomouc-olomouc-nova-ulice.html","344"
"18","Pošta","Pošta Olomouc 9 - Česká pošta, s.p.","https://www.firmy.cz/detail/432298-posta-olomouc-9-olomouc-hejcin.html","498"
