"","facility_type","facility_name","facility_iri","facility_distance"
"0","Hřiště","Dětské hřiště Maroldova","https://mapy.cz/zakladni?x=18.2757786111&y=49.8472066667&z=17&source=base&id=2059157","548"
"1","Přírodní zajímavost","Uhelná sloj v Landeku","https://mapy.cz/zakladni?x=18.2692044444&y=49.8672338889&z=17&source=base&id=1981598","1745"
"2","Hospoda","U DLOUHÝCH est.1892","https://www.firmy.cz/detail/13131845-u-dlouhych-est-1892-ostrava-privoz.html","158"
"3","Cukrárna","Cukrárna u Alči","https://www.firmy.cz/detail/13242059-cukrarna-u-alci-ostrava-moravska-ostrava.html","362"
"4","Večerka","HRUŠKA","https://www.firmy.cz/detail/13107497-hruska-ostrava-privoz.html","144"
"5","Kino","Kino vesmír","https://www.firmy.cz/detail/12980428-kino-vesmir-ostrava-moravska-ostrava.html","1902"
"6","Veterinář","VETPARK Ostrava, s.r.o.","https://www.firmy.cz/detail/13308555-vetpark-ostrava-ostrava-moravska-ostrava.html","985"
"7","Divadlo","Loutkový svět","https://www.firmy.cz/detail/13033024-loutkovy-svet-ostrava-moravska-ostrava.html","1690"
"8","Bus MHD","Sad B. Němcové","https://mapy.cz/zakladni?x=18.2771626590803&y=49.8520751634068&z=17&source=pubt&id=15202829","96"
"9","Pošta","Pošta Ostrava 2","https://www.firmy.cz/detail/433391-posta-ostrava-2-ostrava-privoz.html","518"
"10","Bankomat","Bankomat Komerční banky","https://www.firmy.cz/detail/594286-bankomat-komercni-banky-ostrava-moravska-ostrava.html","290"
"11","Školka","MŠ Ostrava, Špálova","https://www.firmy.cz/detail/1971890-ms-ostrava-spalova-ostrava-privoz.html","39"
"12","Restaurace","Restaurant Loft","https://www.firmy.cz/detail/12936319-restaurant-loft-ostrava-privoz.html","182"
"13","Vlak","Ostrava hlavní nádraží","https://mapy.cz/zakladni?x=18.2670593754&y=49.8514937322&z=17&source=pubt&id=15212374","633"
"14","Lékař","DHB MEDIPRAKTIK s.r.o.","https://www.firmy.cz/detail/12864485-dhb-medipraktik-s-r-o-ostrava-privoz.html","81"
"15","Tram","Sad B. Němcové","https://mapy.cz/zakladni?x=18.2775018975&y=49.8510741132&z=17&source=pubt&id=15201868","168"
"16","Lékárna","Lékárna U Madony","https://www.firmy.cz/detail/154236-lekarna-u-madony-ostrava-privoz.html","333"
"17","Sportoviště","Tělocvičná jednota Sokol Přívoz","https://www.firmy.cz/detail/2137922-telocvicna-jednota-sokol-privoz-ostrava-privoz.html","186"
"18","Škola","Církevní základní škola a mateřská škola Přemysla Pittra","https://www.firmy.cz/detail/358662-cirkevni-zakladni-skola-a-materska-skola-premysla-pittra-ostrava-privoz.html","236"
"19","Obchod","Outlet Arena Moravia","https://www.firmy.cz/detail/13181729-outlet-arena-moravia-ostrava-privoz.html","1668"
