"","facility_type","facility_name","facility_iri","facility_distance"
"0","Cukrárna","Bakeshop Praha, s.r.o.","https://www.firmy.cz/detail/272331-bakeshop-praha-praha-stare-mesto.html","148"
"1","Hřiště","Dětské hřiště sportovní areál Masná","","119"
"2","Kino","Kino Světozor","https://www.firmy.cz/detail/396600-kino-svetozor-praha-nove-mesto.html","909"
"3","Večerka","Albert Supermarket","https://www.firmy.cz/detail/209512-albert-supermarket-praha-stare-mesto.html","252"
"4","Hospoda","Batalion Café & Music Bar","https://www.firmy.cz/detail/457689-batalion-cafe-music-bar-praha-stare-mesto.html","763"
"5","Divadlo","Divadlo v Dlouhé","https://www.firmy.cz/detail/396894-divadlo-v-dlouhe-praha-stare-mesto.html","208"
"6","Veterinář","MVDr. Katka Sviták Novozámská","https://www.firmy.cz/detail/2137713-mvdr-katka-svitak-novozamska-praha-stare-mesto.html","798"
"7","Tram","Dlouhá třída","","256"
"8","Bankomat","Bankomat Komerční banky","https://www.firmy.cz/detail/1348491-bankomat-komercni-banky-praha-stare-mesto.html","74"
"9","Restaurace","Gastrokomplex Apetit","https://www.firmy.cz/detail/1272971-gastrokomplex-apetit-praha-stare-mesto.html","21"
"10","Obchod","PALLADIUM Praha","https://www.firmy.cz/detail/2238095-palladium-praha-praha-nove-mesto.html","364"
"11","Škola","1. Slovanské gymnázium a jazyková škola s právem státní jazykové zkoušky","https://www.firmy.cz/detail/736161-1-slovanske-gymnazium-a-jazykova-skola-s-pravem-statni-jazykove-zkousky-praha-stare-mesto.html","67"
"12","Bus MHD","Masná","","93"
"13","Metro","Náměstí Republiky","","350"
"14","Lékař","MUDr. Otakar Maňas","https://www.firmy.cz/detail/388352-mudr-otakar-manas-praha-stare-mesto.html","274"
"15","Lékárna","Lékárna Na Františku","https://www.firmy.cz/detail/376327-lekarna-na-frantisku-praha-stare-mesto.html","364"
"16","Pošta","Pošta Praha 05 - Česká pošta, s.p.","https://www.firmy.cz/detail/431198-posta-praha-05-praha-stare-mesto.html","154"
"17","Vlak","Praha Masarykovo nádraží","","741"
"18","Školka","MŠ Praha, Masná","https://www.firmy.cz/detail/1968715-ms-praha-masna-praha-stare-mesto.html","75"
"19","Sportoviště","Squash Haštal","https://www.firmy.cz/detail/13244526-squash-hastal-praha-stare-mesto.html","155"
