"","facility_type","facility_name","facility_iri","facility_distance"
"0","Hřiště","Dětské hřiště Tyršova","https://mapy.cz/zakladni?x=14.0042344444&y=50.6440141667&z=17&source=base&id=2102777","1378"
"1","Hospoda","Pivnice Tipka","https://www.firmy.cz/detail/412888-pivnice-tipka-usti-nad-labem-klise.html","1325"
"2","Večerka","Penny Market","https://www.firmy.cz/detail/2413590-penny-market-trmice.html","756"
"3","Veterinář","Veterinární klinika Helion","https://www.firmy.cz/detail/12987940-veterinarni-klinika-helion-usti-nad-labem-centrum.html","2322"
"4","Cukrárna","Café Globus","https://www.firmy.cz/detail/13089388-cafe-globus-trmice.html","569"
"5","Kino","Cinema City Ústí nad Labem","https://www.firmy.cz/detail/2679909-cinema-city-usti-nad-labem-usti-nad-labem-centrum.html","2554"
"6","Divadlo","Severočeské divadlo, s.r.o.","https://www.firmy.cz/detail/12720983-severoceske-divadlo-usti-nad-labem-centrum.html","2310"
"7","Škola","ZŠ Ústí nad Labem, Školní náměstí","https://www.firmy.cz/detail/359875-zs-usti-nad-labem-skolni-namesti-usti-nad-labem-predlice.html","533"
"8","Bankomat","Bankomat MONETA Money Bank","https://www.firmy.cz/detail/13225003-bankomat-moneta-money-bank-trmice.html","564"
"9","Bus MHD","Nové Předlice","https://mapy.cz/zakladni?x=14.0016834796&y=50.6561424005&z=17&source=pubt&id=17548047","52"
"10","Pošta","Pošta Trmice - Česká pošta, s.p.","https://www.firmy.cz/detail/215944-posta-trmice-trmice.html","597"
"11","Školka","MŠ Ústí nad Labem, Marxova","https://www.firmy.cz/detail/1620121-ms-usti-nad-labem-marxova-usti-nad-labem-predlice.html","288"
"12","Sportoviště","JUMP Family Ústí nad Labem","https://www.firmy.cz/detail/13172311-jump-family-usti-nad-labem-usti-nad-labem-centrum.html","650"
"13","Restaurace","Restaurace Globus","https://www.firmy.cz/detail/1694724-restaurace-globus-trmice.html","666"
"14","Lékař","MUDr. Květa Derynková","https://www.firmy.cz/detail/390403-mudr-kveta-derynkova-usti-nad-labem-centrum.html","373"
"15","Obchod","Globus Hypermarket","https://www.firmy.cz/detail/448352-globus-hypermarket-trmice.html","590"
"16","Lékárna","Dr. Max LÉKÁRNA","https://www.firmy.cz/detail/13001328-dr-max-lekarna-trmice.html","579"
"17","Vlak","Trmice","https://mapy.cz/zakladni?x=13.987005285&y=50.6474629012&z=17&source=pubt&id=15213055","1465"
