"","facility_type","facility_name","facility_iri","facility_distance"
"0","Cukrárna","Kavárna Atrium","https://www.firmy.cz/detail/2651565-kavarna-atrium-pardubice-zelene-predmesti.html","179"
"1","Kino","Cinema City Pardubice","https://www.firmy.cz/detail/2319456-cinema-city-pardubice-pardubice-zelene-predmesti.html","567"
"2","Hřiště","Dětské hřiště Karlovina","","263"
"3","Večerka","Smíšené zboží Smilova","https://www.firmy.cz/detail/13335058-smisene-zbozi-smilova-pardubice-zelene-predmesti.html","136"
"4","Hospoda","Irská Hospoda Svatojánská Galerie","https://www.firmy.cz/detail/2462387-irska-hospoda-svatojanska-galerie-pardubice-zelene-predmesti.html","33"
"5","Divadlo","Divadlo NerušKruh","https://www.firmy.cz/detail/13262119-divadlo-neruskruh-pardubice-zelene-predmesti.html","458"
"6","Veterinář","Veterinární ordinace MVDr. Monika Klimplová","https://www.firmy.cz/detail/1889479-veterinarni-ordinace-mvdr-monika-klimplova-pardubice-zelene-predmesti.html","685"
"7","Bankomat","mBank Kiosk","https://www.firmy.cz/detail/13133123-mbank-kiosk-pardubice-zelene-predmesti.html","190"
"8","Obchod","OC Atrium Palác Pardubice","https://www.firmy.cz/detail/12940305-oc-atrium-palac-pardubice-pardubice-zelene-predmesti.html","478"
"9","Restaurace","Restaurace Podkova","https://www.firmy.cz/detail/333607-restaurace-podkova-pardubice-zelene-predmesti.html","127"
"10","Pošta","Pošta Pardubice 1 - Česká pošta, s.p.","https://www.firmy.cz/detail/452739-posta-pardubice-1-pardubice-zelene-predmesti.html","494"
"11","Lékař","Genermed, s.r.o.","https://www.firmy.cz/detail/13172753-genermed-pardubice-zelene-predmesti.html","261"
"12","Bus MHD","17.listopadu","","111"
"13","Sportoviště","Pardubický krajský fotbalový svaz","https://www.firmy.cz/detail/485028-pardubicky-krajsky-fotbalovy-svaz-pardubice-zelene-predmesti.html","117"
"14","Škola","Základní škola Pardubice, Bratranců Veverkových 866","https://www.firmy.cz/detail/358769-zakladni-skola-pardubice-bratrancu-veverkovych-866-pardubice-zelene-predmesti.html","229"
"15","Školka","MŠ Pardubice, K Polabinám","https://www.firmy.cz/detail/1880709-ms-pardubice-k-polabinam-pardubice-zelene-predmesti.html","709"
"16","Vlak","Pardubice hlavní nádraží","","1115"
"17","Lékárna","Lékárna ve Smilovce","https://www.firmy.cz/detail/13204550-lekarna-ve-smilovce-pardubice-zelene-predmesti.html","224"
