"","facility_type","facility_name","facility_iri","facility_distance"
"0","Cukrárna","Kafe Laky","https://www.firmy.cz/detail/13166832-kafe-laky-ceska-lipa.html","147"
"1","Kino","Kino Crystal","https://www.firmy.cz/detail/399410-kino-crystal-ceska-lipa.html","400"
"2","Přírodní zajímavost","Ptačí park Mnišské louky","","3198"
"3","Hřiště","Dětské hřiště Starý Újezd","","346"
"4","Večerka","RU-shop","https://www.firmy.cz/detail/12798279-ru-shop-ceska-lipa.html","147"
"5","Hospoda","Českolipský Výčep","https://www.firmy.cz/detail/13334576-ceskolipsky-vycep-ceska-lipa.html","200"
"6","Divadlo","Jiráskovo divadlo","https://www.firmy.cz/detail/2352914-jiraskovo-divadlo-ceska-lipa.html","171"
"7","Veterinář","MVDR.HELLER RADEK,PRAKTICKÝ VETERINÁRNÍ LÉKAŘ","https://www.firmy.cz/detail/276861-mvdr-heller-radek-prakticky-veterinarni-lekar-ceska-lipa.html","196"
"8","Bus MHD","Česká Lípa, Erbenova","","91"
"9","Lékař","MUDr. Jiří Truhlář","https://www.firmy.cz/detail/390168-mudr-jiri-truhlar-ceska-lipa.html","307"
"10","Školka","ZŠ, praktická škola a MŠ Česká Lípa, Moskevská","https://www.firmy.cz/detail/2418930-zs-prakticka-skola-a-ms-ceska-lipa-moskevska-ceska-lipa.html","178"
"11","Restaurace","Šambhala jídelna - vegetariánská jídelna, obchůdek","https://www.firmy.cz/detail/13099583-sambhala-jidelna-vegetarianska-jidelna-obchudek-ceska-lipa.html","74"
"12","Pošta","Pošta Česká Lípa 1 - Česká pošta, s.p.","https://www.firmy.cz/detail/215488-posta-ceska-lipa-1-ceska-lipa.html","280"
"13","Škola","ZŠ, praktická škola a MŠ Česká Lípa, Moskevská","https://www.firmy.cz/detail/356711-zs-prakticka-skola-a-ms-ceska-lipa-moskevska-ceska-lipa.html","163"
"14","Lékárna","U Jindřicha","https://www.firmy.cz/detail/2240812-u-jindricha-ceska-lipa.html","215"
"15","Bankomat","Bankomat ČSOB","https://www.firmy.cz/detail/598479-bankomat-csob-ceska-lipa.html","148"
"16","Obchod","OD ANDY, s.r.o.","https://www.firmy.cz/detail/415601-od-andy-ceska-lipa.html","248"
"17","Sportoviště","Sport Česká Lípa","https://www.firmy.cz/detail/13082053-sport-ceska-lipa-ceska-lipa.html","555"
"18","Vlak","Česká Lípa střelnice","","842"
