"","facility_type","facility_name","facility_iri","facility_distance"
"0","Cukrárna","Dorty Kadlecovi","https://www.firmy.cz/detail/13327072-dorty-kadlecovi-tremosna-zaluzi.html","3400"
"1","Hřiště","Dětské hřiště Družstevní","","22"
"2","Večerka","COOP - TUTY","https://www.firmy.cz/detail/2160105-coop-tuty-horni-briza.html","208"
"3","Hospoda","Formanka Výčep","https://www.firmy.cz/detail/13119036-formanka-vycep-tremosna.html","3135"
"4","Divadlo","Divadelní spolek Osada Horní Bříza","https://www.firmy.cz/detail/12712011-divadelni-spolek-osada-horni-briza-horni-briza.html","198"
"5","Veterinář","Veterinární ordinace Horní Bříza","https://www.firmy.cz/detail/12706886-veterinarni-ordinace-horni-briza-horni-briza.html","1122"
"6","Školka","1. MŠ Horní Bříza","https://www.firmy.cz/detail/2380657-1-ms-horni-briza-horni-briza.html","181"
"7","Bus MHD","Horní Bříza, sídliště","","66"
"8","Restaurace","Český lev","https://www.firmy.cz/detail/288591-cesky-lev-horni-briza.html","349"
"9","Pošta","Pošta Horní Bříza - Česká pošta, s.p.","https://www.firmy.cz/detail/216626-posta-horni-briza-horni-briza.html","165"
"10","Bankomat","Bankomat České spořitelny","https://www.firmy.cz/detail/592165-bankomat-ceske-sporitelny-horni-briza.html","209"
"11","Škola","Masarykova ZŠ Horní Bříza","https://www.firmy.cz/detail/357166-masarykova-zs-horni-briza-horni-briza.html","130"
"12","Lékař","Evon Plus, s.r.o.","https://www.firmy.cz/detail/12864218-evon-plus-horni-briza.html","182"
"13","Vlak","Horní Bříza zastávka","","532"
"14","Sportoviště","Sportovní centrum Radek Bartoš","https://www.firmy.cz/detail/2669952-sportovni-centrum-radek-bartos-horni-briza.html","130"
"15","Lékárna","Lékárna V Lékařském domě","https://www.firmy.cz/detail/376255-lekarna-v-lekarskem-dome-horni-briza.html","182"
