"","facility_type","facility_name","facility_iri","facility_distance"
"0","Hřiště","Dětské hřiště Pod Javory","https://mapy.cz/zakladni?x=16.6558877079&y=49.3531149516&z=17&source=base&id=2120892","156"
"1","Večerka","Albert Supermarket","https://www.firmy.cz/detail/446673-albert-supermarket-blansko.html","456"
"2","Hospoda","Pivní bar Probe","https://www.firmy.cz/detail/675647-pivni-bar-probe-blansko.html","413"
"3","Kino","Kino Blansko","https://www.firmy.cz/detail/2697628-kino-blansko-blansko.html","1019"
"4","Veterinář","MVDr. Leopold Šaršon","https://www.firmy.cz/detail/682106-mvdr-leopold-sarson-blansko.html","1126"
"5","Cukrárna","V pohádce - cukrárna a kavárna","https://www.firmy.cz/detail/12906139-v-pohadce-cukrarna-a-kavarna-blansko.html","567"
"6","Bus MHD","Blansko, ČKD ředitelství","https://mapy.cz/zakladni?x=16.6564182503&y=49.3497564819&z=17&source=pubt&id=15217996","224"
"7","Škola","Obchodní akademie a Střední zdravotnická škola Blansko","https://www.firmy.cz/detail/362552-obchodni-akademie-a-stredni-zdravotnicka-skola-blansko-blansko.html","49"
"8","Školka","MŠ Blansko, Údolní","https://www.firmy.cz/detail/2152627-ms-blansko-udolni-blansko.html","527"
"9","Lékař","MUDr. Ivana Hodaňová","https://www.firmy.cz/detail/13054465-mudr-ivana-hodanova-blansko.html","713"
"10","Sportoviště","Squash Blansko","https://www.firmy.cz/detail/13081845-squash-blansko-blansko.html","530"
"11","Restaurace","Pivnice Písečná","https://www.firmy.cz/detail/12972828-pivnice-pisecna-blansko.html","323"
"12","Bankomat","Bankomat České spořitelny","https://www.firmy.cz/detail/12838486-bankomat-ceske-sporitelny-blansko.html","456"
"13","Pošta","Pošta Blansko 1 - Česká pošta, s.p.","https://www.firmy.cz/detail/216121-posta-blansko-1-blansko.html","661"
"14","Lékárna","Lékárna SVITAVA","https://www.firmy.cz/detail/2331346-lekarna-svitava-blansko.html","887"
"15","Vlak","Blansko","https://mapy.cz/zakladni?x=16.6478145706&y=49.3520901578&z=17&source=pubt&id=15698605","572"
"16","Obchod","Kaufland","https://www.firmy.cz/detail/1356304-kaufland-blansko.html","2281"
