"","facility_type","facility_name","facility_iri","facility_distance"
"0","Cukrárna","Restaurace a kavárna  BO ASI !","https://www.firmy.cz/detail/12961112-restaurace-a-kavarna-bo-asi-ostrava-marianske-hory.html","718"
"1","Kino","Kino Art","https://www.firmy.cz/detail/456913-kino-art-ostrava-moravska-ostrava.html","591"
"2","Přírodní zajímavost","Zábřežský bludný balvan","","3132"
"3","Hřiště","Dětské hřiště náměstí Jiřího Myrona","","352"
"4","Večerka","HRUŠKA","https://www.firmy.cz/detail/12820425-hruska-ostrava-moravska-ostrava.html","161"
"5","Hospoda","Restaurace Na Šalamouně","https://www.firmy.cz/detail/13149925-restaurace-na-salamoune-ostrava-moravska-ostrava.html","397"
"6","Divadlo","Divadlo Petra Bezruče","https://www.firmy.cz/detail/475774-divadlo-petra-bezruce-ostrava-moravska-ostrava.html","626"
"7","Veterinář","Veterinární ordinace - MVDr. Richard Saviola","https://www.firmy.cz/detail/477150-veterinarni-ordinace-mvdr-richard-saviola-ostrava-moravska-ostrava.html","607"
"8","Bus MHD","Na Jízdárně","","25"
"9","Lékař","ADAMED spol. s r.o.","https://www.firmy.cz/detail/12764579-adamed-spol-s-r-o-ostrava-moravska-ostrava.html","273"
"10","Restaurace","Miroslava Roušarová - Restaurace","https://www.firmy.cz/detail/13113890-miroslava-rousarova-restaurace-ostrava-moravska-ostrava.html","172"
"11","Tram","Dolní Vítkovice Hlubina","","446"
"12","Sportoviště","Bumper Games","https://www.firmy.cz/detail/12906857-bumper-games-ostrava-moravska-ostrava.html","236"
"13","Škola","Střední škola elektrotechnická Ostrava","https://www.firmy.cz/detail/361237-stredni-skola-elektrotechnicka-ostrava-ostrava-moravska-ostrava.html","84"
"14","Školka","MŠ Ostrava, Hornická","https://www.firmy.cz/detail/2152844-ms-ostrava-hornicka-ostrava-moravska-ostrava.html","66"
"15","Bankomat","Bankomat České spořitelny","https://www.firmy.cz/detail/13169998-bankomat-ceske-sporitelny-ostrava-moravska-ostrava.html","418"
"16","Pošta","Pošta Ostrava 41 - Česká pošta, s.p.","https://www.firmy.cz/detail/433369-posta-ostrava-41-ostrava-moravska-ostrava.html","419"
"17","Vlak","Ostrava střed","","864"
"18","Obchod","Kaufland","https://www.firmy.cz/detail/1534393-kaufland-ostrava-moravska-ostrava.html","693"
"19","Lékárna","Lékárna VESALION","https://www.firmy.cz/detail/12797712-lekarna-vesalion-ostrava-moravska-ostrava.html","636"
