"","facility_type","facility_name","facility_iri","facility_distance"
"0","Cukrárna","Kavárna Zvěřinec","https://www.firmy.cz/detail/13208912-kavarna-zverinec-usti-nad-labem-klise.html","330"
"1","Kino","Letní kino Ústí nad Labem","https://www.firmy.cz/detail/2556284-letni-kino-usti-nad-labem-usti-nad-labem.html","1838"
"2","Hřiště","Dětské hřiště Pod Holoměří","","492"
"3","Večerka","Gastrotoulky","https://www.firmy.cz/detail/13086238-gastrotoulky-usti-nad-labem-klise.html","575"
"4","Divadlo","Severočeské divadlo, s.r.o.","https://www.firmy.cz/detail/12720983-severoceske-divadlo-usti-nad-labem-centrum.html","2094"
"5","Hospoda","Sport PUB Irská","https://www.firmy.cz/detail/13108751-sport-pub-irska-usti-nad-labem-klise.html","348"
"6","Veterinář","Veterinární klinika Helion","https://www.firmy.cz/detail/12987940-veterinarni-klinika-helion-usti-nad-labem-centrum.html","425"
"7","Bus MHD","Městský stadion","","17"
"8","Lékař","MUDr. Petr Kožoušek","https://www.firmy.cz/detail/386605-mudr-petr-kozousek-usti-nad-labem-klise.html","309"
"9","Školka","Mateřská škola, Ústí nad Labem, Vinařská 737/10, příspěvková organizace","https://www.firmy.cz/detail/1319185-materska-skola-usti-nad-labem-vinarska-737-10-prispevkova-organizace-usti-nad-labem-bukov.html","445"
"10","Lékárna","Lékárna Herbenova","https://www.firmy.cz/detail/2635322-lekarna-herbenova-usti-nad-labem-klise.html","368"
"11","Pošta","Pošta Ústí nad Labem 8 - Česká pošta, s.p.","https://www.firmy.cz/detail/215955-posta-usti-nad-labem-8-usti-nad-labem-klise.html","798"
"12","Bankomat","Bankomat ČSOB","https://www.firmy.cz/detail/12965696-bankomat-csob-usti-nad-labem-klise.html","238"
"13","Sportoviště","Beach Aréna Ústí, z.s.","https://www.firmy.cz/detail/12886549-beach-arena-usti-z-s-usti-nad-labem.html","119"
"14","Obchod","Kaufland","https://www.firmy.cz/detail/1445916-kaufland-usti-nad-labem-centrum.html","1387"
"15","Vlak","Ústí nad Labem západ","","2096"
"16","Škola","ZŠ Ústí nad Labem, Vinařská","https://www.firmy.cz/detail/359876-zs-usti-nad-labem-vinarska-usti-nad-labem-klise.html","332"
"17","Restaurace","Retros Steakhouse","https://www.firmy.cz/detail/13101705-retros-steakhouse-usti-nad-labem-klise.html","45"
