"","facility_type","facility_name","facility_iri","facility_distance"
"0","Cukrárna","Čauky mňauky cafe","https://www.firmy.cz/detail/13057787-cauky-mnauky-cafe-ostrava-moravska-ostrava.html","695"
"1","Kino","Kino vesmír","https://www.firmy.cz/detail/12980428-kino-vesmir-ostrava-moravska-ostrava.html","939"
"2","Hřiště","Dětské hřiště Sadová","","314"
"3","Přírodní zajímavost","Uhelná sloj v Landeku","","2745"
"4","Večerka","DUKA Potraviny","https://www.firmy.cz/detail/12998172-duka-potraviny-ostrava-moravska-ostrava.html","37"
"5","Divadlo","Divadlo 12","https://www.firmy.cz/detail/13216354-divadlo-12-ostrava-moravska-ostrava.html","966"
"6","Hospoda","Petr Prášil","https://www.firmy.cz/detail/13109474-petr-prasil-ostrava-moravska-ostrava.html","398"
"7","Veterinář","VETPARK Ostrava, s.r.o.","https://www.firmy.cz/detail/13308555-vetpark-ostrava-ostrava-moravska-ostrava.html","462"
"8","Obchod","Obchodní centrum LASO","https://www.firmy.cz/detail/2071391-obchodni-centrum-laso-ostrava-moravska-ostrava.html","1064"
"9","Restaurace","Hospůdka U Sokola","https://www.firmy.cz/detail/13134353-hospudka-u-sokola-ostrava-moravska-ostrava.html","80"
"10","Bus MHD","Hornická poliklinika","","55"
"11","Škola","OIS-Ostrčilova International School","https://www.firmy.cz/detail/358667-ois-ostrcilova-international-school-ostrava-moravska-ostrava.html","360"
"12","Školka","MŠ Ostrava, Křižíkova","https://www.firmy.cz/detail/2142452-ms-ostrava-krizikova-ostrava-moravska-ostrava.html","238"
"13","Tram","Křižíkova","","423"
"14","Pošta","Pošta Ostrava 40 - Česká pošta, s.p.","https://www.firmy.cz/detail/433366-posta-ostrava-40-ostrava-moravska-ostrava.html","67"
"15","Lékárna","BENU Lékárna","https://www.firmy.cz/detail/12933406-benu-lekarna-ostrava-moravska-ostrava.html","60"
"16","Bankomat","Bankomat České spořitelny","https://www.firmy.cz/detail/593836-bankomat-ceske-sporitelny-ostrava-moravska-ostrava.html","476"
"17","Sportoviště","Sokolská župa Moravskoslezská","https://www.firmy.cz/detail/1960110-sokolska-zupa-moravskoslezska-ostrava-moravska-ostrava.html","80"
"18","Lékař","AGEL Hornická poliklinika, s.r.o.","https://www.firmy.cz/detail/167935-agel-hornicka-poliklinika-ostrava-moravska-ostrava.html","122"
"19","Vlak","Ostrava-Stodolní","","1249"
