"","facility_type","facility_name","facility_iri","facility_distance"
"0","Hřiště","Dětské hřiště Helgoland","https://mapy.cz/zakladni?x=16.5862588889&y=49.1937672222&z=17&source=base&id=2005774","301"
"1","Večerka","Biopotraviny Gajdušková","https://www.firmy.cz/detail/12710853-biopotraviny-gajduskova-brno-veveri.html","656"
"2","Cukrárna","Tři ocásci","https://www.firmy.cz/detail/13301666-tri-ocasci-brno-veveri.html","581"
"3","Veterinář","Veterinární ordinace - MVDr. David Hanzlíček","https://www.firmy.cz/detail/725534-veterinarni-ordinace-mvdr-david-hanzlicek-brno-stranice.html","132"
"4","Hospoda","Pivnice Lucky Bastard Beerhouse","https://www.firmy.cz/detail/12969462-pivnice-lucky-bastard-beerhouse-brno-veveri.html","462"
"5","Divadlo","Studio Devítka","https://www.firmy.cz/detail/12922705-studio-devitka-brno-mesto.html","1317"
"6","Přírodní zajímavost","Koniklecová louka","https://mapy.cz/zakladni?x=16.5518474579&y=49.1834285644&z=17&source=base&id=1921318","2875"
"7","Kino","Kino Art","https://www.firmy.cz/detail/451540-kino-art-brno-veveri.html","1547"
"8","Restaurace","Restaurace Group JVI","https://www.firmy.cz/detail/13117492-restaurace-group-jvi-brno-stranice.html","311"
"9","Lékař","MUDr. Alžběta Kryštofová","https://www.firmy.cz/detail/387747-mudr-alzbeta-krystofova-brno-stranice.html","118"
"10","Bus MHD","Vaňkovo náměstí","https://mapy.cz/zakladni?x=16.585772&y=49.195411&z=17&source=pubt&id=17194388","119"
"11","Obchod","Obchodní dům Vágner","https://www.firmy.cz/detail/305250-obchodni-dum-vagner-brno-mesto.html","1471"
"12","Pošta","Pošta Brno 5 - Česká pošta, s.p.","https://www.firmy.cz/detail/1534294-posta-brno-5-brno-stranice.html","293"
"13","Sportoviště","Pétanque Helgoland","https://mapy.cz/zakladni?x=16.5857770688&y=49.1939735&z=17&source=base&id=2113127","278"
"14","Tram","Všetičkova","https://mapy.cz/zakladni?x=16.5887328601&y=49.1987761661&z=17&source=pubt&id=15205974","324"
"15","Školka","MŠ Brno, Všetičkova","https://www.firmy.cz/detail/662621-ms-brno-vsetickova-brno-stranice.html","248"
"16","Bankomat","Bankomat Komerční banky","https://www.firmy.cz/detail/13033864-bankomat-komercni-banky-brno-stare-brno.html","310"
"17","Vlak","Brno hlavní nádraží","https://mapy.cz/zakladni?x=16.6128016943&y=49.1905819126&z=17&source=pubt&id=15211057","2053"
"18","Škola","Mateřská škola a Základní škola Brno, Barvičova, příspěvková organizace","https://www.firmy.cz/detail/13043876-materska-skola-a-zakladni-skola-brno-barvicova-prispevkova-organizace-brno-stranice.html","415"
"19","Lékárna","Masarykův onkologický ústav, Ústavní lékárna","https://www.firmy.cz/detail/659884-masarykuv-onkologicky-ustav-ustavni-lekarna-brno-stare-brno.html","310"
