"","facility_type","facility_name","facility_iri","facility_distance"
"0","Cukrárna","Cukrarná Tarta","https://www.firmy.cz/detail/13061726-cukrarna-tarta-moravany.html","359"
"1","Přírodní zajímavost","Koniklecová louka","","4105"
"2","Hřiště","Dětské hřiště Moravany","","183"
"3","Večerka","Albert Supermarket","https://www.firmy.cz/detail/450071-albert-supermarket-brno-stary-liskovec.html","2186"
"4","Hospoda","Bohunická Rychta","https://www.firmy.cz/detail/13302567-bohunicka-rychta-brno-bohunice.html","2324"
"5","Divadlo","Malá Amerika","https://www.firmy.cz/detail/12926234-mala-amerika-brno-stare-brno.html","5283"
"6","Veterinář","ABClinic veterinární klinika","https://www.firmy.cz/detail/477132-abclinic-veterinarni-klinika-brno-stary-liskovec.html","2326"
"7","Škola","ZŠ Moravany","https://www.firmy.cz/detail/358295-zs-moravany-moravany.html","694"
"8","Školka","Mateřská škola Moravany, okres Brno-venkov","https://www.firmy.cz/detail/13283813-materska-skola-moravany-okres-brno-venkov-moravany.html","392"
"9","Bus MHD","Moravany, Nebovidská","","44"
"10","Restaurace","Moravanská rychta","https://www.firmy.cz/detail/13109220-moravanska-rychta-moravany.html","614"
"11","Sportoviště","Obec Moravany","https://www.firmy.cz/detail/13077450-obec-moravany-moravany.html","658"
"12","Pošta","Pošta Moravany u Brna - Česká pošta, s.p.","https://www.firmy.cz/detail/216068-posta-moravany-u-brna-moravany.html","591"
"13","Obchod","Tesco","https://www.firmy.cz/detail/451732-tesco-brno-dolni-herspice.html","2205"
"14","Lékař","HAMEDICAL, s.r.o.","https://www.firmy.cz/detail/13068586-hamedical-moravany.html","577"
"15","Tram","Osová","","2301"
"16","Bankomat","Bankomat ČSOB","https://www.firmy.cz/detail/599307-bankomat-csob-brno-dolni-herspice.html","2184"
"17","Vlak","Brno-Starý Lískovec","","1544"
"18","Lékárna","BENU Lékárna","https://www.firmy.cz/detail/13163105-benu-lekarna-brno-stary-liskovec.html","2230"
