"","facility_type","facility_name","facility_iri","facility_distance"
"0","Cukrárna","Cukrárna Lucijana","https://www.firmy.cz/detail/13120482-cukrarna-lucijana-benesov.html","339"
"1","Kino","Kino Benešov","https://www.firmy.cz/detail/1888516-kino-benesov-benesov.html","542"
"2","Hřiště","Dětské hřiště Jiřího Horáka","","56"
"3","Večerka","JEDNOTA Benešov - COOP","https://www.firmy.cz/detail/2345607-jednota-benesov-coop-benesov.html","128"
"4","Hospoda","Knajpa U Čápa","https://www.firmy.cz/detail/13120497-knajpa-u-capa-benesov.html","156"
"5","Divadlo","Městské divadlo Na Poště","https://www.firmy.cz/detail/2500055-mestske-divadlo-na-poste-benesov.html","373"
"6","Veterinář","Luděk Paleček","https://www.firmy.cz/detail/13080448-ludek-palecek-benesov.html","251"
"7","Restaurace","Restaurace U Stejskalů","https://www.firmy.cz/detail/2469589-restaurace-u-stejskalu-benesov.html","141"
"8","Škola","Vyšší odborná škola a Střední zemědělská škola, Benešov","https://www.firmy.cz/detail/362460-vyssi-odborna-skola-a-stredni-zemedelska-skola-benesov-benesov.html","272"
"9","Vlak","Benešov u Prahy","","714"
"10","Bankomat","Vkladomat mBank","https://www.firmy.cz/detail/13133134-vkladomat-mbank-benesov.html","137"
"11","Obchod","Green Park Benešov","https://www.firmy.cz/detail/13186353-green-park-benesov-benesov.html","375"
"12","Bus MHD","Benešov, Pražská","","167"
"13","Lékař","Vaše ambulance, s.r.o.","https://www.firmy.cz/detail/303762-vase-ambulance-benesov.html","185"
"14","Sportoviště","BIOS koupaliště","https://www.firmy.cz/detail/13214567-bios-koupaliste-benesov.html","250"
"15","Školka","Školička Domeček","https://www.firmy.cz/detail/12803998-skolicka-domecek-benesov.html","183"
"16","Lékárna","Lékárna ALMA","https://www.firmy.cz/detail/1977052-lekarna-alma-benesov.html","161"
"17","Pošta","Pošta Benešov u Prahy - Česká pošta, s.p.","https://www.firmy.cz/detail/216759-posta-benesov-u-prahy-benesov.html","534"
