"","facility_type","facility_name","facility_iri","facility_distance"
"0","Cukrárna","Kavárna PRAHA","https://www.firmy.cz/detail/2603760-kavarna-praha-usti-nad-labem-strekov.html","1292"
"1","Hřiště","Dětské hřiště Jeseninova","","720"
"2","Kino","Cinema City Ústí nad Labem","https://www.firmy.cz/detail/2679909-cinema-city-usti-nad-labem-usti-nad-labem-centrum.html","1820"
"3","Večerka","Můj obchod - AD supermarket","https://www.firmy.cz/detail/13262871-muj-obchod-ad-supermarket-usti-nad-labem-strekov.html","142"
"4","Hospoda","Hospůdka u Nebožtíka","https://www.firmy.cz/detail/13107561-hospudka-u-neboztika-usti-nad-labem-strekov.html","747"
"5","Divadlo","Činoherní studio města Ústí nad Labem","https://www.firmy.cz/detail/13085276-cinoherni-studio-mesta-usti-nad-labem-usti-nad-labem-strekov.html","1146"
"6","Veterinář","MVDr. Václav Poživil","https://www.firmy.cz/detail/639726-mvdr-vaclav-pozivil-usti-nad-labem-strekov.html","982"
"7","Bankomat","Bankomat Komerční banky","https://www.firmy.cz/detail/13031349-bankomat-komercni-banky-usti-nad-labem-strekov.html","146"
"8","Školka","Mateřská škola  V Zeleni","https://www.firmy.cz/detail/13211169-materska-skola-v-zeleni-usti-nad-labem-strekov.html","145"
"9","Restaurace","Restaurace Pod Vyhlídkou","https://www.firmy.cz/detail/13135561-restaurace-pod-vyhlidkou-usti-nad-labem-strekov.html","290"
"10","Bus MHD","Novosedlické náměstí","","186"
"11","Lékař","MUDr. Věra Doutnáčová","https://www.firmy.cz/detail/388698-mudr-vera-doutnacova-usti-nad-labem-strekov.html","145"
"12","Sportoviště","Lasergame Ústí","https://www.firmy.cz/detail/13279832-lasergame-usti-usti-nad-labem-strekov.html","509"
"13","Vlak","Ústí nad Labem-Střekov","","712"
"14","Pošta","Pošta Ústí nad Labem 6 - Česká pošta, s.p.","https://www.firmy.cz/detail/215957-posta-usti-nad-labem-6-usti-nad-labem-strekov.html","775"
"15","Obchod","Forum Ústí nad Labem","https://www.firmy.cz/detail/13270111-forum-usti-nad-labem-usti-nad-labem-centrum.html","1667"
"16","Škola","ZŠ Ústí nad Labem, Karla IV.","https://www.firmy.cz/detail/359864-zs-usti-nad-labem-karla-iv-usti-nad-labem-strekov.html","338"
"17","Lékárna","Dr. Max LÉKÁRNA","https://www.firmy.cz/detail/12942271-dr-max-lekarna-usti-nad-labem-centrum.html","1667"
