"","facility_type","facility_name","facility_iri","facility_distance"
"0","Cukrárna","Kamila Lakomá - Cukrárna Kamila","https://www.firmy.cz/detail/13109789-kamila-lakoma-cukrarna-kamila-nove-mesto-nad-metuji.html","950"
"1","Kino","Kino 70","https://www.firmy.cz/detail/12955067-kino-70-nove-mesto-nad-metuji.html","183"
"2","Hřiště","Dětské hřiště T. G. Masaryka","","312"
"3","Večerka","Smíšené zboží Komenského 28","https://www.firmy.cz/detail/13059124-smisene-zbozi-komenskeho-28-nove-mesto-nad-metuji.html","295"
"4","Hospoda","Hospoda na Bačce","https://www.firmy.cz/detail/13063875-hospoda-na-bacce-pribyslav.html","2968"
"5","Veterinář","Veterinární ordinace Na Skalách - MVDr. Stanislav Počta, Ph. D.","https://www.firmy.cz/detail/2129271-veterinarni-ordinace-na-skalach-mvdr-stanislav-pocta-ph-d-nove-mesto-nad-metuji.html","29"
"6","Vlak","Nové Město nad Metují","","666"
"7","Bus MHD","Nové Město nad Metují, slévárna","","211"
"8","Školka","Mateřská škola a Základní škola speciální NONA, o.p.s.","https://www.firmy.cz/detail/12934095-materska-skola-a-zakladni-skola-specialni-nona-nove-mesto-nad-metuji.html","168"
"9","Bankomat","Bankomat MONETA Money Bank","https://www.firmy.cz/detail/2396828-bankomat-moneta-money-bank-nove-mesto-nad-metuji.html","311"
"10","Sportoviště","Orel -  jednota Nové Město nad Metují","https://www.firmy.cz/detail/2294016-orel-jednota-nove-mesto-nad-metuji-nove-mesto-nad-metuji.html","376"
"11","Restaurace","Bowling Na Rychtě","https://www.firmy.cz/detail/13012482-bowling-na-rychte-nove-mesto-nad-metuji.html","276"
"12","Škola","Mateřská škola a Základní škola speciální NONA, o.p.s.","https://www.firmy.cz/detail/1315536-materska-skola-a-zakladni-skola-specialni-nona-nove-mesto-nad-metuji.html","168"
"13","Pošta","Pošta Nové Město nad Metují 1 - Česká pošta, s.p.","https://www.firmy.cz/detail/215653-posta-nove-mesto-nad-metuji-1-nove-mesto-nad-metuji.html","699"
"14","Lékař","MUDr. Kateřina Javorská","https://www.firmy.cz/detail/2606498-mudr-katerina-javorska-nove-mesto-nad-metuji.html","300"
"15","Lékárna","U Černého orla","https://www.firmy.cz/detail/422020-u-cerneho-orla-nove-mesto-nad-metuji.html","300"
