"","facility_type","facility_name","facility_iri","facility_distance"
"0","Cukrárna","TRIO MALÝ HÁJ","https://www.firmy.cz/detail/13182793-trio-maly-haj-praha-dolni-mecholupy.html","200"
"1","Kino","Multikino - Premiere Cinemas Praha Hostivař","https://www.firmy.cz/detail/12745547-multikino-premiere-cinemas-praha-hostivar-praha-hostivar.html","2851"
"2","Přírodní zajímavost","Mokřad Triangl","","2421"
"3","Hřiště","Dětské hřiště Kryšpínova","","63"
"4","Večerka","Iceland","https://www.firmy.cz/detail/13189292-iceland-praha-sterboholy.html","286"
"5","Hospoda","Pivnice U Tomáše","https://www.firmy.cz/detail/13232026-pivnice-u-tomase-praha-dolni-mecholupy.html","1033"
"6","Divadlo","Loutkové divadlo Frydolín","https://www.firmy.cz/detail/397086-loutkove-divadlo-frydolin-praha-hostivar.html","1614"
"7","Veterinář","Veterinární ordinace MiaVet","https://www.firmy.cz/detail/13239222-veterinarni-ordinace-miavet-praha-dolni-mecholupy.html","761"
"8","Bankomat","Bankomat ČSOB","https://www.firmy.cz/detail/13252357-bankomat-csob-praha-sterboholy.html","299"
"9","Lékař","Dolnoměcholupská zdravotní s.r.o.","https://www.firmy.cz/detail/12839032-dolnomecholupska-zdravotni-s-r-o-praha-dolni-mecholupy.html","840"
"10","Sportoviště","Jump Jump Jump","https://www.firmy.cz/detail/13316342-jump-jump-jump-praha-sterboholy.html","252"
"11","Bus MHD","Kutnohorská","","122"
"12","Lékárna","Dr.Max LÉKÁRNA","https://www.firmy.cz/detail/13207587-dr-max-lekarna-praha-sterboholy.html","390"
"13","Obchod","Štěrboholy Retail Park","https://www.firmy.cz/detail/13185713-sterboholy-retail-park-praha.html","286"
"14","Školka","MŠ Praha 10, Pod Areálem","https://www.firmy.cz/detail/12897831-ms-praha-10-pod-arealem-praha-sterboholy.html","583"
"15","Restaurace","Restaurace Gourmet","https://www.firmy.cz/detail/13192897-restaurace-gourmet-praha.html","213"
"16","Metro","Depo Hostivař","","2855"
"17","Pošta","Pošta Dolní Měcholupy - Česká pošta, s.p.","https://www.firmy.cz/detail/217156-posta-dolni-mecholupy-praha-dolni-mecholupy.html","840"
"18","Tram","Nádraží Hostivař","","1710"
"19","Vlak","Praha-Hostivař","","1527"
"20","Škola","ZŠ a MŠ Praha 10, U Školy","https://www.firmy.cz/detail/358951-zs-a-ms-praha-10-u-skoly-praha-sterboholy.html","587"
