"","facility_type","facility_name","facility_iri","facility_distance"
"0","Hřiště","Dětské hřiště Severní Terasa","https://mapy.cz/zakladni?x=14.0310298316&y=50.6809811019&z=17&source=base&id=1928351","367"
"1","Hospoda","Sport Pivnice Dřevák","https://www.firmy.cz/detail/12895702-sport-pivnice-drevak-usti-nad-labem-severni-terasa.html","360"
"2","Večerka","NORMA","https://www.firmy.cz/detail/2182325-norma-usti-nad-labem-severni-terasa.html","157"
"3","Veterinář","Veterinární klinika Mi-Vet","https://www.firmy.cz/detail/177515-veterinarni-klinika-mi-vet-usti-nad-labem-severni-terasa.html","397"
"4","Kino","Letní kino Ústí nad Labem","https://www.firmy.cz/detail/2556284-letni-kino-usti-nad-labem-usti-nad-labem.html","1511"
"5","Cukrárna","Rodinné centrum Pampalánie","https://www.firmy.cz/detail/12952995-rodinne-centrum-pampalanie-usti-nad-labem-severni-terasa.html","604"
"6","Divadlo","Severočeské divadlo, s.r.o.","https://www.firmy.cz/detail/12720983-severoceske-divadlo-usti-nad-labem-centrum.html","1993"
"7","Lékař","MUDr. Jurčová PRAKTIK, s.r.o.","https://www.firmy.cz/detail/12842636-mudr-jurcova-praktik-usti-nad-labem-severni-terasa.html","674"
"8","Bus MHD","Elba","https://mapy.cz/zakladni?x=14.03572654864444&y=50.678209887968485&z=17&source=pubt&id=15203573","154"
"9","Pošta","Pošta Ústí nad Labem 11 - Česká pošta, s.p.","https://www.firmy.cz/detail/215961-posta-usti-nad-labem-11-usti-nad-labem-severni-terasa.html","379"
"10","Školka","MŠ Stříbrníky Ústí nad Labem","https://www.firmy.cz/detail/1620084-ms-stribrniky-usti-nad-labem-usti-nad-labem-severni-terasa.html","483"
"11","Bankomat","Vkladomat České spořitelny","https://www.firmy.cz/detail/13238685-vkladomat-ceske-sporitelny-usti-nad-labem-severni-terasa.html","222"
"12","Sportoviště","SK Severák Ústí nad Labem","https://www.firmy.cz/detail/2650599-sk-severak-usti-nad-labem-usti-nad-labem-severni-terasa.html","421"
"13","Vlak","Ústí nad Labem hlavní nádraží","https://mapy.cz/zakladni?x=14.0445763365&y=50.6594875336&z=17&source=pubt&id=15213131","2210"
"14","Lékárna","Dr. Max","https://www.firmy.cz/detail/12857068-dr-max-usti-nad-labem-severni-terasa.html","222"
"15","Škola","Gymnázium a Střední odborná škola dr. Václava Šmejkala, Ústí nad Labem","https://www.firmy.cz/detail/361796-gymnazium-a-stredni-odborna-skola-dr-vaclava-smejkala-usti-nad-labem-usti-nad-labem-severni-terasa.html","191"
"16","Obchod","Albert Hypermarket","https://www.firmy.cz/detail/229751-albert-hypermarket-usti-nad-labem-severni-terasa.html","222"
"17","Restaurace","Pizzeria Pam Pam","https://www.firmy.cz/detail/2238045-pizzeria-pam-pam-usti-nad-labem-severni-terasa.html","199"
