"","facility_type","facility_name","facility_iri","facility_distance"
"0","Cukrárna","Cukrárna Romance","https://www.firmy.cz/detail/12848570-cukrarna-romance-duchcov.html","974"
"1","Kino","Kino Lípa","https://www.firmy.cz/detail/457437-kino-lipa-duchcov.html","361"
"2","Přírodní zajímavost","Osecký dub","","4654"
"3","Hřiště","Dětské hřiště Park u Barbory","","502"
"4","Večerka","Smíšené zboží Ferrerova 2","https://www.firmy.cz/detail/12752463-smisene-zbozi-ferrerova-2-duchcov.html","317"
"5","Hospoda","Restaurace Vyšehrad","https://www.firmy.cz/detail/13115016-restaurace-vysehrad-duchcov.html","962"
"6","Divadlo","Divadlo M","https://www.firmy.cz/detail/413050-divadlo-m-duchcov.html","551"
"7","Veterinář","MVDr. Pavel Gabriel","https://www.firmy.cz/detail/2132088-mvdr-pavel-gabriel-duchcov.html","394"
"8","Vlak","Želénky","","1998"
"9","Pošta","Pošta Duchcov - Česká pošta, s.p.","https://www.firmy.cz/detail/215441-posta-duchcov-duchcov.html","754"
"10","Škola","Střední škola stavební a strojní, Teplice","https://www.firmy.cz/detail/2658491-stredni-skola-stavebni-a-strojni-teplice-duchcov.html","25"
"11","Bus MHD","Duchcov, kino","","384"
"12","Lékař","MUDr. Magdalena Mühlbauerová","https://www.firmy.cz/detail/387828-mudr-magdalena-muhlbauerova-duchcov.html","395"
"13","Lékárna","Alfa","https://www.firmy.cz/detail/13204014-alfa-duchcov.html","539"
"14","Restaurace","TURBO PIZZA","https://www.firmy.cz/detail/13269313-turbo-pizza-duchcov.html","577"
"15","Bankomat","Bankomat České spořitelny","https://www.firmy.cz/detail/13277414-bankomat-ceske-sporitelny-duchcov.html","304"
"16","Školka","Mateřská škola Duchcov, Husova ul. 99/23","https://www.firmy.cz/detail/486756-materska-skola-duchcov-husova-ul-99-23-duchcov.html","490"
"17","Sportoviště","Discgolfové hřiště Duchcov","","1020"
