"","facility_type","facility_name","facility_iri","facility_distance"
"0","Hřiště","Dětské hřiště Velká Losenice","","282"
"1","Večerka","Flop","https://www.firmy.cz/detail/265952-flop-velka-losenice.html","234"
"2","Sportoviště","TJ Velká Losenice","https://www.firmy.cz/detail/13077465-tj-velka-losenice-velka-losenice.html","269"
"3","Restaurace","Restaurace Velká Losenice","https://www.firmy.cz/detail/13114485-restaurace-velka-losenice-velka-losenice.html","144"
"4","Škola","ZŠ a MŠ Velká Losenice","https://www.firmy.cz/detail/359939-zs-a-ms-velka-losenice-velka-losenice.html","906"
"5","Vlak","Sázava u Žďáru","","1924"
"6","Lékař","MUDr. František Malý","https://www.firmy.cz/detail/12921011-mudr-frantisek-maly-velka-losenice.html","578"
"7","Bus MHD","Velká Losenice","","273"
"8","Pošta","Pošta Velká Losenice - Česká pošta, s.p.","https://www.firmy.cz/detail/216160-posta-velka-losenice-velka-losenice.html","170"
"9","Školka","ZŠ a MŠ Velká Losenice","https://www.firmy.cz/detail/724380-zs-a-ms-velka-losenice-velka-losenice.html","906"
