"","facility_type","facility_name","facility_iri","facility_distance"
"0","Cukrárna","Cukrárna Lada","https://www.firmy.cz/detail/12915655-cukrarna-lada-havirov-sumbark.html","1708"
"1","Kino","Letní kino - Městské kulturní středisko Havířov","https://www.firmy.cz/detail/13072791-letni-kino-havirov.html","1489"
"2","Hřiště","Dětské hřiště","","661"
"3","Večerka","HRUŠKA","https://www.firmy.cz/detail/12892231-hruska-havirov-sumbark.html","244"
"4","Hospoda","Hospůdka na hřišti","https://www.firmy.cz/detail/13128587-hospudka-na-hristi-havirov-sumbark.html","826"
"5","Veterinář","Veterinární klinika ANIVET - MVDr. Zbyněk Horák","https://www.firmy.cz/detail/1969639-veterinarni-klinika-anivet-mvdr-zbynek-horak-havirov-sumbark.html","511"
"6","Lékař","MUDr. René Turčínek","https://www.firmy.cz/detail/387379-mudr-rene-turcinek-havirov-sumbark.html","532"
"7","Školka","MŠ Havířov","https://www.firmy.cz/detail/2333584-ms-havirov-havirov-sumbark.html","218"
"8","Sportoviště","Sportovní Centrum ProCE TRADE","https://www.firmy.cz/detail/708439-sportovni-centrum-proce-trade-havirov-sumbark.html","453"
"9","Bankomat","Bankomat České spořitelny","https://www.firmy.cz/detail/2464983-bankomat-ceske-sporitelny-havirov-sumbark.html","659"
"10","Bus MHD","Havířov, Šumbark, mateřská škola","","183"
"11","Restaurace","Restaurace Marie Pujmanové 	1118","https://www.firmy.cz/detail/13139774-restaurace-marie-pujmanove-1118-havirov-sumbark.html","357"
"12","Obchod","Tesco","https://www.firmy.cz/detail/218205-tesco-havirov-mesto.html","1357"
"13","Lékárna","LÉKÁRNA ŠUMBARK","https://www.firmy.cz/detail/13204260-lekarna-sumbark-havirov-sumbark.html","504"
"14","Škola","ZŠ Havířov - Šumbark","https://www.firmy.cz/detail/357060-zs-havirov-sumbark-havirov-sumbark.html","540"
"15","Pošta","Pošta Havířov 3 - Česká pošta, s.p.","https://www.firmy.cz/detail/431629-posta-havirov-3-havirov-sumbark.html","373"
"16","Vlak","Havířov","","839"
