"","facility_type","facility_name","facility_iri","facility_distance"
"0","Cukrárna","Cukrárna Jane","https://www.firmy.cz/detail/12799909-cukrarna-jane-havlickuv-brod.html","299"
"1","Kino","Městské kino Ostrov","https://www.firmy.cz/detail/396776-mestske-kino-ostrov-havlickuv-brod.html","423"
"2","Hřiště","Dětské hřiště Na Hradbách","","202"
"3","Večerka","BILLA","https://www.firmy.cz/detail/450544-billa-havlickuv-brod.html","191"
"4","Hospoda","SH ČMS - Sbor dobrovolných hasičů Břevnice","https://www.firmy.cz/detail/13138483-sh-cms-sbor-dobrovolnych-hasicu-brevnice-brevnice.html","4043"
"5","Divadlo","Městské divadlo a kino Ostrov","https://www.firmy.cz/detail/12957050-mestske-divadlo-a-kino-ostrov-havlickuv-brod.html","423"
"6","Veterinář","ANIVET, s.r.o.","https://www.firmy.cz/detail/12766881-anivet-havlickuv-brod.html","123"
"7","Lékárna","Dr.Max LÉKÁRNA","https://www.firmy.cz/detail/12725681-dr-max-lekarna-havlickuv-brod.html","375"
"8","Pošta","Pošta Havlíčkův Brod 2 - Česká pošta, s.p.","https://www.firmy.cz/detail/215763-posta-havlickuv-brod-2-havlickuv-brod.html","387"
"9","Bus MHD","Havlíčkův Brod, Masarykova","","72"
"10","Lékař","Praktik HB, s.r.o.","https://www.firmy.cz/detail/13295806-praktik-hb-havlickuv-brod.html","162"
"11","Vlak","Havlíčkův Brod","","1023"
"12","Restaurace","Formanka HB, s.r.o.","https://www.firmy.cz/detail/13279978-formanka-hb-havlickuv-brod.html","208"
"13","Obchod","Kaufland","https://www.firmy.cz/detail/2099014-kaufland-havlickuv-brod.html","775"
"14","Školka","MŠ Korálky, Havlíčkův Brod, Nad Tratí","https://www.firmy.cz/detail/2152848-ms-koralky-havlickuv-brod-nad-trati-havlickuv-brod.html","412"
"15","Sportoviště","Sport studio","https://www.firmy.cz/detail/580857-sport-studio-havlickuv-brod.html","253"
"16","Škola","Střední průmyslová škola stavební akademika Stanislava Bechyně Havlíčkův Brod","https://www.firmy.cz/detail/307995-stredni-prumyslova-skola-stavebni-akademika-stanislava-bechyne-havlickuv-brod-havlickuv-brod.html","269"
"17","Bankomat","Bankomat Fio banky","https://www.firmy.cz/detail/12776676-bankomat-fio-banky-havlickuv-brod.html","299"
