"","facility_type","facility_name","facility_iri","facility_distance"
"0","Cukrárna","Cukrárna Větrník - OC Campus Square","https://www.firmy.cz/detail/13033479-cukrarna-vetrnik-oc-campus-square-brno-bohunice.html","607"
"1","Kino","Brno Autokino","https://www.firmy.cz/detail/13328637-brno-autokino-brno-pisarky.html","1261"
"2","Přírodní zajímavost","Koniklecová louka","","788"
"3","Hřiště","Dětské hřiště Zoubkova","","65"
"4","Večerka","Albert Supermarket","https://www.firmy.cz/detail/446711-albert-supermarket-brno-novy-liskovec.html","737"
"5","Hospoda","STARÁ HOSPODA","https://www.firmy.cz/detail/2119066-stara-hospoda-brno-novy-liskovec.html","197"
"6","Divadlo","Divadlo Strom","https://www.firmy.cz/detail/12762146-divadlo-strom-brno-zabovresky.html","3390"
"7","Veterinář","LABtechnik, s.r.o.","https://www.firmy.cz/detail/2524009-labtechnik-brno-bohunice.html","813"
"8","Škola","Bezpečnostně právní akademie Brno, s.r.o.","https://www.firmy.cz/detail/361605-bezpecnostne-pravni-akademie-brno-brno-novy-liskovec.html","124"
"9","Tram","Pisárky","","1338"
"10","Pošta","Pošta Brno 34 - Česká pošta, s.p.","https://www.firmy.cz/detail/431940-posta-brno-34-brno-novy-liskovec.html","631"
"11","Bus MHD","Raisova","","18"
"12","Lékař","MUDr. Valentová Vendula","https://www.firmy.cz/detail/13288197-mudr-valentova-vendula-brno-novy-liskovec.html","93"
"13","Restaurace","BARKA","https://www.firmy.cz/detail/13119595-barka-brno-novy-liskovec.html","103"
"14","Bankomat","Bankomat České spořitelny","https://www.firmy.cz/detail/2464773-bankomat-ceske-sporitelny-brno-bohunice.html","585"
"15","Sportoviště","Brněnská asociace futsalu","https://www.firmy.cz/detail/1163180-brnenska-asociace-futsalu-brno-novy-liskovec.html","202"
"16","Lékárna","Dr. Max","https://www.firmy.cz/detail/13001175-dr-max-brno-bohunice.html","648"
"17","Školka","MŠ Vážka, Brno - Rybnická","https://www.firmy.cz/detail/1446926-ms-vazka-brno-rybnicka-brno-novy-liskovec.html","41"
"18","Obchod","Tesco","https://www.firmy.cz/detail/2358576-tesco-brno-bohunice.html","572"
"19","Vlak","Brno-Starý Lískovec","","2297"
