"","facility_type","facility_name","facility_iri","facility_distance"
"0","Cukrárna","Cafe Miller","https://www.firmy.cz/detail/13017560-cafe-miller-kladno-krocehlavy.html","336"
"1","Kino","Kino Hutník","https://www.firmy.cz/detail/396729-kino-hutnik-kladno-krocehlavy.html","2096"
"2","Hřiště","Dětské hřiště U Pražanky","","310"
"3","Večerka","Potraviny Litevská","https://www.firmy.cz/detail/13321563-potraviny-litevska-kladno-krocehlavy.html","213"
"4","Hospoda","Pivnice U Matěje","https://www.firmy.cz/detail/745390-pivnice-u-mateje-kladno-krocehlavy.html","285"
"5","Divadlo","Městské divadlo Kladno","https://www.firmy.cz/detail/1970001-mestske-divadlo-kladno-kladno.html","2252"
"6","Veterinář","MVDr. Petr Prokeš","https://www.firmy.cz/detail/592518-mvdr-petr-prokes-kladno-krocehlavy.html","606"
"7","Restaurace","Pizza TOP","https://www.firmy.cz/detail/13209602-pizza-top-kladno-krocehlavy.html","333"
"8","Školka","Mateřská škola Čtyřlístek Kladno, Bulharská","https://www.firmy.cz/detail/731252-materska-skola-ctyrlistek-kladno-bulharska-kladno-krocehlavy.html","176"
"9","Bus MHD","Kladno, Okrsek 0","","285"
"10","Obchod","NC OAZA Kladno","https://www.firmy.cz/detail/2280913-nc-oaza-kladno-kladno-krocehlavy.html","551"
"11","Bankomat","Bankomat České spořitelny","https://www.firmy.cz/detail/591444-bankomat-ceske-sporitelny-kladno-krocehlavy.html","321"
"12","Lékárna","U Zlatého draka","https://www.firmy.cz/detail/376369-u-zlateho-draka-kladno-krocehlavy.html","521"
"13","Sportoviště","Víceúčelový sportovní areál Norská","https://www.firmy.cz/detail/13219361-viceucelovy-sportovni-areal-norska-kladno-krocehlavy.html","595"
"14","Škola","ZŠ a MŠ Kladno, Ukrajinská","https://www.firmy.cz/detail/356091-zs-a-ms-kladno-ukrajinska-kladno-krocehlavy.html","181"
"15","Pošta","Pošta Kladno 8 - Česká pošta, s.p.","https://www.firmy.cz/detail/216827-posta-kladno-8-kladno-krocehlavy.html","380"
"16","Lékař","MEDICA SEVER s.r.o.","https://www.firmy.cz/detail/2673604-medica-sever-s-r-o-kladno-krocehlavy.html","374"
"17","Vlak","Kladno","","1415"
