"","facility_type","facility_name","facility_iri","facility_distance"
"0","Hřiště","Dětské hřiště Stonava","https://mapy.cz/zakladni?x=18.537723067560535&y=49.80897783147181&z=17&source=base&id=2345146","3320"
"1","Večerka","Můj obchod - Potraviny Hana","https://www.firmy.cz/detail/13336621-muj-obchod-potraviny-hana-albrechtice.html","209"
"2","Hospoda","Pivní bar Miczka","https://www.firmy.cz/detail/13116974-pivni-bar-miczka-albrechtice.html","273"
"3","Cukrárna","Kavárna Lucie","https://www.firmy.cz/detail/12779603-kavarna-lucie-terlicko-horni-terlicko.html","4286"
"4","Veterinář","Veterinární ordinace Albrechtice - MVDr. Martin Zelinka","https://www.firmy.cz/detail/1986216-veterinarni-ordinace-albrechtice-mvdr-martin-zelinka-albrechtice.html","284"
"5","Bus MHD","Albrechtice, sídliště","https://mapy.cz/zakladni?x=18.5231430132245&y=49.7806165144205&z=17&source=pubt&id=15285289","105"
"6","Vlak","Albrechtice u Českého Těšína","https://mapy.cz/zakladni?x=18.5246287738&y=49.7929217522&z=17&source=pubt&id=15210905","1347"
"7","Lékař","MUDr. Jaroslava Wichrová","https://www.firmy.cz/detail/381949-mudr-jaroslava-wichrova-albrechtice.html","539"
"8","Sportoviště","Hospůdka U Dubu - hřiště","https://www.firmy.cz/detail/13245904-hospudka-u-dubu-hriste-albrechtice.html","1152"
"9","Pošta","Pošta Albrechtice u Českého Těšína - Česká pošta, s.p.","https://www.firmy.cz/detail/431545-posta-albrechtice-u-ceskeho-tesina-albrechtice.html","622"
"10","Bankomat","Bankomat ČSOB","https://www.firmy.cz/detail/12963852-bankomat-csob-albrechtice.html","606"
"11","Lékárna","Lékárna Ve Středisku","https://www.firmy.cz/detail/339172-lekarna-ve-stredisku-albrechtice.html","539"
"12","Restaurace","Pizzerie & Brazilian Grill","https://www.firmy.cz/detail/12782093-pizzerie-brazilian-grill-albrechtice.html","172"
"13","Školka","ZŠ a MŠ Albrechtice","https://www.firmy.cz/detail/725190-zs-a-ms-albrechtice-albrechtice.html","871"
"14","Škola","ZŠ a MŠ Albrechtice","https://www.firmy.cz/detail/356275-zs-a-ms-albrechtice-albrechtice.html","871"
