"","facility_type","facility_name","facility_iri","facility_distance"
"0","Cukrárna","Kavárna Creperie","https://www.firmy.cz/detail/12932002-kavarna-creperie-praha-branik.html","620"
"1","Kino","AutoKino Ledárny","https://www.firmy.cz/detail/13312696-autokino-ledarny-praha.html","1528"
"2","Hřiště","Dětské hřiště Psohlavců","","252"
"3","Přírodní zajímavost","Kovářovic mez","","4960"
"4","Večerka","BILLA","https://www.firmy.cz/detail/212094-billa-praha-branik.html","241"
"5","Hospoda","Karel MLEJNEK","https://www.firmy.cz/detail/13136401-karel-mlejnek-praha-branik.html","983"
"6","Divadlo","Loutkové divadlo Zvoneček","https://www.firmy.cz/detail/397112-loutkove-divadlo-zvonecek-praha-lhotka.html","657"
"7","Veterinář","Vitalii Havryliuk, Veterinární lékař","https://www.firmy.cz/detail/13192396-vitalii-havryliuk-veterinarni-lekar-praha-branik.html","478"
"8","Škola","ZŠ Praha 4, Jílovská","https://www.firmy.cz/detail/356151-zs-praha-4-jilovska-praha-branik.html","381"
"9","Lékárna","BENU lékárna","https://www.firmy.cz/detail/13212827-benu-lekarna-praha-branik.html","270"
"10","Obchod","OC Novo Plaza","https://www.firmy.cz/detail/2135100-oc-novo-plaza-praha-branik.html","625"
"11","Sportoviště","TENIS CENTRUM TEMPO, Tenisové kurty a haly","https://www.firmy.cz/detail/2072525-tenis-centrum-tempo-tenisove-kurty-a-haly-praha-lhotka.html","885"
"12","Tram","Nádraží Braník","","1354"
"13","Bus MHD","Zatáčka","","71"
"14","Lékař","CODUM, s.r.o.","https://www.firmy.cz/detail/376914-codum-praha-hodkovicky.html","138"
"15","Bankomat","Bankomat ČSOB","https://www.firmy.cz/detail/12965985-bankomat-csob-praha-branik.html","595"
"16","Restaurace","Restaurace Pavouk","https://www.firmy.cz/detail/12994316-restaurace-pavouk-praha-branik.html","139"
"17","Pošta","Pošta Praha 418 - Česká pošta, s.p.","https://www.firmy.cz/detail/431231-posta-praha-418-praha-lhotka.html","792"
"18","Školka","Dětská skupina Ježek","https://www.firmy.cz/detail/13191761-detska-skupina-jezek-praha-branik.html","270"
"19","Vlak","Praha-Braník","","1280"
"20","Metro","Budějovická","","2763"
