"","facility_type","facility_name","facility_iri","facility_distance"
"0","Cukrárna","Cukrárna SUM, spol. s r.o.","https://www.firmy.cz/detail/167117-cukrarna-sum-prerov-i-mesto.html","88"
"1","Kino","Kino Hvězda","https://www.firmy.cz/detail/13025002-kino-hvezda-prerov-i-mesto.html","403"
"2","Přírodní zajímavost","Ptačí rezervace Malá Lipová","","3980"
"3","Hřiště","Dětské hřiště Kainarova","","129"
"4","Večerka","Tempo, obchodní družstvo","https://www.firmy.cz/detail/13000834-tempo-obchodni-druzstvo-prerov-i-mesto.html","276"
"5","Hospoda","Pivnice U  Mary","https://www.firmy.cz/detail/13166882-pivnice-u-mary-prerov-i-mesto.html","74"
"6","Divadlo","Loutkové divadlo Sokol Přerov","https://www.firmy.cz/detail/13157581-loutkove-divadlo-sokol-prerov-prerov-i-mesto.html","446"
"7","Veterinář","Veterinární klinika - MVDr. Josef Pospíšilík","https://www.firmy.cz/detail/810712-veterinarni-klinika-mvdr-josef-pospisilik-prerov-i-mesto.html","475"
"8","Lékař","MUDr. ZAPLETÁLKOVÁ DAGMAR, s.r.o.","https://www.firmy.cz/detail/12860892-mudr-zapletalkova-dagmar-prerov-i-mesto.html","129"
"9","Bankomat","Bankomat ČSOB","https://www.firmy.cz/detail/12768621-bankomat-csob-prerov-i-mesto.html","32"
"10","Lékárna","Lékárna Media","https://www.firmy.cz/detail/2024942-lekarna-media-prerov-i-mesto.html","25"
"11","Restaurace","Wilson Café Restaurant","https://www.firmy.cz/detail/2239287-wilson-cafe-restaurant-prerov-i-mesto.html","18"
"12","Vlak","Přerov","","933"
"13","Školka","Mateřská škola Přerov, Kratochvílova","https://www.firmy.cz/detail/13068263-materska-skola-prerov-kratochvilova-prerov-i-mesto.html","132"
"14","Škola","Soukromá základní škola Acorn's & John's school Přerov - U Bečvy","https://www.firmy.cz/detail/12704071-soukroma-zakladni-skola-acorn-s-john-s-school-prerov-u-becvy-prerov-i-mesto.html","291"
"15","Pošta","Přerov - Pošta 2","https://www.firmy.cz/detail/431444-prerov-posta-2-prerov-i-mesto.html","166"
"16","Sportoviště","TJ Spartak Přerov","https://www.firmy.cz/detail/1349245-tj-spartak-prerov-prerov-i-mesto.html","392"
"17","Bus MHD","Přerov, Palackého","","254"
"18","Obchod","Obchodní centrum GALERIE Přerov","https://www.firmy.cz/detail/13000608-obchodni-centrum-galerie-prerov-prerov-i-mesto.html","508"
