"","facility_type","facility_name","facility_iri","facility_distance"
"0","Cukrárna","Cukrárna | Miroslav Urban","https://www.firmy.cz/detail/13277656-cukrarna-miroslav-urban-tyn-nad-vltavou.html","666"
"1","Kino","Kino Sokolovna","https://www.firmy.cz/detail/2608610-kino-sokolovna-tyn-nad-vltavou.html","1110"
"2","Hřiště","Duhové hřiště - Vodňanská","","92"
"3","Večerka","BILLA stop & shop","https://www.firmy.cz/detail/12978214-billa-stop-shop-tyn-nad-vltavou.html","89"
"4","Hospoda","Hospůdka Kácovská věž","https://www.firmy.cz/detail/13119304-hospudka-kacovska-vez-tyn-nad-vltavou-mala-strana.html","505"
"5","Divadlo","Zámecké divadlo","https://www.firmy.cz/detail/750587-zamecke-divadlo-tyn-nad-vltavou.html","897"
"6","Veterinář","MVDr. Vojtech Richter","https://www.firmy.cz/detail/2035846-mvdr-vojtech-richter-tyn-nad-vltavou.html","1197"
"7","Pošta","Pošta Týn nad Vltavou 3 - Česká pošta, s.p.","https://www.firmy.cz/detail/432013-posta-tyn-nad-vltavou-3-tyn-nad-vltavou-mala-strana.html","172"
"8","Sportoviště","Městská letní plovárna Týn nad Vltavou","https://www.firmy.cz/detail/12977915-mestska-letni-plovarna-tyn-nad-vltavou-tyn-nad-vltavou-mala-strana.html","478"
"9","Obchod","Centrum Týn","https://www.firmy.cz/detail/13203419-centrum-tyn-tyn-nad-vltavou-mala-strana.html","263"
"10","Lékař","MUDr. Marie Hájíčková","https://www.firmy.cz/detail/388830-mudr-marie-hajickova-tyn-nad-vltavou-mala-strana.html","263"
"11","Restaurace","Malostranská restaurace","https://www.firmy.cz/detail/13211740-malostranska-restaurace-tyn-nad-vltavou-mala-strana.html","412"
"12","Školka","MŠ Týn nad Vltavou, U lípy","https://www.firmy.cz/detail/1589625-ms-tyn-nad-vltavou-u-lipy-tyn-nad-vltavou-mala-strana.html","260"
"13","Vlak","Týn nad Vltavou","","970"
"14","Bus MHD","Týn nad Vltavou, Orlická ul.","","269"
"15","Bankomat","Bankomat MONETA Money Bank","https://www.firmy.cz/detail/1650511-bankomat-moneta-money-bank-tyn-nad-vltavou-mala-strana.html","172"
"16","Škola","ZŠ Týn nad Vltavou, Malá Strana","https://www.firmy.cz/detail/359804-zs-tyn-nad-vltavou-mala-strana-tyn-nad-vltavou-mala-strana.html","371"
"17","Lékárna","Malostranská lékárna","https://www.firmy.cz/detail/422343-malostranska-lekarna-tyn-nad-vltavou-mala-strana.html","263"
