"","facility_type","facility_name","facility_iri","facility_distance"
"0","Cukrárna","Kavárna Galerie","https://www.firmy.cz/detail/2545980-kavarna-galerie-roztoky.html","456"
"1","Hřiště","Dětské hřiště Masarykova","","72"
"2","Večerka","Albert Supermarket","https://www.firmy.cz/detail/1357846-albert-supermarket-roztoky.html","519"
"3","Hospoda","Bistro Pohoda","https://www.firmy.cz/detail/12997033-bistro-pohoda-roztoky.html","550"
"4","Divadlo","Divadlo ANPU","https://www.firmy.cz/detail/657497-divadlo-anpu-praha-suchdol.html","2578"
"5","Veterinář","Veterinární ordinace MVDr. Michaela Riedlová","https://www.firmy.cz/detail/2387169-veterinarni-ordinace-mvdr-michaela-riedlova-roztoky.html","217"
"6","Bankomat","Bankomat Komerční banky","https://www.firmy.cz/detail/2423216-bankomat-komercni-banky-roztoky.html","466"
"7","Lékař","MUDr. Iva Dvořáková","https://www.firmy.cz/detail/387985-mudr-iva-dvorakova-roztoky.html","298"
"8","Sportoviště","Tělocvičná jednota Sokol Roztoky u Prahy","https://www.firmy.cz/detail/2129900-telocvicna-jednota-sokol-roztoky-u-prahy-roztoky.html","661"
"9","Škola","Základní škola Zdenky Braunerové","https://www.firmy.cz/detail/359220-zakladni-skola-zdenky-braunerove-roztoky.html","296"
"10","Pošta","Pošta Roztoky u Prahy - Česká pošta, s.p.","https://www.firmy.cz/detail/431713-posta-roztoky-u-prahy-roztoky.html","467"
"11","Vlak","Roztoky u Prahy","","959"
"12","Restaurace","Restaurace U Šmucrů","https://www.firmy.cz/detail/13023613-restaurace-u-smucru-roztoky.html","266"
"13","Lékárna","Lékárna Roztoky","https://www.firmy.cz/detail/375179-lekarna-roztoky-roztoky.html","298"
"14","Bus MHD","Roztoky, Masarykova","","81"
"15","Školka","MŠ Roztoky, Havlíčkova","https://www.firmy.cz/detail/2265864-ms-roztoky-havlickova-roztoky.html","228"
"16","Obchod","Obchodní dům Visla","https://www.firmy.cz/detail/13157344-obchodni-dum-visla-praha-bohnice.html","4062"
