"","facility_type","facility_name","facility_iri","facility_distance"
"0","Cukrárna","Café Coffee Day","https://www.firmy.cz/detail/650529-cafe-coffee-day-praha-smichov.html","610"
"1","Kino","CineStar Anděl","https://www.firmy.cz/detail/2537565-cinestar-andel-praha-smichov.html","634"
"2","Přírodní zajímavost","Kovářovic mez","","4038"
"3","Hřiště","Dětské hřiště Holečkova","","216"
"4","Večerka","Tuyen Le Thi - OVOCE ZELENINA","https://www.firmy.cz/detail/2464821-tuyen-le-thi-ovoce-zelenina-praha-kosire.html","396"
"5","Divadlo","Divadlo Orfeus","https://www.firmy.cz/detail/413053-divadlo-orfeus-praha-kosire.html","381"
"6","Hospoda","Hospůdka Knoflík","https://www.firmy.cz/detail/2253647-hospudka-knoflik-praha-smichov.html","879"
"7","Veterinář","MVDr. Jana Lukešová","https://www.firmy.cz/detail/473617-mvdr-jana-lukesova-praha-smichov.html","780"
"8","Bankomat","Bankomat ČSOB","https://www.firmy.cz/detail/636703-bankomat-csob-praha-smichov.html","642"
"9","Obchod","Tesco","https://www.firmy.cz/detail/733908-tesco-praha-smichov.html","618"
"10","Pošta","Pošta Praha 53 - Česká pošta, s.p.","https://www.firmy.cz/detail/431282-posta-praha-53-praha-smichov.html","709"
"11","Sportoviště","Tělocvičná jednota Sokol I. Smíchov","https://www.firmy.cz/detail/737131-telocvicna-jednota-sokol-i-smichov-praha-smichov.html","268"
"12","Škola","ZŠ a MŠ Praha 5, Grafická","https://www.firmy.cz/detail/356194-zs-a-ms-praha-5-graficka-praha-smichov.html","126"
"13","Lékař","MUDr. Lucie Jordáková","https://www.firmy.cz/detail/387284-mudr-lucie-jordakova-praha-smichov.html","540"
"14","Restaurace","Restaurace Pod Černým vrchem","https://www.firmy.cz/detail/333475-restaurace-pod-cernym-vrchem-praha-kosire.html","383"
"15","Lékárna","EUC Lékárna Kartouzská","https://www.firmy.cz/detail/13162323-euc-lekarna-kartouzska-praha-smichov.html","579"
"16","Bus MHD","Holečkova","","128"
"17","Školka","ZŠ a MŠ Praha 5, Grafická","https://www.firmy.cz/detail/2416925-zs-a-ms-praha-5-graficka-praha-smichov.html","268"
"18","Vlak","Praha-Smíchov severní nást.","","1454"
"19","Metro","Anděl","","814"
"20","Tram","Bertramka","","167"
