"","facility_type","facility_name","facility_iri","facility_distance"
"0","Cukrárna","Suri Cafe","https://www.firmy.cz/detail/13298853-suri-cafe-ostrava-zabreh.html","449"
"1","Kino","Kino Luna","https://www.firmy.cz/detail/2642805-kino-luna-ostrava-zabreh.html","584"
"2","Přírodní zajímavost","Zábřežský bludný balvan","","1642"
"3","Hřiště","Dětské hřiště Petruškova","","584"
"4","Večerka","Potraviny Beruška","https://www.firmy.cz/detail/13291213-potraviny-beruska-ostrava-zabreh.html","171"
"5","Hospoda","Hospůdka u Hanzyho","https://www.firmy.cz/detail/13146165-hospudka-u-hanzyho-ostrava-zabreh.html","91"
"6","Divadlo","Divadlo U Lípy","https://www.firmy.cz/detail/2121467-divadlo-u-lipy-ostrava-zabreh.html","1579"
"7","Veterinář","MVDr. Petr Stankoci - Veterinární ordinace","https://www.firmy.cz/detail/1957076-mvdr-petr-stankoci-veterinarni-ordinace-ostrava-hrabuvka.html","1326"
"8","Restaurace","Posezení U Romana","https://www.firmy.cz/detail/13235405-posezeni-u-romana-ostrava-zabreh.html","91"
"9","Tram","Zábřeh vodárna","","197"
"10","Lékárna","Lékárna Sano Zábřeh","https://www.firmy.cz/detail/13204516-lekarna-sano-zabreh-ostrava-zabreh.html","308"
"11","Pošta","Pošta Ostrava 4 - Česká pošta, s.p.","https://www.firmy.cz/detail/433394-posta-ostrava-4-ostrava-zabreh.html","349"
"12","Sportoviště","Sportovní areál Volgogradská","https://www.firmy.cz/detail/13099460-sportovni-areal-volgogradska-ostrava-zabreh.html","348"
"13","Bus MHD","Kotva","","182"
"14","Obchod","Kaufland","https://www.firmy.cz/detail/1461415-kaufland-ostrava-zabreh.html","892"
"15","Lékař","MUDr. Marcela Prokopová","https://www.firmy.cz/detail/388974-mudr-marcela-prokopova-ostrava-zabreh.html","336"
"16","Školka","Soukromá základní škola a mateřská škola, s.r.o.","https://www.firmy.cz/detail/2320297-soukroma-zakladni-skola-a-materska-skola-ostrava-zabreh.html","278"
"17","Vlak","Ostrava-Vítkovice","","2325"
"18","Bankomat","Bankomat MONETA Money Bank","https://www.firmy.cz/detail/12780482-bankomat-moneta-money-bank-ostrava-zabreh.html","283"
"19","Škola","Střední škola uměleckých řemesel, s.r.o.","https://www.firmy.cz/detail/361678-stredni-skola-umeleckych-remesel-ostrava-zabreh.html","208"
