"","facility_type","facility_name","facility_iri","facility_distance"
"0","Hřiště","Dětské hřiště sady Svobody","https://mapy.cz/zakladni?x=17.9022808333&y=49.9357613889&z=17&source=base&id=2112739","353"
"1","Přírodní zajímavost","Bludný balvan","https://mapy.cz/zakladni?x=17.9055405556&y=49.9362436111&z=17&source=base&id=2112615","119"
"2","Večerka","PONT Market","https://www.firmy.cz/detail/2295001-pont-market-opava-predmesti.html","193"
"3","Veterinář","MVDr. Marek Pepřík","https://www.firmy.cz/detail/1944110-mvdr-marek-peprik-opava-predmesti.html","274"
"4","Cukrárna","Kavárna Obecního domu","https://www.firmy.cz/detail/12849588-kavarna-obecniho-domu-opava-mesto.html","438"
"5","Hospoda","Pivnice U Mnicha","https://www.firmy.cz/detail/278648-pivnice-u-mnicha-opava-mesto.html","355"
"6","Divadlo","Slezské divadlo Opava","https://www.firmy.cz/detail/230941-slezske-divadlo-opava-opava-mesto.html","511"
"7","Kino","Kino Kupe","https://www.firmy.cz/detail/13319073-kino-kupe-opava-predmesti.html","417"
"8","Lékárna","Dr.Max LÉKÁRNA","https://www.firmy.cz/detail/13270216-dr-max-lekarna-opava-mesto.html","214"
"9","Škola","ZUŠ Opava - Hudební obor a ředitelství","https://www.firmy.cz/detail/13306739-zus-opava-hudebni-obor-a-reditelstvi-opava-predmesti.html","104"
"10","Lékař","Praktický lékař pro dospělé - MUDr. Jiří Čermín","https://www.firmy.cz/detail/1957414-prakticky-lekar-pro-dospele-mudr-jiri-cermin-opava-predmesti.html","193"
"11","Bus MHD","Opava, Praskova","https://mapy.cz/zakladni?x=17.9061819005637&y=49.9373950641857&z=17&source=pubt&id=15283262","159"
"12","Sportoviště","SPORT PERFEKT Věry Macoškové","https://www.firmy.cz/detail/2352933-sport-perfekt-very-macoskove-opava-mesto.html","334"
"13","Bankomat","Bankomat České spořitelny","https://www.firmy.cz/detail/13170294-bankomat-ceske-sporitelny-opava-predmesti.html","193"
"14","Školka","TUČŇÁKOVA ŠKOLKA-mateřská škola, s.r.o.","https://www.firmy.cz/detail/12876662-tucnakova-skolka-materska-skola-s-r-o-opava-mesto.html","449"
"15","Pošta","Pošta Opava 5 - Česká pošta, s.p.","https://www.firmy.cz/detail/432560-posta-opava-5-opava-katerinky.html","674"
"16","Vlak","Opava východ","https://mapy.cz/zakladni?x=17.9085361&y=49.9345089689&z=17&source=pubt&id=15212353","203"
"17","Obchod","OC Breda & Weinstein","https://www.firmy.cz/detail/12735258-oc-breda-weinstein-opava-mesto.html","748"
"18","Restaurace","Restaurace Na nádraží","https://www.firmy.cz/detail/12960919-restaurace-na-nadrazi-opava-predmesti.html","193"
