"","facility_type","facility_name","facility_iri","facility_distance"
"0","Hřiště","Dětské hřiště park Folimanka","https://mapy.cz/zakladni?x=14.4297034425&y=50.0669292167&z=17&source=base&id=1927043","493"
"1","Hospoda","Hospoda Pohoda","https://www.firmy.cz/detail/569598-hospoda-pohoda-praha-nusle.html","909"
"2","Večerka","Z, spol. s r.o.","https://www.firmy.cz/detail/2345414-z-praha-vinohrady.html","260"
"3","Veterinář","Veterinární klinika Na Hrádku - MVDr. Ľubica Nečasová","https://www.firmy.cz/detail/633528-veterinarni-klinika-na-hradku-mvdr-lubica-necasova-praha-nove-mesto.html","774"
"4","Divadlo","Divadlo D21","https://www.firmy.cz/detail/652669-divadlo-d21-praha-vinohrady.html","486"
"5","Cukrárna","Mamacoffee","https://www.firmy.cz/detail/2109500-mamacoffee-praha-vinohrady.html","381"
"6","Kino","HopeTV","https://www.firmy.cz/detail/672889-hopetv-praha-vinohrady.html","362"
"7","Restaurace","Green Garden Restaurant","https://www.firmy.cz/detail/333030-green-garden-restaurant-praha-nove-mesto.html","32"
"8","Školka","ZŠ a MŠ při Všeobecné fakultní nemocnici Praha","https://www.firmy.cz/detail/1892006-zs-a-ms-pri-vseobecne-fakultni-nemocnici-praha-praha-nove-mesto.html","214"
"9","Pošta","Pošta Praha 23 - Česká pošta, s.p.","https://www.firmy.cz/detail/431214-posta-praha-23-praha-vinohrady.html","418"
"10","Metro","I. P. Pavlova","https://mapy.cz/zakladni?x=14.4304965566&y=50.0741612591&z=17&source=pubt&id=15709665","315"
"11","Lékárna","BENU Lékárna","https://www.firmy.cz/detail/13189195-benu-lekarna-praha-vinohrady.html","476"
"12","Škola","Christian International School of Prague, o.p.s.","https://www.firmy.cz/detail/649054-christian-international-school-of-prague-praha-nove-mesto.html","157"
"13","Tram","Pod Karlovem","https://mapy.cz/zakladni?x=14.432687473&y=50.0697544079&z=17&source=pubt&id=16179954","235"
"14","Sportoviště","AVZO TSČ ČR Klub potápěčů AQIS","https://www.firmy.cz/detail/287736-avzo-tsc-cr-klub-potapecu-aqis-praha-nove-mesto.html","302"
"15","Lékař","MUDr. Petr König","https://www.firmy.cz/detail/380946-mudr-petr-konig-praha-vinohrady.html","133"
"16","Bankomat","Raiffeisenbank - bankomat","https://www.firmy.cz/detail/1994851-raiffeisenbank-bankomat-praha-vinohrady.html","345"
"17","Vlak","Praha hlavní nádraží","https://mapy.cz/zakladni?x=14.4369820737851&y=50.082990005918&z=17&source=pubt&id=15212548","1376"
"18","Bus MHD","Dětská nemocnice Karlov","https://mapy.cz/zakladni?x=14.42842742565641&y=50.0708038621465&z=17&source=pubt&id=15303842","159"
"19","Obchod","PAVILON, a.s.","https://www.firmy.cz/detail/451685-pavilon-praha-vinohrady.html","1039"
