"","facility_type","facility_name","facility_iri","facility_distance"
"0","Hřiště","Dětské hřiště Kmochova","https://mapy.cz/zakladni?x=17.2311905503&y=49.5898016244&z=17&source=base&id=2115499","63"
"1","Večerka","Potraviny Double ""D""","https://www.firmy.cz/detail/13248936-potraviny-double-d-olomouc.html","143"
"2","Hospoda","Pivnice Tabulový vrch","https://www.firmy.cz/detail/13278038-pivnice-tabulovy-vrch-olomouc-nova-ulice.html","236"
"3","Kino","Kino METROPOL","https://www.firmy.cz/detail/12773593-kino-metropol-olomouc.html","1650"
"4","Veterinář","Veterinární klinika MVDr. Michael Mazoch, s.r.o.","https://www.firmy.cz/detail/12906915-veterinarni-klinika-mvdr-michael-mazoch-s-r-o-olomouc-neredin.html","851"
"5","Cukrárna","Cukrárna - kavárna Pusinka","https://www.firmy.cz/detail/2233751-cukrarna-kavarna-pusinka-olomouc.html","168"
"6","Divadlo","Divadlo Tramtarie","https://www.firmy.cz/detail/594401-divadlo-tramtarie-olomouc-nova-ulice.html","1337"
"7","Tram","Pražská","https://mapy.cz/zakladni?x=17.2315159545847&y=49.5965115035444&z=17&source=pubt&id=15203086","780"
"8","Bus MHD","Jílová","https://mapy.cz/zakladni?x=17.232209849825146&y=49.59002206077735&z=17&source=pubt&id=15203188","61"
"9","Restaurace","Gastroflash","https://www.firmy.cz/detail/13299434-gastroflash-olomouc-nova-ulice.html","128"
"10","Školka","MŠ Olomouc, Jílová","https://www.firmy.cz/detail/2152831-ms-olomouc-jilova-olomouc-neredin.html","214"
"11","Sportoviště","Lezecké centrum PAJKLAND","https://www.firmy.cz/detail/419167-lezecke-centrum-pajkland-olomouc-nova-ulice.html","849"
"12","Škola","ZŠ Olomouc, Stupkova 16, p.o.","https://www.firmy.cz/detail/430015-zs-olomouc-stupkova-16-p-o-olomouc-nova-ulice.html","76"
"13","Bankomat","Bankomat Komerční banky","https://www.firmy.cz/detail/594306-bankomat-komercni-banky-olomouc-nova-ulice.html","195"
"14","Vlak","Olomouc město","https://mapy.cz/zakladni?x=17.241190942&y=49.5941205238&z=17&source=pubt&id=15212337","842"
"15","Lékárna","Mgr. Pavel Kalman","https://www.firmy.cz/detail/308543-mgr-pavel-kalman-olomouc-nova-ulice.html","253"
"16","Obchod","OD TIMPO, s.r.o.","https://www.firmy.cz/detail/642623-od-timpo-olomouc-nova-ulice.html","435"
"17","Lékař","MUDr. Zuzana Snášelová","https://www.firmy.cz/detail/386228-mudr-zuzana-snaselova-olomouc-nova-ulice.html","254"
"18","Pošta","Pošta Olomouc 10 - Česká pošta, s.p.","https://www.firmy.cz/detail/215756-posta-olomouc-10-olomouc-nova-ulice.html","285"
