"","facility_type","facility_name","facility_iri","facility_distance"
"0","Cukrárna","Cheecup","https://www.firmy.cz/detail/12725253-cheecup-praha-podoli.html","303"
"1","Kino","HopeTV","https://www.firmy.cz/detail/672889-hopetv-praha-vinohrady.html","2285"
"2","Přírodní zajímavost","Kovářovic mez","","4531"
"3","Hřiště","Dětské hřiště Na Lysině","","250"
"4","Večerka","Koloniál - lahůdky","https://www.firmy.cz/detail/2455523-kolonial-lahudky-praha-podoli.html","256"
"5","Hospoda","BEER BAR Na Veseli","https://www.firmy.cz/detail/2553652-beer-bar-na-veseli-praha-nusle.html","1393"
"6","Divadlo","TotO Divadlo","https://www.firmy.cz/detail/2262258-toto-divadlo-praha-nusle.html","876"
"7","Veterinář","MVDr. Lucie Boháčová","https://www.firmy.cz/detail/2646562-mvdr-lucie-bohacova-praha-podoli.html","411"
"8","Bus MHD","Doliny","","373"
"9","Pošta","Pošta Praha 49 - Česká pošta, s.p.","https://www.firmy.cz/detail/217479-posta-praha-49-praha-podoli.html","495"
"10","Bankomat","Bankomat České spořitelny","https://www.firmy.cz/detail/594780-bankomat-ceske-sporitelny-praha-podoli.html","462"
"11","Školka","MŠ Praha 4, Voráčovská","https://www.firmy.cz/detail/628792-ms-praha-4-voracovska-praha-podoli.html","224"
"12","Lékař","MUDr. Marcela Cesarová","https://www.firmy.cz/detail/379326-mudr-marcela-cesarova-praha-podoli.html","331"
"13","Vlak","Praha-Smíchov","","1302"
"14","Lékárna","Lékárna v Podolí, s.r.o.","https://www.firmy.cz/detail/269503-lekarna-v-podoli-praha-podoli.html","591"
"15","Restaurace","Hostinec Na Staré Sokolovně","https://www.firmy.cz/detail/2037269-hostinec-na-stare-sokolovne-praha-podoli.html","278"
"16","Tram","Kublov","","315"
"17","Sportoviště","Wellness club MIDA","https://www.firmy.cz/detail/2196943-wellness-club-mida-praha-podoli.html","22"
"18","Metro","Pražského povstání","","843"
"19","Škola","ZŠ Praha 4, Nedvědovo náměstí","https://www.firmy.cz/detail/401410-zs-praha-4-nedvedovo-namesti-praha-podoli.html","376"
"20","Obchod","Arkády Pankrác","https://www.firmy.cz/detail/2245240-arkady-pankrac-praha-nusle.html","1135"
