"","facility_type","facility_name","facility_iri","facility_distance"
"0","Cukrárna","Kavárna Lucerna","https://www.firmy.cz/detail/13262503-kavarna-lucerna-zabreh.html","3859"
"1","Kino","Kino Postřelmov","https://www.firmy.cz/detail/231551-kino-postrelmov-postrelmov.html","552"
"2","Hřiště","Dětské hřiště Nová","","368"
"3","Večerka","Potraviny Na Kopečku","https://www.firmy.cz/detail/1944606-potraviny-na-kopecku-postrelmov.html","292"
"4","Hospoda","Hostinec pod Trlinou","https://www.firmy.cz/detail/13258635-hostinec-pod-trlinou-lesnice.html","2937"
"5","Veterinář","MVDr. Aleš Zemánek odborná veterinární činnost","https://www.firmy.cz/detail/276224-mvdr-ales-zemanek-odborna-veterinarni-cinnost-zabreh.html","3474"
"6","Restaurace","Restaurace U Kevina","https://www.firmy.cz/detail/2111272-restaurace-u-kevina-postrelmov.html","600"
"7","Obchod","Kaufland","https://www.firmy.cz/detail/2617032-kaufland-zabreh.html","3876"
"8","Sportoviště","TJ Postřelmov","https://www.firmy.cz/detail/2005877-tj-postrelmov-postrelmov.html","318"
"9","Školka","Mateřská škola Postřelmov","https://www.firmy.cz/detail/12963374-materska-skola-postrelmov-postrelmov.html","363"
"10","Bankomat","Bankomat České spořitelny","https://www.firmy.cz/detail/13238855-bankomat-ceske-sporitelny-postrelmov.html","504"
"11","Škola","ZŠ Postřelmov","https://www.firmy.cz/detail/358927-zs-postrelmov-postrelmov.html","398"
"12","Lékař","MUDr. Zdeněk Pospíšil","https://www.firmy.cz/detail/13192757-mudr-zdenek-pospisil-postrelmov.html","499"
"13","Pošta","Pošta Postřelmov - Česká pošta, s.p.","https://www.firmy.cz/detail/431391-posta-postrelmov-postrelmov.html","451"
"14","Lékárna","OOVL Postřelmov","https://www.firmy.cz/detail/2413238-oovl-postrelmov-postrelmov.html","921"
"15","Vlak","Postřelmov","","708"
"16","Bus MHD","Postřelmov, ObÚ","","431"
