"","facility_type","facility_name","facility_iri","facility_distance"
"0","Cukrárna","Cukrářství a pekařství Stáňa","https://www.firmy.cz/detail/12993041-cukrarstvi-a-pekarstvi-stana-jiloviste.html","2376"
"1","Kino","Letní Kino Kamínka","https://www.firmy.cz/detail/13066174-letni-kino-kaminka-praha-zbraslav.html","4310"
"2","Přírodní zajímavost","V Hladomoří","","2060"
"3","Hřiště","Dětské hřiště Akátek","","1153"
"4","Večerka","Potraviny Bala","https://www.firmy.cz/detail/13215522-potraviny-bala-vrane-nad-vltavou.html","829"
"5","Hospoda","Gastro TEMAR s.r.o., s.r.o.","https://www.firmy.cz/detail/13151092-gastro-temar-s-r-o-klinec.html","3602"
"6","Veterinář","MVDr. Elena Havelcová","https://www.firmy.cz/detail/1962901-mvdr-elena-havelcova-vrane-nad-vltavou.html","963"
"7","Restaurace","Restaurace KASKÁDA","https://www.firmy.cz/detail/12976847-restaurace-kaskada-vrane-nad-vltavou.html","593"
"8","Lékař","Ordinace MUDr. Pavel Adámek","https://www.firmy.cz/detail/13247486-ordinace-mudr-pavel-adamek-vrane-nad-vltavou.html","972"
"9","Vlak","Skochovice","","200"
"10","Sportoviště","Tělocvičná jednota Sokol Vrané nad Vltavou 2","https://www.firmy.cz/detail/2129605-telocvicna-jednota-sokol-vrane-nad-vltavou-2-vrane-nad-vltavou.html","101"
"11","Škola","ZŠ Vrané nad Vltavou","https://www.firmy.cz/detail/360077-zs-vrane-nad-vltavou-vrane-nad-vltavou.html","1211"
"12","Lékárna","Lékarná Vrané","https://www.firmy.cz/detail/13330245-lekarna-vrane-vrane-nad-vltavou.html","972"
"13","Pošta","Pošta Vrané nad Vltavou - Česká pošta, s.p.","https://www.firmy.cz/detail/431708-posta-vrane-nad-vltavou-vrane-nad-vltavou.html","1562"
"14","Bus MHD","Vrané nad Vltavou, Modřínová","","1003"
"15","Školka","Dům na vršku","https://www.firmy.cz/detail/2435672-dum-na-vrsku-vrane-nad-vltavou.html","573"
"16","Bankomat","Bankomat České spořitelny","https://www.firmy.cz/detail/595032-bankomat-ceske-sporitelny-davle.html","4333"
