"","facility_type","facility_name","facility_iri","facility_distance"
"0","Cukrárna","Shothouse","https://www.firmy.cz/detail/13286217-shothouse-havirov-mesto.html","291"
"1","Hřiště","Dětské hřiště E. F. Buriana","","123"
"2","Kino","Kino Centrum","https://www.firmy.cz/detail/12780436-kino-centrum-havirov-mesto.html","459"
"3","Večerka","Koloniál v Bílém domě","https://www.firmy.cz/detail/13265108-kolonial-v-bilem-dome-havirov-mesto.html","58"
"4","Hospoda","Bagetérie Lexi","https://www.firmy.cz/detail/12954140-bageterie-lexi-havirov-mesto.html","142"
"5","Veterinář","Veterinární ordinace u Nemocnice","https://www.firmy.cz/detail/13319420-veterinarni-ordinace-u-nemocnice-havirov-mesto.html","657"
"6","Bus MHD","Havířov, Město, střed","","165"
"7","Sportoviště","Tenisové kurty Paulát","https://www.firmy.cz/detail/13095949-tenisove-kurty-paulat-havirov-mesto.html","258"
"8","Pošta","Pošta Havířov 1 - Česká pošta, s.p.","https://www.firmy.cz/detail/431627-posta-havirov-1-havirov-mesto.html","430"
"9","Škola","Střední průmyslová škola elektrotechnická, Havířov","https://www.firmy.cz/detail/362589-stredni-prumyslova-skola-elektrotechnicka-havirov-havirov-mesto.html","181"
"10","Lékárna","Lékárna U Elišky","https://www.firmy.cz/detail/421095-lekarna-u-elisky-havirov-mesto.html","321"
"11","Restaurace","Restaurace E. F. Buriana 869","https://www.firmy.cz/detail/13151294-restaurace-e-f-buriana-869-havirov-mesto.html","58"
"12","Školka","Mateřská škola, Havířov - KLUBÍČKO","https://www.firmy.cz/detail/1968054-materska-skola-havirov-klubicko-havirov-mesto.html","143"
"13","Bankomat","Bankomat ČSOB","https://www.firmy.cz/detail/599376-bankomat-csob-havirov-mesto.html","382"
"14","Obchod","Obchodní centrum Elan","https://www.firmy.cz/detail/2181587-obchodni-centrum-elan-havirov-mesto.html","533"
"15","Vlak","Havířov-střed","","1121"
"16","Lékař","MUDr. Lucie Šebestová s.r.o.","https://www.firmy.cz/detail/12862656-mudr-lucie-sebestova-s-r-o-havirov-mesto.html","360"
