"","facility_type","facility_name","facility_iri","facility_distance"
"0","Cukrárna","Coffee Break","https://www.firmy.cz/detail/12733587-coffee-break-praha-stare-mesto.html","602"
"1","Kino","Kino Ponrepo","https://www.firmy.cz/detail/396455-kino-ponrepo-praha-stare-mesto.html","1239"
"2","Hřiště","Dětské hřiště Chotkova","","270"
"3","Večerka","Tesco Expres","https://www.firmy.cz/detail/2358609-tesco-expres-praha-hradcany.html","543"
"4","Hospoda","U hrocha","https://www.firmy.cz/detail/336158-u-hrocha-praha-mala-strana.html","594"
"5","Divadlo","POTRVÁ","https://www.firmy.cz/detail/2246484-potrva-praha-dejvice.html","726"
"6","Veterinář","MVDr. Katka Sviták Novozámská","https://www.firmy.cz/detail/2137713-mvdr-katka-svitak-novozamska-praha-stare-mesto.html","1004"
"7","Bankomat","Bankomat České spořitelny","https://www.firmy.cz/detail/594303-bankomat-ceske-sporitelny-praha-mala-strana.html","215"
"8","Obchod","palác metro","https://www.firmy.cz/detail/143339-palac-metro-praha-stare-mesto.html","1341"
"9","Bus MHD","Praha, U Bruských kasáren","","92"
"10","Restaurace","Hoffmeister restaurant, Hotel Hoffmeister & Spa","https://www.firmy.cz/detail/326452-hoffmeister-restaurant-hotel-hoffmeister-spa-praha-mala-strana.html","17"
"11","Sportoviště","Hřiště na pétanque U Písecké brány","","256"
"12","Školka","ZŠ a MŠ náměstí Svobody","https://www.firmy.cz/detail/730649-zs-a-ms-namesti-svobody-praha-hradcany.html","468"
"13","Vlak","Praha-Dejvice","","824"
"14","Metro","Malostranská","","224"
"15","Škola","Pražská konzervatoř","https://www.firmy.cz/detail/363410-prazska-konzervator-praha-stare-mesto.html","532"
"16","Lékárna","Lékárna Na Františku","https://www.firmy.cz/detail/376327-lekarna-na-frantisku-praha-stare-mesto.html","868"
"17","Lékař","MUDr. Miroslava Chromá - praktický lékař pro dospělé","https://www.firmy.cz/detail/385911-mudr-miroslava-chroma-prakticky-lekar-pro-dospele-praha-mala-strana.html","896"
"18","Pošta","Pošta Praha 011 - Česká pošta, s.p.","https://www.firmy.cz/detail/431208-posta-praha-011-praha-mala-strana.html","597"
"19","Tram","Malostranská","","220"
