"","facility_type","facility_name","facility_iri","facility_distance"
"0","Cukrárna","Cukrárna Sandra","https://www.firmy.cz/detail/12757306-cukrarna-sandra-tabor.html","58"
"1","Kino","Kino Svět","https://www.firmy.cz/detail/211137-kino-svet-tabor.html","607"
"2","Hřiště","Dětské hřiště","","156"
"3","Večerka","Žabka","https://www.firmy.cz/detail/13252090-zabka-tabor.html","0"
"4","Hospoda","PIVNICE ZEMĚ ZASLÍBENÁ","https://www.firmy.cz/detail/13015873-pivnice-zeme-zaslibena-tabor.html","119"
"5","Divadlo","Divadlo Oskara Nedbala Tábor","https://www.firmy.cz/detail/406554-divadlo-oskara-nedbala-tabor-tabor.html","812"
"6","Veterinář","Veterinární klinika IRIS","https://www.firmy.cz/detail/2528301-veterinarni-klinika-iris-tabor.html","270"
"7","Bus MHD","Tábor, poliklinika","","187"
"8","Vlak","Tábor","","339"
"9","Sportoviště","Ladislav Vidršperk - Motokáry","https://www.firmy.cz/detail/2019278-ladislav-vidrsperk-motokary-tabor.html","291"
"10","Školka","Církevní mateřská škola Rybička","https://www.firmy.cz/detail/2588896-cirkevni-materska-skola-rybicka-tabor.html","138"
"11","Lékař","MUDr. Štěchovská Věra, MediClinic a.s.","https://www.firmy.cz/detail/2597575-mudr-stechovska-vera-mediclinic-a-s-tabor.html","132"
"12","Bankomat","Bankomat ČSOB","https://www.firmy.cz/detail/2410545-bankomat-csob-tabor.html","0"
"13","Pošta","Pošta Tábor 2 - Česká pošta, s.p.","https://www.firmy.cz/detail/216936-posta-tabor-2-tabor.html","323"
"14","Restaurace","Café La Torta","https://www.firmy.cz/detail/2343051-cafe-la-torta-tabor.html","53"
"15","Lékárna","Lékárna U rentgenu","https://www.firmy.cz/detail/2201785-lekarna-u-rentgenu-tabor.html","88"
"16","Obchod","Karel Dvořák - obchodní dům","https://www.firmy.cz/detail/1897212-karel-dvorak-obchodni-dum-tabor.html","96"
"17","Škola","Církevní ZŠ Orbis-Pictus, spol. s r.o.","https://www.firmy.cz/detail/364678-cirkevni-zs-orbis-pictus-tabor.html","225"
