"","facility_type","facility_name","facility_iri","facility_distance"
"0","Hřiště","Dětské hřiště Preislerova","https://mapy.cz/zakladni?x=14.0172926997&y=49.9299828118&z=17&source=base&id=1927348","576"
"1","Večerka","Nápoje F. Mareš","https://www.firmy.cz/detail/12831067-napoje-f-mares-kraluv-dvur.html","494"
"2","Hospoda","U Ciprů","https://www.firmy.cz/detail/13152505-u-cipru-kraluv-dvur-pocaply.html","606"
"3","Divadlo","DIVADLO CIRKUS ŽEBŘÍK","https://www.firmy.cz/detail/2274608-divadlo-cirkus-zebrik-zdice-cernin.html","3345"
"4","Kino","Kino Beroun","https://www.firmy.cz/detail/396429-kino-beroun-beroun-mesto.html","4797"
"5","Cukrárna","Pakárna a cukrárna Zdice","https://www.firmy.cz/detail/13135725-pakarna-a-cukrarna-zdice-zdice.html","3749"
"6","Veterinář","Veterinární ordinace HaF","https://www.firmy.cz/detail/12760819-veterinarni-ordinace-haf-kraluv-dvur-pocaply.html","809"
"7","Sportoviště","Sportýna,z.s.","https://www.firmy.cz/detail/2686275-sportyna-z-s-kraluv-dvur-levin.html","750"
"8","Bus MHD","Králův Dvůr, Popovice, odb.","https://mapy.cz/zakladni?x=14.0252110513707&y=49.9338276371613&z=17&source=pubt&id=15295769","239"
"9","Lékárna","Lékárna U Tří zvonků","https://www.firmy.cz/detail/422002-lekarna-u-tri-zvonku-kraluv-dvur-pocaply.html","986"
"10","Vlak","Králův Dvůr-Popovice","https://mapy.cz/zakladni?x=14.0204114702&y=49.9283110561&z=17&source=pubt&id=15213492","666"
"11","Lékař","MUDr. Milan Suchánek","https://www.firmy.cz/detail/298165-mudr-milan-suchanek-kraluv-dvur.html","1618"
"12","Školka","Mateřská škola Marina s.r.o.","https://www.firmy.cz/detail/12856061-materska-skola-marina-s-r-o-kraluv-dvur-levin.html","692"
"13","Pošta","Pošta Králův Dvůr u Berouna - Česká pošta, s.p.","https://www.firmy.cz/detail/216862-posta-kraluv-dvur-u-berouna-kraluv-dvur-pocaply.html","996"
"14","Škola","ZŠ a MŠ Králův Dvůr - Počaply, Tyršova","https://www.firmy.cz/detail/357816-zs-a-ms-kraluv-dvur-pocaply-tyrsova-kraluv-dvur-pocaply.html","760"
"15","Restaurace","KFC","https://www.firmy.cz/detail/2450651-kfc-kraluv-dvur-pocaply.html","138"
"16","Bankomat","Bankomat Euronet","https://www.firmy.cz/detail/13055328-bankomat-euronet-kraluv-dvur-pocaply.html","138"
"17","Obchod","Albert Hypermarket","https://www.firmy.cz/detail/2355469-albert-hypermarket-kraluv-dvur.html","2377"
