"","facility_type","facility_name","facility_iri","facility_distance"
"0","Cukrárna","Cukrárna Valma","https://www.firmy.cz/detail/597191-cukrarna-valma-holice.html","741"
"1","Kino","Městské kino Holice","https://www.firmy.cz/detail/396436-mestske-kino-holice-holice.html","293"
"2","Hřiště","Dětské hřiště Holubova","","256"
"3","Večerka","Penny Market","https://www.firmy.cz/detail/2413717-penny-market-holice.html","408"
"4","Hospoda","Hospoda Staré Holice","https://www.firmy.cz/detail/13129423-hospoda-stare-holice-holice-stare-holice.html","1656"
"5","Veterinář","MVDr. Jiří Štros","https://www.firmy.cz/detail/444489-mvdr-jiri-stros-holice.html","395"
"6","Pošta","Pošta Holice v Čechách - Česká pošta, s.p.","https://www.firmy.cz/detail/432772-posta-holice-v-cechach-holice.html","438"
"7","Vlak","Holice","","571"
"8","Sportoviště","TK Holice","https://www.firmy.cz/detail/13077064-tk-holice-holice.html","170"
"9","Bus MHD","Holice, Husova","","188"
"10","Restaurace","Školní jídelna Holice","https://www.firmy.cz/detail/1887561-skolni-jidelna-holice-holice.html","521"
"11","Škola","Základní umělecká škola Karla Malicha","https://www.firmy.cz/detail/427296-zakladni-umelecka-skola-karla-malicha-holice.html","223"
"12","Lékárna","Dr.Max","https://www.firmy.cz/detail/12856868-dr-max-holice.html","648"
"13","Školka","Mateřská škola Holubova Holice","https://www.firmy.cz/detail/406827-materska-skola-holubova-holice-holice.html","332"
"14","Lékař","SKALIVAMED s.r.o.","https://www.firmy.cz/detail/13288365-skalivamed-s-r-o-holice.html","419"
"15","Bankomat","Bankomat ČSOB","https://www.firmy.cz/detail/13213034-bankomat-csob-holice.html","636"
