"","facility_type","facility_name","facility_iri","facility_distance"
"0","Cukrárna","Cukrárna Ondra","https://www.firmy.cz/detail/2668307-cukrarna-ondra-sokolov.html","343"
"1","Kino","Kino Alfa","https://www.firmy.cz/detail/457666-kino-alfa-sokolov.html","594"
"2","Hřiště","Dětské hřiště Křižíkova","","159"
"3","Večerka","Můjobchod - Potraviny Vanessa","https://www.firmy.cz/detail/2456250-mujobchod-potraviny-vanessa-sokolov.html","105"
"4","Hospoda","Pivnice U Chemičky","https://www.firmy.cz/detail/2116301-pivnice-u-chemicky-sokolov.html","789"
"5","Divadlo","Divadlo bez zákulisí","https://www.firmy.cz/detail/2000753-divadlo-bez-zakulisi-sokolov.html","1443"
"6","Veterinář","MVDr. Petr Gargel - GAKRA","https://www.firmy.cz/detail/625305-mvdr-petr-gargel-gakra-sokolov.html","761"
"7","Lékař","NEMOS AMBULANCE, s.r.o.","https://www.firmy.cz/detail/12935646-nemos-ambulance-sokolov.html","67"
"8","Sportoviště","Makroinvest s.r.o.","https://www.firmy.cz/detail/2691831-makroinvest-s-r-o-sokolov.html","814"
"9","Obchod","Tesco","https://www.firmy.cz/detail/12739396-tesco-sokolov.html","332"
"10","Restaurace","Van Tuong Vu","https://www.firmy.cz/detail/2431611-van-tuong-vu-sokolov.html","105"
"11","Školka","Mateřská škola Sokolov, Marie Majerové 1650","https://www.firmy.cz/detail/2127866-materska-skola-sokolov-marie-majerove-1650-sokolov.html","433"
"12","Lékárna","Lékárna HERBA","https://www.firmy.cz/detail/2639802-lekarna-herba-sokolov.html","67"
"13","Škola","Základní škola Sokolov, Křižíkova 1916","https://www.firmy.cz/detail/359416-zakladni-skola-sokolov-krizikova-1916-sokolov.html","284"
"14","Vlak","Královské Poříčí","","1543"
"15","Bankomat","Bankomat České spořitelny","https://www.firmy.cz/detail/2609939-bankomat-ceske-sporitelny-sokolov.html","327"
"16","Bus MHD","Sokolov, Účko","","39"
"17","Pošta","Pošta Sokolov 5 - Česká pošta, s.p.","https://www.firmy.cz/detail/216416-posta-sokolov-5-sokolov.html","82"
