"","facility_type","facility_name","facility_iri","facility_distance"
"0","Cukrárna","Cukrářství Š+O","https://www.firmy.cz/detail/13220987-cukrarstvi-s-o-boskovice.html","450"
"1","Kino","Kino Boskovice","https://www.firmy.cz/detail/396496-kino-boskovice-boskovice.html","637"
"2","Hřiště","Dětské hřiště Sídliště Pod oborou","","157"
"3","Večerka","COOP JEDNOTA","https://www.firmy.cz/detail/12738211-coop-jednota-boskovice.html","273"
"4","Hospoda","Hospůdka Za Humny","https://www.firmy.cz/detail/13271173-hospudka-za-humny-boskovice.html","503"
"5","Veterinář","MVDr Jiří Rožek - Veterina Boskovice","https://www.firmy.cz/detail/2559640-mvdr-jiri-rozek-veterina-boskovice-boskovice.html","368"
"6","Lékař","MUDr. Dana Kejíková, s.r.o.","https://www.firmy.cz/detail/13107810-mudr-dana-kejikova-boskovice.html","665"
"7","Bankomat","Bankomat Fio banky","https://www.firmy.cz/detail/13206599-bankomat-fio-banky-boskovice.html","284"
"8","Školka","MŠ Boskovice","https://www.firmy.cz/detail/2152630-ms-boskovice-boskovice.html","148"
"9","Vlak","Boskovice","","462"
"10","Lékárna","Lékárna - Mgr. Jarmila Zábranská","https://www.firmy.cz/detail/13204213-lekarna-mgr-jarmila-zabranska-boskovice.html","494"
"11","Pošta","Pošta Boskovice - Česká pošta, s.p.","https://www.firmy.cz/detail/12785161-posta-boskovice-boskovice.html","848"
"12","Obchod","Centrum KRAS","https://www.firmy.cz/detail/13179175-centrum-kras-boskovice.html","630"
"13","Škola","ZŠ Boskovice, Slovákova","https://www.firmy.cz/detail/2253275-zs-boskovice-slovakova-boskovice.html","139"
"14","Sportoviště","Orel jednota Boskovice","https://www.firmy.cz/detail/1959925-orel-jednota-boskovice-boskovice.html","216"
"15","Bus MHD","Boskovice, Pod Oborou","","70"
"16","Restaurace","Restaurace Slavia","https://www.firmy.cz/detail/13016271-restaurace-slavia-boskovice.html","374"
