"","facility_type","facility_name","facility_iri","facility_distance"
"0","Cukrárna","CrossCafe Galerie Slovany","https://www.firmy.cz/detail/12858831-crosscafe-galerie-slovany-plzen-vychodni-predmesti.html","796"
"1","Kino","Kino Beseda","https://www.firmy.cz/detail/12773769-kino-beseda-plzen-jizni-predmesti.html","3001"
"2","Hřiště","Dětské hřiště Brojova","","286"
"3","Večerka","Můjobchod - Potraviny Francouzská","https://www.firmy.cz/detail/13163885-mujobchod-potraviny-francouzska-plzen-vychodni-predmesti.html","344"
"4","Hospoda","Hospoda Šeříková 35","https://www.firmy.cz/detail/13121280-hospoda-serikova-35-plzen-koterov.html","497"
"5","Divadlo","Divadelní spolek Jezírko","https://www.firmy.cz/detail/740611-divadelni-spolek-jezirko-plzen-vychodni-predmesti.html","371"
"6","Veterinář","U Tří voříšků - MVDr. Dagmar Caltová","https://www.firmy.cz/detail/313354-u-tri-vorisku-mvdr-dagmar-caltova-plzen-bozkov.html","611"
"7","Vlak","Plzeň-Koterov","","818"
"8","Restaurace","Pivovarský šenk Šeříková","https://www.firmy.cz/detail/13247534-pivovarsky-senk-serikova-plzen-vychodni-predmesti.html","371"
"9","Lékař","MUDr. Zdeněk Čech","https://www.firmy.cz/detail/389592-mudr-zdenek-cech-plzen-vychodni-predmesti.html","492"
"10","Tram","Vozovna Slovany","","164"
"11","Bankomat","Bankomat České spořitelny","https://www.firmy.cz/detail/593986-bankomat-ceske-sporitelny-plzen-vychodni-predmesti.html","544"
"12","Pošta","Pošta Plzeň 26 - Česká pošta, s.p.","https://www.firmy.cz/detail/216637-posta-plzen-26-plzen-vychodni-predmesti.html","82"
"13","Obchod","Galerie Slovany, s.r.o.","https://www.firmy.cz/detail/2301407-galerie-slovany-plzen-vychodni-predmesti.html","788"
"14","Škola","ZŠ a MŠ při Fakultní nemocnici Plzeň, Skupova","https://www.firmy.cz/detail/12971904-zs-a-ms-pri-fakultni-nemocnici-plzen-skupova-plzen-vychodni-predmesti.html","277"
"15","Sportoviště","In Motion Academy - parkourová hala","https://www.firmy.cz/detail/13077140-in-motion-academy-parkourova-hala-plzen-vychodni-predmesti.html","352"
"16","Bus MHD","U Světovaru","","217"
"17","Školka","Rubikon","https://www.firmy.cz/detail/12773838-rubikon-plzen-lobzy.html","340"
"18","Lékárna","Dr. Max LÉKÁRNA","https://www.firmy.cz/detail/13001301-dr-max-lekarna-plzen-vychodni-predmesti.html","669"
