"","facility_type","facility_name","facility_iri","facility_distance"
"0","Hřiště","Dětské hřiště Tyršovy sady","https://mapy.cz/zakladni?x=15.1661007821&y=50.7217290087&z=17&source=base&id=1928181","252"
"1","Cukrárna","Level One","https://www.firmy.cz/detail/12828315-level-one-jablonec-nad-nisou.html","285"
"2","Hospoda","RestauraceJungmannova 602/5","https://www.firmy.cz/detail/13118401-restauracejungmannova-602-5-jablonec-nad-nisou.html","310"
"3","Večerka","BILLA","https://www.firmy.cz/detail/450433-billa-jablonec-nad-nisou.html","236"
"4","Veterinář","Veterinární klinika Bedrníkovi","https://www.firmy.cz/detail/13343024-veterinarni-klinika-bedrnikovi-jablonec-nad-nisou.html","677"
"5","Kino","Kino Junior","https://www.firmy.cz/detail/13333340-kino-junior-jablonec-nad-nisou.html","178"
"6","Divadlo","Městské divadlo Jablonec nad Nisou, o.p.s.","https://www.firmy.cz/detail/396944-mestske-divadlo-jablonec-nad-nisou-jablonec-nad-nisou.html","308"
"7","Bus MHD","Kamenná","https://mapy.cz/zakladni?x=15.1713506675&y=50.7222385057&z=17&source=pubt&id=15282748","145"
"8","Lékárna","BENU Lékárna","https://www.firmy.cz/detail/658462-benu-lekarna-jablonec-nad-nisou.html","84"
"9","Vlak","Jablonec nad Nisou centrum","https://mapy.cz/zakladni?x=15.1737946356&y=50.7208438114&z=17&source=pubt&id=15698595","368"
"10","Školka","Oříšek - studio pro děti","https://www.firmy.cz/detail/12914230-orisek-studio-pro-deti-jablonec-nad-nisou.html","128"
"11","Bankomat","Bankomat ČSOB","https://www.firmy.cz/detail/598480-bankomat-csob-jablonec-nad-nisou.html","118"
"12","Obchod","Central Jablonec","https://www.firmy.cz/detail/13045427-central-jablonec-jablonec-nad-nisou.html","181"
"13","Pošta","Pošta Jablonec nad Nisou 1 - Česká pošta, s.p.","https://www.firmy.cz/detail/215524-posta-jablonec-nad-nisou-1-jablonec-nad-nisou.html","307"
"14","Lékař","MUDr. Olga Svobodová - Medijab s.r.o.","https://www.firmy.cz/detail/13239976-mudr-olga-svobodova-jablonec-nad-nisou.html","84"
"15","Sportoviště","Tělocvičná jednota Sokol Jablonec nad Nisou","https://www.firmy.cz/detail/685303-telocvicna-jednota-sokol-jablonec-nad-nisou-jablonec-nad-nisou.html","189"
"16","Škola","ZŠ a MŠ, Jablonec nad Nisou, Kamenná","https://www.firmy.cz/detail/12829511-zs-a-ms-jablonec-nad-nisou-kamenna-jablonec-nad-nisou.html","176"
"17","Restaurace","Světlanka","https://www.firmy.cz/detail/13039169-svetlanka-jablonec-nad-nisou.html","18"
