"","facility_type","facility_name","facility_iri","facility_distance"
"0","Cukrárna","Bread gap - fresh sandwiches","https://www.firmy.cz/detail/12709423-bread-gap-fresh-sandwiches-praha-mala-strana.html","210"
"1","Kino","Kino Ponrepo","https://www.firmy.cz/detail/396455-kino-ponrepo-praha-stare-mesto.html","1333"
"2","Hřiště","Dětské hřiště Vlašská","","295"
"3","Večerka","Potraviny Karmelitská 270","https://www.firmy.cz/detail/2219817-potraviny-karmelitska-270-praha-mala-strana.html","257"
"4","Hospoda","U hrocha","https://www.firmy.cz/detail/336158-u-hrocha-praha-mala-strana.html","261"
"5","Divadlo","Divadlo Inspirace","https://www.firmy.cz/detail/2210309-divadlo-inspirace-praha-mala-strana.html","137"
"6","Veterinář","MVDr. Katka Sviták Novozámská","https://www.firmy.cz/detail/2137713-mvdr-katka-svitak-novozamska-praha-stare-mesto.html","1183"
"7","Lékárna","Lék.Nem.Milosrd.sester sv.K.Boromejského v Praze","https://www.firmy.cz/detail/2307552-lek-nem-milosrd-sester-sv-k-boromejskeho-v-praze-praha-mala-strana.html","302"
"8","Školka","MŠ Praha 1, Hellichova","https://www.firmy.cz/detail/406822-ms-praha-1-hellichova-praha-mala-strana.html","444"
"9","Vlak","Praha-Dejvice","","1029"
"10","Lékař","MUDr. Miroslava Chromá - praktický lékař pro dospělé","https://www.firmy.cz/detail/385911-mudr-miroslava-chroma-prakticky-lekar-pro-dospele-praha-mala-strana.html","44"
"11","Restaurace","Aquarius Restaurant","https://www.firmy.cz/detail/1695638-aquarius-restaurant-praha-mala-strana.html","47"
"12","Metro","Malostranská","","739"
"13","Pošta","Pošta Praha 012 - Česká pošta, s.p.","https://www.firmy.cz/detail/217498-posta-praha-012-praha-hradcany.html","279"
"14","Tram","Malostranské náměstí","","286"
"15","Bus MHD","Šporkova","","174"
"16","Bankomat","Bankomat České spořitelny","https://www.firmy.cz/detail/594284-bankomat-ceske-sporitelny-praha-mala-strana.html","329"
"17","Škola","Akademie múzických umění v Praze","https://www.firmy.cz/detail/362817-akademie-muzickych-umeni-v-praze-praha-mala-strana.html","141"
"18","Sportoviště","Hřiště na pétanque U Písecké brány","","960"
"19","Obchod","palác metro","https://www.firmy.cz/detail/143339-palac-metro-praha-stare-mesto.html","1410"
