"","facility_type","facility_name","facility_iri","facility_distance"
"0","Cukrárna","Cukrárna U Černého Lva","https://www.firmy.cz/detail/571869-cukrarna-u-cerneho-lva-ivancice.html","480"
"1","Kino","Kino Réna","https://www.firmy.cz/detail/451590-kino-rena-ivancice.html","585"
"2","Hřiště","Dětské hřiště Horní Hlinky","","256"
"3","Přírodní zajímavost","Stromokruh Evropy","","1024"
"4","Večerka","Potraviny Miroslava Studená","https://www.firmy.cz/detail/277406-potraviny-miroslava-studena-ivancice.html","425"
"5","Hospoda","B&M Pub","https://www.firmy.cz/detail/13089994-b-m-pub-ivancice.html","659"
"6","Veterinář","Veterinární klinika MVDr.Marek Šupica","https://www.firmy.cz/detail/1318215-veterinarni-klinika-mvdr-marek-supica-ivancice.html","622"
"7","Vlak","Ivančice město","","329"
"8","Lékárna","Lékárna M.K.P. service","https://www.firmy.cz/detail/421661-lekarna-m-k-p-service-ivancice.html","432"
"9","Sportoviště","KK Réna Ivančice","https://www.firmy.cz/detail/2651911-kk-rena-ivancice-ivancice.html","269"
"10","Bankomat","Bankomat Komerční banky","https://www.firmy.cz/detail/592158-bankomat-komercni-banky-ivancice.html","419"
"11","Pošta","Pošta Ivančice - Česká pošta, s.p.","https://www.firmy.cz/detail/216125-posta-ivancice-ivancice.html","460"
"12","Lékař","MUDr. Josef Fiala","https://www.firmy.cz/detail/387538-mudr-josef-fiala-ivancice.html","201"
"13","Obchod","Tesco","https://www.firmy.cz/detail/12750609-tesco-ivancice.html","1443"
"14","Škola","ZŠ V. Menšíka Ivančice","https://www.firmy.cz/detail/357430-zs-v-mensika-ivancice-ivancice.html","362"
"15","Bus MHD","Ivančice, Horní Hlinky","","284"
"16","Školka","Mateřská škola Chřestová Ivančice, okres Brno-venkov, příspěvková organizace","https://www.firmy.cz/detail/13055455-materska-skola-chrestova-ivancice-okres-brno-venkov-prispevkova-organizace-ivancice.html","295"
"17","Restaurace","Restaurace  Marek","https://www.firmy.cz/detail/13066271-restaurace-marek-ivancice.html","430"
