"","facility_type","facility_name","facility_iri","facility_distance"
"0","Cukrárna","Cukrárna U Rybníka","https://www.firmy.cz/detail/12937730-cukrarna-u-rybnika-bruntal.html","267"
"1","Kino","Kino Centrum Bruntál","https://www.firmy.cz/detail/13157478-kino-centrum-bruntal-bruntal.html","773"
"2","Přírodní zajímavost","Lom u Marburku","","1089"
"3","Hřiště","Dětské hřiště","","39"
"4","Večerka","Potraviny V Zatáčce","https://www.firmy.cz/detail/13342835-potraviny-v-zatacce-bruntal.html","75"
"5","Hospoda","Hanušovická pivnice","https://www.firmy.cz/detail/13119238-hanusovicka-pivnice-bruntal.html","621"
"6","Divadlo","Městské divadlo Bruntál","https://www.firmy.cz/detail/661545-mestske-divadlo-bruntal-bruntal.html","810"
"7","Veterinář","VETERINÁRNÍ KLINIKA MVDr. Radomíra Hynara, s.r.o.","https://www.firmy.cz/detail/12736326-veterinarni-klinika-mvdr-radomira-hynara-bruntal.html","567"
"8","Bankomat","Bankomat České spořitelny","https://www.firmy.cz/detail/12736371-bankomat-ceske-sporitelny-bruntal.html","556"
"9","Restaurace","Restaurace Faraon","https://www.firmy.cz/detail/12792144-restaurace-faraon-bruntal.html","221"
"10","Sportoviště","TS Bruntál - sportovní hala","https://www.firmy.cz/detail/12807318-ts-bruntal-sportovni-hala-bruntal.html","639"
"11","Škola","Základní škola Amos","https://www.firmy.cz/detail/356569-zakladni-skola-amos-bruntal.html","296"
"12","Lékárna","Dr. Max LÉKÁRNA","https://www.firmy.cz/detail/2007367-dr-max-lekarna-bruntal.html","643"
"13","Pošta","Pošta Bruntál 3 - Česká pošta, s.p.","https://www.firmy.cz/detail/2378847-posta-bruntal-3-bruntal.html","496"
"14","Školka","MŠ Bruntál, U Rybníka","https://www.firmy.cz/detail/682887-ms-bruntal-u-rybnika-bruntal.html","254"
"15","Vlak","Bruntál","","1766"
"16","Lékař","MUDr. Marie Černá","https://www.firmy.cz/detail/373106-mudr-marie-cerna-bruntal.html","290"
"17","Bus MHD","Bruntál, Uhlířská ul.","","110"
"18","Obchod","Kaufland","https://www.firmy.cz/detail/1523564-kaufland-bruntal.html","635"
