"","facility_type","facility_name","facility_iri","facility_distance"
"0","Cukrárna","Cukrárna Bezno","https://www.firmy.cz/detail/13023136-cukrarna-bezno-mlada-boleslav-ii.html","293"
"1","Kino","CineStar Mladá Boleslav","https://www.firmy.cz/detail/2109584-cinestar-mlada-boleslav-mlada-boleslav-ii.html","672"
"2","Přírodní zajímavost","Syslí kolonie","","1787"
"3","Hřiště","Dětské hřiště park Výstaviště","","245"
"4","Večerka","Žabka","https://www.firmy.cz/detail/12976683-zabka-mlada-boleslav-ii.html","349"
"5","Divadlo","Městské divadlo Mladá Boleslav","https://www.firmy.cz/detail/401491-mestske-divadlo-mlada-boleslav-mlada-boleslav-ii.html","230"
"6","Hospoda","Pivnice Bingo u kolejí","https://www.firmy.cz/detail/2465415-pivnice-bingo-u-koleji-mlada-boleslav-ii.html","494"
"7","Veterinář","BONAVET, s.r.o.","https://www.firmy.cz/detail/739364-bonavet-mlada-boleslav-ii.html","490"
"8","Lékař","SOMEDIS, s.r.o.","https://www.firmy.cz/detail/13045100-somedis-mlada-boleslav-ii.html","25"
"9","Sportoviště","Sokolská župa Fügnerova","https://www.firmy.cz/detail/303049-sokolska-zupa-fugnerova-mlada-boleslav-ii.html","140"
"10","Restaurace","Vegan jídelna DOBRÉ POLEDNE","https://www.firmy.cz/detail/13120931-vegan-jidelna-dobre-poledne-mlada-boleslav-ii.html","77"
"11","Lékárna","Klaudiánova nemocnice - Oblastní nemocnice Mladá Boleslav, nemocnice Středočeského kraje, a.s.","https://www.firmy.cz/detail/658803-klaudianova-nemocnice-mlada-boleslav-ii.html","293"
"12","Škola","Škola SPEKTRUM","https://www.firmy.cz/detail/361506-skola-spektrum-mlada-boleslav-ii.html","94"
"13","Školka","Střední škola, Základní škola, Mateřská škola, Dětský domov a Speciálně pedagogické centrum Mladá Boleslav","https://www.firmy.cz/detail/2575717-stredni-skola-zakladni-skola-materska-skola-detsky-domov-a-specialne-pedagogicke-centrum-mlada-boleslav-mlada-boleslav-ii.html","129"
"14","Pošta","Pošta Mladá Boleslav 3 - Česká pošta, s.p.","https://www.firmy.cz/detail/217184-posta-mlada-boleslav-3-mlada-boleslav-ii.html","542"
"15","Vlak","Mladá Boleslav město","","631"
"16","Obchod","BONDY CENTRUM","https://www.firmy.cz/detail/13215694-bondy-centrum-mlada-boleslav-ii.html","624"
"17","Bankomat","Bankomat Komerční banky","https://www.firmy.cz/detail/596299-bankomat-komercni-banky-mlada-boleslav-ii.html","280"
"18","Bus MHD","Mladá Boleslav, bazén","","128"
