"","facility_type","facility_name","facility_iri","facility_distance"
"0","Cukrárna","Cukrárna Lada","https://www.firmy.cz/detail/12908208-cukrarna-lada-havirov.html","357"
"1","Kino","Letní kino - Městské kulturní středisko Havířov","https://www.firmy.cz/detail/13072791-letni-kino-havirov.html","335"
"2","Hřiště","Dětské hřiště Jilemnického","","60"
"3","Večerka","PEKAŘI a spol.","https://www.firmy.cz/detail/2608288-pekari-a-spol-havirov-mesto.html","248"
"4","Hospoda","Malá Jamajka","https://www.firmy.cz/detail/13121947-mala-jamajka-havirov-mesto.html","348"
"5","Veterinář","Veterinární ordinace Terra Vet","https://www.firmy.cz/detail/13330221-veterinarni-ordinace-terra-vet-havirov-mesto.html","425"
"6","Bus MHD","Havířov, Město, Magistrát","","148"
"7","Lékárna","BENU Lékárna","https://www.firmy.cz/detail/12875767-benu-lekarna-havirov-mesto.html","828"
"8","Lékař","Mgr. Zdeňka Obtulovičová","https://www.firmy.cz/detail/368798-mgr-zdenka-obtulovicova-havirov-mesto.html","39"
"9","Bankomat","Bankomat ČSOB","https://www.firmy.cz/detail/636843-bankomat-csob-havirov-mesto.html","141"
"10","Sportoviště","Letní koupaliště Jindřich","https://www.firmy.cz/detail/703103-letni-koupaliste-jindrich-havirov-mesto.html","633"
"11","Obchod","Tesco","https://www.firmy.cz/detail/218205-tesco-havirov-mesto.html","825"
"12","Restaurace","Restaurace Radnice","https://www.firmy.cz/detail/330738-restaurace-radnice-havirov-mesto.html","141"
"13","Škola","ZUŠ Bohuslava Martinů, Havířov","https://www.firmy.cz/detail/399187-zus-bohuslava-martinu-havirov-havirov-mesto.html","147"
"14","Pošta","Pošta Havířov 11 - Česká pošta, s.p.","https://www.firmy.cz/detail/431631-posta-havirov-11-havirov-mesto.html","70"
"15","Školka","Základní škola a Mateřská škola Havířov - Město Na Nábřeží, příspěvková organizace","https://www.firmy.cz/detail/1278268-zakladni-skola-a-materska-skola-havirov-mesto-na-nabrezi-prispevkova-organizace-havirov-mesto.html","248"
"16","Vlak","Havířov","","1067"
