"","facility_type","facility_name","facility_iri","facility_distance"
"0","Cukrárna","Cukrárna Edith","https://www.firmy.cz/detail/13285229-cukrarna-edith-hradec-kralove-novy-hradec-kralove.html","531"
"1","Kino","CineStar Hradec Králové","https://www.firmy.cz/detail/396569-cinestar-hradec-kralove-hradec-kralove-novy-hradec-kralove.html","326"
"2","Přírodní zajímavost","Slepé rameno Orlice u loděnice","","1689"
"3","Hřiště","Dětské hřiště Mrštíkova","","148"
"4","Večerka","HRUŠKA","https://www.firmy.cz/detail/12820290-hruska-hradec-kralove-novy-hradec-kralove.html","358"
"5","Hospoda","Palma","https://www.firmy.cz/detail/13118104-palma-hradec-kralove-novy-hradec-kralove.html","425"
"6","Divadlo","Divadlo Drak","https://www.firmy.cz/detail/230884-divadlo-drak-hradec-kralove.html","1489"
"7","Veterinář","HKvet veterinární klinika","https://www.firmy.cz/detail/402422-hkvet-veterinarni-klinika-hradec-kralove-novy-hradec-kralove.html","500"
"8","Sportoviště","A-Sport, zábavní centrum","https://www.firmy.cz/detail/12723565-a-sport-zabavni-centrum-hradec-kralove-novy-hradec-kralove.html","455"
"9","Lékárna","BENU Lékárna","https://www.firmy.cz/detail/658206-benu-lekarna-hradec-kralove-novy-hradec-kralove.html","220"
"10","Lékař","MUDr. Jana Šmídová","https://www.firmy.cz/detail/12958001-mudr-jana-smidova-hradec-kralove-novy-hradec-kralove.html","138"
"11","Škola","ZŠ Hradec Králové, Štefcova","https://www.firmy.cz/detail/357253-zs-hradec-kralove-stefcova-hradec-kralove-novy-hradec-kralove.html","335"
"12","Restaurace","KFC","https://www.firmy.cz/detail/566063-kfc-hradec-kralove-novy-hradec-kralove.html","255"
"13","Bankomat","Bankomat České spořitelny","https://www.firmy.cz/detail/13238826-bankomat-ceske-sporitelny-hradec-kralove-novy-hradec-kralove.html","233"
"14","Pošta","Pošta Hradec Králové 9 - Česká pošta, s.p.","https://www.firmy.cz/detail/215981-posta-hradec-kralove-9-hradec-kralove-novy-hradec-kralove.html","417"
"15","Bus MHD","Kino Mladých","","115"
"16","Vlak","Hradec Králové-Slezské Předměstí","","2766"
"17","Školka","MŠ Hradec Králové, Mrštíkova","https://www.firmy.cz/detail/12820582-ms-hradec-kralove-mrstikova-hradec-kralove-novy-hradec-kralove.html","211"
"18","Obchod","Tesco","https://www.firmy.cz/detail/429303-tesco-hradec-kralove-novy-hradec-kralove.html","138"
