"","facility_type","facility_name","facility_iri","facility_distance"
"0","Hřiště","Dětské hřiště Pod Urnovým hájem","https://mapy.cz/zakladni?x=14.3840670231&y=49.9733119674&z=17&source=base&id=1926620","397"
"1","Cukrárna","Sluneční cukrárna","https://www.firmy.cz/detail/2139751-slunecni-cukrarna-praha-zbraslav.html","480"
"2","Hospoda","Solární studio","https://www.firmy.cz/detail/13121637-solarni-studio-praha-radotin.html","2506"
"3","Večerka","Potraviny U Stromečku","https://www.firmy.cz/detail/269345-potraviny-u-stromecku-praha-zbraslav.html","331"
"4","Divadlo","Divadlo Jana Kašky","https://www.firmy.cz/detail/12978086-divadlo-jana-kasky-praha-zbraslav.html","660"
"5","Kino","Letní Kino Kamínka","https://www.firmy.cz/detail/13066174-letni-kino-kaminka-praha-zbraslav.html","872"
"6","Veterinář","ArtVET veterinarní ordinace","https://www.firmy.cz/detail/2654463-artvet-veterinarni-ordinace-praha-zbraslav.html","619"
"7","Bus MHD","U Včely","https://mapy.cz/zakladni?x=14.388854&y=49.969252&z=17&source=pubt&id=15300200","300"
"8","Škola","ZŠ Vladislava Vančury, Praha - Zbraslav","https://www.firmy.cz/detail/356202-zs-vladislava-vancury-praha-zbraslav-praha-zbraslav.html","444"
"9","Lékař","MUDr. Olga Šmardová","https://www.firmy.cz/detail/371473-mudr-olga-smardova-praha-zbraslav.html","200"
"10","Bankomat","Bankomat MONETA Money Bank","https://www.firmy.cz/detail/13041481-bankomat-moneta-money-bank-praha-zbraslav.html","465"
"11","Pošta","Pošta Praha 516 - Česká pošta, s.p.","https://www.firmy.cz/detail/216727-posta-praha-516-praha-zbraslav.html","843"
"12","Vlak","Praha-Zbraslav","https://mapy.cz/zakladni?x=14.3997306514&y=49.9706472479&z=17&source=pubt&id=15212588","767"
"13","Sportoviště","Bowling Zbraslav - Tenis","https://www.firmy.cz/detail/12976741-bowling-zbraslav-tenis-praha-zbraslav.html","299"
"14","Restaurace","Pho Family","https://www.firmy.cz/detail/13242487-pho-family-praha-zbraslav.html","231"
"15","Lékárna","Lékárna Slunce","https://www.firmy.cz/detail/12730449-lekarna-slunce-praha-zbraslav.html","410"
"16","Obchod","Obchodní pasáž Sofie","https://www.firmy.cz/detail/217785-obchodni-pasaz-sofie-praha-modrany.html","4290"
"17","Tram","Čechova čtvrť","https://mapy.cz/zakladni?x=14.4096335024&y=50.002234502&z=17&source=pubt&id=15305341","3672"
"18","Školka","Mateřská škola Matjuchinova","https://www.firmy.cz/detail/1970002-materska-skola-matjuchinova-praha-zbraslav.html","167"
