"","facility_type","facility_name","facility_iri","facility_distance"
"0","Cukrárna","Cukrárna U Háje","https://www.firmy.cz/detail/1950720-cukrarna-u-haje-praha-kobylisy.html","1524"
"1","Kino","Bio Oko","https://www.firmy.cz/detail/2586117-bio-oko-praha-holesovice.html","2879"
"2","Hřiště","Dětské hřiště Dunajecká","","145"
"3","Večerka","Penny Market","https://www.firmy.cz/detail/151826-penny-market-praha-troja.html","195"
"4","Hospoda","Pivnice V Solu","https://www.firmy.cz/detail/13093708-pivnice-v-solu-praha-troja.html","418"
"5","Divadlo","Divadlo Za plotem","https://www.firmy.cz/detail/396897-divadlo-za-plotem-praha-bohnice.html","1041"
"6","Veterinář","Veterinární ordinace Prima-vet","https://www.firmy.cz/detail/12739483-veterinarni-ordinace-prima-vet-praha-bohnice.html","661"
"7","Školka","MŠ Praha 8, Lešenská","https://www.firmy.cz/detail/2265832-ms-praha-8-lesenska-praha-troja.html","194"
"8","Škola","Základní škola, Praha 8, Glowackého 6","https://www.firmy.cz/detail/356243-zakladni-skola-praha-8-glowackeho-6-praha-troja.html","312"
"9","Restaurace","Trojský vrch","https://www.firmy.cz/detail/12724934-trojsky-vrch-praha-troja.html","387"
"10","Bus MHD","Dunajecká","","114"
"11","Metro","Kobylisy","","1954"
"12","Tram","Trojská","","1148"
"13","Bankomat","Bankomat Air Bank","https://www.firmy.cz/detail/13033233-bankomat-air-bank-praha-troja.html","479"
"14","Lékař","MUDr. Alena Vodáková","https://www.firmy.cz/detail/388100-mudr-alena-vodakova-praha-troja.html","649"
"15","Sportoviště","Tenisová škola TALLENT","https://www.firmy.cz/detail/722778-tenisova-skola-tallent-praha-troja.html","312"
"16","Vlak","Praha-Holešovice","","1991"
"17","Obchod","Centrum Krakov","https://www.firmy.cz/detail/12836138-centrum-krakov-praha-troja.html","558"
"18","Lékárna","Ekolékárna Krakov","https://www.firmy.cz/detail/12959439-ekolekarna-krakov-praha-troja.html","458"
"19","Pošta","Pošta Praha 81","https://www.firmy.cz/detail/431382-posta-praha-81-praha-troja.html","488"
