"","facility_type","facility_name","facility_iri","facility_distance"
"0","Cukrárna","Národní kavárna a cukrárna","https://www.firmy.cz/detail/13119870-narodni-kavarna-a-cukrarna-decin-i-decin.html","1590"
"1","Kino","Kino Sněžník","https://www.firmy.cz/detail/2483705-kino-sneznik-decin-iv-podmokly.html","2887"
"2","Hřiště","Dětské hřiště Dvořákova","","169"
"3","Večerka","Potraviny Dvořákova","https://www.firmy.cz/detail/13340865-potraviny-dvorakova-decin-ii-nove-mesto.html","95"
"4","Divadlo","Letní kino Zámek Děčín","https://www.firmy.cz/detail/13326081-letni-kino-zamek-decin-decin-i-decin.html","1829"
"5","Hospoda","Starý šenk","https://www.firmy.cz/detail/13139379-stary-senk-ludvikovice.html","1697"
"6","Veterinář","cityVET Děčín","https://www.firmy.cz/detail/12939580-cityvet-decin-decin-xxvii-breziny.html","1519"
"7","Sportoviště","Tenisový klub Spartak Děčín","https://www.firmy.cz/detail/2651940-tenisovy-klub-spartak-decin-decin.html","349"
"8","Vlak","Děčín východ","","1094"
"9","Bus MHD","Děčín, Liliová","","147"
"10","Lékárna","Lékárna Nemocnice Děčín","https://www.firmy.cz/detail/2150028-lekarna-nemocnice-decin-decin-ii-nove-mesto.html","727"
"11","Lékař","Chirurgická ambulance MUDr. Mir. Waldauf","https://www.firmy.cz/detail/390250-chirurgicka-ambulance-mudr-mir-waldauf-decin-ii-nove-mesto.html","972"
"12","Restaurace","Restaurace Sea of Blue","https://www.firmy.cz/detail/12845637-restaurace-sea-of-blue-decin-ii-nove-mesto.html","53"
"13","Bankomat","Bankomat České spořitelny","https://www.firmy.cz/detail/13165954-bankomat-ceske-sporitelny-decin-ii-nove-mesto.html","391"
"14","Pošta","Pošta Děčín 1 - Česká pošta, s.p.","https://www.firmy.cz/detail/215368-posta-decin-1-decin-i-decin.html","1426"
"15","Školka","MŠ Děčín, Liliová","https://www.firmy.cz/detail/1995969-ms-decin-liliova-decin-ii-nove-mesto.html","63"
"16","Obchod","Kaufland","https://www.firmy.cz/detail/1335602-kaufland-decin-i-decin.html","1496"
"17","Škola","ZŠ Děčín II, Kamenická","https://www.firmy.cz/detail/356802-zs-decin-ii-kamenicka-decin-ii-nove-mesto.html","533"
