"","facility_type","facility_name","facility_iri","facility_distance"
"0","Cukrárna","Dětský bar Pepíno","https://www.firmy.cz/detail/307159-detsky-bar-pepino-chomutov.html","1204"
"1","Kino","Letní kino Chomutov","https://www.firmy.cz/detail/2644649-letni-kino-chomutov-chomutov.html","1176"
"2","Hřiště","Dětské hřiště Školní pěšina","","524"
"3","Večerka","NORMA","https://www.firmy.cz/detail/2182350-norma-chomutov.html","160"
"4","Divadlo","Městské divadlo Chomutov","https://www.firmy.cz/detail/2644644-mestske-divadlo-chomutov-chomutov.html","1807"
"5","Hospoda","Hospoda Kulečník Pool","https://www.firmy.cz/detail/13327617-hospoda-kulecnik-pool-chomutov.html","1256"
"6","Veterinář","MVDr. Gabriela Jašurková Mikutová","https://www.firmy.cz/detail/1907835-mvdr-gabriela-jasurkova-mikutova-chomutov.html","1541"
"7","Obchod","Kaufland","https://www.firmy.cz/detail/12855793-kaufland-chomutov.html","1785"
"8","Bus MHD","Březenecká II","","26"
"9","Bankomat","Bankomat České spořitelny","https://www.firmy.cz/detail/591856-bankomat-ceske-sporitelny-chomutov.html","158"
"10","Lékař","MUDr. Jana Hazemová","https://www.firmy.cz/detail/385916-mudr-jana-hazemova-chomutov.html","509"
"11","Škola","ZŠ a MŠ Chomutov, 17. listopadu","https://www.firmy.cz/detail/357369-zs-a-ms-chomutov-17-listopadu-chomutov.html","231"
"12","Pošta","Pošta Chomutov 4 - Česká pošta, s.p.","https://www.firmy.cz/detail/215278-posta-chomutov-4-chomutov.html","512"
"13","Lékárna","U Lípy","https://www.firmy.cz/detail/2356615-u-lipy-chomutov.html","509"
"14","Vlak","Chomutov město","","1152"
"15","Sportoviště","AFK LoKo Chomutov","https://www.firmy.cz/detail/13075778-afk-loko-chomutov-chomutov.html","343"
"16","Restaurace","Restaurace U Pratura","https://www.firmy.cz/detail/13269880-restaurace-u-pratura-chomutov.html","645"
"17","Školka","MŠ Chomutov, 17 lístopadu","https://www.firmy.cz/detail/1345664-ms-chomutov-17-listopadu-chomutov.html","192"
