"","facility_type","facility_name","facility_iri","facility_distance"
"0","Cukrárna","Eiscafe Delikana","https://www.firmy.cz/detail/13294607-eiscafe-delikana-karvina-frystat.html","1451"
"1","Kino","Kino Ex","https://www.firmy.cz/detail/396409-kino-ex-karvina-nove-mesto.html","755"
"2","Hřiště","Dětské hřiště U Bažantnice","","190"
"3","Večerka","Potraviny Levňáček","https://www.firmy.cz/detail/13304149-potraviny-levnacek-karvina-nove-mesto.html","259"
"4","Hospoda","COUNTRY CLUB","https://www.firmy.cz/detail/13138293-country-club-karvina-nove-mesto.html","109"
"5","Veterinář","Veterinární ordinace TRIAS","https://www.firmy.cz/detail/2331003-veterinarni-ordinace-trias-karvina-nove-mesto.html","1380"
"6","Lékárna","Lékárna U sv. Františka","https://www.firmy.cz/detail/375442-lekarna-u-sv-frantiska-karvina-nove-mesto.html","315"
"7","Školka","Základní škola a Mateřská škola Dělnická - U Vilíka","https://www.firmy.cz/detail/12854839-zakladni-skola-a-materska-skola-delnicka-u-vilika-karvina-nove-mesto.html","501"
"8","Vlak","Karviná hlavní nádraží","","1496"
"9","Restaurace","Restaurace RVM Primaspol","https://www.firmy.cz/detail/13151530-restaurace-rvm-primaspol-karvina-nove-mesto.html","240"
"10","Pošta","Pošta Karviná 6 - Česká pošta, s.p.","https://www.firmy.cz/detail/431463-posta-karvina-6-karvina-nove-mesto.html","232"
"11","Bus MHD","Karviná, Nové Město, U Bažantnice","","144"
"12","Bankomat","Bankomat České spořitelny","https://www.firmy.cz/detail/592981-bankomat-ceske-sporitelny-karvina-nove-mesto.html","232"
"13","Škola","ZŠ Karviná, tř. Družby","https://www.firmy.cz/detail/357628-zs-karvina-tr-druzby-karvina-nove-mesto.html","324"
"14","Lékař","MUDr. Ludmila Tesařová","https://www.firmy.cz/detail/390358-mudr-ludmila-tesarova-karvina-nove-mesto.html","161"
"15","Obchod","Albert Hypermarket","https://www.firmy.cz/detail/449318-albert-hypermarket-karvina-frystat.html","1255"
"16","Sportoviště","STaRS Karviná, s.r.o.","https://www.firmy.cz/detail/721386-stars-karvina-karvina-nove-mesto.html","595"
