"","facility_type","facility_name","facility_iri","facility_distance"
"0","Cukrárna","Cukrárna Lipka","https://www.firmy.cz/detail/13092101-cukrarna-lipka-prostejov-vrahovice.html","400"
"1","Kino","Kino Metro 70","https://www.firmy.cz/detail/13118959-kino-metro-70-prostejov.html","2350"
"2","Hřiště","Dětské hřiště Josefa Suka","","165"
"3","Večerka","Večerka U babinky","https://www.firmy.cz/detail/2425123-vecerka-u-babinky-prostejov-vrahovice.html","206"
"4","Divadlo","Divadlo Point","https://www.firmy.cz/detail/13207554-divadlo-point-prostejov.html","1633"
"5","Hospoda","Hospoda U Fegena","https://www.firmy.cz/detail/13065448-hospoda-u-fegena-prostejov-vrahovice.html","513"
"6","Veterinář","Veterinární klinika - Aeskulap","https://www.firmy.cz/detail/660140-veterinarni-klinika-aeskulap-prostejov.html","1375"
"7","Škola","ZŠ Prostějov, Majakovského","https://www.firmy.cz/detail/359055-zs-prostejov-majakovskeho-prostejov-vrahovice.html","527"
"8","Bus MHD","Prostějov, Vrahovice, střed","","126"
"9","Školka","MŠ Prostějov, Smetanova","https://www.firmy.cz/detail/2297712-ms-prostejov-smetanova-prostejov-vrahovice.html","306"
"10","Vlak","Vrahovice","","789"
"11","Restaurace","Restaurace Prostějov 228","https://www.firmy.cz/detail/13123933-restaurace-prostejov-228-prostejov.html","695"
"12","Sportoviště","Koupaliště Vrahovice","https://www.firmy.cz/detail/13181555-koupaliste-vrahovice-prostejov-vrahovice.html","453"
"13","Lékař","MEDICOM`S spol. s r.o.","https://www.firmy.cz/detail/377014-medicom-s-spol-s-r-o-prostejov-vrahovice.html","240"
"14","Obchod","Tesco","https://www.firmy.cz/detail/218197-tesco-drzovice.html","1135"
"15","Pošta","Pošta Prostějov 6 - Česká pošta, s.p.","https://www.firmy.cz/detail/216219-posta-prostejov-6-prostejov-vrahovice.html","346"
"16","Bankomat","Bankomat Air Bank","https://www.firmy.cz/detail/13032257-bankomat-air-bank-drzovice.html","1087"
"17","Lékárna","Dr.Max LÉKÁRNA","https://www.firmy.cz/detail/13085707-dr-max-lekarna-drzovice.html","1135"
