"","facility_type","facility_name","facility_iri","facility_distance"
"0","Cukrárna","Costa Coffee","https://www.firmy.cz/detail/2670663-costa-coffee-praha-nove-mesto.html","281"
"1","Kino","Kino 35 Francouzský institut v Praze","https://www.firmy.cz/detail/682514-kino-35-francouzsky-institut-v-praze-praha-nove-mesto.html","151"
"2","Hřiště","Dětské hřiště Františkánská zahrada","","449"
"3","Večerka","MANNI MINI MARKET","https://www.firmy.cz/detail/2511345-manni-mini-market-praha-nove-mesto.html","194"
"4","Hospoda","Batalion Café & Music Bar","https://www.firmy.cz/detail/457689-batalion-cafe-music-bar-praha-stare-mesto.html","600"
"5","Divadlo","Činoherní klub, z.ú.","https://www.firmy.cz/detail/396907-cinoherni-klub-z-u-praha-nove-mesto.html","17"
"6","Veterinář","Veterinární ambulance Help","https://www.firmy.cz/detail/178079-veterinarni-ambulance-help-praha-vinohrady.html","667"
"7","Škola","Akademické gymnázium, škola hlavního města Prahy, Praha 1, Štěpánská 22","https://www.firmy.cz/detail/228896-akademicke-gymnazium-skola-hlavniho-mesta-prahy-praha-1-stepanska-22-praha-nove-mesto.html","151"
"8","Bankomat","Bankomat ČSOB","https://www.firmy.cz/detail/599542-bankomat-csob-praha-nove-mesto.html","205"
"9","Metro","Muzeum","","172"
"10","Tram","Vodičkova","","290"
"11","Lékárna","Lékárna Opletalova","https://www.firmy.cz/detail/2649733-lekarna-opletalova-praha-nove-mesto.html","251"
"12","Školka","MŠ Praha 2, Na Rybníčku","https://www.firmy.cz/detail/731793-ms-praha-2-na-rybnicku-praha-nove-mesto.html","328"
"13","Restaurace","El Pueblo Mexicano Steak House","https://www.firmy.cz/detail/2004412-el-pueblo-mexicano-steak-house-praha-nove-mesto.html","50"
"14","Lékař","Klinika GHC Praha","https://www.firmy.cz/detail/432809-klinika-ghc-praha-praha-nove-mesto.html","134"
"15","Bus MHD","Ve Smečkách","","217"
"16","Obchod","DESIRRED","https://www.firmy.cz/detail/483472-desirred-praha-nove-mesto.html","378"
"17","Sportoviště","Vinland Golf Club","https://www.firmy.cz/detail/2406923-vinland-golf-club-praha-nove-mesto.html","548"
"18","Pošta","Česká pošta, s.p.","https://www.firmy.cz/detail/198930-ceska-posta-praha-nove-mesto.html","442"
"19","Vlak","Praha hlavní nádraží","","816"
