"","facility_type","facility_name","facility_iri","facility_distance"
"0","Cukrárna","Cukrárna Jane","https://www.firmy.cz/detail/12799909-cukrarna-jane-havlickuv-brod.html","138"
"1","Kino","Městské kino Ostrov","https://www.firmy.cz/detail/396776-mestske-kino-ostrov-havlickuv-brod.html","119"
"2","Hřiště","Dětské hřiště Jihlavská","","211"
"3","Večerka","Flop","https://www.firmy.cz/detail/2366583-flop-havlickuv-brod.html","283"
"4","Hospoda","SH ČMS - Sbor dobrovolných hasičů Břevnice","https://www.firmy.cz/detail/13138483-sh-cms-sbor-dobrovolnych-hasicu-brevnice-brevnice.html","3838"
"5","Divadlo","Městské divadlo a kino Ostrov","https://www.firmy.cz/detail/12957050-mestske-divadlo-a-kino-ostrov-havlickuv-brod.html","119"
"6","Veterinář","ANIVET, s.r.o.","https://www.firmy.cz/detail/12766881-anivet-havlickuv-brod.html","398"
"7","Lékař","MUDr. Marta Kopecká, s.r.o.","https://www.firmy.cz/detail/12845894-mudr-marta-kopecka-havlickuv-brod.html","112"
"8","Lékárna","Lékárna V a M, spol. s r.o.","https://www.firmy.cz/detail/658464-lekarna-v-a-m-havlickuv-brod.html","125"
"9","Vlak","Havlíčkův Brod","","745"
"10","Bus MHD","Havlíčkův Brod, stavební škola","","109"
"11","Restaurace","Steak house Jack","https://www.firmy.cz/detail/12725197-steak-house-jack-havlickuv-brod.html","130"
"12","Školka","MŠ Korálky, Havlíčkův Brod, Nádražní","https://www.firmy.cz/detail/2152849-ms-koralky-havlickuv-brod-nadrazni-havlickuv-brod.html","246"
"13","Bankomat","Bankomat Fio banky","https://www.firmy.cz/detail/12776676-bankomat-fio-banky-havlickuv-brod.html","138"
"14","Pošta","Pošta Havlíčkův Brod 2 - Česká pošta, s.p.","https://www.firmy.cz/detail/215763-posta-havlickuv-brod-2-havlickuv-brod.html","404"
"15","Škola","Střední průmyslová škola stavební akademika Stanislava Bechyně Havlíčkův Brod","https://www.firmy.cz/detail/307995-stredni-prumyslova-skola-stavebni-akademika-stanislava-bechyne-havlickuv-brod-havlickuv-brod.html","124"
"16","Sportoviště","Sport studio","https://www.firmy.cz/detail/580857-sport-studio-havlickuv-brod.html","588"
"17","Obchod","Kaufland","https://www.firmy.cz/detail/2099014-kaufland-havlickuv-brod.html","454"
