"","facility_type","facility_name","facility_iri","facility_distance"
"0","Cukrárna","Costa Coffee","https://www.firmy.cz/detail/2670656-costa-coffee-praha-letnany.html","297"
"1","Kino","Cinema City Letňany","https://www.firmy.cz/detail/2679833-cinema-city-letnany-praha-letnany.html","218"
"2","Přírodní zajímavost","Meandry Rokytky","","4307"
"3","Hřiště","Dětské hřiště","","179"
"4","Večerka","Penny Market","https://www.firmy.cz/detail/2412995-penny-market-praha-letnany.html","177"
"5","Hospoda","Pivnice Boleslavka","https://www.firmy.cz/detail/13302446-pivnice-boleslavka-praha-prosek.html","1756"
"6","Divadlo","Divadlo Pohádka","https://www.firmy.cz/detail/636143-divadlo-pohadka-praha-letnany.html","1057"
"7","Veterinář","Veterinární ordinace Svobodník","https://www.firmy.cz/detail/12879016-veterinarni-ordinace-svobodnik-praha-letnany.html","525"
"8","Sportoviště","TRIVA Praha, triatlonový klub","https://www.firmy.cz/detail/2652521-triva-praha-triatlonovy-klub-praha-letnany.html","103"
"9","Školka","MŠ Havířovská","https://www.firmy.cz/detail/13000098-ms-havirovska-praha-letnany.html","258"
"10","Restaurace","Pub Infinity","https://www.firmy.cz/detail/13202888-pub-infinity-praha-letnany.html","203"
"11","Bankomat","Bankomat České spořitelny","https://www.firmy.cz/detail/2464067-bankomat-ceske-sporitelny-praha-letnany.html","232"
"12","Obchod","OC Letňany","https://www.firmy.cz/detail/13027865-oc-letnany-praha-letnany.html","241"
"13","Lékárna","APOMED, s.r.o.","https://www.firmy.cz/detail/269355-apomed-praha-letnany.html","307"
"14","Bus MHD","Šumperská","","182"
"15","Tram","Sídliště Ďáblice","","1902"
"16","Škola","Základní škola Fryčovická","https://www.firmy.cz/detail/356261-zakladni-skola-frycovicka-praha-letnany.html","161"
"17","Vlak","Praha-Čakovice","","1697"
"18","Lékař","MUDr. Petr Zieg","https://www.firmy.cz/detail/720020-mudr-petr-zieg-praha-letnany.html","320"
"19","Metro","Letňany","","1387"
"20","Pošta","Pošta Praha 99 - Česká pošta, s.p.","https://www.firmy.cz/detail/216695-posta-praha-99-praha-letnany.html","685"
