"","facility_type","facility_name","facility_iri","facility_distance"
"0","Cukrárna","Kavárna pod Palmovkou","https://www.firmy.cz/detail/230739-kavarna-pod-palmovkou-praha-liben.html","1201"
"1","Kino","Kino Aero","https://www.firmy.cz/detail/399435-kino-aero-praha-zizkov.html","2875"
"2","Přírodní zajímavost","Meandry Rokytky","","3865"
"3","Hřiště","Dětské hřiště Krejčího","","341"
"4","Večerka","Potraviny V Zahradách","https://www.firmy.cz/detail/12811465-potraviny-v-zahradach-praha.html","107"
"5","Divadlo","Divadlo pod Palmovkou","https://www.firmy.cz/detail/396881-divadlo-pod-palmovkou-praha-liben.html","1201"
"6","Hospoda","Pivnice U Špačka","https://www.firmy.cz/detail/12751179-pivnice-u-spacka-praha-liben.html","748"
"7","Veterinář","Veterinární ordinace Svobodník","https://www.firmy.cz/detail/12879014-veterinarni-ordinace-svobodnik-praha-liben.html","671"
"8","Školka","MŠ Praha 8, Na Korábě","https://www.firmy.cz/detail/406939-ms-praha-8-na-korabe-praha-liben.html","252"
"9","Tram","Bulovka","","172"
"10","Bankomat","Bankomat České spořitelny","https://www.firmy.cz/detail/594940-bankomat-ceske-sporitelny-praha-liben.html","452"
"11","Škola","ZŠ Bohumila Hrabala, Praha 8","https://www.firmy.cz/detail/2258937-zs-bohumila-hrabala-praha-8-praha-liben.html","252"
"12","Obchod","Kaufland","https://www.firmy.cz/detail/1457859-kaufland-praha-liben.html","1530"
"13","Sportoviště","Roman Kühnert","https://www.firmy.cz/detail/2508502-roman-kuhnert-praha-liben.html","612"
"14","Metro","Ládví","","1118"
"15","Vlak","Praha-Vysočany","","1969"
"16","Bus MHD","Bulovka","","153"
"17","Restaurace","Pivovar u Bulovky","https://www.firmy.cz/detail/590733-pivovar-u-bulovky-praha-liben.html","323"
"18","Lékárna","Lékárna - Fakultní nemocnice na Bulovce","https://www.firmy.cz/detail/659788-lekarna-fakultni-nemocnice-na-bulovce-praha-liben.html","468"
"19","Lékař","MUDr. Zdeňka Bártlová","https://www.firmy.cz/detail/12742522-mudr-zdenka-bartlova-praha-liben.html","751"
"20","Pošta","Pošta Praha 85 - Česká pošta, s.p.","https://www.firmy.cz/detail/658903-posta-praha-85-praha-kobylisy.html","848"
