"","facility_type","facility_name","facility_iri","facility_distance"
"0","Cukrárna","Cukrárna Studánka","https://www.firmy.cz/detail/335042-cukrarna-studanka-praha-nove-mesto.html","28"
"1","Kino","Kino Mat","https://www.firmy.cz/detail/1974792-kino-mat-praha-nove-mesto.html","250"
"2","Přírodní zajímavost","Kovářovic mez","","5358"
"3","Hřiště","Dětské hřiště Karlovo náměstí","","311"
"4","Večerka","BILLA","https://www.firmy.cz/detail/689169-billa-praha-nove-mesto.html","140"
"5","Hospoda","Hostinec U Suchý Dásně","https://www.firmy.cz/detail/679683-hostinec-u-suchy-dasne-praha-nove-mesto.html","614"
"6","Divadlo","Minor","https://www.firmy.cz/detail/230743-minor-praha-nove-mesto.html","439"
"7","Veterinář","Veterinární klinika Na Hrádku - MVDr. Ľubica Nečasová","https://www.firmy.cz/detail/633528-veterinarni-klinika-na-hradku-mvdr-lubica-necasova-praha-nove-mesto.html","549"
"8","Bankomat","Raiffeisenbank - bankomat","https://www.firmy.cz/detail/631176-raiffeisenbank-bankomat-praha-nove-mesto.html","158"
"9","Vlak","Praha-Smíchov severní nást.","","1578"
"10","Škola","Českoslovanská akademie obchodní Dr. Edvarda Beneše, střední odborná škola, Praha 2","https://www.firmy.cz/detail/362421-ceskoslovanska-akademie-obchodni-dr-edvarda-benese-stredni-odborna-skola-praha-2-praha-nove-mesto.html","70"
"11","Tram","Karlovo náměstí","","183"
"12","Obchod","Quadrio","https://www.firmy.cz/detail/2042979-quadrio-praha-nove-mesto.html","616"
"13","Lékárna","LÉKÁRNA MORÁŇ","https://www.firmy.cz/detail/658422-lekarna-moran-praha-nove-mesto.html","220"
"14","Sportoviště","Tenisová škola TALLENT","https://www.firmy.cz/detail/722748-tenisova-skola-tallent-praha-nove-mesto.html","474"
"15","Pošta","Pošta Praha 5 - Česká pošta, s.p.","https://www.firmy.cz/detail/217457-posta-praha-5-praha-smichov.html","760"
"16","Bus MHD","Jiráskovo náměstí","","179"
"17","Lékař","online24, s.r.o.","https://www.firmy.cz/detail/579737-online24-praha-nove-mesto.html","289"
"18","Restaurace","Restaurace U Matějíčků","https://www.firmy.cz/detail/2597447-restaurace-u-matejicku-praha-nove-mesto.html","124"
"19","Školka","ZŠ a MŠ Praha 2, Resslova","https://www.firmy.cz/detail/770593-zs-a-ms-praha-2-resslova-praha-nove-mesto.html","135"
"20","Metro","Karlovo náměstí","","146"
