"","facility_type","facility_name","facility_iri","facility_distance"
"0","Hřiště","Dětské hřiště Peškova","https://mapy.cz/zakladni?x=17.2522647607&y=49.5728933917&z=17&source=base&id=2113183","329"
"1","Večerka","Potraviny Fischerova","https://www.firmy.cz/detail/13278845-potraviny-fischerova-olomouc-nove-sady.html","384"
"2","Hospoda","Hospůdka u Médi","https://www.firmy.cz/detail/13299464-hospudka-u-medi-olomouc-nove-sady.html","658"
"3","Kino","5D cinema Maxim","https://www.firmy.cz/detail/12950601-5d-cinema-maxim-olomouc.html","1877"
"4","Veterinář","Veterinární ordinace OrdinaVet","https://www.firmy.cz/detail/12984041-veterinarni-ordinace-ordinavet-olomouc-povel.html","1005"
"5","Divadlo","Divadlo na Šantovce, o.p.s.","https://www.firmy.cz/detail/12833588-divadlo-na-santovce-olomouc.html","1926"
"6","Cukrárna","Art Café","https://www.firmy.cz/detail/12919900-art-cafe-olomouc-povel.html","671"
"7","Restaurace","Hostinec Anděl","https://www.firmy.cz/detail/13278854-hostinec-andel-olomouc-povel.html","133"
"8","Vlak","Olomouc-Nové Sady","https://mapy.cz/zakladni?x=17.2607462612&y=49.5709734398&z=17&source=pubt&id=15212340","769"
"9","Bankomat","Bankomat Komerční banky","https://www.firmy.cz/detail/12786960-bankomat-komercni-banky-olomouc-nove-sady.html","482"
"10","Škola","Fakultní základní škola dr. Milady Horákové a Mateřská škola Olomouc, Rožňavská 21, příspěvková organizace","https://www.firmy.cz/detail/358587-fakultni-zakladni-skola-dr-milady-horakove-a-materska-skola-olomouc-roznavska-21-prispevkova-organizace-olomouc-nove-sady.html","546"
"11","Tram","Trnkova","https://mapy.cz/zakladni?x=17.25719801777482&y=49.57954288173438&z=17&source=pubt&id=15316610","1150"
"12","Školka","Eduka Bábetko z.s.","https://www.firmy.cz/detail/13278536-eduka-babetko-z-s-olomouc-povel.html","370"
"13","Bus MHD","Jižní","https://mapy.cz/zakladni?x=17.247815843232683&y=49.57067127968363&z=17&source=pubt&id=15203150","174"
"14","Pošta","Pošta Olomouc 12 - Česká pošta, s.p.","https://www.firmy.cz/detail/215270-posta-olomouc-12-olomouc-povel.html","969"
"15","Sportoviště","SK SAM - Sportovní aktivity mládeže Olomouc","https://www.firmy.cz/detail/1346719-sk-sam-sportovni-aktivity-mladeze-olomouc-olomouc-slavonin.html","518"
"16","Obchod","Nákupní galerie EG CENTRUM, s.r.o.","https://www.firmy.cz/detail/12807048-nakupni-galerie-eg-centrum-olomouc-nova-ulice.html","1486"
"17","Lékárna","Fit Lékárna","https://www.firmy.cz/detail/13168822-fit-lekarna-olomouc-nove-sady.html","461"
"18","Lékař","MUDr. Hana Jochmannová","https://www.firmy.cz/detail/386461-mudr-hana-jochmannova-olomouc-nove-sady.html","390"
