"","facility_type","facility_name","facility_iri","facility_distance"
"0","Cukrárna","Kavárna Creperie","https://www.firmy.cz/detail/2037440-kavarna-creperie-praha-vysocany.html","388"
"1","Kino","Cinema City Letňany","https://www.firmy.cz/detail/2679833-cinema-city-letnany-praha-letnany.html","2601"
"2","Hřiště","Dětské hřiště Zbuzkova","","243"
"3","Přírodní zajímavost","Meandry Rokytky","","1975"
"4","Večerka","DELMART FÉNIX","https://www.firmy.cz/detail/13210057-delmart-fenix-praha-vysocany.html","405"
"5","Hospoda","Hospoda U Zdi","https://www.firmy.cz/detail/13217099-hospoda-u-zdi-praha-liben.html","1336"
"6","Divadlo","Divadlo Gong","https://www.firmy.cz/detail/230751-divadlo-gong-praha-liben.html","1235"
"7","Veterinář","VETERINÁRNÍ KLINIKA VET-PET","https://www.firmy.cz/detail/12900541-veterinarni-klinika-vet-pet-praha-prosek.html","831"
"8","Bankomat","Raiffeisenbank - bankomat","https://www.firmy.cz/detail/631192-raiffeisenbank-bankomat-praha-vysocany.html","200"
"9","Restaurace","Restaurace U Kocoura","https://www.firmy.cz/detail/12754896-restaurace-u-kocoura-praha-vysocany.html","181"
"10","Vlak","Praha-Vysočany","","379"
"11","Škola","ZŠ Špitálská","https://www.firmy.cz/detail/359024-zs-spitalska-praha-vysocany.html","426"
"12","Metro","Vysočanská","","314"
"13","Tram","Vysočanská","","212"
"14","Obchod","Nákupní Centrum Fénix Vysočanská","https://www.firmy.cz/detail/613133-nakupni-centrum-fenix-vysocanska-praha-vysocany.html","359"
"15","Školka","Maxíkova jazyková školka a jesle","https://www.firmy.cz/detail/12874124-maxikova-jazykova-skolka-a-jesle-praha-vysocany.html","606"
"16","Lékař","Resurf Med, s.r.o.","https://www.firmy.cz/detail/12767393-resurf-med-praha-vysocany.html","415"
"17","Bus MHD","Krocínka","","289"
"18","Sportoviště","Veřejné hřiště na míčové hry Pískovcová","","475"
"19","Lékárna","Lékárna Fenix","https://www.firmy.cz/detail/642631-lekarna-fenix-praha-vysocany.html","356"
"20","Pošta","Pošta Praha 93 - Česká pošta, s.p.","https://www.firmy.cz/detail/217419-posta-praha-93-praha-vysocany.html","452"
