"","facility_type","facility_name","facility_iri","facility_distance"
"0","Hřiště","Dětské hřiště U Hagiboru","https://mapy.cz/zakladni?x=14.4863670602&y=50.0781232819&z=17&source=base&id=1926540","45"
"1","Přírodní zajímavost","Mokřad Triangl","https://mapy.cz/zakladni?x=14.5188041667&y=50.0615525&z=17&source=base&id=1981356","2930"
"2","Veterinář","Veterinární klinika, MVDr. Jaroslav Chlupatý","https://www.firmy.cz/detail/402389-veterinarni-klinika-mvdr-jaroslav-chlupaty-praha-strasnice.html","298"
"3","Večerka","Albert Supermarket","https://www.firmy.cz/detail/209473-albert-supermarket-praha-vrsovice.html","737"
"4","Cukrárna","OVOCNÝ SVĚTOZOR","https://www.firmy.cz/detail/468735-ovocny-svetozor-praha-strasnice.html","761"
"5","Divadlo","Divadelní studio Neklid, o.p.s. - Divadlo Neklid","https://www.firmy.cz/detail/12794645-divadelni-studio-neklid-o-p-s-divadlo-neklid-praha-vrsovice.html","1988"
"6","Hospoda","Hospůdka U Kladiva","https://www.firmy.cz/detail/625166-hospudka-u-kladiva-praha-strasnice.html","365"
"7","Kino","Kino Aero","https://www.firmy.cz/detail/399435-kino-aero-praha-zizkov.html","1742"
"8","Sportoviště","Pražský svaz malého fotbalu","https://www.firmy.cz/detail/584083-prazsky-svaz-maleho-fotbalu-praha-strasnice.html","328"
"9","Restaurace","Vinice Café Restaurant","https://www.firmy.cz/detail/333393-vinice-cafe-restaurant-praha-strasnice.html","70"
"10","Obchod","Tesco Extra","https://www.firmy.cz/detail/733906-tesco-extra-praha-vrsovice.html","1709"
"11","Bus MHD","Krematorium Strašnice","https://mapy.cz/zakladni?x=14.48528&y=50.07731&z=17&source=pubt&id=18811165","92"
"12","Pošta","Pošta Praha 10 - Česká pošta, s.p.","https://www.firmy.cz/detail/431425-posta-praha-10-praha-strasnice.html","477"
"13","Lékař","MUDr. Ivana Marečková","https://www.firmy.cz/detail/386970-mudr-ivana-mareckova-praha-strasnice.html","425"
"14","Tram","Krematorium Strašnice","https://mapy.cz/zakladni?x=14.4856094217&y=50.0771557707&z=17&source=pubt&id=15305579","84"
"15","Bankomat","Bankomat ČSOB","https://www.firmy.cz/detail/599562-bankomat-csob-praha-strasnice.html","114"
"16","Metro","Strašnická","https://mapy.cz/zakladni?x=14.4913917797&y=50.0728776198&z=17&source=pubt&id=15206984","646"
"17","Vlak","Praha-Eden","https://mapy.cz/zakladni?x=14.4717813004041&y=50.0657103621663&z=17&source=pubt&id=18415989","1695"
"18","Školka","MŠ Praha 10, Ve Stínu","https://www.firmy.cz/detail/2242716-ms-praha-10-ve-stinu-praha-strasnice.html","609"
"19","Škola","Střední škola a vyšší odborná škola umělecká a řemeslná","https://www.firmy.cz/detail/2231044-stredni-skola-a-vyssi-odborna-skola-umelecka-a-remeslna-praha-strasnice.html","408"
"20","Lékárna","Slunečná lékárna","https://www.firmy.cz/detail/599666-slunecna-lekarna-praha-strasnice.html","374"
