"","facility_type","facility_name","facility_iri","facility_distance"
"0","Cukrárna","Cukrárna Povidloň","https://www.firmy.cz/detail/13321570-cukrarna-povidlon-lipno-nad-vltavou.html","643"
"1","Kino","Kino club Loučovice","https://www.firmy.cz/detail/13276074-kino-club-loucovice-loucovice.html","2951"
"2","Přírodní zajímavost","Čertova stěna","","3909"
"3","Hřiště","Dětské hřiště u aquacentra","","338"
"4","Večerka","Potraviny COOP","https://www.firmy.cz/detail/12778821-potraviny-coop-lipno-nad-vltavou.html","322"
"5","Hospoda","Občerstvení Altánek","https://www.firmy.cz/detail/13262153-obcerstveni-altanek-lipno-nad-vltavou.html","235"
"6","Bus MHD","Lipno nad Vltavou, přístaviště","","22"
"7","Pošta","Pošta Lipno nad Vltavou - Česká pošta, s.p.","https://www.firmy.cz/detail/217049-posta-lipno-nad-vltavou-lipno-nad-vltavou.html","322"
"8","Lékař","MUDr. Dana Smítková","https://www.firmy.cz/detail/387825-mudr-dana-smitkova-lipno-nad-vltavou.html","414"
"9","Bankomat","Bankomat ČSOB","https://www.firmy.cz/detail/1423180-bankomat-csob-lipno-nad-vltavou.html","134"
"10","Lékárna","Lékárna Lipno","https://www.firmy.cz/detail/2619938-lekarna-lipno-lipno-nad-vltavou.html","193"
"11","Sportoviště","ERNESTA, s.r.o.","https://www.firmy.cz/detail/13083503-ernesta-lipno-nad-vltavou.html","303"
"12","Vlak","Lipno nad Vltavou","","1389"
"13","Školka","ZŠ a MŠ Lipno nad Vltavou","https://www.firmy.cz/detail/723918-zs-a-ms-lipno-nad-vltavou-lipno-nad-vltavou.html","381"
"14","Škola","ZŠ a MŠ Lipno nad Vltavou","https://www.firmy.cz/detail/358044-zs-a-ms-lipno-nad-vltavou-lipno-nad-vltavou.html","381"
"15","Restaurace","Restaurace Gemelli","https://www.firmy.cz/detail/13123124-restaurace-gemelli-lipno-nad-vltavou.html","75"
