"","facility_type","facility_name","facility_iri","facility_distance"
"0","Cukrárna","Cukrárna Amarilis","https://www.firmy.cz/detail/2570922-cukrarna-amarilis-praha-haje.html","676"
"1","Kino","Cinema City Chodov","https://www.firmy.cz/detail/13098016-cinema-city-chodov-praha-chodov.html","2799"
"2","Přírodní zajímavost","Mokřad Triangl","","4046"
"3","Hřiště","Dětské hřiště Jurkovičova","","150"
"4","Večerka","NORMA","https://www.firmy.cz/detail/2182172-norma-praha-haje.html","373"
"5","Divadlo","SKAZKA, spol. s r.o.","https://www.firmy.cz/detail/2048564-skazka-praha-hostivar.html","2241"
"6","Hospoda","Hospoda Severka","https://www.firmy.cz/detail/13240896-hospoda-severka-praha-chodov.html","684"
"7","Veterinář","Veterinární ambulance AA-Vet","https://www.firmy.cz/detail/646998-veterinarni-ambulance-aa-vet-praha-chodov.html","574"
"8","Škola","SOŠ multimediální a propagační tvorby, s.r.o.","https://www.firmy.cz/detail/149327-sos-multimedialni-a-propagacni-tvorby-praha-chodov.html","157"
"9","Lékárna","Magistra Lékárna Opatov","https://www.firmy.cz/detail/12925684-magistra-lekarna-opatov-praha-chodov.html","547"
"10","Sportoviště","Hřiště na pétanque","","355"
"11","Lékař","MUDr. Vladimíra Sladká","https://www.firmy.cz/detail/383552-mudr-vladimira-sladka-praha-chodov.html","563"
"12","Metro","Háje","","559"
"13","Bus MHD","Milíčov","","180"
"14","Obchod","Obchodní centrum Háje","https://www.firmy.cz/detail/13272506-obchodni-centrum-haje-praha-haje.html","645"
"15","Pošta","Pošta Praha 419 - Česká pošta, s.p.","https://www.firmy.cz/detail/217471-posta-praha-419-praha-haje.html","664"
"16","Bankomat","Bankomat České spořitelny","https://www.firmy.cz/detail/2464015-bankomat-ceske-sporitelny-praha-haje.html","558"
"17","Školka","MŠ Praha 4, Sulanského","https://www.firmy.cz/detail/2265592-ms-praha-4-sulanskeho-praha-haje.html","287"
"18","Restaurace","Šenkýrna Pražanka","https://www.firmy.cz/detail/2384585-senkyrna-prazanka-praha-chodov.html","282"
"19","Vlak","Praha-Hostivař","","3320"
"20","Tram","Hostivařská","","2995"
