"","facility_type","facility_name","facility_iri","facility_distance"
"0","Cukrárna","Kavárna Cafe Kubr","https://www.firmy.cz/detail/12977091-kavarna-cafe-kubr-kladno.html","1311"
"1","Kino","Kino Hutník","https://www.firmy.cz/detail/396729-kino-hutnik-kladno-krocehlavy.html","1685"
"2","Přírodní zajímavost","Vodní park Čabárna","","4075"
"3","Hřiště","Dětské hřiště Dlouhé boroviny","","920"
"4","Večerka","Smíšené zboží Petra Hlaváčková","https://www.firmy.cz/detail/2116257-smisene-zbozi-petra-hlavackova-kladno-krocehlavy.html","95"
"5","Hospoda","Pivnice U Seckých","https://www.firmy.cz/detail/12735357-pivnice-u-seckych-kladno-krocehlavy.html","161"
"6","Divadlo","Městské divadlo Kladno","https://www.firmy.cz/detail/1970001-mestske-divadlo-kladno-kladno.html","1088"
"7","Veterinář","Zvířecí doktor, s.r.o.","https://www.firmy.cz/detail/2361316-zvireci-doktor-kladno.html","1046"
"8","Škola","Základní škola Kladno, Školská 322","https://www.firmy.cz/detail/356088-zakladni-skola-kladno-skolska-322-kladno-krocehlavy.html","262"
"9","Lékárna","Modrá lékárna","https://www.firmy.cz/detail/606889-modra-lekarna-kladno-krocehlavy.html","193"
"10","Sportoviště","Klub START-UP, o.s.","https://www.firmy.cz/detail/12824517-klub-start-up-o-s-kladno.html","650"
"11","Vlak","Kladno","","1936"
"12","Školka","Dětské centrum Mafík","https://www.firmy.cz/detail/12853905-detske-centrum-mafik-kladno.html","672"
"13","Obchod","Albert Hypermarket","https://www.firmy.cz/detail/12933923-albert-hypermarket-kladno.html","1317"
"14","Lékař","MEDICA SEVER s.r.o.","https://www.firmy.cz/detail/2661683-medica-sever-s-r-o-kladno-krocehlavy.html","450"
"15","Bankomat","Bankomat České spořitelny","https://www.firmy.cz/detail/591444-bankomat-ceske-sporitelny-kladno-krocehlavy.html","1228"
"16","Restaurace","Country club Dřevák","https://www.firmy.cz/detail/12896070-country-club-drevak-kladno-krocehlavy.html","195"
"17","Pošta","Pošta Depo Kladno 70","https://www.firmy.cz/detail/13162825-posta-depo-kladno-70-kladno-dubi.html","619"
"18","Bus MHD","Kladno, Kročehlavská","","110"
