"","facility_type","facility_name","facility_iri","facility_distance"
"0","Cukrárna","Ta Kavárna","https://www.firmy.cz/detail/2380451-ta-kavarna-praha-nusle.html","339"
"1","Kino","HopeTV","https://www.firmy.cz/detail/672889-hopetv-praha-vinohrady.html","1855"
"2","Hřiště","Dětské hřiště Lopatecká","","165"
"3","Večerka","FEBAJ maloobchod","https://www.firmy.cz/detail/2676948-febaj-maloobchod-praha-podoli.html","186"
"4","Hospoda","BEER BAR Na Veseli","https://www.firmy.cz/detail/2553652-beer-bar-na-veseli-praha-nusle.html","1085"
"5","Divadlo","TotO Divadlo","https://www.firmy.cz/detail/2262258-toto-divadlo-praha-nusle.html","432"
"6","Veterinář","MVDr. Lucie Boháčová","https://www.firmy.cz/detail/2646562-mvdr-lucie-bohacova-praha-podoli.html","114"
"7","Bankomat","Bankomat Euronet","https://www.firmy.cz/detail/1348099-bankomat-euronet-praha-podoli.html","350"
"8","Lékárna","Lékárna v Podolí, s.r.o.","https://www.firmy.cz/detail/269503-lekarna-v-podoli-praha-podoli.html","470"
"9","Lékař","MUDr. Marcela Cesarová","https://www.firmy.cz/detail/379326-mudr-marcela-cesarova-praha-podoli.html","230"
"10","Školka","MŠ Praha 4, Voráčovská","https://www.firmy.cz/detail/628792-ms-praha-4-voracovska-praha-podoli.html","282"
"11","Obchod","Arkády Pankrác","https://www.firmy.cz/detail/2245240-arkady-pankrac-praha-nusle.html","1078"
"12","Bus MHD","Doliny","","70"
"13","Restaurace","Restaurace U Dragouna","https://www.firmy.cz/detail/335878-restaurace-u-dragouna-praha-podoli.html","236"
"14","Tram","Podolská vodárna","","516"
"15","Pošta","Pošta Praha 49 - Česká pošta, s.p.","https://www.firmy.cz/detail/217479-posta-praha-49-praha-podoli.html","409"
"16","Metro","Pražského povstání","","537"
"17","Sportoviště","Sportovní areál - Tělovýchovná jednota Pankrác","https://www.firmy.cz/detail/222212-sportovni-areal-telovychovna-jednota-pankrac-praha-nusle.html","378"
"18","Škola","ZŠ Praha 4, Nedvědovo náměstí","https://www.firmy.cz/detail/401410-zs-praha-4-nedvedovo-namesti-praha-podoli.html","351"
"19","Vlak","Praha-Smíchov","","1379"
