"","facility_type","facility_name","facility_iri","facility_distance"
"0","Cukrárna","Cukrárna Mírové nám. 94","https://www.firmy.cz/detail/12886431-cukrarna-mirove-nam-94-tyniste-nad-orlici.html","719"
"1","Hřiště","Dětské hřiště Zvoníčkova","","381"
"2","Večerka","Potraviny Majka","https://www.firmy.cz/detail/13059265-potraviny-majka-tyniste-nad-orlici.html","30"
"3","Hospoda","U sluncí","https://www.firmy.cz/detail/13110864-u-slunci-tyniste-nad-orlici.html","773"
"4","Veterinář","Veterinární ordinace ARGO - MVDr. Jaroslav Šedivý","https://www.firmy.cz/detail/2142725-veterinarni-ordinace-argo-mvdr-jaroslav-sedivy-tyniste-nad-orlici.html","493"
"5","Lékárna","Lékárna Na Náměstí","https://www.firmy.cz/detail/2306373-lekarna-na-namesti-tyniste-nad-orlici.html","715"
"6","Bus MHD","Týniště n.Orl., V Sítinách","","13"
"7","Škola","ZŠ Týniště nad Orlicí","https://www.firmy.cz/detail/359808-zs-tyniste-nad-orlici-tyniste-nad-orlici.html","600"
"8","Restaurace","Restaurace U Splávku","https://www.firmy.cz/detail/12916145-restaurace-u-splavku-tyniste-nad-orlici.html","73"
"9","Bankomat","Bankomat Komerční banky","https://www.firmy.cz/detail/592556-bankomat-komercni-banky-tyniste-nad-orlici.html","663"
"10","Sportoviště","Tělocvičná jednota Sokol Týniště nad Orlicí","https://www.firmy.cz/detail/2133094-telocvicna-jednota-sokol-tyniste-nad-orlici-tyniste-nad-orlici.html","237"
"11","Lékař","MALMED, s.r.o.","https://www.firmy.cz/detail/12844398-malmed-tyniste-nad-orlici.html","321"
"12","Školka","Mateřská škola - Město, Týniště nad Orlicí, Lipská 259","https://www.firmy.cz/detail/2152628-materska-skola-mesto-tyniste-nad-orlici-lipska-259-tyniste-nad-orlici.html","788"
"13","Vlak","Týniště nad Orlicí","","519"
"14","Pošta","Pošta Týniště nad Orlicí - Česká pošta, s.p.","https://www.firmy.cz/detail/215695-posta-tyniste-nad-orlici-tyniste-nad-orlici.html","807"
