"","facility_type","facility_name","facility_iri","facility_distance"
"0","Hřiště","Dětské hřiště Mrázovka","https://mapy.cz/zakladni?x=14.3952385588&y=50.0692144347&z=17&source=base&id=1927524","235"
"1","Cukrárna","Café Alegre","https://www.firmy.cz/detail/2384627-cafe-alegre-praha-smichov.html","739"
"2","Veterinář","MVDr. Jana Lukešová","https://www.firmy.cz/detail/473617-mvdr-jana-lukesova-praha-smichov.html","588"
"3","Hospoda","Hospůdka Knoflík","https://www.firmy.cz/detail/2253647-hospudka-knoflik-praha-smichov.html","911"
"4","Večerka","Tuyen Le Thi - OVOCE ZELENINA","https://www.firmy.cz/detail/2464821-tuyen-le-thi-ovoce-zelenina-praha-kosire.html","392"
"5","Divadlo","Divadlo Orfeus","https://www.firmy.cz/detail/413053-divadlo-orfeus-praha-kosire.html","410"
"6","Kino","CineStar Anděl","https://www.firmy.cz/detail/2537565-cinestar-andel-praha-smichov.html","714"
"7","Přírodní zajímavost","Kovářovic mez","https://mapy.cz/zakladni?x=14.36107759920759&y=50.04395254566995&z=17&source=base&id=2339664","3538"
"8","Tram","Bertramka","https://mapy.cz/zakladni?x=14.3924366404&y=50.0722310034&z=17&source=pubt&id=15302959","381"
"9","Lékárna","Na Cihlářce","https://www.firmy.cz/detail/375354-na-cihlarce-praha-smichov.html","238"
"10","Sportoviště","Sport Mrázovka","https://www.firmy.cz/detail/2673921-sport-mrazovka-praha-smichov.html","291"
"11","Školka","NESSIE- anglická školka","https://www.firmy.cz/detail/2488322-nessie-anglicka-skolka-praha-smichov.html","117"
"12","Metro","Anděl","https://mapy.cz/zakladni?x=14.4033844838&y=50.0687000114&z=17&source=pubt&id=15200238","813"
"13","Bus MHD","Mrázovka","https://mapy.cz/zakladni?x=14.39249&y=50.0685&z=17&source=pubt&id=18205645","50"
"14","Bankomat","Bankomat Sberbank CZ","https://www.firmy.cz/detail/2429005-bankomat-sberbank-cz-praha-smichov.html","797"
"15","Restaurace","Restaurace Pod Černým vrchem","https://www.firmy.cz/detail/333475-restaurace-pod-cernym-vrchem-praha-kosire.html","329"
"16","Pošta","Pošta Praha 53 - Česká pošta, s.p.","https://www.firmy.cz/detail/431282-posta-praha-53-praha-smichov.html","539"
"17","Lékař","SPOLEČNOST PRO PRACOVNÍ MEDICÍNU s.r.o.","https://www.firmy.cz/detail/2035086-spolecnost-pro-pracovni-medicinu-s-r-o-praha-smichov.html","185"
"18","Vlak","Praha-Smíchov severní nást.","https://mapy.cz/zakladni?x=14.4065580233&y=50.0636913993&z=17&source=pubt&id=15694558","1185"
"19","Škola","Obchodní institut","https://www.firmy.cz/detail/272001-obchodni-institut-praha-smichov.html","397"
"20","Obchod","Tesco","https://www.firmy.cz/detail/733908-tesco-praha-smichov.html","813"
