"","facility_type","facility_name","facility_iri","facility_distance"
"0","Hřiště","Dětské hřiště Angolská","https://mapy.cz/zakladni?x=14.3577933764&y=50.0972430663&z=17&source=base&id=1927102","67"
"1","Cukrárna","Cukrárna Mučenka","https://www.firmy.cz/detail/13133769-cukrarna-mucenka-praha-vokovice.html","444"
"2","Hospoda","Hospoda Stará Ořechovka","https://www.firmy.cz/detail/12997296-hospoda-stara-orechovka-praha-stresovice.html","1577"
"3","Divadlo","Divadlo Tineola","https://www.firmy.cz/detail/401473-divadlo-tineola-praha-vokovice.html","1045"
"4","Večerka","BILLA","https://www.firmy.cz/detail/212089-billa-praha-vokovice.html","49"
"5","Veterinář","MVDr. Anatólii Bank","https://www.firmy.cz/detail/1994107-mvdr-anatolii-bank-praha-dejvice.html","834"
"6","Kino","Kino Dlabačov","https://www.firmy.cz/detail/13024517-kino-dlabacov-praha-brevnov.html","2014"
"7","Bankomat","Bankomat České spořitelny","https://www.firmy.cz/detail/13000870-bankomat-ceske-sporitelny-praha-vokovice.html","48"
"8","Škola","Gymnázium Praha 6, Arabská","https://www.firmy.cz/detail/362410-gymnazium-praha-6-arabska-praha-vokovice.html","214"
"9","Sportoviště","Badmintonový klub Praha","https://www.firmy.cz/detail/13075368-badmintonovy-klub-praha-praha-vokovice.html","449"
"10","Pošta","Pošta Praha 65 - Česká pošta, s.p.","https://www.firmy.cz/detail/216702-posta-praha-65-praha-vokovice.html","218"
"11","Školka","Fakultní MŠ se speciální péčí","https://www.firmy.cz/detail/408058-fakultni-ms-se-specialni-peci-praha-vokovice.html","135"
"12","Restaurace","Barca steak restaurant","https://www.firmy.cz/detail/13117815-barca-steak-restaurant-praha-vokovice.html","66"
"13","Vlak","Praha-Veleslavín","https://mapy.cz/zakladni?x=14.3462189416&y=50.0950055146&z=17&source=pubt&id=15212584","929"
"14","Bus MHD","Sídliště Červený Vrch","https://mapy.cz/zakladni?x=14.3600639485&y=50.0980093004&z=17&source=pubt&id=15302178","116"
"15","Tram","Sídliště Červený Vrch","https://mapy.cz/zakladni?x=14.3591869682&y=50.097980011&z=17&source=pubt&id=15693540","66"
"16","Lékárna","BENU Lékárna","https://www.firmy.cz/detail/12848171-benu-lekarna-praha-vokovice.html","45"
"17","Lékař","COMFORT CARE Ambulance, s.r.o.","https://www.firmy.cz/detail/12916822-comfort-care-ambulance-praha-vokovice.html","308"
"18","Obchod","Obchodní centrum Homolka","https://www.firmy.cz/detail/13035811-obchodni-centrum-homolka-praha-motol.html","2499"
"19","Metro","Bořislavka","https://mapy.cz/zakladni?x=14.362080589&y=50.098190956&z=17&source=pubt&id=15707264","257"
