"","facility_type","facility_name","facility_iri","facility_distance"
"0","Cukrárna","Cukrárna Lada","https://www.firmy.cz/detail/12915655-cukrarna-lada-havirov-sumbark.html","3334"
"1","Kino","Letní kino - Městské kulturní středisko Havířov","https://www.firmy.cz/detail/13072791-letni-kino-havirov.html","4715"
"2","Hřiště","Dětské hřiště Šumbarská","","694"
"3","Večerka","Penny Market","https://www.firmy.cz/detail/2237952-penny-market-petrvald.html","710"
"4","Hospoda","Restaurace U Vašíčků","https://www.firmy.cz/detail/13109917-restaurace-u-vasicku-ostrava-radvanice.html","1988"
"5","Divadlo","Divadlo Devítka","https://www.firmy.cz/detail/2413186-divadlo-devitka-ostrava-michalkovice.html","3721"
"6","Veterinář","Veterinární ordinace Care4Pet s.r.o.","https://www.firmy.cz/detail/13132952-veterinarni-ordinace-care4pet-s-r-o-petrvald.html","993"
"7","Obchod","Tesco","https://www.firmy.cz/detail/218205-tesco-havirov-mesto.html","4146"
"8","Vlak","Havířov","","3862"
"9","Lékárna","Lékárna Camilla","https://www.firmy.cz/detail/292403-lekarna-camilla-petrvald.html","958"
"10","Pošta","Pošta Petřvald u Karviné - Česká pošta, s.p.","https://www.firmy.cz/detail/431535-posta-petrvald-u-karvine-petrvald.html","842"
"11","Lékař","MUDr. Jarmila Kremerová Ordinace praktického lékaře, s.r.o.","https://www.firmy.cz/detail/1962075-mudr-jarmila-kremerova-ordinace-praktickeho-lekare-petrvald.html","958"
"12","Bankomat","Bankomat České spořitelny","https://www.firmy.cz/detail/12838714-bankomat-ceske-sporitelny-petrvald.html","818"
"13","Školka","MŠ Petřvald","https://www.firmy.cz/detail/2506060-ms-petrvald-petrvald.html","399"
"14","Bus MHD","Půstky","","385"
"15","Restaurace","Restaurace Mokroš","https://www.firmy.cz/detail/253550-restaurace-mokros-petrvald.html","702"
"16","Sportoviště","Tělocvičná jednota Sokol Petřvald","https://www.firmy.cz/detail/2137834-telocvicna-jednota-sokol-petrvald-petrvald.html","1060"
"17","Škola","ZŠ a ZUŠ Petřvald","https://www.firmy.cz/detail/2178537-zs-a-zus-petrvald-petrvald.html","399"
