"","facility_type","facility_name","facility_iri","facility_distance"
"0","Hřiště","Dětské hřiště Hvozd","","999"
"1","Hospoda","Hostinec Pláně 33","https://www.firmy.cz/detail/13137977-hostinec-plane-33-plane.html","2748"
"2","Večerka","COOP - JEDNOTA, spotřební družstvo Plasy","https://www.firmy.cz/detail/2160310-coop-jednota-spotrebni-druzstvo-plasy-hvozd.html","955"
"3","Bus MHD","Dražeň, Bažantnice","","488"
"4","Pošta","Pošta Partner Hvozd u Plas","https://www.firmy.cz/detail/13099346-posta-partner-hvozd-u-plas-hvozd.html","955"
