"","facility_type","facility_name","facility_iri","facility_distance"
"0","Cukrárna","Cukrárna Židlochovice","https://www.firmy.cz/detail/1990236-cukrarna-zidlochovice-zidlochovice.html","279"
"1","Hřiště","Dětské hřiště sídliště Družba","","40"
"2","Večerka","Penny Market","https://www.firmy.cz/detail/2413791-penny-market-zidlochovice.html","552"
"3","Hospoda","Hostinec Milton","https://www.firmy.cz/detail/13091815-hostinec-milton-zidlochovice.html","335"
"4","Veterinář","MVDr. Marcela Dašková","https://www.firmy.cz/detail/12826674-mvdr-marcela-daskova-zabcice.html","3548"
"5","Lékárna","Lékárna Galen Plus, a.s.","https://www.firmy.cz/detail/2425713-lekarna-galen-plus-a-s-zidlochovice.html","240"
"6","Bankomat","Bankomat České spořitelny","https://www.firmy.cz/detail/591589-bankomat-ceske-sporitelny-zidlochovice.html","243"
"7","Lékař","MEDICPRO, s.r.o.","https://www.firmy.cz/detail/12948606-medicpro-zidlochovice.html","93"
"8","Školka","MŠ Židlochovice","https://www.firmy.cz/detail/685541-ms-zidlochovice-zidlochovice.html","89"
"9","Pošta","Pošta Židlochovice - Česká pošta, s.p.","https://www.firmy.cz/detail/216090-posta-zidlochovice-zidlochovice.html","347"
"10","Bus MHD","Židlochovice, sídliště","","92"
"11","Restaurace","Restaurace Pavir","https://www.firmy.cz/detail/2598710-restaurace-pavir-zidlochovice.html","116"
"12","Vlak","Židlochovice","","745"
"13","Škola","Gymnázium Židlochovice","https://www.firmy.cz/detail/362082-gymnazium-zidlochovice-zidlochovice.html","414"
"14","Sportoviště","Fitness Bobo","https://www.firmy.cz/detail/2353630-fitness-bobo-zidlochovice.html","628"
