"","facility_type","facility_name","facility_iri","facility_distance"
"0","Cukrárna","Kavárna Globe","https://www.firmy.cz/detail/329022-kavarna-globe-praha-nove-mesto.html","86"
"1","Kino","Kino Mat","https://www.firmy.cz/detail/1974792-kino-mat-praha-nove-mesto.html","262"
"2","Přírodní zajímavost","Kovářovic mez","","5387"
"3","Hřiště","Dětské hřiště Vojtěšský obvod","","199"
"4","Večerka","MANNI MINI MARKET","https://www.firmy.cz/detail/2609033-manni-mini-market-praha-nove-mesto.html","163"
"5","Hospoda","Hostinec U Suchý Dásně","https://www.firmy.cz/detail/679683-hostinec-u-suchy-dasne-praha-nove-mesto.html","740"
"6","Divadlo","Národní divadlo","https://www.firmy.cz/detail/230553-narodni-divadlo-praha-nove-mesto.html","446"
"7","Veterinář","Veterinární klinika Na Hrádku - MVDr. Ľubica Nečasová","https://www.firmy.cz/detail/633528-veterinarni-klinika-na-hradku-mvdr-lubica-necasova-praha-nove-mesto.html","691"
"8","Bankomat","Bankomat MONETA Money Bank","https://www.firmy.cz/detail/602933-bankomat-moneta-money-bank-praha-nove-mesto.html","262"
"9","Školka","Mateřská škola Pštrossova","https://www.firmy.cz/detail/197736-materska-skola-pstrossova-praha-nove-mesto.html","81"
"10","Škola","Gymnázium Jana Palacha, Praha 1","https://www.firmy.cz/detail/361486-gymnazium-jana-palacha-praha-1-praha-nove-mesto.html","96"
"11","Restaurace","Lemon Leaf Restaurant","https://www.firmy.cz/detail/343537-lemon-leaf-restaurant-praha-nove-mesto.html","67"
"12","Tram","Jiráskovo náměstí","","152"
"13","Pošta","Pošta Praha 5 - Česká pošta, s.p.","https://www.firmy.cz/detail/217457-posta-praha-5-praha-smichov.html","711"
"14","Obchod","Quadrio","https://www.firmy.cz/detail/2042979-quadrio-praha-nove-mesto.html","539"
"15","Bus MHD","Jiráskovo náměstí","","220"
"16","Sportoviště","VŠTJ Technika Praha strojní fakulta","https://www.firmy.cz/detail/2648614-vstj-technika-praha-strojni-fakulta-praha-nove-mesto.html","271"
"17","Lékař","TeamPrevent-Santé, s.r.o.","https://www.firmy.cz/detail/313672-teamprevent-sante-s-r-o-praha-nove-mesto.html","225"
"18","Lékárna","LÉKÁRNA MORÁŇ","https://www.firmy.cz/detail/658422-lekarna-moran-praha-nove-mesto.html","362"
"19","Metro","Karlovo náměstí","","277"
"20","Vlak","Praha hlavní nádraží","","1642"
