"","facility_type","facility_name","facility_iri","facility_distance"
"0","Hřiště","Dětské hřiště K Červenému vrchu","https://mapy.cz/zakladni?x=14.3491039026&y=50.0979501727&z=17&source=base&id=1926258","101"
"1","Večerka","Obchod - potraviny","https://www.firmy.cz/detail/13169516-obchod-potraviny-praha-vokovice.html","144"
"2","Hospoda","Plzeňská Pivnice Petřiny","https://www.firmy.cz/detail/13333379-plzenska-pivnice-petriny-praha-brevnov.html","920"
"3","Cukrárna","Polina Cake","https://www.firmy.cz/detail/13292664-polina-cake-praha-vokovice.html","376"
"4","Veterinář","Veterinární ordinace Červený vrch","https://www.firmy.cz/detail/446552-veterinarni-ordinace-cerveny-vrch-praha-vokovice.html","144"
"5","Divadlo","Divadlo Tineola","https://www.firmy.cz/detail/401473-divadlo-tineola-praha-vokovice.html","339"
"6","Kino","Kino Dlabačov","https://www.firmy.cz/detail/13024517-kino-dlabacov-praha-brevnov.html","2580"
"7","Lékárna","BENU Lékárna","https://www.firmy.cz/detail/13196722-benu-lekarna-praha-vokovice.html","155"
"8","Vlak","Praha-Veleslavín","https://mapy.cz/zakladni?x=14.3462189416&y=50.0950055146&z=17&source=pubt&id=15212584","289"
"9","Školka","Mateřská škola Vokovická","https://www.firmy.cz/detail/598527-materska-skola-vokovicka-praha-vokovice.html","52"
"10","Restaurace","Restaurace U Řezníka Praha","https://www.firmy.cz/detail/13303369-restaurace-u-reznika-praha-praha-vokovice.html","144"
"11","Tram","Nádraží Veleslavín","https://mapy.cz/zakladni?x=14.3484395742&y=50.0960583219&z=17&source=pubt&id=15693525","116"
"12","Škola","ZŠ Vokovice, Praha 6","https://www.firmy.cz/detail/362285-zs-vokovice-praha-6-praha-vokovice.html","183"
"13","Metro","Nádraží Veleslavín","https://mapy.cz/zakladni?x=14.3469216122&y=50.0961012793&z=17&source=pubt&id=15707275","164"
"14","Pošta","Pošta Praha 616 - Česká pošta, s.p.","https://www.firmy.cz/detail/431331-posta-praha-616-praha-veleslavin.html","844"
"15","Bus MHD","Nádraží Veleslavín","https://mapy.cz/zakladni?x=14.3472956121&y=50.0965366584&z=17&source=pubt&id=15303760","113"
"16","Bankomat","Bankomat Euronet","https://www.firmy.cz/detail/13056224-bankomat-euronet-praha-veleslavin.html","277"
"17","Obchod","Obchodní dům Čílova","https://www.firmy.cz/detail/13157318-obchodni-dum-cilova-praha-veleslavin.html","916"
"18","Lékař","Canadian Medical - AFI","https://www.firmy.cz/detail/13262475-canadian-medical-afi-praha-vokovice.html","176"
"19","Sportoviště","Sportovní oddíl VOK","https://www.firmy.cz/detail/2652240-sportovni-oddil-vok-praha-vokovice.html","183"
