"","facility_type","facility_name","facility_iri","facility_distance"
"0","Cukrárna","Gelato","https://www.firmy.cz/detail/13317632-gelato-karlovy-vary-rybare.html","770"
"1","Kino","Areál Rolava","https://www.firmy.cz/detail/13071200-areal-rolava-karlovy-vary-rybare.html","475"
"2","Přírodní zajímavost","Karlův hvozd","","3401"
"3","Hřiště","Dětské hřiště Rolava","","435"
"4","Večerka","Lidl","https://www.firmy.cz/detail/1901688-lidl-karlovy-vary-rybare.html","438"
"5","Divadlo","Divadlo Kapsa","https://www.firmy.cz/detail/2276352-divadlo-kapsa-karlovy-vary-rybare.html","626"
"6","Hospoda","Pivnice Bar 5","https://www.firmy.cz/detail/13134721-pivnice-bar-5-karlovy-vary-rybare.html","153"
"7","Veterinář","Veterinární klinika KVvet, s.r.o.","https://www.firmy.cz/detail/12857550-veterinarni-klinika-kvvet-s-r-o-karlovy-vary-rybare.html","271"
"8","Vlak","Karlovy Vary-Dvory","","1019"
"9","Obchod","Kaufland","https://www.firmy.cz/detail/152366-kaufland-karlovy-vary-rybare.html","207"
"10","Bankomat","Bankomat ČSOB","https://www.firmy.cz/detail/596942-bankomat-csob-karlovy-vary-rybare.html","140"
"11","Lékař","MUDr. Michaela Červenáková","https://www.firmy.cz/detail/12840344-mudr-michaela-cervenakova-karlovy-vary-rybare.html","514"
"12","Lékárna","BENU Lékárna","https://www.firmy.cz/detail/13266447-benu-lekarna-karlovy-vary-rybare.html","159"
"13","Restaurace","CHILLI CHILLI BAR & GRILL","https://www.firmy.cz/detail/2548679-chilli-chilli-bar-grill-karlovy-vary-rybare.html","321"
"14","Sportoviště","Fantasy Lasergame Karlovy Vary","https://www.firmy.cz/detail/13320622-fantasy-lasergame-karlovy-vary-karlovy-vary-rybare.html","324"
"15","Bus MHD","Rozc. u Koníčka","","105"
"16","Škola","Střední uměleckoprůmyslová škola Karlovy Vary","https://www.firmy.cz/detail/360636-stredni-umeleckoprumyslova-skola-karlovy-vary-karlovy-vary-rybare.html","588"
"17","Školka","2. MŠ Karlovy Vary - Fibichova","https://www.firmy.cz/detail/2072235-2-ms-karlovy-vary-fibichova-karlovy-vary-stara-role.html","511"
"18","Pošta","Pošta Karlovy Vary 5 - Česká pošta, s.p.","https://www.firmy.cz/detail/216562-posta-karlovy-vary-5-karlovy-vary-rybare.html","826"
