"","facility_type","facility_name","facility_iri","facility_distance"
"0","Cukrárna","Cukrárna Magnolie","https://www.firmy.cz/detail/1963341-cukrarna-magnolie-orlova-lutyne.html","309"
"1","Kino","Kino O","https://www.firmy.cz/detail/12958491-kino-o-orlova-lutyne.html","438"
"2","Hřiště","Rákosníčkovo dětské hřiště","","115"
"3","Večerka","HRUŠKA","https://www.firmy.cz/detail/12863517-hruska-orlova-lutyne.html","120"
"4","Hospoda","Pivnice Centrum","https://www.firmy.cz/detail/12840796-pivnice-centrum-orlova-lutyne.html","154"
"5","Veterinář","Veterinární klinika ANIVET - MVDr. Zbyněk Horák","https://www.firmy.cz/detail/2631495-veterinarni-klinika-anivet-mvdr-zbynek-horak-orlova-lutyne.html","156"
"6","Restaurace","M&V kebab","https://www.firmy.cz/detail/12836704-m-v-kebab-orlova-lutyne.html","154"
"7","Školka","Mateřská škola Orlová - Lutyně Ke Studánce 1033 okres Karviná","https://www.firmy.cz/detail/13232631-materska-skola-orlova-lutyne-ke-studance-1033-okres-karvina-orlova-lutyne.html","323"
"8","Škola","Základní škola Mládí, Orlová","https://www.firmy.cz/detail/358635-zakladni-skola-mladi-orlova-orlova-lutyne.html","57"
"9","Lékař","AK Medipraktik, s.r.o.","https://www.firmy.cz/detail/13291451-ak-medipraktik-orlova-lutyne.html","44"
"10","Bankomat","Bankomat Komerční banky","https://www.firmy.cz/detail/594117-bankomat-komercni-banky-orlova-lutyne.html","239"
"11","Sportoviště","Tenisový klub Slavia Orlová, z.s.","https://www.firmy.cz/detail/166418-tenisovy-klub-slavia-orlova-z-s-orlova-lutyne.html","430"
"12","Bus MHD","Orlová, Lutyně, věžáky","","186"
"13","Pošta","Pošta Orlová 4 - Česká pošta, s.p.","https://www.firmy.cz/detail/431478-posta-orlova-4-orlova-lutyne.html","449"
"14","Lékárna","Lékárna Salvátor","https://www.firmy.cz/detail/13266185-lekarna-salvator-orlova-lutyne.html","44"
"15","Vlak","Dětmarovice","","4678"
"16","Obchod","PRIOR ČESKÁ REPUBLIKA s.r.o.","https://www.firmy.cz/detail/1957099-prior-ceska-republika-s-r-o-orlova-lutyne.html","333"
