"","facility_type","facility_name","facility_iri","facility_distance"
"0","Hřiště","Dětské hřiště Pod Zámečkem","https://mapy.cz/zakladni?x=15.8472609764&y=50.1921239993&z=17&source=base&id=1928020","105"
"1","Přírodní zajímavost","Slepé rameno Orlice u loděnice","https://mapy.cz/zakladni?x=15.8655555556&y=50.21&z=17&source=base&id=2258222","2413"
"2","Večerka","Albert Supermarket","https://www.firmy.cz/detail/446745-albert-supermarket-hradec-kralove-novy-hradec-kralove.html","193"
"3","Veterinář","Veterinární ordinace KEVET","https://www.firmy.cz/detail/12826140-veterinarni-ordinace-kevet-hradec-kralove.html","408"
"4","Cukrárna","PETROF Café","https://www.firmy.cz/detail/13102898-petrof-cafe-hradec-kralove-novy-hradec-kralove.html","434"
"5","Hospoda","Hospůdka U Andyho","https://www.firmy.cz/detail/13081879-hospudka-u-andyho-hradec-kralove-novy-hradec-kralove.html","86"
"6","Divadlo","Divadlo Drak","https://www.firmy.cz/detail/230884-divadlo-drak-hradec-kralove.html","1778"
"7","Kino","CineStar Hradec Králové","https://www.firmy.cz/detail/396569-cinestar-hradec-kralove-hradec-kralove-novy-hradec-kralove.html","529"
"8","Obchod","OC Futurum Hradec Králové","https://www.firmy.cz/detail/586763-oc-futurum-hradec-kralove-hradec-kralove-novy-hradec-kralove.html","564"
"9","Sportoviště","Fit studio BK","https://www.firmy.cz/detail/12823081-fit-studio-bk-hradec-kralove-novy-hradec-kralove.html","332"
"10","Škola","ZŠ a MŠ Pohádka, Hradec Králové","https://www.firmy.cz/detail/364781-zs-a-ms-pohadka-hradec-kralove-hradec-kralove-novy-hradec-kralove.html","332"
"11","Bankomat","Bankomat MONETA Money Bank","https://www.firmy.cz/detail/13082169-bankomat-moneta-money-bank-hradec-kralove-novy-hradec-kralove.html","457"
"12","Bus MHD","Na Brně","https://mapy.cz/zakladni?x=15.8482217513&y=50.1931755735&z=17&source=pubt&id=15201088","194"
"13","Lékař","MUDr. Romana Zoubelová","https://www.firmy.cz/detail/381033-mudr-romana-zoubelova-hradec-kralove-novy-hradec-kralove.html","332"
"14","Restaurace","Pivnice U Bejka","https://www.firmy.cz/detail/12896705-pivnice-u-bejka-hradec-kralove-novy-hradec-kralove.html","262"
"15","Lékárna","Lékárna TILIA","https://www.firmy.cz/detail/376264-lekarna-tilia-hradec-kralove-novy-hradec-kralove.html","302"
"16","Školka","ZŠ a MŠ Pohádka, Hradec Králové","https://www.firmy.cz/detail/357249-zs-a-ms-pohadka-hradec-kralove-hradec-kralove-novy-hradec-kralove.html","332"
"17","Vlak","Hradec Králové zast.","https://mapy.cz/zakladni?x=15.8414819962&y=50.2224064348&z=17&source=pubt&id=15698478","3356"
"18","Pošta","Pošta Hradec Králové 12 - Česká pošta, s.p.","https://www.firmy.cz/detail/216320-posta-hradec-kralove-12-hradec-kralove-novy-hradec-kralove.html","343"
