"","facility_type","facility_name","facility_iri","facility_distance"
"0","Přírodní zajímavost","Hamerské vrásy","","684"
"1","Hřiště","Dětské hřiště Mlýnská","","1160"
"2","Večerka","Potraviny Marcela Koňáková","https://www.firmy.cz/detail/12959356-potraviny-marcela-konakova-vranov-nad-dyji.html","1310"
"3","Vlak","Šumná","","4679"
"4","Sportoviště","Lanový prak Vranov","https://www.firmy.cz/detail/12943931-lanovy-prak-vranov-vranov-nad-dyji.html","2509"
"5","Školka","MŠ Vranov nad Dyjí","https://www.firmy.cz/detail/2230825-ms-vranov-nad-dyji-vranov-nad-dyji.html","1379"
"6","Škola","ZŠ Vranov nad Dyjí","https://www.firmy.cz/detail/360079-zs-vranov-nad-dyji-vranov-nad-dyji.html","1530"
"7","Pošta","Pošta Vranov nad Dyjí - Česká pošta, s.p.","https://www.firmy.cz/detail/216361-posta-vranov-nad-dyji-vranov-nad-dyji.html","1268"
"8","Lékař","MEDIRAD, spol. s r.o.","https://www.firmy.cz/detail/12743112-medirad-vranov-nad-dyji.html","1288"
"9","Bus MHD","Onšov, rozc.0.2","","1197"
"10","Restaurace","Restaurace Formosa","https://www.firmy.cz/detail/13135765-restaurace-formosa-vranov-nad-dyji.html","1223"
"11","Bankomat","Bankomat Komerční banky","https://www.firmy.cz/detail/12894251-bankomat-komercni-banky-vranov-nad-dyji.html","1284"
"12","Lékárna","Zámecká lékárna","https://www.firmy.cz/detail/12944327-zamecka-lekarna-vranov-nad-dyji.html","1288"
