"","facility_type","facility_name","facility_iri","facility_distance"
"0","Cukrárna","Dětské ZOO","https://www.firmy.cz/detail/13090952-detske-zoo-ceska-trebova-parnik.html","1022"
"1","Kino","Letní kino Česká Třebová","https://www.firmy.cz/detail/13071128-letni-kino-ceska-trebova-ceska-trebova.html","2548"
"2","Hřiště","Dětské hřiště Lhotka","","150"
"3","Večerka","Konzum Market","https://www.firmy.cz/detail/2133364-konzum-market-ceska-trebova-lhotka.html","157"
"4","Hospoda","Restaurace Lhotka","https://www.firmy.cz/detail/566730-restaurace-lhotka-ceska-trebova-lhotka.html","375"
"5","Veterinář","MVDr. Radek Palán","https://www.firmy.cz/detail/739345-mvdr-radek-palan-ceska-trebova-lhotka.html","461"
"6","Bankomat","Bankomat MONETA Money Bank","https://www.firmy.cz/detail/659665-bankomat-moneta-money-bank-ceska-trebova-parnik.html","1079"
"7","Sportoviště","TK Česká Třebová","https://www.firmy.cz/detail/2651398-tk-ceska-trebova-ceska-trebova-parnik.html","941"
"8","Lékárna","Dr. Max","https://www.firmy.cz/detail/12725698-dr-max-ceska-trebova-parnik.html","1147"
"9","Školka","MŠ Česká Třebová, U Stadionu","https://www.firmy.cz/detail/1882468-ms-ceska-trebova-u-stadionu-ceska-trebova-parnik.html","1475"
"10","Bus MHD","Česká Třebová, sídl.Lhotka","","131"
"11","Obchod","Tesco","https://www.firmy.cz/detail/653521-tesco-ceska-trebova-parnik.html","1052"
"12","Škola","Základní škola Česká Třebová, Ústecká ulice","https://www.firmy.cz/detail/356729-zakladni-skola-ceska-trebova-ustecka-ulice-ceska-trebova-parnik.html","612"
"13","Lékař","MUDr. Luďka Křibská s.r.o.","https://www.firmy.cz/detail/13280893-mudr-ludka-kribska-s-r-o-ceska-trebova.html","1809"
"14","Vlak","Dlouhá Třebová","","1795"
"15","Restaurace","Restaurant Bohemia","https://www.firmy.cz/detail/639450-restaurant-bohemia-ceska-trebova-parnik.html","546"
"16","Pošta","Pošta Česká Třebová 3 - Česká pošta, s.p.","https://www.firmy.cz/detail/215929-posta-ceska-trebova-3-ceska-trebova-parnik.html","802"
