"","facility_type","facility_name","facility_iri","facility_distance"
"0","Cukrárna","Ovocná cukrárna","https://www.firmy.cz/detail/12722437-ovocna-cukrarna-praha-bubenec.html","766"
"1","Kino","Bio Oko","https://www.firmy.cz/detail/2586117-bio-oko-praha-holesovice.html","1507"
"2","Hřiště","Dětské hřiště u psí louky","","391"
"3","Večerka","Tesco Expres","https://www.firmy.cz/detail/2358609-tesco-expres-praha-hradcany.html","614"
"4","Hospoda","Restaurace Dejvické nádraží","https://www.firmy.cz/detail/568432-restaurace-dejvicke-nadrazi-praha-dejvice.html","862"
"5","Divadlo","POTRVÁ","https://www.firmy.cz/detail/2246484-potrva-praha-dejvice.html","425"
"6","Veterinář","MVDr. Marta Schmidhalter-Pekárková DECVDI","https://www.firmy.cz/detail/2608174-mvdr-marta-schmidhalter-pekarkova-decvdi-praha-bubenec.html","882"
"7","Lékárna","Dejvická lékárna ARNIKA","https://www.firmy.cz/detail/654778-dejvicka-lekarna-arnika-praha-dejvice.html","901"
"8","Školka","Soukromá jazyková školka BUMBLE BEE","https://www.firmy.cz/detail/318821-soukroma-jazykova-skolka-bumble-bee-praha-bubenec.html","279"
"9","Lékař","MUDr. Svatava Šedová","https://www.firmy.cz/detail/381442-mudr-svatava-sedova-praha-bubenec.html","238"
"10","Bankomat","Bankomat České spořitelny","https://www.firmy.cz/detail/594916-bankomat-ceske-sporitelny-praha-hradcany.html","623"
"11","Tram","Sparta","","599"
"12","Obchod","Kaufland","https://www.firmy.cz/detail/12720219-kaufland-praha-dejvice.html","1608"
"13","Škola","Obchodní akademie Praha 6, Krupkovo náměstí","https://www.firmy.cz/detail/362385-obchodni-akademie-praha-6-krupkovo-namesti-praha-bubenec.html","280"
"14","Pošta","Pošta Praha 7 - Česká pošta, s.p.","https://www.firmy.cz/detail/216716-posta-praha-7-praha-holesovice.html","998"
"15","Metro","Hradčanská","","611"
"16","Bus MHD","Sibiřské náměstí","","364"
"17","Restaurace","Restaurace Na Rozhraní","https://www.firmy.cz/detail/332139-restaurace-na-rozhrani-praha-dejvice.html","437"
"18","Vlak","Praha-Dejvice","","894"
"19","Sportoviště","Tenisová škola TALLENT","https://www.firmy.cz/detail/722773-tenisova-skola-tallent-praha-bubenec.html","777"
