"","facility_type","facility_name","facility_iri","facility_distance"
"0","Hřiště","Dětské hřiště Jiráskovy sady","https://mapy.cz/zakladni?x=15.826136438&y=50.206848079&z=17&source=base&id=1927995","419"
"1","Přírodní zajímavost","Slepé rameno Orlice u loděnice","https://mapy.cz/zakladni?x=15.8655555556&y=50.21&z=17&source=base&id=2258222","2435"
"2","Večerka","ERKO Potraviny","https://www.firmy.cz/detail/150966-erko-potraviny-hradec-kralove.html","212"
"3","Veterinář","MVDr. Martina Halbichová Vítová","https://www.firmy.cz/detail/12737346-mvdr-martina-halbichova-vitova-hradec-kralove-slezske-predmesti.html","1715"
"4","Cukrárna","Cukrárna Gabriela","https://www.firmy.cz/detail/13101114-cukrarna-gabriela-hradec-kralove.html","90"
"5","Hospoda","Batalion U Draků","https://www.firmy.cz/detail/13117402-batalion-u-draku-hradec-kralove.html","152"
"6","Divadlo","Divadlo HAD","https://www.firmy.cz/detail/2059902-divadlo-had-hradec-kralove.html","300"
"7","Kino","Letní kino Širák","https://www.firmy.cz/detail/396345-letni-kino-sirak-hradec-kralove.html","450"
"8","Školka","MŠ Čtyřlístek, Hradec Králové","https://www.firmy.cz/detail/2470530-ms-ctyrlistek-hradec-kralove-hradec-kralove.html","333"
"9","Bankomat","Raiffeisenbank - bankomat","https://www.firmy.cz/detail/631138-raiffeisenbank-bankomat-hradec-kralove.html","158"
"10","Bus MHD","Zimní stadion","https://mapy.cz/zakladni?x=15.8325677059&y=50.2072878406&z=17&source=pubt&id=15200939","159"
"11","Lékař","MUDr. Brynda Tomáš, MediClinic a.s.","https://www.firmy.cz/detail/12761120-mudr-brynda-tomas-mediclinic-a-s-hradec-kralove.html","136"
"12","Sportoviště","HBC Hradec Králové 1988, z.s.","https://www.firmy.cz/detail/1730523-hbc-hradec-kralove-1988-z-s-hradec-kralove.html","306"
"13","Restaurace","PHỞ 99","https://www.firmy.cz/detail/13227392-pho-99-hradec-kralove.html","9"
"14","Škola","ZŠ a MŠ Jana Pavla II.","https://www.firmy.cz/detail/12764466-zs-a-ms-jana-pavla-ii-hradec-kralove.html","251"
"15","Vlak","Hradec Králové hlavní nádraží","https://mapy.cz/zakladni?x=15.8101601119&y=50.2140612573&z=17&source=pubt&id=15211482","1634"
"16","Lékárna","LÉKÁRNA ipc U Grandu","https://www.firmy.cz/detail/13287330-lekarna-ipc-u-grandu-hradec-kralove.html","226"
"17","Pošta","Pošta Hradec Králové 1 - Česká pošta, s.p.","https://www.firmy.cz/detail/215968-posta-hradec-kralove-1-hradec-kralove.html","213"
"18","Obchod","Dům služeb Třebeš s.r.o.","https://www.firmy.cz/detail/13037513-dum-sluzeb-trebes-s-r-o-hradec-kralove.html","961"
