"","facility_type","facility_name","facility_iri","facility_distance"
"0","Cukrárna","Cukrárna Fantazie","https://www.firmy.cz/detail/13121048-cukrarna-fantazie-paskov.html","2711"
"1","Kino","Kino Panorama","https://www.firmy.cz/detail/396682-kino-panorama-paskov.html","2664"
"2","Přírodní zajímavost","Bludné balvany ve Frýdeckém lese","","3358"
"3","Hřiště","Dětské hřiště u větrného mlýnku","","1764"
"4","Večerka","Potraviny Bednář","https://www.firmy.cz/detail/13128158-potraviny-bednar-repiste.html","1628"
"5","Hospoda","Hospůdka Čarda","https://www.firmy.cz/detail/13017734-hospudka-carda-frydek-mistek-liskovec.html","1471"
"6","Divadlo","Divadlo Čtyřlístek","https://www.firmy.cz/detail/661532-divadlo-ctyrlistek-frydek-mistek-frydek.html","4921"
"7","Veterinář","MVDr. Jaromír Žabenský","https://www.firmy.cz/detail/12825531-mvdr-jaromir-zabensky-staric.html","3546"
"8","Lékárna","Lékárna U sv. Vavřince","https://www.firmy.cz/detail/12707866-lekarna-u-sv-vavrince-paskov.html","2767"
"9","Lékař","MUDr. Jan Šimeček","https://www.firmy.cz/detail/12769566-mudr-jan-simecek-repiste.html","1926"
"10","Bus MHD","Frýdek-Místek, Lískovec, Elis","","473"
"11","Vlak","Lískovec u Frýdku","","2277"
"12","Obchod","Kaufland","https://www.firmy.cz/detail/738648-kaufland-frydek-mistek-frydek.html","3900"
"13","Pošta","Pošta Frýdek-Místek 4 - Česká pošta, s.p.","https://www.firmy.cz/detail/432986-posta-frydek-mistek-4-frydek-mistek-liskovec.html","1033"
"14","Bankomat","Bankomat ČSOB","https://www.firmy.cz/detail/13252354-bankomat-csob-sviadnov.html","3230"
"15","Sportoviště","Tělocvičná jednota Sokol Žabeň","https://www.firmy.cz/detail/2138141-telocvicna-jednota-sokol-zaben-zaben.html","1539"
"16","Restaurace","Restaurace U Čápů","https://www.firmy.cz/detail/12908717-restaurace-u-capu-zaben.html","1642"
"17","Škola","ZŠ a MŠ Frýdek-Místek, Lískovec","https://www.firmy.cz/detail/357006-zs-a-ms-frydek-mistek-liskovec-frydek-mistek-liskovec.html","953"
"18","Školka","ZŠ a MŠ Žabeň","https://www.firmy.cz/detail/729710-zs-a-ms-zaben-zaben.html","1350"
