"","facility_type","facility_name","facility_iri","facility_distance"
"0","Hřiště","Dětské hřiště Horní Stromky","https://mapy.cz/zakladni?x=14.4685172962&y=50.0768143663&z=17&source=base&id=2215205","152"
"1","Přírodní zajímavost","Mokřad Triangl","https://mapy.cz/zakladni?x=14.5188041667&y=50.0615525&z=17&source=base&id=1981356","3849"
"2","Večerka","Tesco Expres","https://www.firmy.cz/detail/2568708-tesco-expres-praha-vrsovice.html","498"
"3","Cukrárna","Costa Coffee","https://www.firmy.cz/detail/2413662-costa-coffee-praha-zizkov.html","694"
"4","Veterinář","MVDr. Václav Naxera - veterinární klinika","https://www.firmy.cz/detail/278421-mvdr-vaclav-naxera-veterinarni-klinika-praha-vinohrady.html","302"
"5","Hospoda","Pivnice Los v Oslu","https://www.firmy.cz/detail/12702728-pivnice-los-v-oslu-praha-vinohrady.html","1210"
"6","Divadlo","Divadelní společnost Josefa Dvořáka","https://www.firmy.cz/detail/396839-divadelni-spolecnost-josefa-dvoraka-praha-vrsovice.html","992"
"7","Kino","Cinema City Flora","https://www.firmy.cz/detail/660712-cinema-city-flora-praha-zizkov.html","733"
"8","Bus MHD","Želivského","https://mapy.cz/zakladni?x=14.4720351312828&y=50.0782330321091&z=17&source=pubt&id=19869356","164"
"9","Pošta","Pošta Praha 31 - Česká pošta, s.p.","https://www.firmy.cz/detail/217421-posta-praha-31-praha-vinohrady.html","567"
"10","Obchod","Atrium Flóra a.s.","https://www.firmy.cz/detail/12746033-atrium-flora-a-s-praha-zizkov.html","678"
"11","Školka","MŠ Praha 3, nám. Jiřího z Lobkovic","https://www.firmy.cz/detail/2111419-ms-praha-3-nam-jiriho-z-lobkovic-praha-vinohrady.html","217"
"12","Vlak","Praha-Eden","https://mapy.cz/zakladni?x=14.4717813004041&y=50.0657103621663&z=17&source=pubt&id=18415989","1267"
"13","Tram","Želivského","https://mapy.cz/zakladni?x=14.4705&y=50.07835&z=17&source=pubt&id=17138217","141"
"14","Lékárna","Lékárna Vinohrady","https://www.firmy.cz/detail/2341175-lekarna-vinohrady-praha-vinohrady.html","128"
"15","Bankomat","Bankomat České spořitelny","https://www.firmy.cz/detail/594762-bankomat-ceske-sporitelny-praha-zizkov.html","292"
"16","Metro","Želivského","https://mapy.cz/zakladni?x=14.4735295231&y=50.0782258663&z=17&source=pubt&id=15200280","244"
"17","Škola","Základní Škola, Praha 3, nám. Jiřího z Lobkovic","https://www.firmy.cz/detail/319016-zakladni-skola-praha-3-nam-jiriho-z-lobkovic-praha-vinohrady.html","261"
"18","Lékař","MUDr. Jarmila Al Hassaniová","https://www.firmy.cz/detail/390615-mudr-jarmila-al-hassaniova-praha-vinohrady.html","128"
"19","Restaurace","Pizza Express","https://www.firmy.cz/detail/12927762-pizza-express-praha-vinohrady.html","229"
"20","Sportoviště","Tenisová škola RETURN","https://www.firmy.cz/detail/740307-tenisova-skola-return-praha-vinohrady.html","261"
