"","facility_type","facility_name","facility_iri","facility_distance"
"0","Cukrárna","Cukrárna Magnolie","https://www.firmy.cz/detail/1963341-cukrarna-magnolie-orlova-lutyne.html","585"
"1","Kino","Kino O","https://www.firmy.cz/detail/12958491-kino-o-orlova-lutyne.html","349"
"2","Přírodní zajímavost","Lužní les v Lyngu","","5236"
"3","Hřiště","Dětské hřiště Okružní","","347"
"4","Večerka","HRUŠKA - Supergong","https://www.firmy.cz/detail/167523-hruska-supergong-orlova-lutyne.html","220"
"5","Hospoda","Pivnice Centrum","https://www.firmy.cz/detail/12840796-pivnice-centrum-orlova-lutyne.html","629"
"6","Veterinář","MVDr. Marian Konieczny","https://www.firmy.cz/detail/1958343-mvdr-marian-konieczny-orlova-lutyne.html","779"
"7","Sportoviště","Koulovna","https://www.firmy.cz/detail/13298197-koulovna-orlova-lutyne.html","349"
"8","Bankomat","Bankomat UniCredit Bank Czech Republic","https://www.firmy.cz/detail/12963657-bankomat-unicredit-bank-czech-republic-orlova-lutyne.html","252"
"9","Restaurace","Le Cafe","https://www.firmy.cz/detail/13296318-le-cafe-orlova-lutyne.html","249"
"10","Pošta","Pošta Orlová 4 - Česká pošta, s.p.","https://www.firmy.cz/detail/431478-posta-orlova-4-orlova-lutyne.html","332"
"11","Obchod","Albert Hypermarket","https://www.firmy.cz/detail/652973-albert-hypermarket-orlova-lutyne.html","431"
"12","Vlak","Dětmarovice","","3948"
"13","Lékárna","Lékárna Orel","https://www.firmy.cz/detail/13081100-lekarna-orel-orlova-lutyne.html","233"
"14","Lékař","PL pro D ZZ a ambulance, s.r.o.","https://www.firmy.cz/detail/13107931-pl-pro-d-zz-a-ambulance-orlova-lutyne.html","451"
"15","Bus MHD","Orlová, Lutyně, střed","","47"
"16","Škola","ZŠ Orlová-Lutyně","https://www.firmy.cz/detail/358637-zs-orlova-lutyne-orlova-lutyne.html","179"
"17","Školka","MŠ Orlová-Lutyně, Petra Cingra","https://www.firmy.cz/detail/1958294-ms-orlova-lutyne-petra-cingra-orlova-lutyne.html","430"
