"","facility_type","facility_name","facility_iri","facility_distance"
"0","Cukrárna","Cukrárna Ollies","https://www.firmy.cz/detail/2692395-cukrarna-ollies-ostrava-vitkovice.html","2158"
"1","Kino","ETÁŽ","https://www.firmy.cz/detail/13265760-etaz-ostrava.html","2140"
"2","Hřiště","Dětské hřiště u Slezskoostravského hradu","","2057"
"3","Večerka","Můj obchod - Potraviny U Krbu","https://www.firmy.cz/detail/13336604-muj-obchod-potraviny-u-krbu-ostrava-kuncicky.html","601"
"4","Hospoda","Klubovna U Staré pípy","https://www.firmy.cz/detail/13036216-klubovna-u-stare-pipy-ostrava-vitkovice.html","2483"
"5","Divadlo","Divadlo Mír","https://www.firmy.cz/detail/13092715-divadlo-mir-ostrava-vitkovice.html","2451"
"6","Veterinář","Veterinární ordinace - MVDr. Richard Saviola","https://www.firmy.cz/detail/477150-veterinarni-ordinace-mvdr-richard-saviola-ostrava-moravska-ostrava.html","2942"
"7","Tram","Osada Míru","","132"
"8","Restaurace","Restaurace Fajront","https://www.firmy.cz/detail/663875-restaurace-fajront-ostrava-kuncicky.html","803"
"9","Školka","Mateřská škola Nástupní","https://www.firmy.cz/detail/13101554-materska-skola-nastupni-ostrava-kuncicky.html","574"
"10","Bankomat","Raiffeisenbank - bankomat","https://www.firmy.cz/detail/13195199-raiffeisenbank-bankomat-ostrava-vitkovice.html","1788"
"11","Bus MHD","Osada Míru","","127"
"12","Lékař","MUDr. Hugo Přibyl, Ph.D.","https://www.firmy.cz/detail/388998-mudr-hugo-pribyl-ph-d-ostrava-kuncicky.html","871"
"13","Vlak","Ostrava-Kunčičky","","683"
"14","Sportoviště","Tj Kunčičky, spolek","https://www.firmy.cz/detail/176194-tj-kuncicky-spolek-ostrava-kuncicky.html","845"
"15","Lékárna","Lékárna U Hutě","https://www.firmy.cz/detail/2691528-lekarna-u-hute-ostrava-kuncice.html","1742"
"16","Škola","ZŠ Ostrava-Kunčičky, Škrobálkova","https://www.firmy.cz/detail/358688-zs-ostrava-kuncicky-skrobalkova-ostrava-kuncicky.html","601"
"17","Pošta","Pošta Ostrava 18 - Česká pošta, s.p.","https://www.firmy.cz/detail/433428-posta-ostrava-18-ostrava-kuncicky.html","764"
"18","Obchod","Albert Hypermarket","https://www.firmy.cz/detail/12715968-albert-hypermarket-ostrava-moravska-ostrava.html","2437"
