"","facility_type","facility_name","facility_iri","facility_distance"
"0","Cukrárna","Cukrárna Mikula","https://www.firmy.cz/detail/13333350-cukrarna-mikula-turnov.html","2818"
"1","Kino","Letní kino Turnov","https://www.firmy.cz/detail/661575-letni-kino-turnov-turnov.html","2542"
"2","Hřiště","Dětské hřiště Malý Rohozec","","74"
"3","Večerka","Smíšené zboží Roubíček","https://www.firmy.cz/detail/2165207-smisene-zbozi-roubicek-jenisovice.html","1991"
"4","Hospoda","Hospoda na návsi","https://www.firmy.cz/detail/13334018-hospoda-na-navsi-ohrazenice.html","2408"
"5","Divadlo","Městské divadlo Turnov","https://www.firmy.cz/detail/661493-mestske-divadlo-turnov-turnov.html","2815"
"6","Veterinář","MVDr. Zdeněk Hlubuček","https://www.firmy.cz/detail/258287-mvdr-zdenek-hlubucek-turnov-dalimerice.html","2184"
"7","Restaurace","ROHOZECKÁ RESTAURACE","https://www.firmy.cz/detail/12738314-rohozecka-restaurace-turnov-maly-rohozec.html","286"
"8","Bus MHD","Turnov, Malý Rohozec, sokolovna","","145"
"9","Vlak","Dolánky","","1706"
"10","Bankomat","Bankomat České spořitelny","https://www.firmy.cz/detail/12737767-bankomat-ceske-sporitelny-turnov.html","2755"
"11","Školka","Waldorfská mateřská škola Turnov","https://www.firmy.cz/detail/731374-waldorfska-materska-skola-turnov-turnov-dalimerice.html","1872"
"12","Lékárna","LÉKÁRNA NEMOCNICE TURNOV","https://www.firmy.cz/detail/13171681-lekarna-nemocnice-turnov-turnov.html","2858"
"13","Pošta","Pošta Jenišovice u Jablonce nad Nisou - Česká pošta, s.p.","https://www.firmy.cz/detail/215546-posta-jenisovice-u-jablonce-nad-nisou-jenisovice.html","2112"
"14","Lékař","VŠEOBECNÝ LÉKAŘ Turnov","https://www.firmy.cz/detail/13230246-vseobecny-lekar-turnov-turnov.html","2089"
"15","Škola","Základní škola Turnov, Žižkova 518","https://www.firmy.cz/detail/359796-zakladni-skola-turnov-zizkova-518-turnov.html","2114"
"16","Sportoviště","Tělovýchovná jednota Turnov, z.s.","https://www.firmy.cz/detail/13091325-telovychovna-jednota-turnov-z-s-turnov-dalimerice.html","1903"
"17","Obchod","Obchodní centrum Turnov","https://www.firmy.cz/detail/12869778-obchodni-centrum-turnov-turnov.html","3682"
