"","facility_type","facility_name","facility_iri","facility_distance"
"0","Hřiště","Dětské hřiště Chotilsko","https://mapy.cz/zakladni?x=14.3539490059&y=49.7709749729&z=17&source=base&id=1927360","118"
"1","Veterinář","Institut celostní péče o koně, o.p.s.","https://www.firmy.cz/detail/2626648-institut-celostni-pece-o-kone-cim.html","4201"
"2","Hospoda","Hospůdka Na návsi","https://www.firmy.cz/detail/13142276-hospudka-na-navsi-novy-knin-libcice.html","3668"
"3","Večerka","Emil Cunev","https://www.firmy.cz/detail/13205971-emil-cunev-cim.html","2090"
"4","Restaurace","Restaurace U Ládi","https://www.firmy.cz/detail/2466060-restaurace-u-ladi-chotilsko-prostredni-lhota.html","1945"
"5","Lékař","MUDr. Jitka Plačková","https://www.firmy.cz/detail/388494-mudr-jitka-plackova-novy-knin.html","4711"
"6","Škola","ZŠ a MŠ Nový Knín","https://www.firmy.cz/detail/358499-zs-a-ms-novy-knin-novy-knin.html","4645"
"7","Pošta","Pošta Nový Knín - Česká pošta, s.p.","https://www.firmy.cz/detail/217342-posta-novy-knin-novy-knin.html","4657"
"8","Lékárna","Lékárna Nový Knín","https://www.firmy.cz/detail/227622-lekarna-novy-knin-novy-knin.html","4711"
"9","Bus MHD","Chotilsko","https://mapy.cz/zakladni?x=14.3527224332828&y=49.7693809932192&z=17&source=pubt&id=15284578","198"
"10","Školka","MŠ Rodinka Korkyně","https://www.firmy.cz/detail/13287348-ms-rodinka-korkyne-korkyne.html","1046"
"11","Sportoviště","SK Oplocenka","https://www.firmy.cz/detail/12950271-sk-oplocenka-novy-knin.html","4301"
