"","facility_type","facility_name","facility_iri","facility_distance"
"0","Cukrárna","Cukrárna za vodou","https://www.firmy.cz/detail/13245730-cukrarna-za-vodou-bilina-mostecke-predmesti.html","1345"
"1","Kino","Letní kino Bílina","https://www.firmy.cz/detail/13071399-letni-kino-bilina-bilina.html","2373"
"2","Přírodní zajímavost","Sukcesní plocha XVII A Radovesické výsypky","","3959"
"3","Hřiště","Dětské hřiště Teplická","","36"
"4","Večerka","Potraviny- Večerka M. Švabinského 652","https://www.firmy.cz/detail/13059904-potraviny-vecerka-m-svabinskeho-652-bilina-teplicke-predmesti.html","263"
"5","Hospoda","Na Ústředně","https://www.firmy.cz/detail/12908637-na-ustredne-bilina-teplicke-predmesti.html","539"
"6","Divadlo","Městské divadlo","https://www.firmy.cz/detail/13194863-mestske-divadlo-bilina.html","1233"
"7","Veterinář","MVDr. Emilie Klečková","https://www.firmy.cz/detail/159830-mvdr-emilie-kleckova-bilina-prazske-predmesti.html","1768"
"8","Restaurace","U VRAHA","https://www.firmy.cz/detail/13118927-u-vraha-bilina-chuderice.html","364"
"9","Bus MHD","Bílina, Jakoubkova","","57"
"10","Lékař","MUDr. Yaser Karnoub","https://www.firmy.cz/detail/390790-mudr-yaser-karnoub-bilina-teplicke-predmesti.html","665"
"11","Pošta","Pošta Bílina 4 - Česká pošta, s.p.","https://www.firmy.cz/detail/215435-posta-bilina-4-bilina-teplicke-predmesti.html","945"
"12","Vlak","Bílina","","868"
"13","Bankomat","Bankomat MONETA Money Bank","https://www.firmy.cz/detail/602762-bankomat-moneta-money-bank-bilina-teplicke-predmesti.html","902"
"14","Škola","ZŠ Bílina, Za Chlumem","https://www.firmy.cz/detail/356352-zs-bilina-za-chlumem-bilina-teplicke-predmesti.html","956"
"15","Obchod","Albert Hypermarket","https://www.firmy.cz/detail/12922454-albert-hypermarket-bilina-mostecke-predmesti.html","1141"
"16","Sportoviště","Discgolf Bílina","","1025"
"17","Lékárna","Lékárna Na Teplickém Předměstí","https://www.firmy.cz/detail/657969-lekarna-na-teplickem-predmesti-bilina-teplicke-predmesti.html","618"
"18","Školka","MŠ Bílina, M. Švabinského","https://www.firmy.cz/detail/1995999-ms-bilina-m-svabinskeho-bilina-teplicke-predmesti.html","394"
