"","facility_type","facility_name","facility_iri","facility_distance"
"0","Cukrárna","Hájek & Hájková, s.r.o.","https://www.firmy.cz/detail/2598628-hajek-hajkova-cernosice.html","2473"
"1","Kino","Letní Kino Kamínka","https://www.firmy.cz/detail/13066174-letni-kino-kaminka-praha-zbraslav.html","2803"
"2","Přírodní zajímavost","V Hladomoří","","5058"
"3","Hřiště","Dětské hřiště K Průhonu","","664"
"4","Večerka","Žabka","https://www.firmy.cz/detail/12976519-zabka-praha-lipence.html","1287"
"5","Hospoda","Pivnice hotelu Slánka","https://www.firmy.cz/detail/2536051-pivnice-hotelu-slanka-cernosice.html","2516"
"6","Divadlo","Divadlo Jana Kašky","https://www.firmy.cz/detail/12978086-divadlo-jana-kasky-praha-zbraslav.html","4043"
"7","Veterinář","MVDr. Elena Havelcová","https://www.firmy.cz/detail/1962901-mvdr-elena-havelcova-vrane-nad-vltavou.html","2397"
"8","Bankomat","Bankomat České spořitelny","https://www.firmy.cz/detail/594324-bankomat-ceske-sporitelny-cernosice.html","2565"
"9","Pošta","Pošta Praha 511 - Česká pošta, s.p.","https://www.firmy.cz/detail/216733-posta-praha-511-praha-lipence.html","1090"
"10","Lékař","Nová poliklinika Zbraslav","https://www.firmy.cz/detail/12967802-nova-poliklinika-zbraslav-praha-zbraslav.html","2482"
"11","Bus MHD","Na Lhotkách","","972"
"12","Škola","ZŠ Praha, Černošická","https://www.firmy.cz/detail/356117-zs-praha-cernosicka-praha-lipence.html","1120"
"13","Školka","Mateřská škola, Praha 5, K samoobsluze 211","https://www.firmy.cz/detail/2617812-materska-skola-praha-5-k-samoobsluze-211-praha-lipence.html","1064"
"14","Restaurace","Restaurace Tornádo","https://www.firmy.cz/detail/13324469-restaurace-tornado-praha-lipence.html","1186"
"15","Vlak","Černošice-Mokropsy","","1844"
"16","Sportoviště","Sportovní areál Černošice","https://www.firmy.cz/detail/13296744-sportovni-areal-cernosice-cernosice.html","2043"
"17","Lékárna","Lékárna Nová poliklinika Zbraslav","https://www.firmy.cz/detail/12971086-lekarna-nova-poliklinika-zbraslav-praha-zbraslav.html","2482"
