"","facility_type","facility_name","facility_iri","facility_distance"
"0","Hřiště","Dětské hřiště Kutnohorská","https://mapy.cz/zakladni?x=14.5602797136&y=50.0575175347&z=17&source=base&id=1927397","476"
"1","Přírodní zajímavost","Mokřad Triangl","https://mapy.cz/zakladni?x=14.5188041667&y=50.0615525&z=17&source=base&id=1981356","2761"
"2","Večerka","Potraviny Dolnoměcholupská 39/48","https://www.firmy.cz/detail/13058588-potraviny-dolnomecholupska-39-48-praha-dolni-mecholupy.html","302"
"3","Hospoda","Pivnice U Tomáše","https://www.firmy.cz/detail/13232026-pivnice-u-tomase-praha-dolni-mecholupy.html","449"
"4","Veterinář","Veterinární ordinace MiaVet","https://www.firmy.cz/detail/13239222-veterinarni-ordinace-miavet-praha-dolni-mecholupy.html","192"
"5","Divadlo","Loutkové divadlo Frydolín","https://www.firmy.cz/detail/397086-loutkove-divadlo-frydolin-praha-hostivar.html","1704"
"6","Cukrárna","Smetanová cukrárna","https://www.firmy.cz/detail/2586762-smetanova-cukrarna-praha-dolni-mecholupy.html","501"
"7","Kino","Multikino - Premiere Cinemas Praha Hostivař","https://www.firmy.cz/detail/12745547-multikino-premiere-cinemas-praha-hostivar-praha-hostivar.html","3020"
"8","Bus MHD","Dolnoměcholupská","https://mapy.cz/zakladni?x=14.5567961255&y=50.0606024967&z=17&source=pubt&id=15300802","102"
"9","Školka","MŠ Dolní Měcholupy Praha","https://www.firmy.cz/detail/807829-ms-dolni-mecholupy-praha-praha-dolni-mecholupy.html","253"
"10","Škola","Základní škola Dolní Měcholupy","https://www.firmy.cz/detail/356123-zakladni-skola-dolni-mecholupy-praha-dolni-mecholupy.html","517"
"11","Pošta","Pošta Dolní Měcholupy - Česká pošta, s.p.","https://www.firmy.cz/detail/217156-posta-dolni-mecholupy-praha-dolni-mecholupy.html","306"
"12","Vlak","Praha-Hostivař","https://mapy.cz/zakladni?x=14.5382405134&y=50.0550223431&z=17&source=pubt&id=15212564","1546"
"13","Obchod","Štěrboholy Retail Park","https://www.firmy.cz/detail/13185713-sterboholy-retail-park-praha.html","872"
"14","Sportoviště","Venkovní víceúčelové hřiště Dolní Měcholupy - tenisové kurty","https://www.firmy.cz/detail/13265222-venkovni-viceucelove-hriste-dolni-mecholupy-tenisove-kurty-praha.html","469"
"15","Restaurace","Steak House a Pizzerie Mondeo","https://www.firmy.cz/detail/434381-steak-house-a-pizzerie-mondeo-praha-dolni-mecholupy.html","74"
"16","Metro","Depo Hostivař","https://mapy.cz/zakladni?x=14.5154103752&y=50.0755518063&z=17&source=pubt&id=15200284","3390"
"17","Lékárna","Dr.Max LÉKÁRNA","https://www.firmy.cz/detail/13207587-dr-max-lekarna-praha-sterboholy.html","961"
"18","Lékař","Dolnoměcholupská zdravotní s.r.o.","https://www.firmy.cz/detail/12839032-dolnomecholupska-zdravotni-s-r-o-praha-dolni-mecholupy.html","306"
"19","Bankomat","Bankomat UniCredit Bank Czech Republic","https://www.firmy.cz/detail/12987165-bankomat-unicredit-bank-czech-republic-praha-dolni-mecholupy.html","306"
"20","Tram","Nádraží Hostivař","https://mapy.cz/zakladni?x=14.5376025825&y=50.0532368518&z=17&source=pubt&id=15302633","1685"
