"","facility_type","facility_name","facility_iri","facility_distance"
"0","Cukrárna","Cukrárna Ondra","https://www.firmy.cz/detail/12968565-cukrarna-ondra-karlovy-vary-stara-role.html","590"
"1","Kino","Areál Rolava","https://www.firmy.cz/detail/13071200-areal-rolava-karlovy-vary-rybare.html","1432"
"2","Přírodní zajímavost","Karlův hvozd","","4989"
"3","Hřiště","Dětské hřiště Fitpark","","394"
"4","Večerka","Můjobchod - Potraviny Na konečný","https://www.firmy.cz/detail/12997918-mujobchod-potraviny-na-konecny-karlovy-vary-stara-role.html","127"
"5","Hospoda","Pivnice U Zoji","https://www.firmy.cz/detail/13116061-pivnice-u-zoji-karlovy-vary-stara-role.html","192"
"6","Divadlo","Divadlo Kapsa","https://www.firmy.cz/detail/2276352-divadlo-kapsa-karlovy-vary-rybare.html","1656"
"7","Veterinář","Psí hotel Betčina Salaš","https://www.firmy.cz/detail/2641534-psi-hotel-betcina-salas-karlovy-vary-stara-role.html","685"
"8","Pošta","Pošta Karlovy Vary 17 - Česká pošta, s.p.","https://www.firmy.cz/detail/216400-posta-karlovy-vary-17-karlovy-vary-stara-role.html","355"
"9","Bus MHD","Stará Role, u Lékárny","","115"
"10","Restaurace","Pizza Tipo","https://www.firmy.cz/detail/2610602-pizza-tipo-karlovy-vary-stara-role.html","278"
"11","Obchod","Kaufland","https://www.firmy.cz/detail/152366-kaufland-karlovy-vary-rybare.html","1605"
"12","Bankomat","Bankomat ČSOB","https://www.firmy.cz/detail/12768599-bankomat-csob-karlovy-vary-stara-role.html","446"
"13","Lékař","MUDr. Helena Trtková Říhová","https://www.firmy.cz/detail/12840341-mudr-helena-trtkova-rihova-karlovy-vary-stara-role.html","158"
"14","Školka","2. MŠ Karlovy Vary - Dvořákova","https://www.firmy.cz/detail/12776006-2-ms-karlovy-vary-dvorakova-karlovy-vary-stara-role.html","252"
"15","Lékárna","Lékárna BENU","https://www.firmy.cz/detail/13221589-lekarna-benu-karlovy-vary-stara-role.html","212"
"16","Sportoviště","Eurobar Morava Bowling","https://www.firmy.cz/detail/13263830-eurobar-morava-bowling-karlovy-vary-stara-role.html","207"
"17","Škola","ZŠ Karlovy Vary, Školní","https://www.firmy.cz/detail/759779-zs-karlovy-vary-skolni-karlovy-vary-stara-role.html","275"
"18","Vlak","Stará Role","","472"
