"","facility_type","facility_name","facility_iri","facility_distance"
"0","Cukrárna","Cukrárna Sladká dílna","https://www.firmy.cz/detail/13333187-cukrarna-sladka-dilna-praha-veleslavin.html","1734"
"1","Kino","Kino Dlabačov","https://www.firmy.cz/detail/13024517-kino-dlabacov-praha-brevnov.html","4434"
"2","Hřiště","Dětské hřiště McDonald's","","328"
"3","Večerka","Potraviny Šperl","https://www.firmy.cz/detail/13332204-potraviny-sperl-praha-liboc.html","600"
"4","Hospoda","Hostinec Dívčí skok","https://www.firmy.cz/detail/1959313-hostinec-divci-skok-praha-liboc.html","838"
"5","Divadlo","Divadlo Tineola","https://www.firmy.cz/detail/401473-divadlo-tineola-praha-vokovice.html","1849"
"6","Veterinář","Veterinární klinika Delta MVDr.Michael Růžička, s.r.o.","https://www.firmy.cz/detail/2476147-veterinarni-klinika-delta-mvdr-michael-ruzicka-praha-ruzyne.html","711"
"7","Lékárna","Lékárna Na Dědině","https://www.firmy.cz/detail/658645-lekarna-na-dedine-praha-ruzyne.html","711"
"8","Sportoviště","TwoTowers PAINTBALL","https://www.firmy.cz/detail/13270236-twotowers-paintball-praha.html","523"
"9","Tram","Divoká Šárka","","417"
"10","Obchod","Amádeus Real, a.s.","https://www.firmy.cz/detail/12720563-amadeus-real-a-s-praha-ruzyne.html","735"
"11","Bankomat","Bankomat Komerční banky","https://www.firmy.cz/detail/12786535-bankomat-komercni-banky-praha-ruzyne.html","750"
"12","Pošta","Pošta Praha 614 - Česká pošta, s.p.","https://www.firmy.cz/detail/216721-posta-praha-614-praha-ruzyne.html","694"
"13","Vlak","Praha-Ruzyně","","1104"
"14","Lékař","Ordinace Optima, s.r.o.","https://www.firmy.cz/detail/12835883-ordinace-optima-praha-liboc.html","693"
"15","Školka","MŠ Libocká","https://www.firmy.cz/detail/407362-ms-libocka-praha-liboc.html","500"
"16","Metro","Petřiny","","1893"
"17","Bus MHD","Vlastina","","212"
"18","Škola","ZŠ Dědina Praha 6","https://www.firmy.cz/detail/161485-zs-dedina-praha-6-praha-liboc.html","710"
"19","Restaurace","McDonald's","https://www.firmy.cz/detail/430292-mcdonald-s-praha-liboc.html","303"
