"","facility_type","facility_name","facility_iri","facility_distance"
"0","Přírodní zajímavost","Čedičový lom Kernberg","","2498"
"1","Hřiště","Dětské hřiště na veřejném sportovišti","","3296"
"2","Večerka","Potraviny Sídliště 694","https://www.firmy.cz/detail/13057517-potraviny-sidliste-694-rotava.html","107"
"3","Veterinář","ŠEROVET, s.r.o.","https://www.firmy.cz/detail/2546600-serovet-kraslice.html","3096"
"4","Hospoda","Hospoda Nenucený výsek","https://www.firmy.cz/detail/12948981-hospoda-nenuceny-vysek-kraslice.html","3039"
"5","Bus MHD","Rotava, sídliště","","31"
"6","Sportoviště","TJ ROTAS","https://www.firmy.cz/detail/12715991-tj-rotas-rotava.html","230"
"7","Bankomat","Bankomat České spořitelny","https://www.firmy.cz/detail/12837245-bankomat-ceske-sporitelny-rotava.html","156"
"8","Škola","ZŠ Rotava","https://www.firmy.cz/detail/359202-zs-rotava-rotava.html","476"
"9","Vlak","Rotava","","2343"
"10","Školka","MŠ Rotava","https://www.firmy.cz/detail/12857189-ms-rotava-rotava.html","146"
"11","Restaurace","Restaurace Rotava","https://www.firmy.cz/detail/12986633-restaurace-rotava-rotava.html","669"
"12","Lékárna","Lékárna BONATE","https://www.firmy.cz/detail/13233574-lekarna-bonate-rotava.html","415"
"13","Pošta","Pošta Rotava 1 - Česká pošta, s.p.","https://www.firmy.cz/detail/216454-posta-rotava-1-rotava.html","170"
"14","Lékař","Ascala, s.r.o.","https://www.firmy.cz/detail/12840467-ascala-rotava.html","363"
