"","facility_type","facility_name","facility_iri","facility_distance"
"0","Cukrárna","Machova cukrárna","https://www.firmy.cz/detail/13112358-machova-cukrarna-chrudim-i.html","181"
"1","Kino","Městské kino Chrudim","https://www.firmy.cz/detail/396712-mestske-kino-chrudim-chrudim-iii.html","151"
"2","Přírodní zajímavost","Slatiňanská Třešňovka","","4149"
"3","Hřiště","Dětské hřiště","","343"
"4","Večerka","BioPohanka - Zdravá výživa","https://www.firmy.cz/detail/13233009-biopohanka-zdrava-vyziva-chrudim-ii.html","42"
"5","Hospoda","Hostinec u Rychtáře Václava","https://www.firmy.cz/detail/13121495-hostinec-u-rychtare-vaclava-chrudim-ii.html","370"
"6","Divadlo","Divadlo Karla Pippicha","https://www.firmy.cz/detail/12868559-divadlo-karla-pippicha-chrudim-iv.html","248"
"7","Veterinář","LAGÍNOVÁ HANA MVDr.","https://www.firmy.cz/detail/1971183-laginova-hana-mvdr-chrudim-iii.html","445"
"8","Restaurace","Bufet Havlíčkova 1","https://www.firmy.cz/detail/13141955-bufet-havlickova-1-chrudim-iii.html","0"
"9","Vlak","Chrudim","","553"
"10","Lékárna","Lékárna Na Kateřině","https://www.firmy.cz/detail/2604477-lekarna-na-katerine-chrudim-ii.html","72"
"11","Škola","ZŠ Chrudim, Školní náměstí","https://www.firmy.cz/detail/357408-zs-chrudim-skolni-namesti-chrudim-ii.html","263"
"12","Školka","MŠ Chrudim 3, Svatopluka Čecha","https://www.firmy.cz/detail/460616-ms-chrudim-3-svatopluka-cecha-chrudim-iii.html","146"
"13","Sportoviště","Sportovní hala města Chrudim","https://www.firmy.cz/detail/2640911-sportovni-hala-mesta-chrudim-chrudim-ii.html","410"
"14","Lékař","MUDr. Helena Kubínová","https://www.firmy.cz/detail/12833145-mudr-helena-kubinova-chrudim-iii.html","69"
"15","Bus MHD","Chrudim, Borzna","","244"
"16","Bankomat","Bankomat MONETA Money Bank","https://www.firmy.cz/detail/2397470-bankomat-moneta-money-bank-chrudim-iii.html","158"
"17","Obchod","OC Port","https://www.firmy.cz/detail/13288835-oc-port-chrudim-iv.html","778"
"18","Pošta","Pošta Chrudim 1 - Česká pošta, s.p.","https://www.firmy.cz/detail/215838-posta-chrudim-1-chrudim-i.html","266"
