"","facility_type","facility_name","facility_iri","facility_distance"
"0","Hřiště","Dětské hřiště Schwarzova","https://mapy.cz/zakladni?x=13.3667221628&y=49.7368856955&z=17&source=base&id=2226034","303"
"1","Cukrárna","Sušenkárna","https://www.firmy.cz/detail/13273595-susenkarna-plzen-jizni-predmesti.html","622"
"2","Večerka","Západočeské konzumní družstvo Plzeň - COOP - TIP","https://www.firmy.cz/detail/465422-zapadoceske-konzumni-druzstvo-plzen-coop-tip-plzen-jizni-predmesti.html","281"
"3","Hospoda","Krušovický Sklípek","https://www.firmy.cz/detail/288569-krusovicky-sklipek-plzen-jizni-predmesti.html","134"
"4","Kino","Kino Beseda","https://www.firmy.cz/detail/12773769-kino-beseda-plzen-jizni-predmesti.html","984"
"5","Veterinář","Psí salón BELLA","https://www.firmy.cz/detail/12759736-psi-salon-bella-plzen-jizni-predmesti.html","482"
"6","Divadlo","Divadlo pod lampou, o.p.s.","https://www.firmy.cz/detail/2418226-divadlo-pod-lampou-plzen-jizni-predmesti.html","319"
"7","Restaurace","Restaurace Zlatá Koruna","https://www.firmy.cz/detail/13210456-restaurace-zlata-koruna-plzen-jizni-predmesti.html","204"
"8","Pošta","Pošta Plzeň 13 - Česká pošta, s.p.","https://www.firmy.cz/detail/216649-posta-plzen-13-plzen-jizni-predmesti.html","600"
"9","Lékárna","Lékárna BENU Plzeň","https://www.firmy.cz/detail/13204060-lekarna-benu-plzen-plzen-jizni-predmesti.html","284"
"10","Vlak","Plzeň-Jižní Předměstí","https://mapy.cz/zakladni?x=13.3674535638&y=49.7401195443&z=17&source=pubt&id=15212478","168"
"11","Bus MHD","Jižní Předměstí","https://mapy.cz/zakladni?x=13.36596012&y=49.7400589&z=17&source=pubt&id=19770956","79"
"12","Obchod","Obchodní centrum Plzeň Plaza","https://www.firmy.cz/detail/13089722-obchodni-centrum-plzen-plaza-plzen-jizni-predmesti.html","1170"
"13","Škola","Hotelová škola, Plzeň","https://www.firmy.cz/detail/2612629-hotelova-skola-plzen-plzen-jizni-predmesti.html","298"
"14","Sportoviště","Tenisová škola TALLENT","https://www.firmy.cz/detail/722814-tenisova-skola-tallent-plzen-jizni-predmesti.html","364"
"15","Bankomat","Bankomat České spořitelny","https://www.firmy.cz/detail/594021-bankomat-ceske-sporitelny-plzen-jizni-predmesti.html","424"
"16","Tram","Chodské náměstí","https://mapy.cz/zakladni?x=13.3707102969&y=49.7378501276&z=17&source=pubt&id=15697595","425"
"17","Školka","24. MŠ Plzeň, Schwarzova","https://www.firmy.cz/detail/360416-24-ms-plzen-schwarzova-plzen-jizni-predmesti.html","180"
"18","Lékař","MUDr. Miloš Krupička","https://www.firmy.cz/detail/368426-mudr-milos-krupicka-plzen-jizni-predmesti.html","284"
