"","facility_type","facility_name","facility_iri","facility_distance"
"0","Cukrárna","Sladký časy Buchtárna","https://www.firmy.cz/detail/723940-sladky-casy-buchtarna-ostrava-moravska-ostrava.html","91"
"1","Kino","5D cinema Maxim","https://www.firmy.cz/detail/12871625-5d-cinema-maxim-ostrava-moravska-ostrava.html","347"
"2","Přírodní zajímavost","Uhelná sloj v Landeku","","3988"
"3","Hřiště","Dětské hřiště Výstaviště Černá louka","","447"
"4","Večerka","NÁKUPNÍ CENTRUM GLOBAL","https://www.firmy.cz/detail/264258-nakupni-centrum-global-ostrava-moravska-ostrava.html","26"
"5","Hospoda","U Zrzavé Mary","https://www.firmy.cz/detail/574097-u-zrzave-mary-ostrava-moravska-ostrava.html","117"
"6","Divadlo","Divadlo Antonína Dvořáka","https://www.firmy.cz/detail/397048-divadlo-antonina-dvoraka-ostrava-moravska-ostrava.html","200"
"7","Veterinář","Veterinární ordinace - MVDr. Richard Saviola","https://www.firmy.cz/detail/477150-veterinarni-ordinace-mvdr-richard-saviola-ostrava-moravska-ostrava.html","994"
"8","Obchod","Forum Nová Karolina","https://www.firmy.cz/detail/13040093-forum-nova-karolina-ostrava-moravska-ostrava.html","310"
"9","Školka","MŠ Ostrava, Poděbradova","https://www.firmy.cz/detail/2322511-ms-ostrava-podebradova-ostrava-moravska-ostrava.html","307"
"10","Tram","Karolina","","86"
"11","Sportoviště","Wakeboard Club Ostrava","https://www.firmy.cz/detail/166403-wakeboard-club-ostrava-ostrava-moravska-ostrava.html","0"
"12","Lékárna","Dr. Max LÉKÁRNA","https://www.firmy.cz/detail/12856788-dr-max-lekarna-ostrava-moravska-ostrava.html","109"
"13","Vlak","Ostrava-Stodolní","","523"
"14","Bus MHD","Hotel Palace","","246"
"15","Škola","NEWPORT INTERNATIONAL UNIVERSITY, s.r.o.","https://www.firmy.cz/detail/586886-newport-international-university-ostrava-moravska-ostrava.html","306"
"16","Bankomat","Bankomat ČSOB","https://www.firmy.cz/detail/599413-bankomat-csob-ostrava-moravska-ostrava.html","152"
"17","Pošta","Pošta Ostrava 39 - Česká pošta, s.p.","https://www.firmy.cz/detail/433389-posta-ostrava-39-ostrava-moravska-ostrava.html","83"
"18","Lékař","MUDr. Jarmila Fialová","https://www.firmy.cz/detail/370609-mudr-jarmila-fialova-ostrava-moravska-ostrava.html","207"
"19","Restaurace","Restaurace 8osma","https://www.firmy.cz/detail/2366817-restaurace-8osma-ostrava-moravska-ostrava.html","0"
