"","facility_type","facility_name","facility_iri","facility_distance"
"0","Hřiště","Dětské hřiště - Komenského sady","https://mapy.cz/zakladni?x=15.2038627778&y=50.0256663889&z=17&source=base&id=2086544","351"
"1","Veterinář","MVDr. Zuzana Neustadtová","https://www.firmy.cz/detail/273255-mvdr-zuzana-neustadtova-kolin-ii.html","462"
"2","Večerka","Potraviny Nam Ku","https://www.firmy.cz/detail/13341161-potraviny-nam-ku-kolin-i.html","25"
"3","Hospoda","Hostinec U Tří pírek","https://www.firmy.cz/detail/13301204-hostinec-u-tri-pirek-kolin-i.html","162"
"4","Cukrárna","Cukrárna Vladimír Hollas","https://www.firmy.cz/detail/241534-cukrarna-vladimir-hollas-kolin-i.html","30"
"5","Divadlo","DIVADLO Kolín","https://www.firmy.cz/detail/230785-divadlo-kolin-kolin-iv.html","454"
"6","Kino","Kino 99","https://www.firmy.cz/detail/396396-kino-99-kolin-iv.html","472"
"7","Škola","Střední zdravotnická škola a Vyšší odborná škola zdravotnická Kolín","https://www.firmy.cz/detail/230778-stredni-zdravotnicka-skola-a-vyssi-odborna-skola-zdravotnicka-kolin-kolin-i.html","53"
"8","Lékárna","Dr. Max","https://www.firmy.cz/detail/12857003-dr-max-kolin-i.html","94"
"9","Restaurace","U Luka","https://www.firmy.cz/detail/13288791-u-luka-kolin-i.html","35"
"10","Pošta","Pošta Kolín 1 - Česká pošta, s.p.","https://www.firmy.cz/detail/217257-posta-kolin-1-kolin-ii.html","253"
"11","Školka","MŠ Kolín II., Kmochova","https://www.firmy.cz/detail/2122911-ms-kolin-ii-kmochova-kolin-ii.html","322"
"12","Bus MHD","Kolín, Karlovo náměstí","https://mapy.cz/zakladni?x=15.2011209477&y=50.0277916482&z=17&source=pubt&id=15716372","77"
"13","Lékař","MUDr. Robert Adam, s.r.o.","https://www.firmy.cz/detail/2258774-mudr-robert-adam-kolin-iv.html","248"
"14","Vlak","Kolín zastávka","https://mapy.cz/zakladni?x=15.1953046801&y=50.0306842653&z=17&source=pubt&id=15211764","478"
"15","Bankomat","Bankomat Fio banky","https://www.firmy.cz/detail/2678061-bankomat-fio-banky-kolin-i.html","35"
"16","Sportoviště","Kolínská 14","https://www.firmy.cz/detail/13058609-kolinska-14-kolin.html","64"
"17","Obchod","OC Futurum Kolín","https://www.firmy.cz/detail/13126332-oc-futurum-kolin-kolin-iv.html","731"
