"","facility_type","facility_name","facility_iri","facility_distance"
"0","Cukrárna","Dětský bar Pepíno","https://www.firmy.cz/detail/307159-detsky-bar-pepino-chomutov.html","1116"
"1","Kino","Letní kino Chomutov","https://www.firmy.cz/detail/2644649-letni-kino-chomutov-chomutov.html","899"
"2","Hřiště","Dětská lanová dráha","","448"
"3","Večerka","NORMA","https://www.firmy.cz/detail/2182350-norma-chomutov.html","146"
"4","Hospoda","Hospoda Kulečník Pool","https://www.firmy.cz/detail/13327617-hospoda-kulecnik-pool-chomutov.html","1128"
"5","Divadlo","Městské divadlo Chomutov","https://www.firmy.cz/detail/2644644-mestske-divadlo-chomutov-chomutov.html","1568"
"6","Veterinář","MVDr. Gabriela Jašurková Mikutová","https://www.firmy.cz/detail/1907835-mvdr-gabriela-jasurkova-mikutova-chomutov.html","1385"
"7","Obchod","Kaufland","https://www.firmy.cz/detail/12855793-kaufland-chomutov.html","1513"
"8","Restaurace","Restaurace U Pratura","https://www.firmy.cz/detail/13269880-restaurace-u-pratura-chomutov.html","448"
"9","Bus MHD","Chomutov, Zoopark","","85"
"10","Školka","MŠ Chomutov, 17 lístopadu","https://www.firmy.cz/detail/1345664-ms-chomutov-17-listopadu-chomutov.html","299"
"11","Sportoviště","AFK LoKo Chomutov","https://www.firmy.cz/detail/13075778-afk-loko-chomutov-chomutov.html","372"
"12","Lékárna","U Lípy","https://www.firmy.cz/detail/2356615-u-lipy-chomutov.html","463"
"13","Pošta","Pošta Chomutov 4 - Česká pošta, s.p.","https://www.firmy.cz/detail/215278-posta-chomutov-4-chomutov.html","419"
"14","Bankomat","Bankomat České spořitelny","https://www.firmy.cz/detail/591856-bankomat-ceske-sporitelny-chomutov.html","145"
"15","Škola","ZŠ a MŠ Chomutov, 17. listopadu","https://www.firmy.cz/detail/357369-zs-a-ms-chomutov-17-listopadu-chomutov.html","370"
"16","Lékař","MUDr. Jana Hazemová","https://www.firmy.cz/detail/385916-mudr-jana-hazemova-chomutov.html","463"
"17","Vlak","Chomutov město","","931"
