"","facility_type","facility_name","facility_iri","facility_distance"
"0","Cukrárna","Shothouse","https://www.firmy.cz/detail/13286217-shothouse-havirov-mesto.html","427"
"1","Kino","Kino Centrum","https://www.firmy.cz/detail/12780436-kino-centrum-havirov-mesto.html","466"
"2","Hřiště","Dětské hřiště Hakenova","","61"
"3","Večerka","Koloniál v Bílém domě","https://www.firmy.cz/detail/13265108-kolonial-v-bilem-dome-havirov-mesto.html","224"
"4","Hospoda","Bagetérie Lexi","https://www.firmy.cz/detail/12954140-bageterie-lexi-havirov-mesto.html","340"
"5","Veterinář","Veterina Na Nábřeží","https://www.firmy.cz/detail/1947067-veterina-na-nabrezi-havirov-mesto.html","606"
"6","Vlak","Havířov-střed","","1391"
"7","Škola","ZŠ Havířov, 1. máje","https://www.firmy.cz/detail/357049-zs-havirov-1-maje-havirov-mesto.html","320"
"8","Lékárna","Lékárna Na Národní","https://www.firmy.cz/detail/659545-lekarna-na-narodni-havirov-mesto.html","332"
"9","Pošta","Pošta Havířov 1 - Česká pošta, s.p.","https://www.firmy.cz/detail/431627-posta-havirov-1-havirov-mesto.html","549"
"10","Bus MHD","Havířov, Město, Národní tř.","","71"
"11","Restaurace","Restaurace E. F. Buriana 869","https://www.firmy.cz/detail/13151294-restaurace-e-f-buriana-869-havirov-mesto.html","224"
"12","Sportoviště","Lezecká stěna Havířov","https://www.firmy.cz/detail/13178466-lezecka-stena-havirov-havirov-mesto.html","129"
"13","Obchod","Obchodní centrum Elan","https://www.firmy.cz/detail/2181587-obchodni-centrum-elan-havirov-mesto.html","640"
"14","Školka","Mateřská škola, Havířov - KLUBÍČKO","https://www.firmy.cz/detail/1968054-materska-skola-havirov-klubicko-havirov-mesto.html","162"
"15","Bankomat","Bankomat ČSOB","https://www.firmy.cz/detail/599376-bankomat-csob-havirov-mesto.html","488"
"16","Lékař","MUDr. Lucie Šebestová s.r.o.","https://www.firmy.cz/detail/12862656-mudr-lucie-sebestova-s-r-o-havirov-mesto.html","272"
