"","facility_type","facility_name","facility_iri","facility_distance"
"0","Hřiště","Dětské hřiště Šlapanice","https://mapy.cz/zakladni?x=16.7163612476&y=49.1693229818&z=17&source=base&id=2192659","65"
"1","Přírodní zajímavost","Prameniště Dvorského potoka","https://mapy.cz/zakladni?x=16.6834119444&y=49.1339863889&z=17&source=base&id=2067558","4591"
"2","Veterinář","VETerinka","https://www.firmy.cz/detail/13131837-veterinka-slapanice.html","568"
"3","Hospoda","Jitřenka u Jana","https://www.firmy.cz/detail/13250050-jitrenka-u-jana-slapanice.html","960"
"4","Večerka","Penny Market","https://www.firmy.cz/detail/13168860-penny-market-slapanice.html","156"
"5","Cukrárna","Cukrárna Vymazal","https://www.firmy.cz/detail/480435-cukrarna-vymazal-slapanice.html","700"
"6","Divadlo","divadlo LÍŠEŇ","https://www.firmy.cz/detail/2145854-divadlo-lisen-brno-lisen.html","4416"
"7","Pošta","Pošta Šlapanice u Brna - Česká pošta, s.p.","https://www.firmy.cz/detail/216081-posta-slapanice-u-brna-slapanice.html","726"
"8","Tram","Stránská skála - smyčka","https://mapy.cz/zakladni?x=16.677469&y=49.192656&z=17&source=pubt&id=15726027","3902"
"9","Škola","Gymnázium a základní umělecká škola Šlapanice","https://www.firmy.cz/detail/197111-gymnazium-a-zakladni-umelecka-skola-slapanice-slapanice.html","567"
"10","Bus MHD","Šlapanice, sídl.","https://mapy.cz/zakladni?x=16.7184712486882&y=49.1670552156958&z=17&source=pubt&id=15205129","234"
"11","Bankomat","Bankomat České spořitelny","https://www.firmy.cz/detail/596206-bankomat-ceske-sporitelny-slapanice.html","690"
"12","Lékař","BeBridge a.s., Lékárna Na náměstí","https://www.firmy.cz/detail/13289336-bebridge-a-s-lekarna-na-namesti-slapanice.html","764"
"13","Školka","Mateřská škola Zahrádka, Šlapanice, okres Brno-venkov","https://www.firmy.cz/detail/13076092-materska-skola-zahradka-slapanice-okres-brno-venkov-slapanice.html","202"
"14","Vlak","Šlapanice zastávka","https://mapy.cz/zakladni?x=16.7191098056&y=49.1632639844&z=17&source=pubt&id=17197800","648"
"15","Restaurace","Na Kocandě","https://www.firmy.cz/detail/12960598-na-kocande-slapanice.html","586"
"16","Sportoviště","Sportovní areál a Café Bar ROCI","https://www.firmy.cz/detail/599759-sportovni-areal-a-cafe-bar-roci-slapanice.html","201"
"17","Lékárna","Lékárna Na náměstí","https://www.firmy.cz/detail/2593685-lekarna-na-namesti-slapanice.html","764"
"18","Obchod","Kaufland","https://www.firmy.cz/detail/12933951-kaufland-brno-slatina.html","3898"
