"","facility_type","facility_name","facility_iri","facility_distance"
"0","Cukrárna","OVOCNÝ SVĚTOZOR","https://www.firmy.cz/detail/468735-ovocny-svetozor-praha-strasnice.html","512"
"1","Kino","Cinema City Flora","https://www.firmy.cz/detail/660712-cinema-city-flora-praha-zizkov.html","1398"
"2","Hřiště","Dětské hřiště Omská","","147"
"3","Přírodní zajímavost","Mokřad Triangl","","3182"
"4","Večerka","Albert Supermarket","https://www.firmy.cz/detail/209473-albert-supermarket-praha-vrsovice.html","361"
"5","Divadlo","Divadelní společnost Josefa Dvořáka","https://www.firmy.cz/detail/396839-divadelni-spolecnost-josefa-dvoraka-praha-vrsovice.html","1381"
"6","Hospoda","Hospůdka U Kladiva","https://www.firmy.cz/detail/625166-hospudka-u-kladiva-praha-strasnice.html","1052"
"7","Veterinář","MVDr. Václav Naxera - veterinární klinika","https://www.firmy.cz/detail/278421-mvdr-vaclav-naxera-veterinarni-klinika-praha-vinohrady.html","479"
"8","Obchod","Tesco Extra","https://www.firmy.cz/detail/733906-tesco-extra-praha-vrsovice.html","973"
"9","Škola","Střední zdravotnická škola Praha 10","https://www.firmy.cz/detail/360992-stredni-zdravotnicka-skola-praha-10-praha-vinohrady.html","59"
"10","Pošta","Pošta Praha 105 - Česká pošta, s.p.","https://www.firmy.cz/detail/217466-posta-praha-105-praha-vrsovice.html","263"
"11","Vlak","Praha-Eden","","991"
"12","Tram","Kubánské náměstí","","303"
"13","Školka","MŠ Omská","https://www.firmy.cz/detail/2242782-ms-omska-praha-vrsovice.html","112"
"14","Bus MHD","Murmanská","","22"
"15","Bankomat","Bankomat České spořitelny","https://www.firmy.cz/detail/594423-bankomat-ceske-sporitelny-praha-vinohrady.html","246"
"16","Lékárna","FN Královské Vinohrady - Ústavní lékárna","https://www.firmy.cz/detail/422836-fn-kralovske-vinohrady-ustavni-lekarna-praha-vinohrady.html","344"
"17","Sportoviště","Tělovýchovná jednota SPASTIC SPORT PRAHA, o.s.","https://www.firmy.cz/detail/2648445-telovychovna-jednota-spastic-sport-praha-o-s-praha-vrsovice.html","229"
"18","Metro","Želivského","","605"
"19","Lékař","MUDr. Miloslava Hartmanová","https://www.firmy.cz/detail/1954082-mudr-miloslava-hartmanova-praha-vrsovice.html","394"
"20","Restaurace","Restaurace hotelu Mars","https://www.firmy.cz/detail/12731456-restaurace-hotelu-mars-praha-vrsovice.html","196"
