"","facility_type","facility_name","facility_iri","facility_distance"
"0","Hřiště","Dětské hřiště Šutka","https://mapy.cz/zakladni?x=14.442858053&y=50.1250006641&z=17&source=base&id=1927148","244"
"1","Cukrárna","Cukrárna U Háje","https://www.firmy.cz/detail/1950720-cukrarna-u-haje-praha-kobylisy.html","353"
"2","Večerka","Albert Supermarket","https://www.firmy.cz/detail/209510-albert-supermarket-praha-kobylisy.html","474"
"3","Veterinář","Veterinární klinika Sokolníky","https://www.firmy.cz/detail/178895-veterinarni-klinika-sokolniky-praha-kobylisy.html","446"
"4","Divadlo","Salesiánské divadlo","https://www.firmy.cz/detail/13100331-salesianske-divadlo-praha-kobylisy.html","664"
"5","Hospoda","Poctivej Výčep","https://www.firmy.cz/detail/12983895-poctivej-vycep-praha-kobylisy.html","249"
"6","Kino","PIDIKINO","https://www.firmy.cz/detail/13032645-pidikino-praha-holesovice.html","2808"
"7","Školka","MŠ Praha 8, Klíčanská","https://www.firmy.cz/detail/1269894-ms-praha-8-klicanska-praha-kobylisy.html","156"
"8","Škola","TRIVIS - Střední škola veřejnoprávní a Vyšší odborná škola prevence kriminality a krizového řízení Praha, s.r.o.","https://www.firmy.cz/detail/361481-trivis-stredni-skola-verejnopravni-a-vyssi-odborna-skola-prevence-kriminality-a-krizoveho-rizeni-praha-praha-kobylisy.html","94"
"9","Tram","Hercovka","https://mapy.cz/zakladni?x=14.4513676276&y=50.1220711574&z=17&source=pubt&id=15693582","744"
"10","Lékař","MUDr. Zdeňka Kořínková","https://www.firmy.cz/detail/386763-mudr-zdenka-korinkova-praha-kobylisy.html","236"
"11","Metro","Kobylisy","https://mapy.cz/zakladni?x=14.4518189735&y=50.1241205333&z=17&source=pubt&id=15200181","624"
"12","Restaurace","FIGO pizza&pasta","https://www.firmy.cz/detail/632189-figo-pizza-pasta-praha-troja.html","187"
"13","Bus MHD","Písečná","https://mapy.cz/zakladni?x=14.442853260912255&y=50.12586540762607&z=17&source=pubt&id=15300788","162"
"14","Bankomat","Bankomat UniCredit Bank Czech Republic","https://www.firmy.cz/detail/1964688-bankomat-unicredit-bank-czech-republic-praha-kobylisy.html","621"
"15","Pošta","Pošta Praha 85 - Česká pošta, s.p.","https://www.firmy.cz/detail/658903-posta-praha-85-praha-kobylisy.html","1382"
"16","Lékárna","Lékárna Šutka Čimická","https://www.firmy.cz/detail/12899895-lekarna-sutka-cimicka-praha-troja.html","184"
"17","Obchod","Nákupní centrum ODRA","https://www.firmy.cz/detail/221986-nakupni-centrum-odra-praha-bohnice.html","1558"
"18","Sportoviště","Tenisový klub Písečná s.r.o., s.r.o.","https://www.firmy.cz/detail/13017980-tenisovy-klub-pisecna-s-r-o-praha-troja.html","611"
"19","Vlak","Praha-Holešovice","https://mapy.cz/zakladni?x=14.4396819181&y=50.1106571267&z=17&source=pubt&id=15698520","1846"
