"","facility_type","facility_name","facility_iri","facility_distance"
"0","Hřiště","Dětské hřiště Líšeňská","https://mapy.cz/zakladni?x=16.6579576297&y=49.1964304468&z=17&source=base&id=2127941","26"
"1","Přírodní zajímavost","Cesta rákosím","https://mapy.cz/zakladni?x=16.6729975&y=49.2165883333&z=17&source=base&id=2112597","2518"
"2","Večerka","Potraviny ENAPO","https://www.firmy.cz/detail/13268584-potraviny-enapo-brno-zidenice.html","563"
"3","Hospoda","Hospůdka Na hřišti","https://www.firmy.cz/detail/12707503-hospudka-na-hristi-brno-zidenice.html","334"
"4","Cukrárna","Cukrárna U Losa","https://www.firmy.cz/detail/2197073-cukrarna-u-losa-brno-zidenice.html","1003"
"5","Divadlo","Divadlo Neslyším","https://www.firmy.cz/detail/406578-divadlo-neslysim-brno-zabrdovice.html","2409"
"6","Veterinář","MVDr. Vratislav Pitr","https://www.firmy.cz/detail/477108-mvdr-vratislav-pitr-brno-zidenice.html","467"
"7","Kino","5D cinema Maxim","https://www.firmy.cz/detail/12734839-5d-cinema-maxim-brno-mesto.html","3324"
"8","Lékárna","Lékárna BENU","https://www.firmy.cz/detail/658715-lekarna-benu-brno-zidenice.html","284"
"9","Restaurace","Restaurace Na Vápence","https://www.firmy.cz/detail/13136444-restaurace-na-vapence-brno-zidenice.html","434"
"10","Tram","Juliánov","https://mapy.cz/zakladni?x=16.654392&y=49.196124&z=17&source=pubt&id=15205218","241"
"11","Školka","KinderGarten - Preschool Academy","https://www.firmy.cz/detail/2541974-kindergarten-preschool-academy-brno-zidenice.html","432"
"12","Vlak","Brno-Židenice","https://mapy.cz/zakladni?x=16.6360225534&y=49.2042037385&z=17&source=pubt&id=15213454","1805"
"13","Pošta","Pošta Brno 36 - Česká pošta, s.p.","https://www.firmy.cz/detail/431941-posta-brno-36-brno-zidenice.html","561"
"14","Obchod","Vinamo","https://www.firmy.cz/detail/13302114-vinamo-brno-cernovice.html","1101"
"15","Bankomat","Bankomat MONETA Money Bank","https://www.firmy.cz/detail/13218728-bankomat-moneta-money-bank-brno-lisen.html","858"
"16","Bus MHD","Juliánov","https://mapy.cz/zakladni?x=16.655783&y=49.196413&z=17&source=pubt&id=15205219","140"
"17","Škola","ZUŠ PhDr. Zbyňka Mrkose Brno, Došlíkova","https://www.firmy.cz/detail/399198-zus-phdr-zbynka-mrkose-brno-doslikova-brno-zidenice.html","128"
"18","Sportoviště","Tělocvičná jednota Sokol Brno - Juliánov","https://www.firmy.cz/detail/2139043-telocvicna-jednota-sokol-brno-julianov-brno-zidenice.html","334"
"19","Lékař","Top Moravia Health s.r.o.","https://www.firmy.cz/detail/187192-top-moravia-health-s-r-o-brno-zidenice.html","284"
