"","facility_type","facility_name","facility_iri","facility_distance"
"0","Cukrárna","Costa Coffee","https://www.firmy.cz/detail/2413662-costa-coffee-praha-zizkov.html","631"
"1","Kino","Cinema City Flora","https://www.firmy.cz/detail/660712-cinema-city-flora-praha-zizkov.html","602"
"2","Hřiště","Dětské hřiště Garden Towers","","114"
"3","Přírodní zajímavost","Meandry Rokytky","","3965"
"4","Večerka","PARK GROUP","https://www.firmy.cz/detail/599597-park-group-praha-zizkov.html","157"
"5","Hospoda","Pivnice Radyně","https://www.firmy.cz/detail/1957129-pivnice-radyne-praha-zizkov.html","579"
"6","Divadlo","Hvězdné léto pod žižkovskou věží","https://www.firmy.cz/detail/13265384-hvezdne-leto-pod-zizkovskou-vezi-praha-zizkov.html","1093"
"7","Veterinář","MVDr. Václav Naxera - veterinární klinika","https://www.firmy.cz/detail/278421-mvdr-vaclav-naxera-veterinarni-klinika-praha-vinohrady.html","906"
"8","Metro","Flora","","709"
"9","Škola","Střední odborná škola managementu a práva, Cimburkova","https://www.firmy.cz/detail/1953436-stredni-odborna-skola-managementu-a-prava-cimburkova-praha-zizkov.html","61"
"10","Tram","Olšanská","","85"
"11","Bankomat","Bankomat ČSOB","https://www.firmy.cz/detail/599580-bankomat-csob-praha-zizkov.html","210"
"12","Sportoviště","Tenisová škola RETURN","https://www.firmy.cz/detail/740300-tenisova-skola-return-praha-zizkov.html","510"
"13","Pošta","Pošta Praha 3 - Česká pošta, s.p.","https://www.firmy.cz/detail/2102474-posta-praha-3-praha-zizkov.html","210"
"14","Lékař","Vinohradské ambulantní zařízení","https://www.firmy.cz/detail/302645-vinohradske-ambulantni-zarizeni-praha-zizkov.html","117"
"15","Bus MHD","Nákladové nádraží Žižkov","","206"
"16","Obchod","Tesco Extra","https://www.firmy.cz/detail/733906-tesco-extra-praha-vrsovice.html","1777"
"17","Školka","MŠ Praha 3, U Zásobní zahrady","https://www.firmy.cz/detail/2264286-ms-praha-3-u-zasobni-zahrady-praha-zizkov.html","323"
"18","Lékárna","Lékárna Olšanská","https://www.firmy.cz/detail/582540-lekarna-olsanska-praha-zizkov.html","117"
"19","Vlak","Praha-Eden","","2006"
"20","Restaurace","XBowling Žižkov","https://www.firmy.cz/detail/12747345-xbowling-zizkov-praha-zizkov.html","212"
