"","facility_type","facility_name","facility_iri","facility_distance"
"0","Cukrárna","Cukrárna Václavské námestí 3","https://www.firmy.cz/detail/1957032-cukrarna-vaclavske-namesti-3-letohrad.html","4349"
"1","Kino","Kino Jablonné nad Orlicí","https://www.firmy.cz/detail/396714-kino-jablonne-nad-orlici-jablonne-nad-orlici.html","5978"
"2","Hřiště","Dětské hřiště Šedivec","","1924"
"3","Večerka","Konzum Market","https://www.firmy.cz/detail/2133620-konzum-market-nekor.html","530"
"4","Hospoda","Hostinec U Kristiána","https://www.firmy.cz/detail/13260881-hostinec-u-kristiana-lisnice.html","2837"
"5","Veterinář","Veterinární ordinace MVDr. Jaroslav Pešek","https://www.firmy.cz/detail/12831866-veterinarni-ordinace-mvdr-jaroslav-pesek-letohrad.html","3546"
"6","Vlak","Letohrad","","4330"
"7","Lékárna","U Kosmy a Damiána","https://www.firmy.cz/detail/12812927-u-kosmy-a-damiana-letohrad.html","4228"
"8","Bankomat","Bankomat Komerční banky","https://www.firmy.cz/detail/594596-bankomat-komercni-banky-letohrad.html","4274"
"9","Restaurace","Restaurace Vostrá fazole","https://www.firmy.cz/detail/2628672-restaurace-vostra-fazole-sedivec.html","1349"
"10","Školka","Mateřská škola Nekoř, okres Ústí nad Orlicí","https://www.firmy.cz/detail/12905874-materska-skola-nekor-okres-usti-nad-orlici-nekor.html","994"
"11","Pošta","Pošta Partner Nekoř","https://www.firmy.cz/detail/13099918-posta-partner-nekor-nekor.html","530"
"12","Škola","MŠ a ZŠ Josefa Luxe Nekoř","https://www.firmy.cz/detail/358397-ms-a-zs-josefa-luxe-nekor-nekor.html","1211"
"13","Sportoviště","Tělocvičná jednota Sokol Líšnice","https://www.firmy.cz/detail/2134932-telocvicna-jednota-sokol-lisnice-lisnice.html","2814"
"14","Bus MHD","Nekoř, křiž.U Lehků","","60"
"15","Lékař","MUDr. Ivana Horová s.r.o","https://www.firmy.cz/detail/13232876-mudr-ivana-horova-s-r-o-letohrad.html","3745"
