"","facility_type","facility_name","facility_iri","facility_distance"
"0","Cukrárna","Cukrárna Větrník - Černá Pole","https://www.firmy.cz/detail/13245817-cukrarna-vetrnik-cerna-pole-brno-cerna-pole.html","684"
"1","Kino","Kino Art","https://www.firmy.cz/detail/451540-kino-art-brno-veveri.html","1727"
"2","Přírodní zajímavost","Přírodní zahrada U Smrku","","2528"
"3","Hřiště","Dětské hřiště","","125"
"4","Večerka","Potraviny konzum Černý","https://www.firmy.cz/detail/12798006-potraviny-konzum-cerny-brno-cerna-pole.html","312"
"5","Hospoda","Duo Café","https://www.firmy.cz/detail/13131948-duo-cafe-brno-ponava.html","1160"
"6","Divadlo","Divadlo Kufr","https://www.firmy.cz/detail/585512-divadlo-kufr-brno-husovice.html","979"
"7","Veterinář","VeriVet","https://www.firmy.cz/detail/13247412-verivet-brno-cerna-pole.html","687"
"8","Školka","MŠ Brno, Bieblova","https://www.firmy.cz/detail/1447196-ms-brno-bieblova-brno-cerna-pole.html","125"
"9","Pošta","Pošta Brno 13 - Česká pošta, s.p.","https://www.firmy.cz/detail/216032-posta-brno-13-brno-cerna-pole.html","674"
"10","Lékař","MUDr. Eva Hamžová","https://www.firmy.cz/detail/385909-mudr-eva-hamzova-brno-cerna-pole.html","421"
"11","Sportoviště","Tělovýchovná jednota Slovan Černá Pole Brno, občanské sdružení","https://www.firmy.cz/detail/340147-telovychovna-jednota-slovan-cerna-pole-brno-obcanske-sdruzeni-brno-cerna-pole.html","441"
"12","Tram","Bieblova","","185"
"13","Bus MHD","Bieblova","","194"
"14","Bankomat","Bankomat ČSOB","https://www.firmy.cz/detail/12898012-bankomat-csob-brno-cerna-pole.html","307"
"15","Restaurace","Pivnice Prádelna","https://www.firmy.cz/detail/12788640-pivnice-pradelna-brno-cerna-pole.html","187"
"16","Vlak","Brno-Lesná","","771"
"17","Obchod","Tesco","https://www.firmy.cz/detail/429290-tesco-brno-ponava.html","678"
"18","Lékárna","Lékárna Plus","https://www.firmy.cz/detail/2687248-lekarna-plus-brno-cerna-pole.html","283"
"19","Škola","Soukromá základní škola Lesná, s.r.o.","https://www.firmy.cz/detail/356480-soukroma-zakladni-skola-lesna-brno-cerna-pole.html","466"
