"","facility_type","facility_name","facility_iri","facility_distance"
"0","Cukrárna","Cukrárna Vendula","https://www.firmy.cz/detail/12904037-cukrarna-vendula-prerov-i-mesto.html","656"
"1","Kino","Kino Hvězda","https://www.firmy.cz/detail/13025002-kino-hvezda-prerov-i-mesto.html","631"
"2","Přírodní zajímavost","Ptačí rezervace Malá Lipová","","4577"
"3","Hřiště","Dětské hřiště Kosmákova","","44"
"4","Večerka","COOP TIP","https://www.firmy.cz/detail/12857340-coop-tip-prerov-i-mesto.html","182"
"5","Hospoda","Pivnice Kotelna","https://www.firmy.cz/detail/13123260-pivnice-kotelna-prerov-i-mesto.html","179"
"6","Divadlo","Loutkové divadlo Sokol Přerov","https://www.firmy.cz/detail/13157581-loutkove-divadlo-sokol-prerov-prerov-i-mesto.html","1042"
"7","Veterinář","Veterinární klinika - MVDr. Josef Pospíšilík","https://www.firmy.cz/detail/810712-veterinarni-klinika-mvdr-josef-pospisilik-prerov-i-mesto.html","857"
"8","Bankomat","Bankomat MONETA Money Bank","https://www.firmy.cz/detail/659726-bankomat-moneta-money-bank-prerov-i-mesto.html","182"
"9","Bus MHD","Přerov, U tenisu","","69"
"10","Škola","ZŠ Přerov, Trávník","https://www.firmy.cz/detail/359084-zs-prerov-travnik-prerov-i-mesto.html","124"
"11","Školka","MŠ Přerov, U tenisu","https://www.firmy.cz/detail/609997-ms-prerov-u-tenisu-prerov-i-mesto.html","207"
"12","Restaurace","Restaurace Floria","https://www.firmy.cz/detail/2635011-restaurace-floria-prerov-i-mesto.html","182"
"13","Lékař","MUDr. Roman Ďurík","https://www.firmy.cz/detail/2288862-mudr-roman-durik-prerov-i-mesto.html","305"
"14","Lékárna","Lékárna Zlatý zubr s.r.o.","https://www.firmy.cz/detail/13008402-lekarna-zlaty-zubr-s-r-o-prerov-i-mesto.html","182"
"15","Pošta","Pošta Přerov 5 - Česká pošta, s.p.","https://www.firmy.cz/detail/431449-posta-prerov-5-prerov-i-mesto.html","182"
"16","Obchod","Obchodní centrum GALERIE Přerov","https://www.firmy.cz/detail/13000608-obchodni-centrum-galerie-prerov-prerov-i-mesto.html","650"
"17","Vlak","Přerov","","1515"
"18","Sportoviště","Bowling Bar - TIGON, s.r.o.","https://www.firmy.cz/detail/12959133-bowling-bar-prerov-i-mesto.html","182"
