"","facility_type","facility_name","facility_iri","facility_distance"
"0","Cukrárna","Karmelka","https://www.firmy.cz/detail/12747425-karmelka-mlada-boleslav-ii.html","646"
"1","Kino","CineStar Mladá Boleslav","https://www.firmy.cz/detail/2109584-cinestar-mlada-boleslav-mlada-boleslav-ii.html","1041"
"2","Přírodní zajímavost","Syslí kolonie","","1355"
"3","Hřiště","Dětské hřiště Krásná louka","","205"
"4","Večerka","Žabka","https://www.firmy.cz/detail/12976683-zabka-mlada-boleslav-ii.html","684"
"5","Divadlo","Městské divadlo Mladá Boleslav","https://www.firmy.cz/detail/401491-mestske-divadlo-mlada-boleslav-mlada-boleslav-ii.html","746"
"6","Hospoda","Pivnice Eden","https://www.firmy.cz/detail/13151685-pivnice-eden-mlada-boleslav-iv.html","66"
"7","Veterinář","Veterinární ordinace MBvet","https://www.firmy.cz/detail/1328851-veterinarni-ordinace-mbvet-mlada-boleslav-ii.html","750"
"8","Sportoviště","hřiště Astonka Mladá Boleslav","https://www.firmy.cz/detail/13000249-hriste-astonka-mlada-boleslav-mlada-boleslav.html","257"
"9","Bus MHD","Mladá Boleslav, Pod Skalou","","74"
"10","Lékárna","Dr.Max","https://www.firmy.cz/detail/2007104-dr-max-mlada-boleslav-ii.html","808"
"11","Školka","KinderGarten","https://www.firmy.cz/detail/12745147-kindergarten-mlada-boleslav-ii.html","542"
"12","Lékař","MB-medilis s.r.o.","https://www.firmy.cz/detail/13284037-mb-medilis-s-r-o-mlada-boleslav-ii.html","527"
"13","Restaurace","Restaurace U Měšťáků","https://www.firmy.cz/detail/12893746-restaurace-u-mestaku-mlada-boleslav-ii.html","403"
"14","Pošta","Pošta Mladá Boleslav 3 - Česká pošta, s.p.","https://www.firmy.cz/detail/217184-posta-mlada-boleslav-3-mlada-boleslav-ii.html","918"
"15","Obchod","Kaufland","https://www.firmy.cz/detail/738635-kaufland-mlada-boleslav-ii.html","902"
"16","Bankomat","Bankomat ČSOB","https://www.firmy.cz/detail/13217640-bankomat-csob-mlada-boleslav.html","402"
"17","Vlak","Mladá Boleslav město","","1087"
"18","Škola","ZŠ Mladá Boleslav, Václavkova","https://www.firmy.cz/detail/358262-zs-mlada-boleslav-vaclavkova-mlada-boleslav-ii.html","528"
