"","facility_type","facility_name","facility_iri","facility_distance"
"0","Hřiště","Dětské hřiště nám. Spojenců","https://mapy.cz/zakladni?x=17.1197&y=49.47589&z=17&source=base&id=2081012","326"
"1","Večerka","Lidl","https://www.firmy.cz/detail/1953672-lidl-prostejov.html","254"
"2","Hospoda","Hospoda U kulaté","https://www.firmy.cz/detail/1956627-hospoda-u-kulate-prostejov.html","223"
"3","Kino","Kino Metro 70","https://www.firmy.cz/detail/13118959-kino-metro-70-prostejov.html","702"
"4","Divadlo","Městské divadlo v Prostějově","https://www.firmy.cz/detail/396947-mestske-divadlo-v-prostejove-prostejov.html","390"
"5","Veterinář","Veterinární klinika Veterix","https://www.firmy.cz/detail/2113245-veterinarni-klinika-veterix-prostejov.html","356"
"6","Cukrárna","Pall a Chinky","https://www.firmy.cz/detail/12918492-pall-a-chinky-prostejov.html","215"
"7","Bankomat","Bankomat České spořitelny","https://www.firmy.cz/detail/13170332-bankomat-ceske-sporitelny-prostejov.html","232"
"8","Pošta","Pošta Prostějov 8 - Česká pošta, s.p.","https://www.firmy.cz/detail/431301-posta-prostejov-8-prostejov.html","459"
"9","Restaurace","Restaurace U Kalicha","https://www.firmy.cz/detail/13189158-restaurace-u-kalicha-prostejov.html","102"
"10","Bus MHD","Prostějov, Svatoplukova","https://mapy.cz/zakladni?x=17.1190693084006&y=49.4728165703308&z=17&source=pubt&id=15282440","66"
"11","Škola","ZŠ a MŠ Prostějov, Kollárova ul. 4","https://www.firmy.cz/detail/359048-zs-a-ms-prostejov-kollarova-ul-4-prostejov.html","91"
"12","Lékař","MH PRAXE MUDr. Všetičková, s.r.o.","https://www.firmy.cz/detail/13296438-mh-praxe-mudr-vsetickova-prostejov.html","104"
"13","Obchod","ATRIUM Prostějov, s.r.o.","https://www.firmy.cz/detail/606702-atrium-prostejov-prostejov.html","439"
"14","Lékárna","BENU Lékárna","https://www.firmy.cz/detail/12960798-benu-lekarna-prostejov.html","174"
"15","Sportoviště","Sokolská Župa Prostějovská","https://www.firmy.cz/detail/403953-sokolska-zupa-prostejovska-prostejov.html","102"
"16","Školka","MŠ Prostějov, Partyzánská","https://www.firmy.cz/detail/2297732-ms-prostejov-partyzanska-prostejov.html","458"
"17","Vlak","Prostějov hlavní nádraží","https://mapy.cz/zakladni?x=17.1295818516&y=49.4723567847&z=17&source=pubt&id=15212604","699"
