"","facility_type","facility_name","facility_iri","facility_distance"
"0","Cukrárna","Cukrárna v Pasáži","https://www.firmy.cz/detail/12889501-cukrarna-v-pasazi-celakovice.html","429"
"1","Kino","PRODANCE - letní kino","https://www.firmy.cz/detail/12968790-prodance-letni-kino-brandys-nad-labem-stara-boleslav-stara-boleslav.html","5114"
"2","Hřiště","Dětské hřiště","","168"
"3","Přírodní zajímavost","Kaktusová stráň","","5205"
"4","Večerka","Penny Market","https://www.firmy.cz/detail/207851-penny-market-celakovice.html","141"
"5","Hospoda","Irish Music Pub","https://www.firmy.cz/detail/12900155-irish-music-pub-celakovice.html","812"
"6","Divadlo","Divadlo BlaMa","https://www.firmy.cz/detail/12760937-divadlo-blama-novy-vestec.html","3340"
"7","Veterinář","Veterinární ordinace ERVET","https://www.firmy.cz/detail/12973767-veterinarni-ordinace-ervet-celakovice.html","852"
"8","Školka","Mateřská škola Čelákovice, Rumunská 1477, okres Praha-východ","https://www.firmy.cz/detail/407370-materska-skola-celakovice-rumunska-1477-okres-praha-vychod-celakovice.html","333"
"9","Vlak","Čelákovice zastávka","","500"
"10","Restaurace","Nová Hospoda","https://www.firmy.cz/detail/567895-nova-hospoda-celakovice.html","384"
"11","Obchod","Tesco","https://www.firmy.cz/detail/12741887-tesco-celakovice.html","414"
"12","Škola","Střední odborná škola Čelákovice, s.r.o.","https://www.firmy.cz/detail/361733-stredni-odborna-skola-celakovice-celakovice.html","57"
"13","Sportoviště","Tenisový klub Čelákovice","https://www.firmy.cz/detail/13076210-tenisovy-klub-celakovice-celakovice.html","801"
"14","Lékař","MUDr. Svatopluk Ježek","https://www.firmy.cz/detail/389509-mudr-svatopluk-jezek-celakovice.html","508"
"15","Bankomat","Bankomat České spořitelny","https://www.firmy.cz/detail/12736377-bankomat-ceske-sporitelny-celakovice.html","397"
"16","Lékárna","BENU Lékárna Čelákovice","https://www.firmy.cz/detail/13072132-benu-lekarna-celakovice-celakovice.html","692"
"17","Bus MHD","Čelákovice, Rumunská","","193"
"18","Pošta","Pošta Čelákovice - Česká pošta, s.p.","https://www.firmy.cz/detail/216807-posta-celakovice-celakovice.html","723"
