"","facility_type","facility_name","facility_iri","facility_distance"
"0","Hřiště","Dětské hřiště Slámova","https://mapy.cz/zakladni?x=18.5368718968&y=49.8519657789&z=17&source=base&id=1928985","413"
"1","Večerka","HRUŠKA","https://www.firmy.cz/detail/13106372-hruska-karvina-frystat.html","247"
"2","Hospoda","Pivnice Podkova","https://www.firmy.cz/detail/12906183-pivnice-podkova-karvina.html","164"
"3","Cukrárna","Caffé Club Elektra","https://www.firmy.cz/detail/13136285-caffe-club-elektra-karvina-frystat.html","65"
"4","Veterinář","MVDr. Jiří Michejda","https://www.firmy.cz/detail/286072-mvdr-jiri-michejda-karvina-frystat.html","234"
"5","Kino","Letní kino Karviná","https://www.firmy.cz/detail/1201683-letni-kino-karvina-karvina-frystat.html","272"
"6","Sportoviště","TJ Baník Karviná, z.s.","https://www.firmy.cz/detail/1945926-tj-banik-karvina-z-s-karvina-frystat.html","87"
"7","Vlak","Karviná hlavní nádraží","https://mapy.cz/zakladni?x=18.5267129183&y=49.8556585934&z=17&source=pubt&id=15211715","1089"
"8","Bus MHD","Karviná, Fryštát, Poštovní","https://mapy.cz/zakladni?x=18.544519291779&y=49.8558935623998&z=17&source=pubt&id=15286187","292"
"9","Školka","ZŠ a MŠ s polským jazykem vyučovacím - Szkoła Podstawowa i Przedszkole, Karviná, Dr. Olszaka","https://www.firmy.cz/detail/729748-zs-a-ms-s-polskym-jazykem-vyucovacim-szko-a-podstawowa-i-przedszkole-karvina-dr-olszaka-karvina-frystat.html","253"
"10","Lékař","MUDr. Mariola Garcia N ́Dua","https://www.firmy.cz/detail/13282753-mudr-mariola-garcia-n-dua-karvina-frystat.html","397"
"11","Pošta","Pošta Karviná 1 - Česká pošta, s.p.","https://www.firmy.cz/detail/217541-posta-karvina-1-karvina-frystat.html","106"
"12","Bankomat","Bankomat Komerční banky","https://www.firmy.cz/detail/594102-bankomat-komercni-banky-karvina-frystat.html","52"
"13","Restaurace","Cafe BB Bar","https://www.firmy.cz/detail/12962930-cafe-bb-bar-karvina-frystat.html","18"
"14","Škola","ZŠ a MŠ s polským jazykem vyučovacím - Szkoła Podstawowa i Przedszkole, Karviná, Dr. Olszaka","https://www.firmy.cz/detail/357618-zs-a-ms-s-polskym-jazykem-vyucovacim-szko-a-podstawowa-i-przedszkole-karvina-dr-olszaka-karvina-frystat.html","271"
"15","Obchod","PRIOR ČESKÁ REPUBLIKA s.r.o.","https://www.firmy.cz/detail/1957075-prior-ceska-republika-s-r-o-karvina-frystat.html","255"
"16","Lékárna","Moje lékárna Na Fryštátské","https://www.firmy.cz/detail/12906185-moje-lekarna-na-frystatske-karvina-frystat.html","390"
