"","facility_type","facility_name","facility_iri","facility_distance"
"0","Cukrárna","Jacob's Donuts","https://www.firmy.cz/detail/13328024-jacob-s-donuts-opava-predmesti.html","137"
"1","Kino","CineStar Opava","https://www.firmy.cz/detail/12765227-cinestar-opava-opava-mesto.html","345"
"2","Hřiště","Dětské hřiště Popská","","585"
"3","Přírodní zajímavost","Bludný balvan","","910"
"4","Večerka","HRUŠKA - KOMFOR","https://www.firmy.cz/detail/12947058-hruska-komfor-opava-predmesti.html","178"
"5","Hospoda","Music pub 13","https://www.firmy.cz/detail/13037251-music-pub-13-opava-predmesti.html","45"
"6","Divadlo","Slezské divadlo Opava","https://www.firmy.cz/detail/230941-slezske-divadlo-opava-opava-mesto.html","502"
"7","Veterinář","MVDr. Lenka Bořecká","https://www.firmy.cz/detail/2660210-mvdr-lenka-borecka-opava-mesto.html","646"
"8","Restaurace","Restaurace Lenies Bar","https://www.firmy.cz/detail/2217998-restaurace-lenies-bar-opava-predmesti.html","161"
"9","Sportoviště","Sportcentrum Opava","https://www.firmy.cz/detail/13317498-sportcentrum-opava-opava-predmesti.html","137"
"10","Obchod","OC Breda & Weinstein","https://www.firmy.cz/detail/12735258-oc-breda-weinstein-opava-mesto.html","311"
"11","Lékař","MUDr. Sylva Chvílová","https://www.firmy.cz/detail/387984-mudr-sylva-chvilova-opava-predmesti.html","145"
"12","Lékárna","Lékárna POLIKLINIKA, s.r.o.","https://www.firmy.cz/detail/421921-lekarna-poliklinika-opava-predmesti.html","279"
"13","Bankomat","Bankomat MONETA Money Bank","https://www.firmy.cz/detail/12780544-bankomat-moneta-money-bank-opava-mesto.html","292"
"14","Školka","MŠ Sluníčko Opava, Krnovská","https://www.firmy.cz/detail/1988553-ms-slunicko-opava-krnovska-opava-predmesti.html","112"
"15","Škola","ZŠ Opava, Havlíčkova","https://www.firmy.cz/detail/358607-zs-opava-havlickova-opava-predmesti.html","193"
"16","Vlak","Opava západ","","605"
"17","Pošta","Pošta Opava 1 - Česká pošta, s.p.","https://www.firmy.cz/detail/432548-posta-opava-1-opava-mesto.html","268"
"18","Bus MHD","Opava, SME","","88"
