"","facility_type","facility_name","facility_iri","facility_distance"
"0","Cukrárna","Cukrárna U Losa","https://www.firmy.cz/detail/2197073-cukrarna-u-losa-brno-zidenice.html","401"
"1","Kino","5D cinema Maxim","https://www.firmy.cz/detail/12734839-5d-cinema-maxim-brno-mesto.html","3746"
"2","Přírodní zajímavost","Cesta rákosím","","1868"
"3","Hřiště","Dětské hřiště Čejkovická","","77"
"4","Večerka","Lidl","https://www.firmy.cz/detail/12716447-lidl-brno-lisen.html","427"
"5","Hospoda","Sportovní centrum Hattrick","https://www.firmy.cz/detail/13147510-sportovni-centrum-hattrick-brno-zidenice.html","855"
"6","Divadlo","ProART","https://www.firmy.cz/detail/2639979-proart-brno-zabrdovice.html","2598"
"7","Veterinář","Veterinární ordinace MVDr. Boris Seman","https://www.firmy.cz/detail/12898615-veterinarni-ordinace-mvdr-boris-seman-brno-zidenice.html","609"
"8","Lékař","Salveo, s.r.o.","https://www.firmy.cz/detail/12766315-salveo-brno-zidenice.html","365"
"9","Školka","MŠ International School of Brno","https://www.firmy.cz/detail/13218073-ms-international-school-of-brno-brno-zidenice.html","137"
"10","Sportoviště","Tenis Cup","https://www.firmy.cz/detail/13059526-tenis-cup-brno-lisen.html","745"
"11","Škola","ZUŠ PhDr. Zbyňka Mrkose Brno, Čejkovická","https://www.firmy.cz/detail/2644711-zus-phdr-zbynka-mrkose-brno-cejkovicka-brno-zidenice.html","53"
"12","Obchod","Líšeňské centrum obchodu a služeb, s.r.o.","https://www.firmy.cz/detail/2510623-lisenske-centrum-obchodu-a-sluzeb-brno-lisen.html","1153"
"13","Bankomat","Bankomat MONETA Money Bank","https://www.firmy.cz/detail/13218728-bankomat-moneta-money-bank-brno-lisen.html","427"
"14","Bus MHD","Čejkovická","","103"
"15","Pošta","Pošta Brno 29 - Česká pošta, s.p.","https://www.firmy.cz/detail/216048-posta-brno-29-brno-zidenice.html","489"
"16","Lékárna","BENU Lékárna Vinohrady","https://www.firmy.cz/detail/13073062-benu-lekarna-vinohrady-brno-zidenice.html","365"
"17","Vlak","Brno-Židenice","","1903"
"18","Restaurace","Vinný restaurant U Radnice","https://www.firmy.cz/detail/2133592-vinny-restaurant-u-radnice-brno-zidenice.html","365"
"19","Tram","Líšeňská","","457"
