"","facility_type","facility_name","facility_iri","facility_distance"
"0","Hřiště","Dětské hřiště K Dubinám","https://mapy.cz/zakladni?x=14.4095360563&y=50.0199279116&z=17&source=base&id=1926766","600"
"1","Večerka","Lidl","https://www.firmy.cz/detail/13323931-lidl-praha-mala-chuchle.html","606"
"2","Přírodní zajímavost","Kovářovic mez","https://mapy.cz/zakladni?x=14.36107759920759&y=50.04395254566995&z=17&source=base&id=2339664","3981"
"3","Hospoda","Vodácká krčma U Sváry","https://www.firmy.cz/detail/13142606-vodacka-krcma-u-svary-praha-hodkovicky.html","576"
"4","Kino","AutoKino Ledárny","https://www.firmy.cz/detail/13312696-autokino-ledarny-praha.html","1657"
"5","Veterinář","MVDr. Daniela Králová - VETERINA TŘI V JEDNOM","https://www.firmy.cz/detail/682643-mvdr-daniela-kralova-veterina-tri-v-jednom-praha-velka-chuchle.html","935"
"6","Cukrárna","Kavárna KORKORÁN","https://www.firmy.cz/detail/13121483-kavarna-korkoran-praha-branik.html","1032"
"7","Divadlo","Divadlo Na Cikorce","https://www.firmy.cz/detail/2387865-divadlo-na-cikorce-praha-modrany.html","1155"
"8","Bus MHD","U Belárie","https://mapy.cz/zakladni?x=14.4037288456593&y=50.01692206731214&z=17&source=pubt&id=15301848","303"
"9","Restaurace","Restaurace U Černého koně","https://www.firmy.cz/detail/13197322-restaurace-u-cerneho-kone-praha-hodkovicky.html","548"
"10","Vlak","Praha-Braník","https://mapy.cz/zakladni?x=14.40650057&y=50.0276715991&z=17&source=pubt&id=15212551","1022"
"11","Tram","Černý kůň","https://mapy.cz/zakladni?x=14.4035269712&y=50.022517051&z=17&source=pubt&id=15303994","412"
"12","Sportoviště","Tělocvičná jednota Sokol Hodkovičky","https://www.firmy.cz/detail/1945167-telocvicna-jednota-sokol-hodkovicky-praha-hodkovicky.html","419"
"13","Bankomat","Bankomat Komerční banky","https://www.firmy.cz/detail/13326666-bankomat-komercni-banky-praha-mala-chuchle.html","606"
"14","Škola","Střední škola dostihového sportu a jezdectví","https://www.firmy.cz/detail/360622-stredni-skola-dostihoveho-sportu-a-jezdectvi-praha-velka-chuchle.html","1036"
"15","Lékař","Medicínské centrum Praha, s.r.o.","https://www.firmy.cz/detail/744975-medicinske-centrum-praha-praha-modrany.html","726"
"16","Metro","Budějovická","https://mapy.cz/zakladni?x=14.4476663217&y=50.0447839354&z=17&source=pubt&id=15200205","4375"
"17","Lékárna","Dr. Max","https://www.firmy.cz/detail/12804620-dr-max-praha-modrany.html","1424"
"18","Školka","Mgr. Ivana Trhanová","https://www.firmy.cz/detail/2662771-mgr-ivana-trhanova-praha-hodkovicky.html","548"
"19","Pošta","Pošta Praha 59 - Česká pošta, s.p.","https://www.firmy.cz/detail/431322-posta-praha-59-praha-velka-chuchle.html","1418"
"20","Obchod","Kaufland","https://www.firmy.cz/detail/12700906-kaufland-praha-modrany.html","1406"
