"","facility_type","facility_name","facility_iri","facility_distance"
"0","Cukrárna","Costa Coffee","https://www.firmy.cz/detail/2670663-costa-coffee-praha-nove-mesto.html","377"
"1","Kino","Cinema City Slovanský dům","https://www.firmy.cz/detail/2679893-cinema-city-slovansky-dum-praha-nove-mesto.html","373"
"2","Hřiště","Dětské hřiště Vrchlického sady","","326"
"3","Večerka","MANNI MINI MARKET","https://www.firmy.cz/detail/2511337-manni-mini-market-praha-nove-mesto.html","140"
"4","Hospoda","Batalion Café & Music Bar","https://www.firmy.cz/detail/457689-batalion-cafe-music-bar-praha-stare-mesto.html","604"
"5","Divadlo","Divadlo Rokoko","https://www.firmy.cz/detail/2371572-divadlo-rokoko-praha-nove-mesto.html","377"
"6","Veterinář","Veterinární ambulance Help","https://www.firmy.cz/detail/178079-veterinarni-ambulance-help-praha-vinohrady.html","713"
"7","Bus MHD","Hlavní nádraží","","293"
"8","Obchod","DESIRRED","https://www.firmy.cz/detail/483472-desirred-praha-nove-mesto.html","315"
"9","Školka","Mateřská škola Opletalova","https://www.firmy.cz/detail/193435-materska-skola-opletalova-praha-nove-mesto.html","289"
"10","Lékař","MUDr. Martin Theimer","https://www.firmy.cz/detail/383899-mudr-martin-theimer-praha-nove-mesto.html","207"
"11","Restaurace","Restaurace U Jindřišské věže","https://www.firmy.cz/detail/306267-restaurace-u-jindrisske-veze-praha-nove-mesto.html","117"
"12","Škola","Základní umělecká škola, Praha 1, U půjčovny 4","https://www.firmy.cz/detail/427061-zakladni-umelecka-skola-praha-1-u-pujcovny-4-praha-nove-mesto.html","27"
"13","Sportoviště","Bowling Celnice","https://www.firmy.cz/detail/12726378-bowling-celnice-praha-nove-mesto.html","498"
"14","Metro","Hlavní nádraží","","240"
"15","Lékárna","Lékárna U Palmy","https://www.firmy.cz/detail/374864-lekarna-u-palmy-praha-nove-mesto.html","203"
"16","Bankomat","Bankomat ČSOB","https://www.firmy.cz/detail/599518-bankomat-csob-praha-nove-mesto.html","208"
"17","Tram","Jindřišská","","148"
"18","Vlak","Praha hlavní nádraží","","467"
"19","Pošta","Česká pošta, s.p.","https://www.firmy.cz/detail/198930-ceska-posta-praha-nove-mesto.html","145"
