"","facility_type","facility_name","facility_iri","facility_distance"
"0","Cukrárna","Cukrárna Pavlos","https://www.firmy.cz/detail/13342297-cukrarna-pavlos-kladno.html","453"
"1","Kino","Kino Sokol Kladno","https://www.firmy.cz/detail/13179300-kino-sokol-kladno-kladno.html","1872"
"2","Hřiště","Dětské hřiště Vítězná","","179"
"3","Večerka","Potraviny - lahůdky U Zavřela","https://www.firmy.cz/detail/2207032-potraviny-lahudky-u-zavrela-kladno-rozdelov.html","130"
"4","Hospoda","Hospoda na hřišti - Kladno","https://www.firmy.cz/detail/13156135-hospoda-na-hristi-kladno-kladno-rozdelov.html","397"
"5","Divadlo","Loutkové divadlo Lampion","https://www.firmy.cz/detail/733471-loutkove-divadlo-lampion-kladno.html","2326"
"6","Veterinář","MVDr. Iva Posekaná","https://www.firmy.cz/detail/471726-mvdr-iva-posekana-kladno-rozdelov.html","450"
"7","Vlak","Kladno město","","962"
"8","Školka","MŠ Kladno, Studentská","https://www.firmy.cz/detail/646157-ms-kladno-studentska-kladno.html","304"
"9","Lékař","PH - PRAKTIK, s.r.o.","https://www.firmy.cz/detail/12835805-ph-praktik-kladno-rozdelov.html","252"
"10","Škola","ZŠ Kladno, Brjanská","https://www.firmy.cz/detail/357647-zs-kladno-brjanska-kladno.html","123"
"11","Lékárna","Lékárna Jalta","https://www.firmy.cz/detail/375507-lekarna-jalta-kladno.html","357"
"12","Sportoviště","Přetlaková hala Brjanská","https://www.firmy.cz/detail/13219345-pretlakova-hala-brjanska-kladno.html","200"
"13","Bus MHD","Kladno, U Kostela","","94"
"14","Obchod","Central Kladno","https://www.firmy.cz/detail/12966933-central-kladno-kladno.html","2328"
"15","Bankomat","Bankomat MONETA Money Bank","https://www.firmy.cz/detail/2675422-bankomat-moneta-money-bank-kladno.html","265"
"16","Pošta","Pošta Kladno 4 - Česká pošta, s.p.","https://www.firmy.cz/detail/216833-posta-kladno-4-kladno.html","348"
"17","Restaurace","Restaurace CARAVAN","https://www.firmy.cz/detail/13229697-restaurace-caravan-kladno-rozdelov.html","272"
