"","facility_type","facility_name","facility_iri","facility_distance"
"0","Cukrárna","Kavárna a bistro Ranní ptáče","https://www.firmy.cz/detail/12958383-kavarna-a-bistro-ranni-ptace-liberec-i-stare-mesto.html","1150"
"1","Kino","Cinema City Liberec","https://www.firmy.cz/detail/2679906-cinema-city-liberec-liberec-iv-perstyn.html","1420"
"2","Přírodní zajímavost","Opičák","","3624"
"3","Hřiště","Dětské hřiště Vlnařská","","374"
"4","Večerka","Smíšené zboží Březinova 453","https://www.firmy.cz/detail/1978609-smisene-zbozi-brezinova-453-liberec-v-kristianov.html","415"
"5","Hospoda","Hospoda Pohoda","https://www.firmy.cz/detail/13116548-hospoda-pohoda-liberec-xv-stary-harcov.html","514"
"6","Divadlo","Naivní divadlo Liberec","https://www.firmy.cz/detail/230860-naivni-divadlo-liberec-liberec-iv-perstyn.html","1261"
"7","Veterinář","MVDr. Jiří Jiroudek - Veterina Oblačná","https://www.firmy.cz/detail/2135004-mvdr-jiri-jiroudek-veterina-oblacna-liberec-v-kristianov.html","865"
"8","Školka","MŠ Pramínek Liberec","https://www.firmy.cz/detail/659214-ms-praminek-liberec-liberec-v-kristianov.html","460"
"9","Restaurace","Restaurace Centrum","https://www.firmy.cz/detail/1912232-restaurace-centrum-liberec-v-kristianov.html","98"
"10","Škola","ZŠ a MŠ při nemocnici Liberec, Husova, příspěvková organizace","https://www.firmy.cz/detail/12862748-zs-a-ms-pri-nemocnici-liberec-husova-prispevkova-organizace-liberec-v-kristianov.html","104"
"11","Lékárna","EUC Lékárna","https://www.firmy.cz/detail/13244459-euc-lekarna-liberec-v-kristianov.html","747"
"12","Bus MHD","Školní","","129"
"13","Lékař","MUDr. Lenka Švancarová","https://www.firmy.cz/detail/12840592-mudr-lenka-svancarova-liberec-xv-stary-harcov-liberec-15.html","506"
"14","Bankomat","Bankomat České spořitelny","https://www.firmy.cz/detail/593142-bankomat-ceske-sporitelny-liberec-vi-rochlice.html","592"
"15","Pošta","Pošta Liberec 1 - Česká pošta, s.p.","https://www.firmy.cz/detail/215967-posta-liberec-1-liberec-i-stare-mesto.html","1267"
"16","Sportoviště","SK Handisport Liberec","https://www.firmy.cz/detail/2652887-sk-handisport-liberec-liberec-vi-rochlice.html","407"
"17","Vlak","Liberec","","2051"
"18","Tram","U Lomu","","180"
"19","Obchod","OC Plaza Liberec","https://www.firmy.cz/detail/13175980-oc-plaza-liberec-liberec-i-stare-mesto.html","1192"
