"","facility_type","facility_name","facility_iri","facility_distance"
"0","Hřiště","Dětské hřiště most Legií","https://mapy.cz/zakladni?x=14.4102522333&y=50.0818124667&z=17&source=base&id=1927451","408"
"1","Večerka","MANNI MINI MARKET","https://www.firmy.cz/detail/2609033-manni-mini-market-praha-nove-mesto.html","538"
"2","Cukrárna","Choco Café","https://www.firmy.cz/detail/2288649-choco-cafe-praha-stare-mesto.html","242"
"3","Veterinář","MVDr. Katka Sviták Novozámská","https://www.firmy.cz/detail/2137713-mvdr-katka-svitak-novozamska-praha-stare-mesto.html","301"
"4","Hospoda","Batalion Café & Music Bar","https://www.firmy.cz/detail/457689-batalion-cafe-music-bar-praha-stare-mesto.html","458"
"5","Divadlo","Divadlo Viola","https://www.firmy.cz/detail/177500-divadlo-viola-praha-stare-mesto.html","104"
"6","Kino","Kino Ponrepo","https://www.firmy.cz/detail/396455-kino-ponrepo-praha-stare-mesto.html","141"
"7","Přírodní zajímavost","Kovářovic mez","https://mapy.cz/zakladni?x=14.36107759920759&y=50.04395254566995&z=17&source=base&id=2339664","5795"
"8","Restaurace","Restaurace Století","https://www.firmy.cz/detail/335002-restaurace-stoleti-praha-stare-mesto.html","126"
"9","Sportoviště","Tenisová škola TALLENT","https://www.firmy.cz/detail/722748-tenisova-skola-tallent-praha-nove-mesto.html","223"
"10","Škola","SPSŠ Betlémská - Střední průmyslová škola strojnická Praha","https://www.firmy.cz/detail/362768-spss-betlemska-stredni-prumyslova-skola-strojnicka-praha-praha-stare-mesto.html","146"
"11","Pošta","Pošta Praha 01 - Česká pošta, s.p.","https://www.firmy.cz/detail/217506-posta-praha-01-praha-stare-mesto.html","642"
"12","Školka","MŠ sv. Voršily v Praze","https://www.firmy.cz/detail/406704-ms-sv-vorsily-v-praze-praha-nove-mesto.html","196"
"13","Lékař","doc. MUDr. Josef Dolenský, CSc.","https://www.firmy.cz/detail/1971145-doc-mudr-josef-dolensky-csc-praha-stare-mesto.html","93"
"14","Lékárna","BENU Lékárna","https://www.firmy.cz/detail/12864634-benu-lekarna-praha-stare-mesto.html","80"
"15","Bankomat","Raiffeisenbank - bankomat","https://www.firmy.cz/detail/631173-raiffeisenbank-bankomat-praha-stare-mesto.html","79"
"16","Metro","Národní třída","https://mapy.cz/zakladni?x=14.4197996584&y=50.0812705679&z=17&source=pubt&id=15200228","306"
"17","Bus MHD","Mariánské náměstí","https://mapy.cz/zakladni?x=14.4175710674&y=50.0872640303&z=17&source=pubt&id=15698733","554"
"18","Vlak","Praha Masarykovo nádraží","https://mapy.cz/zakladni?x=14.4341666467721&y=50.0878957138378&z=17&source=pubt&id=15212549","1440"
"19","Tram","Národní divadlo","https://mapy.cz/zakladni?x=14.4148989687313&y=50.0814112368444&z=17&source=pubt&id=15302946","130"
"20","Obchod","palác metro","https://www.firmy.cz/detail/143339-palac-metro-praha-stare-mesto.html","162"
