"","facility_type","facility_name","facility_iri","facility_distance"
"0","Cukrárna","Kočcafé","https://www.firmy.cz/detail/13112601-koccafe-ostrava-moravska-ostrava.html","179"
"1","Kino","5D cinema Maxim","https://www.firmy.cz/detail/12871625-5d-cinema-maxim-ostrava-moravska-ostrava.html","431"
"2","Přírodní zajímavost","Uhelná sloj v Landeku","","3739"
"3","Hřiště","Dětské hřiště","","634"
"4","Večerka","Potraviny Hornopolní","https://www.firmy.cz/detail/13115068-potraviny-hornopolni-ostrava-moravska-ostrava.html","319"
"5","Hospoda","Sherlock ́s Pub","https://www.firmy.cz/detail/13216273-sherlock-s-pub-ostrava-moravska-ostrava.html","129"
"6","Divadlo","Divadlo Bez Střechy","https://www.firmy.cz/detail/771089-divadlo-bez-strechy-ostrava.html","0"
"7","Veterinář","Veterinární ordinace - MVDr. Richard Saviola","https://www.firmy.cz/detail/477150-veterinarni-ordinace-mvdr-richard-saviola-ostrava-moravska-ostrava.html","659"
"8","Školka","MŠ Ostrava, Poděbradova","https://www.firmy.cz/detail/2322511-ms-ostrava-podebradova-ostrava-moravska-ostrava.html","161"
"9","Pošta","Pošta Ostrava 39 - Česká pošta, s.p.","https://www.firmy.cz/detail/433389-posta-ostrava-39-ostrava-moravska-ostrava.html","403"
"10","Obchod","Forum Nová Karolina","https://www.firmy.cz/detail/13040093-forum-nova-karolina-ostrava-moravska-ostrava.html","488"
"11","Lékař","MUDr. Miroslava Jurková","https://www.firmy.cz/detail/1969424-mudr-miroslava-jurkova-ostrava-moravska-ostrava.html","377"
"12","Tram","Náměstí Republiky","","348"
"13","Vlak","Ostrava-Stodolní","","80"
"14","Bus MHD","Stodolní žel.zastávka","","60"
"15","Lékárna","Lékárna Apavar","https://www.firmy.cz/detail/13074258-lekarna-apavar-ostrava-moravska-ostrava.html","348"
"16","Restaurace","Restaurace Septim","https://www.firmy.cz/detail/12891142-restaurace-septim-ostrava-moravska-ostrava.html","94"
"17","Škola","Střední umělecká škola Ostrava","https://www.firmy.cz/detail/360961-stredni-umelecka-skola-ostrava-ostrava-moravska-ostrava.html","214"
"18","Sportoviště","Hala Tatran","https://www.firmy.cz/detail/13052814-hala-tatran-ostrava-moravska-ostrava.html","142"
"19","Bankomat","Bankomat MONETA Money Bank","https://www.firmy.cz/detail/13219370-bankomat-moneta-money-bank-ostrava-moravska-ostrava.html","163"
