"","facility_type","facility_name","facility_iri","facility_distance"
"0","Cukrárna","Cukrárna Géčko","https://www.firmy.cz/detail/13269101-cukrarna-gecko-tabor.html","710"
"1","Kino","Kino Svět","https://www.firmy.cz/detail/211137-kino-svet-tabor.html","1439"
"2","Hřiště","Dětské hřiště u Coopu","","31"
"3","Večerka","COOP - TUTY","https://www.firmy.cz/detail/2121786-coop-tuty-tabor.html","92"
"4","Hospoda","U Nousků","https://www.firmy.cz/detail/13116841-u-nousku-tabor-klokoty.html","977"
"5","Divadlo","Divadlo Oskara Nedbala Tábor","https://www.firmy.cz/detail/406554-divadlo-oskara-nedbala-tabor-tabor.html","1380"
"6","Veterinář","Karakal Veterinární klinika","https://www.firmy.cz/detail/471372-karakal-veterinarni-klinika-tabor.html","796"
"7","Pošta","Pošta Tábor 3 - Česká pošta, s.p.","https://www.firmy.cz/detail/216907-posta-tabor-3-tabor.html","511"
"8","Bus MHD","Tábor, Zimní stadion","","271"
"9","Lékař","MUDr. Naďa Jánošková","https://www.firmy.cz/detail/387046-mudr-nada-janoskova-tabor.html","208"
"10","Restaurace","Pizza San Daniello","https://www.firmy.cz/detail/13121230-pizza-san-daniello-tabor.html","592"
"11","Bankomat","Bankomat ČSOB","https://www.firmy.cz/detail/597932-bankomat-csob-tabor.html","511"
"12","Obchod","Karel Dvořák - obchodní dům","https://www.firmy.cz/detail/1897212-karel-dvorak-obchodni-dum-tabor.html","1801"
"13","Lékárna","LÉKÁRNA U NEMOCNICE","https://www.firmy.cz/detail/422392-lekarna-u-nemocnice-tabor.html","593"
"14","Sportoviště","František Ševčík","https://www.firmy.cz/detail/593574-frantisek-sevcik-tabor.html","173"
"15","Škola","Střední odborná škola a střední odborné učiliště HEUREKA, s.r.o.","https://www.firmy.cz/detail/204329-stredni-odborna-skola-a-stredni-odborne-uciliste-heureka-tabor.html","352"
"16","Vlak","Tábor","","2020"
"17","Školka","MŠ Tábor, Sokolovská","https://www.firmy.cz/detail/2151099-ms-tabor-sokolovska-tabor.html","538"
