"","facility_type","facility_name","facility_iri","facility_distance"
"0","Cukrárna","Café Oliver","https://www.firmy.cz/detail/12971274-cafe-oliver-teplice.html","599"
"1","Kino","Multikino - Premiere Cinemas Teplice","https://www.firmy.cz/detail/12861055-multikino-premiere-cinemas-teplice-teplice.html","1312"
"2","Přírodní zajímavost","Porcelanity u Strak","","2594"
"3","Hřiště","Dětské hřiště Zrenjaninská","","69"
"4","Večerka","Potraviny Lotos II","https://www.firmy.cz/detail/13200384-potraviny-lotos-ii-teplice-retenice.html","95"
"5","Divadlo","Krušnohorské divadlo","https://www.firmy.cz/detail/435271-krusnohorske-divadlo-teplice.html","1636"
"6","Hospoda","Hospoda na Náměstí","https://www.firmy.cz/detail/13114750-hospoda-na-namesti-ujezdecek.html","1570"
"7","Veterinář","MVDr. Věra Hánová","https://www.firmy.cz/detail/2030919-mvdr-vera-hanova-teplice.html","644"
"8","Restaurace","Restaurace Originál Perla","https://www.firmy.cz/detail/13266184-restaurace-original-perla-teplice-retenice.html","177"
"9","Lékař","MUDr. Petr Tamler, s.r.o.","https://www.firmy.cz/detail/13282113-mudr-petr-tamler-teplice.html","359"
"10","Obchod","Kaufland","https://www.firmy.cz/detail/13187779-kaufland-teplice.html","1081"
"11","Lékárna","Nemocniční lékárna, Nemocnice Teplice, o.z.","https://www.firmy.cz/detail/12771491-nemocnicni-lekarna-nemocnice-teplice-o-z-teplice.html","359"
"12","Pošta","Pošta Teplice 3 - Česká pošta, s.p.","https://www.firmy.cz/detail/215428-posta-teplice-3-teplice-retenice.html","104"
"13","Bankomat","Bankomat České spořitelny","https://www.firmy.cz/detail/2291269-bankomat-ceske-sporitelny-teplice-retenice.html","149"
"14","Bus MHD","Teplice, Buzulucká","","80"
"15","Vlak","Teplice zámecká zahrada","","594"
"16","Sportoviště","HBC Teplice","https://www.firmy.cz/detail/2257196-hbc-teplice-teplice-retenice.html","79"
"17","Školka","MŠ Teplice, Jaselská","https://www.firmy.cz/detail/2272951-ms-teplice-jaselska-teplice-retenice.html","80"
"18","Škola","Střední škola AGC","https://www.firmy.cz/detail/361393-stredni-skola-agc-teplice-retenice.html","377"
