"","facility_type","facility_name","facility_iri","facility_distance"
"0","Cukrárna","Kavárna BENG","https://www.firmy.cz/detail/13123597-kavarna-beng-brno-zabrdovice.html","31"
"1","Kino","Letní kino Brno na Dvoře MdB","https://www.firmy.cz/detail/13308736-letni-kino-brno-na-dvore-mdb-brno-cerna-pole.html","1144"
"2","Přírodní zajímavost","Cesta rákosím","","4019"
"3","Hřiště","Dětské hřiště Hvězdička","","220"
"4","Večerka","Eso Market - Pavel Hendrych - Pavel Hendrych","https://www.firmy.cz/detail/12853202-eso-market-pavel-hendrych-brno-zabrdovice.html","79"
"5","Hospoda","Hospoda Stararena","https://www.firmy.cz/detail/13139625-hospoda-stararena-brno-zabrdovice.html","213"
"6","Divadlo","Divadlo Neslyším","https://www.firmy.cz/detail/406578-divadlo-neslysim-brno-zabrdovice.html","131"
"7","Veterinář","MVDr. Zdeněk Haluza","https://www.firmy.cz/detail/477110-mvdr-zdenek-haluza-brno-husovice.html","887"
"8","Bus MHD","Francouzská","","337"
"9","Bankomat","Bankomat České spořitelny","https://www.firmy.cz/detail/591582-bankomat-ceske-sporitelny-brno-zabrdovice.html","229"
"10","Škola","Střední škola umění a designu a Vyšší odborná škola Brno","https://www.firmy.cz/detail/12704470-stredni-skola-umeni-a-designu-a-vyssi-odborna-skola-brno-brno-zabrdovice.html","224"
"11","Restaurace","Bamboo","https://www.firmy.cz/detail/13138669-bamboo-brno-zabrdovice.html","163"
"12","Tram","Tkalcovská","","176"
"13","Lékárna","Lékárna Cejl","https://www.firmy.cz/detail/13304185-lekarna-cejl-brno-zabrdovice.html","175"
"14","Školka","MŠ Brno, Francouzská","https://www.firmy.cz/detail/2281537-ms-brno-francouzska-brno-zabrdovice.html","275"
"15","Lékař","Institut komplexní péče, spol. s r.o.","https://www.firmy.cz/detail/12828826-institut-komplexni-pece-brno-zabrdovice.html","397"
"16","Pošta","Pošta Brno 4 - Česká pošta, s.p.","https://www.firmy.cz/detail/431876-posta-brno-4-brno-zabrdovice.html","724"
"17","Obchod","Albert Hypermarket","https://www.firmy.cz/detail/12920888-albert-hypermarket-brno-zabrdovice.html","332"
"18","Vlak","Brno-Židenice","","1001"
"19","Sportoviště","Sport Balkán","https://www.firmy.cz/detail/12945003-sport-balkan-brno-zabrdovice.html","350"
