"","facility_type","facility_name","facility_iri","facility_distance"
"0","Cukrárna","Cukrárna Máslové trubičky","https://www.firmy.cz/detail/12944349-cukrarna-maslove-trubicky-jihlava.html","945"
"1","Kino","Amfiteátr Březinovy Sady Jihlava","https://www.firmy.cz/detail/2658908-amfiteatr-brezinovy-sady-jihlava-jihlava.html","1331"
"2","Přírodní zajímavost","Kamenné řady","","4402"
"3","Hřiště","Dětské hřiště Královský vršek","","308"
"4","Večerka","Albert Supermarket","https://www.firmy.cz/detail/450207-albert-supermarket-jihlava.html","277"
"5","Hospoda","Hostinec Na Růžku","https://www.firmy.cz/detail/13016100-hostinec-na-ruzku-jihlava.html","715"
"6","Divadlo","Horácké divadlo Jihlava","https://www.firmy.cz/detail/396913-horacke-divadlo-jihlava-jihlava.html","1433"
"7","Veterinář","Veterinární ordinace - MVDr. Luděk Kučera","https://www.firmy.cz/detail/475838-veterinarni-ordinace-mvdr-ludek-kucera-jihlava.html","477"
"8","Školka","Mateřská škola Pastelka, Riegrova 21, Jihlava","https://www.firmy.cz/detail/1889524-materska-skola-pastelka-riegrova-21-jihlava-jihlava.html","235"
"9","Bankomat","Bankomat České spořitelny","https://www.firmy.cz/detail/592923-bankomat-ceske-sporitelny-jihlava.html","277"
"10","Pošta","Pošta Jihlava 2 - Česká pošta, s.p.","https://www.firmy.cz/detail/216003-posta-jihlava-2-jihlava.html","663"
"11","Sportoviště","Bowling Jitřenka","https://www.firmy.cz/detail/13300611-bowling-jitrenka-jihlava.html","277"
"12","Škola","ZŠ Jihlava, Havlíčkova 71","https://www.firmy.cz/detail/357524-zs-jihlava-havlickova-71-jihlava.html","230"
"13","Bus MHD","Jiřího z Poděbrad","","79"
"14","Lékař","MUDr. Tomáš Vaněk","https://www.firmy.cz/detail/382931-mudr-tomas-vanek-jihlava.html","594"
"15","Obchod","Kaufland","https://www.firmy.cz/detail/1690957-kaufland-jihlava.html","852"
"16","Restaurace","Restaurace Ježkovna Praha","https://www.firmy.cz/detail/13109676-restaurace-jezkovna-praha-jihlava.html","299"
"17","Vlak","Jihlava","","673"
"18","Lékárna","Dr.Max","https://www.firmy.cz/detail/2007210-dr-max-jihlava.html","831"
