"","facility_type","facility_name","facility_iri","facility_distance"
"0","Cukrárna","MATKY SOBĚ dětská kavárna","https://www.firmy.cz/detail/13134222-matky-sobe-detska-kavarna-kutna-hora-vnitrni-mesto.html","410"
"1","Kino","Kino Modrý kříž","https://www.firmy.cz/detail/2522831-kino-modry-kriz-kutna-hora-vnitrni-mesto.html","962"
"2","Hřiště","Dětské hřiště Seifertovy sady","","753"
"3","Večerka","BALA potraviny - UNIKOM, a. s., RIO","https://www.firmy.cz/detail/2346775-bala-potraviny-unikom-a-s-rio-kutna-hora-zizkov.html","91"
"4","Hospoda","HOSPODA U TUPOUNA","https://www.firmy.cz/detail/12978738-hospoda-u-tupouna-kutna-hora-vnitrni-mesto.html","1129"
"5","Divadlo","Městské Tylovo divadlo","https://www.firmy.cz/detail/396954-mestske-tylovo-divadlo-kutna-hora-hlouska.html","1271"
"6","Veterinář","MVDr. Dita Svobodová","https://www.firmy.cz/detail/2389182-mvdr-dita-svobodova-kutna-hora-zizkov.html","114"
"7","Restaurace","Trattoria Pizzeria Vyžlovka","https://www.firmy.cz/detail/12846737-trattoria-pizzeria-vyzlovka-kutna-hora-zizkov.html","359"
"8","Sportoviště","TJ SPARTA Kutná Hora, z.s.","https://www.firmy.cz/detail/227011-tj-sparta-kutna-hora-z-s-kutna-hora-zizkov.html","142"
"9","Lékař","MUDr. Lenka Václová","https://www.firmy.cz/detail/386723-mudr-lenka-vaclova-kutna-hora-vnitrni-mesto.html","456"
"10","Lékárna","Lékárna Astera","https://www.firmy.cz/detail/13204247-lekarna-astera-kutna-hora-vnitrni-mesto.html","456"
"11","Pošta","Pošta Kutná Hora 6 - Česká pošta, s.p.","https://www.firmy.cz/detail/217148-posta-kutna-hora-6-kutna-hora-vnitrni-mesto.html","635"
"12","Bus MHD","Kutná Hora, Žižkov, Na Valech","","303"
"13","Škola","ZUŠ Kutná Hora","https://www.firmy.cz/detail/12811683-zus-kutna-hora-kutna-hora-vnitrni-mesto.html","596"
"14","Bankomat","Bankomat ČSOB","https://www.firmy.cz/detail/13293566-bankomat-csob-kutna-hora-zizkov.html","352"
"15","Obchod","Kaufland","https://www.firmy.cz/detail/1459156-kaufland-kutna-hora-sipsi.html","2158"
"16","Vlak","Kutná Hora město","","1419"
"17","Školka","MŠ Kutná Hora - Dačického","https://www.firmy.cz/detail/2150439-ms-kutna-hora-dacickeho-kutna-hora-vnitrni-mesto.html","721"
