"","facility_type","facility_name","facility_iri","facility_distance"
"0","Cukrárna","Hájek & Hájková, s.r.o.","https://www.firmy.cz/detail/2598627-hajek-hajkova-praha-smichov.html","400"
"1","Přírodní zajímavost","Kovářovic mez","","3763"
"2","Kino","CineStar Anděl","https://www.firmy.cz/detail/2537565-cinestar-andel-praha-smichov.html","913"
"3","Hřiště","Dětské hřiště Nad Santoškou","","382"
"4","Večerka","Večerka Radlická 33","https://www.firmy.cz/detail/2688465-vecerka-radlicka-33-praha-smichov.html","243"
"5","Divadlo","Divadlo Orfeus","https://www.firmy.cz/detail/413053-divadlo-orfeus-praha-kosire.html","1483"
"6","Hospoda","Hospůdka Knoflík","https://www.firmy.cz/detail/2253647-hospudka-knoflik-praha-smichov.html","795"
"7","Veterinář","MVDr. Jana Lukešová","https://www.firmy.cz/detail/473617-mvdr-jana-lukesova-praha-smichov.html","642"
"8","Bankomat","Bankomat České spořitelny","https://www.firmy.cz/detail/594859-bankomat-ceske-sporitelny-praha-smichov.html","355"
"9","Škola","ZŠ a MŠ Praha 5, U Santošky","https://www.firmy.cz/detail/401396-zs-a-ms-praha-5-u-santosky-praha-smichov.html","513"
"10","Lékárna","Nad Knížecí","https://www.firmy.cz/detail/375034-nad-knizeci-praha-smichov.html","692"
"11","Restaurace","Srdcovka Gurmania","https://www.firmy.cz/detail/2258123-srdcovka-gurmania-praha-smichov.html","388"
"12","Metro","Smíchovské nádraží","","341"
"13","Tram","Křížová","","22"
"14","Obchod","Tesco","https://www.firmy.cz/detail/733908-tesco-praha-smichov.html","1052"
"15","Bus MHD","Křížová","","67"
"16","Pošta","Pošta Praha 53 - Česká pošta, s.p.","https://www.firmy.cz/detail/431282-posta-praha-53-praha-smichov.html","712"
"17","Vlak","Praha-Smíchov severní nást.","","159"
"18","Sportoviště","CZECH GOLF CONSULTING, s.r.o.","https://www.firmy.cz/detail/481639-czech-golf-consulting-praha-smichov.html","464"
"19","Školka","ZŠ a MŠ Praha 5, U Santošky","https://www.firmy.cz/detail/401438-zs-a-ms-praha-5-u-santosky-praha-smichov.html","462"
"20","Lékař","MUDr. Zuzana Martínková","https://www.firmy.cz/detail/2689899-mudr-zuzana-martinkova-praha-smichov.html","123"
