"","facility_type","facility_name","facility_iri","facility_distance"
"0","Cukrárna","Costa Coffee","https://www.firmy.cz/detail/2413662-costa-coffee-praha-zizkov.html","756"
"1","Kino","Cinema City Flora","https://www.firmy.cz/detail/660712-cinema-city-flora-praha-zizkov.html","723"
"2","Přírodní zajímavost","Meandry Rokytky","","3878"
"3","Hřiště","Dětské hřiště Garden Towers","","221"
"4","Večerka","PARK GROUP","https://www.firmy.cz/detail/599597-park-group-praha-zizkov.html","226"
"5","Hospoda","Pivnice Radyně","https://www.firmy.cz/detail/1957129-pivnice-radyne-praha-zizkov.html","454"
"6","Divadlo","Hvězdné léto pod žižkovskou věží","https://www.firmy.cz/detail/13265384-hvezdne-leto-pod-zizkovskou-vezi-praha-zizkov.html","1165"
"7","Veterinář","MVDr. Václav Naxera - veterinární klinika","https://www.firmy.cz/detail/278421-mvdr-vaclav-naxera-veterinarni-klinika-praha-vinohrady.html","981"
"8","Lékař","Vinohradské ambulantní zařízení","https://www.firmy.cz/detail/302645-vinohradske-ambulantni-zarizeni-praha-zizkov.html","58"
"9","Restaurace","XBowling Žižkov","https://www.firmy.cz/detail/12747345-xbowling-zizkov-praha-zizkov.html","140"
"10","Pošta","Pošta Praha 3 - Česká pošta, s.p.","https://www.firmy.cz/detail/2102474-posta-praha-3-praha-zizkov.html","147"
"11","Bus MHD","Nákladové nádraží Žižkov","","148"
"12","Vlak","Praha-Eden","","2122"
"13","Lékárna","Lékárna Olšanská","https://www.firmy.cz/detail/582540-lekarna-olsanska-praha-zizkov.html","58"
"14","Obchod","Tesco Extra","https://www.firmy.cz/detail/733906-tesco-extra-praha-vrsovice.html","1898"
"15","Školka","MŠ Praha 3, U Zásobní zahrady","https://www.firmy.cz/detail/2264286-ms-praha-3-u-zasobni-zahrady-praha-zizkov.html","209"
"16","Sportoviště","Tenisová škola RETURN","https://www.firmy.cz/detail/740300-tenisova-skola-return-praha-zizkov.html","557"
"17","Bankomat","Bankomat ČSOB","https://www.firmy.cz/detail/599580-bankomat-csob-praha-zizkov.html","147"
"18","Tram","Nákladové nádraží Žižkov","","145"
"19","Škola","Střední odborná škola managementu a práva, Cimburkova","https://www.firmy.cz/detail/1953436-stredni-odborna-skola-managementu-a-prava-cimburkova-praha-zizkov.html","118"
"20","Metro","Želivského","","802"
