"","facility_type","facility_name","facility_iri","facility_distance"
"0","Cukrárna","Martina Kolačná","https://www.firmy.cz/detail/12986032-martina-kolacna-brno-zidenice.html","711"
"1","Kino","5D cinema Maxim","https://www.firmy.cz/detail/12734839-5d-cinema-maxim-brno-mesto.html","2732"
"2","Přírodní zajímavost","Cesta rákosím","","3162"
"3","Hřiště","Dětské hřiště Krásného","","188"
"4","Večerka","Potraviny ENAPO","https://www.firmy.cz/detail/13268584-potraviny-enapo-brno-zidenice.html","344"
"5","Hospoda","Hospůdka Na hřišti","https://www.firmy.cz/detail/12707503-hospudka-na-hristi-brno-zidenice.html","521"
"6","Divadlo","Divadlo Neslyším","https://www.firmy.cz/detail/406578-divadlo-neslysim-brno-zabrdovice.html","1991"
"7","Veterinář","MVDr. Vratislav Pitr","https://www.firmy.cz/detail/477108-mvdr-vratislav-pitr-brno-zidenice.html","236"
"8","Lékař","MUDr. Eva Bučková","https://www.firmy.cz/detail/389943-mudr-eva-buckova-brno-zidenice.html","122"
"9","Škola","ZŠ Masarykova Brno, Kamenačky","https://www.firmy.cz/detail/356508-zs-masarykova-brno-kamenacky-brno-zidenice.html","254"
"10","Pošta","Pošta Brno 36 - Česká pošta, s.p.","https://www.firmy.cz/detail/431941-posta-brno-36-brno-zidenice.html","152"
"11","Tram","Krásného","","201"
"12","Vlak","Brno-Černovice","","1423"
"13","Restaurace","Hostinec U Pantátů","https://www.firmy.cz/detail/12755757-hostinec-u-pantatu-brno-zidenice.html","100"
"14","Školka","MŠ Brno, Kamenáčky","https://www.firmy.cz/detail/407356-ms-brno-kamenacky-brno-zidenice.html","179"
"15","Bankomat","Bankomat ČSOB","https://www.firmy.cz/detail/13198569-bankomat-csob-brno-cernovice.html","570"
"16","Sportoviště","Dětské koupaliště Juliánov","https://www.firmy.cz/detail/12970219-detske-koupaliste-julianov-brno-zidenice.html","248"
"17","Obchod","Vinamo","https://www.firmy.cz/detail/13302114-vinamo-brno-cernovice.html","570"
"18","Bus MHD","Škroupova","","148"
"19","Lékárna","Lékárna Juliánov","https://www.firmy.cz/detail/13064593-lekarna-julianov-brno-zidenice.html","292"
