"","facility_type","facility_name","facility_iri","facility_distance"
"0","Cukrárna","Picnic cafe","https://www.firmy.cz/detail/12700120-picnic-cafe-plzen-vychodni-predmesti.html","684"
"1","Kino","Kino Beseda","https://www.firmy.cz/detail/12773769-kino-beseda-plzen-jizni-predmesti.html","2700"
"2","Hřiště","Dětské hřiště Blatenská","","232"
"3","Večerka","Penny Market","https://www.firmy.cz/detail/2244539-penny-market-plzen-lobzy.html","370"
"4","Hospoda","Hospůdka u Hrabačků","https://www.firmy.cz/detail/2023192-hospudka-u-hrabacku-plzen-lobzy.html","242"
"5","Divadlo","Divadelní spolek Jezírko","https://www.firmy.cz/detail/740611-divadelni-spolek-jezirko-plzen-vychodni-predmesti.html","1112"
"6","Veterinář","U Tří voříšků - MVDr. Dagmar Caltová","https://www.firmy.cz/detail/313354-u-tri-vorisku-mvdr-dagmar-caltova-plzen-bozkov.html","391"
"7","Restaurace","Restaurace U Karlů","https://www.firmy.cz/detail/13342832-restaurace-u-karlu-plzen-bozkov.html","20"
"8","Škola","Základní škola Easy Start, s.r.o.","https://www.firmy.cz/detail/2588754-zakladni-skola-easy-start-plzen-lobzy.html","306"
"9","Bus MHD","Petřínská","","13"
"10","Školka","Mateřská škola Drobeček, Brojova","https://www.firmy.cz/detail/12818794-materska-skola-drobecek-brojova-plzen-lobzy.html","306"
"11","Vlak","Plzeň-Koterov","","1177"
"12","Bankomat","Bankomat Komerční banky","https://www.firmy.cz/detail/594633-bankomat-komercni-banky-plzen-lobzy.html","500"
"13","Pošta","Pošta Plzeň 26 - Česká pošta, s.p.","https://www.firmy.cz/detail/216637-posta-plzen-26-plzen-vychodni-predmesti.html","805"
"14","Sportoviště","Velodrom Plzeň","","752"
"15","Lékař","MUDr. Helena Filipovská","https://www.firmy.cz/detail/2111037-mudr-helena-filipovska-plzen-vychodni-predmesti.html","654"
"16","Obchod","Galerie Slovany, s.r.o.","https://www.firmy.cz/detail/2301407-galerie-slovany-plzen-vychodni-predmesti.html","660"
"17","Tram","Brojova","","412"
"18","Lékárna","Lékárna Zelená hvězda","https://www.firmy.cz/detail/2157645-lekarna-zelena-hvezda-plzen-vychodni-predmesti.html","646"
