"","facility_type","facility_name","facility_iri","facility_distance"
"0","Hřiště","Dětské hřiště Štefáčkova","https://mapy.cz/zakladni?x=16.670612492&y=49.2045014713&z=17&source=base&id=2109794","174"
"1","Večerka","Albert Supermarket","https://www.firmy.cz/detail/446709-albert-supermarket-brno-lisen.html","277"
"2","Cukrárna","Vinotékafé","https://www.firmy.cz/detail/12999475-vinotekafe-brno-lisen.html","22"
"3","Hospoda","Pivnice Maják","https://www.firmy.cz/detail/13272936-pivnice-majak-brno-lisen.html","480"
"4","Veterinář","MVDr. Jindřich Nešpor","https://www.firmy.cz/detail/1275834-mvdr-jindrich-nespor-brno-lisen.html","678"
"5","Divadlo","divadlo LÍŠEŇ","https://www.firmy.cz/detail/2145854-divadlo-lisen-brno-lisen.html","1800"
"6","Kino","5D cinema Maxim","https://www.firmy.cz/detail/12734839-5d-cinema-maxim-brno-mesto.html","4627"
"7","Přírodní zajímavost","Cesta rákosím","https://mapy.cz/zakladni?x=16.6729975&y=49.2165883333&z=17&source=base&id=2112597","1314"
"8","Sportoviště","Tenis Cup","https://www.firmy.cz/detail/13059526-tenis-cup-brno-lisen.html","147"
"9","Lékař","Praktlek, s.r.o.","https://www.firmy.cz/detail/13293712-praktlek-brno-lisen.html","770"
"10","Školka","Mateřská škola, Brno, Synkova 24, p. o.","https://www.firmy.cz/detail/653709-materska-skola-brno-synkova-24-p-o-brno-lisen.html","443"
"11","Škola","ZŠ, Brno, Masarova","https://www.firmy.cz/detail/356522-zs-brno-masarova-brno-lisen.html","186"
"12","Bankomat","Bankomat České spořitelny","https://www.firmy.cz/detail/660307-bankomat-ceske-sporitelny-brno-lisen.html","247"
"13","Lékárna","Lékárna Masarova","https://www.firmy.cz/detail/2616147-lekarna-masarova-brno-lisen.html","279"
"14","Restaurace","Restaurace Havana","https://www.firmy.cz/detail/581184-restaurace-havana-brno-lisen.html","245"
"15","Tram","Novolíšeňská","https://mapy.cz/zakladni?x=16.670641928&y=49.2020142738&z=17&source=pubt&id=15205174","351"
"16","Bus MHD","Houbalova","https://mapy.cz/zakladni?x=16.67406931682251&y=49.20576805957574&z=17&source=pubt&id=15205266","136"
"17","Obchod","Líšeňské centrum obchodu a služeb, s.r.o.","https://www.firmy.cz/detail/2510623-lisenske-centrum-obchodu-a-sluzeb-brno-lisen.html","279"
"18","Vlak","Brno-Židenice","https://mapy.cz/zakladni?x=16.6360225534&y=49.2042037385&z=17&source=pubt&id=15213454","2686"
"19","Pošta","Pošta Brno 28 - Česká pošta, s.p.","https://www.firmy.cz/detail/216047-posta-brno-28-brno-lisen.html","312"
