"","facility_type","facility_name","facility_iri","facility_distance"
"0","Cukrárna","Čauky mňauky cafe","https://www.firmy.cz/detail/13057787-cauky-mnauky-cafe-ostrava-moravska-ostrava.html","542"
"1","Kino","Kino vesmír","https://www.firmy.cz/detail/12980428-kino-vesmir-ostrava-moravska-ostrava.html","850"
"2","Přírodní zajímavost","Uhelná sloj v Landeku","","2787"
"3","Hřiště","Dětské hřiště Bieblova","","314"
"4","Večerka","Potraviny ANGELA","https://www.firmy.cz/detail/1954144-potraviny-angela-ostrava.html","162"
"5","Hospoda","Hobit club","https://www.firmy.cz/detail/1989230-hobit-club-ostrava-moravska-ostrava.html","606"
"6","Divadlo","Divadlo 12","https://www.firmy.cz/detail/13216354-divadlo-12-ostrava-moravska-ostrava.html","909"
"7","Veterinář","VETPARK Ostrava, s.r.o.","https://www.firmy.cz/detail/13308555-vetpark-ostrava-ostrava-moravska-ostrava.html","762"
"8","Sportoviště","Outdoor club","https://www.firmy.cz/detail/13082138-outdoor-club-ostrava-moravska-ostrava.html","302"
"9","Lékař","MedicalHelp Česká republika s.r.o.","https://www.firmy.cz/detail/13276518-medicalhelp-ceska-republika-s-r-o-ostrava-moravska-ostrava.html","186"
"10","Lékárna","U Jindřicha","https://www.firmy.cz/detail/375421-u-jindricha-ostrava-moravska-ostrava.html","218"
"11","Bus MHD","Hornická poliklinika","","376"
"12","Škola","OIS-Ostrčilova International School","https://www.firmy.cz/detail/358667-ois-ostrcilova-international-school-ostrava-moravska-ostrava.html","282"
"13","Školka","MŠ Ostrava, Křižíkova","https://www.firmy.cz/detail/2142452-ms-ostrava-krizikova-ostrava-moravska-ostrava.html","252"
"14","Restaurace","Restaurace Na Plynární","https://www.firmy.cz/detail/13333284-restaurace-na-plynarni-ostrava-moravska-ostrava.html","193"
"15","Obchod","Obchodní centrum LASO","https://www.firmy.cz/detail/2071391-obchodni-centrum-laso-ostrava-moravska-ostrava.html","1099"
"16","Bankomat","Bankomat České spořitelny","https://www.firmy.cz/detail/593832-bankomat-ceske-sporitelny-ostrava-moravska-ostrava.html","418"
"17","Pošta","Pošta Ostrava 40 - Česká pošta, s.p.","https://www.firmy.cz/detail/433366-posta-ostrava-40-ostrava-moravska-ostrava.html","362"
"18","Tram","Křižíkova","","246"
"19","Vlak","Ostrava-Stodolní","","1022"
