"","facility_type","facility_name","facility_iri","facility_distance"
"0","Hřiště","Dětské hřiště Moskevská","https://mapy.cz/zakladni?x=12.8575326109&y=50.2273915943&z=17&source=base&id=2119729","711"
"1","Přírodní zajímavost","Karlův hvozd","https://mapy.cz/zakladni?x=12.88314066464389&y=50.21667178915505&z=17&source=base&id=2344863","1902"
"2","Veterinář","MVDr. Eva Tichá","https://www.firmy.cz/detail/2656349-mvdr-eva-ticha-karlovy-vary-rybare.html","760"
"3","Večerka","Jednota, spotřební družstvo v Toužimi – COOP","https://www.firmy.cz/detail/2344892-jednota-spotrebni-druzstvo-v-touzimi-coop-karlovy-vary.html","129"
"4","Hospoda","John Jameson Pub","https://www.firmy.cz/detail/654285-john-jameson-pub-karlovy-vary.html","113"
"5","Cukrárna","ZigZag Caffé Music Bar","https://www.firmy.cz/detail/13121055-zigzag-caffe-music-bar-karlovy-vary.html","104"
"6","Kino","Kino Čas","https://www.firmy.cz/detail/13125984-kino-cas-karlovy-vary.html","492"
"7","Divadlo","Karlovarské městské divadlo, o.p.s.","https://www.firmy.cz/detail/12756821-karlovarske-mestske-divadlo-o-p-s-karlovy-vary.html","1479"
"8","Bankomat","Bankomat Komerční banky","https://www.firmy.cz/detail/12744501-bankomat-komercni-banky-karlovy-vary.html","53"
"9","Restaurace","Restaurace Becherplatz pivovar Karel IV.","https://www.firmy.cz/detail/12751977-restaurace-becherplatz-pivovar-karel-iv-karlovy-vary.html","37"
"10","Bus MHD","Náměstí Dr. Horákové","https://mapy.cz/zakladni?x=12.865714948781175&y=50.22882654871491&z=17&source=pubt&id=15200793","155"
"11","Sportoviště","Sportovní unie Karlovarska z.s.","https://www.firmy.cz/detail/404208-sportovni-unie-karlovarska-z-s-karlovy-vary.html","156"
"12","Lékárna","Lékárna Moskevská","https://www.firmy.cz/detail/420918-lekarna-moskevska-karlovy-vary.html","151"
"13","Lékař","Praktická lékařka MUDr. Jaroslava Švandrlíková","https://www.firmy.cz/detail/387625-prakticka-lekarka-mudr-jaroslava-svandrlikova-karlovy-vary.html","151"
"14","Obchod","Obchodní centrum Perla","https://www.firmy.cz/detail/13219298-obchodni-centrum-perla-karlovy-vary.html","388"
"15","Pošta","Pošta Depo Karlovy Vary 70","https://www.firmy.cz/detail/216592-posta-depo-karlovy-vary-70-karlovy-vary-rybare.html","512"
"16","Vlak","Karlovy Vary dolní nádraží","https://mapy.cz/zakladni?x=12.8635328669&y=50.2303335325&z=17&source=pubt&id=15211709","219"
"17","Škola","Základní škola a střední škola Karlovy Vary","https://www.firmy.cz/detail/2659825-zakladni-skola-a-stredni-skola-karlovy-vary-karlovy-vary.html","254"
"18","Školka","ZŠ a MŠ při zdravotnických zařízeních Karlovy Vary","https://www.firmy.cz/detail/12736566-zs-a-ms-pri-zdravotnickych-zarizenich-karlovy-vary-karlovy-vary.html","731"
