"","facility_type","facility_name","facility_iri","facility_distance"
"0","Cukrárna","Café Coffee Day","https://www.firmy.cz/detail/650529-cafe-coffee-day-praha-smichov.html","444"
"1","Kino","Cinema City Nový Smíchov","https://www.firmy.cz/detail/2679838-cinema-city-novy-smichov-praha-smichov.html","477"
"2","Přírodní zajímavost","Kovářovic mez","","4222"
"3","Hřiště","Dětské hřiště park Sacré Coeur","","190"
"4","Večerka","Cukrárna - lahůdky 21","https://www.firmy.cz/detail/2450631-cukrarna-lahudky-21-praha-smichov.html","536"
"5","Hospoda","Hospůdka Knoflík","https://www.firmy.cz/detail/2253647-hospudka-knoflik-praha-smichov.html","765"
"6","Divadlo","Divadlo Orfeus","https://www.firmy.cz/detail/413053-divadlo-orfeus-praha-kosire.html","590"
"7","Veterinář","MVDr. Jana Lukešová","https://www.firmy.cz/detail/473617-mvdr-jana-lukesova-praha-smichov.html","763"
"8","Bus MHD","Holečkova","","30"
"9","Škola","ZŠ a MŠ Praha 5, Grafická","https://www.firmy.cz/detail/356194-zs-a-ms-praha-5-graficka-praha-smichov.html","189"
"10","Bankomat","Bankomat ČSOB","https://www.firmy.cz/detail/636703-bankomat-csob-praha-smichov.html","462"
"11","Sportoviště","Miloš Strnad PhDr. - Sportaktiv","https://www.firmy.cz/detail/249051-milos-strnad-phdr-sportaktiv-praha-smichov.html","350"
"12","Pošta","Pošta Praha 53 - Česká pošta, s.p.","https://www.firmy.cz/detail/431282-posta-praha-53-praha-smichov.html","696"
"13","Restaurace","KFC","https://www.firmy.cz/detail/566060-kfc-praha-smichov.html","457"
"14","Lékař","MUDr. Lucie Jordáková","https://www.firmy.cz/detail/387284-mudr-lucie-jordakova-praha-smichov.html","351"
"15","Obchod","Obchodní centrum Nový Smíchov","https://www.firmy.cz/detail/579116-obchodni-centrum-novy-smichov-praha-smichov.html","459"
"16","Školka","Střední škola, ZŠ a MŠ pro sluchově postižené Praha 5","https://www.firmy.cz/detail/2196419-stredni-skola-zs-a-ms-pro-sluchove-postizene-praha-5-praha-smichov.html","214"
"17","Lékárna","EUC Lékárna Kartouzská","https://www.firmy.cz/detail/13162323-euc-lekarna-kartouzska-praha-smichov.html","386"
"18","Metro","Anděl","","689"
"19","Tram","Bertramka","","328"
"20","Vlak","Praha-Smíchov severní nást.","","1416"
