"","facility_type","facility_name","facility_iri","facility_distance"
"0","Cukrárna","SORRY - pečeme jinak","https://www.firmy.cz/detail/13107067-sorry-peceme-jinak-brno-stare-brno.html","187"
"1","Kino","Cinema City Velký Špalíček","https://www.firmy.cz/detail/2679905-cinema-city-velky-spalicek-brno-mesto.html","921"
"2","Přírodní zajímavost","Koniklecová louka","","3343"
"3","Hřiště","Dětské hřiště ve vnitrobloku Křídlovické","","82"
"4","Večerka","Můjobchod - Potraviny Petr Škrabal","https://www.firmy.cz/detail/476581-mujobchod-potraviny-petr-skrabal-brno-stare-brno.html","66"
"5","Hospoda","Unleaded coffee","https://www.firmy.cz/detail/13128981-unleaded-coffee-brno-stare-brno.html","243"
"6","Divadlo","Malá Amerika","https://www.firmy.cz/detail/12926234-mala-amerika-brno-stare-brno.html","837"
"7","Veterinář","Veterinární ordinace - MVDr. Klára Palicová","https://www.firmy.cz/detail/13185639-veterinarni-ordinace-mvdr-klara-palicova-brno-stare-brno.html","450"
"8","Škola","ZŠ a MŠ Brno, Křídlovická","https://www.firmy.cz/detail/356515-zs-a-ms-brno-kridlovicka-brno-stare-brno.html","270"
"9","Lékárna","Nemocniční lékárna - výdejní místo - Fakultní nemocnice u sv. Anny v Brně","https://www.firmy.cz/detail/12989817-nemocnicni-lekarna-vydejni-misto-fakultni-nemocnice-u-sv-anny-v-brne-brno.html","274"
"10","Pošta","Pošta Brno 3 - Česká pošta, s.p.","https://www.firmy.cz/detail/431875-posta-brno-3-brno-stare-brno.html","248"
"11","Tram","Václavská","","69"
"12","Lékař","MUDr. Dagmar Zdubová","https://www.firmy.cz/detail/387639-mudr-dagmar-zdubova-brno-stare-brno.html","123"
"13","Školka","ZŠ a MŠ Brno, Křídlovická","https://www.firmy.cz/detail/431961-zs-a-ms-brno-kridlovicka-brno-stare-brno.html","274"
"14","Sportoviště","Squash Omega","https://www.firmy.cz/detail/12889481-squash-omega-brno-stare-brno.html","123"
"15","Restaurace","Bonjour Vietnam","https://www.firmy.cz/detail/13267640-bonjour-vietnam-brno-stare-brno.html","52"
"16","Bankomat","Bankomat České spořitelny - Česká spořitelna, a.s.","https://www.firmy.cz/detail/13238913-bankomat-ceske-sporitelny-brno-stare-brno.html","177"
"17","Bus MHD","Poříčí","","172"
"18","Vlak","Brno hlavní nádraží","","1161"
"19","Obchod","Velký Špalíček","https://www.firmy.cz/detail/1546677-velky-spalicek-brno-mesto.html","911"
