"","facility_type","facility_name","facility_iri","facility_distance"
"0","Hřiště","Dětské hřiště Bohousová","","294"
"1","Večerka","KONZUM, obchodní družstvo v Ústí nad Orlicí - COOP","https://www.firmy.cz/detail/2133462-konzum-obchodni-druzstvo-v-usti-nad-orlici-coop-zachlumi-bohousova.html","298"
"2","Hospoda","U Kostela","https://www.firmy.cz/detail/13135527-u-kostela-rybna-nad-zdobnici.html","2122"
"3","Veterinář","MVDr. Zuzana Plundrová","https://www.firmy.cz/detail/12748279-mvdr-zuzana-plundrova-helvikovice.html","3331"
"4","Bus MHD","Záchlumí, křiž.","","80"
"5","Školka","MŠ Záchlumí","https://www.firmy.cz/detail/1974075-ms-zachlumi-zachlumi.html","655"
"6","Vlak","Bohousová","","263"
"7","Restaurace","Restaurace Zátiší","https://www.firmy.cz/detail/2461829-restaurace-zatisi-zachlumi-litice-nad-orlici.html","1756"
"8","Pošta","Pošta Partner Záchlumí","https://www.firmy.cz/detail/13099925-posta-partner-zachlumi-zachlumi-bohousova.html","298"
"9","Škola","ZŠ Bohousová","https://www.firmy.cz/detail/360259-zs-bohousova-zachlumi-bohousova.html","397"
