"","facility_type","facility_name","facility_iri","facility_distance"
"0","Hřiště","Dětské hřiště F. Čejky","https://mapy.cz/zakladni?x=18.3414136111&y=49.6717144444&z=17&source=base&id=2066103","126"
"1","Večerka","Večerka Janáčkova 157","https://www.firmy.cz/detail/12722688-vecerka-janackova-157-frydek-mistek-mistek.html","0"
"2","Hospoda","Hostinec U Antoníčka","https://www.firmy.cz/detail/13070621-hostinec-u-antonicka-frydek-mistek-mistek.html","421"
"3","Cukrárna","Sladká Siesta","https://www.firmy.cz/detail/13172503-sladka-siesta-frydek-mistek-mistek.html","183"
"4","Veterinář","JANÁK PAVEL MVDr. - VETERINÁRNÍ KLINIKA","https://www.firmy.cz/detail/477144-janak-pavel-mvdr-veterinarni-klinika-frydek-mistek-mistek.html","451"
"5","Kino","Kino Nová scéna Vlast","https://www.firmy.cz/detail/396685-kino-nova-scena-vlast-frydek-mistek-mistek.html","555"
"6","Divadlo","Divadlo Nová scéna Vlast","https://www.firmy.cz/detail/661522-divadlo-nova-scena-vlast-frydek-mistek-mistek.html","555"
"7","Přírodní zajímavost","Bludné balvany ve Frýdeckém lese","https://mapy.cz/zakladni?x=18.3611475613&y=49.7013257674&z=17&source=base&id=1915701","3476"
"8","Lékárna","Lékárna Viola","https://www.firmy.cz/detail/13210897-lekarna-viola-frydek-mistek-mistek.html","310"
"9","Bankomat","Bankomat MONETA Money Bank","https://www.firmy.cz/detail/603438-bankomat-moneta-money-bank-frydek-mistek-mistek.html","176"
"10","Sportoviště","Bowling Star Riviera","https://www.firmy.cz/detail/2112410-bowling-star-riviera-frydek-mistek-mistek.html","446"
"11","Lékař","MUDr. Ivana Procházková, s.r.o.","https://www.firmy.cz/detail/13292010-mudr-ivana-prochazkova-frydek-mistek-mistek.html","241"
"12","Bus MHD","Místek, gymnázium","https://mapy.cz/zakladni?x=18.3392509785&y=49.6734145265&z=17&source=pubt&id=15216264","155"
"13","Školka","MŠ Frýdek-Místek, F. Čejky","https://www.firmy.cz/detail/2149715-ms-frydek-mistek-f-cejky-frydek-mistek-mistek.html","196"
"14","Obchod","PRIOR ČESKÁ REPUBLIKA s.r.o.","https://www.firmy.cz/detail/1956970-prior-ceska-republika-s-r-o-frydek-mistek-mistek.html","236"
"15","Pošta","Pošta Frýdek-Místek 12 - Česká pošta, s.p.","https://www.firmy.cz/detail/432958-posta-frydek-mistek-12-frydek-mistek-mistek.html","349"
"16","Vlak","Frýdek-Místek","https://mapy.cz/zakladni?x=18.3539008711&y=49.6777676791&z=17&source=pubt&id=15211337","1064"
"17","Restaurace","Restaurace Lidový dům","https://www.firmy.cz/detail/13282374-restaurace-lidovy-dum-frydek-mistek-mistek.html","45"
"18","Škola","Střední uměleckoprůmyslová škola, s.r.o.","https://www.firmy.cz/detail/361648-stredni-umeleckoprumyslova-skola-frydek-mistek-mistek.html","117"
