"","facility_type","facility_name","facility_iri","facility_distance"
"0","Cukrárna","Cafe Club","https://www.firmy.cz/detail/12905259-cafe-club-uhersky-brod.html","890"
"1","Kino","Kino Máj","https://www.firmy.cz/detail/396554-kino-maj-uhersky-brod.html","133"
"2","Hřiště","Dětské hřiště Obchodní","","37"
"3","Večerka","HRUŠKA","https://www.firmy.cz/detail/12820435-hruska-uhersky-brod.html","118"
"4","Hospoda","Hospůdka Černá Hora","https://www.firmy.cz/detail/12879921-hospudka-cerna-hora-uhersky-brod.html","1007"
"5","Divadlo","Divadlo Brod","https://www.firmy.cz/detail/2321789-divadlo-brod-uhersky-brod.html","862"
"6","Veterinář","Veterinární klinika Kaděra, s.r.o.","https://www.firmy.cz/detail/12940244-veterinarni-klinika-kadera-s-r-o-uhersky-brod.html","869"
"7","Sportoviště","Tenisový klub TSRM, z.s.","https://www.firmy.cz/detail/12859457-tenisovy-klub-tsrm-z-s-uhersky-brod.html","707"
"8","Školka","MŠ Uherský Brod, Obchodní","https://www.firmy.cz/detail/1986567-ms-uhersky-brod-obchodni-uhersky-brod.html","181"
"9","Lékárna","Lékárna Uherský Brod - sídliště","https://www.firmy.cz/detail/376270-lekarna-uhersky-brod-sidliste-uhersky-brod.html","436"
"10","Bus MHD","Uherský Brod, Hlavní","","161"
"11","Škola","ZŠ Uherský Brod, Pod Vinohrady","https://www.firmy.cz/detail/359824-zs-uhersky-brod-pod-vinohrady-uhersky-brod.html","369"
"12","Obchod","Tesco","https://www.firmy.cz/detail/653538-tesco-uhersky-brod.html","635"
"13","Bankomat","Bankomat České spořitelny","https://www.firmy.cz/detail/593085-bankomat-ceske-sporitelny-uhersky-brod.html","630"
"14","Vlak","Uherský Brod","","1285"
"15","Restaurace","Marie Nováková","https://www.firmy.cz/detail/13108742-marie-novakova-uhersky-brod.html","133"
"16","Pošta","Pošta Uherský Brod 2 - Česká pošta, s.p.","https://www.firmy.cz/detail/433591-posta-uhersky-brod-2-uhersky-brod.html","89"
"17","Lékař","MUDr. Roman Kouša","https://www.firmy.cz/detail/390789-mudr-roman-kousa-uhersky-brod.html","346"
