"","facility_type","facility_name","facility_iri","facility_distance"
"0","Cukrárna","Mamacoffee","https://www.firmy.cz/detail/2109500-mamacoffee-praha-vinohrady.html","384"
"1","Kino","HopeTV","https://www.firmy.cz/detail/672889-hopetv-praha-vinohrady.html","266"
"2","Hřiště","Dětské hřiště U Havlíčkových sadů","","566"
"3","Večerka","Z, spol. s r.o.","https://www.firmy.cz/detail/2345414-z-praha-vinohrady.html","263"
"4","Hospoda","Hospoda Pohoda","https://www.firmy.cz/detail/569598-hospoda-pohoda-praha-nusle.html","654"
"5","Divadlo","Divadlo D21","https://www.firmy.cz/detail/652669-divadlo-d21-praha-vinohrady.html","125"
"6","Veterinář","MVDr. Miroslav Měšťan","https://www.firmy.cz/detail/2487671-mvdr-miroslav-mestan-praha-vrsovice.html","522"
"7","Tram","Bruselská","","310"
"8","Pošta","Pošta Praha 23 - Česká pošta, s.p.","https://www.firmy.cz/detail/431214-posta-praha-23-praha-vinohrady.html","171"
"9","Bus MHD","Náměstí Míru","","415"
"10","Sportoviště","Pétanque Havlíčkovy sady","","655"
"11","Restaurace","Hlučná samota","https://www.firmy.cz/detail/329312-hlucna-samota-praha-vinohrady.html","60"
"12","Škola","Středisko praktického vyučování Vinohrady, s.r.o., s.r.o.","https://www.firmy.cz/detail/424980-stredisko-praktickeho-vyucovani-vinohrady-s-r-o-praha-vinohrady.html","55"
"13","Metro","Náměstí Míru","","440"
"14","Vlak","Praha-Vršovice","","1073"
"15","Lékárna","U svaté Ludmily","https://www.firmy.cz/detail/374313-u-svate-ludmily-praha-vinohrady.html","363"
"16","Školka","MŠ Čtyřlístek, Praha 2, Římská","https://www.firmy.cz/detail/677005-ms-ctyrlistek-praha-2-rimska-praha-vinohrady.html","144"
"17","Obchod","PAVILON, a.s.","https://www.firmy.cz/detail/451685-pavilon-praha-vinohrady.html","755"
"18","Bankomat","Bankomat MONETA Money Bank","https://www.firmy.cz/detail/2675391-bankomat-moneta-money-bank-praha-vinohrady.html","377"
"19","Lékař","MUDr. Anna Růžičková","https://www.firmy.cz/detail/390768-mudr-anna-ruzickova-praha-vinohrady.html","324"
