"","facility_type","facility_name","facility_iri","facility_distance"
"0","Cukrárna","Café Globus","https://www.firmy.cz/detail/12877840-cafe-globus-havirov.html","787"
"1","Kino","Kino Centrum","https://www.firmy.cz/detail/12780436-kino-centrum-havirov-mesto.html","2095"
"2","Hřiště","Dětské hřiště Mládežnická","","1370"
"3","Večerka","COOP Beskydy - Tuty","https://www.firmy.cz/detail/1940431-coop-beskydy-tuty-havirov-prostredni-sucha.html","114"
"4","Hospoda","Hospůdka U Mě","https://www.firmy.cz/detail/13108483-hospudka-u-me-havirov-prostredni-sucha.html","324"
"5","Veterinář","Veterinární klinika LIFE, s.r.o.","https://www.firmy.cz/detail/2630775-veterinarni-klinika-life-havirov-prostredni-sucha.html","422"
"6","Bankomat","Bankomat České spořitelny","https://www.firmy.cz/detail/12736470-bankomat-ceske-sporitelny-havirov-prostredni-sucha.html","787"
"7","Pošta","Pošta Havířov 4 - Česká pošta, s.p.","https://www.firmy.cz/detail/658850-posta-havirov-4-havirov-prostredni-sucha.html","514"
"8","Škola","ZŠ Kapitána Jasioka, Havířov","https://www.firmy.cz/detail/357046-zs-kapitana-jasioka-havirov-havirov-prostredni-sucha.html","532"
"9","Obchod","S1 Center Havířov","https://www.firmy.cz/detail/13315339-s1-center-havirov-havirov-prostredni-sucha.html","773"
"10","Sportoviště","Městský fotbalový areál","https://www.firmy.cz/detail/2484413-mestsky-fotbalovy-areal-havirov-prostredni-sucha.html","492"
"11","Lékárna","Dr. Max LÉKÁRNA","https://www.firmy.cz/detail/12856701-dr-max-lekarna-havirov-prostredni-sucha.html","787"
"12","Vlak","Havířov-Suchá","","675"
"13","Školka","MŠ Havířov, U Topolů","https://www.firmy.cz/detail/2261441-ms-havirov-u-topolu-havirov-prostredni-sucha.html","527"
"14","Restaurace","Restaurace Libera","https://www.firmy.cz/detail/2688645-restaurace-libera-havirov-prostredni-sucha.html","374"
"15","Lékař","MEDIPRAX comp s.r.o. - MUDr. Joanna Zajaczek Kolorzová","https://www.firmy.cz/detail/12862226-mediprax-comp-s-r-o-mudr-joanna-zajaczek-kolorzova-havirov-prostredni-sucha.html","89"
"16","Bus MHD","Havířov, Prostřední Suchá, Budovatelů","","69"
