"","facility_type","facility_name","facility_iri","facility_distance"
"0","Cukrárna","Shothouse","https://www.firmy.cz/detail/13286217-shothouse-havirov-mesto.html","1152"
"1","Kino","Kino Centrum","https://www.firmy.cz/detail/12780436-kino-centrum-havirov-mesto.html","1202"
"2","Hřiště","Dětské hřiště U stadiónu","","717"
"3","Večerka","Lidl","https://www.firmy.cz/detail/13080488-lidl-havirov-podlesi.html","314"
"4","Hospoda","Country Club","https://www.firmy.cz/detail/13116634-country-club-havirov-podlesi.html","397"
"5","Veterinář","Veterinární ordinace MVDr. Zuzana Vlčková s.r.o., WolfiVet","https://www.firmy.cz/detail/12980919-veterinarni-ordinace-mvdr-zuzana-vlckova-s-r-o-wolfivet-havirov-podlesi.html","1275"
"6","Bus MHD","Havířov, Město, Bludovická","","191"
"7","Bankomat","Bankomat Air Bank","https://www.firmy.cz/detail/13032303-bankomat-air-bank-havirov-podlesi.html","155"
"8","Školka","MŠ Havířov, Lípová","https://www.firmy.cz/detail/12871692-ms-havirov-lipova-havirov-mesto.html","358"
"9","Sportoviště","Správa sportovních a rekreačních zařízení Havířov","https://www.firmy.cz/detail/148439-sprava-sportovnich-a-rekreacnich-zarizeni-havirov-havirov-podlesi.html","190"
"10","Škola","ZŠ a MŠ s polským jazykem vyučovacím Havířov, Selská","https://www.firmy.cz/detail/357048-zs-a-ms-s-polskym-jazykem-vyucovacim-havirov-selska-havirov-bludovice.html","491"
"11","Lékárna","BENU Lékárna","https://www.firmy.cz/detail/13072023-benu-lekarna-havirov-podlesi.html","144"
"12","Obchod","Kaufland","https://www.firmy.cz/detail/1545096-kaufland-havirov-podlesi.html","156"
"13","Pošta","Pošta Havířov 21 - Česká pošta, s.p.","https://www.firmy.cz/detail/2378876-posta-havirov-21-havirov-podlesi.html","751"
"14","Restaurace","Pizzeria Max","https://www.firmy.cz/detail/13139950-pizzeria-max-havirov-podlesi.html","233"
"15","Vlak","Havířov-střed","","1962"
"16","Lékař","MUDr. Anna Kandrnálová, s.r.o.","https://www.firmy.cz/detail/12838619-mudr-anna-kandrnalova-havirov-podlesi.html","626"
