"","facility_type","facility_name","facility_iri","facility_distance"
"0","Cukrárna","Cukrářství u Savarů","https://www.firmy.cz/detail/13305048-cukrarstvi-u-savaru-pitin.html","2519"
"1","Hřiště","Dětské hřiště Černíkova","","143"
"2","Večerka","HRUŠKA","https://www.firmy.cz/detail/12820494-hruska-bojkovice.html","189"
"3","Hospoda","Hostinec Na hřišti","https://www.firmy.cz/detail/13104811-hostinec-na-hristi-bojkovice.html","927"
"4","Veterinář","MVDr. Zuzana Zochrová","https://www.firmy.cz/detail/1983700-mvdr-zuzana-zochrova-bojkovice.html","996"
"5","Restaurace","Bojkovická restaurace","https://www.firmy.cz/detail/13148997-bojkovicka-restaurace-bojkovice.html","96"
"6","Vlak","Bojkovice město","","311"
"7","Školka","MŠ Bojkovice","https://www.firmy.cz/detail/1986794-ms-bojkovice-bojkovice.html","586"
"8","Lékař","MUDr. Eliška Žáčková","https://www.firmy.cz/detail/386075-mudr-eliska-zackova-bojkovice.html","189"
"9","Bus MHD","Bojkovice, obchodní dům","","182"
"10","Pošta","Pošta Bojkovice - Česká pošta, s.p.","https://www.firmy.cz/detail/433585-posta-bojkovice-bojkovice.html","533"
"11","Bankomat","Bankomat České spořitelny","https://www.firmy.cz/detail/591455-bankomat-ceske-sporitelny-bojkovice.html","293"
"12","Obchod","OD TIS","https://www.firmy.cz/detail/12912584-od-tis-bojkovice.html","187"
"13","Lékárna","Lékárna Diana","https://www.firmy.cz/detail/374444-lekarna-diana-bojkovice.html","476"
"14","Škola","Základní škola T. G. Masaryka, Bojkovice","https://www.firmy.cz/detail/356423-zakladni-skola-t-g-masaryka-bojkovice-bojkovice.html","268"
"15","Sportoviště","Tělocvičná jednota Sokol Bojkovice","https://www.firmy.cz/detail/2138405-telocvicna-jednota-sokol-bojkovice-bojkovice.html","270"
