"","facility_type","facility_name","facility_iri","facility_distance"
"0","Cukrárna","Vinotékafé","https://www.firmy.cz/detail/12999475-vinotekafe-brno-lisen.html","202"
"1","Kino","5D cinema Maxim","https://www.firmy.cz/detail/12734839-5d-cinema-maxim-brno-mesto.html","4485"
"2","Přírodní zajímavost","Cesta rákosím","","1499"
"3","Hřiště","Dětské hřiště Štefáčkova","","172"
"4","Večerka","BILLA","https://www.firmy.cz/detail/437772-billa-brno-lisen.html","308"
"5","Hospoda","Pivnice Maják","https://www.firmy.cz/detail/13272936-pivnice-majak-brno-lisen.html","679"
"6","Divadlo","divadlo LÍŠEŇ","https://www.firmy.cz/detail/2145854-divadlo-lisen-brno-lisen.html","1919"
"7","Veterinář","MVDr. Jindřich Nešpor","https://www.firmy.cz/detail/1275834-mvdr-jindrich-nespor-brno-lisen.html","722"
"8","Lékárna","Lékárna Masarova","https://www.firmy.cz/detail/2616147-lekarna-masarova-brno-lisen.html","477"
"9","Restaurace","Restaurace Havana","https://www.firmy.cz/detail/581184-restaurace-havana-brno-lisen.html","443"
"10","Tram","Novolíšeňská","","147"
"11","Obchod","Líšeňské centrum obchodu a služeb, s.r.o.","https://www.firmy.cz/detail/2510623-lisenske-centrum-obchodu-a-sluzeb-brno-lisen.html","477"
"12","Bankomat","Bankomat ČSOB","https://www.firmy.cz/detail/599302-bankomat-csob-brno-lisen.html","336"
"13","Sportoviště","Tenis Cup","https://www.firmy.cz/detail/13059526-tenis-cup-brno-lisen.html","160"
"14","Pošta","Pošta Brno 28 - Česká pošta, s.p.","https://www.firmy.cz/detail/216047-posta-brno-28-brno-lisen.html","333"
"15","Vlak","Brno-Židenice","","2596"
"16","Lékař","Praktlek, s.r.o.","https://www.firmy.cz/detail/13293712-praktlek-brno-lisen.html","577"
"17","Škola","ZŠ, Brno, Masarova","https://www.firmy.cz/detail/356522-zs-brno-masarova-brno-lisen.html","354"
"18","Bus MHD","Novolíšeňská","","172"
"19","Školka","MŠ International School of Brno","https://www.firmy.cz/detail/13218073-ms-international-school-of-brno-brno-zidenice.html","616"
