"","facility_type","facility_name","facility_iri","facility_distance"
"0","Cukrárna","Cukrárna Lada","https://www.firmy.cz/detail/12915655-cukrarna-lada-havirov-sumbark.html","664"
"1","Kino","Letní kino - Městské kulturní středisko Havířov","https://www.firmy.cz/detail/13072791-letni-kino-havirov.html","2041"
"2","Hřiště","Dětské hřiště Jedlová","","644"
"3","Večerka","Albert Supermarket","https://www.firmy.cz/detail/446746-albert-supermarket-havirov-sumbark.html","114"
"4","Hospoda","Pivnice Kansas","https://www.firmy.cz/detail/13116813-pivnice-kansas-havirov-sumbark.html","109"
"5","Veterinář","Veterinární ordinace Vaculíkovi","https://www.firmy.cz/detail/1958348-veterinarni-ordinace-vaculikovi-havirov-sumbark.html","403"
"6","Bus MHD","Havířov, Šumbark, točna Petřvaldská","","41"
"7","Lékař","LS Meditreat, s.r.o.","https://www.firmy.cz/detail/12831414-ls-meditreat-havirov-sumbark.html","605"
"8","Škola","Základní škola Havířov-Šumbark Gen. Svobody 16/284 okres Karviná","https://www.firmy.cz/detail/357059-zakladni-skola-havirov-sumbark-gen-svobody-16-284-okres-karvina-havirov-sumbark.html","269"
"9","Sportoviště","Sportovní klub stolního tenisu Baník Havířov, z.s.","https://www.firmy.cz/detail/176025-sportovni-klub-stolniho-tenisu-banik-havirov-z-s-havirov-sumbark.html","853"
"10","Pošta","Pošta Havířov 7 - Česká pošta, s.p.","https://www.firmy.cz/detail/431643-posta-havirov-7-havirov-sumbark.html","106"
"11","Vlak","Havířov","","1219"
"12","Restaurace","Hospůdka U dědy Milana","https://www.firmy.cz/detail/13116799-hospudka-u-dedy-milana-havirov-sumbark.html","362"
"13","Obchod","Tesco","https://www.firmy.cz/detail/218205-tesco-havirov-mesto.html","1366"
"14","Lékárna","Lékárna Léčebné centrum","https://www.firmy.cz/detail/2202513-lekarna-lecebne-centrum-havirov-sumbark.html","848"
"15","Školka","MŠ Havířov, Petřvaldská","https://www.firmy.cz/detail/2333551-ms-havirov-petrvaldska-havirov-sumbark.html","225"
"16","Bankomat","Bankomat Komerční banky","https://www.firmy.cz/detail/594097-bankomat-komercni-banky-havirov-sumbark.html","188"
