"","facility_type","facility_name","facility_iri","facility_distance"
"0","Cukrárna","Cukrárna Linda","https://www.firmy.cz/detail/2137814-cukrarna-linda-hostivice.html","102"
"1","Kino","Cinema City Zličín","https://www.firmy.cz/detail/436222-cinema-city-zlicin-praha-trebonice.html","3732"
"2","Hřiště","Dětské hřiště Hostivice","","116"
"3","Večerka","Iceland","https://www.firmy.cz/detail/13204447-iceland-hostivice.html","67"
"4","Hospoda","Hostivický statek","https://www.firmy.cz/detail/13323679-hostivicky-statek-hostivice.html","171"
"5","Veterinář","Veterinární klinika Červený vrch, s.r.o.","https://www.firmy.cz/detail/12729416-veterinarni-klinika-cerveny-vrch-hostivice.html","247"
"6","Školka","MŠ Hostivice","https://www.firmy.cz/detail/1311604-ms-hostivice-hostivice.html","351"
"7","Bankomat","Bankomat Air Bank","https://www.firmy.cz/detail/13204449-bankomat-air-bank-hostivice.html","67"
"8","Obchod","Tesco","https://www.firmy.cz/detail/12741893-tesco-hostivice.html","1247"
"9","Škola","ZUŠ Kladno, Hostivice","https://www.firmy.cz/detail/2604982-zus-kladno-hostivice-hostivice.html","256"
"10","Vlak","Hostivice","","414"
"11","Lékař","BENU lékárna Hostivice","https://www.firmy.cz/detail/13275716-benu-lekarna-hostivice-hostivice.html","67"
"12","Pošta","Pošta Hostivice - Česká pošta, s.p.","https://www.firmy.cz/detail/216673-posta-hostivice-hostivice.html","142"
"13","Lékárna","LÉKÁRNA HOSTIVICE","https://www.firmy.cz/detail/374475-lekarna-hostivice-hostivice.html","67"
"14","Bus MHD","Hostivice","","55"
"15","Restaurace","Hostivice Pizza do krabice","https://www.firmy.cz/detail/13285998-hostivice-pizza-do-krabice-hostivice.html","151"
"16","Sportoviště","Michal Vecko","https://www.firmy.cz/detail/626682-michal-vecko-hostivice.html","375"
"17","Metro","Zličín","","3920"
"18","Tram","Sídliště Řepy","","3481"
