"","facility_type","facility_name","facility_iri","facility_distance"
"0","Cukrárna","Smé Café","https://www.firmy.cz/detail/13091909-sme-cafe-chrudim-iii.html","552"
"1","Kino","Městské kino Chrudim","https://www.firmy.cz/detail/396712-mestske-kino-chrudim-chrudim-iii.html","795"
"2","Přírodní zajímavost","Slatiňanská Třešňovka","","3463"
"3","Hřiště","Dětské hřiště","","518"
"4","Večerka","Penny Market","https://www.firmy.cz/detail/2413732-penny-market-chrudim-ii.html","331"
"5","Divadlo","Loutkářský soubor Ahoj Chrudim, občanské sdružení","https://www.firmy.cz/detail/2303599-loutkarsky-soubor-ahoj-chrudim-obcanske-sdruzeni-chrudim-ii.html","961"
"6","Hospoda","Hostinec u Rychtáře Václava","https://www.firmy.cz/detail/13121495-hostinec-u-rychtare-vaclava-chrudim-ii.html","608"
"7","Veterinář","MVDr. Petr Stránský","https://www.firmy.cz/detail/592749-mvdr-petr-stransky-chrudim-ii.html","962"
"8","Obchod","Kaufland","https://www.firmy.cz/detail/1457854-kaufland-chrudim-ii.html","634"
"9","Školka","Speciální mateřská škola, základní škola a praktická škola Pardubice","https://www.firmy.cz/detail/2686837-specialni-materska-skola-zakladni-skola-a-prakticka-skola-pardubice-chrudim-ii.html","251"
"10","Lékárna","Lékárna Chrudimské nemocnice","https://www.firmy.cz/detail/12933018-lekarna-chrudimske-nemocnice-chrudim-ii.html","251"
"11","Škola","Speciální mateřská škola, základní škola a praktická škola Pardubice","https://www.firmy.cz/detail/2686835-specialni-materska-skola-zakladni-skola-a-prakticka-skola-pardubice-chrudim-ii.html","251"
"12","Bus MHD","Chrudim, nem.-hl.sil.","","124"
"13","Pošta","Pošta Chrudim 3 - Česká pošta, s.p.","https://www.firmy.cz/detail/215822-posta-chrudim-3-chrudim-iii.html","440"
"14","Bankomat","Bankomat Komerční banky","https://www.firmy.cz/detail/1352291-bankomat-komercni-banky-chrudim-iii.html","626"
"15","Sportoviště","Letní koupaliště Chrudim","https://www.firmy.cz/detail/2532054-letni-koupaliste-chrudim-chrudim-iii.html","295"
"16","Lékař","Praktický lékař MUDr. Ivan Minařík","https://www.firmy.cz/detail/13277285-prakticky-lekar-mudr-ivan-minarik-chrudim-ii.html","510"
"17","Restaurace","Restaurace na koupališti","https://www.firmy.cz/detail/13111370-restaurace-na-koupalisti-chrudim-ii.html","202"
"18","Vlak","Chrudim","","1375"
