"","facility_type","facility_name","facility_iri","facility_distance"
"0","Hřiště","Dětské hřiště Dělnická","https://mapy.cz/zakladni?x=18.1758878405&y=49.8254557939&z=17&source=base&id=2233047","33"
"1","Přírodní zajímavost","Polanský bludný balvan","https://mapy.cz/zakladni?x=18.163569444444445&y=49.7883&z=17&source=base&id=2337901","4231"
"2","Večerka","TEMPO, obchodní družstvo","https://www.firmy.cz/detail/13150131-tempo-obchodni-druzstvo-ostrava-poruba.html","284"
"3","Hospoda","Pivnice Assen Poruba","https://www.firmy.cz/detail/13099400-pivnice-assen-poruba-ostrava-poruba.html","202"
"4","Veterinář","Veterinární klinika Yorika","https://www.firmy.cz/detail/712067-veterinarni-klinika-yorika-ostrava-poruba.html","707"
"5","Kino","Retrostar kino Polanka","https://www.firmy.cz/detail/12892972-retrostar-kino-polanka-ostrava-polanka-nad-odrou.html","4223"
"6","Cukrárna","Cukrárna Ollies","https://www.firmy.cz/detail/12720535-cukrarna-ollies-ostrava-poruba.html","501"
"7","Divadlo","Porubské divadlo","https://www.firmy.cz/detail/2543038-porubske-divadlo-ostrava-poruba.html","1324"
"8","Tram","Poruba vozovna","https://mapy.cz/zakladni?x=18.1764063574&y=49.832497724&z=17&source=pubt&id=15201819","784"
"9","Pošta","Pošta Ostrava 8 - Česká pošta, s.p.","https://www.firmy.cz/detail/433404-posta-ostrava-8-ostrava-poruba.html","504"
"10","Bus MHD","Nezvalovo náměstí","https://mapy.cz/zakladni?x=18.176676754268442&y=49.827467938321654&z=17&source=pubt&id=15201978","226"
"11","Lékař","MUDr. Václav Tomášek","https://www.firmy.cz/detail/13293964-mudr-vaclav-tomasek-ostrava-poruba.html","143"
"12","Školka","MŠ Čtyřlístek, Ostrava-Poruba","https://www.firmy.cz/detail/2395595-ms-ctyrlistek-ostrava-poruba-ostrava-poruba.html","194"
"13","Restaurace","Sbeerka","https://www.firmy.cz/detail/13194097-sbeerka-ostrava-poruba.html","200"
"14","Sportoviště","Sportovní areál Poruba","https://www.firmy.cz/detail/703484-sportovni-areal-poruba-ostrava-poruba.html","201"
"15","Bankomat","Bankomat Air Bank","https://www.firmy.cz/detail/13100701-bankomat-air-bank-ostrava-poruba.html","242"
"16","Škola","Základní škola a waldorfská základní škola, Ostrava-Poruba","https://www.firmy.cz/detail/358707-zakladni-skola-a-waldorfska-zakladni-skola-ostrava-poruba-ostrava-poruba.html","339"
"17","Lékárna","Lékárna Ve Věžičkách","https://www.firmy.cz/detail/13210853-lekarna-ve-vezickach-ostrava-poruba.html","361"
"18","Vlak","Ostrava-Třebovice","https://mapy.cz/zakladni?x=18.1956703177&y=49.8420594647&z=17&source=pubt&id=15212381","2309"
"19","Obchod","Albert Hypermarket","https://www.firmy.cz/detail/12928419-albert-hypermarket-ostrava-poruba.html","869"
