"","facility_type","facility_name","facility_iri","facility_distance"
"0","Hřiště","Dětské hřiště K Dubinám","https://mapy.cz/zakladni?x=14.4095360563&y=50.0199279116&z=17&source=base&id=1926766","581"
"1","Večerka","Lidl","https://www.firmy.cz/detail/13323931-lidl-praha-mala-chuchle.html","624"
"2","Přírodní zajímavost","Kovářovic mez","https://mapy.cz/zakladni?x=14.36107759920759&y=50.04395254566995&z=17&source=base&id=2339664","3970"
"3","Hospoda","Vodácká krčma U Sváry","https://www.firmy.cz/detail/13142606-vodacka-krcma-u-svary-praha-hodkovicky.html","553"
"4","Kino","AutoKino Ledárny","https://www.firmy.cz/detail/13312696-autokino-ledarny-praha.html","1623"
"5","Veterinář","MVDr. Daniela Králová - VETERINA TŘI V JEDNOM","https://www.firmy.cz/detail/682643-mvdr-daniela-kralova-veterina-tri-v-jednom-praha-velka-chuchle.html","968"
"6","Cukrárna","Kavárna KORKORÁN","https://www.firmy.cz/detail/13121483-kavarna-korkoran-praha-branik.html","999"
"7","Divadlo","Divadlo Na Cikorce","https://www.firmy.cz/detail/2387865-divadlo-na-cikorce-praha-modrany.html","1164"
"8","Školka","Mgr. Ivana Trhanová","https://www.firmy.cz/detail/2662771-mgr-ivana-trhanova-praha-hodkovicky.html","534"
"9","Pošta","Pošta Praha 59 - Česká pošta, s.p.","https://www.firmy.cz/detail/431322-posta-praha-59-praha-velka-chuchle.html","1448"
"10","Tram","Černý kůň","https://mapy.cz/zakladni?x=14.4035269712&y=50.022517051&z=17&source=pubt&id=15303994","377"
"11","Metro","Budějovická","https://mapy.cz/zakladni?x=14.4476663217&y=50.0447839354&z=17&source=pubt&id=15200205","4344"
"12","Restaurace","Restaurace U Černého koně","https://www.firmy.cz/detail/13197322-restaurace-u-cerneho-kone-praha-hodkovicky.html","514"
"13","Bankomat","Bankomat Komerční banky","https://www.firmy.cz/detail/13326666-bankomat-komercni-banky-praha-mala-chuchle.html","624"
"14","Bus MHD","U Belárie","https://mapy.cz/zakladni?x=14.4037288456593&y=50.01692206731214&z=17&source=pubt&id=15301848","321"
"15","Lékař","Medicínské centrum Praha, s.r.o.","https://www.firmy.cz/detail/744975-medicinske-centrum-praha-praha-modrany.html","757"
"16","Obchod","Kaufland","https://www.firmy.cz/detail/12700906-kaufland-praha-modrany.html","1406"
"17","Vlak","Praha-Braník","https://mapy.cz/zakladni?x=14.40650057&y=50.0276715991&z=17&source=pubt&id=15212551","988"
"18","Sportoviště","Tělocvičná jednota Sokol Hodkovičky","https://www.firmy.cz/detail/1945167-telocvicna-jednota-sokol-hodkovicky-praha-hodkovicky.html","386"
"19","Lékárna","Dr. Max","https://www.firmy.cz/detail/12804620-dr-max-praha-modrany.html","1423"
"20","Škola","ZŠ Jitrní s rozšířenou výukou tělesné výchovy - Základní škola s rozšířenou výukou tělesné výchovy, Praha 4, Jitřní 185","https://www.firmy.cz/detail/13232574-zs-jitrni-s-rozsirenou-vyukou-telesne-vychovy-praha-hodkovicky.html","1015"
