"","facility_type","facility_name","facility_iri","facility_distance"
"0","Cukrárna","Cukrárna Amarilis","https://www.firmy.cz/detail/13334795-cukrarna-amarilis-praha-zizkov.html","823"
"1","Kino","Kino Aero","https://www.firmy.cz/detail/399435-kino-aero-praha-zizkov.html","652"
"2","Hřiště","Dětské hřiště Garden Towers","","267"
"3","Přírodní zajímavost","Meandry Rokytky","","3775"
"4","Večerka","PARK GROUP","https://www.firmy.cz/detail/599597-park-group-praha-zizkov.html","328"
"5","Hospoda","Pivnice Radyně","https://www.firmy.cz/detail/1957129-pivnice-radyne-praha-zizkov.html","432"
"6","Divadlo","Divadlo Kámen","https://www.firmy.cz/detail/197593-divadlo-kamen-praha-karlin.html","1176"
"7","Veterinář","MVDr. Václav Naxera - veterinární klinika","https://www.firmy.cz/detail/278421-mvdr-vaclav-naxera-veterinarni-klinika-praha-vinohrady.html","963"
"8","Školka","MŠ Praha 3, U Zásobní zahrady","https://www.firmy.cz/detail/2264286-ms-praha-3-u-zasobni-zahrady-praha-zizkov.html","231"
"9","Sportoviště","Tenisová škola RETURN","https://www.firmy.cz/detail/740300-tenisova-skola-return-praha-zizkov.html","658"
"10","Škola","Střední odborná škola managementu a práva, Cimburkova","https://www.firmy.cz/detail/1953436-stredni-odborna-skola-managementu-a-prava-cimburkova-praha-zizkov.html","216"
"11","Bus MHD","Nákladové nádraží Žižkov","","85"
"12","Obchod","Tesco Extra","https://www.firmy.cz/detail/733906-tesco-extra-praha-vrsovice.html","1933"
"13","Lékárna","Lékárna Olšanská","https://www.firmy.cz/detail/582540-lekarna-olsanska-praha-zizkov.html","95"
"14","Lékař","Vinohradské ambulantní zařízení","https://www.firmy.cz/detail/302645-vinohradske-ambulantni-zarizeni-praha-zizkov.html","95"
"15","Bankomat","Bankomat ČSOB","https://www.firmy.cz/detail/599580-bankomat-csob-praha-zizkov.html","79"
"16","Restaurace","XBowling Žižkov","https://www.firmy.cz/detail/12747345-xbowling-zizkov-praha-zizkov.html","219"
"17","Metro","Želivského","","779"
"18","Vlak","Praha-Eden","","2146"
"19","Tram","Nákladové nádraží Žižkov","","94"
"20","Pošta","Pošta Praha 3 - Česká pošta, s.p.","https://www.firmy.cz/detail/2102474-posta-praha-3-praha-zizkov.html","79"
