"","facility_type","facility_name","facility_iri","facility_distance"
"0","Cukrárna","Cukrárna Židlochovice","https://www.firmy.cz/detail/1990236-cukrarna-zidlochovice-zidlochovice.html","2151"
"1","Přírodní zajímavost","Biotop Bratčice","","4840"
"2","Hřiště","Dětské hřiště Žižkova","","228"
"3","Večerka","Večerka Nádražní 129","https://www.firmy.cz/detail/2593302-vecerka-nadrazni-129-hrusovany-u-brna.html","300"
"4","Hospoda","Hospoda U Přidalů","https://www.firmy.cz/detail/12977579-hospoda-u-pridalu-hrusovany-u-brna.html","371"
"5","Veterinář","MVDr. Marcela Dašková","https://www.firmy.cz/detail/12826674-mvdr-marcela-daskova-zabcice.html","2490"
"6","Lékárna","Lékárna Hrušovany u Brna","https://www.firmy.cz/detail/227584-lekarna-hrusovany-u-brna-hrusovany-u-brna.html","360"
"7","Bankomat","Bankomat Fio banky","https://www.firmy.cz/detail/12924733-bankomat-fio-banky-hrusovany-u-brna.html","360"
"8","Bus MHD","Hrušovany u Brna, žel.st.","","253"
"9","Škola","ZŠ T. G. Masaryka Hrušovany u Brna","https://www.firmy.cz/detail/357304-zs-t-g-masaryka-hrusovany-u-brna-hrusovany-u-brna.html","645"
"10","Sportoviště","Tělocvičná jednota Sokol Hrušovany u Brna","https://www.firmy.cz/detail/1846136-telocvicna-jednota-sokol-hrusovany-u-brna-hrusovany-u-brna.html","643"
"11","Vlak","Hrušovany u Brna","","241"
"12","Pošta","Pošta Hrušovany u Brna - Česká pošta, s.p.","https://www.firmy.cz/detail/216061-posta-hrusovany-u-brna-hrusovany-u-brna.html","347"
"13","Restaurace","Restaurace U Nádraží","https://www.firmy.cz/detail/2501241-restaurace-u-nadrazi-hrusovany-u-brna.html","300"
"14","Lékař","Družstvo lékařů","https://www.firmy.cz/detail/377053-druzstvo-lekaru-hrusovany-u-brna.html","360"
"15","Školka","MŠ Hrušovany u Brna","https://www.firmy.cz/detail/12962459-ms-hrusovany-u-brna-hrusovany-u-brna.html","450"
