"","facility_type","facility_name","facility_iri","facility_distance"
"0","Hřiště","Dětské hřiště park Jezerka","https://mapy.cz/zakladni?x=14.4427613014&y=50.0559407676&z=17&source=base&id=1926804","48"
"1","Večerka","Tesco Expres","https://www.firmy.cz/detail/2564843-tesco-expres-praha-nusle.html","645"
"2","Hospoda","BEER BAR Na Veseli","https://www.firmy.cz/detail/2553652-beer-bar-na-veseli-praha-nusle.html","155"
"3","Cukrárna","Cukrárna Charlie","https://www.firmy.cz/detail/2365398-cukrarna-charlie-praha-michle.html","561"
"4","Veterinář","Veterinární ošetřovna Nusle, s.r.o.","https://www.firmy.cz/detail/2294795-veterinarni-osetrovna-nusle-praha-nusle.html","611"
"5","Divadlo","Divadlo Na Jezerce","https://www.firmy.cz/detail/496550-divadlo-na-jezerce-praha-nusle.html","239"
"6","Kino","HopeTV","https://www.firmy.cz/detail/672889-hopetv-praha-vinohrady.html","1995"
"7","Tram","Na Veselí","https://mapy.cz/zakladni?x=14.44142&y=50.05658&z=17&source=pubt&id=19300413","150"
"8","Metro","Pankrác","https://mapy.cz/zakladni?x=14.4396411774&y=50.0513136565&z=17&source=pubt&id=15200203","596"
"9","Lékárna","Lékárna U sv. Pankráce","https://www.firmy.cz/detail/422787-lekarna-u-sv-pankrace-praha-nusle.html","538"
"10","Lékař","MS Medical, s.r.o.","https://www.firmy.cz/detail/2560380-ms-medical-praha-nusle.html","674"
"11","Pošta","Pošta Praha 45 - Česká pošta, s.p.","https://www.firmy.cz/detail/217481-posta-praha-45-praha-michle.html","787"
"12","Bankomat","Bankomat Komerční banky","https://www.firmy.cz/detail/596000-bankomat-komercni-banky-praha-michle.html","515"
"13","Sportoviště","Hřiště na pétanque Na Jezerce","https://mapy.cz/zakladni?x=14.44330497853889&y=50.05720680015859&z=17&source=base&id=2338767","123"
"14","Vlak","Praha-Vršovice","https://mapy.cz/zakladni?x=14.44775903480322&y=50.06465689836381&z=17&source=pubt&id=15212586","1001"
"15","Restaurace","Jan Tauš","https://www.firmy.cz/detail/2430741-jan-taus-praha-nusle.html","404"
"16","Škola","ZŠ a MŠ Praha 4, Sdružení","https://www.firmy.cz/detail/356181-zs-a-ms-praha-4-sdruzeni-praha-nusle.html","148"
"17","Obchod","Arkády Pankrác","https://www.firmy.cz/detail/2245240-arkady-pankrac-praha-nusle.html","720"
"18","Školka","ZŠ a MŠ Praha 4, Sdružení","https://www.firmy.cz/detail/2533278-zs-a-ms-praha-4-sdruzeni-praha-nusle.html","148"
"19","Bus MHD","Jezerka","https://mapy.cz/zakladni?x=14.443069159552484&y=50.05719286612921&z=17&source=pubt&id=15305596","123"
