"","facility_type","facility_name","facility_iri","facility_distance"
"0","Cukrárna","Cukrárna Memories","https://www.firmy.cz/detail/13027745-cukrarna-memories-frydek-mistek-mistek.html","1177"
"1","Kino","Kino Nová scéna Vlast","https://www.firmy.cz/detail/396685-kino-nova-scena-vlast-frydek-mistek-mistek.html","1624"
"2","Přírodní zajímavost","Bludné balvany ve Frýdeckém lese","","4549"
"3","Hřiště","Dětské hřiště F. Čejky","","964"
"4","Večerka","Večerka Na Zelené","https://www.firmy.cz/detail/13321536-vecerka-na-zelene-frydek-mistek-mistek.html","796"
"5","Hospoda","Hospoda U Krbu","https://www.firmy.cz/detail/13034322-hospoda-u-krbu-frydek-mistek-mistek.html","1403"
"6","Divadlo","Divadlo Nová scéna Vlast","https://www.firmy.cz/detail/661522-divadlo-nova-scena-vlast-frydek-mistek-mistek.html","1624"
"7","Veterinář","JANÁK PAVEL MVDr. - VETERINÁRNÍ KLINIKA","https://www.firmy.cz/detail/477144-janak-pavel-mvdr-veterinarni-klinika-frydek-mistek-mistek.html","624"
"8","Restaurace","Restaurace U Janka","https://www.firmy.cz/detail/13152735-restaurace-u-janka-frydek-mistek-mistek.html","79"
"9","Lékárna","Dr. Max LÉKÁRNA","https://www.firmy.cz/detail/2007371-dr-max-lekarna-frydek-mistek-mistek.html","989"
"10","Škola","Střední odborná škola, Frýdek-Místek","https://www.firmy.cz/detail/2615164-stredni-odborna-skola-frydek-mistek-frydek-mistek-mistek.html","633"
"11","Pošta","Pošta Frýdek-Místek 14 - Česká pošta, s.p.","https://www.firmy.cz/detail/432960-posta-frydek-mistek-14-frydek-mistek-mistek.html","1293"
"12","Lékař","MUDr. Monika Šiková","https://www.firmy.cz/detail/1969433-mudr-monika-sikova-frydek-mistek-mistek.html","1088"
"13","Školka","Mateřská škola SNĚŽENKA Frýdek-Místek, Josefa Lady 1790","https://www.firmy.cz/detail/13044839-materska-skola-snezenka-frydek-mistek-josefa-lady-1790-frydek-mistek-mistek.html","931"
"14","Bankomat","Bankomat Air Bank","https://www.firmy.cz/detail/13032307-bankomat-air-bank-frydek-mistek-mistek.html","974"
"15","Bus MHD","Místek, Pavlíkova točna","","178"
"16","Vlak","Frýdek-Místek","","2031"
"17","Sportoviště","Funstorm bike area","https://www.firmy.cz/detail/13019863-funstorm-bike-area-frydek-mistek-mistek.html","1130"
"18","Obchod","Tesco","https://www.firmy.cz/detail/218198-tesco-frydek-mistek-mistek.html","989"
