"","facility_type","facility_name","facility_iri","facility_distance"
"0","Cukrárna","Café Garáž","https://www.firmy.cz/detail/13258883-cafe-garaz-beroun-mesto.html","690"
"1","Kino","Kino Beroun","https://www.firmy.cz/detail/396429-kino-beroun-beroun-mesto.html","1461"
"2","Hřiště","Dětské hřiště třída Míru","","136"
"3","Večerka","COOP","https://www.firmy.cz/detail/2563146-coop-beroun-mesto.html","138"
"4","Hospoda","Pivnice U Koček","https://www.firmy.cz/detail/13321596-pivnice-u-kocek-beroun-mesto.html","788"
"5","Veterinář","Veterinární ordinace MVDr. Petr Volf","https://www.firmy.cz/detail/746039-veterinarni-ordinace-mvdr-petr-volf-beroun-mesto.html","36"
"6","Bus MHD","Beroun, Velké sídliště","","41"
"7","Škola","Základní škola a Praktická škola Beroun","https://www.firmy.cz/detail/2130429-zakladni-skola-a-prakticka-skola-beroun-beroun-mesto.html","302"
"8","Lékárna","Lékárna BETA","https://www.firmy.cz/detail/13209558-lekarna-beta-beroun-mesto.html","70"
"9","Lékař","Humilitas s.r.o. - MUDr. Klaudia Větrovská","https://www.firmy.cz/detail/2604785-humilitas-s-r-o-mudr-klaudia-vetrovska-beroun-mesto.html","873"
"10","Školka","MŠ Sluníčko Beroun, Vladislava Vančury","https://www.firmy.cz/detail/2146811-ms-slunicko-beroun-vladislava-vancury-beroun-mesto.html","189"
"11","Restaurace","Restaurace Formanka - Hvězda","https://www.firmy.cz/detail/13110344-restaurace-formanka-hvezda-beroun-mesto.html","152"
"12","Vlak","Beroun","","1732"
"13","Pošta","Pošta Beroun 4 - Česká pošta, s.p.","https://www.firmy.cz/detail/216872-posta-beroun-4-beroun-mesto.html","52"
"14","Obchod","Obchodní centrum Hvězda","https://www.firmy.cz/detail/13163476-obchodni-centrum-hvezda-beroun-mesto.html","132"
"15","Sportoviště","AVE CZ odpadové hospodářství, s.r.o.","https://www.firmy.cz/detail/13074710-ave-cz-odpadove-hospodarstvi-beroun-mesto.html","225"
"16","Bankomat","Bankomat České spořitelny","https://www.firmy.cz/detail/12838472-bankomat-ceske-sporitelny-beroun-mesto.html","188"
