"","facility_type","facility_name","facility_iri","facility_distance"
"0","Přírodní zajímavost","Genofond ovocných dřevin Nízkého Jeseníku","","4269"
"1","Hřiště","Dětské hřiště Bílčice","","4595"
"2","Hospoda","Hospoda Razová","https://www.firmy.cz/detail/13110379-hospoda-razova-razova.html","4126"
"3","Restaurace","Penzion a restaurace U Marka","https://www.firmy.cz/detail/13142681-penzion-a-restaurace-u-marka-leskovec-nad-moravici.html","298"
"4","Bus MHD","Leskovec nad Moravicí, U Strmeňů","","303"
"5","Škola","ZŠ a MŠ Razová","https://www.firmy.cz/detail/359173-zs-a-ms-razova-razova.html","4186"
"6","Pošta","Pošta Razová - Česká pošta, s.p.","https://www.firmy.cz/detail/432286-posta-razova-razova.html","4150"
