"","facility_type","facility_name","facility_iri","facility_distance"
"0","Cukrárna","Vinotéka-kavárnička Pavlína Dorňáková","https://www.firmy.cz/detail/13195751-vinoteka-kavarnicka-pavlina-dornakova-ostrava-radvanice.html","1430"
"1","Kino","Minikino","https://www.firmy.cz/detail/669940-minikino-ostrava-moravska-ostrava.html","3057"
"2","Hřiště","Koupark","","890"
"3","Večerka","HRUŠKA","https://www.firmy.cz/detail/12820402-hruska-ostrava-michalkovice.html","840"
"4","Hospoda","Hostinec Na Trnkovci","https://www.firmy.cz/detail/13031343-hostinec-na-trnkovci-ostrava-radvanice.html","243"
"5","Divadlo","Divadlo Devítka","https://www.firmy.cz/detail/2413186-divadlo-devitka-ostrava-michalkovice.html","1906"
"6","Veterinář","MVDr. Ivo Šimoník, CSc.","https://www.firmy.cz/detail/685493-mvdr-ivo-simonik-csc-ostrava-michalkovice.html","1760"
"7","Restaurace","Starý Peking","https://www.firmy.cz/detail/13155544-stary-peking-ostrava-radvanice.html","772"
"8","Sportoviště","Piraňa Paintball","https://www.firmy.cz/detail/12743552-pirana-paintball-ostrava-radvanice.html","1383"
"9","Bankomat","Bankomat České spořitelny","https://www.firmy.cz/detail/2464829-bankomat-ceske-sporitelny-ostrava-radvanice.html","1152"
"10","Pošta","Pošta Ostrava 16 - Česká pošta, s.p.","https://www.firmy.cz/detail/433426-posta-ostrava-16-ostrava-radvanice.html","1342"
"11","Lékárna","Sanovia, a.s.","https://www.firmy.cz/detail/2402068-sanovia-a-s-ostrava-radvanice.html","1217"
"12","Lékař","MUDr. Alexander Daniš","https://www.firmy.cz/detail/387815-mudr-alexander-danis-ostrava-radvanice.html","1432"
"13","Vlak","Ostrava-Kunčičky","","3435"
"14","Školka","MŠ Slezská Ostrava, Slívova","https://www.firmy.cz/detail/12903089-ms-slezska-ostrava-slivova-ostrava-slezska-ostrava.html","823"
"15","Obchod","Obchodní centrum LASO","https://www.firmy.cz/detail/2071391-obchodni-centrum-laso-ostrava-moravska-ostrava.html","3136"
"16","Bus MHD","Trnkovec","","45"
"17","Tram","Hranečník","","1107"
"18","Škola","ZŠ Ostrava - Radvanice, Trnkovecká","https://www.firmy.cz/detail/358713-zs-ostrava-radvanice-trnkovecka-ostrava-radvanice.html","367"
