"","facility_type","facility_name","facility_iri","facility_distance"
"0","Cukrárna","Cukrárna Ollies","https://www.firmy.cz/detail/12720535-cukrarna-ollies-ostrava-poruba.html","625"
"1","Kino","5D cinema Maxim","https://www.firmy.cz/detail/12950606-5d-cinema-maxim-ostrava-zabreh.html","4910"
"2","Přírodní zajímavost","Zábřežský bludný balvan","","5295"
"3","Hřiště","Dětské hřiště Gen. Sochora","","189"
"4","Večerka","HRUŠKA","https://www.firmy.cz/detail/12820431-hruska-ostrava-poruba.html","199"
"5","Hospoda","Pod okapem","https://www.firmy.cz/detail/13119323-pod-okapem-ostrava-poruba.html","640"
"6","Divadlo","Porubské divadlo","https://www.firmy.cz/detail/2543038-porubske-divadlo-ostrava-poruba.html","1425"
"7","Veterinář","MVDr. Dušan Vacula","https://www.firmy.cz/detail/1915594-mvdr-dusan-vacula-ostrava-poruba.html","435"
"8","Škola","ZŠ pro sluchově postižené a MŠ pro sluchově postižené, Ostrava-Poruba","https://www.firmy.cz/detail/1334503-zs-pro-sluchove-postizene-a-ms-pro-sluchove-postizene-ostrava-poruba-ostrava-poruba.html","136"
"9","Bankomat","Bankomat České spořitelny","https://www.firmy.cz/detail/593850-bankomat-ceske-sporitelny-ostrava-poruba.html","295"
"10","Tram","Poruba vozovna","","272"
"11","Bus MHD","Poruba vozovna","","252"
"12","Restaurace","La Strada","https://www.firmy.cz/detail/13114891-la-strada-ostrava-poruba.html","128"
"13","Sportoviště","Sportovní a rekreační zařízení města Ostravy","https://www.firmy.cz/detail/423310-sportovni-a-rekreacni-zarizeni-mesta-ostravy-ostrava-poruba.html","461"
"14","Lékárna","EUC Lékárna","https://www.firmy.cz/detail/640699-euc-lekarna-ostrava-poruba.html","251"
"15","Obchod","Albert Hypermarket","https://www.firmy.cz/detail/12928419-albert-hypermarket-ostrava-poruba.html","761"
"16","Lékař","EUC Klinika Ostrava, a.s.","https://www.firmy.cz/detail/272773-euc-klinika-ostrava-ostrava-poruba.html","251"
"17","Školka","ZŠ pro sluchově postižené a MŠ pro sluchově postižené, Ostrava-Poruba","https://www.firmy.cz/detail/2321869-zs-pro-sluchove-postizene-a-ms-pro-sluchove-postizene-ostrava-poruba-ostrava-poruba.html","136"
"18","Vlak","Ostrava-Třebovice","","1481"
"19","Pošta","Pošta Ostrava 34 - Česká pošta, s.p.","https://www.firmy.cz/detail/433343-posta-ostrava-34-ostrava-poruba.html","294"
