"","facility_type","facility_name","facility_iri","facility_distance"
"0","Hřiště","Dětské hřiště Palava","https://mapy.cz/zakladni?x=16.6588601592&y=49.3681944151&z=17&source=base&id=1927544","233"
"1","Večerka","HRUŠKA","https://www.firmy.cz/detail/12819765-hruska-blansko.html","360"
"2","Kino","Kino Blansko","https://www.firmy.cz/detail/2697628-kino-blansko-blansko.html","1209"
"3","Hospoda","Pivnice Sever","https://www.firmy.cz/detail/13081863-pivnice-sever-blansko.html","112"
"4","Veterinář","MVDr. Ivana Stodůlková - veterinární ordinace","https://www.firmy.cz/detail/2568517-mvdr-ivana-stodulkova-veterinarni-ordinace-blansko.html","1014"
"5","Cukrárna","Kavárna Cafisco","https://www.firmy.cz/detail/2683352-kavarna-cafisco-blansko.html","826"
"6","Pošta","Pošta Blansko 3 - Česká pošta, s.p.","https://www.firmy.cz/detail/431396-posta-blansko-3-blansko.html","376"
"7","Bankomat","Bankomat MONETA Money Bank","https://www.firmy.cz/detail/603514-bankomat-moneta-money-bank-blansko.html","953"
"8","Škola","Základní škola a Mateřská škola Blansko, Salmova 17","https://www.firmy.cz/detail/356375-zakladni-skola-a-materska-skola-blansko-salmova-17-blansko.html","219"
"9","Sportoviště","Sdružení rodičů a přátel dětí a školy při ZŠ Dvorská Blansko","https://www.firmy.cz/detail/2651441-sdruzeni-rodicu-a-pratel-deti-a-skoly-pri-zs-dvorska-blansko-blansko.html","494"
"10","Restaurace","Restaurace Myslivna","https://www.firmy.cz/detail/13037130-restaurace-myslivna-blansko.html","256"
"11","Lékař","MUDr. Radek Trávníček s.r.o.","https://www.firmy.cz/detail/13289387-mudr-radek-travnicek-s-r-o-blansko.html","730"
"12","Bus MHD","Blansko, Sever","https://mapy.cz/zakladni?x=16.6559242074&y=49.3686205573&z=17&source=pubt&id=15226971","55"
"13","Vlak","Blansko město","https://mapy.cz/zakladni?x=16.6398278486&y=49.3605032844&z=17&source=pubt&id=15210977","1428"
"14","Lékárna","Lékárna Nemocnice Blansko","https://www.firmy.cz/detail/12831720-lekarna-nemocnice-blansko-blansko.html","775"
"15","Obchod","Kaufland","https://www.firmy.cz/detail/1356304-kaufland-blansko.html","954"
"16","Školka","MŠ Blansko, Dvorská 96","https://www.firmy.cz/detail/2146799-ms-blansko-dvorska-96-blansko.html","144"
