"","facility_type","facility_name","facility_iri","facility_distance"
"0","Hřiště","Dětské hřiště Peřinova","https://mapy.cz/zakladni?x=14.305212690557823&y=50.06481224663968&z=17&source=base&id=2335014","103"
"1","Cukrárna","OVOCNÝ SVĚTOZOR","https://www.firmy.cz/detail/13151180-ovocny-svetozor-praha-stodulky.html","638"
"2","Večerka","Albert Supermarket","https://www.firmy.cz/detail/229742-albert-supermarket-praha-repy.html","181"
"3","Hospoda","Pivní bar","https://www.firmy.cz/detail/13148067-pivni-bar-praha-repy.html","398"
"4","Veterinář","Veterinární klinika Delta MVDr.Michael Růžička, s.r.o.","https://www.firmy.cz/detail/12957413-veterinarni-klinika-delta-mvdr-michael-ruzicka-praha-repy.html","396"
"5","Divadlo","MEZINÁRODNÍ CENTRUM TANCE","https://www.firmy.cz/detail/2465676-mezinarodni-centrum-tance-praha-stodulky.html","3084"
"6","Přírodní zajímavost","Kovářovic mez","https://mapy.cz/zakladni?x=14.36107759920759&y=50.04395254566995&z=17&source=base&id=2339664","4581"
"7","Kino","Cinema City Zličín","https://www.firmy.cz/detail/436222-cinema-city-zlicin-praha-trebonice.html","1803"
"8","Lékař","MUDr. Peter Ritter","https://www.firmy.cz/detail/389646-mudr-peter-ritter-praha-repy.html","262"
"9","Pošta","Pošta Praha 618 - Česká pošta, s.p.","https://www.firmy.cz/detail/431332-posta-praha-618-praha-repy.html","194"
"10","Lékárna","Dr. Max LÉKÁRNA","https://www.firmy.cz/detail/12726490-dr-max-lekarna-praha-repy.html","147"
"11","Metro","Zličín","https://mapy.cz/zakladni?x=14.2906764069&y=50.0537241139&z=17&source=pubt&id=15200255","1714"
"12","Restaurace","Restaurace Tankárna","https://www.firmy.cz/detail/13015315-restaurace-tankarna-praha-repy.html","104"
"13","Sportoviště","Tenisová škola TALLENT","https://www.firmy.cz/detail/722768-tenisova-skola-tallent-praha-repy.html","158"
"14","Škola","ZŠ generálporučíka Františka Peřiny Praha 6","https://www.firmy.cz/detail/356218-zs-generalporucika-frantiska-periny-praha-6-praha-repy.html","158"
"15","Vlak","Praha-Zličín","https://mapy.cz/zakladni?x=14.2977438277&y=50.0641750381&z=17&source=pubt&id=15212589","627"
"16","Školka","MŠ Socháňova","https://www.firmy.cz/detail/457968-ms-sochanova-praha-repy.html","187"
"17","Bus MHD","Bazovského","https://mapy.cz/zakladni?x=14.3072337486&y=50.067036413&z=17&source=pubt&id=15301298","192"
"18","Bankomat","Bankomat ČSOB","https://www.firmy.cz/detail/1424161-bankomat-csob-praha-repy.html","110"
"19","Obchod","OC Řepy","https://www.firmy.cz/detail/13328774-oc-repy-praha-repy.html","194"
"20","Tram","Slánská","https://mapy.cz/zakladni?x=14.3085323654&y=50.0645460542&z=17&source=pubt&id=15303706","186"
