"","facility_type","facility_name","facility_iri","facility_distance"
"0","Hřiště","Dětské hřiště Do Zátiší","https://mapy.cz/zakladni?x=12.3520804123&y=50.0731421689&z=17&source=base&id=2117193","207"
"1","Hospoda","Pivnice Lucky","https://www.firmy.cz/detail/13010098-pivnice-lucky-cheb.html","896"
"2","Kino","Kino Svět","https://www.firmy.cz/detail/451706-kino-svet-cheb.html","1318"
"3","Večerka","Potraviny Do Zátiší 2457","https://www.firmy.cz/detail/13057507-potraviny-do-zatisi-2457-cheb.html","161"
"4","Veterinář","MVDr. Miroslav Valouch","https://www.firmy.cz/detail/257206-mvdr-miroslav-valouch-cheb.html","1319"
"5","Cukrárna","Cukrárna Kapucín","https://www.firmy.cz/detail/242250-cukrarna-kapucin-cheb.html","1180"
"6","Divadlo","Západočeské divadlo v Chebu","https://www.firmy.cz/detail/396999-zapadoceske-divadlo-v-chebu-cheb.html","1028"
"7","Restaurace","Restaurace Skalka","https://www.firmy.cz/detail/13108243-restaurace-skalka-cheb.html","231"
"8","Lékař","MUDr. Daniela Kučerová","https://www.firmy.cz/detail/378582-mudr-daniela-kucerova-cheb.html","345"
"9","Bus MHD","Cheb, Skalka sídliště","https://mapy.cz/zakladni?x=12.3561931264799&y=50.0739729738015&z=17&source=pubt&id=15286795","230"
"10","Školka","MŠ Cheb, Do Zátiší","https://www.firmy.cz/detail/2146824-ms-cheb-do-zatisi-cheb.html","113"
"11","Sportoviště","Tenisklub Cheb","https://www.firmy.cz/detail/299193-tenisklub-cheb-cheb.html","497"
"12","Vlak","Cheb-Skalka","https://mapy.cz/zakladni?x=12.3482162876&y=50.0741102524&z=17&source=pubt&id=15213463","501"
"13","Škola","1. ZŠ Cheb, Americká","https://www.firmy.cz/detail/357333-1-zs-cheb-americka-cheb.html","345"
"14","Obchod","Albert Hypermarket","https://www.firmy.cz/detail/12920930-albert-hypermarket-cheb.html","907"
"15","Lékárna","Lékárna BONATE","https://www.firmy.cz/detail/12889793-lekarna-bonate-cheb.html","758"
"16","Pošta","Pošta Cheb 4 - Česká pošta, s.p.","https://www.firmy.cz/detail/216435-posta-cheb-4-cheb.html","231"
"17","Bankomat","Bankomat České spořitelny","https://www.firmy.cz/detail/591824-bankomat-ceske-sporitelny-cheb.html","901"
