"","facility_type","facility_name","facility_iri","facility_distance"
"0","Hřiště","Dětské hřiště","https://mapy.cz/zakladni?x=14.964807964221558&y=48.75945193495291&z=17&source=osm&id=1003732463","743"
"1","Večerka","Supermarket Trefa","https://www.firmy.cz/detail/2616157-supermarket-trefa-ceske-velenice.html","977"
"2","Cukrárna","Rodinná kavárna ""V Křesle""","https://www.firmy.cz/detail/12868137-rodinna-kavarna-v-kresle-ceske-velenice.html","923"
"3","Hospoda","Pani's Treff","https://mapy.cz/zakladni?x=14.985753855976638&y=48.766718625908695&z=17&source=osm&id=1053522653","2310"
"4","Kino","Kino Gmünd","https://mapy.cz/zakladni?x=14.983421058631416&y=48.773452437404174&z=17&source=osm&id=11944107","2451"
"5","Obchod","Haihang Shopping center","https://www.firmy.cz/detail/13130540-haihang-shopping-center-ceske-velenice.html","1990"
"6","Lékárna","Lékárna Vitalis","https://www.firmy.cz/detail/12985569-lekarna-vitalis-ceske-velenice.html","1065"
"7","Pošta","Pošta České Velenice - Česká pošta, s.p.","https://www.firmy.cz/detail/217082-posta-ceske-velenice-ceske-velenice.html","902"
"8","Vlak","České Velenice","https://mapy.cz/zakladni?x=14.9577759188&y=48.769532704&z=17&source=pubt&id=15211183","901"
"9","Restaurace","Café Restaurant","https://www.firmy.cz/detail/12949263-cafe-restaurant-ceske-velenice.html","902"
"10","Lékař","MUDr. Kamil Janda","https://www.firmy.cz/detail/389382-mudr-kamil-janda-ceske-velenice.html","1056"
"11","Školka","MŠ České Velenice, Sídliště na Sadech","https://www.firmy.cz/detail/727049-ms-ceske-velenice-sidliste-na-sadech-ceske-velenice.html","1052"
"12","Bankomat","Bankomat České spořitelny","https://www.firmy.cz/detail/2609926-bankomat-ceske-sporitelny-ceske-velenice.html","1102"
"13","Sportoviště","Sportoviště","https://mapy.cz/zakladni?x=14.977626438690315&y=48.76662805945441&z=17&source=osm&id=1047146695","1735"
"14","Škola","Střední škola České Velenice","https://www.firmy.cz/detail/361270-stredni-skola-ceske-velenice-ceske-velenice.html","959"
"15","Bus MHD","Wielands Gmünder Straße","https://mapy.cz/zakladni?x=14.952338728423172&y=48.75935168739049&z=17&source=osm&id=1073143166","327"
