"","facility_type","facility_name","facility_iri","facility_distance"
"0","Cukrárna","Cukrářství Jelínková","https://www.firmy.cz/detail/1951604-cukrarstvi-jelinkova-znojmo.html","325"
"1","Kino","Kino Svět","https://www.firmy.cz/detail/151310-kino-svet-znojmo.html","86"
"2","Přírodní zajímavost","Gránické údolí","","1084"
"3","Hřiště","Dětské hřiště Dolní park","","266"
"4","Večerka","Moravěnka","https://www.firmy.cz/detail/2628145-moravenka-znojmo.html","385"
"5","Hospoda","Pivnice U Bárta","https://www.firmy.cz/detail/13115514-pivnice-u-barta-znojmo.html","385"
"6","Divadlo","Městské divadlo Znojmo","https://www.firmy.cz/detail/230910-mestske-divadlo-znojmo-znojmo.html","344"
"7","Veterinář","Veterinární ordinace MVDr. Maxim Bojko","https://www.firmy.cz/detail/12935174-veterinarni-ordinace-mvdr-maxim-bojko-znojmo.html","472"
"8","Obchod","Kaufland","https://www.firmy.cz/detail/1452574-kaufland-znojmo.html","450"
"9","Lékárna","Dr. Max","https://www.firmy.cz/detail/2007343-dr-max-znojmo.html","372"
"10","Škola","Střední zdravotnická škola a Vyšší odborná škola zdravotnická Znojmo","https://www.firmy.cz/detail/2204525-stredni-zdravotnicka-skola-a-vyssi-odborna-skola-zdravotnicka-znojmo-znojmo.html","155"
"11","Vlak","Znojmo","","501"
"12","Pošta","Pošta Znojmo 1 - Česká pošta, s.p.","https://www.firmy.cz/detail/216356-posta-znojmo-1-znojmo.html","467"
"13","Restaurace","Cafe & Beer Haus","https://www.firmy.cz/detail/13292820-cafe-beer-haus-znojmo.html","56"
"14","Školka","MŠ, ZŠ a Praktická škola Znojmo, Mládeže","https://www.firmy.cz/detail/362706-ms-zs-a-prakticka-skola-znojmo-mladeze-znojmo.html","179"
"15","Sportoviště","Orel jednota Znojmo","https://www.firmy.cz/detail/1962890-orel-jednota-znojmo-znojmo.html","290"
"16","Bankomat","Vkladomat mBank","https://www.firmy.cz/detail/13190401-vkladomat-mbank-znojmo.html","141"
"17","Bus MHD","Znojmo, Mariánské nám.","","82"
"18","Lékař","MUDr. Pavel Kazdera - ALSANA - lékařské služby, s.r.o.","https://www.firmy.cz/detail/13271972-mudr-pavel-kazdera-znojmo.html","143"
