"","facility_type","facility_name","facility_iri","facility_distance"
"0","Cukrárna","Bertík Café - Dětský koutek s kavárnou","https://www.firmy.cz/detail/13010963-bertik-cafe-detsky-koutek-s-kavarnou-most.html","220"
"1","Kino","Kino Kosmos","https://www.firmy.cz/detail/401279-kino-kosmos-most.html","668"
"2","Hřiště","Dětské hřiště Lipová","","124"
"3","Večerka","Albert Supermarket","https://www.firmy.cz/detail/446978-albert-supermarket-most.html","181"
"4","Divadlo","Divadlo rozmanitostí","https://www.firmy.cz/detail/397090-divadlo-rozmanitosti-most.html","135"
"5","Hospoda","Pivnice Mařenka","https://www.firmy.cz/detail/2520685-pivnice-marenka-most.html","285"
"6","Veterinář","Veterinka U Tlapiček","https://www.firmy.cz/detail/12758413-veterinka-u-tlapicek-most.html","242"
"7","Školka","MŠ Most, Růžová","https://www.firmy.cz/detail/722069-ms-most-ruzova-most.html","278"
"8","Bus MHD","Most, Aquadrom","","186"
"9","Lékař","MUDr. Lenka Kahánková","https://www.firmy.cz/detail/383581-mudr-lenka-kahankova-most.html","295"
"10","Restaurace","Plzeňka U Žejdlíků","https://www.firmy.cz/detail/2326714-plzenka-u-zejdliku-most.html","136"
"11","Obchod","Retail Park Most","https://www.firmy.cz/detail/13195413-retail-park-most-most.html","950"
"12","Sportoviště","Pétanque aquadrom","","278"
"13","Škola","Střední odborná škola podnikatelská, s.r.o.","https://www.firmy.cz/detail/164125-stredni-odborna-skola-podnikatelska-most.html","279"
"14","Tram","Most, Velebudická","","835"
"15","Bankomat","Bankomat ČSOB","https://www.firmy.cz/detail/12776893-bankomat-csob-most.html","221"
"16","Pošta","Pošta Most 11 - Česká pošta, s.p.","https://www.firmy.cz/detail/216959-posta-most-11-most.html","221"
"17","Lékárna","Dr. Max LÉKÁRNA","https://www.firmy.cz/detail/2007251-dr-max-lekarna-most.html","357"
"18","Vlak","Most","","1950"
