"","facility_type","facility_name","facility_iri","facility_distance"
"0","Cukrárna","Small piece of Sara","https://www.firmy.cz/detail/13291634-small-piece-of-sara-liberec-iii-jerab.html","499"
"1","Kino","Kino Varšava","https://www.firmy.cz/detail/12951225-kino-varsava-liberec-i-stare-mesto.html","557"
"2","Hřiště","Dětské hřiště Puchmajerova","","299"
"3","Přírodní zajímavost","Opičák","","1683"
"4","Večerka","Můjobchod - Potraviny U sedláka","https://www.firmy.cz/detail/13163076-mujobchod-potraviny-u-sedlaka-liberec-xi-ruzodol-i.html","462"
"5","Divadlo","Malé divadlo","https://www.firmy.cz/detail/397046-male-divadlo-liberec-i-stare-mesto.html","325"
"6","Hospoda","Club bar Opera","https://www.firmy.cz/detail/13114497-club-bar-opera-liberec-ii-nove-mesto.html","212"
"7","Veterinář","MVDr. Zdeněk Cvrček","https://www.firmy.cz/detail/304238-mvdr-zdenek-cvrcek-liberec-ii-nove-mesto-liberec-2.html","293"
"8","Lékař","MUDr. Alena Brabcová s.r.o.","https://www.firmy.cz/detail/12990402-mudr-alena-brabcova-s-r-o-liberec.html","431"
"9","Obchod","OC Plaza Liberec","https://www.firmy.cz/detail/13175980-oc-plaza-liberec-liberec-i-stare-mesto.html","804"
"10","Pošta","Pošta Liberec 1 - Česká pošta, s.p.","https://www.firmy.cz/detail/215967-posta-liberec-1-liberec-i-stare-mesto.html","765"
"11","Školka","MŠ Rolnička Liberec","https://www.firmy.cz/detail/1457998-ms-rolnicka-liberec-liberec-ii-nove-mesto.html","128"
"12","Bus MHD","U Soudu","","140"
"13","Bankomat","Bankomat UniCredit Bank Czech Republic","https://www.firmy.cz/detail/1964653-bankomat-unicredit-bank-czech-republic-liberec-iii-jerab.html","533"
"14","Tram","Rybníček","","690"
"15","Škola","ZŠ, Liberec, U Soudu","https://www.firmy.cz/detail/358004-zs-liberec-u-soudu-liberec-ii-nove-mesto.html","131"
"16","Vlak","Liberec","","1106"
"17","Restaurace","Tomáš Gunár","https://www.firmy.cz/detail/13189370-tomas-gunar-liberec-ii-nove-mesto-liberec-2.html","280"
"18","Sportoviště","Urban Jump Arena","https://www.firmy.cz/detail/13198647-urban-jump-arena-liberec-iii-jerab.html","541"
"19","Lékárna","Lékárna U Orla","https://www.firmy.cz/detail/376098-lekarna-u-orla-liberec-iii-jerab.html","635"
