"","facility_type","facility_name","facility_iri","facility_distance"
"0","Cukrárna","Café Coffee Day","https://www.firmy.cz/detail/12880492-cafe-coffee-day-most.html","351"
"1","Kino","Kino Kosmos","https://www.firmy.cz/detail/401279-kino-kosmos-most.html","217"
"2","Hřiště","Dětské hřiště Františka Halase","","325"
"3","Večerka","Večerka U Mikáda","https://www.firmy.cz/detail/12931107-vecerka-u-mikada-most.html","192"
"4","Hospoda","Pivnice Na Trhu","https://www.firmy.cz/detail/13113975-pivnice-na-trhu-most.html","204"
"5","Divadlo","Městské divadlo v Mostě, spol. s r.o.","https://www.firmy.cz/detail/1336052-mestske-divadlo-v-moste-most.html","295"
"6","Veterinář","VETERINA-MOST","https://www.firmy.cz/detail/12832535-veterina-most-most.html","739"
"7","Sportoviště","TJ Slavia Most","https://www.firmy.cz/detail/2648769-tj-slavia-most-most.html","152"
"8","Škola","ZŠ Most, Obránců míru","https://www.firmy.cz/detail/358327-zs-most-obrancu-miru-most.html","53"
"9","Obchod","Albert Hypermarket","https://www.firmy.cz/detail/2146438-albert-hypermarket-most.html","230"
"10","Bus MHD","Most, Kino Kosmos","","107"
"11","Školka","MŠ Most, Hutnická","https://www.firmy.cz/detail/1336416-ms-most-hutnicka-most.html","299"
"12","Bankomat","Bankomat Komerční banky","https://www.firmy.cz/detail/596417-bankomat-komercni-banky-most.html","105"
"13","Lékař","MUDr. Jana Novotná","https://www.firmy.cz/detail/13274357-mudr-jana-novotna-most.html","356"
"14","Pošta","Pošta Most 1 - Česká pošta, s.p.","https://www.firmy.cz/detail/216966-posta-most-1-most.html","625"
"15","Restaurace","Restaurace GoodGate","https://www.firmy.cz/detail/13029200-restaurace-goodgate-most.html","105"
"16","Vlak","Most","","1824"
"17","Tram","Most, 1.nám.","","239"
"18","Lékárna","BENU Lékárna","https://www.firmy.cz/detail/12847653-benu-lekarna-most.html","204"
