"","facility_type","facility_name","facility_iri","facility_distance"
"0","Cukrárna","Sladká Pohotovost - Fanynka","https://www.firmy.cz/detail/13299215-sladka-pohotovost-fanynka-praha-stodulky.html","883"
"1","Kino","Cinema City Zličín","https://www.firmy.cz/detail/436222-cinema-city-zlicin-praha-trebonice.html","2721"
"2","Přírodní zajímavost","Kovářovic mez","","2973"
"3","Hřiště","Dětské hřiště Holýšovská","","110"
"4","Večerka","BILLA","https://www.firmy.cz/detail/212083-billa-praha-stodulky.html","406"
"5","Hospoda","Bernard Pub U Jezera","https://www.firmy.cz/detail/13020276-bernard-pub-u-jezera-praha-stodulky.html","757"
"6","Divadlo","Divadelní studio Bubec","https://www.firmy.cz/detail/13047862-divadelni-studio-bubec-praha-reporyje.html","916"
"7","Veterinář","VETCENTRUM Duchek s.r.o.","https://www.firmy.cz/detail/723312-vetcentrum-duchek-s-r-o-praha-stodulky.html","1838"
"8","Restaurace","Tiffins by NEBU","https://www.firmy.cz/detail/13332447-tiffins-by-nebu-praha-stodulky.html","317"
"9","Škola","Fakultní ZŠ Pedagogické fakulty UK Praha 13, Trávníčkova","https://www.firmy.cz/detail/396316-fakultni-zs-pedagogicke-fakulty-uk-praha-13-travnickova-praha-stodulky.html","275"
"10","Lékař","Praktický lékař -  MUDr. Ondřej Pospíšil- praktický lékař","https://www.firmy.cz/detail/13172959-prakticky-lekar-mudr-ondrej-pospisil-prakticky-lekar-praha-stodulky.html","159"
"11","Sportoviště","Fitness Balance","https://www.firmy.cz/detail/2628300-fitness-balance-praha-stodulky.html","380"
"12","Vlak","Praha-Řeporyje","","1204"
"13","Lékárna","Lékárna LUKA","https://www.firmy.cz/detail/2634879-lekarna-luka-praha-stodulky.html","434"
"14","Školka","MŠ Píšťalka, Praha 13","https://www.firmy.cz/detail/2408379-ms-pistalka-praha-13-praha-stodulky.html","338"
"15","Bankomat","Bankomat ČSOB","https://www.firmy.cz/detail/12965966-bankomat-csob-praha-stodulky.html","317"
"16","Metro","Luka","","502"
"17","Pošta","Česká pošta Praha 54 - Česká pošta, s.p.","https://www.firmy.cz/detail/13030020-ceska-posta-praha-54-praha-stodulky.html","927"
"18","Obchod","MAKRO Cash & Carry","https://www.firmy.cz/detail/152419-makro-cash-carry-praha-stodulky.html","317"
"19","Tram","Hlušičkova","","2537"
"20","Bus MHD","Holýšovská","","116"
