"","facility_type","facility_name","facility_iri","facility_distance"
"0","Cukrárna","Cukrářství a perníkářství Mamka","https://www.firmy.cz/detail/12799583-cukrarstvi-a-pernikarstvi-mamka-olomouc.html","1926"
"1","Kino","Multikino - Premiere Cinemas Olomouc","https://www.firmy.cz/detail/12833601-multikino-premiere-cinemas-olomouc-olomouc.html","2977"
"2","Hřiště","Dětské hřiště U Cukrovaru","","707"
"3","Večerka","HRUŠKA - Jana Kratochvílová","https://www.firmy.cz/detail/2070682-hruska-jana-kratochvilova-olomouc-holice.html","376"
"4","Hospoda","Klondike","https://www.firmy.cz/detail/13153026-klondike-olomouc-holice.html","1042"
"5","Divadlo","Divadlo na Šantovce, o.p.s.","https://www.firmy.cz/detail/12833588-divadlo-na-santovce-olomouc.html","2964"
"6","Veterinář","MVDr. Petr Procházka","https://www.firmy.cz/detail/718699-mvdr-petr-prochazka-olomouc-holice.html","350"
"7","Lékárna","Lékárna Holice","https://www.firmy.cz/detail/13150287-lekarna-holice-olomouc-holice.html","588"
"8","Sportoviště","Resort Hodolany","https://www.firmy.cz/detail/13185700-resort-hodolany-olomouc-hodolany.html","1437"
"9","Škola","ZŠ a MŠ Olomouc - Holice, Náves Svobody","https://www.firmy.cz/detail/489393-zs-a-ms-olomouc-holice-naves-svobody-olomouc-holice.html","698"
"10","Školka","ZŠ a MŠ Olomouc - Holice, Náves Svobody","https://www.firmy.cz/detail/728227-zs-a-ms-olomouc-holice-naves-svobody-olomouc-holice.html","703"
"11","Bankomat","Bankomat České spořitelny","https://www.firmy.cz/detail/2290322-bankomat-ceske-sporitelny-olomouc-hodolany.html","1173"
"12","Restaurace","Motorest Česká hospoda","https://www.firmy.cz/detail/12979415-motorest-ceska-hospoda-olomouc-holice.html","229"
"13","Pošta","Pošta Olomouc 17 - Česká pošta, s.p.","https://www.firmy.cz/detail/432395-posta-olomouc-17-olomouc-holice.html","719"
"14","Lékař","Scillia - med, s.r.o.","https://www.firmy.cz/detail/12860279-scillia-med-olomouc-holice.html","249"
"15","Obchod","Kaufland","https://www.firmy.cz/detail/1459159-kaufland-olomouc-hodolany.html","2118"
"16","Bus MHD","Staškova","","118"
"17","Tram","Aut. nádraží podchod","","1454"
"18","Vlak","Olomouc hlavní nádraží","","2052"
