"","facility_type","facility_name","facility_iri","facility_distance"
"0","Cukrárna","Pekárna Nostress bakery","https://www.firmy.cz/detail/308884-pekarna-nostress-bakery-praha-stare-mesto.html","33"
"1","Kino","Kino Ponrepo","https://www.firmy.cz/detail/396455-kino-ponrepo-praha-stare-mesto.html","876"
"2","Hřiště","Dětské hřiště sportovní areál Masná","","234"
"3","Večerka","Albert Supermarket","https://www.firmy.cz/detail/209512-albert-supermarket-praha-stare-mesto.html","390"
"4","Hospoda","Batalion Café & Music Bar","https://www.firmy.cz/detail/457689-batalion-cafe-music-bar-praha-stare-mesto.html","768"
"5","Divadlo","DIVADLO UNGELT s.r.o.","https://www.firmy.cz/detail/2613609-divadlo-ungelt-s-r-o-praha-stare-mesto.html","311"
"6","Veterinář","MVDr. Katka Sviták Novozámská","https://www.firmy.cz/detail/2137713-mvdr-katka-svitak-novozamska-praha-stare-mesto.html","722"
"7","Vlak","Praha Masarykovo nádraží","","880"
"8","Pošta","Pošta Praha 05 - Česká pošta, s.p.","https://www.firmy.cz/detail/431198-posta-praha-05-praha-stare-mesto.html","291"
"9","Lékárna","Lékárna Na Františku","https://www.firmy.cz/detail/376327-lekarna-na-frantisku-praha-stare-mesto.html","284"
"10","Obchod","PALLADIUM Praha","https://www.firmy.cz/detail/2238095-palladium-praha-praha-nove-mesto.html","503"
"11","Bankomat","Bankomat Komerční banky","https://www.firmy.cz/detail/1348491-bankomat-komercni-banky-praha-stare-mesto.html","213"
"12","Restaurace","Katr restaurant","https://www.firmy.cz/detail/2293391-katr-restaurant-praha-stare-mesto.html","44"
"13","Školka","MŠ Praha, Masná","https://www.firmy.cz/detail/1968715-ms-praha-masna-praha-stare-mesto.html","167"
"14","Bus MHD","U Staré školy","","70"
"15","Metro","Staroměstská","","460"
"16","Sportoviště","Sportovní areál Na Františku","https://www.firmy.cz/detail/2307461-sportovni-areal-na-frantisku-praha-stare-mesto.html","248"
"17","Lékař","MUDr. Otakar Maňas","https://www.firmy.cz/detail/388352-mudr-otakar-manas-praha-stare-mesto.html","384"
"18","Tram","Právnická fakulta","","360"
"19","Škola","Obchodní akademie Dušní","https://www.firmy.cz/detail/362750-obchodni-akademie-dusni-praha-stare-mesto.html","139"
