"","facility_type","facility_name","facility_iri","facility_distance"
"0","Hřiště","Dětské hřiště Mádrova","https://mapy.cz/zakladni?x=14.417615475&y=50.010708404&z=17&source=base&id=1926756","242"
"1","Přírodní zajímavost","Kovářovic mez","https://mapy.cz/zakladni?x=14.36107759920759&y=50.04395254566995&z=17&source=base&id=2339664","5623"
"2","Večerka","BILLA","https://www.firmy.cz/detail/450490-billa-praha-modrany.html","213"
"3","Divadlo","Divadlo Na Cikorce","https://www.firmy.cz/detail/2387865-divadlo-na-cikorce-praha-modrany.html","502"
"4","Veterinář","Náš veterinář - MVDr. Nikola Hanáková","https://www.firmy.cz/detail/13011207-nas-veterinar-mvdr-nikola-hanakova-praha-modrany.html","354"
"5","Cukrárna","Cukrárna Simona","https://www.firmy.cz/detail/13269986-cukrarna-simona-praha-modrany.html","215"
"6","Hospoda","Pivnice Modřany","https://www.firmy.cz/detail/12993019-pivnice-modrany-praha-modrany.html","587"
"7","Kino","Modřanský biograf","https://www.firmy.cz/detail/13272765-modransky-biograf-praha-modrany.html","1072"
"8","Obchod","Obchodní centrum Modřany","https://www.firmy.cz/detail/13045936-obchodni-centrum-modrany-praha-modrany.html","230"
"9","Pošta","Pošta Praha 412 - Česká pošta, s.p.","https://www.firmy.cz/detail/217477-posta-praha-412-praha-modrany.html","324"
"10","Bankomat","Bankomat České spořitelny","https://www.firmy.cz/detail/594808-bankomat-ceske-sporitelny-praha-modrany.html","227"
"11","Lékař","Poliklinika Modřany","https://www.firmy.cz/detail/197957-poliklinika-modrany-praha-modrany.html","368"
"12","Školka","MŠ Jahůdka Praha 12","https://www.firmy.cz/detail/406745-ms-jahudka-praha-12-praha-modrany.html","335"
"13","Vlak","Praha-Modřany zastávka","https://mapy.cz/zakladni?x=14.4031168361&y=50.0039862735&z=17&source=pubt&id=15212573","1132"
"14","Tram","Poliklinika Modřany","https://mapy.cz/zakladni?x=14.4196214469&y=50.0048223579&z=17&source=pubt&id=15302068","446"
"15","Bus MHD","Tylova čtvrť","https://mapy.cz/zakladni?x=14.415659490538616&y=50.00817302172918&z=17&source=pubt&id=15302939","123"
"16","Sportoviště","Tenisová škola Tallent","https://www.firmy.cz/detail/722759-tenisova-skola-tallent-praha-modrany.html","475"
"17","Lékárna","Lékárna Scarabeus","https://www.firmy.cz/detail/12799840-lekarna-scarabeus-praha-modrany.html","271"
"18","Restaurace","Jaro Restaurace","https://www.firmy.cz/detail/13269989-jaro-restaurace-praha-modrany.html","265"
"19","Škola","ZUŠ Adolfa Voborského, Praha 4","https://www.firmy.cz/detail/198363-zus-adolfa-voborskeho-praha-4-praha-modrany.html","126"
"20","Metro","Budějovická","https://mapy.cz/zakladni?x=14.4501600237&y=50.0431959578&z=17&source=pubt&id=15200208","4512"
