"","facility_type","facility_name","facility_iri","facility_distance"
"0","Cukrárna","Cukrárna Nádražní 135","https://www.firmy.cz/detail/13138953-cukrarna-nadrazni-135-stankov-ii.html","4817"
"1","Hřiště","Dětské hřiště Vránov","","3270"
"2","Večerka","COOP","https://www.firmy.cz/detail/212243-coop-osvracin.html","513"
"3","Hospoda","OSVRAČÍNSKÁ HOSPODA","https://www.firmy.cz/detail/13140238-osvracinska-hospoda-osvracin.html","164"
"4","Veterinář","MVDr. Jan Vojta - všeobecná veterinární činnost","https://www.firmy.cz/detail/2116226-mvdr-jan-vojta-vseobecna-veterinarni-cinnost-blizejov.html","4152"
"5","Školka","ZŠ a MŠ Osvračín","https://www.firmy.cz/detail/736818-zs-a-ms-osvracin-osvracin.html","248"
"6","Bus MHD","Osvračín","","164"
"7","Restaurace","Karel Karman","https://www.firmy.cz/detail/2257366-karel-karman-blizejov-privozec.html","2782"
"8","Pošta","Pošta Partner - Osvračín","https://www.firmy.cz/detail/13093405-posta-partner-osvracin-osvracin.html","513"
"9","Vlak","Osvračín","","711"
"10","Bankomat","Bankomat ČSOB","https://www.firmy.cz/detail/13252106-bankomat-csob-stankov-ii.html","4834"
"11","Lékař","MUDr. Marta Cihlářová","https://www.firmy.cz/detail/388388-mudr-marta-cihlarova-stankov-ii.html","4786"
"12","Lékárna","Lékárna U Matky Boží, s.r.o.","https://www.firmy.cz/detail/635654-lekarna-u-matky-bozi-stankov-ii.html","4788"
"13","Škola","ZŠ a MŠ Osvračín","https://www.firmy.cz/detail/358752-zs-a-ms-osvracin-osvracin.html","248"
"14","Sportoviště","Město Staňkov","https://www.firmy.cz/detail/12842177-mesto-stankov-stankov.html","4567"
