"","facility_type","facility_name","facility_iri","facility_distance"
"0","Hřiště","Dětské hřiště Nový lesík","https://mapy.cz/zakladni?x=14.3708128415&y=50.0930008289&z=17&source=base&id=1926261","65"
"1","Hospoda","Hostinec Drinopol","https://www.firmy.cz/detail/328447-hostinec-drinopol-praha-brevnov.html","1087"
"2","Divadlo","KAŠTAN - Scéna Unijazzu","https://www.firmy.cz/detail/397273-kastan-scena-unijazzu-praha-brevnov.html","1299"
"3","Večerka","Smíšené zboží U dejvického rybníčku 1890/17","https://www.firmy.cz/detail/2470009-smisene-zbozi-u-dejvickeho-rybnicku-1890-17-praha-dejvice.html","368"
"4","Cukrárna","Cafe bar na Andělce","https://www.firmy.cz/detail/12848581-cafe-bar-na-andelce-praha-stresovice.html","539"
"5","Veterinář","MVDr. Anatólii Bank","https://www.firmy.cz/detail/1994107-mvdr-anatolii-bank-praha-dejvice.html","1009"
"6","Kino","Cinema City Nový Smíchov","https://www.firmy.cz/detail/2679838-cinema-city-novy-smichov-praha-smichov.html","3165"
"7","Škola","Park Lane International School, a.s.","https://www.firmy.cz/detail/2247894-park-lane-international-school-praha-stresovice.html","500"
"8","Lékárna","BENU Lékárna","https://www.firmy.cz/detail/375355-benu-lekarna-praha-vokovice.html","505"
"9","Tram","Baterie","https://mapy.cz/zakladni?x=14.3700411768&y=50.0925006128&z=17&source=pubt&id=15301697","114"
"10","Školka","Jesle Naruby - Klub Tamino","https://www.firmy.cz/detail/591511-jesle-naruby-klub-tamino-praha-brevnov.html","477"
"11","Sportoviště","Tělocvičná jednota Sokol Praha Střešovice, ČOS","https://www.firmy.cz/detail/2128310-telocvicna-jednota-sokol-praha-stresovice-cos-praha-stresovice.html","539"
"12","Metro","Bořislavka","https://mapy.cz/zakladni?x=14.364847&y=50.098244&z=17&source=pubt&id=15707262","657"
"13","Vlak","Praha-Veleslavín","https://mapy.cz/zakladni?x=14.3462189416&y=50.0950055146&z=17&source=pubt&id=15212584","1729"
"14","Bus MHD","Baterie","https://mapy.cz/zakladni?x=14.37004&y=50.09264&z=17&source=pubt&id=19850894","99"
"15","Lékař","MUDr. Zdenka Šmejkalová","https://www.firmy.cz/detail/381443-mudr-zdenka-smejkalova-praha-vokovice.html","505"
"16","Restaurace","Restaurace Chládek","https://www.firmy.cz/detail/13201841-restaurace-chladek-praha-veleslavin.html","379"
"17","Bankomat","Bankomat České spořitelny","https://www.firmy.cz/detail/12738379-bankomat-ceske-sporitelny-praha-vokovice.html","676"
"18","Pošta","Pošta Praha 65 - Česká pošta, s.p.","https://www.firmy.cz/detail/216702-posta-praha-65-praha-vokovice.html","733"
"19","Obchod","Kaufland","https://www.firmy.cz/detail/12720219-kaufland-praha-dejvice.html","2589"
