"","facility_type","facility_name","facility_iri","facility_distance"
"0","Cukrárna","MRAVENIŠTĚ - dětský koutek - kavárna - bazárek","https://www.firmy.cz/detail/2667725-mraveniste-detsky-koutek-kavarna-bazarek-olomouc.html","482"
"1","Kino","5D cinema Maxim","https://www.firmy.cz/detail/12950601-5d-cinema-maxim-olomouc.html","732"
"2","Hřiště","Dětské hřiště Mišákova","","228"
"3","Večerka","Lidl","https://www.firmy.cz/detail/1958243-lidl-olomouc.html","90"
"4","Divadlo","Divadlo na Šantovce, o.p.s.","https://www.firmy.cz/detail/12833588-divadlo-na-santovce-olomouc.html","802"
"5","Hospoda","JACOBO EUROPE CZ a.s.","https://www.firmy.cz/detail/13150832-jacobo-europe-cz-a-s-olomouc-povel.html","210"
"6","Veterinář","Veterinární ordinace OrdinaVet","https://www.firmy.cz/detail/12984041-veterinarni-ordinace-ordinavet-olomouc-povel.html","392"
"7","Školka","Fakultní ZŠ a MŠ Olomouc, Schweitzerova","https://www.firmy.cz/detail/2590866-fakultni-zs-a-ms-olomouc-schweitzerova-olomouc-povel.html","192"
"8","Lékař","MUDr. Marie Rajmonová","https://www.firmy.cz/detail/386346-mudr-marie-rajmonova-olomouc-povel.html","610"
"9","Bus MHD","U Botanické zahrady","","128"
"10","Lékárna","Lékárna Povel","https://www.firmy.cz/detail/658742-lekarna-povel-olomouc-povel.html","600"
"11","Škola","Střední škola a Základní škola DC 90, s.r.o.","https://www.firmy.cz/detail/2196796-stredni-skola-a-zakladni-skola-dc-90-olomouc-povel.html","235"
"12","Restaurace","Restaurace Admiral","https://www.firmy.cz/detail/13110634-restaurace-admiral-olomouc-povel.html","239"
"13","Obchod","Albert Hypermarket","https://www.firmy.cz/detail/12924402-albert-hypermarket-olomouc.html","746"
"14","Sportoviště","BOWLAND bowling center","https://www.firmy.cz/detail/12841946-bowland-bowling-center-olomouc.html","843"
"15","Tram","Wolkerova","","535"
"16","Bankomat","Bankomat MONETA Money Bank","https://www.firmy.cz/detail/13311268-bankomat-moneta-money-bank-olomouc.html","96"
"17","Pošta","Pošta Olomouc 12 - Česká pošta, s.p.","https://www.firmy.cz/detail/215270-posta-olomouc-12-olomouc-povel.html","647"
"18","Vlak","Olomouc-Smetanovy sady","","537"
