"","facility_type","facility_name","facility_iri","facility_distance"
"0","Hřiště","Dětské hřiště Lhota","https://mapy.cz/zakladni?x=13.321719888&y=49.6897745913&z=17&source=base&id=1926157","586"
"1","Cukrárna","Cukrárna u Jakuba","https://www.firmy.cz/detail/13011278-cukrarna-u-jakuba-plzen-lhota.html","650"
"2","Večerka","Západočeské konzumní družstvo Plzeň - COOP","https://www.firmy.cz/detail/461839-zapadoceske-konzumni-druzstvo-plzen-coop-plzen-lhota.html","709"
"3","Kino","Kulturní zařízení Káčko","https://www.firmy.cz/detail/12855409-kulturni-zarizeni-kacko-dobrany.html","4391"
"4","Veterinář","MVDr. Tereza Křížová","https://www.firmy.cz/detail/2132666-mvdr-tereza-krizova-dobrany.html","4055"
"5","Hospoda","HOSPODA ""Na návsi""","https://www.firmy.cz/detail/13118111-hospoda-na-navsi-nova-ves.html","1551"
"6","Bus MHD","Lhota","https://mapy.cz/zakladni?x=13.3209495738&y=49.6898804163&z=17&source=pubt&id=15697528","532"
"7","Vlak","Dobřany zastávka","https://mapy.cz/zakladni?x=13.3244093149&y=49.6819643606&z=17&source=pubt&id=15211248","1157"
"8","Sportoviště","Tělovýchovná jednota Plzeň - Litice","https://www.firmy.cz/detail/13083514-telovychovna-jednota-plzen-litice-plzen-litice.html","2496"
"9","Školka","Mateřská škola Plzeň - Lhota, Ke Křížku 19, příspěvková organizace","https://www.firmy.cz/detail/13154927-materska-skola-plzen-lhota-ke-krizku-19-prispevkova-organizace-plzen-lhota.html","462"
"10","Restaurace","Hospůdka Na Návsi","https://www.firmy.cz/detail/13118580-hospudka-na-navsi-plzen-lhota.html","611"
"11","Tram","Univerzita","https://mapy.cz/zakladni?x=13.34727001&y=49.72634125&z=17&source=pubt&id=19664331","4745"
"12","Bankomat","Bankomat České spořitelny","https://www.firmy.cz/detail/592063-bankomat-ceske-sporitelny-dobrany.html","4033"
"13","Lékař","MUDr. Ludmila Horová","https://www.firmy.cz/detail/2466849-mudr-ludmila-horova-dobrany.html","4033"
"14","Pošta","Pošta Plzeň 21 - Česká pošta, s.p.","https://www.firmy.cz/detail/216654-posta-plzen-21-plzen-litice.html","2929"
"15","Škola","26. základní škola Plzeň, Skupova 22, příspěvková organizace","https://www.firmy.cz/detail/2135963-26-zakladni-skola-plzen-skupova-22-prispevkova-organizace-plzen-litice.html","3018"
"16","Obchod","MAKRO Cash & Carry","https://www.firmy.cz/detail/325619-makro-cash-carry-plzen-skvrnany.html","4364"
"17","Lékárna","Lékárna Devětsil","https://www.firmy.cz/detail/376024-lekarna-devetsil-dobrany.html","3788"
