"","facility_type","facility_name","facility_iri","facility_distance"
"0","Hřiště","Dětské hřiště U Křížku","","976"
"1","Večerka","Potraviny U potoka","https://www.firmy.cz/detail/13298903-potraviny-u-potoka-osecna-lazne-kundratice.html","1143"
"2","Hospoda","Hostinec Na Pince","https://www.firmy.cz/detail/13181213-hostinec-na-pince-cetenov-tesnov.html","4599"
"3","Školka","MŠ Osečná","https://www.firmy.cz/detail/434987-ms-osecna-osecna.html","1111"
"4","Bus MHD","Osečná, Lázně Kundratice, léč.ústav","","687"
"5","Škola","ZŠ Osečná","https://www.firmy.cz/detail/358644-zs-osecna-osecna.html","1111"
"6","Lékárna","OOVL - L Český Dub","https://www.firmy.cz/detail/12730465-oovl-l-cesky-dub-osecna.html","1287"
"7","Restaurace","Lázeňská restaurace","https://www.firmy.cz/detail/13078815-lazenska-restaurace-osecna-lazne-kundratice.html","529"
"8","Pošta","Pošta Osečná - Česká pošta, s.p.","https://www.firmy.cz/detail/432052-posta-osecna-osecna.html","1327"
"9","Sportoviště","Lanový park Hamr na Jezeře","","4440"
