"","facility_type","facility_name","facility_iri","facility_distance"
"0","Hřiště","Dětské hřiště Na Tylovách","https://mapy.cz/zakladni?x=17.8799087691&y=49.8708110629&z=17&source=base&id=2239172","127"
"1","Přírodní zajímavost","Raduňský mokřad","https://mapy.cz/zakladni?x=17.934883914672827&y=49.89906161456696&z=17&source=base&id=2241115","4943"
"2","Hospoda","U Rezavého rytíře","https://www.firmy.cz/detail/12949767-u-rezaveho-rytire-hradec-nad-moravici.html","597"
"3","Veterinář","Veterinární ordinace MVDr. Gebauer Marek / Branka","https://www.firmy.cz/detail/2553472-veterinarni-ordinace-mvdr-gebauer-marek-branka-branka-u-opavy.html","1726"
"4","Večerka","HRUŠKA - OKO Potraviny","https://www.firmy.cz/detail/13030575-hruska-oko-potraviny-hradec-nad-moravici.html","265"
"5","Kino","Kino Orion","https://www.firmy.cz/detail/676267-kino-orion-hradec-nad-moravici.html","286"
"6","Cukrárna","Cukrárna Kamahaj Jana Kořistková","https://www.firmy.cz/detail/1989207-cukrarna-kamahaj-jana-koristkova-hradec-nad-moravici.html","308"
"7","Školka","MŠ Hradec nad Moravicí","https://www.firmy.cz/detail/1989098-ms-hradec-nad-moravici-hradec-nad-moravici.html","522"
"8","Škola","ZŠ Hradec nad Moravicí, Opavská","https://www.firmy.cz/detail/357265-zs-hradec-nad-moravici-opavska-hradec-nad-moravici.html","213"
"9","Restaurace","Pivnice na Staré poště","https://www.firmy.cz/detail/13115647-pivnice-na-stare-poste-hradec-nad-moravici.html","400"
"10","Bankomat","Bankomat České spořitelny","https://www.firmy.cz/detail/592357-bankomat-ceske-sporitelny-hradec-nad-moravici.html","264"
"11","Bus MHD","Hradec nad Moravicí, škola","https://mapy.cz/zakladni?x=17.8774136757335&y=49.8707510071144&z=17&source=pubt&id=15286092","240"
"12","Sportoviště","Sportovní areál LAMA","https://www.firmy.cz/detail/2306747-sportovni-areal-lama-hradec-nad-moravici.html","489"
"13","Lékárna","Lékárna Hradec","https://www.firmy.cz/detail/12914180-lekarna-hradec-hradec-nad-moravici.html","488"
"14","Lékař","MUDr. Daniela Rybková","https://www.firmy.cz/detail/387282-mudr-daniela-rybkova-hradec-nad-moravici.html","473"
"15","Pošta","Pošta Hradec nad Moravicí - Česká pošta, s.p.","https://www.firmy.cz/detail/432618-posta-hradec-nad-moravici-hradec-nad-moravici.html","399"
"16","Vlak","Hradec nad Moravicí","https://mapy.cz/zakladni?x=17.8759156628&y=49.877467182&z=17&source=pubt&id=15211486","688"
