"","facility_type","facility_name","facility_iri","facility_distance"
"0","Cukrárna","Laura Coffee","https://www.firmy.cz/detail/2699135-laura-coffee-ostrava-hrabuvka.html","665"
"1","Kino","Kino Luna","https://www.firmy.cz/detail/2642805-kino-luna-ostrava-zabreh.html","1856"
"2","Hřiště","Dětské hřiště Bedřicha Václavka","","149"
"3","Přírodní zajímavost","Zábřežský bludný balvan","","2707"
"4","Večerka","HRUŠKA","https://www.firmy.cz/detail/12820386-hruska-ostrava-belsky-les.html","143"
"5","Hospoda","Posezení Pohoda","https://www.firmy.cz/detail/13110656-posezeni-pohoda-ostrava-stara-bela.html","192"
"6","Divadlo","Divadlo U Lípy","https://www.firmy.cz/detail/2121467-divadlo-u-lipy-ostrava-zabreh.html","1475"
"7","Veterinář","VETERINA U LESA, spol. s r.o.","https://www.firmy.cz/detail/12975472-veterina-u-lesa-ostrava-hrabuvka.html","484"
"8","Bankomat","Bankomat Komerční banky","https://www.firmy.cz/detail/13203603-bankomat-komercni-banky-ostrava.html","188"
"9","Restaurace","Restaurace Maštal","https://www.firmy.cz/detail/13166674-restaurace-mastal-ostrava-belsky-les.html","143"
"10","Školka","ZŠ a MŠ Ostrava, Mitušova 16","https://www.firmy.cz/detail/770633-zs-a-ms-ostrava-mitusova-16-ostrava-hrabuvka.html","339"
"11","Pošta","Pošta Ostrava 30 - Česká pošta, s.p.","https://www.firmy.cz/detail/433336-posta-ostrava-30-ostrava-belsky-les.html","282"
"12","Škola","Střední škola společného stravování, Ostrava-Hrabůvka","https://www.firmy.cz/detail/153843-stredni-skola-spolecneho-stravovani-ostrava-hrabuvka-ostrava-hrabuvka.html","243"
"13","Bus MHD","Bělský les","","428"
"14","Obchod","Tesco Extra","https://www.firmy.cz/detail/218196-tesco-extra-ostrava-hrabova.html","1372"
"15","Lékař","MUDr. Irena Ladiniková","https://www.firmy.cz/detail/386334-mudr-irena-ladinikova-ostrava-hrabuvka.html","588"
"16","Tram","Josefa Kotase","","271"
"17","Lékárna","Dr. Max LÉKÁRNA","https://www.firmy.cz/detail/2525713-dr-max-lekarna-ostrava-dubina.html","352"
"18","Vlak","Ostrava-Vítkovice","","2182"
"19","Sportoviště","Tělovýchovná jednota SBD Ostrava-Zábřeh, o.s.","https://www.firmy.cz/detail/759440-telovychovna-jednota-sbd-ostrava-zabreh-o-s-ostrava-hrabuvka.html","387"
