"","facility_type","facility_name","facility_iri","facility_distance"
"0","Cukrárna","Cukrárna Mocca","https://www.firmy.cz/detail/12947216-cukrarna-mocca-teplice.html","122"
"1","Přírodní zajímavost","Porcelanity u Strak","","3094"
"2","Kino","Multikino - Premiere Cinemas Teplice","https://www.firmy.cz/detail/12861055-multikino-premiere-cinemas-teplice-teplice.html","174"
"3","Hřiště","Dětské hřiště Zámecká zahrada","","721"
"4","Večerka","Lidl","https://www.firmy.cz/detail/13341158-lidl-teplice.html","158"
"5","Hospoda","Hospůdka Vyšehrad Teplice","https://www.firmy.cz/detail/13121903-hospudka-vysehrad-teplice-teplice.html","534"
"6","Divadlo","Krušnohorské divadlo","https://www.firmy.cz/detail/435271-krusnohorske-divadlo-teplice.html","436"
"7","Veterinář","MVDr. Věra Hánová","https://www.firmy.cz/detail/2030919-mvdr-vera-hanova-teplice.html","590"
"8","Pošta","Pošta Teplice 1 - Česká pošta, s.p.","https://www.firmy.cz/detail/215426-posta-teplice-1-teplice.html","168"
"9","Sportoviště","Lanový park Teplice","https://www.firmy.cz/detail/13199196-lanovy-park-teplice-teplice.html","163"
"10","Bankomat","Bankomat Air Bank","https://www.firmy.cz/detail/12874345-bankomat-air-bank-teplice.html","98"
"11","Obchod","Kaufland","https://www.firmy.cz/detail/13187779-kaufland-teplice.html","148"
"12","Vlak","Teplice v Čechách","","883"
"13","Bus MHD","Teplice, Alejní","","38"
"14","Restaurace","KFC","https://www.firmy.cz/detail/12970653-kfc-teplice.html","127"
"15","Lékárna","Dr.Max LÉKÁRNA","https://www.firmy.cz/detail/13280004-dr-max-lekarna-teplice.html","108"
"16","Školka","MŠ Čtyřlístek Teplice","https://www.firmy.cz/detail/770536-ms-ctyrlistek-teplice-teplice.html","265"
"17","Lékař","MUDr. Petr Najman","https://www.firmy.cz/detail/12842554-mudr-petr-najman-teplice.html","260"
"18","Škola","Střední škola obchodu a služeb Teplice","https://www.firmy.cz/detail/360812-stredni-skola-obchodu-a-sluzeb-teplice-teplice.html","134"
