"","facility_type","facility_name","facility_iri","facility_distance"
"0","Cukrárna","Pekárna Nostress bakery","https://www.firmy.cz/detail/308884-pekarna-nostress-bakery-praha-stare-mesto.html","121"
"1","Kino","Cinema City Slovanský dům","https://www.firmy.cz/detail/2679893-cinema-city-slovansky-dum-praha-nove-mesto.html","560"
"2","Hřiště","Dětské hřiště Za Haštalem","","186"
"3","Večerka","Albert Supermarket","https://www.firmy.cz/detail/209512-albert-supermarket-praha-stare-mesto.html","343"
"4","Hospoda","Batalion Café & Music Bar","https://www.firmy.cz/detail/457689-batalion-cafe-music-bar-praha-stare-mesto.html","829"
"5","Divadlo","Divadlo v Dlouhé","https://www.firmy.cz/detail/396894-divadlo-v-dlouhe-praha-stare-mesto.html","230"
"6","Veterinář","MVDr. Katka Sviták Novozámská","https://www.firmy.cz/detail/2137713-mvdr-katka-svitak-novozamska-praha-stare-mesto.html","814"
"7","Vlak","Praha Masarykovo nádraží","","827"
"8","Lékař","MUDr. Otakar Maňas","https://www.firmy.cz/detail/388352-mudr-otakar-manas-praha-stare-mesto.html","291"
"9","Pošta","Pošta Praha 05 - Česká pošta, s.p.","https://www.firmy.cz/detail/431198-posta-praha-05-praha-stare-mesto.html","250"
"10","Lékárna","Lékárna Na Františku","https://www.firmy.cz/detail/376327-lekarna-na-frantisku-praha-stare-mesto.html","265"
"11","Bankomat","Bankomat Komerční banky","https://www.firmy.cz/detail/1348491-bankomat-komercni-banky-praha-stare-mesto.html","150"
"12","Obchod","PALLADIUM Praha","https://www.firmy.cz/detail/2238095-palladium-praha-praha-nove-mesto.html","452"
"13","Bus MHD","Haštalské náměstí","","37"
"14","Tram","Dlouhá třída","","305"
"15","Sportoviště","Squash Haštal","https://www.firmy.cz/detail/13244526-squash-hastal-praha-stare-mesto.html","165"
"16","Restaurace","James Joyce","https://www.firmy.cz/detail/2652236-james-joyce-praha-stare-mesto.html","34"
"17","Škola","1. Slovanské gymnázium a jazyková škola s právem státní jazykové zkoušky","https://www.firmy.cz/detail/736161-1-slovanske-gymnazium-a-jazykova-skola-s-pravem-statni-jazykove-zkousky-praha-stare-mesto.html","163"
"18","Školka","MŠ Praha, Masná","https://www.firmy.cz/detail/1968715-ms-praha-masna-praha-stare-mesto.html","163"
"19","Metro","Náměstí Republiky","","448"
