"","facility_type","facility_name","facility_iri","facility_distance"
"0","Cukrárna","Cukrářství DUO","https://www.firmy.cz/detail/12771026-cukrarstvi-duo-usti-nad-labem-vseborice.html","0"
"1","Kino","Letní kino Ústí nad Labem","https://www.firmy.cz/detail/2556284-letni-kino-usti-nad-labem-usti-nad-labem.html","3448"
"2","Hřiště","Dětské hřiště","","348"
"3","Večerka","Lidl","https://www.firmy.cz/detail/1910670-lidl-usti-nad-labem-vseborice.html","86"
"4","Divadlo","Severočeské divadlo, s.r.o.","https://www.firmy.cz/detail/12720983-severoceske-divadlo-usti-nad-labem-centrum.html","3669"
"5","Hospoda","Hospoda Junior","https://www.firmy.cz/detail/13272261-hospoda-junior-usti-nad-labem-bukov.html","212"
"6","Veterinář","VETERINÁRNÍ ORDINACE TUMA MVDr. & KRÁL MVDr.","https://www.firmy.cz/detail/2136940-veterinarni-ordinace-tuma-mvdr-kral-mvdr-usti-nad-labem-bukov.html","941"
"7","Škola","ZŠ Ústí nad Labem, Pod vodojemem","https://www.firmy.cz/detail/359869-zs-usti-nad-labem-pod-vodojemem-usti-nad-labem-vseborice.html","199"
"8","Školka","Mateřská škola Kytička","https://www.firmy.cz/detail/195408-materska-skola-kyticka-usti-nad-labem-vseborice.html","212"
"9","Restaurace","Krušnohorská restaurace","https://www.firmy.cz/detail/12895624-krusnohorska-restaurace-usti-nad-labem-vseborice.html","20"
"10","Vlak","Ústí nad Labem západ","","3603"
"11","Lékař","MEDIVEL, s.r.o.","https://www.firmy.cz/detail/12889584-medivel-usti-nad-labem-bukov.html","528"
"12","Sportoviště","TJ Lokomotiva Ústí nad Labem, o.s.","https://www.firmy.cz/detail/2402893-tj-lokomotiva-usti-nad-labem-o-s-usti-nad-labem.html","151"
"13","Bus MHD","Všebořická","","78"
"14","Obchod","Kaufland","https://www.firmy.cz/detail/12700918-kaufland-usti-nad-labem-vseborice.html","210"
"15","Pošta","Pošta Ústí nad Labem 10 - Česká pošta, s.p.","https://www.firmy.cz/detail/215932-posta-usti-nad-labem-10-usti-nad-labem-vseborice.html","210"
"16","Lékárna","Dr. Max LÉKÁRNA","https://www.firmy.cz/detail/12884305-dr-max-lekarna-usti-nad-labem-vseborice.html","210"
"17","Bankomat","Bankomat MONETA Money Bank","https://www.firmy.cz/detail/2696977-bankomat-moneta-money-bank-usti-nad-labem-vseborice.html","172"
