"","facility_type","facility_name","facility_iri","facility_distance"
"0","Hřiště","Dětské hřiště","https://mapy.cz/zakladni?x=12.741777840472821&y=49.86349342823141&z=17&source=base&id=2344163","465"
"1","Cukrárna","Cukrárna Monika","https://www.firmy.cz/detail/294962-cukrarna-monika-plana.html","335"
"2","Večerka","COOP - TUTY","https://www.firmy.cz/detail/2161681-coop-tuty-plana.html","510"
"3","Veterinář","MVDr. František Krys","https://www.firmy.cz/detail/267811-mvdr-frantisek-krys-plana.html","939"
"4","Hospoda","Hospoda u Mikotů","https://www.firmy.cz/detail/13117252-hospoda-u-mikotu-chodsky-ujezd-nahy-ujezdec.html","5225"
"5","Školka","MŠ Planá, Havlíčkova","https://www.firmy.cz/detail/2267305-ms-plana-havlickova-plana.html","324"
"6","Pošta","Pošta Planá u Mariánských Lázní - Česká pošta, s.p.","https://www.firmy.cz/detail/216494-posta-plana-u-marianskych-lazni-plana.html","439"
"7","Vlak","Planá u Mariánských Lázní","https://mapy.cz/zakladni?x=12.7301329374&y=49.8611491601&z=17&source=pubt&id=15212459","1305"
"8","Bankomat","Bankomat České spořitelny","https://www.firmy.cz/detail/593954-bankomat-ceske-sporitelny-plana.html","487"
"9","Lékař","MUDr. Marie Kulová","https://www.firmy.cz/detail/389068-mudr-marie-kulova-plana.html","165"
"10","Škola","ZUŠ Planá","https://www.firmy.cz/detail/360403-zus-plana-plana.html","221"
"11","Lékárna","Lékárna Na Poliklinice","https://www.firmy.cz/detail/375833-lekarna-na-poliklinice-plana.html","165"
"12","Bus MHD","Planá, Sadová","https://mapy.cz/zakladni?x=12.7394860662913&y=49.8665736436275&z=17&source=pubt&id=15328107","495"
"13","Sportoviště","Koupaliště v Plané","https://www.firmy.cz/detail/12873134-koupaliste-v-plane-plana.html","718"
"14","Restaurace","Restaurace Mes Amis","https://www.firmy.cz/detail/2470878-restaurace-mes-amis-plana.html","313"
