"","facility_type","facility_name","facility_iri","facility_distance"
"0","Cukrárna","Kinokavárna Centrum","https://www.firmy.cz/detail/12841867-kinokavarna-centrum-havirov-mesto.html","514"
"1","Kino","Kino Centrum","https://www.firmy.cz/detail/12780436-kino-centrum-havirov-mesto.html","514"
"2","Hřiště","Dětské hřiště Lučina","","91"
"3","Večerka","HRUŠKA","https://www.firmy.cz/detail/12820027-hruska-havirov-mesto.html","203"
"4","Hospoda","Bagetérie Lexi","https://www.firmy.cz/detail/12954140-bageterie-lexi-havirov-mesto.html","529"
"5","Veterinář","Veterina Na Nábřeží","https://www.firmy.cz/detail/1947067-veterina-na-nabrezi-havirov-mesto.html","566"
"6","Restaurace","Restaurace PHM PRVNÍ HAVÍŘOVSKÝ MINIPIVOVAR - Pivovar Havířov, a.s.","https://www.firmy.cz/detail/13253737-restaurace-phm-prvni-havirovsky-minipivovar-havirov-mesto.html","100"
"7","Sportoviště","Lezecká stěna Havířov","https://www.firmy.cz/detail/13178466-lezecka-stena-havirov-havirov-mesto.html","153"
"8","Školka","MŠ Havířov, Lípová","https://www.firmy.cz/detail/2333020-ms-havirov-lipova-havirov-mesto.html","77"
"9","Bus MHD","Havířov, Město, sběrna","","75"
"10","Lékař","MUDr. Lucie Šebestová s.r.o.","https://www.firmy.cz/detail/12862656-mudr-lucie-sebestova-s-r-o-havirov-mesto.html","318"
"11","Lékárna","Lékárna Na Národní","https://www.firmy.cz/detail/659545-lekarna-na-narodni-havirov-mesto.html","410"
"12","Vlak","Havířov-střed","","1588"
"13","Škola","ZŠ Havířov, 1. máje","https://www.firmy.cz/detail/357049-zs-havirov-1-maje-havirov-mesto.html","521"
"14","Obchod","Obchodní centrum Elan","https://www.firmy.cz/detail/2181587-obchodni-centrum-elan-havirov-mesto.html","732"
"15","Pošta","Pošta Havířov 1 - Česká pošta, s.p.","https://www.firmy.cz/detail/431627-posta-havirov-1-havirov-mesto.html","660"
"16","Bankomat","Bankomat ČSOB","https://www.firmy.cz/detail/599376-bankomat-csob-havirov-mesto.html","601"
