"","facility_type","facility_name","facility_iri","facility_distance"
"0","Hřiště","Dětské hřiště Cep","","3108"
"1","Večerka","Můjobchod - Potraviny Cep","https://www.firmy.cz/detail/13162250-mujobchod-potraviny-cep-cep.html","3101"
"2","Hospoda","Obecní hospůdka Hrachoviště","https://www.firmy.cz/detail/12993149-obecni-hospudka-hrachoviste-hrachoviste.html","459"
"3","Školka","ZŠ a MŠ Jílovice","https://www.firmy.cz/detail/730428-zs-a-ms-jilovice-jilovice.html","5372"
"4","Škola","ZŠ a MŠ Jílovice","https://www.firmy.cz/detail/357542-zs-a-ms-jilovice-jilovice.html","5372"
"5","Pošta","Pošta Jílovice u Trhových Svin - Česká pošta, s.p.","https://www.firmy.cz/detail/217058-posta-jilovice-u-trhovych-svin-jilovice.html","5358"
"6","Bus MHD","Hrachoviště","","381"
