"","facility_type","facility_name","facility_iri","facility_distance"
"0","Cukrárna","La Zmrzka","https://www.firmy.cz/detail/13326421-la-zmrzka-praha-hlubocepy.html","339"
"1","Kino","AutoKino Ledárny","https://www.firmy.cz/detail/13312696-autokino-ledarny-praha.html","3335"
"2","Přírodní zajímavost","Kovářovic mez","","1686"
"3","Hřiště","Dětské hřiště Voskovcova","","478"
"4","Večerka","Večerka Werichova","https://www.firmy.cz/detail/13279876-vecerka-werichova-praha-hlubocepy.html","347"
"5","Hospoda","Club bar Korlin","https://www.firmy.cz/detail/13111066-club-bar-korlin-praha-hlubocepy.html","566"
"6","Divadlo","Divadlo Glans","https://www.firmy.cz/detail/2343652-divadlo-glans-praha-stodulky.html","2428"
"7","Veterinář","Veterinární klinika Anima, spol. s r.o.","https://www.firmy.cz/detail/2390292-veterinarni-klinika-anima-praha-hlubocepy.html","247"
"8","Bankomat","Bankomat České spořitelny","https://www.firmy.cz/detail/594882-bankomat-ceske-sporitelny-praha-hlubocepy.html","1016"
"9","Restaurace","Cik Cak Restaurant","https://www.firmy.cz/detail/13103802-cik-cak-restaurant-praha-hlubocepy.html","287"
"10","Školka","MŠ Barrandov","https://www.firmy.cz/detail/12817240-ms-barrandov-praha-hlubocepy.html","757"
"11","Lékárna","MEDICIPHARM s.r.o.","https://www.firmy.cz/detail/13289207-medicipharm-s-r-o-praha-hlubocepy.html","526"
"12","Bus MHD","Smaragdová","","262"
"13","Obchod","Centrum Velká Ohrada","https://www.firmy.cz/detail/13184856-centrum-velka-ohrada-praha-stodulky.html","1898"
"14","Pošta","Pošta Partner - Praha 500","https://www.firmy.cz/detail/13291767-posta-partner-praha-500-praha-hlubocepy.html","256"
"15","Sportoviště","Tenisová hala Barrandov","https://www.firmy.cz/detail/13068559-tenisova-hala-barrandov-praha-hlubocepy.html","616"
"16","Škola","Soukromá základní umělecká škola Music Art, v.o.s.","https://www.firmy.cz/detail/2215750-soukroma-zakladni-umelecka-skola-music-art-praha-hlubocepy.html","512"
"17","Tram","Sídliště Barrandov","","565"
"18","Vlak","Praha-Holyně","","1007"
"19","Metro","Nové Butovice","","2512"
"20","Lékař","MUDr. Ivo EZECHIÁŠ","https://www.firmy.cz/detail/386656-mudr-ivo-ezechias-praha-hlubocepy.html","1102"
