"","facility_type","facility_name","facility_iri","facility_distance"
"0","Cukrárna","Kavárna Rozmarýn","https://www.firmy.cz/detail/334175-kavarna-rozmaryn-hodonin.html","443"
"1","Kino","Kino Svět","https://www.firmy.cz/detail/451985-kino-svet-hodonin.html","1645"
"2","Hřiště","Dětské hřiště Brandlova","","97"
"3","Večerka","HRUŠKA","https://www.firmy.cz/detail/12819889-hruska-hodonin.html","183"
"4","Hospoda","Hospoda Morava","https://www.firmy.cz/detail/331587-hospoda-morava-hodonin.html","884"
"5","Veterinář","MVDr. Daniela Plešová","https://www.firmy.cz/detail/2442810-mvdr-daniela-plesova-hodonin.html","1096"
"6","Škola","ZŠ Hodonín, Vančurova","https://www.firmy.cz/detail/357125-zs-hodonin-vancurova-hodonin.html","163"
"7","Pošta","Pošta Hodonín 4 - Česká pošta, s.p.","https://www.firmy.cz/detail/433243-posta-hodonin-4-hodonin.html","443"
"8","Bus MHD","Hodonín, Brandlova","","85"
"9","Sportoviště","Oilers Hodonín","https://www.firmy.cz/detail/13223319-oilers-hodonin-hodonin.html","94"
"10","Vlak","Hodonín","","1444"
"11","Obchod","Kaufland","https://www.firmy.cz/detail/1650920-kaufland-hodonin.html","672"
"12","Lékárna","Lékárna - Nemocnice TGM Hodonín","https://www.firmy.cz/detail/659889-lekarna-nemocnice-tgm-hodonin-hodonin.html","322"
"13","Školka","MŠ Sídlištní 2","https://www.firmy.cz/detail/759350-ms-sidlistni-2-hodonin.html","372"
"14","Restaurace","Restaurace Rybářská bašta","https://www.firmy.cz/detail/2202651-restaurace-rybarska-basta-hodonin.html","323"
"15","Lékař","Fedpraktik s.r.o.","https://www.firmy.cz/detail/13171209-fedpraktik-s-r-o-hodonin.html","331"
"16","Bankomat","Bankomat MONETA Money Bank","https://www.firmy.cz/detail/13082158-bankomat-moneta-money-bank-hodonin.html","672"
