"","facility_type","facility_name","facility_iri","facility_distance"
"0","Cukrárna","Kavárna PRAHA","https://www.firmy.cz/detail/2603760-kavarna-praha-usti-nad-labem-strekov.html","4804"
"1","Kino","Cinema City Ústí nad Labem","https://www.firmy.cz/detail/2679909-cinema-city-usti-nad-labem-usti-nad-labem-centrum.html","5235"
"2","Přírodní zajímavost","Dubické ventaroly","","4997"
"3","Hřiště","Dětské hřiště V Průčelí","","51"
"4","Večerka","Potraviny Libor Koubec","https://www.firmy.cz/detail/2127089-potraviny-libor-koubec-usti-nad-labem-brna.html","265"
"5","Hospoda","Hospůdka Lucie","https://www.firmy.cz/detail/13121705-hospudka-lucie-usti-nad-labem-sebuzin.html","3102"
"6","Divadlo","Činoherní studio města Ústí nad Labem","https://www.firmy.cz/detail/13085276-cinoherni-studio-mesta-usti-nad-labem-usti-nad-labem-strekov.html","4657"
"7","Veterinář","MVDr. Václav Poživil","https://www.firmy.cz/detail/639726-mvdr-vaclav-pozivil-usti-nad-labem-strekov.html","4326"
"8","Sportoviště","Veslařský klub Paprsek, z.s.","https://www.firmy.cz/detail/2650610-veslarsky-klub-paprsek-z-s-usti-nad-labem-brna.html","323"
"9","Školka","ZŠ a MŠ Ústí nad Labem, Jitřní","https://www.firmy.cz/detail/437261-zs-a-ms-usti-nad-labem-jitrni-usti-nad-labem-brna.html","194"
"10","Bus MHD","Ústí n.L., Brná","","133"
"11","Lékař","MUDr. Věra Doutnáčová","https://www.firmy.cz/detail/388698-mudr-vera-doutnacova-usti-nad-labem-strekov.html","3584"
"12","Restaurace","Restaurace U Kapličky","https://www.firmy.cz/detail/12883453-restaurace-u-kaplicky-usti-nad-labem-brna.html","128"
"13","Pošta","Pošta Ústí nad Labem 17 - Česká pošta, s.p.","https://www.firmy.cz/detail/215943-posta-usti-nad-labem-17-usti-nad-labem-brna.html","674"
"14","Škola","ZŠ a MŠ Ústí nad Labem, Jitřní","https://www.firmy.cz/detail/359878-zs-a-ms-usti-nad-labem-jitrni-usti-nad-labem-brna.html","688"
"15","Lékárna","Dr. Max LÉKÁRNA","https://www.firmy.cz/detail/12942271-dr-max-lekarna-usti-nad-labem-centrum.html","5120"
"16","Obchod","Forum Ústí nad Labem","https://www.firmy.cz/detail/13270111-forum-usti-nad-labem-usti-nad-labem-centrum.html","5120"
"17","Bankomat","Bankomat Komerční banky","https://www.firmy.cz/detail/13031349-bankomat-komercni-banky-usti-nad-labem-strekov.html","3601"
"18","Vlak","Dolní Zálezly","","3392"
