"","facility_type","facility_name","facility_iri","facility_distance"
"0","Hřiště","Dětské hřiště u supermarketu","https://mapy.cz/zakladni?x=15.2764421316&y=49.7002685739&z=17&source=base&id=2103098","174"
"1","Přírodní zajímavost","Ledečský kras","https://mapy.cz/zakladni?x=15.272089132&y=49.6938081243&z=17&source=base&id=2193448","829"
"2","Hospoda","Hospoda Nahoře","https://www.firmy.cz/detail/13115579-hospoda-nahore-kozli.html","3714"
"3","Večerka","Enapo","https://www.firmy.cz/detail/2661534-enapo-ledec-nad-sazavou.html","154"
"4","Cukrárna","Kavárna Kovárna","https://www.firmy.cz/detail/13123205-kavarna-kovarna-ledec-nad-sazavou.html","410"
"5","Veterinář","Veterinární ošetřovna MVDr. Pavel Vrbka","https://www.firmy.cz/detail/1895297-veterinarni-osetrovna-mvdr-pavel-vrbka-ledec-nad-sazavou.html","843"
"6","Školka","MŠ Ledeč nad Sázavou, 28. října","https://www.firmy.cz/detail/12732008-ms-ledec-nad-sazavou-28-rijna-ledec-nad-sazavou.html","309"
"7","Pošta","Pošta Ledeč nad Sázavou - Česká pošta, s.p.","https://www.firmy.cz/detail/215782-posta-ledec-nad-sazavou-ledec-nad-sazavou.html","517"
"8","Bankomat","Bankomat České spořitelny","https://www.firmy.cz/detail/593123-bankomat-ceske-sporitelny-ledec-nad-sazavou.html","508"
"9","Bus MHD","Ledeč nad Sázavou, hotel Sázava","https://mapy.cz/zakladni?x=15.278928092&y=49.6971213975&z=17&source=pubt&id=15330180","307"
"10","Sportoviště","Tenisový klub Ledeč nad Sázavou","https://www.firmy.cz/detail/2291378-tenisovy-klub-ledec-nad-sazavou-ledec-nad-sazavou-horni-ledec.html","377"
"11","Vlak","Horní Ledeč","https://mapy.cz/zakladni?x=15.2834936518&y=49.6959311277&z=17&source=pubt&id=15211434","554"
"12","Škola","Základní umělecká škola Ledeč nad Sázavou","https://www.firmy.cz/detail/12764296-zakladni-umelecka-skola-ledec-nad-sazavou-ledec-nad-sazavou.html","426"
"13","Restaurace","Milan Pelc","https://www.firmy.cz/detail/13109677-milan-pelc-ledec-nad-sazavou.html","326"
"14","Lékárna","Dr. Max LÉKÁRNA","https://www.firmy.cz/detail/13001279-dr-max-lekarna-ledec-nad-sazavou.html","466"
"15","Lékař","K-medik, s.r.o.","https://www.firmy.cz/detail/13293618-k-medik-ledec-nad-sazavou.html","466"
