"","facility_type","facility_name","facility_iri","facility_distance"
"0","Hřiště","Dětské hřiště Letenské sady","https://mapy.cz/zakladni?x=14.4289579&y=50.096997904&z=17&source=base&id=1927073","190"
"1","Večerka","BILLA","https://www.firmy.cz/detail/212076-billa-praha-holesovice.html","345"
"2","Cukrárna","Erhartova cukrárna","https://www.firmy.cz/detail/2121271-erhartova-cukrarna-praha-holesovice.html","238"
"3","Divadlo","Pidivadlo","https://www.firmy.cz/detail/397282-pidivadlo-praha-holesovice.html","168"
"4","Veterinář","MVDr. Aleš Hlásný","https://www.firmy.cz/detail/1967608-mvdr-ales-hlasny-praha-bubenec.html","353"
"5","Hospoda","Pivnice U Pivoje","https://www.firmy.cz/detail/2231875-pivnice-u-pivoje-praha-holesovice.html","214"
"6","Kino","Bio Oko","https://www.firmy.cz/detail/2586117-bio-oko-praha-holesovice.html","241"
"7","Tram","Kamenická","https://mapy.cz/zakladni?x=14.428575933&y=50.0996904627&z=17&source=pubt&id=15303954","141"
"8","Metro","Vltavská","https://mapy.cz/zakladni?x=14.4381917409&y=50.0990612005&z=17&source=pubt&id=15206937","746"
"9","Škola","Gymnázium Přírodní škola","https://www.firmy.cz/detail/361478-gymnazium-prirodni-skola-praha-holesovice.html","178"
"10","Bus MHD","OC Stromovka","https://mapy.cz/zakladni?x=14.429261341104507&y=50.10195086021604&z=17&source=pubt&id=18173061","395"
"11","Bankomat","Raiffeisenbank - bankomat","https://www.firmy.cz/detail/2474613-raiffeisenbank-bankomat-praha-holesovice.html","292"
"12","Vlak","Praha-Bubny","https://mapy.cz/zakladni?x=14.4390160637&y=50.1022888272&z=17&source=pubt&id=15212553","904"
"13","Sportoviště","Bowling RADAVA","https://www.firmy.cz/detail/13032274-bowling-radava-praha-holesovice.html","124"
"14","Školka","Mateřská škola, Praha 7, Letohradská 1a","https://www.firmy.cz/detail/197576-materska-skola-praha-7-letohradska-1a-praha-holesovice.html","149"
"15","Obchod","Bílá labuť","https://www.firmy.cz/detail/221990-bila-labut-praha-nove-mesto.html","1025"
"16","Pošta","Pošta Praha 7 - Česká pošta, s.p.","https://www.firmy.cz/detail/216716-posta-praha-7-praha-holesovice.html","382"
"17","Restaurace","Restaurace U Skřetů","https://www.firmy.cz/detail/2224208-restaurace-u-skretu-praha-holesovice.html","215"
"18","Lékárna","BENU Lékárna","https://www.firmy.cz/detail/2024770-benu-lekarna-praha-holesovice.html","231"
"19","Lékař","MUDr. Emil Wagner","https://www.firmy.cz/detail/648551-mudr-emil-wagner-praha-holesovice.html","159"
