"","facility_type","facility_name","facility_iri","facility_distance"
"0","Cukrárna","PICCADILLY STORE & CAFFE","https://www.firmy.cz/detail/13291783-piccadilly-store-caffe-brno-kralovo-pole.html","178"
"1","Kino","Kino Lucerna","https://www.firmy.cz/detail/638240-kino-lucerna-brno-zabovresky.html","1461"
"2","Přírodní zajímavost","Přírodní zahrada U Smrku","","1147"
"3","Hřiště","Dětské hřiště na Slovanském náměstí","","623"
"4","Večerka","BRNĚNKA","https://www.firmy.cz/detail/12787568-brnenka-brno-kralovo-pole.html","509"
"5","Hospoda","Hostinec Šafářka","https://www.firmy.cz/detail/13049611-hostinec-safarka-brno-kralovo-pole.html","183"
"6","Divadlo","Bezbariérové divadlo Barka","https://www.firmy.cz/detail/661273-bezbarierove-divadlo-barka-brno-kralovo-pole.html","515"
"7","Veterinář","Veterinární a farmaceutická univerzita Brno - Klinika chorob psů a koček Fakulty veterinárního lékařství","https://www.firmy.cz/detail/428469-veterinarni-a-farmaceuticka-univerzita-brno-klinika-chorob-psu-a-kocek-fakulty-veterinarniho-lekarstvi-brno-kralovo-pole.html","295"
"8","Pošta","Pošta Brno 12 - Česká pošta, s.p.","https://www.firmy.cz/detail/216021-posta-brno-12-brno-kralovo-pole.html","570"
"9","Restaurace","Klub Cestovatelů Brno","https://www.firmy.cz/detail/13131230-klub-cestovatelu-brno-brno-kralovo-pole.html","87"
"10","Bankomat","Bankomat ČSOB","https://www.firmy.cz/detail/599318-bankomat-csob-brno-kralovo-pole.html","204"
"11","Škola","Základní škola Brno, Palackého třída, příspěvková organizace","https://www.firmy.cz/detail/13044099-zakladni-skola-brno-palackeho-trida-prispevkova-organizace-brno-kralovo-pole.html","293"
"12","Bus MHD","Charvatská","","444"
"13","Obchod","Kaufland","https://www.firmy.cz/detail/1352865-kaufland-brno-ponava.html","713"
"14","Sportoviště","Orel jednota Brno - Královo Pole","https://www.firmy.cz/detail/1962319-orel-jednota-brno-kralovo-pole-brno-kralovo-pole.html","151"
"15","Školka","MŠ Brno, Vackova","https://www.firmy.cz/detail/407491-ms-brno-vackova-brno-kralovo-pole.html","611"
"16","Tram","Jungmannova","","136"
"17","Lékař","MUDr. Bronislava Karasová","https://www.firmy.cz/detail/12945843-mudr-bronislava-karasova-brno-kralovo-pole.html","88"
"18","Lékárna","Lékárna U Svaté Trojice","https://www.firmy.cz/detail/12800390-lekarna-u-svate-trojice-brno-kralovo-pole.html","313"
"19","Vlak","Brno-Královo Pole","","1156"
