"","facility_type","facility_name","facility_iri","facility_distance"
"0","Cukrárna","Cukrárna Romance","https://www.firmy.cz/detail/12848570-cukrarna-romance-duchcov.html","729"
"1","Kino","Kino Lípa","https://www.firmy.cz/detail/457437-kino-lipa-duchcov.html","78"
"2","Přírodní zajímavost","Osecký dub","","4661"
"3","Hřiště","Dětské hřiště Park u Barbory","","194"
"4","Večerka","Smíšené zboží Ferrerova 2","https://www.firmy.cz/detail/12752463-smisene-zbozi-ferrerova-2-duchcov.html","116"
"5","Hospoda","Restaurace Vyšehrad","https://www.firmy.cz/detail/13115016-restaurace-vysehrad-duchcov.html","645"
"6","Divadlo","Divadlo M","https://www.firmy.cz/detail/413050-divadlo-m-duchcov.html","407"
"7","Veterinář","MVDr. Pavel Gabriel","https://www.firmy.cz/detail/2132088-mvdr-pavel-gabriel-duchcov.html","250"
"8","Bankomat","Bankomat České spořitelny","https://www.firmy.cz/detail/13277414-bankomat-ceske-sporitelny-duchcov.html","101"
"9","Sportoviště","Discgolfové hřiště Duchcov","","690"
"10","Lékař","MUDr. Magdalena Mühlbauerová","https://www.firmy.cz/detail/387828-mudr-magdalena-muhlbauerova-duchcov.html","71"
"11","Školka","MŠ Duchcov, Tyršova","https://www.firmy.cz/detail/1895360-ms-duchcov-tyrsova-duchcov.html","181"
"12","Lékárna","Alfa","https://www.firmy.cz/detail/13204014-alfa-duchcov.html","228"
"13","Pošta","Pošta Duchcov - Česká pošta, s.p.","https://www.firmy.cz/detail/215441-posta-duchcov-duchcov.html","467"
"14","Vlak","Duchcov","","1681"
"15","Restaurace","TURBO PIZZA","https://www.firmy.cz/detail/13269313-turbo-pizza-duchcov.html","274"
"16","Bus MHD","Duchcov, kino","","73"
"17","Škola","Gymnázium a Střední průmyslová škola, Duchcov","https://www.firmy.cz/detail/188023-gymnazium-a-stredni-prumyslova-skola-duchcov-duchcov.html","121"
