"","facility_type","facility_name","facility_iri","facility_distance"
"0","Cukrárna","Cukrárna Retro","https://www.firmy.cz/detail/13111379-cukrarna-retro-liberec-i-stare-mesto.html","270"
"1","Kino","Letní kino","https://www.firmy.cz/detail/13219320-letni-kino-liberec-i-stare-mesto.html","576"
"2","Přírodní zajímavost","Opičák","","3547"
"3","Hřiště","Dětské hřiště ZOO","","321"
"4","Večerka","BALA potraviny - market","https://www.firmy.cz/detail/13327916-bala-potraviny-market-liberec-xiv-ruprechtice.html","105"
"5","Hospoda","Hospůdka U Vozků","https://www.firmy.cz/detail/621545-hospudka-u-vozku-liberec-i-stare-mesto.html","480"
"6","Divadlo","Divadlo F.X.Šaldy","https://www.firmy.cz/detail/396855-divadlo-f-x-saldy-liberec-i-stare-mesto.html","1483"
"7","Veterinář","Veterina Krobotovi, s.r.o.","https://www.firmy.cz/detail/13332978-veterina-krobotovi-liberec-xv-stary-harcov.html","1022"
"8","Bus MHD","Baltská","","306"
"9","Školka","MŠ U Bertíka Liberec, Purkyňova","https://www.firmy.cz/detail/1458025-ms-u-bertika-liberec-purkynova-liberec-xiv-ruprechtice.html","172"
"10","Lékárna","Lékárna U Muzea","https://www.firmy.cz/detail/12861493-lekarna-u-muzea-liberec-i-stare-mesto.html","784"
"11","Lékař","MEDICA SEVER s.r.o.","https://www.firmy.cz/detail/2547807-medica-sever-s-r-o-liberec-i-stare-mesto.html","354"
"12","Škola","ZŠ Liberec, Lesní","https://www.firmy.cz/detail/364794-zs-liberec-lesni-liberec-i-stare-mesto.html","156"
"13","Sportoviště","Tělovýchovná jednota T.T.C. table tennis club Liberec","https://www.firmy.cz/detail/2652842-telovychovna-jednota-t-t-c-table-tennis-club-liberec-liberec-i-stare-mesto.html","496"
"14","Restaurace","Restaurace Rybářská Bašta Liberec","https://www.firmy.cz/detail/13009389-restaurace-rybarska-basta-liberec-liberec-i-stare-mesto.html","413"
"15","Pošta","Pošta Liberec 14 - Česká pošta, s.p.","https://www.firmy.cz/detail/215521-posta-liberec-14-liberec-xiv-ruprechtice.html","1074"
"16","Obchod","Albert Hypermarket","https://www.firmy.cz/detail/12920902-albert-hypermarket-liberec-i-stare-mesto.html","977"
"17","Bankomat","Bankomat ČSOB","https://www.firmy.cz/detail/598485-bankomat-csob-liberec-i-stare-mesto.html","827"
"18","Vlak","Liberec","","2823"
"19","Tram","Botanická zahrada","","455"
