"","facility_type","facility_name","facility_iri","facility_distance"
"0","Cukrárna","Cukrárna Pralinka","https://www.firmy.cz/detail/626458-cukrarna-pralinka-praha-vrsovice.html","584"
"1","Kino","Cinema City Flora","https://www.firmy.cz/detail/660712-cinema-city-flora-praha-zizkov.html","1344"
"2","Hřiště","Dětské hřiště Oblouková","","181"
"3","Přírodní zajímavost","Mokřad Triangl","","4446"
"4","Večerka","AGLO Trading","https://www.firmy.cz/detail/652274-aglo-trading-praha-vrsovice.html","485"
"5","Hospoda","Hostinec U Parku","https://www.firmy.cz/detail/337032-hostinec-u-parku-praha-nusle.html","1113"
"6","Divadlo","Divadelní společnost Josefa Dvořáka","https://www.firmy.cz/detail/396839-divadelni-spolecnost-josefa-dvoraka-praha-vrsovice.html","517"
"7","Veterinář","VETPOINT - veterinární klinika","https://www.firmy.cz/detail/162085-vetpoint-veterinarni-klinika-praha-vrsovice.html","297"
"8","Škola","Hotelová škola Praha 10","https://www.firmy.cz/detail/362284-hotelova-skola-praha-10-praha-vrsovice.html","105"
"9","Pošta","Pošta Praha 101 - Česká pošta, s.p.","https://www.firmy.cz/detail/431434-posta-praha-101-praha-vrsovice.html","160"
"10","Bus MHD","Koh-i-noor","","246"
"11","Metro","Flora","","1149"
"12","Bankomat","Bankomat České spořitelny","https://www.firmy.cz/detail/2464132-bankomat-ceske-sporitelny-praha-vrsovice.html","210"
"13","Vlak","Praha-Vršovice","","748"
"14","Restaurace","Restaurace U Pepíčka","https://www.firmy.cz/detail/272235-restaurace-u-pepicka-praha-vrsovice.html","107"
"15","Lékárna","Lékárna Lemon","https://www.firmy.cz/detail/423012-lekarna-lemon-praha-vrsovice.html","206"
"16","Školka","MŠ Praha 10, Tolstého","https://www.firmy.cz/detail/2261341-ms-praha-10-tolsteho-praha-vrsovice.html","386"
"17","Tram","Čechovo náměstí","","80"
"18","Obchod","Tesco Extra","https://www.firmy.cz/detail/733906-tesco-extra-praha-vrsovice.html","806"
"19","Sportoviště","Tělocvičná jednota Sokol Praha Vršovice","https://www.firmy.cz/detail/222119-telocvicna-jednota-sokol-praha-vrsovice-praha-vrsovice.html","310"
"20","Lékař","Vršovická zdravotní, a.s.","https://www.firmy.cz/detail/2609702-vrsovicka-zdravotni-praha-vrsovice.html","195"
