"","facility_type","facility_name","facility_iri","facility_distance"
"0","Hřiště","Dětské hřiště Suchý vršek","https://mapy.cz/zakladni?x=14.343186361509767&y=50.04858455912529&z=17&source=base&id=1926694","79"
"1","Večerka","Albert Supermarket","https://www.firmy.cz/detail/447083-albert-supermarket-praha-stodulky.html","217"
"2","Hospoda","Hospůdka","https://www.firmy.cz/detail/13115719-hospudka-praha-stodulky.html","215"
"3","Cukrárna","Helen's coffee Hůrka","https://www.firmy.cz/detail/13278629-helen-s-coffee-hurka-praha-stodulky.html","207"
"4","Veterinář","Veterinární klinika Na Vyhlídce, s.r.o.","https://www.firmy.cz/detail/13012801-veterinarni-klinika-na-vyhlidce-praha-stodulky.html","225"
"5","Kino","Cinema City Zličín","https://www.firmy.cz/detail/436222-cinema-city-zlicin-praha-trebonice.html","3929"
"6","Divadlo","Divadlo Glans","https://www.firmy.cz/detail/2343652-divadlo-glans-praha-stodulky.html","369"
"7","Přírodní zajímavost","Kovářovic mez","https://mapy.cz/zakladni?x=14.36107759920759&y=50.04395254566995&z=17&source=base&id=2339664","1453"
"8","Bus MHD","Hůrka","https://mapy.cz/zakladni?x=14.3405218548&y=50.0482449513&z=17&source=pubt&id=15300524","119"
"9","Školka","Mateřská škola PALOUČEK, Praha 13, Husníkova 2075","https://www.firmy.cz/detail/13343326-materska-skola-paloucek-praha-13-husnikova-2075-praha-stodulky.html","44"
"10","Sportoviště","Discgolf Stodůlky","https://mapy.cz/zakladni?x=14.3345611111&y=50.0472844444&z=17&source=base&id=1978642","557"
"11","Metro","Hůrka","https://mapy.cz/zakladni?x=14.341902896&y=50.0498746774&z=17&source=pubt&id=15206929","139"
"12","Restaurace","Restaurace Na Výsluní","https://www.firmy.cz/detail/2072247-restaurace-na-vysluni-praha-stodulky.html","183"
"13","Pošta","Pošta Praha 58 - Česká pošta, s.p.","https://www.firmy.cz/detail/216735-posta-praha-58-praha-stodulky.html","221"
"14","Bankomat","Bankomat České spořitelny","https://www.firmy.cz/detail/594887-bankomat-ceske-sporitelny-praha-stodulky.html","186"
"15","Lékař","DIONA s.r.o.","https://www.firmy.cz/detail/13046936-diona-s-r-o-praha-stodulky.html","218"
"16","Lékárna","Dr. Max LÉKÁRNA","https://www.firmy.cz/detail/13323876-dr-max-lekarna-praha-stodulky.html","190"
"17","Tram","Vozovna Motol","https://mapy.cz/zakladni?x=14.3414510686&y=50.0678640384&z=17&source=pubt&id=15304861","2140"
"18","Vlak","Praha-Stodůlky","https://mapy.cz/zakladni?x=14.346050021&y=50.0622114168&z=17&source=pubt&id=15212581","1537"
"19","Obchod","Kaufland","https://www.firmy.cz/detail/1356298-kaufland-praha-stodulky.html","591"
"20","Škola","Fakultní  ZŠ profesora Otokara Chlupa Pedagogické fakulty UK","https://www.firmy.cz/detail/396309-fakultni-zs-profesora-otokara-chlupa-pedagogicke-fakulty-uk-praha-stodulky.html","369"
