"","facility_type","facility_name","facility_iri","facility_distance"
"0","Cukrárna","Cukrárna Gabriela","https://www.firmy.cz/detail/13101114-cukrarna-gabriela-hradec-kralove.html","81"
"1","Kino","Letní kino Širák","https://www.firmy.cz/detail/396345-letni-kino-sirak-hradec-kralove.html","472"
"2","Přírodní zajímavost","Slepé rameno Orlice u loděnice","","2455"
"3","Hřiště","Dětské hřiště Jiráskovy sady","","405"
"4","Večerka","ERKO Potraviny","https://www.firmy.cz/detail/150966-erko-potraviny-hradec-kralove.html","190"
"5","Hospoda","Batalion U Draků","https://www.firmy.cz/detail/13117402-batalion-u-draku-hradec-kralove.html","144"
"6","Divadlo","Divadlo HAD","https://www.firmy.cz/detail/2059902-divadlo-had-hradec-kralove.html","288"
"7","Veterinář","MVDr. Martina Halbichová Vítová","https://www.firmy.cz/detail/12737346-mvdr-martina-halbichova-vitova-hradec-kralove-slezske-predmesti.html","1722"
"8","Lékárna","LÉKÁRNA ipc U Grandu","https://www.firmy.cz/detail/13287330-lekarna-ipc-u-grandu-hradec-kralove.html","205"
"9","Restaurace","PHỞ 99","https://www.firmy.cz/detail/13227392-pho-99-hradec-kralove.html","18"
"10","Bankomat","Raiffeisenbank - bankomat","https://www.firmy.cz/detail/631138-raiffeisenbank-bankomat-hradec-kralove.html","143"
"11","Sportoviště","HBC Hradec Králové 1988, z.s.","https://www.firmy.cz/detail/1730523-hbc-hradec-kralove-1988-z-s-hradec-kralove.html","330"
"12","Školka","MŠ Čtyřlístek, Hradec Králové","https://www.firmy.cz/detail/2470530-ms-ctyrlistek-hradec-kralove-hradec-kralove.html","317"
"13","Lékař","MUDr. Brynda Tomáš, MediClinic a.s.","https://www.firmy.cz/detail/12761120-mudr-brynda-tomas-mediclinic-a-s-hradec-kralove.html","159"
"14","Bus MHD","Zimní stadion","","179"
"15","Vlak","Hradec Králové hlavní nádraží","","1610"
"16","Obchod","Dům služeb Třebeš s.r.o.","https://www.firmy.cz/detail/13037513-dum-sluzeb-trebes-s-r-o-hradec-kralove.html","938"
"17","Škola","ZŠ a MŠ Jana Pavla II.","https://www.firmy.cz/detail/12764466-zs-a-ms-jana-pavla-ii-hradec-kralove.html","244"
"18","Pošta","Pošta Hradec Králové 1 - Česká pošta, s.p.","https://www.firmy.cz/detail/215968-posta-hradec-kralove-1-hradec-kralove.html","194"
