"","facility_type","facility_name","facility_iri","facility_distance"
"0","Cukrárna","Art Café","https://www.firmy.cz/detail/12919900-art-cafe-olomouc-povel.html","307"
"1","Kino","5D cinema Maxim","https://www.firmy.cz/detail/12950601-5d-cinema-maxim-olomouc.html","1080"
"2","Hřiště","Dětské hřiště Schweitzerova","","160"
"3","Večerka","HRUŠKA","https://www.firmy.cz/detail/12819716-hruska-olomouc-povel.html","295"
"4","Divadlo","Divadlo na Šantovce, o.p.s.","https://www.firmy.cz/detail/12833588-divadlo-na-santovce-olomouc.html","1144"
"5","Hospoda","JACOBO EUROPE CZ a.s.","https://www.firmy.cz/detail/13150832-jacobo-europe-cz-a-s-olomouc-povel.html","295"
"6","Veterinář","Veterinární ordinace OrdinaVet","https://www.firmy.cz/detail/12984041-veterinarni-ordinace-ordinavet-olomouc-povel.html","50"
"7","Restaurace","Vietnamské bistro","https://www.firmy.cz/detail/13297058-vietnamske-bistro-olomouc-nove-sady.html","307"
"8","Vlak","Olomouc-Smetanovy sady","","898"
"9","Škola","Fakultní ZŠ a MŠ Olomouc Holečkova","https://www.firmy.cz/detail/358564-fakultni-zs-a-ms-olomouc-holeckova-olomouc-povel.html","130"
"10","Lékař","MUDr. Marie Rajmonová","https://www.firmy.cz/detail/386346-mudr-marie-rajmonova-olomouc-povel.html","350"
"11","Obchod","Albert Hypermarket","https://www.firmy.cz/detail/12924402-albert-hypermarket-olomouc.html","1083"
"12","Bankomat","Bankomat MONETA Money Bank","https://www.firmy.cz/detail/603339-bankomat-moneta-money-bank-olomouc-povel.html","292"
"13","Sportoviště","BOWLAND bowling center","https://www.firmy.cz/detail/12841946-bowland-bowling-center-olomouc.html","1197"
"14","Tram","Fakultní nemocnice","","609"
"15","Bus MHD","Povel, škola","","140"
"16","Školka","MŠ Olomouc Holečkova","https://www.firmy.cz/detail/723783-ms-olomouc-holeckova-olomouc-povel.html","188"
"17","Pošta","Pošta Olomouc 12 - Česká pošta, s.p.","https://www.firmy.cz/detail/215270-posta-olomouc-12-olomouc-povel.html","321"
"18","Lékárna","Lékárna Povel","https://www.firmy.cz/detail/658742-lekarna-povel-olomouc-povel.html","320"
