"","facility_type","facility_name","facility_iri","facility_distance"
"0","Hřiště","Dětské hřiště Veselé","https://mapy.cz/zakladni?x=14.3699632&y=50.786339875&z=17&source=base&id=2118950","52"
"1","Večerka","Potraviny Partner","https://www.firmy.cz/detail/13059900-potraviny-partner-vesele.html","68"
"2","Cukrárna","Cukrárna Náměstí míru 253","https://www.firmy.cz/detail/13137281-cukrarna-namesti-miru-253-ceska-kamenice.html","3577"
"3","Hospoda","U Zlatopramene","https://www.firmy.cz/detail/12982626-u-zlatopramene-vesele.html","68"
"4","Veterinář","MVDr. Antonín Hanzl - Vetrinární klinika","https://www.firmy.cz/detail/2589828-mvdr-antonin-hanzl-vetrinarni-klinika-ceska-kamenice.html","3650"
"5","Škola","ZŠ a MŠ Markvartice","https://www.firmy.cz/detail/358182-zs-a-ms-markvartice-markvartice.html","402"
"6","Vlak","Veselé pod Rabštejnem","https://mapy.cz/zakladni?x=14.362831357864707&y=50.79439024640077&z=17&source=pubt&id=15213220","1068"
"7","Bus MHD","Markvartice","https://mapy.cz/zakladni?x=14.3666002463139&y=50.7858566701362&z=17&source=pubt&id=15239670","285"
"8","Sportoviště","TJ SK Markvartice","https://www.firmy.cz/detail/2651837-tj-sk-markvartice-markvartice.html","747"
"9","Bankomat","Bankomat České spořitelny","https://www.firmy.cz/detail/591898-bankomat-ceske-sporitelny-ceska-kamenice.html","3619"
"10","Restaurace","Xuan Dan Luong","https://www.firmy.cz/detail/13138175-xuan-dan-luong-markvartice.html","518"
"11","Pošta","Pošta Partner - Markvartice","https://www.firmy.cz/detail/13093378-posta-partner-markvartice-markvartice.html","706"
"12","Školka","ZŠ a MŠ Markvartice","https://www.firmy.cz/detail/729509-zs-a-ms-markvartice-markvartice.html","1372"
"13","Lékárna","Lékárna VIA","https://www.firmy.cz/detail/12813463-lekarna-via-ceska-kamenice.html","3461"
"14","Lékař","Medical Servis, s.r.o.","https://www.firmy.cz/detail/391045-medical-servis-ceska-kamenice.html","3461"
