"","facility_type","facility_name","facility_iri","facility_distance"
"0","Cukrárna","Cukrárna U Brány","https://www.firmy.cz/detail/12952594-cukrarna-u-brany-jihlava.html","101"
"1","Kino","5D cinema Maxim","https://www.firmy.cz/detail/12871623-5d-cinema-maxim-jihlava.html","424"
"2","Hřiště","Dětské hřiště U Brány","","184"
"3","Přírodní zajímavost","Pístovské mokřady","","2796"
"4","Večerka","Pramen","https://www.firmy.cz/detail/12845143-pramen-jihlava.html","220"
"5","Hospoda","BeerTime","https://www.firmy.cz/detail/12713288-beertime-jihlava.html","111"
"6","Divadlo","Horácké divadlo Jihlava","https://www.firmy.cz/detail/396913-horacke-divadlo-jihlava-jihlava.html","495"
"7","Veterinář","Veterinární ordinace Jihlava - MVDr. Marcela Cecchinato","https://www.firmy.cz/detail/12871130-veterinarni-ordinace-jihlava-mvdr-marcela-cecchinato-jihlava.html","462"
"8","Školka","Mateřská škola Beruška, Fibichova 20, Jihlava","https://www.firmy.cz/detail/1889488-materska-skola-beruska-fibichova-20-jihlava-jihlava.html","185"
"9","Obchod","PRIOR ČESKÁ REPUBLIKA s.r.o.","https://www.firmy.cz/detail/1956976-prior-ceska-republika-s-r-o-jihlava.html","296"
"10","Lékař","MUDr. Jiří Havránek, s.r.o.","https://www.firmy.cz/detail/13106210-mudr-jiri-havranek-jihlava.html","194"
"11","Restaurace","Gambrinus Street","https://www.firmy.cz/detail/12974263-gambrinus-street-jihlava.html","93"
"12","Lékárna","FARMAKO spol. s r. o.","https://www.firmy.cz/detail/420952-farmako-spol-s-r-o-jihlava.html","219"
"13","Vlak","Jihlava město","","1169"
"14","Bankomat","Raiffeisenbank - bankomat","https://www.firmy.cz/detail/631126-raiffeisenbank-bankomat-jihlava.html","206"
"15","Pošta","Pošta Jihlava 1 - Česká pošta, s.p.","https://www.firmy.cz/detail/215534-posta-jihlava-1-jihlava.html","366"
"16","Bus MHD","Hradební","","110"
"17","Sportoviště","Krajský volejbalový svaz Vysočina","https://www.firmy.cz/detail/13077065-krajsky-volejbalovy-svaz-vysocina-jihlava.html","237"
"18","Škola","Střední odborná škola sociální u Matky Boží Jihlava","https://www.firmy.cz/detail/360766-stredni-odborna-skola-socialni-u-matky-bozi-jihlava-jihlava.html","167"
