"","facility_type","facility_name","facility_iri","facility_distance"
"0","Cukrárna","Čajovna a kavárna Krásná chvíle","https://www.firmy.cz/detail/13077202-cajovna-a-kavarna-krasna-chvile-svitavy-mesto.html","288"
"1","Kino","Kino Vesmír","https://www.firmy.cz/detail/396532-kino-vesmir-svitavy-predmesti.html","354"
"2","Hřiště","Dětské hřiště Dimitrivova","","371"
"3","Večerka","Svitavská LIDOVKA DIMICO","https://www.firmy.cz/detail/12815612-svitavska-lidovka-dimico-svitavy-mesto.html","69"
"4","Hospoda","Pivnice U Mrtvoly","https://www.firmy.cz/detail/12822663-pivnice-u-mrtvoly-svitavy-predmesti.html","517"
"5","Divadlo","Divadlo Trám","https://www.firmy.cz/detail/662012-divadlo-tram-svitavy-predmesti.html","354"
"6","Veterinář","MVDr. Martin Fedrsel","https://www.firmy.cz/detail/475810-mvdr-martin-fedrsel-svitavy-mesto.html","140"
"7","Škola","ZŠ Svitavy, nám. Míru","https://www.firmy.cz/detail/359556-zs-svitavy-nam-miru-svitavy-mesto.html","72"
"8","Lékař","MUDr. Jiří Šoupal, PRAKTIK SVITAVY s.r.o.","https://www.firmy.cz/detail/13150949-mudr-jiri-soupal-praktik-svitavy-s-r-o-svitavy-mesto.html","8"
"9","Bus MHD","Svitavy, Máchova alej","","159"
"10","Restaurace","Restaurace Slavia","https://www.firmy.cz/detail/13015694-restaurace-slavia-svitavy-mesto.html","69"
"11","Pošta","Pošta Svitavy 1 - Česká pošta, s.p.","https://www.firmy.cz/detail/215853-posta-svitavy-1-svitavy-predmesti.html","268"
"12","Lékárna","Lékárna Paracelsus","https://www.firmy.cz/detail/2628722-lekarna-paracelsus-svitavy-mesto.html","73"
"13","Bankomat","Bankomat Fio banky","https://www.firmy.cz/detail/13046220-bankomat-fio-banky-svitavy-mesto.html","15"
"14","Obchod","Albert Hypermarket","https://www.firmy.cz/detail/447206-albert-hypermarket-svitavy-lany.html","586"
"15","Vlak","Svitavy","","838"
"16","Sportoviště","Koupaliště SPORTES Svitavy","https://www.firmy.cz/detail/703670-koupaliste-sportes-svitavy-svitavy-predmesti.html","629"
"17","Školka","MŠ Svitavy, Purkyňova","https://www.firmy.cz/detail/12842055-ms-svitavy-purkynova-svitavy-predmesti.html","296"
