"","facility_type","facility_name","facility_iri","facility_distance"
"0","Cukrárna","Zelenkova cukrárna","https://www.firmy.cz/detail/12984527-zelenkova-cukrarna-praha-horni-mecholupy.html","603"
"1","Kino","Multikino - Premiere Cinemas Praha Hostivař","https://www.firmy.cz/detail/12745547-multikino-premiere-cinemas-praha-hostivar-praha-hostivar.html","3216"
"2","Přírodní zajímavost","Mokřad Triangl","","3475"
"3","Hřiště","Dětské hřiště Lánská","","202"
"4","Večerka","Můjobchod - Potraviny Na Vartě","https://www.firmy.cz/detail/12997171-mujobchod-potraviny-na-varte-praha-horni-mecholupy.html","198"
"5","Hospoda","Snack Bar V Domě","https://www.firmy.cz/detail/13144885-snack-bar-v-dome-praha-horni-mecholupy.html","634"
"6","Divadlo","Loutkové divadlo Frydolín","https://www.firmy.cz/detail/397086-loutkove-divadlo-frydolin-praha-hostivar.html","2140"
"7","Veterinář","H-VET spol. s r.o.","https://www.firmy.cz/detail/457903-h-vet-spol-s-r-o-praha-horni-mecholupy.html","253"
"8","Školka","MŠ Boloňská, Praha 10","https://www.firmy.cz/detail/406783-ms-bolonska-praha-10-praha-horni-mecholupy.html","109"
"9","Lékárna","BENU Lékárna, OC Kaufland","https://www.firmy.cz/detail/13072036-benu-lekarna-oc-kaufland-praha-horni-mecholupy.html","599"
"10","Škola","ZŠ, Praha 10, Křimická","https://www.firmy.cz/detail/356124-zs-praha-10-krimicka-praha-horni-mecholupy.html","131"
"11","Restaurace","Klub Varta","https://www.firmy.cz/detail/324210-klub-varta-praha-horni-mecholupy.html","159"
"12","Obchod","Kaufland","https://www.firmy.cz/detail/13019504-kaufland-praha-horni-mecholupy.html","582"
"13","Vlak","Praha-Horní Měcholupy","","415"
"14","Bankomat","Bankomat ČSOB","https://www.firmy.cz/detail/1424032-bankomat-csob-praha-horni-mecholupy.html","337"
"15","Bus MHD","Na Vartě","","227"
"16","Tram","Nádraží Hostivař","","1855"
"17","Sportoviště","Golf Club Hostivař","https://www.firmy.cz/detail/485718-golf-club-hostivar-praha-horni-mecholupy.html","771"
"18","Pošta","Pošta Praha 111","https://www.firmy.cz/detail/13129012-posta-praha-111-praha-horni-mecholupy.html","603"
"19","Metro","Háje","","2867"
"20","Lékař","Ordinace VPL MUDr. Alena Kopecká","https://www.firmy.cz/detail/12817938-ordinace-vpl-mudr-alena-kopecka-praha-horni-mecholupy.html","140"
