"","facility_type","facility_name","facility_iri","facility_distance"
"0","Cukrárna","Twin Caffe","https://www.firmy.cz/detail/318168-twin-caffe-teplice.html","188"
"1","Kino","Kino Květen","https://www.firmy.cz/detail/435268-kino-kveten-teplice.html","371"
"2","Přírodní zajímavost","Porcelanity u Strak","","3445"
"3","Hřiště","Dětské hřiště Šanovské sady","","862"
"4","Večerka","pecud - U Pekaře","https://www.firmy.cz/detail/2343372-pecud-u-pekare-teplice.html","213"
"5","Divadlo","Krušnohorské divadlo","https://www.firmy.cz/detail/435271-krusnohorske-divadlo-teplice.html","413"
"6","Veterinář","MVDr. Jaroslava Radoušová","https://www.firmy.cz/detail/2621440-mvdr-jaroslava-radousova-teplice.html","416"
"7","Hospoda","Hospůdka Vyšehrad Teplice","https://www.firmy.cz/detail/13121903-hospudka-vysehrad-teplice-teplice.html","171"
"8","Lékař","MUDr. Simona Srpová","https://www.firmy.cz/detail/12842563-mudr-simona-srpova-teplice.html","106"
"9","Sportoviště","Lanový park Teplice","https://www.firmy.cz/detail/13199196-lanovy-park-teplice-teplice.html","519"
"10","Obchod","Nákupní centrum Fontána Teplice","https://www.firmy.cz/detail/12866624-nakupni-centrum-fontana-teplice-teplice.html","257"
"11","Bus MHD","Teplice, Benešovo náměstí","","141"
"12","Lékárna","BENU Lékárna","https://www.firmy.cz/detail/13189279-benu-lekarna-teplice.html","201"
"13","Bankomat","Bankomat České spořitelny","https://www.firmy.cz/detail/12836957-bankomat-ceske-sporitelny-teplice.html","122"
"14","Školka","MŠ Čtyřlístek Teplice","https://www.firmy.cz/detail/770536-ms-ctyrlistek-teplice-teplice.html","545"
"15","Restaurace","TURBO PIZZA","https://www.firmy.cz/detail/13097347-turbo-pizza-teplice.html","107"
"16","Škola","Vyšší odborná škola zdravotnická a Střední škola zdravotnická, Ústí nad Labem","https://www.firmy.cz/detail/2618750-vyssi-odborna-skola-zdravotnicka-a-stredni-skola-zdravotnicka-usti-nad-labem-teplice.html","108"
"17","Pošta","Pošta Teplice 1 - Česká pošta, s.p.","https://www.firmy.cz/detail/215426-posta-teplice-1-teplice.html","195"
"18","Vlak","Teplice v Čechách","","527"
