"","facility_type","facility_name","facility_iri","facility_distance"
"0","Cukrárna","Cukrárna DonPablo","https://www.firmy.cz/detail/13302402-cukrarna-donpablo-praha-libus.html","112"
"1","Kino","Cinema City Chodov","https://www.firmy.cz/detail/13098016-cinema-city-chodov-praha-chodov.html","2900"
"2","Hřiště","Dětské hřiště","","470"
"3","Večerka","Smíšené zboží Mirotická 9","https://www.firmy.cz/detail/13292929-smisene-zbozi-miroticka-9-praha-lhotka.html","260"
"4","Divadlo","Loutkové divadlo Zvoneček","https://www.firmy.cz/detail/397112-loutkove-divadlo-zvonecek-praha-lhotka.html","2094"
"5","Hospoda","Hostinec Ve Mlýně","https://www.firmy.cz/detail/13079723-hostinec-ve-mlyne-praha-krc.html","147"
"6","Veterinář","Veterinární nemocnice Libuš","https://www.firmy.cz/detail/601292-veterinarni-nemocnice-libus-praha-libus.html","701"
"7","Lékař","MUDr. Jitka Steppanová","https://www.firmy.cz/detail/390592-mudr-jitka-steppanova-praha-krc.html","627"
"8","Škola","ZŠ U Krčského lesa, Praha 4","https://www.firmy.cz/detail/356168-zs-u-krcskeho-lesa-praha-4-praha-krc.html","820"
"9","Bus MHD","Jalodvorská","","140"
"10","Bankomat","Bankomat České spořitelny","https://www.firmy.cz/detail/13000867-bankomat-ceske-sporitelny-praha-libus.html","80"
"11","Obchod","OC Kunratice","https://www.firmy.cz/detail/13045926-oc-kunratice-praha-kunratice.html","1334"
"12","Pošta","Pošta Praha 411 - Česká pošta, s.p.","https://www.firmy.cz/detail/217478-posta-praha-411-praha-lhotka.html","578"
"13","Školka","Soukromá mateřská škola Beránek","https://www.firmy.cz/detail/12757822-soukroma-materska-skola-beranek-praha-libus.html","380"
"14","Sportoviště","DOMYNO1, s.r.o.","https://www.firmy.cz/detail/12797383-domyno1-praha-lhotka.html","577"
"15","Tram","Levského","","1894"
"16","Vlak","Praha-Krč","","2323"
"17","Restaurace","Originál 1869 u Hertlů","https://www.firmy.cz/detail/2233586-original-1869-u-hertlu-praha-libus.html","124"
"18","Lékárna","Lékárna Tajovského","https://www.firmy.cz/detail/376471-lekarna-tajovskeho-praha-krc.html","826"
"19","Metro","Roztyly","","2869"
