"","facility_type","facility_name","facility_iri","facility_distance"
"0","Cukrárna","CAFÉ SCHOOL – školní bar","https://www.firmy.cz/detail/12887085-cafe-school-skolni-bar-znojmo.html","280"
"1","Kino","Kino Svět","https://www.firmy.cz/detail/151310-kino-svet-znojmo.html","1354"
"2","Přírodní zajímavost","Gránické údolí","","695"
"3","Hřiště","Dětské hřiště Pražská","","81"
"4","Večerka","BILLA","https://www.firmy.cz/detail/450619-billa-znojmo.html","213"
"5","Divadlo","Městské divadlo Znojmo","https://www.firmy.cz/detail/230910-mestske-divadlo-znojmo-znojmo.html","1638"
"6","Hospoda","Hospoda Pražská sídl. 2502","https://www.firmy.cz/detail/13108753-hospoda-prazska-sidl-2502-znojmo.html","301"
"7","Veterinář","ZNOVET, s.r.o.","https://www.firmy.cz/detail/2692509-znovet-znojmo.html","187"
"8","Bus MHD","Znojmo, Přímětická SOU","","200"
"9","Školka","MŠ Znojmo, Pražská","https://www.firmy.cz/detail/2149763-ms-znojmo-prazska-znojmo.html","129"
"10","Obchod","Kaufland","https://www.firmy.cz/detail/1452574-kaufland-znojmo.html","1198"
"11","Škola","SOU a SOŠ SČMSD, Znojmo, s.r.o.","https://www.firmy.cz/detail/299832-sou-a-sos-scmsd-znojmo-s-r-o-znojmo.html","280"
"12","Vlak","Znojmo nemocnice","","558"
"13","Pošta","Pošta Znojmo 3 - Česká pošta, s.p.","https://www.firmy.cz/detail/216354-posta-znojmo-3-znojmo.html","94"
"14","Restaurace","Cafe Muzeum","https://www.firmy.cz/detail/12959267-cafe-muzeum-znojmo.html","450"
"15","Lékárna","Lékárna u Svatého Ducha s.r.o.","https://www.firmy.cz/detail/375512-lekarna-u-svateho-ducha-s-r-o-znojmo.html","850"
"16","Bankomat","Bankomat Fio banky","https://www.firmy.cz/detail/12850687-bankomat-fio-banky-znojmo.html","636"
"17","Sportoviště","Okresní tělovýchovné sdružení ČSTV ve Znojmě","https://www.firmy.cz/detail/745713-okresni-telovychovne-sdruzeni-cstv-ve-znojme-znojmo.html","564"
"18","Lékař","MUDr. Miroslav Štimpl, s.r.o.","https://www.firmy.cz/detail/12836913-mudr-miroslav-stimpl-znojmo.html","509"
