"","facility_type","facility_name","facility_iri","facility_distance"
"0","Hřiště","Dětské hřiště Petýrkova","https://mapy.cz/zakladni?x=14.4848670468&y=50.0310544641&z=17&source=base&id=1926819","98"
"1","Hospoda","Hospoda Donovalská 	1725","https://www.firmy.cz/detail/13158304-hospoda-donovalska-1725-praha-chodov.html","1296"
"2","Večerka","Albert Supermarket","https://www.firmy.cz/detail/452357-albert-supermarket-praha-chodov.html","224"
"3","Cukrárna","Costa Coffee","https://www.firmy.cz/detail/12757062-costa-coffee-praha-chodov.html","425"
"4","Divadlo","SKAZKA, spol. s r.o.","https://www.firmy.cz/detail/2048564-skazka-praha-hostivar.html","3015"
"5","Veterinář","Veterinární ordinace u gymnázia","https://www.firmy.cz/detail/727266-veterinarni-ordinace-u-gymnazia-praha-zabehlice.html","1654"
"6","Kino","Cinema City Chodov","https://www.firmy.cz/detail/13098016-cinema-city-chodov-praha-chodov.html","503"
"7","Přírodní zajímavost","Mokřad Triangl","https://mapy.cz/zakladni?x=14.5188041667&y=50.0615525&z=17&source=base&id=1981356","4232"
"8","Školka","MŠ Praha 4, Hrabákova","https://www.firmy.cz/detail/2265587-ms-praha-4-hrabakova-praha-chodov.html","187"
"9","Lékárna","Lékárna Medicentrum Praha","https://www.firmy.cz/detail/13217013-lekarna-medicentrum-praha-praha-chodov.html","368"
"10","Bankomat","Bankomat Fio banky","https://www.firmy.cz/detail/2678026-bankomat-fio-banky-praha-chodov.html","208"
"11","Metro","Chodov","https://mapy.cz/zakladni?x=14.4913169&y=50.0309086&z=17&source=pubt&id=15200211","558"
"12","Škola","Soukromá vyšší odborná škola umění a reklamy, s.r.o.","https://www.firmy.cz/detail/467931-soukroma-vyssi-odborna-skola-umeni-a-reklamy-praha-chodov.html","129"
"13","Tram","Spořilov","https://mapy.cz/zakladni?x=14.482064454&y=50.0504244015&z=17&source=pubt&id=15305185","2165"
"14","Obchod","Albert Hypermarket","https://www.firmy.cz/detail/648971-albert-hypermarket-praha-chodov.html","446"
"15","Pošta","Pošta Praha 414 - Česká pošta, s.p.","https://www.firmy.cz/detail/217475-posta-praha-414-praha-chodov.html","410"
"16","Restaurace","Restaurace U Krčáku","https://www.firmy.cz/detail/12924299-restaurace-u-krcaku-praha-chodov.html","154"
"17","Bus MHD","Petýrkova","https://mapy.cz/zakladni?x=14.48753785589704&y=50.03061568520739&z=17&source=pubt&id=15300850","291"
"18","Sportoviště","Aerobic Monika","https://www.firmy.cz/detail/460949-aerobic-monika-praha-chodov.html","208"
"19","Vlak","Praha-Kačerov","https://mapy.cz/zakladni?x=14.4622595787&y=50.0418756233&z=17&source=pubt&id=15699933","1942"
"20","Lékař","MUDr. Ludmila Eleková","https://www.firmy.cz/detail/387352-mudr-ludmila-elekova-praha-chodov.html","220"
