"","facility_type","facility_name","facility_iri","facility_distance"
"0","Cukrárna","Tři ocásci","https://www.firmy.cz/detail/13301666-tri-ocasci-brno-veveri.html","1203"
"1","Kino","Brno Autokino","https://www.firmy.cz/detail/13328637-brno-autokino-brno-pisarky.html","758"
"2","Přírodní zajímavost","Koniklecová louka","","2361"
"3","Hřiště","Dětské hřiště Havlíčkova","","708"
"4","Večerka","Samoobsluha BRNĚNKA","https://www.firmy.cz/detail/674876-samoobsluha-brnenka-brno-stranice.html","621"
"5","Divadlo","Divadlo Strom","https://www.firmy.cz/detail/12762146-divadlo-strom-brno-zabovresky.html","1470"
"6","Hospoda","Hospůdka na Drakenu","https://www.firmy.cz/detail/12757289-hospudka-na-drakenu-brno-veveri.html","914"
"7","Veterinář","MVDr. Miloš Mach- soukromý veterinární lékař","https://www.firmy.cz/detail/13038235-mvdr-milos-mach-soukromy-veterinarni-lekar-brno-stranice.html","276"
"8","Restaurace","Monte Bú Restaurant & steakhouse","https://www.firmy.cz/detail/13091432-monte-bu-restaurant-steakhouse-brno-veveri.html","700"
"9","Lékárna","Lékárna U sv. Augustina","https://www.firmy.cz/detail/13008721-lekarna-u-sv-augustina-brno-stranice.html","610"
"10","Škola","Mateřská škola a Základní škola Brno, Barvičova, příspěvková organizace","https://www.firmy.cz/detail/13043876-materska-skola-a-zakladni-skola-brno-barvicova-prispevkova-organizace-brno-stranice.html","312"
"11","Školka","MŠ Brno, Bílého","https://www.firmy.cz/detail/1993798-ms-brno-bileho-brno-stranice.html","321"
"12","Sportoviště","Tenisová škola TALLENT","https://www.firmy.cz/detail/722844-tenisova-skola-tallent-brno-pisarky.html","533"
"13","Bus MHD","Neumannova","","80"
"14","Tram","Lipová","","620"
"15","Vlak","Brno hlavní nádraží","","2722"
"16","Pošta","Pošta Brno 5 - Česká pošta, s.p.","https://www.firmy.cz/detail/1534294-posta-brno-5-brno-stranice.html","858"
"17","Lékař","MUDr. KATEŘINA MIHOLOVÁ","https://www.firmy.cz/detail/13291459-mudr-katerina-miholova-brno-pisarky.html","617"
"18","Obchod","OC Perla, a.s.","https://www.firmy.cz/detail/12875818-oc-perla-brno-zabovresky.html","2050"
"19","Bankomat","Bankomat Komerční banky","https://www.firmy.cz/detail/13033333-bankomat-komercni-banky-brno-stranice.html","621"
