"","facility_type","facility_name","facility_iri","facility_distance"
"0","Cukrárna","Polina Cake","https://www.firmy.cz/detail/13292664-polina-cake-praha-vokovice.html","722"
"1","Kino","Kino Dlabačov","https://www.firmy.cz/detail/13024517-kino-dlabacov-praha-brevnov.html","2844"
"2","Hřiště","Dětské hřiště Na Lužci","","271"
"3","Večerka","Obchod - potraviny","https://www.firmy.cz/detail/13169516-obchod-potraviny-praha-vokovice.html","204"
"4","Hospoda","Pivnice Samota","https://www.firmy.cz/detail/13310383-pivnice-samota-praha-vokovice.html","786"
"5","Divadlo","Divadlo Tineola","https://www.firmy.cz/detail/401473-divadlo-tineola-praha-vokovice.html","45"
"6","Veterinář","Veterinární ordinace Červený vrch","https://www.firmy.cz/detail/446552-veterinarni-ordinace-cerveny-vrch-praha-vokovice.html","202"
"7","Bankomat","Bankomat Euronet","https://www.firmy.cz/detail/13056224-bankomat-euronet-praha-veleslavin.html","178"
"8","Sportoviště","Tenisový oddíl SK Aritma Praha","https://www.firmy.cz/detail/406270-tenisovy-oddil-sk-aritma-praha-praha-vokovice.html","300"
"9","Lékař","Canadian Medical - AFI","https://www.firmy.cz/detail/13262475-canadian-medical-afi-praha-vokovice.html","404"
"10","Restaurace","Restaurace U Řezníka Praha","https://www.firmy.cz/detail/13303369-restaurace-u-reznika-praha-praha-vokovice.html","204"
"11","Bus MHD","Nádraží Veleslavín","","193"
"12","Škola","ZŠ Vokovice, Praha 6","https://www.firmy.cz/detail/362285-zs-vokovice-praha-6-praha-vokovice.html","175"
"13","Tram","Nádraží Veleslavín","","172"
"14","Vlak","Praha-Veleslavín","","224"
"15","Obchod","Obchodní dům Čílova","https://www.firmy.cz/detail/13157318-obchodni-dum-cilova-praha-veleslavin.html","846"
"16","Pošta","Pošta Praha 616 - Česká pošta, s.p.","https://www.firmy.cz/detail/431331-posta-praha-616-praha-veleslavin.html","839"
"17","Lékárna","BENU Lékárna","https://www.firmy.cz/detail/13196722-benu-lekarna-praha-vokovice.html","334"
"18","Metro","Nádraží Veleslavín","","212"
"19","Školka","Mateřská škola Vokovická","https://www.firmy.cz/detail/598527-materska-skola-vokovicka-praha-vokovice.html","296"
