"","facility_type","facility_name","facility_iri","facility_distance"
"0","Cukrárna","Patisserie Pod věží","https://www.firmy.cz/detail/13105279-patisserie-pod-vezi-hutisko-solanec-hutisko.html","441"
"1","Hřiště","Dětské hřiště Hutisko-Solanec obecní úřad","","325"
"2","Večerka","COOP JEDNOTA","https://www.firmy.cz/detail/2347586-coop-jednota-hutisko-solanec-solanec-pod-solanem.html","285"
"3","Hospoda","(Ne)obyčejná hospůdka na hřišti","https://www.firmy.cz/detail/13214219--ne-obycejna-hospudka-na-hristi-prostredni-becva.html","2153"
"4","Škola","ZŠ a MŠ Hutisko-Solanec","https://www.firmy.cz/detail/357322-zs-a-ms-hutisko-solanec-hutisko-solanec-hutisko.html","286"
"5","Školka","ZŠ a MŠ Hutisko-Solanec","https://www.firmy.cz/detail/725985-zs-a-ms-hutisko-solanec-hutisko-solanec-hutisko.html","286"
"6","Bus MHD","Hutisko-Solanec, pila","","870"
"7","Sportoviště","TJ Sokol Hutisko-Solanec z.s.","https://www.firmy.cz/detail/2657132-tj-sokol-hutisko-solanec-z-s-hutisko-solanec-hutisko.html","314"
"8","Pošta","Pošta Hutisko-Solanec - Česká pošta, s.p.","https://www.firmy.cz/detail/433370-posta-hutisko-solanec-hutisko-solanec-hutisko.html","314"
"9","Lékař","MUDr. Václav Holiš","https://www.firmy.cz/detail/12704442-mudr-vaclav-holis-hutisko-solanec-hutisko.html","430"
"10","Restaurace","Hospoda na Salaši","https://www.firmy.cz/detail/12917499-hospoda-na-salasi-hutisko-solanec-solanec-pod-solanem.html","366"
"11","Lékárna","LÉKÁRNA HUTISKO","https://www.firmy.cz/detail/13171809-lekarna-hutisko-hutisko-solanec-hutisko.html","430"
