"","facility_type","facility_name","facility_iri","facility_distance"
"0","Hřiště","Dětské hřiště Budapešťská","https://mapy.cz/zakladni?x=14.5158386683&y=50.0435510266&z=17&source=base&id=1926841","40"
"1","Večerka","Albert Supermarket","https://www.firmy.cz/detail/2354162-albert-supermarket-praha-hostivar.html","148"
"2","Cukrárna","Cukrárna Brodského","https://www.firmy.cz/detail/13220484-cukrarna-brodskeho-praha-chodov.html","1071"
"3","Veterinář","Mgr. Luboš Votoček","https://www.firmy.cz/detail/2454493-mgr-lubos-votocek-praha-chodov.html","947"
"4","Hospoda","Hospůdka V Ofsajdu","https://www.firmy.cz/detail/13115302-hospudka-v-ofsajdu-praha-chodov.html","1131"
"5","Divadlo","SKAZKA, spol. s r.o.","https://www.firmy.cz/detail/2048564-skazka-praha-hostivar.html","292"
"6","Kino","Multikino - Premiere Cinemas Praha Hostivař","https://www.firmy.cz/detail/12745547-multikino-premiere-cinemas-praha-hostivar-praha-hostivar.html","1016"
"7","Přírodní zajímavost","Mokřad Triangl","https://mapy.cz/zakladni?x=14.5188041667&y=50.0615525&z=17&source=base&id=1981356","1973"
"8","Bus MHD","K Obecním hájovnám","https://mapy.cz/zakladni?x=14.5164740597&y=50.0432101028&z=17&source=pubt&id=15303880","87"
"9","Školka","Mateřská škola KOŠÍK","https://www.firmy.cz/detail/13089583-materska-skola-kosik-praha-hostivar.html","258"
"10","Bankomat","Bankomat Air Bank","https://www.firmy.cz/detail/13057642-bankomat-air-bank-praha-hostivar.html","1048"
"11","Lékař","MUDr. Milena Hofmanová","https://www.firmy.cz/detail/390081-mudr-milena-hofmanova-praha-hostivar.html","299"
"12","Lékárna","Lékárna Majerského","https://www.firmy.cz/detail/13162341-lekarna-majerskeho-praha-chodov.html","774"
"13","Restaurace","TEODORO Ristorante","https://www.firmy.cz/detail/13035920-teodoro-ristorante-praha-hostivar.html","150"
"14","Sportoviště","Hřiště na pétanque","https://mapy.cz/zakladni?x=14.513198180221309&y=50.04483441526658&z=17&source=base&id=2337992","220"
"15","Škola","ZŠ Hostivař","https://www.firmy.cz/detail/356130-zs-hostivar-praha-hostivar.html","685"
"16","Obchod","Nákupní centrum Košík","https://www.firmy.cz/detail/221987-nakupni-centrum-kosik-praha-hostivar.html","446"
"17","Tram","Obchodní centrum Hostivař","https://mapy.cz/zakladni?x=14.5193941971609&y=50.0537281637775&z=17&source=pubt&id=15698031","1120"
"18","Vlak","Praha-Hostivař","https://mapy.cz/zakladni?x=14.5382405134&y=50.0550223431&z=17&source=pubt&id=15212564","2017"
"19","Pošta","Pošta Praha 107 - Česká pošta, s.p.","https://www.firmy.cz/detail/658873-posta-praha-107-praha-hostivar.html","1056"
"20","Metro","Háje","https://mapy.cz/zakladni?x=14.5257283653&y=50.0304441332&z=17&source=pubt&id=15200215","1653"
