"","facility_type","facility_name","facility_iri","facility_distance"
"0","Cukrárna","Cukroví,  Dorty a Zákusky od Kuny - Kuna, s.r.o.","https://www.firmy.cz/detail/13181120-cukrovi-dorty-a-zakusky-od-kuny-jihlava.html","71"
"1","Kino","Kino Dukla","https://www.firmy.cz/detail/12792238-kino-dukla-jihlava.html","203"
"2","Přírodní zajímavost","Pístovské mokřady","","2883"
"3","Hřiště","Dětské hřiště U Pivovaru","","140"
"4","Večerka","Pramen","https://www.firmy.cz/detail/12845143-pramen-jihlava.html","169"
"5","Divadlo","Divadlo otevřených dveří Diod","https://www.firmy.cz/detail/2698388-divadlo-otevrenych-dveri-diod-jihlava.html","307"
"6","Hospoda","Hospůdka Plechovka","https://www.firmy.cz/detail/2034991-hospudka-plechovka-jihlava.html","64"
"7","Veterinář","Veterinární ordinace Jihlava - MVDr. Marcela Cecchinato","https://www.firmy.cz/detail/12871130-veterinarni-ordinace-jihlava-mvdr-marcela-cecchinato-jihlava.html","380"
"8","Restaurace","Zverimex BistroBar","https://www.firmy.cz/detail/13247537-zverimex-bistrobar-jihlava.html","90"
"9","Bus MHD","Fibichova","","125"
"10","Školka","Mateřská škola Zvoněnka, Dvořákova 11","https://www.firmy.cz/detail/1889501-materska-skola-zvonenka-dvorakova-11-jihlava.html","37"
"11","Pošta","Pošta Jihlava 1 - Česká pošta, s.p.","https://www.firmy.cz/detail/215534-posta-jihlava-1-jihlava.html","384"
"12","Obchod","PRIOR ČESKÁ REPUBLIKA s.r.o.","https://www.firmy.cz/detail/1956976-prior-ceska-republika-s-r-o-jihlava.html","462"
"13","Lékárna","Lékárna Tilia","https://www.firmy.cz/detail/658480-lekarna-tilia-jihlava.html","184"
"14","Sportoviště","Kuželna Cháb","https://www.firmy.cz/detail/12886690-kuzelna-chab-jihlava.html","420"
"15","Lékař","MUDr. VOSÁHLOVÁ s.r.o.","https://www.firmy.cz/detail/13169378-mudr-vosahlova-s-r-o-jihlava.html","184"
"16","Vlak","Jihlava město","","896"
"17","Bankomat","Bankomat České spořitelny","https://www.firmy.cz/detail/592930-bankomat-ceske-sporitelny-jihlava.html","205"
"18","Škola","Manažerská akademie - střední odborná škola, s.r.o.","https://www.firmy.cz/detail/270788-manazerska-akademie-stredni-odborna-skola-s-r-o-jihlava.html","167"
