"","facility_type","facility_name","facility_iri","facility_distance"
"0","Cukrárna","Cukrárna Na kopečku","https://www.firmy.cz/detail/13123792-cukrarna-na-kopecku-kosmonosy.html","1632"
"1","Kino","CineStar Mladá Boleslav","https://www.firmy.cz/detail/2109584-cinestar-mlada-boleslav-mlada-boleslav-ii.html","4465"
"2","Přírodní zajímavost","Syslí kolonie","","3570"
"3","Hřiště","Dětské hřiště u informačního centra","","1359"
"4","Večerka","COOP","https://www.firmy.cz/detail/2342628-coop-bakov-nad-jizerou.html","1887"
"5","Hospoda","Pivnička U Trati","https://www.firmy.cz/detail/13219341-pivnicka-u-trati-bakov-nad-jizerou-mala-bela.html","3079"
"6","Divadlo","Divadelní sdružení Tyl","https://www.firmy.cz/detail/2277393-divadelni-sdruzeni-tyl-bakov-nad-jizerou.html","2399"
"7","Veterinář","MVDr. Ladislav Kilián","https://www.firmy.cz/detail/2124511-mvdr-ladislav-kilian-bitouchov-dalesice.html","1692"
"8","Bus MHD","Bakov nad Jizerou, Chudoplesy","","113"
"9","Vlak","Bakov nad Jizerou","","1545"
"10","Sportoviště","Sportovní hřiště Bakov nad Jizerou","https://www.firmy.cz/detail/13173356-sportovni-hriste-bakov-nad-jizerou-bakov-nad-jizerou-chudoplesy.html","115"
"11","Škola","ZŠ Kosmonosy, Podzámecká","https://www.firmy.cz/detail/357755-zs-kosmonosy-podzamecka-kosmonosy.html","2174"
"12","Lékař","Doc. MUDr. Ladislav Horák, DrSc.","https://www.firmy.cz/detail/13268957-doc-mudr-ladislav-horak-drsc-kosmonosy.html","1821"
"13","Bankomat","Bankomat Komerční banky","https://www.firmy.cz/detail/596279-bankomat-komercni-banky-kosmonosy.html","2211"
"14","Školka","Mateřská škola Na Kopečku, s.r.o.","https://www.firmy.cz/detail/12729821-materska-skola-na-kopecku-kosmonosy.html","1552"
"15","Obchod","Tesco Extra","https://www.firmy.cz/detail/12741905-tesco-extra-kosmonosy.html","2999"
"16","Lékárna","U Zámku","https://www.firmy.cz/detail/420520-u-zamku-kosmonosy.html","2211"
"17","Pošta","Pošta Kosmonosy - Česká pošta, s.p.","https://www.firmy.cz/detail/217166-posta-kosmonosy-kosmonosy.html","2183"
"18","Restaurace","Restaurace Na Zámečku","https://www.firmy.cz/detail/2679365-restaurace-na-zamecku-bakov-nad-jizerou-chudoplesy.html","1137"
