"","facility_type","facility_name","facility_iri","facility_distance"
"0","Cukrárna","Annie Farma Natura","https://www.firmy.cz/detail/13323632-annie-farma-natura-mala-skala-vranove-1-dil.html","216"
"1","Kino","Androvna","https://www.firmy.cz/detail/674857-androvna-mala-skala-vranove-2-dil.html","192"
"2","Přírodní zajímavost","Prackovský vulkán","","5416"
"3","Hřiště","Dětské hřiště","","369"
"4","Večerka","Potraviny ENAPO","https://www.firmy.cz/detail/13269601-potraviny-enapo-mala-skala-vranove-1-dil.html","255"
"5","Hospoda","Vechtrovna","https://www.firmy.cz/detail/13113350-vechtrovna-rakousy.html","1644"
"6","Vlak","Malá Skála","","508"
"7","Bus MHD","Malá Skála, Vranové, u mlýna","","31"
"8","Sportoviště","Tělovýchovná jednota Sokol Malá Skála","https://www.firmy.cz/detail/2132575-telovychovna-jednota-sokol-mala-skala-mala-skala-vranove-1-dil.html","306"
"9","Lékař","MUDr. Eva Boučková","https://www.firmy.cz/detail/387935-mudr-eva-bouckova-mala-skala-vranove-1-dil.html","356"
"10","Pošta","Pošta Malá Skála - Česká pošta, s.p.","https://www.firmy.cz/detail/215551-posta-mala-skala-mala-skala-labe.html","833"
"11","Restaurace","Hostinec U Boučků","https://www.firmy.cz/detail/13046615-hostinec-u-boucku-mala-skala-vranove-1-dil.html","218"
"12","Škola","ZŠ a MŠ Malá Skála","https://www.firmy.cz/detail/358167-zs-a-ms-mala-skala-mala-skala-vranove-1-dil.html","395"
"13","Školka","ZŠ a MŠ Malá Skála","https://www.firmy.cz/detail/730378-zs-a-ms-mala-skala-mala-skala-vranove-1-dil.html","394"
"14","Bankomat","Bankomat Komerční banky","https://www.firmy.cz/detail/12962098-bankomat-komercni-banky-zelezny-brod.html","4553"
