"","facility_type","facility_name","facility_iri","facility_distance"
"0","Cukrárna","Cafe Decada","https://www.firmy.cz/detail/2627206-cafe-decada-praha-liben.html","659"
"1","Kino","Kino Aero","https://www.firmy.cz/detail/399435-kino-aero-praha-zizkov.html","1873"
"2","Přírodní zajímavost","Meandry Rokytky","","2288"
"3","Hřiště","Dětské hřiště Na Balabence","","285"
"4","Večerka","Tesco Expres","https://www.firmy.cz/detail/12883781-tesco-expres-praha-liben.html","310"
"5","Divadlo","Divadlo Gong","https://www.firmy.cz/detail/230751-divadlo-gong-praha-liben.html","324"
"6","Hospoda","POHÁDKA","https://www.firmy.cz/detail/643952-pohadka-praha-liben.html","98"
"7","Veterinář","ERIKA veterinární klinika - MVDr. Pavel Hron","https://www.firmy.cz/detail/261989-erika-veterinarni-klinika-mvdr-pavel-hron-praha-liben.html","839"
"8","Škola","Základní škola a Mateřská škola Na Balabence","https://www.firmy.cz/detail/356263-zakladni-skola-a-materska-skola-na-balabence-praha-liben.html","274"
"9","Bus MHD","Balabenka","","282"
"10","Bankomat","Bankomat Komerční banky","https://www.firmy.cz/detail/2608933-bankomat-komercni-banky-praha-liben.html","232"
"11","Pošta","Pošta Praha 8 - Česká pošta, s.p.","https://www.firmy.cz/detail/216711-posta-praha-8-praha-liben.html","715"
"12","Školka","MŠ Praha 9, Kovářská","https://www.firmy.cz/detail/1969091-ms-praha-9-kovarska-praha-liben.html","448"
"13","Lékař","MUDr. Jana Jindrová","https://www.firmy.cz/detail/381551-mudr-jana-jindrova-praha-liben.html","580"
"14","Restaurace","Čínská restaurace Yi Xiang Ge","https://www.firmy.cz/detail/12721461-cinska-restaurace-yi-xiang-ge-praha-liben.html","143"
"15","Tram","Ocelářská","","131"
"16","Sportoviště","Český svaz ledního hokeje","https://www.firmy.cz/detail/166138-cesky-svaz-ledniho-hokeje-praha-liben.html","227"
"17","Metro","Českomoravská","","517"
"18","Vlak","Praha-Libeň","","1130"
"19","Obchod","Galerie Harfa","https://www.firmy.cz/detail/2333041-galerie-harfa-praha-liben.html","319"
"20","Lékárna","Lékárna ISCARE","https://www.firmy.cz/detail/13204206-lekarna-iscare-praha-liben.html","632"
