"","facility_type","facility_name","facility_iri","facility_distance"
"0","Cukrárna","Cafe Decada","https://www.firmy.cz/detail/2627206-cafe-decada-praha-liben.html","416"
"1","Kino","Kino Aero","https://www.firmy.cz/detail/399435-kino-aero-praha-zizkov.html","1812"
"2","Přírodní zajímavost","Meandry Rokytky","","2546"
"3","Hřiště","Dětské hřiště Na Balabence","","62"
"4","Večerka","Albert Supermarket","https://www.firmy.cz/detail/150962-albert-supermarket-praha-liben.html","550"
"5","Hospoda","POHÁDKA","https://www.firmy.cz/detail/643952-pohadka-praha-liben.html","178"
"6","Divadlo","Divadlo Gong","https://www.firmy.cz/detail/230751-divadlo-gong-praha-liben.html","452"
"7","Veterinář","ERIKA veterinární klinika - MVDr. Pavel Hron","https://www.firmy.cz/detail/261989-erika-veterinarni-klinika-mvdr-pavel-hron-praha-liben.html","580"
"8","Pošta","Pošta Praha 8 - Česká pošta, s.p.","https://www.firmy.cz/detail/216711-posta-praha-8-praha-liben.html","507"
"9","Restaurace","Čínská restaurace Yi Xiang Ge","https://www.firmy.cz/detail/12721461-cinska-restaurace-yi-xiang-ge-praha-liben.html","203"
"10","Tram","Balabenka","","30"
"11","Obchod","Galerie Harfa","https://www.firmy.cz/detail/2333041-galerie-harfa-praha-liben.html","572"
"12","Lékař","MUDr. Jana Jindrová","https://www.firmy.cz/detail/381551-mudr-jana-jindrova-praha-liben.html","330"
"13","Bankomat","Bankomat Komerční banky","https://www.firmy.cz/detail/2608933-bankomat-komercni-banky-praha-liben.html","79"
"14","Škola","Základní škola a Mateřská škola Na Balabence","https://www.firmy.cz/detail/356263-zakladni-skola-a-materska-skola-na-balabence-praha-liben.html","107"
"15","Sportoviště","Hřiště na pétanque Balabenka","","77"
"16","Lékárna","Lékárna U Libeňského zámečku","https://www.firmy.cz/detail/658401-lekarna-u-libenskeho-zamecku-praha-liben.html","698"
"17","Vlak","Praha-Vysočany","","1322"
"18","Bus MHD","Balabenka","","169"
"19","Metro","Palmovka","","468"
"20","Školka","MŠ Praha 8, Kotlaska","https://www.firmy.cz/detail/2265768-ms-praha-8-kotlaska-praha-liben.html","463"
