"","facility_type","facility_name","facility_iri","facility_distance"
"0","Cukrárna","FoxCoffee","https://www.firmy.cz/detail/13139048-foxcoffee-opava-mesto.html","699"
"1","Přírodní zajímavost","Bludný balvan","","668"
"2","Kino","Kino Mír","https://www.firmy.cz/detail/2297240-kino-mir-opava-mesto.html","766"
"3","Hřiště","Dětské hřiště Edvarda Beneše","","251"
"4","Večerka","Albert Supermarket","https://www.firmy.cz/detail/450285-albert-supermarket-opava-katerinky.html","55"
"5","Hospoda","HERNA BLUDIČKA","https://www.firmy.cz/detail/13108350-herna-bludicka-opava-katerinky.html","339"
"6","Divadlo","Slezské divadlo Opava","https://www.firmy.cz/detail/230941-slezske-divadlo-opava-opava-mesto.html","773"
"7","Veterinář","MVDr. Lenka Bořecká","https://www.firmy.cz/detail/2660210-mvdr-lenka-borecka-opava-mesto.html","537"
"8","Restaurace","Restaurace Hotel Buly","https://www.firmy.cz/detail/13105111-restaurace-hotel-buly-opava-katerinky.html","44"
"9","Bankomat","Bankomat České spořitelny","https://www.firmy.cz/detail/12838683-bankomat-ceske-sporitelny-opava-katerinky.html","45"
"10","Školka","MŠ Opava, Edvarda Beneše","https://www.firmy.cz/detail/1988931-ms-opava-edvarda-benese-opava-katerinky.html","365"
"11","Lékař","TRATTAMENTO, s.r.o.","https://www.firmy.cz/detail/12716501-trattamento-opava-katerinky.html","201"
"12","Lékárna","Lékárna AGEL","https://www.firmy.cz/detail/12822231-lekarna-agel-opava-katerinky.html","322"
"13","Vlak","Opava východ","","713"
"14","Škola","Základní škola Opava, Edvarda Beneše 2","https://www.firmy.cz/detail/358605-zakladni-skola-opava-edvarda-benese-2-opava-katerinky.html","271"
"15","Pošta","Pošta Opava 5 - Česká pošta, s.p.","https://www.firmy.cz/detail/432560-posta-opava-5-opava-katerinky.html","291"
"16","Obchod","OC Breda & Weinstein","https://www.firmy.cz/detail/12735258-oc-breda-weinstein-opava-mesto.html","871"
"17","Bus MHD","Opava, Holasická","","107"
"18","Sportoviště","Beach Centrum Kolofík","https://www.firmy.cz/detail/750765-beach-centrum-kolofik-opava-katerinky.html","778"
