"","facility_type","facility_name","facility_iri","facility_distance"
"0","Cukrárna","Dorty Praha","https://www.firmy.cz/detail/13167196-dorty-praha-jirny-nove-jirny.html","205"
"1","Hřiště","Dětské hřiště u jezírka","","705"
"2","Večerka","Smíšené zboží Brandýská 317","https://www.firmy.cz/detail/13145131-smisene-zbozi-brandyska-317-jirny.html","1947"
"3","Hospoda","HOSTINEC U BASAŘE","https://www.firmy.cz/detail/13017155-hostinec-u-basare-horousany.html","2407"
"4","Divadlo","Depresivní děti touží po penězích","https://www.firmy.cz/detail/1907707-depresivni-deti-touzi-po-penezich-praha-ujezd-nad-lesy.html","4034"
"5","Veterinář","MVDr. Eva Malcová","https://www.firmy.cz/detail/1948096-mvdr-eva-malcova-sestajovice.html","1996"
"6","Bus MHD","Jirny, Nové Jirny, II","","189"
"7","Školka","DĚTSKÝ LESNÍ KLUB V MECHU A KAPRADÍ","https://www.firmy.cz/detail/12969988-detsky-lesni-klub-v-mechu-a-kapradi-praha-klanovice.html","1422"
"8","Lékař","MUDr. Tomáš Dambrich","https://www.firmy.cz/detail/13284256-mudr-tomas-dambrich-horousany-horousanky.html","1470"
"9","Pošta","Pošta Jirny - Česká pošta, s.p.","https://www.firmy.cz/detail/217429-posta-jirny-jirny.html","1743"
"10","Lékárna","OOVL - L SCARABEUS","https://www.firmy.cz/detail/12944121-oovl-l-scarabeus-jirny.html","1659"
"11","Bankomat","Bankomat ČSOB","https://www.firmy.cz/detail/13193325-bankomat-csob-sestajovice.html","2703"
"12","Sportoviště","Koupaliště Klánovice","https://www.firmy.cz/detail/651240-koupaliste-klanovice-praha-klanovice.html","1619"
"13","Vlak","Úvaly","","3204"
"14","Škola","ZŠ Jirny","https://www.firmy.cz/detail/357562-zs-jirny-jirny.html","1566"
"15","Restaurace","Restaurace U Křížků","https://www.firmy.cz/detail/13113173-restaurace-u-krizku-praha-klanovice.html","1634"
