"","facility_type","facility_name","facility_iri","facility_distance"
"0","Cukrárna","Cukrárna Ollies","https://www.firmy.cz/detail/12720535-cukrarna-ollies-ostrava-poruba.html","723"
"1","Kino","5D cinema Maxim","https://www.firmy.cz/detail/12950606-5d-cinema-maxim-ostrava-zabreh.html","4387"
"2","Přírodní zajímavost","Polanský bludný balvan","","4771"
"3","Hřiště","Dětské hřiště Panelová","","90"
"4","Večerka","HRUŠKA","https://www.firmy.cz/detail/12820385-hruska-ostrava-poruba.html","368"
"5","Hospoda","Bunkr 02","https://www.firmy.cz/detail/13122600-bunkr-02-ostrava-poruba.html","283"
"6","Divadlo","Porubské divadlo","https://www.firmy.cz/detail/2543038-porubske-divadlo-ostrava-poruba.html","928"
"7","Veterinář","MVDr. Jan Nytra - veterinární klinika","https://www.firmy.cz/detail/274228-mvdr-jan-nytra-veterinarni-klinika-ostrava-poruba.html","747"
"8","Škola","Mateřská, základní a střední škola Monty School Ostrava","https://www.firmy.cz/detail/2465005-materska-zakladni-a-stredni-skola-monty-school-ostrava-ostrava-poruba.html","80"
"9","Obchod","Albert Hypermarket","https://www.firmy.cz/detail/12928419-albert-hypermarket-ostrava-poruba.html","278"
"10","Bankomat","Bankomat České spořitelny","https://www.firmy.cz/detail/2290493-bankomat-ceske-sporitelny-ostrava-poruba.html","278"
"11","Lékárna","Lékárna Apromed","https://www.firmy.cz/detail/422080-lekarna-apromed-ostrava-poruba.html","75"
"12","Restaurace","Viktorka - Plzeňská tankovna","https://www.firmy.cz/detail/13115546-viktorka-plzenska-tankovna-ostrava-poruba.html","279"
"13","Tram","Telekomunikační škola","","178"
"14","Lékař","MUDr. Rosypalová, s.r.o.","https://www.firmy.cz/detail/12829607-mudr-rosypalova-ostrava-poruba.html","67"
"15","Školka","Anglická školka a jesle MONTY","https://www.firmy.cz/detail/2685066-anglicka-skolka-a-jesle-monty-ostrava-poruba.html","80"
"16","Sportoviště","Sportovní a rekreační zařízení města Ostravy","https://www.firmy.cz/detail/423310-sportovni-a-rekreacni-zarizeni-mesta-ostravy-ostrava-poruba.html","604"
"17","Pošta","Pošta Ostrava 8 - Česká pošta, s.p.","https://www.firmy.cz/detail/433404-posta-ostrava-8-ostrava-poruba.html","647"
"18","Bus MHD","Telekomunikační škola","","226"
"19","Vlak","Ostrava-Třebovice","","1670"
