"","facility_type","facility_name","facility_iri","facility_distance"
"0","Cukrárna","Marcela Hřebíčková - Cukrárna","https://www.firmy.cz/detail/2033533-marcela-hrebickova-cukrarna-klasterec-nad-ohri-miretice-u-klasterce-nad-ohri.html","475"
"1","Kino","Letní kino Klášterec nad Ohří","https://www.firmy.cz/detail/13326183-letni-kino-klasterec-nad-ohri-klasterec-nad-ohri.html","454"
"2","Hřiště","Dětské hřiště ZŠ Petlerská","","260"
"3","Večerka","NORMA","https://www.firmy.cz/detail/12742914-norma-klasterec-nad-ohri.html","362"
"4","Hospoda","Pivnice U Obušku","https://www.firmy.cz/detail/13081036-pivnice-u-obusku-klasterec-nad-ohri-miretice-u-klasterce-nad-ohri.html","610"
"5","Veterinář","Veterinární ordinace - MVDr. Jiří Kučera","https://www.firmy.cz/detail/2504313-veterinarni-ordinace-mvdr-jiri-kucera-klasterec-nad-ohri-miretice-u-klasterce-nad-ohri.html","583"
"6","Vlak","Klášterec nad Ohří","","799"
"7","Lékárna","Lékárna Za potokem","https://www.firmy.cz/detail/2628442-lekarna-za-potokem-klasterec-nad-ohri-miretice-u-klasterce-nad-ohri.html","133"
"8","Škola","Základní škola, Klášterec nad Ohří, Petlérská 447, okres Chomutov","https://www.firmy.cz/detail/357662-zakladni-skola-klasterec-nad-ohri-petlerska-447-okres-chomutov-klasterec-nad-ohri-miretice-u-klasterce-nad-ohri.html","197"
"9","Sportoviště","M - club, společnost s ručením omezeným","https://www.firmy.cz/detail/13068166-m-club-klasterec-nad-ohri-miretice-u-klasterce-nad-ohri.html","244"
"10","Bus MHD","Klášterec nad Ohří, Zdrav.stř.","","261"
"11","Pošta","Pošta Klášterec nad Ohří 1 - Česká pošta, s.p.","https://www.firmy.cz/detail/215309-posta-klasterec-nad-ohri-1-klasterec-nad-ohri-miretice-u-klasterce-nad-ohri.html","222"
"12","Bankomat","Bankomat České spořitelny","https://www.firmy.cz/detail/593006-bankomat-ceske-sporitelny-klasterec-nad-ohri-miretice-u-klasterce-nad-ohri.html","127"
"13","Obchod","Tesco","https://www.firmy.cz/detail/2195391-tesco-klasterec-nad-ohri.html","645"
"14","Lékař","ZEROMED, s.r.o.","https://www.firmy.cz/detail/12841398-zeromed-klasterec-nad-ohri-miretice-u-klasterce-nad-ohri.html","133"
"15","Restaurace","Restaurace u pivovaru","https://www.firmy.cz/detail/13320358-restaurace-u-pivovaru-klasterec-nad-ohri.html","318"
"16","Školka","MŠ Bruslička","https://www.firmy.cz/detail/12975728-ms-bruslicka-klasterec-nad-ohri-miretice-u-klasterce-nad-ohri.html","425"
