"","facility_type","facility_name","facility_iri","facility_distance"
"0","Hřiště","Dětské hřiště Křivánkovo náměstí","https://mapy.cz/zakladni?x=16.487045&y=49.208204&z=17&source=base&id=2319033","37"
"1","Přírodní zajímavost","Tetčická bažina","https://mapy.cz/zakladni?x=16.4385686111&y=49.1683641667&z=17&source=base&id=1923151","5653"
"2","Hospoda","Pivnice U Náhla","https://www.firmy.cz/detail/13269692-pivnice-u-nahla-brno-zebetin.html","302"
"3","Večerka","Žebětínský Dvůr market","https://www.firmy.cz/detail/13138241-zebetinsky-dvur-market-brno-zebetin.html","45"
"4","Cukrárna","CUKRÁRNA DIAM","https://www.firmy.cz/detail/13029765-cukrarna-diam-brno-bystrc.html","1461"
"5","Veterinář","Veterinární centrum Akuvet","https://www.firmy.cz/detail/13230978-veterinarni-centrum-akuvet-brno-bystrc.html","1193"
"6","Sportoviště","Sportovní centrum Žebětínský dvůr","https://www.firmy.cz/detail/2495237-sportovni-centrum-zebetinsky-dvur-brno-zebetin.html","49"
"7","Tram","Ečerova","https://mapy.cz/zakladni?x=16.5093526577&y=49.2178989399&z=17&source=pubt&id=15317842","1942"
"8","Lékař","MUDr. Pavlína Zharfbinová","https://www.firmy.cz/detail/13288203-mudr-pavlina-zharfbinova-brno-zebetin.html","120"
"9","Pošta","Pošta Brno 41 - Česká pošta, s.p.","https://www.firmy.cz/detail/12785621-posta-brno-41-brno-zebetin.html","133"
"10","Bankomat","Bankomat Fio banky","https://www.firmy.cz/detail/12950498-bankomat-fio-banky-brno.html","1459"
"11","Bus MHD","Křivánkovo náměstí","https://mapy.cz/zakladni?x=16.4875496107792&y=49.207235165079&z=17&source=pubt&id=15205767","81"
"12","Školka","Mateřská škola Žabka, Brno, příspěvková organizace","https://www.firmy.cz/detail/407308-materska-skola-zabka-brno-prispevkova-organizace-brno-zebetin.html","231"
"13","Škola","ZŠ Brno, Otevřená","https://www.firmy.cz/detail/356516-zs-brno-otevrena-brno-zebetin.html","133"
"14","Restaurace","Myslivecká restaurace Žebětínský dvůr","https://www.firmy.cz/detail/2265438-myslivecka-restaurace-zebetinsky-dvur-brno-zebetin.html","49"
"15","Lékárna","OOVL - L Biovita","https://www.firmy.cz/detail/658641-oovl-l-biovita-brno-zebetin.html","120"
"16","Obchod","OC MAX s.r.o.","https://www.firmy.cz/detail/13171099-oc-max-s-r-o-brno-bystrc.html","2674"
