"","facility_type","facility_name","facility_iri","facility_distance"
"0","Cukrárna","Lahůdky na faře","https://www.firmy.cz/detail/12977160-lahudky-na-fare-praha-karlin.html","375"
"1","Kino","Spoiler - Filmový klub, z.s.","https://www.firmy.cz/detail/396379-spoiler-filmovy-klub-z-s-praha-zizkov.html","1430"
"2","Hřiště","Dětské hřiště Karlínské náměstí","","351"
"3","Večerka","Albert Supermarket","https://www.firmy.cz/detail/2425665-albert-supermarket-praha-karlin.html","333"
"4","Hospoda","U Pižďucha","https://www.firmy.cz/detail/337127-u-pizducha-praha-zizkov.html","1171"
"5","Divadlo","Divadlo (bez záruky) Praha","https://www.firmy.cz/detail/475801-divadlo-bez-zaruky-praha-praha-karlin.html","548"
"6","Veterinář","MVDr. Daniel Barek - Veterinární Klinika U Tunelu","https://www.firmy.cz/detail/402428-mvdr-daniel-barek-veterinarni-klinika-u-tunelu-praha-karlin.html","570"
"7","Lékárna","Lékárna U Zlatého slunce","https://www.firmy.cz/detail/374838-lekarna-u-zlateho-slunce-praha-karlin.html","356"
"8","Pošta","Pošta Praha 86 - Česká pošta, s.p.","https://www.firmy.cz/detail/216676-posta-praha-86-praha-karlin.html","328"
"9","Školka","ZŠ a MŠ Praha 8, Lyčkovo náměstí","https://www.firmy.cz/detail/724264-zs-a-ms-praha-8-lyckovo-namesti-praha-karlin.html","592"
"10","Škola","Karlínská obchodní akademie a vyšší odborná škola ekonomická","https://www.firmy.cz/detail/2201702-karlinska-obchodni-akademie-a-vyssi-odborna-skola-ekonomicka-praha-karlin.html","570"
"11","Metro","Křižíkova","","207"
"12","Lékař","Doc.MUDr. Bohumil Seifert, Ph.D.","https://www.firmy.cz/detail/389888-doc-mudr-bohumil-seifert-ph-d-praha-karlin.html","367"
"13","Restaurace","Beas Vegetarian Dhaba","https://www.firmy.cz/detail/2385041-beas-vegetarian-dhaba-praha-karlin.html","158"
"14","Bus MHD","Pernerova","","819"
"15","Tram","Křižíkova","","165"
"16","Sportoviště","Tenisová škola TALLENT","https://www.firmy.cz/detail/153033-tenisova-skola-tallent-praha-karlin.html","468"
"17","Obchod","Bílá labuť","https://www.firmy.cz/detail/221990-bila-labut-praha-nove-mesto.html","1341"
"18","Bankomat","Bankomat Komerční banky","https://www.firmy.cz/detail/596058-bankomat-komercni-banky-praha-karlin.html","155"
"19","Vlak","Praha-Bubny","","1138"
