"","facility_type","facility_name","facility_iri","facility_distance"
"0","Cukrárna","Žádný Cukrbliky","https://www.firmy.cz/detail/13144059-zadny-cukrbliky-brno-zabrdovice.html","155"
"1","Kino","Letní kino Brno na Dvoře MdB","https://www.firmy.cz/detail/13308736-letni-kino-brno-na-dvore-mdb-brno-cerna-pole.html","1283"
"2","Přírodní zajímavost","Cesta rákosím","","3789"
"3","Hřiště","Dětské hřiště Husovická","","303"
"4","Večerka","Můj obchod - Potraviny Na Vranovské","https://www.firmy.cz/detail/13262831-muj-obchod-potraviny-na-vranovske-brno-zabrdovice.html","49"
"5","Hospoda","Hospoda Stararena","https://www.firmy.cz/detail/13139625-hospoda-stararena-brno-zabrdovice.html","216"
"6","Divadlo","ProART","https://www.firmy.cz/detail/2639979-proart-brno-zabrdovice.html","333"
"7","Veterinář","MVDr. Zdeněk Haluza","https://www.firmy.cz/detail/477110-mvdr-zdenek-haluza-brno-husovice.html","597"
"8","Lékárna","BENU Lékárna","https://www.firmy.cz/detail/12855801-benu-lekarna-brno-zabrdovice.html","150"
"9","Bus MHD","Francouzská","","54"
"10","Bankomat","Bankomat České spořitelny","https://www.firmy.cz/detail/591582-bankomat-ceske-sporitelny-brno-zabrdovice.html","119"
"11","Lékař","MUDr. Marie Mečkovská","https://www.firmy.cz/detail/1348761-mudr-marie-meckovska-brno-zabrdovice.html","178"
"12","Školka","ZŠ a MŠ Brno, Merhautova","https://www.firmy.cz/detail/2545122-zs-a-ms-brno-merhautova-brno-cerna-pole.html","299"
"13","Obchod","Albert Hypermarket","https://www.firmy.cz/detail/12920888-albert-hypermarket-brno-zabrdovice.html","351"
"14","Vlak","Brno-Židenice","","792"
"15","Škola","Střední škola umění a designu a Vyšší odborná škola Brno","https://www.firmy.cz/detail/12704470-stredni-skola-umeni-a-designu-a-vyssi-odborna-skola-brno-brno-zabrdovice.html","88"
"16","Sportoviště","Sport Balkán","https://www.firmy.cz/detail/12945003-sport-balkan-brno-zabrdovice.html","197"
"17","Restaurace","Corner pub","https://www.firmy.cz/detail/2196964-corner-pub-brno-zabrdovice.html","78"
"18","Tram","Jugoslávská","","146"
"19","Pošta","Pošta Brno 4 - Česká pošta, s.p.","https://www.firmy.cz/detail/431876-posta-brno-4-brno-zabrdovice.html","902"
