"","facility_type","facility_name","facility_iri","facility_distance"
"0","Cukrárna","Čajovna a kavárna Krásná chvíle","https://www.firmy.cz/detail/13077202-cajovna-a-kavarna-krasna-chvile-svitavy-mesto.html","343"
"1","Kino","Kino Vesmír","https://www.firmy.cz/detail/396532-kino-vesmir-svitavy-predmesti.html","394"
"2","Hřiště","Dětské hřiště Dimitrivova","","335"
"3","Večerka","Svitavská LIDOVKA DIMICO","https://www.firmy.cz/detail/12815612-svitavska-lidovka-dimico-svitavy-mesto.html","96"
"4","Hospoda","Pivnice U Mrtvoly","https://www.firmy.cz/detail/12822663-pivnice-u-mrtvoly-svitavy-predmesti.html","573"
"5","Divadlo","Divadlo Trám","https://www.firmy.cz/detail/662012-divadlo-tram-svitavy-predmesti.html","394"
"6","Veterinář","MVDr. Martin Fedrsel","https://www.firmy.cz/detail/475810-mvdr-martin-fedrsel-svitavy-mesto.html","174"
"7","Bus MHD","Svitavy, Máchova alej","","208"
"8","Škola","ZŠ Svitavy, nám. Míru","https://www.firmy.cz/detail/359556-zs-svitavy-nam-miru-svitavy-mesto.html","19"
"9","Obchod","Albert Hypermarket","https://www.firmy.cz/detail/447206-albert-hypermarket-svitavy-lany.html","643"
"10","Sportoviště","Koupaliště SPORTES Svitavy","https://www.firmy.cz/detail/703670-koupaliste-sportes-svitavy-svitavy-predmesti.html","579"
"11","Lékař","MUDr. Jiří Šoupal, PRAKTIK SVITAVY s.r.o.","https://www.firmy.cz/detail/13150949-mudr-jiri-soupal-praktik-svitavy-s-r-o-svitavy-mesto.html","50"
"12","Restaurace","Pizza Art Svitavy","https://www.firmy.cz/detail/12808676-pizza-art-svitavy-svitavy.html","59"
"13","Pošta","Pošta Svitavy 1 - Česká pošta, s.p.","https://www.firmy.cz/detail/215853-posta-svitavy-1-svitavy-predmesti.html","235"
"14","Bankomat","Bankomat ČSOB","https://www.firmy.cz/detail/599221-bankomat-csob-svitavy-mesto.html","40"
"15","Školka","Mateřská škola Svitavy, Československé armády 9","https://www.firmy.cz/detail/2418163-materska-skola-svitavy-ceskoslovenske-armady-9-svitavy-predmesti.html","330"
"16","Vlak","Svitavy","","885"
"17","Lékárna","Lékárna Paracelsus","https://www.firmy.cz/detail/2628722-lekarna-paracelsus-svitavy-mesto.html","64"
