"","facility_type","facility_name","facility_iri","facility_distance"
"0","Cukrárna","JAVEKO CZ - Cukrárna kavárna","https://www.firmy.cz/detail/12781068-javeko-cz-cukrarna-kavarna-jablonec-nad-nisou.html","312"
"1","Kino","Letní kino Jablonec nad Nisou","https://www.firmy.cz/detail/13333339-letni-kino-jablonec-nad-nisou-jablonec-nad-nisou.html","753"
"2","Hřiště","Dětské hřiště Vysoká","","208"
"3","Večerka","Můjobchod - Potraviny Tai Asean","https://www.firmy.cz/detail/12998359-mujobchod-potraviny-tai-asean-jablonec-nad-nisou.html","198"
"4","Hospoda","Pivnice OKO","https://www.firmy.cz/detail/12827234-pivnice-oko-jablonec-nad-nisou.html","519"
"5","Divadlo","Městské divadlo Jablonec nad Nisou, o.p.s.","https://www.firmy.cz/detail/396944-mestske-divadlo-jablonec-nad-nisou-jablonec-nad-nisou.html","1267"
"6","Veterinář","MVDr. Hana Flejberková","https://www.firmy.cz/detail/1982096-mvdr-hana-flejberkova-jablonec-nad-nisou.html","564"
"7","Školka","MŠ Jablonec nad Nisou, Švédská - Čtyřlístek","https://www.firmy.cz/detail/576802-ms-jablonec-nad-nisou-svedska-ctyrlistek-jablonec-nad-nisou.html","175"
"8","Lékárna","Lékárna Mánesova","https://www.firmy.cz/detail/658170-lekarna-manesova-jablonec-nad-nisou.html","243"
"9","Sportoviště","Spinning Jaromíra Hengalová","https://www.firmy.cz/detail/12834968-spinning-jaromira-hengalova-jablonec-nad-nisou.html","289"
"10","Bankomat","Bankomat ČSOB","https://www.firmy.cz/detail/2577366-bankomat-csob-jablonec-nad-nisou.html","200"
"11","Vlak","Jablonecké Paseky","","716"
"12","Škola","Základní škola Jablonec nad Nisou, Na Šumavě 43","https://www.firmy.cz/detail/281950-zakladni-skola-jablonec-nad-nisou-na-sumave-43-jablonec-nad-nisou.html","98"
"13","Pošta","Pošta Jablonec nad Nisou 2 - Česká pošta, s.p.","https://www.firmy.cz/detail/1446430-posta-jablonec-nad-nisou-2-jablonec-nad-nisou.html","207"
"14","Obchod","Kaufland","https://www.firmy.cz/detail/1448716-kaufland-jablonec-nad-nisou-mseno-nad-nisou.html","1202"
"15","Bus MHD","Plavecký bazén","","175"
"16","Lékař","Ordinace Jitřní, s.r.o.","https://www.firmy.cz/detail/13285786-ordinace-jitrni-jablonec-nad-nisou.html","494"
"17","Restaurace","Restaurace Městská hala","https://www.firmy.cz/detail/258641-restaurace-mestska-hala-jablonec-nad-nisou.html","189"
