"","facility_type","facility_name","facility_iri","facility_distance"
"0","Cukrárna","Zero Goodies","https://www.firmy.cz/detail/13139385-zero-goodies-chomutov.html","855"
"1","Kino","Letní kino Chomutov","https://www.firmy.cz/detail/2644649-letni-kino-chomutov-chomutov.html","1926"
"2","Hřiště","Dětské hřiště Prokopova","","410"
"3","Večerka","Potraviny U Nemocnice","https://www.firmy.cz/detail/2461509-potraviny-u-nemocnice-chomutov.html","268"
"4","Hospoda","Pivnice Meisnerova","https://www.firmy.cz/detail/13327610-pivnice-meisnerova-chomutov.html","376"
"5","Divadlo","Městské divadlo Chomutov","https://www.firmy.cz/detail/2644644-mestske-divadlo-chomutov-chomutov.html","1086"
"6","Veterinář","MVDr. Miloš Helebrant","https://www.firmy.cz/detail/2132064-mvdr-milos-helebrant-chomutov.html","298"
"7","Bankomat","Bankomat České spořitelny","https://www.firmy.cz/detail/591859-bankomat-ceske-sporitelny-chomutov.html","303"
"8","Lékárna","Lékárna Nemocnice Chomutov, o.z","https://www.firmy.cz/detail/12771494-lekarna-nemocnice-chomutov-o-z-chomutov.html","303"
"9","Škola","ZUŠ T.G. Masaryka Chomutov","https://www.firmy.cz/detail/429910-zus-t-g-masaryka-chomutov-chomutov.html","554"
"10","Lékař","MUDr. František Rouče","https://www.firmy.cz/detail/387374-mudr-frantisek-rouce-chomutov.html","162"
"11","Sportoviště","KULTURA A SPORT CHOMUTOV, s.r.o.","https://www.firmy.cz/detail/297308-kultura-a-sport-chomutov-chomutov.html","1086"
"12","Pošta","Pošta Depo Chomutov 70","https://www.firmy.cz/detail/13162842-posta-depo-chomutov-70-chomutov.html","770"
"13","Restaurace","Restaurace U Lípy","https://www.firmy.cz/detail/12957872-restaurace-u-lipy-chomutov.html","620"
"14","Školka","MŠ Chomutov, Prokopova","https://www.firmy.cz/detail/1345637-ms-chomutov-prokopova-chomutov.html","432"
"15","Obchod","Galerie pošta","https://www.firmy.cz/detail/13062048-galerie-posta-chomutov.html","761"
"16","Vlak","Chomutov","","591"
"17","Bus MHD","Chomutov, Poliklinika","","89"
