"","facility_type","facility_name","facility_iri","facility_distance"
"0","Cukrárna","Svatováclavská cukrárna","https://www.firmy.cz/detail/1943661-svatovaclavska-cukrarna-praha-nove-mesto.html","750"
"1","Kino","Kino Mat","https://www.firmy.cz/detail/1974792-kino-mat-praha-nove-mesto.html","1101"
"2","Přírodní zajímavost","Kovářovic mez","","5056"
"3","Hřiště","Dětské hřiště Vratislavova","","280"
"4","Večerka","Lidl","https://www.firmy.cz/detail/2374462-lidl-praha-nove-mesto.html","226"
"5","Hospoda","Hostinec U Suchý Dásně","https://www.firmy.cz/detail/679683-hostinec-u-suchy-dasne-praha-nove-mesto.html","445"
"6","Divadlo","Divadlo Na Fidlovačce","https://www.firmy.cz/detail/396872-divadlo-na-fidlovacce-praha-nusle.html","1109"
"7","Veterinář","Veterinární klinika Na Hrádku - MVDr. Ľubica Nečasová","https://www.firmy.cz/detail/633528-veterinarni-klinika-na-hradku-mvdr-lubica-necasova-praha-nove-mesto.html","430"
"8","Vlak","Praha-Smíchov severní nást.","","1149"
"9","Škola","ZŠ Praha 2, Botičská","https://www.firmy.cz/detail/358954-zs-praha-2-boticska-praha-vysehrad.html","144"
"10","Tram","Albertov","","65"
"11","Obchod","Tesco","https://www.firmy.cz/detail/733908-tesco-praha-smichov.html","1463"
"12","Pošta","Pošta Praha 49 - Česká pošta, s.p.","https://www.firmy.cz/detail/217479-posta-praha-49-praha-podoli.html","1058"
"13","Lékárna","Nemocniční lékárna VFN v Praze","https://www.firmy.cz/detail/422805-nemocnicni-lekarna-vfn-v-praze-praha-nove-mesto.html","605"
"14","Sportoviště","Tenisová škola TALLENT","https://www.firmy.cz/detail/722750-tenisova-skola-tallent-praha-vysehrad.html","144"
"15","Školka","MŠ Praha 2, Na Děkance","https://www.firmy.cz/detail/176415-ms-praha-2-na-dekance-praha-vysehrad.html","171"
"16","Restaurace","České vysoké učení technické v Praze - Výdejna Horská","https://www.firmy.cz/detail/2371022-ceske-vysoke-uceni-technicke-v-praze-vydejna-horska-praha-nove-mesto.html","213"
"17","Bankomat","Bankomat České spořitelny","https://www.firmy.cz/detail/2463972-bankomat-ceske-sporitelny-praha-nove-mesto.html","188"
"18","Lékař","MUDr. Ríša Suk","https://www.firmy.cz/detail/1965309-mudr-risa-suk-praha-nove-mesto.html","316"
"19","Bus MHD","Apolinářská","","545"
"20","Metro","Karlovo náměstí","","681"
