"","facility_type","facility_name","facility_iri","facility_distance"
"0","Cukrárna","Hájek & Hájková, s.r.o.","https://www.firmy.cz/detail/2598627-hajek-hajkova-praha-smichov.html","843"
"1","Kino","CineStar Anděl","https://www.firmy.cz/detail/2537565-cinestar-andel-praha-smichov.html","1693"
"2","Přírodní zajímavost","Kovářovic mez","","3182"
"3","Hřiště","Dětské hřiště Pod Děvínem","","218"
"4","Večerka","Večerka Radlická 33","https://www.firmy.cz/detail/2688465-vecerka-radlicka-33-praha-smichov.html","651"
"5","Hospoda","Hospůdka Knoflík","https://www.firmy.cz/detail/2253647-hospudka-knoflik-praha-smichov.html","1617"
"6","Divadlo","Divadlo Dobeška","https://www.firmy.cz/detail/197707-divadlo-dobeska-praha-branik.html","1954"
"7","Veterinář","Veterinární klinika Zlíchov","https://www.firmy.cz/detail/142899-veterinarni-klinika-zlichov-praha-hlubocepy.html","1093"
"8","Tram","Laurová","","642"
"9","Bankomat","Bankomat České spořitelny","https://www.firmy.cz/detail/594859-bankomat-ceske-sporitelny-praha-smichov.html","801"
"10","Školka","MŠ Praha 5, Kroupova","https://www.firmy.cz/detail/406892-ms-praha-5-kroupova-praha-smichov.html","98"
"11","Lékař","MUDr. Michael Jílek","https://www.firmy.cz/detail/388375-mudr-michael-jilek-praha-smichov.html","352"
"12","Bus MHD","Konvářka","","134"
"13","Restaurace","Restaurace Na Kopci","https://www.firmy.cz/detail/2208284-restaurace-na-kopci-praha-smichov.html","113"
"14","Škola","Střední škola, ZŠ a MŠ pro sluchově postižené Praha 5, Výmolova","https://www.firmy.cz/detail/187818-stredni-skola-zs-a-ms-pro-sluchove-postizene-praha-5-vymolova-praha-radlice.html","624"
"15","Vlak","Praha-Smíchov","","760"
"16","Sportoviště","Lezecké centrum SmíchOFF","https://www.firmy.cz/detail/2236928-lezecke-centrum-smichoff-praha.html","304"
"17","Obchod","Tesco","https://www.firmy.cz/detail/733908-tesco-praha-smichov.html","1844"
"18","Lékárna","Lékárna v Podolí, s.r.o.","https://www.firmy.cz/detail/269503-lekarna-v-podoli-praha-podoli.html","1406"
"19","Pošta","Pošta Praha 49 - Česká pošta, s.p.","https://www.firmy.cz/detail/217479-posta-praha-49-praha-podoli.html","1410"
"20","Metro","Smíchovské nádraží","","713"
