"","facility_type","facility_name","facility_iri","facility_distance"
"0","Cukrárna","VIVA cafe","https://www.firmy.cz/detail/13233367-viva-cafe-kurim.html","637"
"1","Hřiště","Dětské hřiště","","397"
"2","Večerka","Flop","https://www.firmy.cz/detail/2173822-flop-kurim.html","306"
"3","Hospoda","VINUAR group s.r.o.","https://www.firmy.cz/detail/13102640-vinuar-group-s-r-o-kurim.html","102"
"4","Veterinář","MVDr. Lattenbergová Hana","https://www.firmy.cz/detail/2516815-mvdr-lattenbergova-hana-kurim.html","274"
"5","Bankomat","Bankomat ČSOB","https://www.firmy.cz/detail/599335-bankomat-csob-kurim.html","315"
"6","Lékárna","Lékárna Na náměstí","https://www.firmy.cz/detail/1461432-lekarna-na-namesti-kurim.html","436"
"7","Lékař","MUDr. Iva Laštůvková, s.r.o.","https://www.firmy.cz/detail/13107883-mudr-iva-lastuvkova-kurim.html","228"
"8","Školka","Mateřská škola Kuřim, Zborovská 887, okres Brno-venkov","https://www.firmy.cz/detail/13061293-materska-skola-kurim-zborovska-887-okres-brno-venkov-kurim.html","418"
"9","Bus MHD","Kuřim, škola Jungmannova","","220"
"10","Škola","ZŠ Kuřim, Jungmannova","https://www.firmy.cz/detail/357903-zs-kurim-jungmannova-kurim.html","202"
"11","Sportoviště","Orel jednota Kuřim","https://www.firmy.cz/detail/1962507-orel-jednota-kurim-kurim.html","660"
"12","Pošta","Pošta Kuřim - Česká pošta, s.p.","https://www.firmy.cz/detail/216063-posta-kurim-kurim.html","210"
"13","Obchod","Kaufland","https://www.firmy.cz/detail/13146660-kaufland-kurim.html","823"
"14","Restaurace","Pizzeria La Bocca","https://www.firmy.cz/detail/12808443-pizzeria-la-bocca-kurim.html","150"
"15","Vlak","Kuřim","","412"
