"","facility_type","facility_name","facility_iri","facility_distance"
"0","Hřiště","Dětské hřiště","https://mapy.cz/zakladni?x=14.5377588603&y=50.6764743908&z=17&source=base&id=2112439","618"
"1","Přírodní zajímavost","Ptačí park Mnišské louky","https://mapy.cz/zakladni?x=14.496602056&y=50.6765928017&z=17&source=base&id=2262041","3290"
"2","Večerka","Top Market","https://www.firmy.cz/detail/12957991-top-market-ceska-lipa.html","355"
"3","Hospoda","Pivnice Platan","https://www.firmy.cz/detail/693507-pivnice-platan-ceska-lipa.html","502"
"4","Cukrárna","Kafe Laky","https://www.firmy.cz/detail/13166832-kafe-laky-ceska-lipa.html","444"
"5","Veterinář","Envet","https://www.firmy.cz/detail/13228662-envet-ceska-lipa.html","301"
"6","Divadlo","Jiráskovo divadlo","https://www.firmy.cz/detail/2352914-jiraskovo-divadlo-ceska-lipa.html","698"
"7","Kino","Kino Crystal","https://www.firmy.cz/detail/399410-kino-crystal-ceska-lipa.html","741"
"8","Bus MHD","Česká Lípa, U Kapličky","https://mapy.cz/zakladni?x=14.5415117848&y=50.6805908333&z=17&source=pubt&id=15331970","101"
"9","Lékař","SIMEDA, s.r.o.","https://www.firmy.cz/detail/13287419-simeda-ceska-lipa.html","395"
"10","Sportoviště","Sport Česká Lípa","https://www.firmy.cz/detail/12704260-sport-ceska-lipa-ceska-lipa.html","431"
"11","Vlak","Česká Lípa hlavní nádraží","https://mapy.cz/zakladni?x=14.5325275501&y=50.6771893425&z=17&source=pubt&id=15211171","838"
"12","Lékárna","Dr. Max","https://www.firmy.cz/detail/2007268-dr-max-ceska-lipa.html","194"
"13","Bankomat","Bankomat MONETA Money Bank","https://www.firmy.cz/detail/603121-bankomat-moneta-money-bank-ceska-lipa.html","132"
"14","Obchod","Kaufland","https://www.firmy.cz/detail/2198578-kaufland-ceska-lipa.html","131"
"15","Škola","Základní škola, Česká Lípa, Partyzánská 1053","https://www.firmy.cz/detail/356717-zakladni-skola-ceska-lipa-partyzanska-1053-ceska-lipa.html","444"
"16","Restaurace","Bistro U Řezníka","https://www.firmy.cz/detail/13242448-bistro-u-reznika-ceska-lipa.html","27"
"17","Školka","MŠ Pastelka, Česká Lípa","https://www.firmy.cz/detail/2142438-ms-pastelka-ceska-lipa-ceska-lipa.html","458"
"18","Pošta","Pošta Česká Lípa 2 - Česká pošta, s.p.","https://www.firmy.cz/detail/12971964-posta-ceska-lipa-2-ceska-lipa.html","362"
