"","facility_type","facility_name","facility_iri","facility_distance"
"0","Cukrárna","Pekárna Nostress bakery","https://www.firmy.cz/detail/308884-pekarna-nostress-bakery-praha-stare-mesto.html","37"
"1","Kino","Cinema City Slovanský dům","https://www.firmy.cz/detail/2679893-cinema-city-slovansky-dum-praha-nove-mesto.html","570"
"2","Hřiště","Dětské hřiště sportovní areál Masná","","242"
"3","Večerka","Albert Supermarket","https://www.firmy.cz/detail/209512-albert-supermarket-praha-stare-mesto.html","394"
"4","Hospoda","Batalion Café & Music Bar","https://www.firmy.cz/detail/457689-batalion-cafe-music-bar-praha-stare-mesto.html","786"
"5","Divadlo","Divadlo v Dlouhé","https://www.firmy.cz/detail/396894-divadlo-v-dlouhe-praha-stare-mesto.html","313"
"6","Veterinář","MVDr. Katka Sviták Novozámská","https://www.firmy.cz/detail/2137713-mvdr-katka-svitak-novozamska-praha-stare-mesto.html","738"
"7","Obchod","PALLADIUM Praha","https://www.firmy.cz/detail/2238095-palladium-praha-praha-nove-mesto.html","507"
"8","Školka","MŠ Praha, Masná","https://www.firmy.cz/detail/1968715-ms-praha-masna-praha-stare-mesto.html","176"
"9","Restaurace","Katr restaurant","https://www.firmy.cz/detail/2293391-katr-restaurant-praha-stare-mesto.html","29"
"10","Pošta","Pošta Praha 05 - Česká pošta, s.p.","https://www.firmy.cz/detail/431198-posta-praha-05-praha-stare-mesto.html","296"
"11","Bankomat","Bankomat Komerční banky","https://www.firmy.cz/detail/1348491-bankomat-komercni-banky-praha-stare-mesto.html","212"
"12","Tram","Právnická fakulta","","355"
"13","Lékař","MUDr. Jiří Kučera","https://www.firmy.cz/detail/389067-mudr-jiri-kucera-praha-stare-mesto.html","113"
"14","Sportoviště","Sportovní areál Na Františku","https://www.firmy.cz/detail/2307461-sportovni-areal-na-frantisku-praha-stare-mesto.html","230"
"15","Bus MHD","U Staré školy","","75"
"16","Škola","Obchodní akademie Dušní","https://www.firmy.cz/detail/362750-obchodni-akademie-dusni-praha-stare-mesto.html","152"
"17","Vlak","Praha Masarykovo nádraží","","884"
"18","Metro","Staroměstská","","471"
"19","Lékárna","Lékárna Na Františku","https://www.firmy.cz/detail/376327-lekarna-na-frantisku-praha-stare-mesto.html","267"
