"","facility_type","facility_name","facility_iri","facility_distance"
"0","Hřiště","Dětské hřiště U Stadiónu","https://mapy.cz/zakladni?x=17.2504827778&y=49.5991708333&z=17&source=base&id=1932680","364"
"1","Večerka","Obchůdek u Evy","https://www.firmy.cz/detail/12800838-obchudek-u-evy-olomouc.html","145"
"2","Hospoda","Pivnice Eldorádo","https://www.firmy.cz/detail/12854433-pivnice-eldorado-olomouc-lazce.html","227"
"3","Kino","Kino METROPOL","https://www.firmy.cz/detail/12773593-kino-metropol-olomouc.html","258"
"4","Veterinář","MVDr. Ivo Lohrer","https://www.firmy.cz/detail/277109-mvdr-ivo-lohrer-olomouc-lazce.html","153"
"5","Divadlo","Divadlo hudby","https://www.firmy.cz/detail/12933426-divadlo-hudby-olomouc.html","208"
"6","Cukrárna","KAFE KODÓ, s.r.o.","https://www.firmy.cz/detail/2262647-kafe-kodo-olomouc.html","301"
"7","Bus MHD","DPMO","https://mapy.cz/zakladni?x=17.2554238188&y=49.5979941406&z=17&source=pubt&id=15293995","35"
"8","Škola","Caritas - Vyšší odborná škola sociální Olomouc","https://www.firmy.cz/detail/362663-caritas-vyssi-odborna-skola-socialni-olomouc-olomouc.html","303"
"9","Lékař","Oblastní spolek ČČK Olomouc","https://www.firmy.cz/detail/389673-oblastni-spolek-cck-olomouc-olomouc.html","353"
"10","Restaurace","Bistro U Pana Lilka","https://www.firmy.cz/detail/13112820-bistro-u-pana-lilka-olomouc.html","115"
"11","Pošta","Pošta Olomouc 1 - Česká pošta, s.p.","https://www.firmy.cz/detail/215882-posta-olomouc-1-olomouc.html","309"
"12","Školka","Kopretinka Olomouc","https://www.firmy.cz/detail/12914667-kopretinka-olomouc-olomouc.html","62"
"13","Obchod","Galerie Moritz","https://www.firmy.cz/detail/616507-galerie-moritz-olomouc.html","464"
"14","Bankomat","Bankomat České spořitelny","https://www.firmy.cz/detail/12838680-bankomat-ceske-sporitelny-olomouc.html","308"
"15","Sportoviště","Laser Aréna Olomouc","https://www.firmy.cz/detail/13006485-laser-arena-olomouc-olomouc.html","194"
"16","Tram","Nám. Republiky","https://mapy.cz/zakladni?x=17.256880941406305&y=49.59613058403533&z=17&source=pubt&id=15203093","226"
"17","Vlak","Olomouc město","https://mapy.cz/zakladni?x=17.241190942&y=49.5941205238&z=17&source=pubt&id=15212337","1080"
"18","Lékárna","Lékárna U sv. Mořice, s.r.o.","https://www.firmy.cz/detail/13160426-lekarna-u-sv-morice-olomouc.html","364"
