"","facility_type","facility_name","facility_iri","facility_distance"
"0","Hřiště","Dětské hřiště Bohumíra Šmerala","https://mapy.cz/zakladni?x=17.1003977778&y=49.4681663889&z=17&source=base&id=2083080","271"
"1","Kino","Kino Metro 70","https://www.firmy.cz/detail/13118959-kino-metro-70-prostejov.html","1118"
"2","Hospoda","Hospůdka Sali","https://www.firmy.cz/detail/13191353-hospudka-sali-prostejov.html","660"
"3","Večerka","HRUŠKA","https://www.firmy.cz/detail/13201524-hruska-prostejov.html","441"
"4","Veterinář","MVDr. Miroslav Čeřovský","https://www.firmy.cz/detail/1959119-mvdr-miroslav-cerovsky-prostejov.html","293"
"5","Cukrárna","Cukrářská výroba Jaroslava Koudelková","https://www.firmy.cz/detail/657586-cukrarska-vyroba-jaroslava-koudelkova-prostejov.html","175"
"6","Divadlo","Městské divadlo v Prostějově","https://www.firmy.cz/detail/396947-mestske-divadlo-v-prostejove-prostejov.html","1322"
"7","Pošta","Pošta Prostějov 1 - Česká pošta, s.p.","https://www.firmy.cz/detail/659074-posta-prostejov-1-prostejov.html","798"
"8","Lékárna","Lékárna Centrum zdraví","https://www.firmy.cz/detail/12712997-lekarna-centrum-zdravi-prostejov.html","591"
"9","Bus MHD","Prostějov, Určická","https://mapy.cz/zakladni?x=17.1021247434&y=49.4652500456&z=17&source=pubt&id=15318453","107"
"10","Lékař","Praxmedpro, s.r.o.","https://www.firmy.cz/detail/12860780-praxmedpro-prostejov.html","358"
"11","Sportoviště","Savana klub kuší Kostelec na Hané","https://www.firmy.cz/detail/2457172-savana-klub-kusi-kostelec-na-hane-prostejov.html","633"
"12","Restaurace","U rybáře","https://www.firmy.cz/detail/13113140-u-rybare-prostejov.html","231"
"13","Bankomat","Bankomat ČSOB","https://www.firmy.cz/detail/2410175-bankomat-csob-prostejov.html","757"
"14","Školka","MŠ Prostějov, Moravská","https://www.firmy.cz/detail/2645023-ms-prostejov-moravska-prostejov.html","47"
"15","Škola","Základní škola Prostějov, ul. Dr. Horáka 24","https://www.firmy.cz/detail/359045-zakladni-skola-prostejov-ul-dr-horaka-24-prostejov.html","492"
"16","Obchod","Obchodní pasáž Anděl","https://www.firmy.cz/detail/12959270-obchodni-pasaz-andel-prostejov.html","828"
"17","Vlak","Prostějov místní nádraží","https://mapy.cz/zakladni?x=17.111671695910047&y=49.47896092532797&z=17&source=pubt&id=15212605","1664"
