"","facility_type","facility_name","facility_iri","facility_distance"
"0","Cukrárna","Druhý domov","https://www.firmy.cz/detail/13024499-druhy-domov-olomouc.html","893"
"1","Kino","Letní kino Olomouc","https://www.firmy.cz/detail/13157654-letni-kino-olomouc-olomouc.html","1236"
"2","Hřiště","Dětské hřiště Kaštanová","","613"
"3","Večerka","Lidl","https://www.firmy.cz/detail/1958230-lidl-olomouc-pavlovicky.html","121"
"4","Hospoda","Klub Hospoda Punat","https://www.firmy.cz/detail/13123967-klub-hospoda-punat-olomouc.html","714"
"5","Divadlo","Divadlo hudby","https://www.firmy.cz/detail/12933426-divadlo-hudby-olomouc.html","1640"
"6","Veterinář","Veterinární ordinace - MVDr. Vojtěch Návělek","https://www.firmy.cz/detail/268477-veterinarni-ordinace-mvdr-vojtech-navelek-olomouc.html","735"
"7","Obchod","Bělidla nákupní park","https://www.firmy.cz/detail/12973640-belidla-nakupni-park-olomouc-belidla.html","243"
"8","Školka","ZŠ a MŠ Olomouc, Táboritů","https://www.firmy.cz/detail/2156031-zs-a-ms-olomouc-taboritu-olomouc-belidla.html","624"
"9","Tram","Pavlovická","","168"
"10","Bankomat","Bankomat ČSOB","https://www.firmy.cz/detail/13035019-bankomat-csob-olomouc-belidla.html","209"
"11","Restaurace","Restaurace - Pizzerie Na Pile","https://www.firmy.cz/detail/2363303-restaurace-pizzerie-na-pile-olomouc-pavlovicky.html","242"
"12","Pošta","Pošta Olomouc 3 - Česká pošta, s.p.","https://www.firmy.cz/detail/432294-posta-olomouc-3-olomouc-pavlovicky.html","294"
"13","Bus MHD","Na Pile","","269"
"14","Lékárna","Dr.Max LÉKÁRNA","https://www.firmy.cz/detail/2007026-dr-max-lekarna-olomouc-belidla.html","229"
"15","Lékař","MUDr. Alena Kořínková","https://www.firmy.cz/detail/12936372-mudr-alena-korinkova-olomouc.html","793"
"16","Škola","Střední odborná škola služeb Olomouc","https://www.firmy.cz/detail/177864-stredni-odborna-skola-sluzeb-olomouc-olomouc-pavlovicky.html","346"
"17","Vlak","Olomouc hlavní nádraží","","1190"
"18","Sportoviště","Czech Lawn Tennis Club Olomouc, z.s.","https://www.firmy.cz/detail/13232234-czech-lawn-tennis-club-olomouc-z-s-olomouc-hodolany.html","1090"
