"","facility_type","facility_name","facility_iri","facility_distance"
"0","Cukrárna","MLÉČNÝ BAR SVĚT DORTŮ","https://www.firmy.cz/detail/12991707-mlecny-bar-svet-dortu-usti-nad-labem-centrum.html","14"
"1","Kino","Cinema City Ústí nad Labem","https://www.firmy.cz/detail/2679909-cinema-city-usti-nad-labem-usti-nad-labem-centrum.html","273"
"2","Hřiště","Dětské hřiště Dlouhá","","535"
"3","Večerka","Pekárna Chabařovice, s.r.o.","https://www.firmy.cz/detail/2204980-pekarna-chabarovice-usti-nad-labem-centrum.html","32"
"4","Hospoda","Ústecká pivotéka","https://www.firmy.cz/detail/13189615-ustecka-pivoteka-usti-nad-labem-centrum.html","117"
"5","Divadlo","Severočeské divadlo, s.r.o.","https://www.firmy.cz/detail/12720983-severoceske-divadlo-usti-nad-labem-centrum.html","103"
"6","Veterinář","Veterina Skřivánek","https://www.firmy.cz/detail/13081086-veterina-skrivanek-usti-nad-labem-centrum.html","992"
"7","Bus MHD","Divadlo","","45"
"8","Bankomat","Bankomat České spořitelny","https://www.firmy.cz/detail/596594-bankomat-ceske-sporitelny-usti-nad-labem-centrum.html","48"
"9","Obchod","OD Labe","https://www.firmy.cz/detail/2507561-od-labe-usti-nad-labem-centrum.html","202"
"10","Sportoviště","YMCA Ústí nad Labem","https://www.firmy.cz/detail/735283-ymca-usti-nad-labem-usti-nad-labem-centrum.html","164"
"11","Pošta","Pošta Ústí nad Labem 1 - Česká pošta, s.p.","https://www.firmy.cz/detail/217063-posta-usti-nad-labem-1-usti-nad-labem-centrum.html","435"
"12","Škola","ZUŠ Evy Randové Ústí nad Labem","https://www.firmy.cz/detail/399087-zus-evy-randove-usti-nad-labem-usti-nad-labem-centrum.html","330"
"13","Restaurace","CAFÉ RESTAURANT ATLANTIC","https://www.firmy.cz/detail/13111462-cafe-restaurant-atlantic-usti-nad-labem-centrum.html","1"
"14","Lékárna","Lékárna U Divadla","https://www.firmy.cz/detail/13210355-lekarna-u-divadla-usti-nad-labem-centrum.html","57"
"15","Školka","MŠ Centrum Ústí nad Labem","https://www.firmy.cz/detail/1270692-ms-centrum-usti-nad-labem-usti-nad-labem-centrum.html","547"
"16","Vlak","Ústí nad Labem západ","","512"
"17","Lékař","MEDICINSPORT, spol. s r.o.","https://www.firmy.cz/detail/304222-medicinsport-usti-nad-labem-centrum.html","98"
