"","facility_type","facility_name","facility_iri","facility_distance"
"0","Cukrárna","Cukrárna U Čížků","https://www.firmy.cz/detail/13278821-cukrarna-u-cizku-jirkov.html","921"
"1","Hřiště","Dětské hřiště Osvobození","","37"
"2","Kino","KINO JIRKOV, s.r.o.","https://www.firmy.cz/detail/12963927-kino-jirkov-jirkov.html","938"
"3","Večerka","Penny Market","https://www.firmy.cz/detail/2413584-penny-market-jirkov.html","164"
"4","Hospoda","Restaurant - club Pecka","https://www.firmy.cz/detail/13146587-restaurant-club-pecka-chomutov.html","503"
"5","Divadlo","Městské divadlo Chomutov","https://www.firmy.cz/detail/2644644-mestske-divadlo-chomutov-chomutov.html","3720"
"6","Veterinář","MVDr. Šárka Dušková","https://www.firmy.cz/detail/2273885-mvdr-sarka-duskova-jirkov.html","466"
"7","Bus MHD","Jirkov, Hrdinů","","162"
"8","Restaurace","Restaurant City","https://www.firmy.cz/detail/2205633-restaurant-city-jirkov.html","212"
"9","Škola","ZŠ Jirkov, Nerudova","https://www.firmy.cz/detail/357560-zs-jirkov-nerudova-jirkov.html","171"
"10","Obchod","Tesco","https://www.firmy.cz/detail/455678-tesco-jirkov.html","836"
"11","Školka","MŠ Klubíčko","https://www.firmy.cz/detail/2405271-ms-klubicko-jirkov.html","205"
"12","Pošta","Pošta Jirkov 2 - Česká pošta, s.p.","https://www.firmy.cz/detail/215281-posta-jirkov-2-jirkov.html","323"
"13","Lékárna","U Hvězdy","https://www.firmy.cz/detail/658120-u-hvezdy-chomutov.html","588"
"14","Vlak","Jirkov","","468"
"15","Sportoviště","KZ PROJEKT s.r.o. - Lezecká aréna Jirkov","https://www.firmy.cz/detail/12938778-kz-projekt-s-r-o-lezecka-arena-jirkov-jirkov.html","282"
"16","Lékař","MUDr. František Rouče","https://www.firmy.cz/detail/389682-mudr-frantisek-rouce-chomutov.html","578"
"17","Bankomat","Bankomat České spořitelny","https://www.firmy.cz/detail/591868-bankomat-ceske-sporitelny-chomutov.html","742"
