"","facility_type","facility_name","facility_iri","facility_distance"
"0","Hřiště","Dětské hřiště Karlovo náměstí","https://mapy.cz/zakladni?x=14.419505&y=50.0741288333&z=17&source=base&id=2067942","382"
"1","Cukrárna","Kavárna Globe","https://www.firmy.cz/detail/329022-kavarna-globe-praha-nove-mesto.html","174"
"2","Veterinář","Veterinární klinika Na Hrádku - MVDr. Ľubica Nečasová","https://www.firmy.cz/detail/633528-veterinarni-klinika-na-hradku-mvdr-lubica-necasova-praha-nove-mesto.html","648"
"3","Hospoda","Batalion Café & Music Bar","https://www.firmy.cz/detail/457689-batalion-cafe-music-bar-praha-stare-mesto.html","700"
"4","Večerka","MANNI MINI MARKET","https://www.firmy.cz/detail/2609033-manni-mini-market-praha-nove-mesto.html","57"
"5","Divadlo","Minor","https://www.firmy.cz/detail/230743-minor-praha-nove-mesto.html","253"
"6","Kino","Kino Mat","https://www.firmy.cz/detail/1974792-kino-mat-praha-nove-mesto.html","57"
"7","Přírodní zajímavost","Kovářovic mez","https://mapy.cz/zakladni?x=14.36107759920759&y=50.04395254566995&z=17&source=base&id=2339664","5551"
"8","Škola","Masarykova střední škola chemická, Praha 1","https://www.firmy.cz/detail/362752-masarykova-stredni-skola-chemicka-praha-1-praha-nove-mesto.html","195"
"9","Restaurace","Plzeňská restaurace U Sedlerů","https://www.firmy.cz/detail/2589014-plzenska-restaurace-u-sedleru-praha-nove-mesto.html","55"
"10","Metro","Karlovo náměstí","https://mapy.cz/zakladni?x=14.4189583412&y=50.0760003661&z=17&source=pubt&id=15200230","171"
"11","Sportoviště","VŠTJ Technika Praha strojní fakulta","https://www.firmy.cz/detail/2648614-vstj-technika-praha-strojni-fakulta-praha-nove-mesto.html","146"
"12","Bus MHD","Karlovo náměstí","https://mapy.cz/zakladni?x=14.4189056801&y=50.0752985692&z=17&source=pubt&id=15301591","248"
"13","Tram","Myslíkova","https://mapy.cz/zakladni?x=14.418491902026778&y=50.07802280806719&z=17&source=pubt&id=15301936","57"
"14","Pošta","Pošta Praha 1 - Česká pošta, s.p.","https://www.firmy.cz/detail/216682-posta-praha-1-praha-nove-mesto.html","917"
"15","Obchod","Quadrio","https://www.firmy.cz/detail/2042979-quadrio-praha-nove-mesto.html","447"
"16","Bankomat","Bankomat MONETA Money Bank","https://www.firmy.cz/detail/602933-bankomat-moneta-money-bank-praha-nove-mesto.html","57"
"17","Lékař","Zubní praxe MAZUR & PŠENIČNÝ","https://www.firmy.cz/detail/305118-zubni-praxe-mazur-psenicny-praha-nove-mesto.html","197"
"18","Vlak","Praha hlavní nádraží","https://mapy.cz/zakladni?x=14.4369820737851&y=50.082990005918&z=17&source=pubt&id=15212548","1443"
"19","Školka","ZŠ a MŠ Praha 2, Resslova","https://www.firmy.cz/detail/770593-zs-a-ms-praha-2-resslova-praha-nove-mesto.html","85"
"20","Lékárna","Nemocniční lékárna VFN v Praze,odd.výdeje pro veřejnost III","https://www.firmy.cz/detail/2650769-nemocnicni-lekarna-vfn-v-praze-odd-vydeje-pro-verejnost-iii-praha-nove-mesto.html","215"
