"","facility_type","facility_name","facility_iri","facility_distance"
"0","Cukrárna","Cukrářství U Štěpánka","https://www.firmy.cz/detail/12897661-cukrarstvi-u-stepanka-ricany-radosovice.html","991"
"1","Kino","Na Fialce - Kino","https://www.firmy.cz/detail/12962270-na-fialce-kino-ricany.html","1794"
"2","Hřiště","Dětské hřiště Bezručova","","92"
"3","Večerka","Můjobchod - Potraviny TP","https://www.firmy.cz/detail/13163862-mujobchod-potraviny-tp-ricany.html","234"
"4","Hospoda","Hospůdka Na Marvánku","https://www.firmy.cz/detail/13097296-hospudka-na-marvanku-ricany.html","2118"
"5","Divadlo","Na Fialce - Divadlo","https://www.firmy.cz/detail/12962273-na-fialce-divadlo-ricany.html","1794"
"6","Veterinář","MVDr. Petr Košař - veterinární ordinace","https://www.firmy.cz/detail/176874-mvdr-petr-kosar-veterinarni-ordinace-ricany-strasin.html","375"
"7","Bankomat","Bankomat MONETA Money Bank","https://www.firmy.cz/detail/602877-bankomat-moneta-money-bank-ricany-radosovice.html","1653"
"8","Školka","ZŠ a MŠ při o.p.s. Olivově dětské léčebně Říčany","https://www.firmy.cz/detail/2113052-zs-a-ms-pri-o-p-s-olivove-detske-lecebne-ricany-ricany.html","262"
"9","Škola","3. ZŠ u Říčanského lesa Říčany","https://www.firmy.cz/detail/13022762-3-zs-u-ricanskeho-lesa-ricany-ricany.html","229"
"10","Lékař","UBINED, s.r.o.","https://www.firmy.cz/detail/12840389-ubined-ricany-radosovice.html","1037"
"11","Bus MHD","Říčany, sídl.Olivovna","","29"
"12","Lékárna","Lékárna AGEL","https://www.firmy.cz/detail/13222733-lekarna-agel-ricany.html","956"
"13","Vlak","Říčany","","1698"
"14","Sportoviště","Sportoviště u lesa","https://www.firmy.cz/detail/13273430-sportoviste-u-lesa-ricany.html","340"
"15","Obchod","Centrum Lihovar Říčany","https://www.firmy.cz/detail/13270518-centrum-lihovar-ricany-ricany.html","2100"
"16","Restaurace","Na Rychtě","https://www.firmy.cz/detail/234722-na-rychte-ricany.html","285"
"17","Pošta","Pošta Říčany u Prahy - Česká pošta, s.p.","https://www.firmy.cz/detail/217440-posta-ricany-u-prahy-ricany.html","2180"
