"","facility_type","facility_name","facility_iri","facility_distance"
"0","Hřiště","Dětské hřiště Jilemnického","https://mapy.cz/zakladni?x=18.4208613317&y=49.7839106468&z=17&source=base&id=1929005","155"
"1","Večerka","PEKAŘI a spol.","https://www.firmy.cz/detail/2608288-pekari-a-spol-havirov-mesto.html","253"
"2","Cukrárna","Cukrárna Lada","https://www.firmy.cz/detail/12908208-cukrarna-lada-havirov.html","363"
"3","Hospoda","Malá Jamajka","https://www.firmy.cz/detail/13121947-mala-jamajka-havirov-mesto.html","416"
"4","Veterinář","Veterinární ordinace Terra Vet","https://www.firmy.cz/detail/13330221-veterinarni-ordinace-terra-vet-havirov-mesto.html","415"
"5","Kino","Letní kino - Městské kulturní středisko Havířov","https://www.firmy.cz/detail/13072791-letni-kino-havirov.html","391"
"6","Škola","Gymnázium, Havířov-Město","https://www.firmy.cz/detail/362587-gymnazium-havirov-mesto-havirov-mesto.html","197"
"7","Restaurace","Zappa’s Restaurant Havířov","https://www.firmy.cz/detail/13233355-zappa-s-restaurant-havirov-havirov-mesto.html","151"
"8","Lékárna","BENU Lékárna","https://www.firmy.cz/detail/12875767-benu-lekarna-havirov-mesto.html","821"
"9","Bankomat","Bankomat ČSOB","https://www.firmy.cz/detail/636843-bankomat-csob-havirov-mesto.html","198"
"10","Sportoviště","Letní koupaliště Jindřich","https://www.firmy.cz/detail/703103-letni-koupaliste-jindrich-havirov-mesto.html","648"
"11","Pošta","Pošta Havířov 11 - Česká pošta, s.p.","https://www.firmy.cz/detail/431631-posta-havirov-11-havirov-mesto.html","69"
"12","Bus MHD","Havířov, Město, Magistrát","https://mapy.cz/zakladni?x=18.4236765179704&y=49.7840930666904&z=17&source=pubt&id=15331143","123"
"13","Lékař","Mgr. Zdeňka Obtulovičová","https://www.firmy.cz/detail/368798-mgr-zdenka-obtulovicova-havirov-mesto.html","122"
"14","Školka","Základní škola a Mateřská škola Havířov - Město Na Nábřeží, příspěvková organizace","https://www.firmy.cz/detail/1278268-zakladni-skola-a-materska-skola-havirov-mesto-na-nabrezi-prispevkova-organizace-havirov-mesto.html","264"
"15","Obchod","Tesco","https://www.firmy.cz/detail/218205-tesco-havirov-mesto.html","758"
"16","Vlak","Havířov","https://mapy.cz/zakladni?x=18.4125438808&y=49.7917388734&z=17&source=pubt&id=15211361","1044"
