"","facility_type","facility_name","facility_iri","facility_distance"
"0","Kino","CineStar Anděl","https://www.firmy.cz/detail/2537565-cinestar-andel-praha-smichov.html","3501"
"1","Cukrárna","Golden Pacific Café","https://www.firmy.cz/detail/12863140-golden-pacific-cafe-praha-jinonice.html","655"
"2","Přírodní zajímavost","Kovářovic mez","","816"
"3","Večerka","Smíšené zboží U kříže 4","https://www.firmy.cz/detail/12889873-smisene-zbozi-u-krize-4-praha-jinonice.html","522"
"4","Hřiště","Dětské hřiště Butovická","","226"
"5","Hospoda","Restaurace Na zámyšli","https://www.firmy.cz/detail/12888232-restaurace-na-zamysli-praha-kosire.html","2166"
"6","Divadlo","Divadlo Glans","https://www.firmy.cz/detail/2343652-divadlo-glans-praha-stodulky.html","1184"
"7","Veterinář","Vetallia","https://www.firmy.cz/detail/13034780-vetallia-praha-jinonice.html","294"
"8","Bus MHD","Butovická","","11"
"9","Školka","Dětský klub Zelený Čtyřlístek","https://www.firmy.cz/detail/13272066-detsky-klub-zeleny-ctyrlistek-praha-jinonice.html","283"
"10","Škola","Základní škola waldorfská","https://www.firmy.cz/detail/408002-zakladni-skola-waldorfska-praha-jinonice.html","381"
"11","Tram","Radlická","","2028"
"12","Lékař","MOJE AMBULANCE","https://www.firmy.cz/detail/2141126-moje-ambulance-praha-jinonice.html","707"
"13","Obchod","OC Galerie Butovice","https://www.firmy.cz/detail/13318022-oc-galerie-butovice-praha-jinonice.html","707"
"14","Pošta","Pošta Praha 57 - Česká pošta, s.p.","https://www.firmy.cz/detail/216736-posta-praha-57-praha-jinonice.html","1008"
"15","Sportoviště","Sportovní klub Motorlet Praha","https://www.firmy.cz/detail/2404325-sportovni-klub-motorlet-praha-praha-jinonice.html","94"
"16","Restaurace","Restaurace Nová Hospoda","https://www.firmy.cz/detail/261813-restaurace-nova-hospoda-praha-jinonice.html","265"
"17","Vlak","Praha-Jinonice","","770"
"18","Bankomat","Bankomat České spořitelny","https://www.firmy.cz/detail/12894884-bankomat-ceske-sporitelny-praha-jinonice.html","665"
"19","Metro","Jinonice","","654"
"20","Lékárna","Dr.Max","https://www.firmy.cz/detail/12726493-dr-max-praha-jinonice.html","707"
