"","facility_type","facility_name","facility_iri","facility_distance"
"0","Hřiště","Dětské hřiště Vardasova","https://mapy.cz/zakladni?x=18.4299565012&y=49.7820130083&z=17&source=base&id=1929015","92"
"1","Večerka","Večerka Hlavní třída","https://www.firmy.cz/detail/13341720-vecerka-hlavni-trida-havirov-mesto.html","53"
"2","Cukrárna","Cukrárna Italka","https://www.firmy.cz/detail/2358510-cukrarna-italka-havirov-mesto.html","126"
"3","Hospoda","Hostinec U Lopaty","https://www.firmy.cz/detail/13148778-hostinec-u-lopaty-havirov-mesto.html","308"
"4","Veterinář","Veterinární ordinace Terra Vet","https://www.firmy.cz/detail/13330221-veterinarni-ordinace-terra-vet-havirov-mesto.html","174"
"5","Kino","Kino Centrum","https://www.firmy.cz/detail/12780436-kino-centrum-havirov-mesto.html","388"
"6","Obchod","Obchodní centrum Elan","https://www.firmy.cz/detail/2181587-obchodni-centrum-elan-havirov-mesto.html","232"
"7","Bus MHD","Havířov, Město, Nám.Republiky","https://mapy.cz/zakladni?x=18.4288481048&y=49.7810159102&z=17&source=pubt&id=15290705","62"
"8","Lékárna","BENU Lékárna","https://www.firmy.cz/detail/12875767-benu-lekarna-havirov-mesto.html","234"
"9","Lékař","MUDr. Danuše Tenčíková, s.r.o.","https://www.firmy.cz/detail/12830944-mudr-danuse-tencikova-havirov-mesto.html","63"
"10","Vlak","Havířov-střed","https://mapy.cz/zakladni?x=18.439728302264&y=49.788244092890395&z=17&source=pubt&id=15711416","1076"
"11","Bankomat","Bankomat UniCredit Bank Czech Republic","https://www.firmy.cz/detail/12767970-bankomat-unicredit-bank-czech-republic-havirov-mesto.html","61"
"12","Školka","MŠ Havířov - Město, Československé armády","https://www.firmy.cz/detail/2287368-ms-havirov-mesto-ceskoslovenske-armady-havirov-mesto.html","143"
"13","Pošta","Pošta Havířov 1 - Česká pošta, s.p.","https://www.firmy.cz/detail/431627-posta-havirov-1-havirov-mesto.html","334"
"14","Škola","Základní škola Havířov - Město Gorkého 1/329 okres Karviná","https://www.firmy.cz/detail/357050-zakladni-skola-havirov-mesto-gorkeho-1-329-okres-karvina-havirov-mesto.html","483"
"15","Sportoviště","Discgolf Stromovka","https://mapy.cz/zakladni?x=18.4317372222&y=49.7852713889&z=17&source=base&id=1982534","460"
"16","Restaurace","Asijské Bistro Hvězda","https://www.firmy.cz/detail/13139452-asijske-bistro-hvezda-havirov-mesto.html","81"
