"","facility_type","facility_name","facility_iri","facility_distance"
"0","Cukrárna","Cukrárna Větrník - Černá Pole","https://www.firmy.cz/detail/13245817-cukrarna-vetrnik-cerna-pole-brno-cerna-pole.html","166"
"1","Kino","Letní kino Brno na Dvoře MdB","https://www.firmy.cz/detail/13308736-letni-kino-brno-na-dvore-mdb-brno-cerna-pole.html","1888"
"2","Přírodní zajímavost","Přírodní zahrada U Smrku","","3175"
"3","Hřiště","Dětské hřiště park Stanislava Krátkého","","117"
"4","Večerka","Eso Market - Pavel Hendrych - Pavel Hendrych","https://www.firmy.cz/detail/266029-eso-market-pavel-hendrych-brno-cerna-pole.html","180"
"5","Hospoda","Hostinec U Franty","https://www.firmy.cz/detail/13137779-hostinec-u-franty-brno-husovice.html","684"
"6","Divadlo","Divadlo Kufr","https://www.firmy.cz/detail/585512-divadlo-kufr-brno-husovice.html","345"
"7","Veterinář","Veterinární ordinace MVDr. David Horák","https://www.firmy.cz/detail/2132843-veterinarni-ordinace-mvdr-david-horak-brno-cerna-pole.html","407"
"8","Tram","Venhudova","","133"
"9","Lékárna","Lékárna Astra","https://www.firmy.cz/detail/421699-lekarna-astra-brno-cerna-pole.html","233"
"10","Školka","MŠ Brno, Tišnovská","https://www.firmy.cz/detail/1447258-ms-brno-tisnovska-brno-cerna-pole.html","217"
"11","Lékař","MUDr. Eva Hamžová","https://www.firmy.cz/detail/385909-mudr-eva-hamzova-brno-cerna-pole.html","318"
"12","Restaurace","Pizzerie U Montyho","https://www.firmy.cz/detail/13102567-pizzerie-u-montyho-brno-cerna-pole.html","169"
"13","Vlak","Brno-Lesná","","793"
"14","Škola","Masarykova ZŠ a MŠ Brno, Zemědělská","https://www.firmy.cz/detail/356552-masarykova-zs-a-ms-brno-zemedelska-brno-cerna-pole.html","293"
"15","Bankomat","Bankomat Komerční banky","https://www.firmy.cz/detail/13131040-bankomat-komercni-banky-brno-cerna-pole.html","343"
"16","Sportoviště","Tělocvična Orel jednota Brno - Husovice","https://www.firmy.cz/detail/1962465-telocvicna-orel-jednota-brno-husovice-brno-husovice.html","376"
"17","Pošta","Pošta Brno 13 - Česká pošta, s.p.","https://www.firmy.cz/detail/216032-posta-brno-13-brno-cerna-pole.html","327"
"18","Bus MHD","Provazníkova","","130"
"19","Obchod","Tesco","https://www.firmy.cz/detail/429290-tesco-brno-ponava.html","1275"
