"","facility_type","facility_name","facility_iri","facility_distance"
"0","Večerka","Smíšené zboží Slovenská 2890","https://www.firmy.cz/detail/13135673-smisene-zbozi-slovenska-2890-karvina-hranice.html","208"
"1","Hřiště","Dětské hřiště Mizerov I","https://mapy.cz/zakladni?x=18.5564154202&y=49.8614477786&z=17&source=base&id=1929043","855"
"2","Hospoda","Pivnice Gaston","https://www.firmy.cz/detail/13116463-pivnice-gaston-karvina-hranice.html","92"
"3","Veterinář","VET ANIMALS HELP, s.r.o.","https://www.firmy.cz/detail/12707402-vet-animals-help-karvina-mizerov.html","724"
"4","Kino","Kino Ex","https://www.firmy.cz/detail/396409-kino-ex-karvina-nove-mesto.html","1274"
"5","Cukrárna","Café Bar Twins","https://www.firmy.cz/detail/13295335-cafe-bar-twins-karvina-hranice.html","311"
"6","Bankomat","Bankomat České spořitelny","https://www.firmy.cz/detail/592977-bankomat-ceske-sporitelny-karvina-hranice.html","227"
"7","Restaurace","Restaurace Brisspol","https://www.firmy.cz/detail/2468752-restaurace-brisspol-karvina-hranice.html","99"
"8","Školka","MŠ Klíček, Karviná - Hranice","https://www.firmy.cz/detail/2066992-ms-klicek-karvina-hranice-karvina-hranice.html","468"
"9","Sportoviště","Oldřich Gavenda","https://www.firmy.cz/detail/2430860-oldrich-gavenda-karvina-hranice.html","445"
"10","Bus MHD","Karviná, Hranice, okružní","https://mapy.cz/zakladni?x=18.5540347067672&y=49.8706744144973&z=17&source=pubt&id=15324985","213"
"11","Lékař","MUDr. Janusz Waloszek","https://www.firmy.cz/detail/385844-mudr-janusz-waloszek-karvina-hranice.html","403"
"12","Pošta","Pošta Karviná 8 - Česká pošta, s.p.","https://www.firmy.cz/detail/431426-posta-karvina-8-karvina-hranice.html","211"
"13","Škola","Základní škola a Mateřská škola Slovenská, Karviná, příspěvková organizace","https://www.firmy.cz/detail/357620-zakladni-skola-a-materska-skola-slovenska-karvina-prispevkova-organizace-karvina-hranice.html","135"
"14","Obchod","Kaufland","https://www.firmy.cz/detail/1532044-kaufland-karvina-hranice.html","637"
"15","Lékárna","Lékárna Veverka","https://www.firmy.cz/detail/374405-lekarna-veverka-karvina-hranice.html","403"
"16","Vlak","Karviná hlavní nádraží","https://mapy.cz/zakladni?x=18.5267129183&y=49.8556585934&z=17&source=pubt&id=15211715","2396"
