"","facility_type","facility_name","facility_iri","facility_distance"
"0","Hřiště","Dětské hřiště","https://mapy.cz/zakladni?x=16.63661946460752&y=49.194352971313414&z=17&source=base&id=2363083","386"
"1","Cukrárna","DRING CAFFE","https://www.firmy.cz/detail/13264488-dring-caffe-brno-cernovice.html","392"
"2","Večerka","Můjobchod - Potraviny TGM","https://www.firmy.cz/detail/13162412-mujobchod-potraviny-tgm-brno-zidenice.html","178"
"3","Veterinář","Sanovet - veterinární ordinace","https://www.firmy.cz/detail/2132863-sanovet-veterinarni-ordinace-brno-cernovice.html","420"
"4","Hospoda","Pivnice U Papáji","https://www.firmy.cz/detail/13111641-pivnice-u-papaji-brno-trnita.html","569"
"5","Divadlo","Divadlo Neslyším","https://www.firmy.cz/detail/406578-divadlo-neslysim-brno-zabrdovice.html","1151"
"6","Kino","5D cinema Maxim","https://www.firmy.cz/detail/12734839-5d-cinema-maxim-brno-mesto.html","1589"
"7","Přírodní zajímavost","Cesta rákosím","https://mapy.cz/zakladni?x=16.6729975&y=49.2165883333&z=17&source=base&id=2112597","3981"
"8","Tram","Životského","https://mapy.cz/zakladni?x=16.6339972174&y=49.1910243813&z=17&source=pubt&id=15205091","33"
"9","Školka","MŠ Brno, Letní","https://www.firmy.cz/detail/1448949-ms-brno-letni-brno-zidenice.html","159"
"10","Bus MHD","Životského","https://mapy.cz/zakladni?x=16.6350723063&y=49.1900943969&z=17&source=pubt&id=15205087","137"
"11","Restaurace","Pohoštění U Šroubka","https://www.firmy.cz/detail/13138084-pohosteni-u-sroubka-brno-zidenice.html","207"
"12","Lékárna","Židenická Lékárna","https://www.firmy.cz/detail/13051959-zidenicka-lekarna-brno-zidenice.html","197"
"13","Lékař","MUDr. Danuše Dočekalová","https://www.firmy.cz/detail/387663-mudr-danuse-docekalova-brno-zidenice.html","366"
"14","Škola","Střední škola uměleckomanažerská, s.r.o.","https://www.firmy.cz/detail/361610-stredni-skola-umeleckomanazerska-brno-zidenice.html","198"
"15","Obchod","Albert Hypermarket","https://www.firmy.cz/detail/12920888-albert-hypermarket-brno-zabrdovice.html","1084"
"16","Pošta","Pošta Brno 18 - Česká pošta, s.p.","https://www.firmy.cz/detail/216037-posta-brno-18-brno-cernovice.html","653"
"17","Sportoviště","Squash Slovan","https://www.firmy.cz/detail/2011657-squash-slovan-brno-cernovice.html","224"
"18","Bankomat","Bankomat ČSOB","https://www.firmy.cz/detail/12768521-bankomat-csob-brno-cernovice.html","570"
"19","Vlak","Brno-Černovice","https://mapy.cz/zakladni?x=16.6312067531&y=49.1889655555&z=17&source=pubt&id=15698461","338"
