"","facility_type","facility_name","facility_iri","facility_distance"
"0","Cukrárna","Cukrárna U Mostu","https://www.firmy.cz/detail/2593276-cukrarna-u-mostu-trebechovice-pod-orebem.html","3036"
"1","Přírodní zajímavost","Mokřad Jílovice","","2022"
"2","Hřiště","Dětské hřiště Jeníkovice","","502"
"3","Večerka","Smíšené zboží Jeníkovice","https://www.firmy.cz/detail/2330349-smisene-zbozi-jenikovice-jenikovice.html","99"
"4","Hospoda","Na Růžku","https://www.firmy.cz/detail/13148246-na-ruzku-trebechovice-pod-orebem.html","3010"
"5","Veterinář","Veterinární ambulance - MVDr. Dokulil","https://www.firmy.cz/detail/273660-veterinarni-ambulance-mvdr-dokulil-trebechovice-pod-orebem.html","2976"
"6","Lékárna","LÉKÁRNA ipc Třebechovice","https://www.firmy.cz/detail/307932-lekarna-ipc-trebechovice-trebechovice-pod-orebem.html","3044"
"7","Škola","ZUŠ Třebechovice pod Orebem","https://www.firmy.cz/detail/427258-zus-trebechovice-pod-orebem-trebechovice-pod-orebem.html","3077"
"8","Bus MHD","Jeníkovice, kostel","","331"
"9","Školka","Mateřská škola Jeníkovice","https://www.firmy.cz/detail/2275497-materska-skola-jenikovice-jenikovice.html","153"
"10","Lékař","Praxe TpO s.r.o. - MUDr. Jiří Čáp, MUDr. Vladimíra Cejnarová","https://www.firmy.cz/detail/13070799-praxe-tpo-s-r-o-mudr-jiri-cap-mudr-vladimira-cejnarova-trebechovice-pod-orebem.html","3074"
"11","Sportoviště","Golf club Na Vrších","https://www.firmy.cz/detail/629777-golf-club-na-vrsich-jenikovice.html","2193"
"12","Bankomat","Bankomat Komerční banky","https://www.firmy.cz/detail/13256174-bankomat-komercni-banky-trebechovice-pod-orebem.html","2966"
"13","Restaurace","Obecní hostinec Jeníkovice","https://www.firmy.cz/detail/13114631-obecni-hostinec-jenikovice-jenikovice.html","104"
"14","Pošta","Pošta Jeníkovice - Česká pošta, s.p.","https://www.firmy.cz/detail/215969-posta-jenikovice-jenikovice.html","153"
"15","Vlak","Třebechovice pod Orebem","","3339"
