"","facility_type","facility_name","facility_iri","facility_distance"
"0","Cukrárna","Cukrárna Italka","https://www.firmy.cz/detail/2358510-cukrarna-italka-havirov-mesto.html","179"
"1","Kino","Kino Centrum","https://www.firmy.cz/detail/12780436-kino-centrum-havirov-mesto.html","450"
"2","Hřiště","Dětské hřiště Vardasova","","96"
"3","Večerka","Večerka Hlavní třída","https://www.firmy.cz/detail/13341720-vecerka-hlavni-trida-havirov-mesto.html","40"
"4","Hospoda","Hostinec U Lopaty","https://www.firmy.cz/detail/13148778-hostinec-u-lopaty-havirov-mesto.html","251"
"5","Veterinář","Veterinární ordinace Terra Vet","https://www.firmy.cz/detail/13330221-veterinarni-ordinace-terra-vet-havirov-mesto.html","126"
"6","Lékař","MUDr. Danuše Tenčíková, s.r.o.","https://www.firmy.cz/detail/12830944-mudr-danuse-tencikova-havirov-mesto.html","0"
"7","Školka","MŠ Havířov - Město, Československé armády","https://www.firmy.cz/detail/2287368-ms-havirov-mesto-ceskoslovenske-armady-havirov-mesto.html","188"
"8","Sportoviště","Discgolf Stromovka","","416"
"9","Lékárna","BENU Lékárna","https://www.firmy.cz/detail/12875767-benu-lekarna-havirov-mesto.html","283"
"10","Bus MHD","Havířov, Město, Nám.Republiky","","124"
"11","Škola","Základní škola Havířov - Město Gorkého 1/329 okres Karviná","https://www.firmy.cz/detail/357050-zakladni-skola-havirov-mesto-gorkeho-1-329-okres-karvina-havirov-mesto.html","421"
"12","Pošta","Pošta Havířov 1 - Česká pošta, s.p.","https://www.firmy.cz/detail/431627-posta-havirov-1-havirov-mesto.html","380"
"13","Obchod","Obchodní centrum Elan","https://www.firmy.cz/detail/2181587-obchodni-centrum-elan-havirov-mesto.html","277"
"14","Restaurace","Asijské Bistro Hvězda","https://www.firmy.cz/detail/13139452-asijske-bistro-hvezda-havirov-mesto.html","98"
"15","Bankomat","Bankomat UniCredit Bank Czech Republic","https://www.firmy.cz/detail/12767970-bankomat-unicredit-bank-czech-republic-havirov-mesto.html","111"
"16","Vlak","Havířov-střed","","1048"
