"","facility_type","facility_name","facility_iri","facility_distance"
"0","Cukrárna","Slivkafé Karviná","https://www.firmy.cz/detail/12968138-slivkafe-karvina-karvina-mizerov.html","310"
"1","Kino","Filmový klub Karviná","https://www.firmy.cz/detail/664777-filmovy-klub-karvina-karvina-mizerov.html","310"
"2","Hřiště","Rákosníčkovo dětské hřiště","","46"
"3","Večerka","Minimarket Ferda","https://www.firmy.cz/detail/13243221-minimarket-ferda-karvina-mizerov.html","28"
"4","Hospoda","Pivnice Podkova","https://www.firmy.cz/detail/12906183-pivnice-podkova-karvina.html","492"
"5","Veterinář","MVDr. Jiří Michejda","https://www.firmy.cz/detail/286072-mvdr-jiri-michejda-karvina-frystat.html","507"
"6","Škola","Střední zdravotnická škola Karviná","https://www.firmy.cz/detail/232345-stredni-zdravotnicka-skola-karvina-karvina-mizerov.html","108"
"7","Školka","MŠ Centrumáček Karviná","https://www.firmy.cz/detail/13217017-ms-centrumacek-karvina-karvina-mizerov.html","285"
"8","Lékárna","Moje lékárna Na Fryštátské","https://www.firmy.cz/detail/12906185-moje-lekarna-na-frystatske-karvina-frystat.html","385"
"9","Lékař","MUDr. Jana Poledňáková","https://www.firmy.cz/detail/13276489-mudr-jana-polednakova-karvina-mizerov.html","258"
"10","Restaurace","Mr. Pizza","https://www.firmy.cz/detail/703060-mr-pizza-karvina-raj.html","273"
"11","Bankomat","Bankomat Air Bank","https://www.firmy.cz/detail/13101388-bankomat-air-bank-karvina-frystat.html","429"
"12","Obchod","PRIOR ČESKÁ REPUBLIKA s.r.o.","https://www.firmy.cz/detail/1957075-prior-ceska-republika-s-r-o-karvina-frystat.html","616"
"13","Bus MHD","Karviná, Fryštát, univerzita","","87"
"14","Pošta","Pošta Karviná 4 - Česká pošta, s.p.","https://www.firmy.cz/detail/431451-posta-karvina-4-karvina-mizerov.html","557"
"15","Sportoviště","Junior Tenis Karviná","https://www.firmy.cz/detail/2306818-junior-tenis-karvina-karvina-mizerov.html","415"
"16","Vlak","Karviná hlavní nádraží","","1671"
