"","facility_type","facility_name","facility_iri","facility_distance"
"0","Cukrárna","Ventana Café","https://www.firmy.cz/detail/2616118-ventana-cafe-brno-kralovo-pole.html","492"
"1","Kino","Kino Lucerna","https://www.firmy.cz/detail/638240-kino-lucerna-brno-zabovresky.html","2041"
"2","Přírodní zajímavost","Přírodní zahrada U Smrku","","1126"
"3","Hřiště","Dětské hřiště Sportovní","","430"
"4","Večerka","Obchůdek na Kociánce","https://www.firmy.cz/detail/13164707-obchudek-na-kociance-brno-sadova.html","675"
"5","Hospoda","Hostinec Šafářka","https://www.firmy.cz/detail/13049611-hostinec-safarka-brno-kralovo-pole.html","587"
"6","Divadlo","Bezbariérové divadlo Barka","https://www.firmy.cz/detail/661273-bezbarierove-divadlo-barka-brno-kralovo-pole.html","898"
"7","Veterinář","Veterinární klinika","https://www.firmy.cz/detail/13027171-veterinarni-klinika-brno-kralovo-pole.html","551"
"8","Lékař","MUDr. Bronislava Karasová","https://www.firmy.cz/detail/12945843-mudr-bronislava-karasova-brno-kralovo-pole.html","598"
"9","Bus MHD","Kociánka","","75"
"10","Lékárna","Lékárna Adonis","https://www.firmy.cz/detail/494800-lekarna-adonis-brno-kralovo-pole.html","563"
"11","Vlak","Brno-Královo Pole","","763"
"12","Sportoviště","Tenisová škola TALLENT","https://www.firmy.cz/detail/722837-tenisova-skola-tallent-brno-kralovo-pole.html","277"
"13","Tram","Husitská","","563"
"14","Škola","Mateřská škola a základní škola Brno, Kociánka, příspěvková organizace","https://www.firmy.cz/detail/583976-materska-skola-a-zakladni-skola-brno-kocianka-prispevkova-organizace-brno-kralovo-pole.html","152"
"15","Restaurace","Restaurace u Mušketýra","https://www.firmy.cz/detail/12962950-restaurace-u-musketyra-brno-kralovo-pole.html","47"
"16","Školka","Mateřská škola a základní škola Brno, Kociánka, příspěvková organizace","https://www.firmy.cz/detail/1548451-materska-skola-a-zakladni-skola-brno-kocianka-prispevkova-organizace-brno-kralovo-pole.html","152"
"17","Obchod","Nákupní centrum Královo Pole","https://www.firmy.cz/detail/671101-nakupni-centrum-kralovo-pole-brno-ponava.html","1002"
"18","Bankomat","Bankomat Komerční banky","https://www.firmy.cz/detail/12786396-bankomat-komercni-banky-brno-kralovo-pole.html","458"
"19","Pošta","Pošta Brno 12 - Česká pošta, s.p.","https://www.firmy.cz/detail/216021-posta-brno-12-brno-kralovo-pole.html","460"
