"","facility_type","facility_name","facility_iri","facility_distance"
"0","Cukrárna","Rodinné centrum Pampalánie","https://www.firmy.cz/detail/12952995-rodinne-centrum-pampalanie-usti-nad-labem-severni-terasa.html","626"
"1","Kino","Letní kino Ústí nad Labem","https://www.firmy.cz/detail/2556284-letni-kino-usti-nad-labem-usti-nad-labem.html","1500"
"2","Hřiště","Dětské hřiště Severní Terasa","","386"
"3","Večerka","NORMA","https://www.firmy.cz/detail/2182325-norma-usti-nad-labem-severni-terasa.html","171"
"4","Hospoda","Sport Pivnice Dřevák","https://www.firmy.cz/detail/12895702-sport-pivnice-drevak-usti-nad-labem-severni-terasa.html","334"
"5","Divadlo","Severočeské divadlo, s.r.o.","https://www.firmy.cz/detail/12720983-severoceske-divadlo-usti-nad-labem-centrum.html","1984"
"6","Veterinář","Veterinární klinika Mi-Vet","https://www.firmy.cz/detail/177515-veterinarni-klinika-mi-vet-usti-nad-labem-severni-terasa.html","424"
"7","Lékař","MUDr. Jurčová PRAKTIK, s.r.o.","https://www.firmy.cz/detail/12842636-mudr-jurcova-praktik-usti-nad-labem-severni-terasa.html","699"
"8","Bus MHD","Elba","","128"
"9","Školka","MŠ Stříbrníky Ústí nad Labem","https://www.firmy.cz/detail/1620084-ms-stribrniky-usti-nad-labem-usti-nad-labem-severni-terasa.html","456"
"10","Pošta","Pošta Ústí nad Labem 11 - Česká pošta, s.p.","https://www.firmy.cz/detail/215961-posta-usti-nad-labem-11-usti-nad-labem-severni-terasa.html","352"
"11","Vlak","Ústí nad Labem hlavní nádraží","","2194"
"12","Bankomat","Vkladomat České spořitelny","https://www.firmy.cz/detail/13238685-vkladomat-ceske-sporitelny-usti-nad-labem-severni-terasa.html","195"
"13","Restaurace","Pizzeria Pam Pam","https://www.firmy.cz/detail/2238045-pizzeria-pam-pam-usti-nad-labem-severni-terasa.html","174"
"14","Škola","Gymnázium a Střední odborná škola dr. Václava Šmejkala, Ústí nad Labem","https://www.firmy.cz/detail/361796-gymnazium-a-stredni-odborna-skola-dr-vaclava-smejkala-usti-nad-labem-usti-nad-labem-severni-terasa.html","208"
"15","Obchod","Albert Hypermarket","https://www.firmy.cz/detail/229751-albert-hypermarket-usti-nad-labem-severni-terasa.html","195"
"16","Sportoviště","Tenis Terasa s.r.o.","https://www.firmy.cz/detail/2378183-tenis-terasa-s-r-o-usti-nad-labem.html","1021"
"17","Lékárna","Dr. Max","https://www.firmy.cz/detail/12857068-dr-max-usti-nad-labem-severni-terasa.html","195"
