"","facility_type","facility_name","facility_iri","facility_distance"
"0","Cukrárna","Vinohradské dorty","https://www.firmy.cz/detail/13199036-vinohradske-dorty-praha-vinohrady.html","130"
"1","Kino","Spoiler - Filmový klub, z.s.","https://www.firmy.cz/detail/396379-spoiler-filmovy-klub-z-s-praha-zizkov.html","616"
"2","Hřiště","Dětské hřiště Riegrovy sady","","261"
"3","Večerka","Potraviny Kubelíkova","https://www.firmy.cz/detail/2470833-potraviny-kubelikova-praha-zizkov.html","205"
"4","Hospoda","U Pižďucha","https://www.firmy.cz/detail/337127-u-pizducha-praha-zizkov.html","572"
"5","Divadlo","Hvězdné léto pod žižkovskou věží","https://www.firmy.cz/detail/13265384-hvezdne-leto-pod-zizkovskou-vezi-praha-zizkov.html","373"
"6","Veterinář","Veterinární klinika Panda","https://www.firmy.cz/detail/166785-veterinarni-klinika-panda-praha-vinohrady.html","88"
"7","Restaurace","Pizza Mňam","https://www.firmy.cz/detail/2217572-pizza-mnam-praha-vinohrady.html","63"
"8","Obchod","PAVILON, a.s.","https://www.firmy.cz/detail/451685-pavilon-praha-vinohrady.html","484"
"9","Lékař","MUDr. Milan Hudi","https://www.firmy.cz/detail/2521971-mudr-milan-hudi-praha-vinohrady.html","283"
"10","Tram","Jiřího z Poděbrad","","354"
"11","Vlak","Praha hlavní nádraží","","771"
"12","Škola","Základní škola, Praha 3, nám. Jiřího z Poděbrad 7,8/1685","https://www.firmy.cz/detail/356148-zakladni-skola-praha-3-nam-jiriho-z-podebrad-7-8-1685-praha-vinohrady.html","240"
"13","Školka","Piccole Pesti, s.r.o.","https://www.firmy.cz/detail/2521490-piccole-pesti-praha-vinohrady.html","158"
"14","Sportoviště","Tělocvičná jednota Sokol Praha Královské Vinohrady","https://www.firmy.cz/detail/231150-telocvicna-jednota-sokol-praha-kralovske-vinohrady-praha-vinohrady.html","347"
"15","Bankomat","Bankomat Euronet","https://www.firmy.cz/detail/2372733-bankomat-euronet-praha-vinohrady.html","427"
"16","Pošta","Pošta Praha 33 - Česká pošta, s.p.","https://www.firmy.cz/detail/1994123-posta-praha-33-praha-vinohrady.html","469"
"17","Bus MHD","U Prdlavky","","136"
"18","Metro","Jiřího z Poděbrad","","312"
"19","Lékárna","Lékarna Na Žižkově","https://www.firmy.cz/detail/423199-lekarna-na-zizkove-praha-zizkov.html","207"
