"","facility_type","facility_name","facility_iri","facility_distance"
"0","Cukrárna","OVOCNÝ SVĚTOZOR","https://www.firmy.cz/detail/12735736-ovocny-svetozor-praha-dejvice.html","732"
"1","Kino","Bio Oko","https://www.firmy.cz/detail/2586117-bio-oko-praha-holesovice.html","1499"
"2","Hřiště","Oranžové hřiště","","435"
"3","Večerka","Tesco Expres","https://www.firmy.cz/detail/2358609-tesco-expres-praha-hradcany.html","507"
"4","Hospoda","Restaurace Dejvické nádraží","https://www.firmy.cz/detail/568432-restaurace-dejvicke-nadrazi-praha-dejvice.html","786"
"5","Divadlo","POTRVÁ","https://www.firmy.cz/detail/2246484-potrva-praha-dejvice.html","332"
"6","Veterinář","MVDr. Marta Schmidhalter-Pekárková DECVDI","https://www.firmy.cz/detail/2608174-mvdr-marta-schmidhalter-pekarkova-decvdi-praha-bubenec.html","877"
"7","Školka","Soukromá jazyková školka BUMBLE BEE","https://www.firmy.cz/detail/318821-soukroma-jazykova-skolka-bumble-bee-praha-bubenec.html","326"
"8","Lékař","MUDr. Svatava Šedová","https://www.firmy.cz/detail/381442-mudr-svatava-sedova-praha-bubenec.html","221"
"9","Vlak","Praha-Dejvice","","819"
"10","Metro","Hradčanská","","515"
"11","Škola","Obchodní akademie Praha 6, Krupkovo náměstí","https://www.firmy.cz/detail/362385-obchodni-akademie-praha-6-krupkovo-namesti-praha-bubenec.html","394"
"12","Tram","Hradčanská","","520"
"13","Bankomat","Bankomat České spořitelny","https://www.firmy.cz/detail/594916-bankomat-ceske-sporitelny-praha-hradcany.html","521"
"14","Obchod","Kaufland","https://www.firmy.cz/detail/12720219-kaufland-praha-dejvice.html","1688"
"15","Restaurace","Restaurace Na Rozhraní","https://www.firmy.cz/detail/332139-restaurace-na-rozhrani-praha-dejvice.html","352"
"16","Sportoviště","Hřiště na pétanque U Písecké brány","","685"
"17","Pošta","Pošta Praha 6 - Česká pošta, s.p.","https://www.firmy.cz/detail/216725-posta-praha-6-praha-dejvice.html","959"
"18","Bus MHD","Hradčanská","","420"
"19","Lékárna","Dejvická lékárna ARNIKA","https://www.firmy.cz/detail/654778-dejvicka-lekarna-arnika-praha-dejvice.html","863"
