"","facility_type","facility_name","facility_iri","facility_distance"
"0","Cukrárna","Café bar Platýz","https://www.firmy.cz/detail/606121-cafe-bar-platyz-praha-stare-mesto.html","98"
"1","Kino","Rock Café","https://www.firmy.cz/detail/275548-rock-cafe-praha-nove-mesto.html","111"
"2","Hřiště","Dětské hřiště Františkánská zahrada","","333"
"3","Přírodní zajímavost","Kovářovic mez","","5999"
"4","Večerka","Albert Supermarket","https://www.firmy.cz/detail/652908-albert-supermarket-praha.html","339"
"5","Hospoda","Batalion Café & Music Bar","https://www.firmy.cz/detail/457689-batalion-cafe-music-bar-praha-stare-mesto.html","217"
"6","Divadlo","Černé divadlo Metro - Black Light Theatre Prague","https://www.firmy.cz/detail/488291-cerne-divadlo-metro-black-light-theatre-prague-praha-stare-mesto.html","64"
"7","Veterinář","MVDr. Katka Sviták Novozámská","https://www.firmy.cz/detail/2137713-mvdr-katka-svitak-novozamska-praha-stare-mesto.html","310"
"8","Metro","Můstek","","162"
"9","Školka","MŠ Praha 1, Národní","https://www.firmy.cz/detail/407385-ms-praha-1-narodni-praha-stare-mesto.html","98"
"10","Pošta","Pošta Praha 01 - Česká pošta, s.p.","https://www.firmy.cz/detail/217506-posta-praha-01-praha-stare-mesto.html","572"
"11","Lékárna","Dr.Max","https://www.firmy.cz/detail/2570199-dr-max-praha-stare-mesto.html","58"
"12","Bus MHD","Mariánské náměstí","","495"
"13","Obchod","Tesco","https://www.firmy.cz/detail/218193-tesco-praha-nove-mesto.html","73"
"14","Tram","Národní třída","","123"
"15","Vlak","Praha Masarykovo nádraží","","1204"
"16","Bankomat","Bankomat České spořitelny","https://www.firmy.cz/detail/594320-bankomat-ceske-sporitelny-praha-stare-mesto.html","55"
"17","Restaurace","Restaurace U Medvídků","https://www.firmy.cz/detail/2536091-restaurace-u-medvidku-praha-stare-mesto.html","33"
"18","Sportoviště","Vinland Golf Club","https://www.firmy.cz/detail/2406923-vinland-golf-club-praha-nove-mesto.html","266"
"19","Lékař","Městská poliklinika Praha","https://www.firmy.cz/detail/179553-mestska-poliklinika-praha-praha-nove-mesto.html","300"
"20","Škola","ZŠ Brána jazyků","https://www.firmy.cz/detail/358941-zs-brana-jazyku-praha-stare-mesto.html","152"
