"","facility_type","facility_name","facility_iri","facility_distance"
"0","Hřiště","Dětské hřiště Ražická","https://mapy.cz/zakladni?x=14.4477477778&y=49.9877122222&z=17&source=base&id=1931153","43"
"1","Hospoda","Hospoda na Točné","https://www.firmy.cz/detail/13118461-hospoda-na-tocne-praha-tocna.html","2061"
"2","Večerka","Můjobchod - Potraviny Na Losách","https://www.firmy.cz/detail/13317214-mujobchod-potraviny-na-losach-praha-pisnice.html","1567"
"3","Cukrárna","Café Prima","https://www.firmy.cz/detail/2598612-cafe-prima-praha-pisnice.html","1593"
"4","Kino","Modřanský biograf","https://www.firmy.cz/detail/13272765-modransky-biograf-praha-modrany.html","3526"
"5","Veterinář","Veterinární nemocnice Libuš","https://www.firmy.cz/detail/601292-veterinarni-nemocnice-libus-praha-libus.html","2408"
"6","Divadlo","Divadlo Na Cikorce","https://www.firmy.cz/detail/2387865-divadlo-na-cikorce-praha-modrany.html","3634"
"7","Sportoviště","PELARO plus s.r.o.","https://www.firmy.cz/detail/13047197-pelaro-plus-s-r-o-praha-cholupice.html","320"
"8","Lékař","MUDr. Hoa Le Thi Khánh","https://www.firmy.cz/detail/12838493-mudr-hoa-le-thi-khanh-praha-pisnice.html","2065"
"9","Lékárna","Písnická lékárna","https://www.firmy.cz/detail/13272782-pisnicka-lekarna-praha-pisnice.html","2065"
"10","Bus MHD","Cholupické náměstí","https://mapy.cz/zakladni?x=14.44881000000001&y=49.98850992848239&z=17&source=pubt&id=15716485","104"
"11","Tram","Levského","https://mapy.cz/zakladni?x=14.4360799568&y=50.0051219&z=17&source=pubt&id=15300415","2065"
"12","Škola","Základní škola v Písnici","https://www.firmy.cz/detail/356183-zakladni-skola-v-pisnici-praha-pisnice.html","1382"
"13","Restaurace","Restaurace U Čámrse","https://www.firmy.cz/detail/2552319-restaurace-u-camrse-praha-cholupice.html","83"
"14","Metro","Opatov","https://mapy.cz/zakladni?x=14.5076233&y=50.0274606&z=17&source=pubt&id=15709343","6134"
"15","Obchod","Obchodní pasáž Sofie","https://www.firmy.cz/detail/217785-obchodni-pasaz-sofie-praha-modrany.html","2886"
"16","Bankomat","Bankomat Fio banky - Fio banka, a.s.","https://www.firmy.cz/detail/13205125-bankomat-fio-banky-praha-kamyk.html","2401"
"17","Vlak","Praha-Komořany","https://mapy.cz/zakladni?x=14.404415737&y=49.9910197984&z=17&source=pubt&id=15212569","3099"
"18","Školka","Lesní klub Remízek","https://www.firmy.cz/detail/13297340-lesni-klub-remizek-praha-cholupice.html","853"
"19","Pošta","Pošta Praha 413 - Česká pošta, s.p.","https://www.firmy.cz/detail/217476-posta-praha-413-praha-libus.html","2576"
