"","facility_type","facility_name","facility_iri","facility_distance"
"0","Cukrárna","Shothouse","https://www.firmy.cz/detail/13286217-shothouse-havirov-mesto.html","731"
"1","Kino","Kino Centrum","https://www.firmy.cz/detail/12780436-kino-centrum-havirov-mesto.html","832"
"2","Hřiště","Dětské hřiště Hakenova","","441"
"3","Večerka","COOP Beskydy - Tuty","https://www.firmy.cz/detail/1940412-coop-beskydy-tuty-havirov-mesto.html","174"
"4","Hospoda","Hospůdka u Lenina","https://www.firmy.cz/detail/13169583-hospudka-u-lenina-havirov-mesto.html","310"
"5","Veterinář","Veterina Na Nábřeží","https://www.firmy.cz/detail/1947067-veterina-na-nabrezi-havirov-mesto.html","987"
"6","Školka","MŠ Havířov, Puškinova","https://www.firmy.cz/detail/2287497-ms-havirov-puskinova-havirov-mesto.html","200"
"7","Obchod","Kaufland","https://www.firmy.cz/detail/1545096-kaufland-havirov-podlesi.html","413"
"8","Bus MHD","Havířov, Město, Tolstého","","121"
"9","Pošta","Pošta Havířov 21 - Česká pošta, s.p.","https://www.firmy.cz/detail/2378876-posta-havirov-21-havirov-podlesi.html","669"
"10","Restaurace","Restaurace Dlouhá třída 1510","https://www.firmy.cz/detail/13146730-restaurace-dlouha-trida-1510-havirov-mesto.html","294"
"11","Bankomat","Bankomat Komerční banky","https://www.firmy.cz/detail/12973620-bankomat-komercni-banky-havirov-mesto.html","366"
"12","Lékař","MUDr. Simona Janáčková, s.r.o.","https://www.firmy.cz/detail/12862462-mudr-simona-janackova-havirov-podlesi.html","567"
"13","Škola","ZŠ Havířov, 1. máje","https://www.firmy.cz/detail/357049-zs-havirov-1-maje-havirov-mesto.html","186"
"14","Sportoviště","Horolezecký oddíl Tatran Havířov","https://www.firmy.cz/detail/2325561-horolezecky-oddil-tatran-havirov-havirov-mesto.html","143"
"15","Vlak","Havířov-střed","","1504"
"16","Lékárna","Lékárna U Elišky","https://www.firmy.cz/detail/421095-lekarna-u-elisky-havirov-mesto.html","289"
