"","facility_type","facility_name","facility_iri","facility_distance"
"0","Hřiště","Dětské hřiště Norská","https://mapy.cz/zakladni?x=17.226915351&y=49.5986828685&z=17&source=base&id=2177216","134"
"1","Večerka","Lidl","https://www.firmy.cz/detail/13295151-lidl-olomouc-nova-ulice.html","615"
"2","Hospoda","Jadrošova krčma","https://www.firmy.cz/detail/13189157-jadrosova-krcma-olomouc-neredin.html","523"
"3","Kino","CineStar Olomouc","https://www.firmy.cz/detail/661181-cinestar-olomouc-olomouc-repcin.html","646"
"4","Veterinář","Veterinární klinika MVDr. Michael Mazoch, s.r.o.","https://www.firmy.cz/detail/12906915-veterinarni-klinika-mvdr-michael-mazoch-s-r-o-olomouc-neredin.html","315"
"5","Cukrárna","NM DESSERTS","https://www.firmy.cz/detail/13274778-nm-desserts-olomouc-neredin.html","270"
"6","Divadlo","Divadlo Tramtarie","https://www.firmy.cz/detail/594401-divadlo-tramtarie-olomouc-nova-ulice.html","1468"
"7","Lékárna","Dr. Max","https://www.firmy.cz/detail/12856835-dr-max-olomouc-repcin.html","433"
"8","Školka","MŠ Olomouc, Helsinská","https://www.firmy.cz/detail/2152777-ms-olomouc-helsinska-olomouc-neredin.html","190"
"9","Lékař","Ordinace Neředín - Mazoch Igor MUDr.","https://www.firmy.cz/detail/12834025-ordinace-neredin-mazoch-igor-mudr-olomouc-neredin.html","141"
"10","Tram","U Kovárny","https://mapy.cz/zakladni?x=17.2279804555&y=49.5965090157&z=17&source=pubt&id=15203074","243"
"11","Restaurace","Restaurace Avion","https://www.firmy.cz/detail/1973223-restaurace-avion-olomouc-neredin.html","166"
"12","Vlak","Olomouc-Hejčín","https://mapy.cz/zakladni?x=17.2366112569&y=49.6023089412&z=17&source=pubt&id=15212338","940"
"13","Škola","Fakultní ZŠ Olomouc, Helsinská 6","https://www.firmy.cz/detail/2534407-fakultni-zs-olomouc-helsinska-6-olomouc-neredin.html","325"
"14","Sportoviště","TJ Olomouc-město","https://www.firmy.cz/detail/1335543-tj-olomouc-mesto-olomouc-repcin.html","417"
"15","Bus MHD","Globus","https://mapy.cz/zakladni?x=17.223787527531215&y=49.60054850006515&z=17&source=pubt&id=15209884","313"
"16","Bankomat","Bankomat ČSOB","https://www.firmy.cz/detail/599273-bankomat-csob-olomouc-repcin.html","398"
"17","Pošta","Pošta Olomouc 10 - Česká pošta, s.p.","https://www.firmy.cz/detail/215756-posta-olomouc-10-olomouc-nova-ulice.html","977"
"18","Obchod","Globus Hypermarket","https://www.firmy.cz/detail/448363-globus-hypermarket-olomouc-repcin.html","417"
