"","facility_type","facility_name","facility_iri","facility_distance"
"0","Cukrárna","Cukrárna Lada","https://www.firmy.cz/detail/12915655-cukrarna-lada-havirov-sumbark.html","1370"
"1","Hřiště","Dětské hřiště U Tesly","","1026"
"2","Kino","Letní kino - Městské kulturní středisko Havířov","https://www.firmy.cz/detail/13072791-letni-kino-havirov.html","1076"
"3","Večerka","Lidl","https://www.firmy.cz/detail/13289972-lidl-havirov.html","297"
"4","Hospoda","Restaurace Přístav","https://www.firmy.cz/detail/13109183-restaurace-pristav-havirov-sumbark.html","369"
"5","Veterinář","Veterinární klinika ANIVET - MVDr. Zbyněk Horák","https://www.firmy.cz/detail/1969639-veterinarni-klinika-anivet-mvdr-zbynek-horak-havirov-sumbark.html","425"
"6","Restaurace","GURMÁN","https://www.firmy.cz/detail/12907330-gurman-havirov.html","592"
"7","Lékař","MUDr. René Turčínek","https://www.firmy.cz/detail/387379-mudr-rene-turcinek-havirov-sumbark.html","371"
"8","Obchod","Tesco","https://www.firmy.cz/detail/218205-tesco-havirov-mesto.html","843"
"9","Sportoviště","Správa sportovních a rekreačních zařízení Havířov","https://www.firmy.cz/detail/13328484-sprava-sportovnich-a-rekreacnich-zarizeni-havirov-havirov-sumbark.html","369"
"10","Bankomat","Bankomat Komerční banky","https://www.firmy.cz/detail/13312525-bankomat-komercni-banky-havirov-sumbark.html","275"
"11","Bus MHD","Havířov, Šumbark, U nádraží","","134"
"12","Lékárna","Lékárna Léčebné centrum","https://www.firmy.cz/detail/2202513-lekarna-lecebne-centrum-havirov-sumbark.html","371"
"13","Škola","Střední škola polytechnická, Havířov-Šumbark","https://www.firmy.cz/detail/361233-stredni-skola-polytechnicka-havirov-sumbark-havirov-sumbark.html","312"
"14","Vlak","Havířov","","325"
"15","Pošta","Pošta Havířov 3 - Česká pošta, s.p.","https://www.firmy.cz/detail/431629-posta-havirov-3-havirov-sumbark.html","405"
"16","Školka","MŠ Havířov","https://www.firmy.cz/detail/2333584-ms-havirov-havirov-sumbark.html","297"
