"","facility_type","facility_name","facility_iri","facility_distance"
"0","Cukrárna","Ubytování v soukromí Otoli","https://www.firmy.cz/detail/2614100-ubytovani-v-soukromi-otoli-vlasim.html","22"
"1","Kino","Kino Vlašim","https://www.firmy.cz/detail/407667-kino-vlasim-vlasim.html","980"
"2","Přírodní zajímavost","Jinošovské údolí","","2508"
"3","Hřiště","Dětské hřiště","","628"
"4","Večerka","Potraviny Zelingr","https://www.firmy.cz/detail/2456797-potraviny-zelingr-vlasim.html","617"
"5","Hospoda","Pivnice Na Nové","https://www.firmy.cz/detail/13108615-pivnice-na-nove-vlasim.html","1314"
"6","Veterinář","MVDr. Jiří Smrčina - veterinární lékař","https://www.firmy.cz/detail/650397-mvdr-jiri-smrcina-veterinarni-lekar-vlasim.html","576"
"7","Lékárna","Lékárna Magnolie","https://www.firmy.cz/detail/2536674-lekarna-magnolie-vlasim.html","828"
"8","Škola","ZŠ Vorlina Vlašim","https://www.firmy.cz/detail/360053-zs-vorlina-vlasim-vlasim.html","443"
"9","Obchod","VENDO PARK Vlašim","https://www.firmy.cz/detail/12967319-vendo-park-vlasim-vlasim.html","1405"
"10","Vlak","Vlašim","","806"
"11","Pošta","Pošta Vlašim - Česká pošta, s.p.","https://www.firmy.cz/detail/217369-posta-vlasim-vlasim.html","811"
"12","Sportoviště","Bowling Bar Vorlina","https://www.firmy.cz/detail/13296293-bowling-bar-vorlina-vlasim.html","503"
"13","Bus MHD","Vlašim, u Vorliny","","374"
"14","Školka","MŠ Vorlina","https://www.firmy.cz/detail/12908319-ms-vorlina-vlasim.html","556"
"15","Restaurace","Restaurace Na Mlíkárně","https://www.firmy.cz/detail/2628042-restaurace-na-mlikarne-vlasim.html","618"
"16","Bankomat","Bankomat ČSOB","https://www.firmy.cz/detail/597892-bankomat-csob-vlasim.html","813"
"17","Lékař","MUDr. Irena Krčmová","https://www.firmy.cz/detail/12742404-mudr-irena-krcmova-vlasim.html","847"
