"","facility_type","facility_name","facility_iri","facility_distance"
"0","Cukrárna","Cafe Decada","https://www.firmy.cz/detail/2627206-cafe-decada-praha-liben.html","171"
"1","Kino","Kino Aero","https://www.firmy.cz/detail/399435-kino-aero-praha-zizkov.html","1463"
"2","Přírodní zajímavost","Meandry Rokytky","","3007"
"3","Hřiště","Dětské hřiště V Mezihoří","","213"
"4","Večerka","BILLA","https://www.firmy.cz/detail/212069-billa-praha-liben.html","246"
"5","Hospoda","Pivní bar Napalmě","https://www.firmy.cz/detail/12761309-pivni-bar-napalme-praha-liben.html","205"
"6","Divadlo","Divadlo pod Palmovkou","https://www.firmy.cz/detail/396881-divadlo-pod-palmovkou-praha-liben.html","309"
"7","Veterinář","ERIKA veterinární klinika - MVDr. Pavel Hron","https://www.firmy.cz/detail/261989-erika-veterinarni-klinika-mvdr-pavel-hron-praha-liben.html","351"
"8","Školka","Mateřská škola, Praha 8, Sokolovská 182","https://www.firmy.cz/detail/12752486-materska-skola-praha-8-sokolovska-182-praha-liben.html","123"
"9","Lékárna","BENU Lékárna","https://www.firmy.cz/detail/13003187-benu-lekarna-praha-liben.html","263"
"10","Sportoviště","SC Palmovka","https://www.firmy.cz/detail/653685-sc-palmovka-praha-liben.html","38"
"11","Škola","ZŠ Praha 8, Palmovka","https://www.firmy.cz/detail/356241-zs-praha-8-palmovka-praha-liben.html","94"
"12","Bankomat","Bankomat Komerční banky","https://www.firmy.cz/detail/596057-bankomat-komercni-banky-praha-liben.html","121"
"13","Obchod","Kaufland","https://www.firmy.cz/detail/1545721-kaufland-praha-liben.html","548"
"14","Tram","Palmovka","","93"
"15","Restaurace","EL CORAZON CLUB","https://www.firmy.cz/detail/12797237-el-corazon-club-praha-liben.html","67"
"16","Metro","Palmovka","","138"
"17","Lékař","MUDr. Kristina Kostovová","https://www.firmy.cz/detail/389652-mudr-kristina-kostovova-praha-liben.html","206"
"18","Bus MHD","Palmovka","","146"
"19","Vlak","Praha-Libeň","","1853"
"20","Pošta","Pošta Praha 8 - Česká pošta, s.p.","https://www.firmy.cz/detail/216711-posta-praha-8-praha-liben.html","88"
