"","facility_type","facility_name","facility_iri","facility_distance"
"0","Hřiště","Dětské hřiště Za Hládkovem","https://mapy.cz/zakladni?x=14.3834366681&y=50.087817856&z=17&source=base&id=1927091","124"
"1","Veterinář","MVDr. Aleš Müller","https://www.firmy.cz/detail/2139641-mvdr-ales-muller-praha-brevnov.html","425"
"2","Cukrárna","Ice La Torta","https://www.firmy.cz/detail/12791026-ice-la-torta-praha-mala-strana.html","972"
"3","Večerka","Z-Market","https://www.firmy.cz/detail/12788101-z-market-praha-brevnov.html","982"
"4","Hospoda","U Černého vola","https://www.firmy.cz/detail/2682464-u-cerneho-vola-praha-hradcany.html","605"
"5","Divadlo","DIVADLO UNGELT, s.r.o.","https://www.firmy.cz/detail/2615819-divadlo-ungelt-praha-hradcany.html","775"
"6","Kino","Cinema City Nový Smíchov","https://www.firmy.cz/detail/2679838-cinema-city-novy-smichov-praha-smichov.html","1957"
"7","Bus MHD","Malovanka","https://mapy.cz/zakladni?x=14.3833305339&y=50.0855762097&z=17&source=pubt&id=15302668","129"
"8","Škola","ZUŠ Praha 6, Nad Alejí, Morstadtova","https://www.firmy.cz/detail/2403808-zus-praha-6-nad-aleji-morstadtova-praha-hradcany.html","275"
"9","Vlak","Praha-Dejvice","https://mapy.cz/zakladni?x=14.3996359142&y=50.0969651071&z=17&source=pubt&id=15212556","1611"
"10","Školka","MŠ Praha 6, Parléřova","https://www.firmy.cz/detail/663047-ms-praha-6-parlerova-praha-hradcany.html","221"
"11","Tram","Malovanka","https://mapy.cz/zakladni?x=14.3824985594&y=50.0855965209&z=17&source=pubt&id=15303480","150"
"12","Bankomat","Bankomat Komerční banky","https://www.firmy.cz/detail/594686-bankomat-komercni-banky-praha-hradcany.html","467"
"13","Sportoviště","Michal Vecko - BENDVIK","https://www.firmy.cz/detail/429133-michal-vecko-bendvik-praha-hradcany.html","158"
"14","Pošta","Pošta Praha 612 - Česká pošta, s.p.","https://www.firmy.cz/detail/217422-posta-praha-612-praha-stresovice.html","159"
"15","Obchod","Obchodní centrum Nový Smíchov","https://www.firmy.cz/detail/579116-obchodni-centrum-novy-smichov-praha-smichov.html","2020"
"16","Lékař","MUDr. Martina Malá","https://www.firmy.cz/detail/389083-mudr-martina-mala-praha-brevnov.html","753"
"17","Metro","Dejvická","https://mapy.cz/zakladni?x=14.3920118901&y=50.1001540506&z=17&source=pubt&id=15206985","1608"
"18","Lékárna","Lék.Nem.Milosrd.sester sv.K.Boromejského v Praze","https://www.firmy.cz/detail/2307552-lek-nem-milosrd-sester-sv-k-boromejskeho-v-praze-praha-mala-strana.html","897"
"19","Restaurace","Burger Pub Na Hubálce","https://www.firmy.cz/detail/12795758-burger-pub-na-hubalce-praha-stresovice.html","347"
