"","facility_type","facility_name","facility_iri","facility_distance"
"0","Cukrárna","Čtenářská kavárna Joker","https://www.firmy.cz/detail/12949378-ctenarska-kavarna-joker-cheb.html","849"
"1","Kino","Kino Svět","https://www.firmy.cz/detail/451706-kino-svet-cheb.html","839"
"2","Hřiště","Dětské hřiště Ztracená","","188"
"3","Večerka","Penny Market","https://www.firmy.cz/detail/207771-penny-market-cheb.html","74"
"4","Hospoda","Restaurace U Stadionu 1295/1","https://www.firmy.cz/detail/13139657-restaurace-u-stadionu-1295-1-cheb.html","301"
"5","Divadlo","Západočeské divadlo v Chebu","https://www.firmy.cz/detail/396999-zapadoceske-divadlo-v-chebu-cheb.html","1099"
"6","Veterinář","PRO ANIMA, spol. s r.o.","https://www.firmy.cz/detail/2125309-pro-anima-cheb.html","235"
"7","Restaurace","NGAN NUÓNG - PHO","https://www.firmy.cz/detail/13134785-ngan-nuong-pho-cheb.html","324"
"8","Vlak","Cheb","","459"
"9","Školka","MŠ Cheb, Bezručova","https://www.firmy.cz/detail/2152619-ms-cheb-bezrucova-cheb.html","175"
"10","Pošta","Pošta Depo Cheb 70","https://www.firmy.cz/detail/13225454-posta-depo-cheb-70-cheb.html","343"
"11","Obchod","Obchodní centrum Dragoun","https://www.firmy.cz/detail/13265976-obchodni-centrum-dragoun-cheb.html","794"
"12","Bankomat","Bankomat ČSOB","https://www.firmy.cz/detail/1359026-bankomat-csob-cheb.html","366"
"13","Bus MHD","Cheb, Riegerova","","101"
"14","Škola","6.základní škola Cheb, Obětí nacismu 16","https://www.firmy.cz/detail/357338-6-zakladni-skola-cheb-obeti-nacismu-16-cheb.html","402"
"15","Lékárna","Lékárna Calmia","https://www.firmy.cz/detail/421133-lekarna-calmia-cheb.html","619"
"16","Sportoviště","TJ Lokomotiva Cheb","https://www.firmy.cz/detail/404065-tj-lokomotiva-cheb-cheb.html","301"
"17","Lékař","MUDr. Radek Měšťan","https://www.firmy.cz/detail/13305292-mudr-radek-mestan-cheb.html","722"
