"","facility_type","facility_name","facility_iri","facility_distance"
"0","Cukrárna","Cukrárna La Amália","https://www.firmy.cz/detail/13167375-cukrarna-la-amalia-frydek-mistek-frydek.html","692"
"1","Kino","5D cinema Maxim","https://www.firmy.cz/detail/12950607-5d-cinema-maxim-frydek-mistek-frydek.html","1164"
"2","Přírodní zajímavost","Bludné balvany ve Frýdeckém lese","","2776"
"3","Hřiště","Dětské hřiště Na Veselé","","51"
"4","Večerka","Tesco Supermarket","https://www.firmy.cz/detail/2195841-tesco-supermarket-frydek-mistek-frydek.html","165"
"5","Divadlo","Divadlo Čtyřlístek","https://www.firmy.cz/detail/661532-divadlo-ctyrlistek-frydek-mistek-frydek.html","583"
"6","Hospoda","Nevada Bar","https://www.firmy.cz/detail/13204654-nevada-bar-frydek-mistek-frydek.html","89"
"7","Veterinář","Klinika Lískovka","https://www.firmy.cz/detail/12868316-klinika-liskovka-frydek-mistek-frydek.html","691"
"8","Škola","Základní škola a mateřská škola Frýdek-Místek, Jana Čapka 2555","https://www.firmy.cz/detail/356998-zakladni-skola-a-materska-skola-frydek-mistek-jana-capka-2555-frydek-mistek-frydek.html","260"
"9","Vlak","Frýdek-Místek","","635"
"10","Pošta","Pošta Frýdek-Místek 1 - Česká pošta, s.p.","https://www.firmy.cz/detail/215628-posta-frydek-mistek-1-frydek-mistek-frydek.html","719"
"11","Lékař","SPECIMA s.r.o.","https://www.firmy.cz/detail/13267986-specima-s-r-o-frydek-mistek-frydek.html","370"
"12","Restaurace","Nevada Grill","https://www.firmy.cz/detail/13304593-nevada-grill-frydek-mistek-frydek.html","89"
"13","Lékárna","BENU Lékárna","https://www.firmy.cz/detail/2628203-benu-lekarna-frydek-mistek-frydek.html","370"
"14","Obchod","Albert Hypermarket","https://www.firmy.cz/detail/12919668-albert-hypermarket-frydek-mistek-frydek.html","499"
"15","Sportoviště","Lion Cross Arena","https://www.firmy.cz/detail/13014779-lion-cross-arena-frydek-mistek-frydek.html","224"
"16","Školka","MŠ Skřivánek","https://www.firmy.cz/detail/729667-ms-skrivanek-frydek-mistek-frydek.html","146"
"17","Bus MHD","Frýdek-Místek, Frýdek, rest.U Gustlíčka","","299"
"18","Bankomat","Bankomat MONETA Money Bank","https://www.firmy.cz/detail/13131835-bankomat-moneta-money-bank-frydek-mistek-frydek.html","165"
