"","facility_type","facility_name","facility_iri","facility_distance"
"0","Cukrárna","Cukrárna Maratonstav","https://www.firmy.cz/detail/12857101-cukrarna-maratonstav-upice.html","322"
"1","Kino","Kino Mír","https://www.firmy.cz/detail/457415-kino-mir-upice.html","800"
"2","Hřiště","Dětské hřiště Myslbekova","","913"
"3","Večerka","Ovoce a zelenina Velkon","https://www.firmy.cz/detail/2695839-ovoce-a-zelenina-velkon-upice.html","502"
"4","Hospoda","Pivní bar U Žižky","https://www.firmy.cz/detail/13118246-pivni-bar-u-zizky-upice.html","948"
"5","Divadlo","Klub loutkářů Úpice","https://www.firmy.cz/detail/631827-klub-loutkaru-upice-upice.html","765"
"6","Veterinář","MVDr. Jan Švrčina","https://www.firmy.cz/detail/2628159-mvdr-jan-svrcina-upice.html","337"
"7","Škola","Základní škola Úpice - Lány","https://www.firmy.cz/detail/359849-zakladni-skola-upice-lany-upice.html","194"
"8","Restaurace","Hostinec Na Chmelnici","https://www.firmy.cz/detail/13110524-hostinec-na-chmelnici-upice.html","139"
"9","Lékárna","Dr.Max","https://www.firmy.cz/detail/12856642-dr-max-upice.html","477"
"10","Bankomat","Bankomat České spořitelny","https://www.firmy.cz/detail/596336-bankomat-ceske-sporitelny-upice.html","439"
"11","Bus MHD","Úpice, Sychrov","","169"
"12","Pošta","Pošta Úpice - Česká pošta, s.p.","https://www.firmy.cz/detail/433207-posta-upice-upice.html","816"
"13","Školka","MŠ Úpice, Plickova","https://www.firmy.cz/detail/2142629-ms-upice-plickova-upice.html","527"
"14","Lékař","MUDr. Tamara Hynková","https://www.firmy.cz/detail/385534-mudr-tamara-hynkova-upice.html","454"
"15","Vlak","Suchovršice","","3153"
"16","Sportoviště","Koupaliště Úpice","https://www.firmy.cz/detail/12948826-koupaliste-upice-upice.html","1668"
