"","facility_type","facility_name","facility_iri","facility_distance"
"0","Cukrárna","Dětské hřiště Bambino","https://www.firmy.cz/detail/12932498-detske-hriste-bambino-hodonin.html","151"
"1","Kino","Kino Svět","https://www.firmy.cz/detail/451985-kino-svet-hodonin.html","271"
"2","Hřiště","Dětské hřiště Sadová","","375"
"3","Večerka","Obchodní dům CENTRUM","https://www.firmy.cz/detail/12802903-obchodni-dum-centrum-hodonin.html","126"
"4","Hospoda","Baron Stanley Pub","https://www.firmy.cz/detail/13300715-baron-stanley-pub-hodonin.html","97"
"5","Veterinář","MVDr. Daniela Plešová","https://www.firmy.cz/detail/2442810-mvdr-daniela-plesova-hodonin.html","325"
"6","Bankomat","Bankomat MONETA Money Bank","https://www.firmy.cz/detail/659694-bankomat-moneta-money-bank-hodonin.html","126"
"7","Vlak","Hodonín","","721"
"8","Sportoviště","Sun&Body","https://www.firmy.cz/detail/13202700-sun-body-hodonin.html","80"
"9","Školka","Mateřská škola Hodonín, Jánošíkova 3513/11, příspěvková organizace","https://www.firmy.cz/detail/2607702-materska-skola-hodonin-janosikova-3513-11-prispevkova-organizace-hodonin.html","485"
"10","Restaurace","Restaurace U Kačera","https://www.firmy.cz/detail/13234952-restaurace-u-kacera-hodonin.html","88"
"11","Obchod","Kaufland","https://www.firmy.cz/detail/1406114-kaufland-hodonin.html","825"
"12","Lékař","ABC zdraví, s.r.o.","https://www.firmy.cz/detail/13020032-abc-zdravi-hodonin.html","243"
"13","Bus MHD","Hodonín, Měšťanská","","99"
"14","Škola","ZUŠ Hodonín, Horní Valy","https://www.firmy.cz/detail/360552-zus-hodonin-horni-valy-hodonin.html","168"
"15","Lékárna","Lékárna","https://www.firmy.cz/detail/422924-lekarna-hodonin.html","151"
"16","Pošta","Pošta Hodonín 1 - Česká pošta, s.p.","https://www.firmy.cz/detail/433237-posta-hodonin-1-hodonin.html","366"
