"","facility_type","facility_name","facility_iri","facility_distance"
"0","Přírodní zajímavost","Motýlí vrch Ferdinandka","https://mapy.cz/zakladni?x=13.9908022222&y=49.6944355556&z=17&source=base&id=2064841","1434"
"1","Hřiště","Dětské hřiště Ve Dvoře","https://mapy.cz/zakladni?x=13.9960306308&y=49.6795928706&z=17&source=base&id=1926367","262"
"2","Večerka","Daily shop","https://www.firmy.cz/detail/13315743-daily-shop-pribram-vii.html","48"
"3","Hospoda","Cafe bar Březové Hory","https://www.firmy.cz/detail/13116838-cafe-bar-brezove-hory-pribram-vi-brezove-hory.html","448"
"4","Cukrárna","Cukrárna a kavárna RIO","https://www.firmy.cz/detail/611935-cukrarna-a-kavarna-rio-pribram-vii.html","383"
"5","Veterinář","Veterinární klinika na Weilovně","https://www.firmy.cz/detail/458112-veterinarni-klinika-na-weilovne-pribram-iv.html","875"
"6","Divadlo","Divadlo A. Dvořáka Příbram","https://www.firmy.cz/detail/397055-divadlo-a-dvoraka-pribram-pribram-vii.html","443"
"7","Kino","Letní kino Příbram","https://www.firmy.cz/detail/13001448-letni-kino-pribram-pribram-viii.html","1186"
"8","Bus MHD","Příbram, Břez.Hory, Mariánská","https://mapy.cz/zakladni?x=13.9959683424006&y=49.6827859248902&z=17&source=pubt&id=15295834","142"
"9","Pošta","Pošta Příbram 2 - Česká pošta, s.p.","https://www.firmy.cz/detail/217336-posta-pribram-2-pribram-vii.html","377"
"10","Lékárna","BENU lékárna","https://www.firmy.cz/detail/13189200-benu-lekarna-pribram-vii.html","402"
"11","Lékař","MUDr. Eva Šeborová","https://www.firmy.cz/detail/389142-mudr-eva-seborova-pribram-vii.html","402"
"12","Restaurace","Vinárna U Simony","https://www.firmy.cz/detail/2208240-vinarna-u-simony-pribram-vi-brezove-hory.html","102"
"13","Škola","ZŠ, Příbram, 28. října","https://www.firmy.cz/detail/359106-zs-pribram-28-rijna-pribram-vii.html","141"
"14","Školka","MŠ Příbram,  28. října","https://www.firmy.cz/detail/2112814-ms-pribram-28-rijna-pribram-vii.html","285"
"15","Sportoviště","Tělocvičná jednota Sokol","https://www.firmy.cz/detail/12795557-telocvicna-jednota-sokol-pribram-vi-brezove-hory.html","442"
"16","Bankomat","Bankomat MONETA Money Bank","https://www.firmy.cz/detail/602894-bankomat-moneta-money-bank-pribram-vii.html","383"
"17","Obchod","OC SKALKA, spol. s r.o.","https://www.firmy.cz/detail/12994294-oc-skalka-pribram-iii.html","1119"
"18","Vlak","Příbram sídliště","https://mapy.cz/zakladni?x=14.0011370846558&y=49.6741436271325&z=17&source=pubt&id=18286944","967"
