"","facility_type","facility_name","facility_iri","facility_distance"
"0","Hřiště","Dětské hřiště Korandova","https://mapy.cz/zakladni?x=13.3660445471&y=49.7439733309&z=17&source=base&id=2226035","437"
"1","Cukrárna","Sušenkárna","https://www.firmy.cz/detail/13273595-susenkarna-plzen-jizni-predmesti.html","329"
"2","Večerka","Můjobchod - Potraviny Skrétova","https://www.firmy.cz/detail/12997766-mujobchod-potraviny-skretova-plzen-jizni-predmesti.html","116"
"3","Hospoda","Hospůdka V Bendovce","https://www.firmy.cz/detail/13179013-hospudka-v-bendovce-plzen-jizni-predmesti.html","153"
"4","Kino","Kino Beseda","https://www.firmy.cz/detail/12773769-kino-beseda-plzen-jizni-predmesti.html","685"
"5","Veterinář","Psí salón BELLA","https://www.firmy.cz/detail/12759736-psi-salon-bella-plzen-jizni-predmesti.html","267"
"6","Divadlo","Divadlo pod lampou, o.p.s.","https://www.firmy.cz/detail/2418226-divadlo-pod-lampou-plzen-jizni-predmesti.html","221"
"7","Restaurace","Restaurace U Ševců","https://www.firmy.cz/detail/2216379-restaurace-u-sevcu-plzen-jizni-predmesti.html","90"
"8","Bankomat","Bankomat České spořitelny","https://www.firmy.cz/detail/594021-bankomat-ceske-sporitelny-plzen-jizni-predmesti.html","207"
"9","Sportoviště","fit studio aerobic Robert Narovec","https://www.firmy.cz/detail/12913038-fit-studio-aerobic-robert-narovec-plzen-jizni-predmesti.html","534"
"10","Vlak","Plzeň-Jižní Předměstí","https://mapy.cz/zakladni?x=13.3674535638&y=49.7401195443&z=17&source=pubt&id=15212478","137"
"11","Pošta","Pošta Plzeň 4 - Česká pošta, s.p.","https://www.firmy.cz/detail/216658-posta-plzen-4-plzen-jizni-predmesti.html","524"
"12","Lékárna","Lékárna BENU Plzeň","https://www.firmy.cz/detail/13204060-lekarna-benu-plzen-plzen-jizni-predmesti.html","28"
"13","Škola","Hotelová škola, Plzeň","https://www.firmy.cz/detail/2612629-hotelova-skola-plzen-plzen-jizni-predmesti.html","118"
"14","Obchod","Obchodní centrum Plzeň Plaza","https://www.firmy.cz/detail/13089722-obchodni-centrum-plzen-plaza-plzen-jizni-predmesti.html","1003"
"15","Lékař","MUDr. Miloš Krupička","https://www.firmy.cz/detail/368426-mudr-milos-krupicka-plzen-jizni-predmesti.html","28"
"16","Školka","24. MŠ Plzeň, Schwarzova","https://www.firmy.cz/detail/360416-24-ms-plzen-schwarzova-plzen-jizni-predmesti.html","416"
"17","Tram","Masarykovo náměstí","https://mapy.cz/zakladni?x=13.3714411724&y=49.7411132436&z=17&source=pubt&id=15697536","170"
"18","Bus MHD","Belánka","https://mapy.cz/zakladni?x=13.3703242936828&y=49.7399284005164&z=17&source=pubt&id=16424363","111"
