"","facility_type","facility_name","facility_iri","facility_distance"
"0","Hřiště","Dětské hřiště Jindřicha Plachty","https://mapy.cz/zakladni?x=18.1661549007&y=49.8312401009&z=17&source=base&id=2226335","126"
"1","Hospoda","Pivnice Panoramka","https://www.firmy.cz/detail/12918166-pivnice-panoramka-ostrava-poruba.html","136"
"2","Večerka","HRUŠKA","https://www.firmy.cz/detail/13201484-hruska-ostrava-poruba.html","171"
"3","Veterinář","Veterinární klinika Yorika","https://www.firmy.cz/detail/712067-veterinarni-klinika-yorika-ostrava-poruba.html","158"
"4","Cukrárna","Kafé Nejenpro","https://www.firmy.cz/detail/13208266-kafe-nejenpro-ostrava-poruba.html","378"
"5","Divadlo","Porubské divadlo","https://www.firmy.cz/detail/2543038-porubske-divadlo-ostrava-poruba.html","2044"
"6","Kino","5D cinema Maxim","https://www.firmy.cz/detail/12950606-5d-cinema-maxim-ostrava-zabreh.html","5373"
"7","Bus MHD","Poruba, Alšovo náměstí","https://mapy.cz/zakladni?x=18.1687092665&y=49.8299572079&z=17&source=pubt&id=15201975","111"
"8","Tram","Hlavní třída","https://mapy.cz/zakladni?x=18.164324664841388&y=49.83123155886799&z=17&source=pubt&id=15201823","250"
"9","Bankomat","Bankomat Fio banky","https://www.firmy.cz/detail/12857714-bankomat-fio-banky-ostrava-poruba.html","81"
"10","Pošta","Pošta Ostrava 33 - Česká pošta, s.p.","https://www.firmy.cz/detail/433341-posta-ostrava-33-ostrava-poruba.html","200"
"11","Lékárna","BENU Lékárna","https://www.firmy.cz/detail/13292553-benu-lekarna-ostrava-poruba.html","144"
"12","Obchod","REKTOR, s.r.o.","https://www.firmy.cz/detail/12978812-rektor-ostrava-poruba.html","963"
"13","Škola","Speciální škola Diakonie ČCE Ostrava","https://www.firmy.cz/detail/13141417-specialni-skola-diakonie-cce-ostrava-ostrava-poruba.html","342"
"14","Lékař","Ambulance Věžičky","https://www.firmy.cz/detail/12805989-ambulance-vezicky-ostrava-poruba.html","476"
"15","Školka","MŠ, Ostrava-Poruba, Dvorní","https://www.firmy.cz/detail/2619238-ms-ostrava-poruba-dvorni-ostrava-poruba.html","167"
"16","Sportoviště","Sportovní a rekreační zařízení města Ostravy","https://www.firmy.cz/detail/423310-sportovni-a-rekreacni-zarizeni-mesta-ostravy-ostrava-poruba.html","555"
"17","Restaurace","Restaurace Ellas","https://www.firmy.cz/detail/13134960-restaurace-ellas-ostrava-poruba.html","92"
"18","Vlak","Ostrava-Třebovice","https://mapy.cz/zakladni?x=18.1956703177&y=49.8420594647&z=17&source=pubt&id=15212381","2368"
