"","facility_type","facility_name","facility_iri","facility_distance"
"0","Cukrárna","La Zmrzka","https://www.firmy.cz/detail/13326421-la-zmrzka-praha-hlubocepy.html","379"
"1","Kino","AutoKino Ledárny","https://www.firmy.cz/detail/13312696-autokino-ledarny-praha.html","2975"
"2","Přírodní zajímavost","Kovářovic mez","","1845"
"3","Hřiště","Dětské hřiště Wassermannova","","109"
"4","Večerka","Večerka Voskovcova 24","https://www.firmy.cz/detail/13155585-vecerka-voskovcova-24-praha-hlubocepy.html","247"
"5","Hospoda","Club bar Korlin","https://www.firmy.cz/detail/13111066-club-bar-korlin-praha-hlubocepy.html","293"
"6","Divadlo","Divadlo Glans","https://www.firmy.cz/detail/2343652-divadlo-glans-praha-stodulky.html","2710"
"7","Veterinář","Veterinární klinika Anima, spol. s r.o.","https://www.firmy.cz/detail/2390292-veterinarni-klinika-anima-praha-hlubocepy.html","300"
"8","Bankomat","Bankomat České spořitelny","https://www.firmy.cz/detail/594882-bankomat-ceske-sporitelny-praha-hlubocepy.html","714"
"9","Pošta","Pošta Partner - Praha 500","https://www.firmy.cz/detail/13291767-posta-partner-praha-500-praha-hlubocepy.html","200"
"10","Tram","Sídliště Barrandov","","424"
"11","Školka","MŠ Barrandov","https://www.firmy.cz/detail/12817240-ms-barrandov-praha-hlubocepy.html","477"
"12","Restaurace","Pizzerie Kaskáda","https://www.firmy.cz/detail/494339-pizzerie-kaskada-praha-hlubocepy.html","170"
"13","Škola","Soukromá základní umělecká škola Music Art, v.o.s.","https://www.firmy.cz/detail/2215750-soukroma-zakladni-umelecka-skola-music-art-praha-hlubocepy.html","145"
"14","Sportoviště","Tenisová hala Barrandov","https://www.firmy.cz/detail/13068559-tenisova-hala-barrandov-praha-hlubocepy.html","219"
"15","Bus MHD","Pražská čtvrť","","22"
"16","Lékař","MUDr. Irena Remešová","https://www.firmy.cz/detail/387613-mudr-irena-remesova-praha-hlubocepy.html","854"
"17","Lékárna","MEDICIPHARM s.r.o.","https://www.firmy.cz/detail/13289207-medicipharm-s-r-o-praha-hlubocepy.html","262"
"18","Vlak","Praha-Holyně","","1408"
"19","Obchod","Albert Hypermarket","https://www.firmy.cz/detail/186474-albert-hypermarket-praha-jinonice.html","2278"
"20","Metro","Nové Butovice","","2735"
