"","facility_type","facility_name","facility_iri","facility_distance"
"0","Cukrárna","Cukrárna Hájek&Hájková","https://www.firmy.cz/detail/13339931-cukrarna-hajek-hajkova-praha-krc.html","211"
"1","Kino","Cinema City Chodov","https://www.firmy.cz/detail/13098016-cinema-city-chodov-praha-chodov.html","2706"
"2","Hřiště","Dětské hřiště Murgašova","","148"
"3","Večerka","Lidl","https://www.firmy.cz/detail/1899463-lidl-praha-krc.html","371"
"4","Hospoda","Pivnice Pipkin","https://www.firmy.cz/detail/12854179-pivnice-pipkin-praha-krc.html","426"
"5","Divadlo","Loutkové divadlo Zvoneček","https://www.firmy.cz/detail/397112-loutkove-divadlo-zvonecek-praha-lhotka.html","1542"
"6","Veterinář","Vetix - veterinární ordinace Krč","https://www.firmy.cz/detail/13332976-vetix-veterinarni-ordinace-krc-praha-krc.html","123"
"7","Restaurace","Pitaya restaurant","https://www.firmy.cz/detail/12958771-pitaya-restaurant-praha-krc.html","204"
"8","Lékař","MUDr. Anna Uglajová","https://www.firmy.cz/detail/389574-mudr-anna-uglajova-praha-krc.html","123"
"9","Škola","PORG - gymnázium a ZŠ, o.p.s.","https://www.firmy.cz/detail/2200753-porg-gymnazium-a-zs-praha-krc.html","291"
"10","Sportoviště","DOMYNO1, s.r.o.","https://www.firmy.cz/detail/12797383-domyno1-praha-lhotka.html","709"
"11","Vlak","Praha-Krč","","1401"
"12","Obchod","Tesco","https://www.firmy.cz/detail/733907-tesco-praha-branik.html","1584"
"13","Školka","Dětské integrační centrum a mateřská škola, s.r.o.","https://www.firmy.cz/detail/464608-detske-integracni-centrum-a-materska-skola-praha-krc.html","143"
"14","Lékárna","Lékárna Tajovského","https://www.firmy.cz/detail/376471-lekarna-tajovskeho-praha-krc.html","123"
"15","Bankomat","Bankomat ČSOB","https://www.firmy.cz/detail/2409974-bankomat-csob-praha-lhotka.html","522"
"16","Bus MHD","Sídliště Krč","","216"
"17","Pošta","Pošta Praha 411 - Česká pošta, s.p.","https://www.firmy.cz/detail/217478-posta-praha-411-praha-lhotka.html","506"
"18","Tram","Levského","","2366"
"19","Metro","Kačerov","","2157"
