"","facility_type","facility_name","facility_iri","facility_distance"
"0","Hřiště","Dětské hřiště","https://mapy.cz/zakladni?x=14.331398740412167&y=50.04914451148403&z=17&source=base&id=2320413","325"
"1","Večerka","Lidl","https://www.firmy.cz/detail/2374451-lidl-praha-stodulky.html","261"
"2","Veterinář","Veterinární klinika Na Hůrce","https://www.firmy.cz/detail/473619-veterinarni-klinika-na-hurce-praha-stodulky.html","647"
"3","Hospoda","Bernard Pub U Jezera","https://www.firmy.cz/detail/13020276-bernard-pub-u-jezera-praha-stodulky.html","633"
"4","Cukrárna","Helen ́s coffee, s.r.o.","https://www.firmy.cz/detail/13196122-helen-s-coffee-praha-stodulky.html","70"
"5","Kino","Cinema City Zličín","https://www.firmy.cz/detail/436222-cinema-city-zlicin-praha-trebonice.html","2994"
"6","Divadlo","MEZINÁRODNÍ CENTRUM TANCE","https://www.firmy.cz/detail/2465676-mezinarodni-centrum-tance-praha-stodulky.html","840"
"7","Přírodní zajímavost","Kovářovic mez","https://mapy.cz/zakladni?x=14.36107759920759&y=50.04395254566995&z=17&source=base&id=2339664","2416"
"8","Školka","Mateřská škola MOTÝLEK, Praha 13, Vlasákova 955","https://www.firmy.cz/detail/407276-materska-skola-motylek-praha-13-vlasakova-955-praha-stodulky.html","162"
"9","Škola","EKONOMA - soukromá obchodní akademie, s.r.o.","https://www.firmy.cz/detail/362660-ekonoma-soukroma-obchodni-akademie-praha-stodulky.html","284"
"10","Metro","Lužiny","https://mapy.cz/zakladni?x=14.3315259748&y=50.0446554396&z=17&source=pubt&id=15200252","808"
"11","Bus MHD","Nová kolonie","https://mapy.cz/zakladni?x=14.32893880676085&y=50.050656429573834&z=17&source=pubt&id=15305440","135"
"12","Bankomat","Bankomat ČSOB","https://www.firmy.cz/detail/599632-bankomat-csob-praha-stodulky.html","444"
"13","Pošta","Pošta Praha 58 - Česká pošta, s.p.","https://www.firmy.cz/detail/216735-posta-praha-58-praha-stodulky.html","839"
"14","Restaurace","Pizza Comeback","https://www.firmy.cz/detail/13308963-pizza-comeback-praha-stodulky.html","188"
"15","Obchod","Kaufland","https://www.firmy.cz/detail/1356298-kaufland-praha-stodulky.html","446"
"16","Vlak","Praha-Stodůlky","https://mapy.cz/zakladni?x=14.346050021&y=50.0622114168&z=17&source=pubt&id=15212581","1652"
"17","Lékař","MUDr. Jana Hrdinová","https://www.firmy.cz/detail/2504049-mudr-jana-hrdinova-praha-stodulky.html","573"
"18","Lékárna","Dr.Max LÉKÁRNA","https://www.firmy.cz/detail/2007131-dr-max-lekarna-praha-stodulky.html","474"
"19","Tram","Krematorium Motol","https://mapy.cz/zakladni?x=14.3257232158&y=50.0659389577&z=17&source=pubt&id=15303786","1595"
"20","Sportoviště","Tenis centrum Stodůlky","https://www.firmy.cz/detail/308215-tenis-centrum-stodulky-praha-stodulky.html","187"
