"","facility_type","facility_name","facility_iri","facility_distance"
"0","Cukrárna","Kavárna Kaaba","https://www.firmy.cz/detail/594970-kavarna-kaaba-praha-vinohrady.html","240"
"1","Kino","HopeTV","https://www.firmy.cz/detail/672889-hopetv-praha-vinohrady.html","617"
"2","Hřiště","Dětské hřiště Riegrovy sady","","434"
"3","Večerka","Albert Supermarket","https://www.firmy.cz/detail/209483-albert-supermarket-praha-vinohrady.html","203"
"4","Hospoda","U Pižďucha","https://www.firmy.cz/detail/337127-u-pizducha-praha-zizkov.html","1014"
"5","Divadlo","Divadlo U Hasičů","https://www.firmy.cz/detail/396890-divadlo-u-hasicu-praha-vinohrady.html","140"
"6","Veterinář","Veterinární ambulance Help","https://www.firmy.cz/detail/178079-veterinarni-ambulance-help-praha-vinohrady.html","274"
"7","Bankomat","Bankomat ČSOB","https://www.firmy.cz/detail/599568-bankomat-csob-praha-vinohrady.html","239"
"8","Tram","Vinohradská tržnice","","105"
"9","Restaurace","CELEBRITY CAFE","https://www.firmy.cz/detail/2389207-celebrity-cafe-praha-vinohrady.html","41"
"10","Lékař","MUDr. Zuzana Kobesová","https://www.firmy.cz/detail/382939-mudr-zuzana-kobesova-praha-vinohrady.html","90"
"11","Bus MHD","Na Smetance","","309"
"12","Sportoviště","Tenisová škola Vinohrady – Jiří Brázda","https://www.firmy.cz/detail/433988-tenisova-skola-vinohrady-jiri-brazda-praha-vinohrady.html","168"
"13","Pošta","Pošta Praha 24 - Česká pošta, s.p.","https://www.firmy.cz/detail/431217-posta-praha-24-praha-vinohrady.html","380"
"14","Školka","MŠ Praha 2, Šumavská","https://www.firmy.cz/detail/646153-ms-praha-2-sumavska-praha-vinohrady.html","287"
"15","Lékárna","U svaté Ludmily","https://www.firmy.cz/detail/374313-u-svate-ludmily-praha-vinohrady.html","488"
"16","Obchod","PAVILON, a.s.","https://www.firmy.cz/detail/451685-pavilon-praha-vinohrady.html","186"
"17","Metro","Náměstí Míru","","277"
"18","Škola","Střední škola ekonomická se sportovním zaměřením, s.r.o.","https://www.firmy.cz/detail/361492-stredni-skola-ekonomicka-se-sportovnim-zamerenim-praha-vinohrady.html","82"
"19","Vlak","Praha hlavní nádraží","","643"
