"","facility_type","facility_name","facility_iri","facility_distance"
"0","Cukrárna","Kavárna Creperie","https://www.firmy.cz/detail/563710-kavarna-creperie-praha-smichov.html","1172"
"1","Kino","CineStar Anděl","https://www.firmy.cz/detail/2537565-cinestar-andel-praha-smichov.html","1122"
"2","Přírodní zajímavost","Kovářovic mez","","3556"
"3","Hřiště","Dětské hřiště Husovy sady","","293"
"4","Večerka","Tuyen Le Thi - OVOCE ZELENINA","https://www.firmy.cz/detail/2464821-tuyen-le-thi-ovoce-zelenina-praha-kosire.html","230"
"5","Divadlo","Divadlo Orfeus","https://www.firmy.cz/detail/413053-divadlo-orfeus-praha-kosire.html","234"
"6","Hospoda","Hospůdka Knoflík","https://www.firmy.cz/detail/2253647-hospudka-knoflik-praha-smichov.html","1359"
"7","Veterinář","MVDr. Jana Lukešová","https://www.firmy.cz/detail/473617-mvdr-jana-lukesova-praha-smichov.html","1109"
"8","Bus MHD","U Zvonu","","105"
"9","Tram","U Zvonu","","113"
"10","Bankomat","Bankomat České spořitelny","https://www.firmy.cz/detail/594929-bankomat-ceske-sporitelny-praha-brevnov.html","957"
"11","Lékárna","Na Cihlářce","https://www.firmy.cz/detail/375354-na-cihlarce-praha-smichov.html","564"
"12","Škola","ZUŠ Popelka","https://www.firmy.cz/detail/399054-zus-popelka-praha-kosire.html","185"
"13","Lékař","Clinuvel s.r.o. MUDr. Zuzana Jírovcová","https://www.firmy.cz/detail/2410389-clinuvel-s-r-o-mudr-zuzana-jirovcova-praha-smichov.html","315"
"14","Školka","Montessori školy Andílek - mateřská škola a základní škola, o.p.s.","https://www.firmy.cz/detail/2373070-montessori-skoly-andilek-materska-skola-a-zakladni-skola-o-p-s-praha-kosire.html","301"
"15","Obchod","Tesco","https://www.firmy.cz/detail/733908-tesco-praha-smichov.html","1161"
"16","Restaurace","Restaurace Pod Černým vrchem","https://www.firmy.cz/detail/333475-restaurace-pod-cernym-vrchem-praha-kosire.html","285"
"17","Pošta","Pošta Praha 56 - Česká pošta, s.p.","https://www.firmy.cz/detail/452790-posta-praha-56-praha-kosire.html","753"
"18","Metro","Anděl","","1309"
"19","Vlak","Praha-Smíchov severní nást.","","1740"
"20","Sportoviště","MaxLasergame, s.r.o.","https://www.firmy.cz/detail/12740237-maxlasergame-praha-smichov.html","462"
