"","facility_type","facility_name","facility_iri","facility_distance"
"0","Cukrárna","FoxCoffee","https://www.firmy.cz/detail/13139048-foxcoffee-opava-mesto.html","224"
"1","Kino","Kino Mír","https://www.firmy.cz/detail/2297240-kino-mir-opava-mesto.html","285"
"2","Přírodní zajímavost","Bludný balvan","","333"
"3","Hřiště","Dětské hřiště Popská","","329"
"4","Večerka","TEMPO, obchodní družstvo","https://www.firmy.cz/detail/752246-tempo-obchodni-druzstvo-opava-mesto.html","228"
"5","Divadlo","Slezské divadlo Opava","https://www.firmy.cz/detail/230941-slezske-divadlo-opava-opava-mesto.html","271"
"6","Hospoda","Pivnice U Dvou dobráků","https://www.firmy.cz/detail/13289467-pivnice-u-dvou-dobraku-opava-mesto.html","67"
"7","Veterinář","MVDr. Lenka Bořecká","https://www.firmy.cz/detail/2660210-mvdr-lenka-borecka-opava-mesto.html","214"
"8","Restaurace","Jídelna Na Dolňáku","https://www.firmy.cz/detail/2483213-jidelna-na-dolnaku-opava-mesto.html","17"
"9","Školka","MŠ křesťanská Opava","https://www.firmy.cz/detail/623318-ms-krestanska-opava-opava-mesto.html","148"
"10","Bankomat","Bankomat Euronet","https://www.firmy.cz/detail/13055613-bankomat-euronet-opava-mesto.html","139"
"11","Vlak","Opava východ","","573"
"12","Lékař","MUDr. Andrea Gjonličová","https://www.firmy.cz/detail/1941932-mudr-andrea-gjonlicova-opava-predmesti.html","285"
"13","Bus MHD","Opava, Dolní náměstí","","13"
"14","Škola","ZUŠ Opava - výtvarný obor","https://www.firmy.cz/detail/427778-zus-opava-vytvarny-obor-opava-mesto.html","187"
"15","Lékárna","Dr.Max LÉKÁRNA","https://www.firmy.cz/detail/13270216-dr-max-lekarna-opava-mesto.html","170"
"16","Sportoviště","Orel jednota Opava","https://www.firmy.cz/detail/1962759-orel-jednota-opava-opava-mesto.html","264"
"17","Obchod","OC Breda & Weinstein","https://www.firmy.cz/detail/12735258-oc-breda-weinstein-opava-mesto.html","431"
"18","Pošta","Pošta Opava 5 - Česká pošta, s.p.","https://www.firmy.cz/detail/432560-posta-opava-5-opava-katerinky.html","405"
