"","facility_type","facility_name","facility_iri","facility_distance"
"0","Cukrárna","Café Bar Twins","https://www.firmy.cz/detail/13295335-cafe-bar-twins-karvina-hranice.html","1228"
"1","Kino","Kino Ex","https://www.firmy.cz/detail/396409-kino-ex-karvina-nove-mesto.html","541"
"2","Hřiště","Dětské hřiště U Bažantnice","","302"
"3","Večerka","Potraviny Levňáček","https://www.firmy.cz/detail/13304149-potraviny-levnacek-karvina-nove-mesto.html","76"
"4","Hospoda","Hospůdka U Binga","https://www.firmy.cz/detail/13113548-hospudka-u-binga-karvina-nove-mesto.html","161"
"5","Veterinář","Veterinární ordinace TRIAS","https://www.firmy.cz/detail/2331003-veterinarni-ordinace-trias-karvina-nove-mesto.html","1117"
"6","Obchod","Albert Hypermarket","https://www.firmy.cz/detail/449318-albert-hypermarket-karvina-frystat.html","1202"
"7","Bankomat","Bankomat České spořitelny","https://www.firmy.cz/detail/592981-bankomat-ceske-sporitelny-karvina-nove-mesto.html","141"
"8","Restaurace","Kahanec","https://www.firmy.cz/detail/565921-kahanec-karvina-nove-mesto.html","84"
"9","Pošta","Pošta Karviná 6 - Česká pošta, s.p.","https://www.firmy.cz/detail/431463-posta-karvina-6-karvina-nove-mesto.html","143"
"10","Vlak","Karviná hlavní nádraží","","1474"
"11","Bus MHD","Karviná, Nové Město, úřad práce","","39"
"12","Školka","Základní škola a Mateřská škola Dělnická - U Vilíka","https://www.firmy.cz/detail/12854839-zakladni-skola-a-materska-skola-delnicka-u-vilika-karvina-nove-mesto.html","281"
"13","Lékař","MUDr. Ludmila Tesařová","https://www.firmy.cz/detail/390358-mudr-ludmila-tesarova-karvina-nove-mesto.html","163"
"14","Sportoviště","STaRS Karviná, s.r.o.","https://www.firmy.cz/detail/721386-stars-karvina-karvina-nove-mesto.html","521"
"15","Škola","Střední škola techniky a služeb Karviná","https://www.firmy.cz/detail/254665-stredni-skola-techniky-a-sluzeb-karvina-karvina-nove-mesto.html","98"
"16","Lékárna","Lékárna U sv. Františka","https://www.firmy.cz/detail/375442-lekarna-u-sv-frantiska-karvina-nove-mesto.html","102"
