"","facility_type","facility_name","facility_iri","facility_distance"
"0","Cukrárna","Amadeus Cafe","https://www.firmy.cz/detail/12793724-amadeus-cafe-ostrava-marianske-hory.html","359"
"1","Kino","CineStar Ostrava","https://www.firmy.cz/detail/661182-cinestar-ostrava-ostrava-moravska-ostrava.html","795"
"2","Přírodní zajímavost","Zábřežský bludný balvan","","2979"
"3","Hřiště","Dětské hřiště Marie Pujmanové","","110"
"4","Večerka","HRUŠKA","https://www.firmy.cz/detail/12819643-hruska-ostrava-marianske-hory.html","324"
"5","Hospoda","U červeného trpaslíka","https://www.firmy.cz/detail/2297655-u-cerveneho-trpaslika-ostrava-marianske-hory.html","98"
"6","Divadlo","Loutkový svět","https://www.firmy.cz/detail/13033024-loutkovy-svet-ostrava-moravska-ostrava.html","1065"
"7","Veterinář","Veterinární klinika MVDr. Vítězslav Raška a kolektiv","https://www.firmy.cz/detail/451459-veterinarni-klinika-mvdr-vitezslav-raska-a-kolektiv-ostrava-marianske-hory.html","446"
"8","Lékárna","Lékárna Salvia","https://www.firmy.cz/detail/12944856-lekarna-salvia-ostrava-marianske-hory.html","208"
"9","Tram","Mariánské náměstí","","381"
"10","Škola","ZUŠ Eduarda Marhuly, Ostrava","https://www.firmy.cz/detail/430181-zus-eduarda-marhuly-ostrava-ostrava-marianske-hory.html","33"
"11","Bankomat","Bankomat Komerční banky","https://www.firmy.cz/detail/594290-bankomat-komercni-banky-ostrava-marianske-hory.html","364"
"12","Pošta","Pošta Ostrava 9 - Česká pošta, s.p.","https://www.firmy.cz/detail/13014108-posta-ostrava-9-ostrava-marianske-hory.html","312"
"13","Vlak","Ostrava-Mariánské Hory","","1314"
"14","Školka","Mateřská škola U Dvoru","https://www.firmy.cz/detail/2287511-materska-skola-u-dvoru-ostrava-marianske-hory.html","275"
"15","Sportoviště","Tělocvičná jednota Sokol Mariánské Hory","https://www.firmy.cz/detail/759403-telocvicna-jednota-sokol-marianske-hory-ostrava-marianske-hory.html","213"
"16","Lékař","MUDr. PUSTKOVÁ praktický lékař, s.r.o.","https://www.firmy.cz/detail/12864400-mudr-pustkova-prakticky-lekar-ostrava-marianske-hory.html","197"
"17","Bus MHD","Korunní","","183"
"18","Restaurace","Sushikko","https://www.firmy.cz/detail/12919852-sushikko-ostrava-marianske-hory.html","60"
"19","Obchod","OC FUTURUM Ostrava","https://www.firmy.cz/detail/2454785-oc-futurum-ostrava-ostrava-moravska-ostrava.html","646"
