"","facility_type","facility_name","facility_iri","facility_distance"
"0","Cukrárna","Lahůdky a cukrárna Beruška","https://www.firmy.cz/detail/327153-lahudky-a-cukrarna-beruska-plzen-vychodni-predmesti.html","413"
"1","Hřiště","Dětské hřiště Chvojkovy lomy","","216"
"2","Kino","Kino Beseda","https://www.firmy.cz/detail/12773769-kino-beseda-plzen-jizni-predmesti.html","2082"
"3","Večerka","Můj obchod - Potraviny Částkova","https://www.firmy.cz/detail/13262875-muj-obchod-potraviny-castkova-plzen-vychodni-predmesti.html","179"
"4","Hospoda","Pivnice Sladovnická","https://www.firmy.cz/detail/2603445-pivnice-sladovnicka-plzen-lobzy.html","570"
"5","Divadlo","Divadlo Alfa","https://www.firmy.cz/detail/231293-divadlo-alfa-plzen-lobzy.html","1370"
"6","Veterinář","Veterinární ordinace Slovany","https://www.firmy.cz/detail/470912-veterinarni-ordinace-slovany-plzen-vychodni-predmesti.html","586"
"7","Bus MHD","Částkova","","150"
"8","Škola","Základní škola Easy Start, s.r.o.","https://www.firmy.cz/detail/2588754-zakladni-skola-easy-start-plzen-lobzy.html","344"
"9","Školka","80. MŠ Plzeň, Úslavská","https://www.firmy.cz/detail/12922511-80-ms-plzen-uslavska-plzen-vychodni-predmesti.html","225"
"10","Lékárna","Lékárna Zelená hvězda","https://www.firmy.cz/detail/2157645-lekarna-zelena-hvezda-plzen-vychodni-predmesti.html","462"
"11","Restaurace","Restaurant Lidový dům","https://www.firmy.cz/detail/13250906-restaurant-lidovy-dum-plzen-lobzy.html","161"
"12","Sportoviště","Velodrom Plzeň","","133"
"13","Lékař","MUDr. Ludmila Beranová","https://www.firmy.cz/detail/395381-mudr-ludmila-beranova-plzen-vychodni-predmesti.html","364"
"14","Obchod","Galerie Slovany, s.r.o.","https://www.firmy.cz/detail/2301407-galerie-slovany-plzen-vychodni-predmesti.html","475"
"15","Tram","Nám. Generála Píky","","376"
"16","Bankomat","Bankomat České spořitelny","https://www.firmy.cz/detail/12737502-bankomat-ceske-sporitelny-plzen-vychodni-predmesti.html","465"
"17","Vlak","Plzeň hlavní nádraží","","1323"
"18","Pošta","Pošta Plzeň 8 - Česká pošta, s.p.","https://www.firmy.cz/detail/216660-posta-plzen-8-plzen-vychodni-predmesti.html","514"
