"","facility_type","facility_name","facility_iri","facility_distance"
"0","Cukrárna","Cukrárna Větrník - Řečkovice","https://www.firmy.cz/detail/574559-cukrarna-vetrnik-reckovice-brno-reckovice.html","841"
"1","Kino","Kino Lucerna","https://www.firmy.cz/detail/638240-kino-lucerna-brno-zabovresky.html","4329"
"2","Přírodní zajímavost","Přírodní zahrada U Smrku","","2528"
"3","Hřiště","Dětské hřiště Renčova","","240"
"4","Večerka","BILLA","https://www.firmy.cz/detail/690082-billa-brno-reckovice.html","708"
"5","Hospoda","Hospůdka u Hřiště","https://www.firmy.cz/detail/13116651-hospudka-u-hriste-brno-medlanky.html","1072"
"6","Divadlo","Divadlo Špílberg","https://www.firmy.cz/detail/13227128-divadlo-spilberg-brno-reckovice.html","867"
"7","Veterinář","Veterinární ordinace Řečkovice","https://www.firmy.cz/detail/13327057-veterinarni-ordinace-reckovice-brno-reckovice.html","470"
"8","Obchod","Globus Hypermarket","https://www.firmy.cz/detail/448361-globus-hypermarket-brno-ivanovice.html","1575"
"9","Restaurace","Restaurace & Pizzerie U Schwarzů","https://www.firmy.cz/detail/2604553-restaurace-pizzerie-u-schwarzu-brno-reckovice.html","190"
"10","Škola","Základní škola Letokruh","https://www.firmy.cz/detail/13030738-zakladni-skola-letokruh-brno-reckovice.html","327"
"11","Tram","Řečkovice","","510"
"12","Bankomat","Bankomat MONETA Money Bank","https://www.firmy.cz/detail/2398245-bankomat-moneta-money-bank-brno-reckovice.html","662"
"13","Sportoviště","Orel jednota Brno - Řečkovice","https://www.firmy.cz/detail/1962323-orel-jednota-brno-reckovice-brno-reckovice.html","448"
"14","Lékař","MUDr. Dagmar Mrázková","https://www.firmy.cz/detail/390446-mudr-dagmar-mrazkova-brno-reckovice.html","639"
"15","Bus MHD","Renčova","","253"
"16","Lékárna","BENU Lékárna","https://www.firmy.cz/detail/13218521-benu-lekarna-brno-reckovice.html","570"
"17","Pošta","Pošta Brno 21 - Česká pošta, s.p.","https://www.firmy.cz/detail/1534314-posta-brno-21-brno-reckovice.html","765"
"18","Školka","MŠ Brno, Škrétova","https://www.firmy.cz/detail/1446942-ms-brno-skretova-brno-reckovice.html","326"
"19","Vlak","Brno-Řečkovice","","1365"
