"","facility_type","facility_name","facility_iri","facility_distance"
"0","Hřiště","Dětské hřiště Brandlova","https://mapy.cz/zakladni?x=16.1647541667&y=49.9532986667&z=17&source=base&id=2066299","171"
"1","Večerka","Potraviny Jiří Smékal","https://www.firmy.cz/detail/282653-potraviny-jiri-smekal-vysoke-myto-mesto.html","151"
"2","Cukrárna","Hejhalova cukrárna","https://www.firmy.cz/detail/462668-hejhalova-cukrarna-vysoke-myto-mesto.html","210"
"3","Divadlo","Divadlo Di","https://www.firmy.cz/detail/13279747-divadlo-di-vysoke-myto-mesto.html","323"
"4","Hospoda","Hospůdka Na Hradbách","https://www.firmy.cz/detail/13118108-hospudka-na-hradbach-vysoke-myto-mesto.html","112"
"5","Veterinář","Veterinární ordinace Kulhánek","https://www.firmy.cz/detail/13089910-veterinarni-ordinace-kulhanek-vysoke-myto-chocenske-predmesti.html","289"
"6","Škola","ZŠ Vysoké Mýto, Javornického","https://www.firmy.cz/detail/304871-zs-vysoke-myto-javornickeho-vysoke-myto-litomyslske-predmesti.html","212"
"7","Školka","MŠ Kamarádi, Vysoké Mýto","https://www.firmy.cz/detail/1969256-ms-kamaradi-vysoke-myto-vysoke-myto-litomyslske-predmesti.html","213"
"8","Sportoviště","SH Domova mládeže Vysoké Mýto","https://www.firmy.cz/detail/13042939-sh-domova-mladeze-vysoke-myto-vysoke-myto-litomyslske-predmesti.html","292"
"9","Lékárna","Lékárna LEMON","https://www.firmy.cz/detail/13343145-lekarna-lemon-vysoke-myto-mesto.html","229"
"10","Restaurace","Restaurace Stejk Bejk","https://www.firmy.cz/detail/13106618-restaurace-stejk-bejk-vysoke-myto-mesto.html","98"
"11","Bankomat","Bankomat Komerční banky","https://www.firmy.cz/detail/594599-bankomat-komercni-banky-vysoke-myto-mesto.html","111"
"12","Pošta","Pošta Vysoké Mýto - Česká pošta, s.p.","https://www.firmy.cz/detail/432779-posta-vysoke-myto-vysoke-myto-mesto.html","112"
"13","Bus MHD","Vysoké Mýto, Karosa","https://mapy.cz/zakladni?x=16.1616082203445&y=49.9556614565274&z=17&source=pubt&id=15319929","359"
"14","Vlak","Vysoké Mýto město","https://mapy.cz/zakladni?x=16.1557188017&y=49.9505212779&z=17&source=pubt&id=15213320","546"
"15","Lékař","MUDr. Helena Tišlerová","https://www.firmy.cz/detail/390694-mudr-helena-tislerova-vysoke-myto-mesto.html","229"
"16","Obchod","Tesco","https://www.firmy.cz/detail/12742010-tesco-vysoke-myto-litomyslske-predmesti.html","1043"
