"","facility_type","facility_name","facility_iri","facility_distance"
"0","Cukrárna","Lastura s.r.o., s.r.o.","https://www.firmy.cz/detail/13153801-lastura-s-r-o-prestice.html","341"
"1","Hřiště","Dětské hřiště Slovenská","","57"
"2","Večerka","Enapo","https://www.firmy.cz/detail/2564853-enapo-prestice.html","235"
"3","Hospoda","Klub U Dědy","https://www.firmy.cz/detail/2203122-klub-u-dedy-prestice.html","505"
"4","Veterinář","Veterinární ordinace MVDr. Václav Kasl a MVDr. Ingrid Kaslová","https://www.firmy.cz/detail/2118873-veterinarni-ordinace-mvdr-vaclav-kasl-a-mvdr-ingrid-kaslova-prestice.html","453"
"5","Škola","Základní umělecká škola Přeštice, okres Plzeň-jih","https://www.firmy.cz/detail/304425-zakladni-umelecka-skola-prestice-okres-plzen-jih-prestice.html","260"
"6","Vlak","Přeštice","","420"
"7","Bus MHD","Přeštice, nám.","","285"
"8","Pošta","Pošta Přeštice - Česká pošta, s.p.","https://www.firmy.cz/detail/216606-posta-prestice-prestice.html","384"
"9","Školka","MŠ Přeštice, Dukelská","https://www.firmy.cz/detail/2380177-ms-prestice-dukelska-prestice.html","322"
"10","Lékárna","Lékárna Devětsil Přeštice","https://www.firmy.cz/detail/13087601-lekarna-devetsil-prestice-prestice.html","205"
"11","Bankomat","Bankomat České spořitelny","https://www.firmy.cz/detail/595038-bankomat-ceske-sporitelny-prestice.html","286"
"12","Sportoviště","Tělovýchovná jednota Přeštice","https://www.firmy.cz/detail/176363-telovychovna-jednota-prestice-prestice.html","184"
"13","Restaurace","Přeštická svině","https://www.firmy.cz/detail/13119748-presticka-svine-prestice.html","184"
"14","Lékař","MUDr. Karel Naxera","https://www.firmy.cz/detail/391171-mudr-karel-naxera-prestice.html","236"
