"","facility_type","facility_name","facility_iri","facility_distance"
"0","Cukrárna","Cukrárna - kavárna U Zlaté konvice Kadaň","https://www.firmy.cz/detail/12815599-cukrarna-kavarna-u-zlate-konvice-kadan-kadan.html","4135"
"1","Kino","Kino Hvězda","https://www.firmy.cz/detail/2344098-kino-hvezda-kadan.html","4243"
"2","Hřiště","Dětské hřiště Javorová","","3221"
"3","Večerka","Eso Market","https://www.firmy.cz/detail/13247233-eso-market-kadan.html","3557"
"4","Hospoda","Hospůdka","https://www.firmy.cz/detail/13119510-hospudka-rokle-hradec.html","2187"
"5","Veterinář","MVDr. Michaela Čuprová","https://www.firmy.cz/detail/12935192-mvdr-michaela-cuprova-kadan.html","4085"
"6","Bankomat","Bankomat České spořitelny - Česká spořitelna, a.s.","https://www.firmy.cz/detail/13238728-bankomat-ceske-sporitelny-kadan.html","3864"
"7","Školka","Mateřská škola Klásek","https://www.firmy.cz/detail/1996124-materska-skola-klasek-kadan.html","3559"
"8","Lékárna","Dr. Max","https://www.firmy.cz/detail/13297497-dr-max-kadan.html","3864"
"9","Bus MHD","Kadaň, Tušimice, Sempra","","375"
"10","Lékař","Ambulance praktického lékaře - Nemocnice Kadaň","https://www.firmy.cz/detail/2648878-ambulance-praktickeho-lekare-nemocnice-kadan-kadan-tusimice.html","1208"
"11","Sportoviště","Discgolf Kadaň","","3715"
"12","Vlak","Hradec u Kadaně","","2362"
"13","Škola","Střední škola technická, gastronomická a automobilní, Kadaň","https://www.firmy.cz/detail/12868789-stredni-skola-technicka-gastronomicka-a-automobilni-kadan-kadan.html","3939"
"14","Pošta","Pošta Kadaň 2 - Česká pošta, s.p.","https://www.firmy.cz/detail/215308-posta-kadan-2-kadan.html","4136"
"15","Restaurace","Auto Kemp U LESA - restaurace","https://www.firmy.cz/detail/13123428-auto-kemp-u-lesa-restaurace-rokle-hradec.html","1547"
"16","Obchod","Kaufland","https://www.firmy.cz/detail/1452573-kaufland-kadan.html","3864"
