"","facility_type","facility_name","facility_iri","facility_distance"
"0","Cukrárna","Cukrárna Géčko","https://www.firmy.cz/detail/13269101-cukrarna-gecko-tabor.html","455"
"1","Kino","Kino Svět","https://www.firmy.cz/detail/211137-kino-svet-tabor.html","1535"
"2","Hřiště","Dětské hřiště Buzulucká","","67"
"3","Večerka","BILLA","https://www.firmy.cz/detail/1549312-billa-tabor.html","279"
"4","Hospoda","U Nousků","https://www.firmy.cz/detail/13116841-u-nousku-tabor-klokoty.html","510"
"5","Divadlo","Divadlo Oskara Nedbala Tábor","https://www.firmy.cz/detail/406554-divadlo-oskara-nedbala-tabor-tabor.html","1411"
"6","Veterinář","Karakal Veterinární klinika","https://www.firmy.cz/detail/471372-karakal-veterinarni-klinika-tabor.html","301"
"7","Lékař","Medicína Tábor, s.r.o.","https://www.firmy.cz/detail/13177392-medicina-tabor-tabor.html","272"
"8","Sportoviště","František Ševčík","https://www.firmy.cz/detail/593574-frantisek-sevcik-tabor.html","364"
"9","Bus MHD","Tábor, Petrohradská","","204"
"10","Školka","MŠ Tábor, Kpt. Nálepky","https://www.firmy.cz/detail/2151101-ms-tabor-kpt-nalepky-tabor.html","164"
"11","Obchod","Karel Dvořák - obchodní dům","https://www.firmy.cz/detail/1897212-karel-dvorak-obchodni-dum-tabor.html","1985"
"12","Škola","Střední odborná škola a střední odborné učiliště HEUREKA, s.r.o.","https://www.firmy.cz/detail/204329-stredni-odborna-skola-a-stredni-odborne-uciliste-heureka-tabor.html","154"
"13","Pošta","Pošta Tábor 3 - Česká pošta, s.p.","https://www.firmy.cz/detail/216907-posta-tabor-3-tabor.html","284"
"14","Vlak","Tábor","","2276"
"15","Lékárna","LÉKÁRNA U NEMOCNICE","https://www.firmy.cz/detail/422392-lekarna-u-nemocnice-tabor.html","453"
"16","Restaurace","Pizza San Daniello","https://www.firmy.cz/detail/13121230-pizza-san-daniello-tabor.html","241"
"17","Bankomat","Bankomat ČSOB","https://www.firmy.cz/detail/597932-bankomat-csob-tabor.html","284"
