"","facility_type","facility_name","facility_iri","facility_distance"
"0","Cukrárna","Jana Nováková","https://www.firmy.cz/detail/12974731-jana-novakova-praha-brevnov.html","362"
"1","Kino","Cinema City Nový Smíchov","https://www.firmy.cz/detail/2679838-cinema-city-novy-smichov-praha-smichov.html","2918"
"2","Hřiště","Dětské hřiště Pod nemocnicí","","280"
"3","Večerka","BILLA","https://www.firmy.cz/detail/689191-billa-praha-brevnov.html","182"
"4","Hospoda","Hostinec Drinopol","https://www.firmy.cz/detail/328447-hostinec-drinopol-praha-brevnov.html","426"
"5","Divadlo","KAŠTAN - Scéna Unijazzu","https://www.firmy.cz/detail/397273-kastan-scena-unijazzu-praha-brevnov.html","426"
"6","Veterinář","MVDr. Josef Kubeček","https://www.firmy.cz/detail/275654-mvdr-josef-kubecek-praha-brevnov.html","454"
"7","Bus MHD","Břevnovská","","81"
"8","Pošta","Pošta Praha 69 - Česká pošta, s.p.","https://www.firmy.cz/detail/216722-posta-praha-69-praha-brevnov.html","180"
"9","Tram","U Kaštanu","","279"
"10","Vlak","Praha-Veleslavín","","1761"
"11","Škola","ZUŠ Jana Hanuše, Praha 6","https://www.firmy.cz/detail/427119-zus-jana-hanuse-praha-6-praha-brevnov.html","91"
"12","Bankomat","Bankomat České spořitelny","https://www.firmy.cz/detail/594917-bankomat-ceske-sporitelny-praha-brevnov.html","156"
"13","Sportoviště","TJ Břevnov","https://www.firmy.cz/detail/222250-tj-brevnov-praha-brevnov.html","669"
"14","Obchod","Kaufland","https://www.firmy.cz/detail/221319-kaufland-praha-brevnov.html","2105"
"15","Restaurace","Restaurace U Sládků","https://www.firmy.cz/detail/12786521-restaurace-u-sladku-praha-brevnov.html","230"
"16","Lékárna","Lékárna Bělohorská","https://www.firmy.cz/detail/12721462-lekarna-belohorska-praha-brevnov.html","146"
"17","Školka","Mateřská škola Meziškolská","https://www.firmy.cz/detail/193433-materska-skola-meziskolska-praha-brevnov.html","171"
"18","Lékař","Mgr. Jitka Kozáková","https://www.firmy.cz/detail/368749-mgr-jitka-kozakova-praha-brevnov.html","85"
"19","Metro","Bořislavka","","1419"
