"","facility_type","facility_name","facility_iri","facility_distance"
"0","Cukrárna","Druhý domov","https://www.firmy.cz/detail/13024499-druhy-domov-olomouc.html","198"
"1","Kino","Letní kino Olomouc","https://www.firmy.cz/detail/13157654-letni-kino-olomouc-olomouc.html","696"
"2","Hřiště","Dětské hřiště Kaštanová","","144"
"3","Večerka","Značková prodejna Zemědělského družstva Senice na Hané","https://www.firmy.cz/detail/13257445-znackova-prodejna-zemedelskeho-druzstva-senice-na-hane-olomouc.html","130"
"4","Divadlo","Divadlo hudby","https://www.firmy.cz/detail/12933426-divadlo-hudby-olomouc.html","1041"
"5","Hospoda","Klub Hospoda Punat","https://www.firmy.cz/detail/13123967-klub-hospoda-punat-olomouc.html","15"
"6","Veterinář","Veterinární ordinace - MVDr. Vojtěch Návělek","https://www.firmy.cz/detail/268477-veterinarni-ordinace-mvdr-vojtech-navelek-olomouc.html","106"
"7","Škola","Moravská střední škola s.r.o.","https://www.firmy.cz/detail/361674-moravska-stredni-skola-s-r-o-olomouc.html","57"
"8","Bankomat","Bankomat České spořitelny","https://www.firmy.cz/detail/593739-bankomat-ceske-sporitelny-olomouc.html","216"
"9","Restaurace","BRISTOL","https://www.firmy.cz/detail/13116729-bristol-olomouc.html","266"
"10","Tram","Žižkovo nám.","","434"
"11","Školka","MŠ Olomouc, kpt. Nálepky","https://www.firmy.cz/detail/2142681-ms-olomouc-kpt-nalepky-olomouc.html","199"
"12","Vlak","Olomouc hlavní nádraží","","846"
"13","Obchod","SENIMO, a.s.","https://www.firmy.cz/detail/298877-senimo-olomouc.html","231"
"14","Pošta","Pošta Olomouc 2 - Česká pošta, s.p.","https://www.firmy.cz/detail/432281-posta-olomouc-2-olomouc-hodolany.html","685"
"15","Lékař","MUDr. Alena Kořínková","https://www.firmy.cz/detail/12936372-mudr-alena-korinkova-olomouc.html","185"
"16","Lékárna","Dr.Max LÉKÁRNA","https://www.firmy.cz/detail/2007026-dr-max-lekarna-olomouc-belidla.html","675"
"17","Bus MHD","Pasteurova","","161"
"18","Sportoviště","Tělocvičná jednota Sokol Olomouc - Hodolany","https://www.firmy.cz/detail/2135778-telocvicna-jednota-sokol-olomouc-hodolany-olomouc-hodolany.html","534"
