"","facility_type","facility_name","facility_iri","facility_distance"
"0","Cukrárna","Cukrárna Pomeranč","https://www.firmy.cz/detail/12992954-cukrarna-pomeranc-praha-motol.html","736"
"1","Kino","Kino Dlabačov","https://www.firmy.cz/detail/13024517-kino-dlabacov-praha-brevnov.html","3552"
"2","Přírodní zajímavost","Kovářovic mez","","3088"
"3","Hřiště","Dětské hřiště V Úvalu","","646"
"4","Večerka","Samoobsluha Achillea","https://www.firmy.cz/detail/12993017-samoobsluha-achillea-praha-motol.html","543"
"5","Hospoda","Pivnice Darda","https://www.firmy.cz/detail/13111765-pivnice-darda-praha-repy.html","1428"
"6","Divadlo","Divadlo Glans","https://www.firmy.cz/detail/2343652-divadlo-glans-praha-stodulky.html","2206"
"7","Veterinář","Veterinární klinika - MVDr. Jaroslava Doškářová","https://www.firmy.cz/detail/471775-veterinarni-klinika-mvdr-jaroslava-doskarova-praha-motol.html","534"
"8","Restaurace","Restaurace 19.","https://www.firmy.cz/detail/2540285-restaurace-19-praha-motol.html","412"
"9","Bankomat","Bankomat Travelex ČR","https://www.firmy.cz/detail/12879143-bankomat-travelex-cr-praha-motol.html","401"
"10","Tram","Vozovna Motol","","100"
"11","Škola","Střední průmyslová škola dopravní, a.s.","https://www.firmy.cz/detail/361724-stredni-prumyslova-skola-dopravni-a-s-praha-motol.html","156"
"12","Vlak","Praha-Stodůlky","","802"
"13","Lékař","Oddělení primární péče FN v Motole","https://www.firmy.cz/detail/12992089-oddeleni-primarni-pece-fn-v-motole-praha-motol.html","610"
"14","Pošta","Pošta Praha 58 - Česká pošta, s.p.","https://www.firmy.cz/detail/216735-posta-praha-58-praha-stodulky.html","1935"
"15","Sportoviště","Přírodní koupaliště Motol","https://www.firmy.cz/detail/13115406-prirodni-koupaliste-motol-praha.html","209"
"16","Bus MHD","Zahradníčkova","","264"
"17","Školka","MŠ U Krtečka Praha 5","https://www.firmy.cz/detail/449517-ms-u-krtecka-praha-5-praha-motol.html","632"
"18","Lékárna","Lékárna FN v Motole","https://www.firmy.cz/detail/2292556-lekarna-fn-v-motole-praha-motol.html","543"
"19","Obchod","Kaufland","https://www.firmy.cz/detail/221319-kaufland-praha-brevnov.html","1062"
"20","Metro","Nemocnice Motol","","745"
