"","facility_type","facility_name","facility_iri","facility_distance"
"0","Cukrárna","Cukrárna Jarníkova","https://www.firmy.cz/detail/13303085-cukrarna-jarnikova-praha-chodov.html","508"
"1","Kino","Cinema City Chodov","https://www.firmy.cz/detail/13098016-cinema-city-chodov-praha-chodov.html","1062"
"2","Přírodní zajímavost","Mokřad Triangl","","5002"
"3","Hřiště","Dětské hřiště Jana Růžičky","","65"
"4","Večerka","Potraviny Jana Růžičky","https://www.firmy.cz/detail/1959002-potraviny-jana-ruzicky-praha-kunratice.html","157"
"5","Hospoda","Hospůdka U Studánky","https://www.firmy.cz/detail/13112840-hospudka-u-studanky-praha-kunratice.html","828"
"6","Divadlo","SKAZKA, spol. s r.o.","https://www.firmy.cz/detail/2048564-skazka-praha-hostivar.html","3465"
"7","Veterinář","MVDr. Václav Čížek","https://www.firmy.cz/detail/2412398-mvdr-vaclav-cizek-praha-chodov.html","1936"
"8","Bankomat","Bankomat Fio banky","https://www.firmy.cz/detail/2678044-bankomat-fio-banky-praha-kunratice.html","109"
"9","Lékárna","Lékárna Flora","https://www.firmy.cz/detail/12953236-lekarna-flora-praha-kunratice.html","211"
"10","Obchod","OC Slunečnice","https://www.firmy.cz/detail/13047905-oc-slunecnice-praha-chodov.html","585"
"11","Sportoviště","Sport Centrum Chodov","https://www.firmy.cz/detail/12963700-sport-centrum-chodov-praha-kunratice.html","128"
"12","Školka","Sportovní školka Play Wisely","https://www.firmy.cz/detail/13132837-sportovni-skolka-play-wisely-praha-kunratice.html","211"
"13","Metro","Chodov","","1131"
"14","Tram","Spořilov","","3326"
"15","Lékař","ORDINACE FLORA, s.r.o.","https://www.firmy.cz/detail/2270184-ordinace-flora-praha-kunratice.html","39"
"16","Bus MHD","U Kunratického lesa","","174"
"17","Pošta","Pošta Praha 44 - Česká pošta, s.p.","https://www.firmy.cz/detail/431228-posta-praha-44-praha-kunratice.html","859"
"18","Vlak","Praha-Kačerov","","3019"
"19","Škola","ZUŠ Jižní Město, Praha 4, Jana Růžičky","https://www.firmy.cz/detail/759558-zus-jizni-mesto-praha-4-jana-ruzicky-praha-kunratice.html","78"
"20","Restaurace","AUCO Vietnamese Restaurant","https://www.firmy.cz/detail/13270052-auco-vietnamese-restaurant-praha-kunratice.html","170"
