"","facility_type","facility_name","facility_iri","facility_distance"
"0","Hřiště","Dětské hřiště U Stadionu","https://mapy.cz/zakladni?x=13.6450824956&y=50.51039173&z=17&source=base&id=1928374","304"
"1","Cukrárna","Cukrárna Mocca","https://www.firmy.cz/detail/13300588-cukrarna-mocca-most.html","249"
"2","Hospoda","Restaurace Irish Pub","https://www.firmy.cz/detail/13302390-restaurace-irish-pub-most.html","435"
"3","Večerka","BILLA","https://www.firmy.cz/detail/437708-billa-most.html","313"
"4","Divadlo","Městské divadlo v Mostě, spol. s r.o.","https://www.firmy.cz/detail/1336052-mestske-divadlo-v-moste-most.html","1262"
"5","Veterinář","VeterinaMost, s.r.o.","https://www.firmy.cz/detail/13175144-veterinamost-most.html","830"
"6","Kino","Kino Kosmos","https://www.firmy.cz/detail/401279-kino-kosmos-most.html","1771"
"7","Sportoviště","SPORTOVNÍ HALA MOST, a.s.","https://www.firmy.cz/detail/2282639-sportovni-hala-most-most.html","374"
"8","Bankomat","Bankomat ČSOB","https://www.firmy.cz/detail/597366-bankomat-csob-most.html","151"
"9","Škola","Podkrušnohorské gymnázium, Most","https://www.firmy.cz/detail/362149-podkrusnohorske-gymnazium-most-most.html","500"
"10","Bus MHD","Most, Sportovní hala","https://mapy.cz/zakladni?x=13.6419729619&y=50.511081332&z=17&source=pubt&id=15741486","240"
"11","Vlak","Most","https://mapy.cz/zakladni?x=13.658263561&y=50.5112135393&z=17&source=pubt&id=15212192","1052"
"12","Školka","MŠ Most, Antonína Dvořáka","https://www.firmy.cz/detail/2281897-ms-most-antonina-dvoraka-most.html","440"
"13","Tram","Most, Zimní stadion","https://mapy.cz/zakladni?x=13.6453726618&y=50.5132632091&z=17&source=pubt&id=15240569","127"
"14","Lékárna","Dr. Max LÉKÁRNA","https://www.firmy.cz/detail/2007246-dr-max-lekarna-most.html","317"
"15","Obchod","Kaufland","https://www.firmy.cz/detail/1452577-kaufland-most.html","249"
"16","Pošta","Pošta Most 6 - Česká pošta, s.p.","https://www.firmy.cz/detail/215390-posta-most-6-most.html","654"
"17","Restaurace","El Toro Most","https://www.firmy.cz/detail/13185370-el-toro-most-most.html","350"
"18","Lékař","MEDIFA Radka Válková s.r.o.","https://www.firmy.cz/detail/13204945-medifa-radka-valkova-s-r-o-most.html","407"
