"","facility_type","facility_name","facility_iri","facility_distance"
"0","Cukrárna","Erhartova cukrárna","https://www.firmy.cz/detail/2121271-erhartova-cukrarna-praha-holesovice.html","113"
"1","Kino","Bio Oko","https://www.firmy.cz/detail/2586117-bio-oko-praha-holesovice.html","233"
"2","Hřiště","Dětské hřiště Kaštánek","","405"
"3","Večerka","Smíšené zboží Kamenická 129","https://www.firmy.cz/detail/2219717-smisene-zbozi-kamenicka-129-praha-bubenec.html","214"
"4","Divadlo","Divadlo Alfred ve dvoře","https://www.firmy.cz/detail/396869-divadlo-alfred-ve-dvore-praha-holesovice.html","255"
"5","Hospoda","Pivnice U Pivoje","https://www.firmy.cz/detail/2231875-pivnice-u-pivoje-praha-holesovice.html","308"
"6","Veterinář","MVDr. Aleš Hlásný","https://www.firmy.cz/detail/1967608-mvdr-ales-hlasny-praha-bubenec.html","170"
"7","Bus MHD","OC Stromovka","","231"
"8","Bankomat","Bankomat Komerční banky","https://www.firmy.cz/detail/596055-bankomat-komercni-banky-praha-holesovice.html","222"
"9","Lékař","MUDr. Emil Wagner","https://www.firmy.cz/detail/648551-mudr-emil-wagner-praha-holesovice.html","165"
"10","Školka","Fakultní ZŠ PedF UK a MŠ U Studánky, Praha","https://www.firmy.cz/detail/802599-fakultni-zs-pedf-uk-a-ms-u-studanky-praha-praha-holesovice.html","245"
"11","Škola","Fakultní ZŠ PedF UK a MŠ U Studánky, Praha","https://www.firmy.cz/detail/802595-fakultni-zs-pedf-uk-a-ms-u-studanky-praha-praha-holesovice.html","250"
"12","Restaurace","Restaurace Vysmátý žabák","https://www.firmy.cz/detail/12721169-restaurace-vysmaty-zabak-praha-holesovice.html","58"
"13","Pošta","Pošta Praha 7 - Česká pošta, s.p.","https://www.firmy.cz/detail/216716-posta-praha-7-praha-holesovice.html","305"
"14","Tram","Kamenická","","145"
"15","Vlak","Praha-Bubny","","882"
"16","Lékárna","Lékárna Veletržní, s.r.o.","https://www.firmy.cz/detail/581497-lekarna-veletrzni-praha-bubenec.html","113"
"17","Obchod","Bílá labuť","https://www.firmy.cz/detail/221990-bila-labut-praha-nove-mesto.html","1247"
"18","Metro","Vltavská","","816"
"19","Sportoviště","Bowling RADAVA","https://www.firmy.cz/detail/13032274-bowling-radava-praha-holesovice.html","142"
