"","facility_type","facility_name","facility_iri","facility_distance"
"0","Cukrárna","Cukrárna Květa","https://www.firmy.cz/detail/2033539-cukrarna-kveta-zatec.html","2692"
"1","Kino","Letní kino Žatec","https://www.firmy.cz/detail/12846608-letni-kino-zatec-zatec.html","2739"
"2","Přírodní zajímavost","V Rákosí","","3182"
"3","Hřiště","Dětské hřiště Rybňany","","1189"
"4","Večerka","Smíšenka U Macíka","https://www.firmy.cz/detail/13290665-smisenka-u-macika-zatec-bezdekov.html","105"
"5","Hospoda","Hospůdka Mandl","https://www.firmy.cz/detail/13110761-hospudka-mandl-zatec.html","2196"
"6","Divadlo","Jitřenka - loutkové divadlo","https://www.firmy.cz/detail/13096125-jitrenka-loutkove-divadlo-zatec.html","2577"
"7","Veterinář","MVDr. Břetislav Frýba","https://www.firmy.cz/detail/203866-mvdr-bretislav-fryba-zatec.html","2751"
"8","Bus MHD","Žatec, Bezděkov, osada","","188"
"9","Sportoviště","Stadion Mládí","https://www.firmy.cz/detail/12853188-stadion-mladi-zatec.html","2612"
"10","Obchod","Tesco","https://www.firmy.cz/detail/733933-tesco-zatec.html","3775"
"11","Lékař","MUDr. Jaroslav Rotek","https://www.firmy.cz/detail/13284857-mudr-jaroslav-rotek-libesice-dobricany.html","2523"
"12","Školka","MŠ speciální Žatec, Studentská","https://www.firmy.cz/detail/731363-ms-specialni-zatec-studentska-zatec.html","2343"
"13","Restaurace","Hospůdka U Nás","https://www.firmy.cz/detail/13113791-hospudka-u-nas-zatec.html","2435"
"14","Bankomat","Bankomat MONETA Money Bank","https://www.firmy.cz/detail/659047-bankomat-moneta-money-bank-zatec.html","2588"
"15","Pošta","Pošta Depo Žatec 70","https://www.firmy.cz/detail/215300-posta-depo-zatec-70-zatec.html","2422"
"16","Lékárna","Lékárna Na náměstí","https://www.firmy.cz/detail/12822918-lekarna-na-namesti-zatec.html","2688"
"17","Vlak","Tvršice","","1957"
"18","Škola","Obchodní akademie a Střední odborná škola zemědělská a ekologická Žatec","https://www.firmy.cz/detail/362376-obchodni-akademie-a-stredni-odborna-skola-zemedelska-a-ekologicka-zatec-zatec.html","2359"
