"","facility_type","facility_name","facility_iri","facility_distance"
"0","Cukrárna","Cukrárna Harlekýn","https://www.firmy.cz/detail/12963749-cukrarna-harlekyn-koprivnice.html","4396"
"1","Hřiště","Dětské hřiště U Tatry","","310"
"2","Večerka","POTRAVINY NA SÍDLIŠTI","https://www.firmy.cz/detail/13224153-potraviny-na-sidlisti-pribor.html","191"
"3","Hospoda","Kovárna Pub","https://www.firmy.cz/detail/13134861-kovarna-pub-pribor.html","143"
"4","Veterinář","VETERINA ZA MOSTEM s.r.o. - Veterinární klinika","https://www.firmy.cz/detail/13299667-veterina-za-mostem-s-r-o-veterinarni-klinika-pribor.html","624"
"5","Sportoviště","Koupaliště Ricco","https://www.firmy.cz/detail/2479548-koupaliste-ricco-pribor.html","526"
"6","Vlak","Příbor","","765"
"7","Pošta","Pošta Příbor - Česká pošta, s.p.","https://www.firmy.cz/detail/433646-posta-pribor-pribor.html","585"
"8","Bankomat","Bankomat České spořitelny","https://www.firmy.cz/detail/595039-bankomat-ceske-sporitelny-pribor.html","317"
"9","Škola","ZŠ Npor. Loma Příbor","https://www.firmy.cz/detail/359099-zs-npor-loma-pribor-pribor.html","244"
"10","Lékárna","Lékárna Apatyka","https://www.firmy.cz/detail/422117-lekarna-apatyka-pribor.html","438"
"11","Bus MHD","Příbor, Tatra","","228"
"12","Restaurace","Pizza SOS","https://www.firmy.cz/detail/13255895-pizza-sos-pribor.html","136"
"13","Školka","MŠ Příbor, Pionýrů","https://www.firmy.cz/detail/2333695-ms-pribor-pionyru-pribor.html","102"
"14","Lékař","K + K PRAKTICI, s.r.o.","https://www.firmy.cz/detail/12863005-k-k-praktici-pribor.html","438"
"15","Obchod","Tesco","https://www.firmy.cz/detail/2354322-tesco-koprivnice.html","4025"
