"","facility_type","facility_name","facility_iri","facility_distance"
"0","Cukrárna","Cukrárna Větrník","https://www.firmy.cz/detail/13243916-cukrarna-vetrnik-uherske-hradiste-maratice.html","396"
"1","Kino","Kino Hvězda Uherské Hradiště","https://www.firmy.cz/detail/457216-kino-hvezda-uherske-hradiste-uherske-hradiste.html","1202"
"2","Hřiště","Dětské hřiště Sadová","","100"
"3","Přírodní zajímavost","Soutok Moravy a Olšavy","","4534"
"4","Večerka","Potraviny ENAPO","https://www.firmy.cz/detail/13268283-potraviny-enapo-uherske-hradiste-maratice.html","271"
"5","Hospoda","Lenka Bršlicová","https://www.firmy.cz/detail/13150391-lenka-brslicova-uherske-hradiste-maratice.html","271"
"6","Divadlo","Hoffmannovo divadlo","https://www.firmy.cz/detail/608263-hoffmannovo-divadlo-uherske-hradiste-maratice.html","639"
"7","Veterinář","MVDr. Jakub Kaděra","https://www.firmy.cz/detail/649243-mvdr-jakub-kadera-uherske-hradiste-maratice.html","543"
"8","Lékárna","TILIA APOTHEKA","https://www.firmy.cz/detail/13204274-tilia-apotheka-uherske-hradiste-maratice.html","593"
"9","Škola","Základní škola Uherské Hradiště, Větrná","https://www.firmy.cz/detail/359817-zakladni-skola-uherske-hradiste-vetrna-uherske-hradiste-maratice.html","232"
"10","Sportoviště","Sportoviště města Uherské Hradiště","https://www.firmy.cz/detail/2452693-sportoviste-mesta-uherske-hradiste-uherske-hradiste-maratice.html","265"
"11","Lékař","MUDr. Jana Konečná","https://www.firmy.cz/detail/387954-mudr-jana-konecna-uherske-hradiste-sady.html","585"
"12","Restaurace","Raul's pizza, pasta & insalate","https://www.firmy.cz/detail/13073403-raul-s-pizza-pasta-insalate-uherske-hradiste-sady.html","32"
"13","Školka","Mateřská škola Uherské Hradiště, Větrná","https://www.firmy.cz/detail/2181041-materska-skola-uherske-hradiste-vetrna-uherske-hradiste-maratice.html","232"
"14","Pošta","Pošta Uherské Hradiště 5 - Česká pošta, s.p.","https://www.firmy.cz/detail/433397-posta-uherske-hradiste-5-uherske-hradiste-maratice.html","938"
"15","Bus MHD","Mařatice, Derflanská","","203"
"16","Obchod","Tesco","https://www.firmy.cz/detail/653537-tesco-uherske-hradiste.html","692"
"17","Bankomat","Bankomat Komerční banky","https://www.firmy.cz/detail/1354878-bankomat-komercni-banky-uherske-hradiste.html","693"
"18","Vlak","Kunovice","","760"
