"","facility_type","facility_name","facility_iri","facility_distance"
"0","Cukrárna","Cukrárna Zlaté slunce","https://www.firmy.cz/detail/266642-cukrarna-zlate-slunce-tabor.html","660"
"1","Kino","Kino Svět","https://www.firmy.cz/detail/211137-kino-svet-tabor.html","904"
"2","Hřiště","Dětské hřiště park Pod Kotnovem","","155"
"3","Večerka","Žabka","https://www.firmy.cz/detail/12976638-zabka-tabor.html","644"
"4","Hospoda","Whisky Pub","https://www.firmy.cz/detail/12935613-whisky-pub-tabor.html","492"
"5","Divadlo","Divadlo Oskara Nedbala Tábor","https://www.firmy.cz/detail/406554-divadlo-oskara-nedbala-tabor-tabor.html","707"
"6","Veterinář","MVDr. Jana Martinová","https://www.firmy.cz/detail/2602674-mvdr-jana-martinova-tabor.html","579"
"7","Restaurace","Restaurace Na Bečvárně","https://www.firmy.cz/detail/13333021-restaurace-na-becvarne-tabor.html","108"
"8","Pošta","Pošta Tábor 1 - Česká pošta, s.p.","https://www.firmy.cz/detail/216937-posta-tabor-1-tabor.html","706"
"9","Školka","Církevní mateřská škola Rybička","https://www.firmy.cz/detail/1791671-cirkevni-materska-skola-rybicka-tabor.html","157"
"10","Bus MHD","Tábor, Švehlův most","","160"
"11","Bankomat","Bankomat Oberbank AG","https://www.firmy.cz/detail/12790020-bankomat-oberbank-ag-tabor.html","705"
"12","Vlak","Horky u Tábora","","1743"
"13","Sportoviště","TJ Lužnice Tábor","https://www.firmy.cz/detail/2648792-tj-luznice-tabor-tabor.html","457"
"14","Lékárna","U Bílého jednorožce","https://www.firmy.cz/detail/375759-u-bileho-jednorozce-tabor.html","754"
"15","Lékař","MUDr.Jana Kadeřávková - praktický lékař, s.r.o.","https://www.firmy.cz/detail/12774465-mudr-jana-kaderavkova-prakticky-lekar-tabor.html","925"
"16","Škola","ZŠ a MŠ Tábor, nám. Mikuláše z Husi 45","https://www.firmy.cz/detail/359641-zs-a-ms-tabor-nam-mikulase-z-husi-45-tabor.html","488"
"17","Obchod","Karel Dvořák - obchodní dům","https://www.firmy.cz/detail/1897212-karel-dvorak-obchodni-dum-tabor.html","1343"
