"","facility_type","facility_name","facility_iri","facility_distance"
"0","Cukrárna","La Zmrzka","https://www.firmy.cz/detail/13065320-la-zmrzka-praha-stodulky.html","156"
"1","Kino","Cinema City Zličín","https://www.firmy.cz/detail/436222-cinema-city-zlicin-praha-trebonice.html","1291"
"2","Přírodní zajímavost","Kovářovic mez","","4238"
"3","Hřiště","Dětské hřiště Svitákova","","123"
"4","Večerka","Potraviny Svitákova 7","https://www.firmy.cz/detail/13163774-potraviny-svitakova-7-praha-stodulky.html","32"
"5","Hospoda","G Pivnice Stodůlky","https://www.firmy.cz/detail/13146250-g-pivnice-stodulky-praha-stodulky.html","683"
"6","Divadlo","Divadelní studio Bubec","https://www.firmy.cz/detail/13047862-divadelni-studio-bubec-praha-reporyje.html","1285"
"7","Veterinář","Veterinární klinika Delta MVDr.Michael Růžička, s.r.o.","https://www.firmy.cz/detail/12957413-veterinarni-klinika-delta-mvdr-michael-ruzicka-praha-repy.html","1677"
"8","Pošta","Pošta Praha 515 - Česká pošta, s.p.","https://www.firmy.cz/detail/216728-posta-praha-515-praha-stodulky.html","478"
"9","Bus MHD","Stodůlky","","406"
"10","Školka","MŠ Večerníček, Praha 13","https://www.firmy.cz/detail/646823-ms-vecernicek-praha-13-praha-stodulky.html","635"
"11","Bankomat","Bankomat Komerční banky","https://www.firmy.cz/detail/13323939-bankomat-komercni-banky-praha-stodulky.html","302"
"12","Restaurace","Kolkovna Stodůlky","https://www.firmy.cz/detail/12733983-kolkovna-stodulky-praha-stodulky.html","302"
"13","Lékárna","Lékárna Stodůlky","https://www.firmy.cz/detail/13101091-lekarna-stodulky-praha-stodulky.html","905"
"14","Vlak","Praha-Řeporyje","","1750"
"15","Metro","Stodůlky","","228"
"16","Lékař","MUDr. Dagmar Bělská","https://www.firmy.cz/detail/386753-mudr-dagmar-belska-praha-stodulky.html","905"
"17","Škola","MŠ a ZŠ speciální Diakonie ČCE Praha 5","https://www.firmy.cz/detail/2293835-ms-a-zs-specialni-diakonie-cce-praha-5-praha-stodulky.html","581"
"18","Sportoviště","JumpPark Zličín","https://www.firmy.cz/detail/13066617-jumppark-zlicin-praha-trebonice.html","1099"
"19","Tram","Slánská","","1989"
"20","Obchod","Homepark Zličín","https://www.firmy.cz/detail/13177905-homepark-zlicin-praha-trebonice.html","396"
