"","facility_type","facility_name","facility_iri","facility_distance"
"0","Cukrárna","Pekárna Nostress bakery","https://www.firmy.cz/detail/308884-pekarna-nostress-bakery-praha-stare-mesto.html","33"
"1","Kino","Cinema City Slovanský dům","https://www.firmy.cz/detail/2679893-cinema-city-slovansky-dum-praha-nove-mesto.html","557"
"2","Hřiště","Dětské hřiště sportovní areál Masná","","233"
"3","Večerka","Albert Supermarket","https://www.firmy.cz/detail/209512-albert-supermarket-praha-stare-mesto.html","390"
"4","Divadlo","DIVADLO UNGELT s.r.o.","https://www.firmy.cz/detail/2613609-divadlo-ungelt-s-r-o-praha-stare-mesto.html","311"
"5","Hospoda","Batalion Café & Music Bar","https://www.firmy.cz/detail/457689-batalion-cafe-music-bar-praha-stare-mesto.html","768"
"6","Veterinář","MVDr. Katka Sviták Novozámská","https://www.firmy.cz/detail/2137713-mvdr-katka-svitak-novozamska-praha-stare-mesto.html","723"
"7","Škola","Obchodní akademie Dušní","https://www.firmy.cz/detail/362750-obchodni-akademie-dusni-praha-stare-mesto.html","140"
"8","Sportoviště","Sportovní areál Na Františku","https://www.firmy.cz/detail/2307461-sportovni-areal-na-frantisku-praha-stare-mesto.html","248"
"9","Pošta","Pošta Praha 05 - Česká pošta, s.p.","https://www.firmy.cz/detail/431198-posta-praha-05-praha-stare-mesto.html","290"
"10","Lékař","MUDr. Jiří Kučera","https://www.firmy.cz/detail/389067-mudr-jiri-kucera-praha-stare-mesto.html","98"
"11","Restaurace","Katr restaurant","https://www.firmy.cz/detail/2293391-katr-restaurant-praha-stare-mesto.html","44"
"12","Tram","Právnická fakulta","","361"
"13","Vlak","Praha Masarykovo nádraží","","880"
"14","Bus MHD","U Staré školy","","71"
"15","Školka","MŠ Praha, Masná","https://www.firmy.cz/detail/1968715-ms-praha-masna-praha-stare-mesto.html","166"
"16","Obchod","PALLADIUM Praha","https://www.firmy.cz/detail/2238095-palladium-praha-praha-nove-mesto.html","503"
"17","Metro","Staroměstská","","461"
"18","Lékárna","Lékárna Na Františku","https://www.firmy.cz/detail/376327-lekarna-na-frantisku-praha-stare-mesto.html","283"
"19","Bankomat","Bankomat Komerční banky","https://www.firmy.cz/detail/1348491-bankomat-komercni-banky-praha-stare-mesto.html","212"
