"","facility_type","facility_name","facility_iri","facility_distance"
"0","Cukrárna","Cafe Prostoru_","https://www.firmy.cz/detail/12936854-cafe-prostoru-praha-dejvice.html","1053"
"1","Kino","Bio Oko","https://www.firmy.cz/detail/2586117-bio-oko-praha-holesovice.html","3533"
"2","Hřiště","Dětské hřiště Vidlicová","","436"
"3","Večerka","Albert Supermarket","https://www.firmy.cz/detail/209514-albert-supermarket-praha-dejvice.html","333"
"4","Hospoda","Restaurant Oáza Billiard club","https://www.firmy.cz/detail/1949500-restaurant-oaza-billiard-club-praha.html","1322"
"5","Divadlo","Dejvické divadlo, o.p.s.","https://www.firmy.cz/detail/396832-dejvicke-divadlo-praha-dejvice.html","888"
"6","Veterinář","MVDr. Michaela Riedlová","https://www.firmy.cz/detail/473621-mvdr-michaela-riedlova-praha-dejvice.html","493"
"7","Tram","Nádraží Podbaba","","679"
"8","Metro","Dejvická","","1425"
"9","Sportoviště","Armádní sportovní centrum Dukla","https://www.firmy.cz/detail/12928219-armadni-sportovni-centrum-dukla-praha-dejvice.html","145"
"10","Vlak","Praha-Podbaba","","760"
"11","Bus MHD","Juliska","","225"
"12","Obchod","Kaufland","https://www.firmy.cz/detail/12720219-kaufland-praha-dejvice.html","577"
"13","Bankomat","Bankomat Komerční banky","https://www.firmy.cz/detail/2608714-bankomat-komercni-banky-praha-dejvice.html","510"
"14","Škola","ZUŠ Praha 6, Nad Alejí, V Šáreckém údolí","https://www.firmy.cz/detail/759596-zus-praha-6-nad-aleji-v-sareckem-udoli-praha-dejvice.html","768"
"15","Lékárna","Dr.Max LÉKÁRNA","https://www.firmy.cz/detail/12726492-dr-max-lekarna-praha-dejvice.html","577"
"16","Pošta","Pošta Praha 6 - Česká pošta, s.p.","https://www.firmy.cz/detail/216725-posta-praha-6-praha-dejvice.html","1736"
"17","Restaurace","Restaurant Na staré faře","https://www.firmy.cz/detail/305067-restaurant-na-stare-fare-praha-dejvice.html","244"
"18","Lékař","MUDr. Alena Mašková","https://www.firmy.cz/detail/385763-mudr-alena-maskova-praha-dejvice.html","807"
"19","Školka","Základní škola a Mateřská škola Antonína Čermáka, Praha 6","https://www.firmy.cz/detail/2155268-zakladni-skola-a-materska-skola-antonina-cermaka-praha-6-praha-dejvice.html","536"
