"","facility_type","facility_name","facility_iri","facility_distance"
"0","Cukrárna","Café Coffee Day","https://www.firmy.cz/detail/650529-cafe-coffee-day-praha-smichov.html","632"
"1","Kino","CineStar Anděl","https://www.firmy.cz/detail/2537565-cinestar-andel-praha-smichov.html","625"
"2","Přírodní zajímavost","Kovářovic mez","","3958"
"3","Hřiště","Dětské hřiště Holečkova","","177"
"4","Večerka","Tuyen Le Thi - OVOCE ZELENINA","https://www.firmy.cz/detail/2464821-tuyen-le-thi-ovoce-zelenina-praha-kosire.html","334"
"5","Divadlo","Divadlo Orfeus","https://www.firmy.cz/detail/413053-divadlo-orfeus-praha-kosire.html","322"
"6","Hospoda","Hospůdka Knoflík","https://www.firmy.cz/detail/2253647-hospudka-knoflik-praha-smichov.html","871"
"7","Veterinář","MVDr. Jana Lukešová","https://www.firmy.cz/detail/473617-mvdr-jana-lukesova-praha-smichov.html","735"
"8","Bankomat","Bankomat ČSOB","https://www.firmy.cz/detail/636703-bankomat-csob-praha-smichov.html","671"
"9","Pošta","Pošta Praha 53 - Česká pošta, s.p.","https://www.firmy.cz/detail/431282-posta-praha-53-praha-smichov.html","664"
"10","Tram","Bertramka","","86"
"11","Škola","ZŠ a MŠ Praha 5, Grafická","https://www.firmy.cz/detail/356194-zs-a-ms-praha-5-graficka-praha-smichov.html","126"
"12","Restaurace","Restaurace Pod Černým vrchem","https://www.firmy.cz/detail/333475-restaurace-pod-cernym-vrchem-praha-kosire.html","312"
"13","Vlak","Praha-Smíchov severní nást.","","1411"
"14","Lékař","SPOLEČNOST PRO PRACOVNÍ MEDICÍNU s.r.o.","https://www.firmy.cz/detail/2035086-spolecnost-pro-pracovni-medicinu-s-r-o-praha-smichov.html","468"
"15","Metro","Anděl","","812"
"16","Školka","ZŠ a MŠ Praha 5, Grafická","https://www.firmy.cz/detail/2416925-zs-a-ms-praha-5-graficka-praha-smichov.html","236"
"17","Bus MHD","Holečkova","","196"
"18","Lékárna","EUC Lékárna Kartouzská","https://www.firmy.cz/detail/13162323-euc-lekarna-kartouzska-praha-smichov.html","617"
"19","Obchod","Tesco","https://www.firmy.cz/detail/733908-tesco-praha-smichov.html","629"
"20","Sportoviště","Sport Mrázovka","https://www.firmy.cz/detail/2673921-sport-mrazovka-praha-smichov.html","474"
