"","facility_type","facility_name","facility_iri","facility_distance"
"0","Cukrárna","Cukrárna Vendula","https://www.firmy.cz/detail/13220137-cukrarna-vendula-bystrice-pod-hostynem.html","1325"
"1","Kino","Kino Klub","https://www.firmy.cz/detail/2585966-kino-klub-bystrice-pod-hostynem.html","1317"
"2","Hřiště","Dětské hřiště Za Potokem","","511"
"3","Večerka","Potraviny ENAPO","https://www.firmy.cz/detail/13269145-potraviny-enapo-bystrice-pod-hostynem-rychlov.html","337"
"4","Hospoda","Pivnice Sokolovna","https://www.firmy.cz/detail/317624-pivnice-sokolovna-bystrice-pod-hostynem.html","1377"
"5","Veterinář","Veterinární ordinace MVDr.Libor Kufa Bystřice pod Hostýnem","https://www.firmy.cz/detail/2028803-veterinarni-ordinace-mvdr-libor-kufa-bystrice-pod-hostynem-bystrice-pod-hostynem.html","1614"
"6","Škola","Střední škola nábytkářská a obchodní Bystřice pod Hostýnem","https://www.firmy.cz/detail/2686157-stredni-skola-nabytkarska-a-obchodni-bystrice-pod-hostynem-bystrice-pod-hostynem.html","919"
"7","Restaurace","Restaurace Valach","https://www.firmy.cz/detail/13236383-restaurace-valach-bystrice-pod-hostynem-rychlov.html","389"
"8","Sportoviště","Orel jednota Bystřice pod Hostýnem","https://www.firmy.cz/detail/1960932-orel-jednota-bystrice-pod-hostynem-bystrice-pod-hostynem.html","1315"
"9","Bankomat","Bankomat Komerční banky","https://www.firmy.cz/detail/597639-bankomat-komercni-banky-bystrice-pod-hostynem.html","1294"
"10","Lékárna","Lékárna Centrum","https://www.firmy.cz/detail/658534-lekarna-centrum-bystrice-pod-hostynem.html","1256"
"11","Pošta","Pošta Bystřice pod Hostýnem 1 - Česká pošta, s.p.","https://www.firmy.cz/detail/431910-posta-bystrice-pod-hostynem-1-bystrice-pod-hostynem.html","1627"
"12","Školka","MŠ Rychlov","https://www.firmy.cz/detail/2552680-ms-rychlov-bystrice-pod-hostynem-rychlov.html","124"
"13","Lékař","MUDr. Vašková Marie, MediClinic a.s.","https://www.firmy.cz/detail/12946315-mudr-vaskova-marie-mediclinic-a-s-bystrice-pod-hostynem.html","1263"
"14","Bus MHD","Bystřice pod Hostýnem, Lidrukov","","213"
"15","Vlak","Bystřice pod Hostýnem","","1443"
