"","facility_type","facility_name","facility_iri","facility_distance"
"0","Hřiště","Dětské hřiště Březenecká","https://mapy.cz/zakladni?x=13.4128448367&y=50.4741156234&z=17&source=base&id=2212849","169"
"1","Večerka","JIP Potraviny","https://www.firmy.cz/detail/12922841-jip-potraviny-chomutov.html","165"
"2","Hospoda","Hospoda Kulečník Pool","https://www.firmy.cz/detail/13327617-hospoda-kulecnik-pool-chomutov.html","714"
"3","Veterinář","MVDr. Gabriela Jašurková Mikutová","https://www.firmy.cz/detail/1907835-mvdr-gabriela-jasurkova-mikutova-chomutov.html","985"
"4","Cukrárna","Dětský bar Pepíno","https://www.firmy.cz/detail/307159-detsky-bar-pepino-chomutov.html","700"
"5","Kino","Letní kino Chomutov","https://www.firmy.cz/detail/2644649-letni-kino-chomutov-chomutov.html","825"
"6","Divadlo","Městské divadlo Chomutov","https://www.firmy.cz/detail/2644644-mestske-divadlo-chomutov-chomutov.html","1281"
"7","Obchod","Kaufland","https://www.firmy.cz/detail/12855793-kaufland-chomutov.html","1355"
"8","Škola","13. Základní škola Březenecká","https://www.firmy.cz/detail/294838-13-zakladni-skola-brezenecka-chomutov.html","350"
"9","Sportoviště","AFK LoKo Chomutov","https://www.firmy.cz/detail/13075778-afk-loko-chomutov-chomutov.html","295"
"10","Lékárna","U Lípy","https://www.firmy.cz/detail/2356615-u-lipy-chomutov.html","176"
"11","Restaurace","Restaurace Strikeland","https://www.firmy.cz/detail/2482572-restaurace-strikeland-chomutov.html","356"
"12","Bankomat","Bankomat Komerční banky","https://www.firmy.cz/detail/596380-bankomat-komercni-banky-chomutov.html","256"
"13","Vlak","Chomutov město","https://mapy.cz/zakladni?x=13.4139450841&y=50.4699256395&z=17&source=pubt&id=15211554","619"
"14","Bus MHD","Chomutov, Lesopark u lávky","https://mapy.cz/zakladni?x=13.4149422999&y=50.4746711792&z=17&source=pubt&id=15216605","119"
"15","Lékař","MUDr. Jana Hazemová","https://www.firmy.cz/detail/385916-mudr-jana-hazemova-chomutov.html","176"
"16","Školka","MŠ Chomutov, Kundratická","https://www.firmy.cz/detail/1345657-ms-chomutov-kundraticka-chomutov.html","57"
"17","Pošta","Pošta Chomutov 4 - Česká pošta, s.p.","https://www.firmy.cz/detail/215278-posta-chomutov-4-chomutov.html","94"
