"","facility_type","facility_name","facility_iri","facility_distance"
"0","Cukrárna","OMNI café & fit studio","https://www.firmy.cz/detail/13160252-omni-cafe-fit-studio-brno-medlanky.html","542"
"1","Kino","Kino Lucerna","https://www.firmy.cz/detail/638240-kino-lucerna-brno-zabovresky.html","3121"
"2","Přírodní zajímavost","Přírodní zahrada U Smrku","","1188"
"3","Hřiště","Dětské hřiště Jabloňová","","176"
"4","Večerka","BILLA","https://www.firmy.cz/detail/450595-billa-brno-medlanky.html","20"
"5","Hospoda","Hospůdka u Hřiště","https://www.firmy.cz/detail/13116651-hospudka-u-hriste-brno-medlanky.html","525"
"6","Divadlo","Divadlo Špílberg","https://www.firmy.cz/detail/13227128-divadlo-spilberg-brno-reckovice.html","601"
"7","Veterinář","MVDr. Marek Žižlavský","https://www.firmy.cz/detail/2315674-mvdr-marek-zizlavsky-brno-medlanky.html","380"
"8","Školka","MŠ Brno, Novoměstská","https://www.firmy.cz/detail/1446938-ms-brno-novomestska-brno-reckovice.html","239"
"9","Bankomat","Bankomat Komerční banky","https://www.firmy.cz/detail/2419830-bankomat-komercni-banky-brno-reckovice.html","296"
"10","Sportoviště","Tělocvičná jednota Sokol Brno Heršpice","https://www.firmy.cz/detail/2139675-telocvicna-jednota-sokol-brno-herspice-brno-medlanky.html","247"
"11","Lékárna","LÉKÁRNA VITA","https://www.firmy.cz/detail/13204055-lekarna-vita-brno-medlanky.html","18"
"12","Škola","ZŠ Brno, Hudcova","https://www.firmy.cz/detail/356500-zs-brno-hudcova-brno-medlanky.html","460"
"13","Pošta","Pošta Brno 21 - Česká pošta, s.p.","https://www.firmy.cz/detail/1534314-posta-brno-21-brno-reckovice.html","926"
"14","Tram","Kořískova","","77"
"15","Lékař","MUDr. Blanka Číhalová","https://www.firmy.cz/detail/386824-mudr-blanka-cihalova-brno-medlanky.html","277"
"16","Restaurace","Restaurace Stronghold","https://www.firmy.cz/detail/12980150-restaurace-stronghold-brno-medlanky.html","86"
"17","Bus MHD","Kořískova","","170"
"18","Vlak","Brno-Královo Pole","","1261"
"19","Obchod","OC Perla, a.s.","https://www.firmy.cz/detail/12875818-oc-perla-brno-zabovresky.html","2590"
