"","facility_type","facility_name","facility_iri","facility_distance"
"0","Cukrárna","Cukrárna Crystal","https://www.firmy.cz/detail/13272890-cukrarna-crystal-plzen-jizni-predmesti.html","608"
"1","Kino","Kino Beseda","https://www.firmy.cz/detail/12773769-kino-beseda-plzen-jizni-predmesti.html","943"
"2","Hřiště","Dětské hřiště Schwarzova","","211"
"3","Večerka","Západočeské konzumní družstvo Plzeň - COOP - TIP","https://www.firmy.cz/detail/465422-zapadoceske-konzumni-druzstvo-plzen-coop-tip-plzen-jizni-predmesti.html","166"
"4","Hospoda","Krčma u Krokodýlího Ocasu","https://www.firmy.cz/detail/301898-krcma-u-krokodyliho-ocasu-plzen-jizni-predmesti.html","26"
"5","Divadlo","Divadlo pod lampou, o.p.s.","https://www.firmy.cz/detail/2418226-divadlo-pod-lampou-plzen-jizni-predmesti.html","149"
"6","Veterinář","Psí salón BELLA","https://www.firmy.cz/detail/12759736-psi-salon-bella-plzen-jizni-predmesti.html","262"
"7","Pošta","Pošta Plzeň 13 - Česká pošta, s.p.","https://www.firmy.cz/detail/216649-posta-plzen-13-plzen-jizni-predmesti.html","260"
"8","Obchod","Kaufland","https://www.firmy.cz/detail/2616232-kaufland-plzen-jizni-predmesti.html","1150"
"9","Tram","Chodské náměstí","","74"
"10","Lékař","Uni-praxe s.r.o.","https://www.firmy.cz/detail/13291314-uni-praxe-s-r-o-plzen-jizni-predmesti.html","156"
"11","Škola","Střední průmyslová škola stavební Plzeň","https://www.firmy.cz/detail/362131-stredni-prumyslova-skola-stavebni-plzen-plzen-jizni-predmesti.html","156"
"12","Školka","22. MŠ Plzeň","https://www.firmy.cz/detail/360414-22-ms-plzen-plzen-jizni-predmesti.html","193"
"13","Restaurace","Restaurace U Lízalky","https://www.firmy.cz/detail/13232616-restaurace-u-lizalky-plzen-jizni-predmesti.html","148"
"14","Bankomat","Bankomat České spořitelny","https://www.firmy.cz/detail/594021-bankomat-ceske-sporitelny-plzen-jizni-predmesti.html","251"
"15","Lékárna","Lékárna U sv. Jana Nepomuckého","https://www.firmy.cz/detail/658628-lekarna-u-sv-jana-nepomuckeho-plzen-jizni-predmesti.html","82"
"16","Bus MHD","Chodské náměstí","","124"
"17","Sportoviště","Tenisová škola TALLENT","https://www.firmy.cz/detail/722814-tenisova-skola-tallent-plzen-jizni-predmesti.html","376"
"18","Vlak","Plzeň-Jižní Předměstí","","349"
