"","facility_type","facility_name","facility_iri","facility_distance"
"0","Cukrárna","Sladká cesta caffé/bar","https://www.firmy.cz/detail/13339762-sladka-cesta-caffe-bar-praha-stare-mesto.html","0"
"1","Kino","Kino Ponrepo","https://www.firmy.cz/detail/396455-kino-ponrepo-praha-stare-mesto.html","314"
"2","Hřiště","Dětské hřiště Františkánská zahrada","","489"
"3","Večerka","Albert Supermarket","https://www.firmy.cz/detail/652908-albert-supermarket-praha.html","347"
"4","Divadlo","Umělecká scéna Říše loutek, z.s.","https://www.firmy.cz/detail/159616-umelecka-scena-rise-loutek-z-s-praha-stare-mesto.html","246"
"5","Hospoda","Batalion Café & Music Bar","https://www.firmy.cz/detail/457689-batalion-cafe-music-bar-praha-stare-mesto.html","334"
"6","Veterinář","MVDr. Katka Sviták Novozámská","https://www.firmy.cz/detail/2137713-mvdr-katka-svitak-novozamska-praha-stare-mesto.html","206"
"7","Bankomat","Bankomat Euronet","https://www.firmy.cz/detail/604290-bankomat-euronet-praha-stare-mesto.html","68"
"8","Restaurace","Restaurant U Dominikána","https://www.firmy.cz/detail/12708343-restaurant-u-dominikana-praha-stare-mesto.html","15"
"9","Metro","Můstek","","317"
"10","Lékárna","Dr.Max","https://www.firmy.cz/detail/2570199-dr-max-praha-stare-mesto.html","340"
"11","Vlak","Praha Masarykovo nádraží","","1101"
"12","Školka","MŠ Praha 1, Národní","https://www.firmy.cz/detail/407385-ms-praha-1-narodni-praha-stare-mesto.html","338"
"13","Sportoviště","Vinland Golf Club","https://www.firmy.cz/detail/2406923-vinland-golf-club-praha-nove-mesto.html","572"
"14","Pošta","Pošta Praha 01 - Česká pošta, s.p.","https://www.firmy.cz/detail/217506-posta-praha-01-praha-stare-mesto.html","269"
"15","Obchod","Tesco","https://www.firmy.cz/detail/218193-tesco-praha-nove-mesto.html","380"
"16","Škola","New York University, organizační složka","https://www.firmy.cz/detail/363609-new-york-university-organizacni-slozka-praha-stare-mesto.html","95"
"17","Tram","Staroměstská","","387"
"18","Bus MHD","Mariánské náměstí","","205"
"19","Lékař","MUDr. Jiří Kučera","https://www.firmy.cz/detail/389067-mudr-jiri-kucera-praha-stare-mesto.html","511"
