"","facility_type","facility_name","facility_iri","facility_distance"
"0","Cukrárna","Shothouse","https://www.firmy.cz/detail/13286217-shothouse-havirov-mesto.html","627"
"1","Kino","Kino Centrum","https://www.firmy.cz/detail/12780436-kino-centrum-havirov-mesto.html","632"
"2","Hřiště","Dětské hřiště Lučina","","158"
"3","Večerka","HRUŠKA","https://www.firmy.cz/detail/12820027-hruska-havirov-mesto.html","125"
"4","Hospoda","Hospůdka u Lenina","https://www.firmy.cz/detail/13169583-hospudka-u-lenina-havirov-mesto.html","494"
"5","Veterinář","Veterina Na Nábřeží","https://www.firmy.cz/detail/1947067-veterina-na-nabrezi-havirov-mesto.html","725"
"6","Sportoviště","Lezecká stěna Havířov","https://www.firmy.cz/detail/13178466-lezecka-stena-havirov-havirov-mesto.html","80"
"7","Bankomat","Bankomat MONETA Money Bank","https://www.firmy.cz/detail/603413-bankomat-moneta-money-bank-havirov-podlesi.html","623"
"8","Vlak","Havířov-střed","","1589"
"9","Školka","MŠ Havířov, Lípová","https://www.firmy.cz/detail/12871692-ms-havirov-lipova-havirov-mesto.html","222"
"10","Obchod","Kaufland","https://www.firmy.cz/detail/1545096-kaufland-havirov-podlesi.html","623"
"11","Lékař","MUDr. Lucie Šebestová s.r.o.","https://www.firmy.cz/detail/12862656-mudr-lucie-sebestova-s-r-o-havirov-mesto.html","428"
"12","Restaurace","Restaurace Nelli","https://www.firmy.cz/detail/13119376-restaurace-nelli-havirov-mesto.html","225"
"13","Bus MHD","Havířov, Město, Slezská","","227"
"14","Lékárna","Lékárna Na Národní","https://www.firmy.cz/detail/659545-lekarna-na-narodni-havirov-mesto.html","507"
"15","Pošta","Pošta Havířov 1 - Česká pošta, s.p.","https://www.firmy.cz/detail/431627-posta-havirov-1-havirov-mesto.html","742"
"16","Škola","ZŠ Havířov, 1. máje","https://www.firmy.cz/detail/357049-zs-havirov-1-maje-havirov-mesto.html","390"
