"","facility_type","facility_name","facility_iri","facility_distance"
"0","Cukrárna","Lajka pivovar - café","https://www.firmy.cz/detail/12794935-lajka-pivovar-cafe-praha-bubenec.html","1569"
"1","Kino","Bio Oko","https://www.firmy.cz/detail/2586117-bio-oko-praha-holesovice.html","1938"
"2","Hřiště","Dětské hřiště Císařský ostrov","","353"
"3","Večerka","Penny Market","https://www.firmy.cz/detail/151826-penny-market-praha-troja.html","1144"
"4","Divadlo","Goja music hall","https://www.firmy.cz/detail/658122-goja-music-hall-praha.html","1225"
"5","Hospoda","Pivnice U Pivoje","https://www.firmy.cz/detail/2231875-pivnice-u-pivoje-praha-holesovice.html","2053"
"6","Veterinář","Klinika Livet","https://www.firmy.cz/detail/1359507-klinika-livet-praha-holesovice.html","1705"
"7","Metro","Nádraží Holešovice","","1573"
"8","Restaurace","Ristorante & pizzeria Del Corso","https://www.firmy.cz/detail/1955984-ristorante-pizzeria-del-corso-praha-troja.html","151"
"9","Bankomat","Bankomat Komerční banky","https://www.firmy.cz/detail/594678-bankomat-komercni-banky-praha-troja.html","641"
"10","Školka","Ekoškolka Rozárka Praha 7","https://www.firmy.cz/detail/12846108-ekoskolka-rozarka-praha-7-praha-troja.html","229"
"11","Lékárna","BENU Lékárna","https://www.firmy.cz/detail/658704-benu-lekarna-praha-troja.html","1218"
"12","Bus MHD","Čechova škola","","208"
"13","Lékař","MUDr. Alena Vodáková","https://www.firmy.cz/detail/388100-mudr-alena-vodakova-praha-troja.html","1218"
"14","Sportoviště","Nikola Bendlová","https://www.firmy.cz/detail/12730891-nikola-bendlova-praha.html","876"
"15","Pošta","Pošta Praha 71 - Česká pošta, s.p.","https://www.firmy.cz/detail/431350-posta-praha-71-praha-troja.html","151"
"16","Obchod","Centrum Krakov","https://www.firmy.cz/detail/12836138-centrum-krakov-praha-troja.html","1293"
"17","Škola","Euroškola Praha","https://www.firmy.cz/detail/648448-euroskola-praha-praha-troja.html","151"
"18","Vlak","Praha-Holešovice","","1531"
"19","Tram","Trojská","","933"
