"","facility_type","facility_name","facility_iri","facility_distance"
"0","Cukrárna","Králíčkova cukrárna","https://www.firmy.cz/detail/671985-kralickova-cukrarna-kyjov.html","2377"
"1","Kino","Kino Panorama","https://www.firmy.cz/detail/451989-kino-panorama-kyjov.html","2919"
"2","Hřiště","Dětské hřiště Kostelec","","465"
"3","Večerka","HRUŠKA","https://www.firmy.cz/detail/12819897-hruska-kyjov.html","1817"
"4","Hospoda","Hospoda Ryva","https://www.firmy.cz/detail/2099053-hospoda-ryva-moravany.html","2064"
"5","Veterinář","Animal Help","https://www.firmy.cz/detail/13247358-animal-help-kyjov.html","2331"
"6","Školka","ZŠ a MŠ Kostelec","https://www.firmy.cz/detail/728059-zs-a-ms-kostelec-kostelec.html","266"
"7","Bankomat","Bankomat MONETA Money Bank","https://www.firmy.cz/detail/659581-bankomat-moneta-money-bank-kyjov.html","2614"
"8","Bus MHD","Kostelec, u mostu","","180"
"9","Sportoviště","SK Kostelec z.s.","https://www.firmy.cz/detail/1318493-sk-kostelec-z-s-kostelec.html","494"
"10","Lékař","MUDr. Zdeňka Čejglová","https://www.firmy.cz/detail/387447-mudr-zdenka-cejglova-kyjov.html","2261"
"11","Pošta","Pošta Partner Kostelec","https://www.firmy.cz/detail/13097106-posta-partner-kostelec-kostelec.html","304"
"12","Obchod","Obchodní centrum ADAMES","https://www.firmy.cz/detail/13074816-obchodni-centrum-adames-kyjov.html","2331"
"13","Lékárna","Lékárna 1. lékárenská Kyjov","https://www.firmy.cz/detail/658846-lekarna-1-lekarenska-kyjov-kyjov.html","2251"
"14","Restaurace","FEMA servis, s.r.o.","https://www.firmy.cz/detail/13113074-fema-servis-kyjov.html","1750"
"15","Škola","ZŠ a MŠ Kostelec","https://www.firmy.cz/detail/357758-zs-a-ms-kostelec-kostelec.html","266"
"16","Vlak","Kyjov","","2330"
