"","facility_type","facility_name","facility_iri","facility_distance"
"0","Hřiště","Dětské hřiště Bukovecká","https://mapy.cz/zakladni?x=14.5083748075&y=50.1326841152&z=17&source=base&id=1926942","105"
"1","Večerka","Obchod U Olivera","https://www.firmy.cz/detail/13191645-obchod-u-olivera-praha-letnany.html","184"
"2","Cukrárna","Cukrárna Amarena","https://www.firmy.cz/detail/12939985-cukrarna-amarena-praha-letnany.html","723"
"3","Hospoda","Pivnice Boleslavka","https://www.firmy.cz/detail/13302446-pivnice-boleslavka-praha-prosek.html","1619"
"4","Divadlo","Divadlo Pohádka","https://www.firmy.cz/detail/636143-divadlo-pohadka-praha-letnany.html","796"
"5","Veterinář","Veterinární ordinace MVDr. Marek Svoboda","https://www.firmy.cz/detail/654003-veterinarni-ordinace-mvdr-marek-svoboda-praha-prosek.html","1003"
"6","Kino","Cinema City Letňany","https://www.firmy.cz/detail/2679833-cinema-city-letnany-praha-letnany.html","708"
"7","Přírodní zajímavost","Meandry Rokytky","https://mapy.cz/zakladni?x=14.517104002655032&y=50.098337103299386&z=17&source=base&id=2338360","3803"
"8","Školka","MŠ Příborská","https://www.firmy.cz/detail/623753-ms-priborska-praha-letnany.html","40"
"9","Lékárna","Lékárna IMMUNO-FLOW","https://www.firmy.cz/detail/12905026-lekarna-immuno-flow-praha-letnany.html","464"
"10","Sportoviště","Pétanque","https://mapy.cz/zakladni?x=14.5109411693&y=50.1326516496&z=17&source=base&id=2127585","106"
"11","Bankomat","Bankomat Komerční banky","https://www.firmy.cz/detail/594667-bankomat-komercni-banky-praha-letnany.html","304"
"12","Pošta","Pošta Praha 99 - Česká pošta, s.p.","https://www.firmy.cz/detail/216695-posta-praha-99-praha-letnany.html","683"
"13","Vlak","Praha-Čakovice","https://mapy.cz/zakladni?x=14.5193859204&y=50.1489307424&z=17&source=pubt&id=15212555","1986"
"14","Lékař","Pedira s.r.o.","https://www.firmy.cz/detail/13274171-pedira-s-r-o-praha-letnany.html","333"
"15","Škola","ZŠ a MŠ, Praha 9, Tupolevova","https://www.firmy.cz/detail/359021-zs-a-ms-praha-9-tupolevova-praha-letnany.html","180"
"16","Metro","Letňany","https://mapy.cz/zakladni?x=14.5157636082262&y=50.1256649022&z=17&source=pubt&id=15200285","848"
"17","Obchod","OC Letňany","https://www.firmy.cz/detail/13027865-oc-letnany-praha-letnany.html","628"
"18","Bus MHD","Příborská","https://mapy.cz/zakladni?x=14.510943162159535&y=50.13146307530612&z=17&source=pubt&id=15304098","124"
"19","Tram","Třebenická","https://mapy.cz/zakladni?x=14.4809102625&y=50.1295381475&z=17&source=pubt&id=15303291","2069"
"20","Restaurace","Srdcovka Skleník","https://www.firmy.cz/detail/13100034-srdcovka-sklenik-praha-letnany.html","367"
