"","facility_type","facility_name","facility_iri","facility_distance"
"0","Hřiště","Dětské hřiště Lučina","https://mapy.cz/zakladni?x=18.4353477423&y=49.7749865439&z=17&source=base&id=1929008","511"
"1","Večerka","COOP Beskydy - Tuty","https://www.firmy.cz/detail/1940412-coop-beskydy-tuty-havirov-mesto.html","117"
"2","Veterinář","Veterina Na Nábřeží","https://www.firmy.cz/detail/1947067-veterina-na-nabrezi-havirov-mesto.html","1069"
"3","Cukrárna","Shothouse","https://www.firmy.cz/detail/13286217-shothouse-havirov-mesto.html","859"
"4","Hospoda","Hospůdka u Lenina","https://www.firmy.cz/detail/13169583-hospudka-u-lenina-havirov-mesto.html","463"
"5","Kino","Kino Centrum","https://www.firmy.cz/detail/12780436-kino-centrum-havirov-mesto.html","936"
"6","Bus MHD","Havířov, Město, Tolstého","https://mapy.cz/zakladni?x=18.4424128239491&y=49.7733784701743&z=17&source=pubt&id=15331094","28"
"7","Školka","MŠ Havířov, Lípová","https://www.firmy.cz/detail/12871692-ms-havirov-lipova-havirov-mesto.html","192"
"8","Sportoviště","Lezecká stěna Evžena Rošického","https://mapy.cz/zakladni?x=18.43842593953013&y=49.77416980179939&z=17&source=base&id=2222245","272"
"9","Bankomat","Bankomat MONETA Money Bank","https://www.firmy.cz/detail/603413-bankomat-moneta-money-bank-havirov-podlesi.html","281"
"10","Lékárna","BENU Lékárna","https://www.firmy.cz/detail/13072023-benu-lekarna-havirov-podlesi.html","327"
"11","Lékař","MUDr. Anna Kandrnálová, s.r.o.","https://www.firmy.cz/detail/12838619-mudr-anna-kandrnalova-havirov-podlesi.html","573"
"12","Restaurace","Restaurace U Šibenice","https://www.firmy.cz/detail/1961088-restaurace-u-sibenice-havirov-podlesi.html","297"
"13","Pošta","Pošta Havířov 21 - Česká pošta, s.p.","https://www.firmy.cz/detail/2378876-posta-havirov-21-havirov-podlesi.html","676"
"14","Vlak","Havířov-střed","https://mapy.cz/zakladni?x=18.439728302264&y=49.788244092890395&z=17&source=pubt&id=15711416","1656"
"15","Obchod","Kaufland","https://www.firmy.cz/detail/1545096-kaufland-havirov-podlesi.html","281"
"16","Škola","ZŠ Havířov, 1. máje","https://www.firmy.cz/detail/357049-zs-havirov-1-maje-havirov-mesto.html","338"
