"","facility_type","facility_name","facility_iri","facility_distance"
"0","Cukrárna","CrossCafe Galerie Slovany","https://www.firmy.cz/detail/12858831-crosscafe-galerie-slovany-plzen-vychodni-predmesti.html","591"
"1","Hřiště","Dětské hřiště Blatenská","","185"
"2","Kino","Kino Beseda","https://www.firmy.cz/detail/12773769-kino-beseda-plzen-jizni-predmesti.html","2743"
"3","Večerka","Potraviny Večerka Koterovská","https://www.firmy.cz/detail/13332996-potraviny-vecerka-koterovska-plzen-lobzy.html","139"
"4","Divadlo","Divadelní spolek Jezírko","https://www.firmy.cz/detail/740611-divadelni-spolek-jezirko-plzen-vychodni-predmesti.html","854"
"5","Hospoda","Pivnice Sladovnická","https://www.firmy.cz/detail/2603445-pivnice-sladovnicka-plzen-lobzy.html","180"
"6","Veterinář","U Tří voříšků - MVDr. Dagmar Caltová","https://www.firmy.cz/detail/313354-u-tri-vorisku-mvdr-dagmar-caltova-plzen-bozkov.html","363"
"7","Bus MHD","Sladová","","141"
"8","Lékař","MUDr. Helena Filipovská","https://www.firmy.cz/detail/2111037-mudr-helena-filipovska-plzen-vychodni-predmesti.html","458"
"9","Školka","21. MŠ Plzeň","https://www.firmy.cz/detail/1278400-21-ms-plzen-plzen-lobzy.html","147"
"10","Tram","Brojova","","174"
"11","Vlak","Plzeň-Koterov","","1043"
"12","Škola","Základní škola Easy Start, s.r.o.","https://www.firmy.cz/detail/2588754-zakladni-skola-easy-start-plzen-lobzy.html","377"
"13","Bankomat","Bankomat Komerční banky","https://www.firmy.cz/detail/594633-bankomat-komercni-banky-plzen-lobzy.html","384"
"14","Lékárna","Dr. Max LÉKÁRNA","https://www.firmy.cz/detail/13001301-dr-max-lekarna-plzen-vychodni-predmesti.html","534"
"15","Sportoviště","Tělocvičná jednota Sokol Plzeň Petřín 1919","https://www.firmy.cz/detail/2131819-telocvicna-jednota-sokol-plzen-petrin-1919-plzen-lobzy.html","194"
"16","Restaurace","Restaurace U Motlíků","https://www.firmy.cz/detail/12977497-restaurace-u-motliku-plzen-lobzy.html","133"
"17","Pošta","Pošta Plzeň 26 - Česká pošta, s.p.","https://www.firmy.cz/detail/216637-posta-plzen-26-plzen-vychodni-predmesti.html","557"
"18","Obchod","Galerie Slovany, s.r.o.","https://www.firmy.cz/detail/2301407-galerie-slovany-plzen-vychodni-predmesti.html","567"
