"","facility_type","facility_name","facility_iri","facility_distance"
"0","Přírodní zajímavost","Čedičový lom Kernberg","","2256"
"1","Hřiště","Dětské hřiště na veřejném sportovišti","","3645"
"2","Večerka","Enapo","https://www.firmy.cz/detail/13133318-enapo-rotava.html","200"
"3","Hospoda","Hospoda Nenucený výsek","https://www.firmy.cz/detail/12948981-hospoda-nenuceny-vysek-kraslice.html","3374"
"4","Veterinář","ŠEROVET, s.r.o.","https://www.firmy.cz/detail/2546600-serovet-kraslice.html","3445"
"5","Lékař","Ascala, s.r.o.","https://www.firmy.cz/detail/12840467-ascala-rotava.html","17"
"6","Sportoviště","TJ ROTAS","https://www.firmy.cz/detail/12715991-tj-rotas-rotava.html","577"
"7","Vlak","Rotava","","2200"
"8","Pošta","Pošta Rotava 1 - Česká pošta, s.p.","https://www.firmy.cz/detail/216454-posta-rotava-1-rotava.html","537"
"9","Škola","ZŠ Rotava","https://www.firmy.cz/detail/359202-zs-rotava-rotava.html","247"
"10","Restaurace","Restaurace Rotava","https://www.firmy.cz/detail/12986633-restaurace-rotava-rotava.html","518"
"11","Lékárna","Lékárna BONATE","https://www.firmy.cz/detail/13233574-lekarna-bonate-rotava.html","44"
"12","Bankomat","Bankomat České spořitelny","https://www.firmy.cz/detail/12837245-bankomat-ceske-sporitelny-rotava.html","226"
"13","Školka","MŠ Rotava","https://www.firmy.cz/detail/12857189-ms-rotava-rotava.html","440"
"14","Bus MHD","Rotava, sídliště","","303"
