"","facility_type","facility_name","facility_iri","facility_distance"
"0","Hřiště","Dětské hřiště Bedřicha Nikodema","https://mapy.cz/zakladni?x=18.1626545791&y=49.8439255375&z=17&source=base&id=2132077","143"
"1","Večerka","HRUŠKA","https://www.firmy.cz/detail/12820378-hruska-ostrava-poruba.html","305"
"2","Cukrárna","Café Globus","https://www.firmy.cz/detail/13089132-cafe-globus-ostrava-plesna.html","1133"
"3","Hospoda","Hospoda U Táty","https://www.firmy.cz/detail/13120479-hospoda-u-taty-ostrava-pustkovec.html","555"
"4","Veterinář","VETERINA HRUBÝ","https://www.firmy.cz/detail/1946395-veterina-hruby-ostrava-pustkovec.html","303"
"5","Divadlo","Porubské divadlo","https://www.firmy.cz/detail/2543038-porubske-divadlo-ostrava-poruba.html","3202"
"6","Tram","Ostrava, Poruba, VŠB-TUO","https://mapy.cz/zakladni?x=18.1678538676&y=49.834566194&z=17&source=pubt&id=15201822","1231"
"7","Bus MHD","Karola Šmidkeho","https://mapy.cz/zakladni?x=18.16197865508222&y=49.848066478366064&z=17&source=pubt&id=15202943","328"
"8","Obchod","REKTOR, s.r.o.","https://www.firmy.cz/detail/12978812-rektor-ostrava-poruba.html","707"
"9","Lékař","MUDr. Roman Stroupek, s.r.o.","https://www.firmy.cz/detail/13271123-mudr-roman-stroupek-ostrava-poruba.html","176"
"10","Pošta","Pošta Ostrava 37 - Česká pošta, s.p.","https://www.firmy.cz/detail/433363-posta-ostrava-37-ostrava-poruba.html","301"
"11","Restaurace","Original Baseball Restaurant Arrows","https://www.firmy.cz/detail/562523-original-baseball-restaurant-arrows-ostrava-poruba.html","364"
"12","Lékárna","Dr. Max LÉKÁRNA","https://www.firmy.cz/detail/13198938-dr-max-lekarna-ostrava-poruba.html","345"
"13","Bankomat","Bankomat České spořitelny","https://www.firmy.cz/detail/593852-bankomat-ceske-sporitelny-ostrava-poruba.html","358"
"14","Školka","MŠ Oty Synka, Ostrava-Poruba","https://www.firmy.cz/detail/13045553-ms-oty-synka-ostrava-poruba-ostrava-poruba.html","239"
"15","Sportoviště","TJ Liga stovkařů Ostrava","https://www.firmy.cz/detail/759499-tj-liga-stovkaru-ostrava-ostrava-poruba.html","371"
"16","Vlak","Ostrava-Třebovice","https://mapy.cz/zakladni?x=18.1956703177&y=49.8420594647&z=17&source=pubt&id=15212381","2368"
"17","Škola","ZŠ Ostrava-Poruba, I. Sekaniny","https://www.firmy.cz/detail/358701-zs-ostrava-poruba-i-sekaniny-ostrava-poruba.html","103"
