"","facility_type","facility_name","facility_iri","facility_distance"
"0","Hřiště","Dětské hřiště Malátova","https://mapy.cz/zakladni?x=14.0380414828&y=50.6721484548&z=17&source=base&id=1928307","87"
"1","Hospoda","Hospůdka Údolí","https://www.firmy.cz/detail/13134391-hospudka-udoli-usti-nad-labem-centrum.html","551"
"2","Večerka","Smíšené zboží Malátova 	2437","https://www.firmy.cz/detail/2358738-smisene-zbozi-malatova-2437-usti-nad-labem-centrum.html","119"
"3","Veterinář","Veterina Skřivánek","https://www.firmy.cz/detail/13081086-veterina-skrivanek-usti-nad-labem-centrum.html","415"
"4","Cukrárna","Café Max","https://www.firmy.cz/detail/2548565-cafe-max-usti-nad-labem-centrum.html","1278"
"5","Kino","Letní kino Ústí nad Labem","https://www.firmy.cz/detail/2556284-letni-kino-usti-nad-labem-usti-nad-labem.html","929"
"6","Divadlo","Severočeské divadlo, s.r.o.","https://www.firmy.cz/detail/12720983-severoceske-divadlo-usti-nad-labem-centrum.html","1438"
"7","Školka","Mateřská škola Zdravíčko","https://www.firmy.cz/detail/156711-materska-skola-zdravicko-usti-nad-labem-centrum.html","230"
"8","Bus MHD","Malátova","https://mapy.cz/zakladni?x=14.0395324903&y=50.6722135868&z=17&source=pubt&id=15203576","105"
"9","Restaurace","U Pivína","https://www.firmy.cz/detail/12957140-u-pivina-usti-nad-labem-severni-terasa.html","469"
"10","Obchod","Albert Hypermarket","https://www.firmy.cz/detail/229751-albert-hypermarket-usti-nad-labem-severni-terasa.html","563"
"11","Lékař","Pediatr Ústí nad Labem, s.r.o.","https://www.firmy.cz/detail/13067564-pediatr-usti-nad-labem-usti-nad-labem-centrum.html","169"
"12","Pošta","Pošta Ústí nad Labem 11 - Česká pošta, s.p.","https://www.firmy.cz/detail/215961-posta-usti-nad-labem-11-usti-nad-labem-severni-terasa.html","582"
"13","Sportoviště","Ústecká krajská asociace Sport pro všechny","https://www.firmy.cz/detail/1891174-ustecka-krajska-asociace-sport-pro-vsechny-usti-nad-labem-severni-terasa.html","513"
"14","Bankomat","Bankomat Air Bank","https://www.firmy.cz/detail/13057645-bankomat-air-bank-usti-nad-labem-severni-terasa.html","524"
"15","Škola","ZŠ a MŠ Ústí nad Labem, SNP","https://www.firmy.cz/detail/359872-zs-a-ms-usti-nad-labem-snp-usti-nad-labem-centrum.html","342"
"16","Vlak","Ústí nad Labem hlavní nádraží","https://mapy.cz/zakladni?x=14.0445763365&y=50.6594875336&z=17&source=pubt&id=15213131","1550"
"17","Lékárna","Dr. Max","https://www.firmy.cz/detail/12857068-dr-max-usti-nad-labem-severni-terasa.html","563"
