"","facility_type","facility_name","facility_iri","facility_distance"
"0","Hřiště","Dětské hřiště Nedbalova","https://mapy.cz/zakladni?x=14.6649307178&y=49.4144549238&z=17&source=base&id=1928626","232"
"1","Veterinář","MVDr. Jana Martinová","https://www.firmy.cz/detail/2602674-mvdr-jana-martinova-tabor.html","596"
"2","Večerka","BILLA","https://www.firmy.cz/detail/450527-billa-tabor.html","91"
"3","Cukrárna","CrossCafe Grand","https://www.firmy.cz/detail/13273631-crosscafe-grand-tabor.html","114"
"4","Hospoda","Original Gambrinus pivnice 1869","https://www.firmy.cz/detail/13123350-original-gambrinus-pivnice-1869-tabor.html","264"
"5","Kino","Kino Svět","https://www.firmy.cz/detail/211137-kino-svet-tabor.html","133"
"6","Divadlo","Divadlo Oskara Nedbala Tábor","https://www.firmy.cz/detail/406554-divadlo-oskara-nedbala-tabor-tabor.html","126"
"7","Bus MHD","Tábor, Na Parkánech","https://mapy.cz/zakladni?x=14.6624267429&y=49.4125393531&z=17&source=pubt&id=15281800","69"
"8","Škola","Gymnázium Pierra de Coubertina, Tábor, Náměstí Františka Křižíka 860","https://www.firmy.cz/detail/307800-gymnazium-pierra-de-coubertina-tabor-namesti-frantiska-krizika-860-tabor.html","106"
"9","Lékař","MUDr.Jana Kadeřávková - praktický lékař, s.r.o.","https://www.firmy.cz/detail/12774465-mudr-jana-kaderavkova-prakticky-lekar-tabor.html","161"
"10","Restaurace","Kozlovna U Františka","https://www.firmy.cz/detail/13002945-kozlovna-u-frantiska-tabor.html","59"
"11","Obchod","Karel Dvořák - obchodní dům","https://www.firmy.cz/detail/1897212-karel-dvorak-obchodni-dum-tabor.html","603"
"12","Bankomat","Bankomat ČSOB","https://www.firmy.cz/detail/12965577-bankomat-csob-tabor.html","22"
"13","Sportoviště","Klub akademiků z Tábora","https://www.firmy.cz/detail/2649120-klub-akademiku-z-tabora-tabor.html","315"
"14","Školka","MŠ Tábor, Vančurova","https://www.firmy.cz/detail/2378236-ms-tabor-vancurova-tabor.html","354"
"15","Vlak","Tábor","https://mapy.cz/zakladni?x=14.6771811147&y=49.4140957354&z=17&source=pubt&id=15213015","1013"
"16","Pošta","Pošta Tábor 1 - Česká pošta, s.p.","https://www.firmy.cz/detail/216937-posta-tabor-1-tabor.html","346"
"17","Lékárna","U Bílého jednorožce","https://www.firmy.cz/detail/375759-u-bileho-jednorozce-tabor.html","75"
