"","facility_type","facility_name","facility_iri","facility_distance"
"0","Cukrárna","Cukrárna Magnolie","https://www.firmy.cz/detail/1963341-cukrarna-magnolie-orlova-lutyne.html","910"
"1","Kino","Kino O","https://www.firmy.cz/detail/12958491-kino-o-orlova-lutyne.html","634"
"2","Přírodní zajímavost","Lužní les v Lyngu","","4923"
"3","Hřiště","Dětské hřiště Okružní","","66"
"4","Večerka","Albert Supermarket","https://www.firmy.cz/detail/447030-albert-supermarket-orlova-lutyne.html","116"
"5","Hospoda","Hospůdka GOOL","https://www.firmy.cz/detail/13108387-hospudka-gool-orlova-lutyne.html","324"
"6","Veterinář","MVDr. Marian Konieczny","https://www.firmy.cz/detail/1958343-mvdr-marian-konieczny-orlova-lutyne.html","688"
"7","Obchod","OC Fastmall","https://www.firmy.cz/detail/13262255-oc-fastmall-orlova-lutyne.html","225"
"8","Bus MHD","Orlová, Lutyně, střed","","165"
"9","Škola","ZŠ Orlová-Lutyně","https://www.firmy.cz/detail/358637-zs-orlova-lutyne-orlova-lutyne.html","294"
"10","Pošta","Pošta Orlová 6 - Česká pošta, s.p.","https://www.firmy.cz/detail/431480-posta-orlova-6-orlova-lutyne.html","376"
"11","Lékárna","Ústavní lékárna v Orlové - Nemocnice s poliklinikou Karviná - Ráj","https://www.firmy.cz/detail/1353608-ustavni-lekarna-v-orlove-nemocnice-s-poliklinikou-karvina-raj-orlova-lutyne.html","190"
"12","Vlak","Dětmarovice","","3624"
"13","Bankomat","Bankomat České spořitelny","https://www.firmy.cz/detail/593755-bankomat-ceske-sporitelny-orlova-lutyne.html","270"
"14","Sportoviště","Koulovna","https://www.firmy.cz/detail/13298197-koulovna-orlova-lutyne.html","634"
"15","Restaurace","Pavlína Dluhošová","https://www.firmy.cz/detail/13123595-pavlina-dluhosova-orlova-lutyne.html","190"
"16","Lékař","PL pro D ZZ a ambulance, s.r.o.","https://www.firmy.cz/detail/13107931-pl-pro-d-zz-a-ambulance-orlova-lutyne.html","190"
"17","Školka","MŠ Orlová-Lutyně, Petra Cingra","https://www.firmy.cz/detail/1958294-ms-orlova-lutyne-petra-cingra-orlova-lutyne.html","104"
