"","facility_type","facility_name","facility_iri","facility_distance"
"0","Cukrárna","Cukrárna U Čížků","https://www.firmy.cz/detail/13278821-cukrarna-u-cizku-jirkov.html","1116"
"1","Kino","KINO JIRKOV, s.r.o.","https://www.firmy.cz/detail/12963927-kino-jirkov-jirkov.html","1039"
"2","Hřiště","Dětské hřiště Krušnohorská","","133"
"3","Večerka","Večerka Krušnohorská","https://www.firmy.cz/detail/13335325-vecerka-krusnohorska-jirkov.html","36"
"4","Hospoda","Pivnice Na Kopečku","https://www.firmy.cz/detail/479233-pivnice-na-kopecku-jirkov.html","638"
"5","Veterinář","MVDr. Magda Jašková","https://www.firmy.cz/detail/2131882-mvdr-magda-jaskova-jirkov.html","566"
"6","Škola","Základní škola Jirkov","https://www.firmy.cz/detail/12924909-zakladni-skola-jirkov-jirkov.html","249"
"7","Bankomat","Bankomat ČSOB","https://www.firmy.cz/detail/12965640-bankomat-csob-jirkov.html","488"
"8","Sportoviště","Tenisový klub Jirkov","https://www.firmy.cz/detail/2264328-tenisovy-klub-jirkov-jirkov.html","1192"
"9","Obchod","Tesco","https://www.firmy.cz/detail/455678-tesco-jirkov.html","961"
"10","Lékař","MUDr. Eva Vytasilová","https://www.firmy.cz/detail/386090-mudr-eva-vytasilova-jirkov.html","840"
"11","Bus MHD","Jirkov, U chaty","","181"
"12","Restaurace","Restaurace Koliba Rustika","https://www.firmy.cz/detail/13284914-restaurace-koliba-rustika-jirkov.html","269"
"13","Vlak","Jirkov","","1761"
"14","Lékárna","Lékárna U Zlaté koruny","https://www.firmy.cz/detail/13210788-lekarna-u-zlate-koruny-jirkov.html","840"
"15","Školka","MŠ Pohádka","https://www.firmy.cz/detail/2405276-ms-pohadka-jirkov.html","137"
"16","Pošta","Pošta Jirkov 3 - Česká pošta, s.p.","https://www.firmy.cz/detail/215282-posta-jirkov-3-jirkov.html","580"
