"","facility_type","facility_name","facility_iri","facility_distance"
"0","Hřiště","Dětské hřiště Vrchlického sady","https://mapy.cz/zakladni?x=14.4344193149&y=50.0853432446&z=17&source=base&id=1927277","336"
"1","Cukrárna","OVOCNÝ SVĚTOZOR","https://www.firmy.cz/detail/475875-ovocny-svetozor-praha-nove-mesto.html","442"
"2","Hospoda","Batalion Café & Music Bar","https://www.firmy.cz/detail/457689-batalion-cafe-music-bar-praha-stare-mesto.html","629"
"3","Divadlo","Divadlo Rokoko","https://www.firmy.cz/detail/2371572-divadlo-rokoko-praha-nove-mesto.html","369"
"4","Večerka","MANNI MINI MARKET","https://www.firmy.cz/detail/2511337-manni-mini-market-praha-nove-mesto.html","198"
"5","Veterinář","Veterinární ambulance Help","https://www.firmy.cz/detail/178079-veterinarni-ambulance-help-praha-vinohrady.html","655"
"6","Kino","Kino Světozor","https://www.firmy.cz/detail/396600-kino-svetozor-praha-nove-mesto.html","413"
"7","Lékárna","Lékárna U Palmy","https://www.firmy.cz/detail/374864-lekarna-u-palmy-praha-nove-mesto.html","234"
"8","Sportoviště","Martina Nesvorná - Studio Tanes","https://www.firmy.cz/detail/589954-martina-nesvorna-studio-tanes-praha-nove-mesto.html","343"
"9","Tram","Jindřišská","https://mapy.cz/zakladni?x=14.4301708823&y=50.0850848031&z=17&source=pubt&id=15304128","205"
"10","Bankomat","Bankomat ČSOB","https://www.firmy.cz/detail/599518-bankomat-csob-praha-nove-mesto.html","231"
"11","Škola","Základní umělecká škola, Praha 1, U půjčovny 4","https://www.firmy.cz/detail/427061-zakladni-umelecka-skola-praha-1-u-pujcovny-4-praha-nove-mesto.html","72"
"12","Metro","Hlavní nádraží","https://mapy.cz/zakladni?x=14.4338300769&y=50.0832594737&z=17&source=pubt&id=18076141","206"
"13","Vlak","Praha hlavní nádraží","https://mapy.cz/zakladni?x=14.4369820737851&y=50.082990005918&z=17&source=pubt&id=15212548","432"
"14","Lékař","MUDr. Martin Theimer","https://www.firmy.cz/detail/383899-mudr-martin-theimer-praha-nove-mesto.html","251"
"15","Obchod","DESIRRED","https://www.firmy.cz/detail/483472-desirred-praha-nove-mesto.html","322"
"16","Pošta","Česká pošta, s.p.","https://www.firmy.cz/detail/198930-ceska-posta-praha-nove-mesto.html","144"
"17","Školka","Mateřská škola Opletalova","https://www.firmy.cz/detail/193435-materska-skola-opletalova-praha-nove-mesto.html","237"
"18","Bus MHD","Hlavní nádraží","https://mapy.cz/zakladni?x=14.4345783272&y=50.0832333522&z=17&source=pubt&id=15303983","259"
"19","Restaurace","Restaurant Sherwood","https://www.firmy.cz/detail/2104292-restaurant-sherwood-praha-nove-mesto.html","85"
