"","facility_type","facility_name","facility_iri","facility_distance"
"0","Cukrárna","Road Bar Café","https://www.firmy.cz/detail/13034334-road-bar-cafe-opocno.html","160"
"1","Kino","Kino 70","https://www.firmy.cz/detail/396547-kino-70-dobruska.html","4156"
"2","Hřiště","Dětské hřiště","","184"
"3","Večerka","Konzum Market","https://www.firmy.cz/detail/13197578-konzum-market-opocno.html","94"
"4","Hospoda","Pohostinství Trnov","https://www.firmy.cz/detail/13114131-pohostinstvi-trnov-trnov.html","4401"
"5","Divadlo","Sdružení kulturních aktivit Opočna - Divadlo Kodym","https://www.firmy.cz/detail/12968690-sdruzeni-kulturnich-aktivit-opocna-divadlo-kodym-opocno.html","221"
"6","Veterinář","Veterinární ordinace ARGO - MVDr. Jaroslav Šedivý","https://www.firmy.cz/detail/12906928-veterinarni-ordinace-argo-mvdr-jaroslav-sedivy-opocno.html","285"
"7","Pošta","Pošta Opočno - Česká pošta, s.p.","https://www.firmy.cz/detail/215684-posta-opocno-opocno.html","50"
"8","Vlak","Opočno pod Orlickými horami","","2259"
"9","Škola","ZŠ Opočno","https://www.firmy.cz/detail/2205649-zs-opocno-opocno.html","35"
"10","Lékárna","Lékárna U Zámku","https://www.firmy.cz/detail/658085-lekarna-u-zamku-opocno.html","212"
"11","Sportoviště","Koupaliště Broumar","https://www.firmy.cz/detail/12946635-koupaliste-broumar-opocno.html","1113"
"12","Restaurace","Restaurace Praha","https://www.firmy.cz/detail/12756482-restaurace-praha-opocno.html","0"
"13","Lékař","MUDr. Leoš Žďánský","https://www.firmy.cz/detail/13288316-mudr-leos-zdansky-opocno.html","208"
"14","Bus MHD","Opočno, nám.","","129"
"15","Školka","ZŠ a MŠ Přepychy","https://www.firmy.cz/detail/741294-zs-a-ms-prepychy-prepychy.html","2737"
"16","Bankomat","Bankomat České spořitelny","https://www.firmy.cz/detail/593754-bankomat-ceske-sporitelny-opocno.html","169"
