"","facility_type","facility_name","facility_iri","facility_distance"
"0","Cukrárna","Cukrárna Toffi","https://www.firmy.cz/detail/13311098-cukrarna-toffi-brno-bystrc.html","293"
"1","Přírodní zajímavost","Koniklecová louka","","5014"
"2","Hřiště","Dětské hřiště Kuršova","","99"
"3","Večerka","Můjobchod - Potraviny Midani","https://www.firmy.cz/detail/13164017-mujobchod-potraviny-midani-brno-bystrc.html","212"
"4","Hospoda","Pivnice U Sama","https://www.firmy.cz/detail/13031157-pivnice-u-sama-brno-bystrc.html","173"
"5","Veterinář","Domácí zvěrolékař - MVDr.Ivana Kašpárková","https://www.firmy.cz/detail/12917058-domaci-zverolekar-mvdr-ivana-kasparkova-brno-bystrc.html","314"
"6","Pošta","Pošta Brno 35 - Česká pošta, s.p.","https://www.firmy.cz/detail/794875-posta-brno-35-brno-bystrc.html","886"
"7","Lékař","MUDr. Milena Rigasová","https://www.firmy.cz/detail/1350756-mudr-milena-rigasova-brno-bystrc.html","180"
"8","Sportoviště","SUNFIT studio Petry Moudré","https://www.firmy.cz/detail/2102091-sunfit-studio-petry-moudre-brno-bystrc.html","626"
"9","Bus MHD","Ečerova","","182"
"10","Škola","Gymnázium Brno-Bystrc","https://www.firmy.cz/detail/362298-gymnazium-brno-bystrc-brno-bystrc.html","556"
"11","Restaurace","Restaurace Bystrcká Oáza","https://www.firmy.cz/detail/12985514-restaurace-bystrcka-oaza-brno-bystrc.html","180"
"12","Tram","Ečerova","","166"
"13","Lékárna","Lékárna Lýskova","https://www.firmy.cz/detail/13303119-lekarna-lyskova-brno-bystrc.html","180"
"14","Bankomat","Bankomat Komerční banky","https://www.firmy.cz/detail/12981646-bankomat-komercni-banky-brno-bystrc.html","272"
"15","Obchod","OC MAX s.r.o.","https://www.firmy.cz/detail/13171099-oc-max-s-r-o-brno-bystrc.html","899"
"16","Školka","MŠ Duha, Brno","https://www.firmy.cz/detail/406856-ms-duha-brno-brno-bystrc.html","480"
