"","facility_type","facility_name","facility_iri","facility_distance"
"0","Cukrárna","Golden Pacific Café","https://www.firmy.cz/detail/12863140-golden-pacific-cafe-praha-jinonice.html","1990"
"1","Kino","CineStar Anděl","https://www.firmy.cz/detail/2537565-cinestar-andel-praha-smichov.html","2166"
"2","Přírodní zajímavost","Kovářovic mez","","2030"
"3","Hřiště","Dětské hřiště Peroutkova","","83"
"4","Večerka","Albert Supermarket","https://www.firmy.cz/detail/209468-albert-supermarket-praha-smichov.html","1099"
"5","Divadlo","Divadlo Orfeus","https://www.firmy.cz/detail/413053-divadlo-orfeus-praha-kosire.html","1674"
"6","Hospoda","Hospůdka Knoflík","https://www.firmy.cz/detail/2253647-hospudka-knoflik-praha-smichov.html","2294"
"7","Veterinář","Veterinární klinika - MVDr. Pavel Santar, MVDr. Miloš Sedlář","https://www.firmy.cz/detail/596786-veterinarni-klinika-mvdr-pavel-santar-mvdr-milos-sedlar-praha-kosire.html","540"
"8","Tram","Radlická","","783"
"9","Lékárna","Na Cihlářce","https://www.firmy.cz/detail/375354-na-cihlarce-praha-smichov.html","1275"
"10","Restaurace","Restaurace Na Farkáně","https://www.firmy.cz/detail/1973810-restaurace-na-farkane-praha-radlice.html","231"
"11","Škola","Tyršova ZŠ a MŠ Praha 5 - Jinonice","https://www.firmy.cz/detail/358992-tyrsova-zs-a-ms-praha-5-jinonice-praha-jinonice.html","934"
"12","Metro","Jinonice","","672"
"13","Lékař","MUDr. Stanislava Kubšová","https://www.firmy.cz/detail/389057-mudr-stanislava-kubsova-praha-kosire.html","1339"
"14","Sportoviště","TJ Vltava Praha","https://www.firmy.cz/detail/222150-tj-vltava-praha-praha-kosire.html","237"
"15","Školka","Mateřská škola Praha 5 - Košíře, Peroutkova","https://www.firmy.cz/detail/407402-materska-skola-praha-5-kosire-peroutkova-praha-kosire.html","633"
"16","Pošta","Pošta Praha 57 - Česká pošta, s.p.","https://www.firmy.cz/detail/216736-posta-praha-57-praha-jinonice.html","350"
"17","Bankomat","Bankomat Sberbank CZ","https://www.firmy.cz/detail/198891-bankomat-sberbank-cz-praha-jinonice.html","350"
"18","Bus MHD","U Waltrovky","","280"
"19","Obchod","OC Galerie Butovice","https://www.firmy.cz/detail/13318022-oc-galerie-butovice-praha-jinonice.html","2034"
"20","Vlak","Praha-Jinonice","","570"
