"","facility_type","facility_name","facility_iri","facility_distance"
"0","Cukrárna","Dětský bar Pepíno","https://www.firmy.cz/detail/307159-detsky-bar-pepino-chomutov.html","910"
"1","Kino","Letní kino Chomutov","https://www.firmy.cz/detail/2644649-letni-kino-chomutov-chomutov.html","963"
"2","Hřiště","Dětské hřiště Březenecká","","416"
"3","Večerka","NORMA","https://www.firmy.cz/detail/2182350-norma-chomutov.html","181"
"4","Divadlo","Městské divadlo Chomutov","https://www.firmy.cz/detail/2644644-mestske-divadlo-chomutov-chomutov.html","1514"
"5","Hospoda","Hospoda Kulečník Pool","https://www.firmy.cz/detail/13327617-hospoda-kulecnik-pool-chomutov.html","949"
"6","Veterinář","MVDr. Gabriela Jašurková Mikutová","https://www.firmy.cz/detail/1907835-mvdr-gabriela-jasurkova-mikutova-chomutov.html","1229"
"7","Obchod","Kaufland","https://www.firmy.cz/detail/12855793-kaufland-chomutov.html","1540"
"8","Bus MHD","Sportovní hala","","100"
"9","Lékárna","U Lípy","https://www.firmy.cz/detail/2356615-u-lipy-chomutov.html","228"
"10","Sportoviště","AFK LoKo Chomutov","https://www.firmy.cz/detail/13075778-afk-loko-chomutov-chomutov.html","144"
"11","Vlak","Chomutov město","","853"
"12","Restaurace","Restaurace Strikeland","https://www.firmy.cz/detail/2482572-restaurace-strikeland-chomutov.html","469"
"13","Školka","MŠ Chomutov, 17 lístopadu","https://www.firmy.cz/detail/1345664-ms-chomutov-17-listopadu-chomutov.html","171"
"14","Škola","ZŠ a MŠ Chomutov, 17. listopadu","https://www.firmy.cz/detail/357369-zs-a-ms-chomutov-17-listopadu-chomutov.html","220"
"15","Lékař","MUDr. Jana Hazemová","https://www.firmy.cz/detail/385916-mudr-jana-hazemova-chomutov.html","228"
"16","Bankomat","Bankomat Komerční banky","https://www.firmy.cz/detail/596380-bankomat-komercni-banky-chomutov.html","138"
"17","Pošta","Pošta Chomutov 4 - Česká pošta, s.p.","https://www.firmy.cz/detail/215278-posta-chomutov-4-chomutov.html","205"
