"","facility_type","facility_name","facility_iri","facility_distance"
"0","Cukrárna","Erhartova cukrárna","https://www.firmy.cz/detail/2121271-erhartova-cukrarna-praha-holesovice.html","131"
"1","Kino","Bio Oko","https://www.firmy.cz/detail/2586117-bio-oko-praha-holesovice.html","385"
"2","Hřiště","Dětské hřiště - Zvířata","","333"
"3","Večerka","BILLA","https://www.firmy.cz/detail/212076-billa-praha-holesovice.html","165"
"4","Hospoda","Pivnice U Pivoje","https://www.firmy.cz/detail/2231875-pivnice-u-pivoje-praha-holesovice.html","401"
"5","Divadlo","Pidivadlo","https://www.firmy.cz/detail/397282-pidivadlo-praha-holesovice.html","91"
"6","Veterinář","MVDr. Aleš Hlásný","https://www.firmy.cz/detail/1967608-mvdr-ales-hlasny-praha-bubenec.html","233"
"7","Restaurace","Restaurace U Skřetů","https://www.firmy.cz/detail/2224208-restaurace-u-skretu-praha-holesovice.html","139"
"8","Pošta","Pošta Praha 7 - Česká pošta, s.p.","https://www.firmy.cz/detail/216716-posta-praha-7-praha-holesovice.html","187"
"9","Školka","MŠ Praha 7, Nad Štolou","https://www.firmy.cz/detail/175986-ms-praha-7-nad-stolou-praha-holesovice.html","180"
"10","Bus MHD","Korunovační","","369"
"11","Škola","Gymnázium Praha 7, Nad Štolou","https://www.firmy.cz/detail/312013-gymnazium-praha-7-nad-stolou-praha-holesovice.html","269"
"12","Sportoviště","Bowling RADAVA","https://www.firmy.cz/detail/13032274-bowling-radava-praha-holesovice.html","247"
"13","Tram","Letenské náměstí","","130"
"14","Bankomat","Bankomat Komerční banky","https://www.firmy.cz/detail/596055-bankomat-komercni-banky-praha-holesovice.html","155"
"15","Vlak","Praha-Bubny","","1063"
"16","Metro","Vltavská","","937"
"17","Obchod","PALLADIUM Praha","https://www.firmy.cz/detail/2238095-palladium-praha-praha-nove-mesto.html","1146"
"18","Lékař","MUDr. Eva Křečková","https://www.firmy.cz/detail/1952580-mudr-eva-kreckova-praha-holesovice.html","34"
"19","Lékárna","Lékárna Veletržní, s.r.o.","https://www.firmy.cz/detail/581497-lekarna-veletrzni-praha-bubenec.html","232"
