"","facility_type","facility_name","facility_iri","facility_distance"
"0","Hřiště","Dětské hřiště Jarní","https://mapy.cz/zakladni?x=16.9990829236&y=49.2831081956&z=17&source=base&id=2095424","107"
"1","Večerka","HRUŠKA","https://www.firmy.cz/detail/12820128-hruska-vyskov-predmesti.html","248"
"2","Veterinář","Veterinární ordinace Jankari","https://www.firmy.cz/detail/12721655-veterinarni-ordinace-jankari-vyskov-predmesti.html","207"
"3","Cukrárna","Dětská kavárna Mochomůrka","https://www.firmy.cz/detail/13115450-detska-kavarna-mochomurka-vyskov-predmesti.html","356"
"4","Kino","Kino Sokolský dům","https://www.firmy.cz/detail/396607-kino-sokolsky-dum-vyskov-predmesti.html","770"
"5","Hospoda","Pivní bar Hybeška","https://www.firmy.cz/detail/12916473-pivni-bar-hybeska-vyskov.html","568"
"6","Divadlo","Divadlo Haná","https://www.firmy.cz/detail/661289-divadlo-hana-vyskov-mesto.html","495"
"7","Pošta","Pošta Vyškov 1 - Česká pošta, s.p.","https://www.firmy.cz/detail/432992-posta-vyskov-1-vyskov-predmesti.html","679"
"8","Lékárna","Tillova lékárna U Černého orla","https://www.firmy.cz/detail/13211018-tillova-lekarna-u-cerneho-orla-vyskov-mesto.html","479"
"9","Školka","MŠ Vyškov, Jarní","https://www.firmy.cz/detail/12914591-ms-vyskov-jarni-vyskov-predmesti.html","159"
"10","Bus MHD","Vyškov, Dukelská, nákup.stř.","https://mapy.cz/zakladni?x=17.001258847430563&y=49.28168922895055&z=17&source=pubt&id=15274426","261"
"11","Vlak","Vyškov na Moravě","https://mapy.cz/zakladni?x=16.9915824874&y=49.2785487538&z=17&source=pubt&id=15213324","637"
"12","Obchod","PRIOR ČESKÁ REPUBLIKA s.r.o.","https://www.firmy.cz/detail/1957024-prior-ceska-republika-s-r-o-vyskov-mesto.html","697"
"13","Lékař","PreDaT, s.r.o.","https://www.firmy.cz/detail/13274753-predat-vyskov-predmesti.html","449"
"14","Restaurace","Restaurace SEDMIČKA","https://www.firmy.cz/detail/13333525-restaurace-sedmicka-vyskov-predmesti.html","63"
"15","Sportoviště","Klub plaveckých sportů Vyškov","https://www.firmy.cz/detail/2656073-klub-plaveckych-sportu-vyskov-vyskov-predmesti.html","63"
"16","Bankomat","Bankomat Komerční banky","https://www.firmy.cz/detail/592226-bankomat-komercni-banky-vyskov-mesto.html","513"
"17","Škola","Gymnázium a Střední odborná škola zdravotnická a ekonomická Vyškov","https://www.firmy.cz/detail/360853-gymnazium-a-stredni-odborna-skola-zdravotnicka-a-ekonomicka-vyskov-vyskov-predmesti.html","437"
