"","facility_type","facility_name","facility_iri","facility_distance"
"0","Cukrárna","Cukrárna Poctivka","https://www.firmy.cz/detail/12925119-cukrarna-poctivka-kolin-ii.html","407"
"1","Kino","Kino 99","https://www.firmy.cz/detail/396396-kino-99-kolin-iv.html","1728"
"2","Hřiště","Dětské hřiště","","123"
"3","Večerka","Potraviny Andílek","https://www.firmy.cz/detail/13133779-potraviny-andilek-kolin-ii.html","451"
"4","Hospoda","Restaurace Letná","https://www.firmy.cz/detail/728377-restaurace-letna-kolin-ii.html","740"
"5","Divadlo","DIVADLO Kolín","https://www.firmy.cz/detail/230785-divadlo-kolin-kolin-iv.html","1745"
"6","Veterinář","MVDr. Lukáš Pánek - Veterinární klinika Elza","https://www.firmy.cz/detail/709172-mvdr-lukas-panek-veterinarni-klinika-elza-kolin-ii.html","818"
"7","Obchod","Kaufland","https://www.firmy.cz/detail/1445907-kaufland-kolin-ii.html","561"
"8","Školka","Mateřská škola Kolín II., Bachmačská","https://www.firmy.cz/detail/2108916-materska-skola-kolin-ii-bachmacska-kolin-ii.html","275"
"9","Lékárna","Dr.Max","https://www.firmy.cz/detail/2007068-dr-max-kolin-ii.html","531"
"10","Pošta","Pošta Kolín 1 - Česká pošta, s.p.","https://www.firmy.cz/detail/217257-posta-kolin-1-kolin-ii.html","1122"
"11","Sportoviště","TJ AGRO Kolín","https://www.firmy.cz/detail/2134935-tj-agro-kolin-kolin-ii.html","239"
"12","Lékař","MUDr. Veronika Fabianová","https://www.firmy.cz/detail/390258-mudr-veronika-fabianova-kolin-ii.html","658"
"13","Bus MHD","Kolín, U vodárny","","124"
"14","Vlak","Kolín zastávka","","1110"
"15","Restaurace","Restaurace Na Sídlišti 1962","https://www.firmy.cz/detail/316809-restaurace-na-sidlisti-1962-kolin-ii.html","375"
"16","Škola","Vyšší odborná škola misijní a teologická","https://www.firmy.cz/detail/362487-vyssi-odborna-skola-misijni-a-teologicka-kolin-ii.html","590"
"17","Bankomat","Bankomat MONETA Money Bank","https://www.firmy.cz/detail/13219133-bankomat-moneta-money-bank-kolin-ii.html","566"
