"","facility_type","facility_name","facility_iri","facility_distance"
"0","Cukrárna","Kavárna Sauro","https://www.firmy.cz/detail/249182-kavarna-sauro-novy-jicin.html","3990"
"1","Kino","Městské kulturní středisko Nový Jičín - Letní kino","https://www.firmy.cz/detail/13070482-mestske-kulturni-stredisko-novy-jicin-letni-kino-novy-jicin.html","3750"
"2","Přírodní zajímavost","Pikritový lom u Straníku","","3048"
"3","Hřiště","Dětské hřiště Starý Jičín u koupaliště","","255"
"4","Večerka","Jednota, spotřební družstvo v Hodoníně - COOP","https://www.firmy.cz/detail/12890114-jednota-spotrebni-druzstvo-v-hodonine-coop-stary-jicin.html","164"
"5","Divadlo","Beskydské divadlo","https://www.firmy.cz/detail/643853-beskydske-divadlo-novy-jicin.html","3761"
"6","Hospoda","Hospoda na zimáku","https://www.firmy.cz/detail/12961740-hospoda-na-zimaku-novy-jicin.html","3225"
"7","Veterinář","MVDr. Tomáš Malina","https://www.firmy.cz/detail/197502-mvdr-tomas-malina-senov-u-noveho-jicina.html","3785"
"8","Pošta","Pošta Starý Jičín - Česká pošta, s.p.","https://www.firmy.cz/detail/433614-posta-stary-jicin-stary-jicin.html","176"
"9","Bus MHD","Starý Jičín, nám.","","99"
"10","Školka","MŠ Starý Jičín","https://www.firmy.cz/detail/2333532-ms-stary-jicin-stary-jicin.html","149"
"11","Sportoviště","Orel jednota Starý Jičín - Vlčnov","https://www.firmy.cz/detail/1964594-orel-jednota-stary-jicin-vlcnov-stary-jicin.html","86"
"12","Obchod","Kaufland","https://www.firmy.cz/detail/1507041-kaufland-novy-jicin.html","3068"
"13","Restaurace","Starojická Pizza","https://www.firmy.cz/detail/2306857-starojicka-pizza-stary-jicin.html","154"
"14","Lékař","MUDr. Iveta Havlíková","https://www.firmy.cz/detail/2023783-mudr-iveta-havlikova-stary-jicin-vlcnov.html","318"
"15","Škola","ZŠ Starý Jičín","https://www.firmy.cz/detail/359456-zs-stary-jicin-stary-jicin.html","145"
"16","Bankomat","Bankomat Komerční banky","https://www.firmy.cz/detail/2685928-bankomat-komercni-banky-novy-jicin.html","3068"
"17","Vlak","Nový Jičín město","","4185"
"18","Lékárna","BENU Lékárna","https://www.firmy.cz/detail/13330127-benu-lekarna-novy-jicin.html","3068"
