"","facility_type","facility_name","facility_iri","facility_distance"
"0","Cukrárna","Golden Pacific Café","https://www.firmy.cz/detail/12863140-golden-pacific-cafe-praha-jinonice.html","1113"
"1","Kino","CineStar Anděl","https://www.firmy.cz/detail/2537565-cinestar-andel-praha-smichov.html","3042"
"2","Přírodní zajímavost","Kovářovic mez","","1214"
"3","Hřiště","Dětské hřiště Bochovská","","126"
"4","Večerka","Smíšené zboží U kříže 4","https://www.firmy.cz/detail/12889873-smisene-zbozi-u-krize-4-praha-jinonice.html","67"
"5","Hospoda","Restaurace Na zámyšli","https://www.firmy.cz/detail/12888232-restaurace-na-zamysli-praha-kosire.html","1775"
"6","Divadlo","Divadlo Glans","https://www.firmy.cz/detail/2343652-divadlo-glans-praha-stodulky.html","1604"
"7","Veterinář","Vetallia","https://www.firmy.cz/detail/13034780-vetallia-praha-jinonice.html","613"
"8","Bus MHD","Jinonice","","142"
"9","Bankomat","Bankomat České spořitelny","https://www.firmy.cz/detail/12894884-bankomat-ceske-sporitelny-praha-jinonice.html","216"
"10","Škola","Tyršova ZŠ a MŠ Praha 5 - Jinonice","https://www.firmy.cz/detail/358992-tyrsova-zs-a-ms-praha-5-jinonice-praha-jinonice.html","179"
"11","Školka","Tyršova ZŠ a MŠ Praha 5 - Jinonice","https://www.firmy.cz/detail/731218-tyrsova-zs-a-ms-praha-5-jinonice-praha-jinonice.html","51"
"12","Metro","Jinonice","","207"
"13","Restaurace","Restaurace Nová Hospoda","https://www.firmy.cz/detail/261813-restaurace-nova-hospoda-praha-jinonice.html","580"
"14","Pošta","Pošta Praha 57 - Česká pošta, s.p.","https://www.firmy.cz/detail/216736-posta-praha-57-praha-jinonice.html","558"
"15","Lékárna","Dr.Max","https://www.firmy.cz/detail/12726493-dr-max-praha-jinonice.html","1159"
"16","Lékař","MOJE AMBULANCE","https://www.firmy.cz/detail/2141126-moje-ambulance-praha-jinonice.html","1159"
"17","Obchod","OC Galerie Butovice","https://www.firmy.cz/detail/13318022-oc-galerie-butovice-praha-jinonice.html","1159"
"18","Tram","Radlická","","1590"
"19","Sportoviště","Sportovní klub Motorlet Praha","https://www.firmy.cz/detail/2404325-sportovni-klub-motorlet-praha-praha-jinonice.html","545"
"20","Vlak","Praha-Jinonice","","311"
