"","facility_type","facility_name","facility_iri","facility_distance"
"0","Cukrárna","Cukrárna Anděl","https://www.firmy.cz/detail/13175159-cukrarna-andel-stare-mesto.html","683"
"1","Kino","Kino Hvězda Uherské Hradiště","https://www.firmy.cz/detail/457216-kino-hvezda-uherske-hradiste-uherske-hradiste.html","2866"
"2","Přírodní zajímavost","Soutok Moravy a Olšavy","","4360"
"3","Hřiště","Dětské hřiště Úprkova","","426"
"4","Večerka","Potraviny Kouřímová","https://www.firmy.cz/detail/276035-potraviny-kourimova-stare-mesto.html","417"
"5","Divadlo","Slovácké divadlo Uherské Hradiště","https://www.firmy.cz/detail/396981-slovacke-divadlo-uherske-hradiste-uherske-hradiste.html","2106"
"6","Hospoda","Hospoda U Kokavců","https://www.firmy.cz/detail/13108646-hospoda-u-kokavcu-uherske-hradiste.html","1681"
"7","Veterinář","Veterinární ordinace, MVDr. František Luňák","https://www.firmy.cz/detail/156881-veterinarni-ordinace-mvdr-frantisek-lunak-stare-mesto.html","1821"
"8","Vlak","Staré Město u Uherského Hradiště","","1390"
"9","Lékárna","Lékárna Za Mlýnem, s.r.o.","https://www.firmy.cz/detail/12826941-lekarna-za-mlynem-s-r-o-stare-mesto.html","930"
"10","Sportoviště","TC Staré Město, z.s.","https://www.firmy.cz/detail/12966607-tc-stare-mesto-z-s-stare-mesto.html","513"
"11","Restaurace","Restaurace Svatoplukova 951","https://www.firmy.cz/detail/13135466-restaurace-svatoplukova-951-stare-mesto.html","510"
"12","Bus MHD","Staré Město, nadjezd Velehradská","","304"
"13","Školka","Miniškolka Rybníček","https://www.firmy.cz/detail/12966609-miniskolka-rybnicek-stare-mesto.html","513"
"14","Škola","Střední odborná škola a Gymnázium Staré Město","https://www.firmy.cz/detail/308639-stredni-odborna-skola-a-gymnazium-stare-mesto-stare-mesto.html","364"
"15","Pošta","Pošta Staré Město u Uherského Hradiště - Česká pošta, s.p.","https://www.firmy.cz/detail/433392-posta-stare-mesto-u-uherskeho-hradiste-stare-mesto.html","1066"
"16","Lékař","MUDr. Dalibor Houfek, s.r.o.","https://www.firmy.cz/detail/12862272-mudr-dalibor-houfek-stare-mesto.html","773"
"17","Bankomat","Bankomat České spořitelny","https://www.firmy.cz/detail/596114-bankomat-ceske-sporitelny-stare-mesto.html","1133"
"18","Obchod","Albert Hypermarket","https://www.firmy.cz/detail/12924540-albert-hypermarket-stare-mesto.html","1297"
