"","facility_type","facility_name","facility_iri","facility_distance"
"0","Hřiště","Dětské hřiště Schwaigrova","https://mapy.cz/zakladni?x=16.6241218805&y=49.1790040202&z=17&source=base&id=1927869","68"
"1","Přírodní zajímavost","Soutok Svratky a Svitavy","https://mapy.cz/zakladni?x=16.6281593578&y=49.1421947516&z=17&source=base&id=1982369","4051"
"2","Hospoda","Starobrněnská hospůdka","https://www.firmy.cz/detail/13302790-starobrnenska-hospudka-brno-horni-herspice.html","961"
"3","Večerka","POTRAVINY PEVAL PLUS s.r.o.","https://www.firmy.cz/detail/2627774-potraviny-peval-plus-s-r-o-brno-komarov.html","380"
"4","Divadlo","Malá Amerika","https://www.firmy.cz/detail/12926234-mala-amerika-brno-stare-brno.html","1584"
"5","Cukrárna","Karlova pekárna","https://www.firmy.cz/detail/2375127-karlova-pekarna-brno-komarov.html","419"
"6","Veterinář","Synobia care, s.r.o.","https://www.firmy.cz/detail/13078976-synobia-care-brno-komarov.html","442"
"7","Kino","5D cinema Maxim","https://www.firmy.cz/detail/12734839-5d-cinema-maxim-brno-mesto.html","1723"
"8","Restaurace","Restaurace BÍLÁ RŮŽE","https://www.firmy.cz/detail/13225069-restaurace-bila-ruze-brno-komarov.html","281"
"9","Lékař","MUDr. Ilona Pištěláková","https://www.firmy.cz/detail/386083-mudr-ilona-pistelakova-brno-komarov.html","256"
"10","Bus MHD","Černovická","https://mapy.cz/zakladni?x=16.6262496018157&y=49.1769562986276&z=17&source=pubt&id=15205065","208"
"11","Škola","ZŠ Brno, Tuháčkova","https://www.firmy.cz/detail/356546-zs-brno-tuhackova-brno-komarov.html","137"
"12","Pošta","Pošta Brno 17 - Česká pošta, s.p.","https://www.firmy.cz/detail/216019-posta-brno-17-brno-komarov.html","272"
"13","Vlak","Brno-Černovice","https://mapy.cz/zakladni?x=16.6312067531&y=49.1889655555&z=17&source=pubt&id=15698461","1248"
"14","Lékárna","Dr.Max LÉKÁRNA","https://www.firmy.cz/detail/12888664-dr-max-lekarna-brno-trnita.html","1133"
"15","Bankomat","Bankomat Komerční banky","https://www.firmy.cz/detail/12978187-bankomat-komercni-banky-brno-komarov.html","380"
"16","Školka","MŠ Brno, Klášterského","https://www.firmy.cz/detail/1355511-ms-brno-klasterskeho-brno-komarov.html","410"
"17","Sportoviště","Tělocvičná jednota Sokol Brno - Jih","https://www.firmy.cz/detail/2139171-telocvicna-jednota-sokol-brno-jih-brno-komarov.html","489"
"18","Tram","Konopná","https://mapy.cz/zakladni?x=16.6212657669&y=49.1797237134&z=17&source=pubt&id=15725093","286"
"19","Obchod","Galerie Vaňkovka","https://www.firmy.cz/detail/724154-galerie-vankovka-brno-trnita.html","1263"
