"","facility_type","facility_name","facility_iri","facility_distance"
"0","Hřiště","Dětské hřiště Sadová","https://mapy.cz/zakladni?x=18.2899003632&y=49.8467422509&z=17&source=base&id=1928982","1136"
"1","Přírodní zajímavost","Uhelná sloj v Landeku","https://mapy.cz/zakladni?x=18.2692044444&y=49.8672338889&z=17&source=base&id=1981598","3083"
"2","Hospoda","Hospoda V Korunce 108/14","https://www.firmy.cz/detail/13139601-hospoda-v-korunce-108-14-ostrava-hermanice.html","830"
"3","Cukrárna","Mléčný bar NAPROTI","https://www.firmy.cz/detail/2681012-mlecny-bar-naproti-ostrava-moravska-ostrava.html","1840"
"4","Večerka","Potraviny Nguyen","https://www.firmy.cz/detail/13333728-potraviny-nguyen-ostrava-muglinov.html","74"
"5","Veterinář","MVDr. Barbora Jelonková","https://www.firmy.cz/detail/1346648-mvdr-barbora-jelonkova-ostrava-muglinov.html","289"
"6","Kino","Minikino","https://www.firmy.cz/detail/669940-minikino-ostrava-moravska-ostrava.html","1857"
"7","Divadlo","Komorní scéna Aréna","https://www.firmy.cz/detail/396926-komorni-scena-arena-ostrava-moravska-ostrava.html","1633"
"8","Sportoviště","ČPP Aréna","https://www.firmy.cz/detail/12966160-cpp-arena-ostrava-muglinov.html","818"
"9","Bus MHD","Sídliště Muglinov","https://mapy.cz/zakladni?x=18.30580367383492&y=49.850653685496795&z=17&source=pubt&id=15202562","125"
"10","Obchod","Obchodní centrum LASO","https://www.firmy.cz/detail/2071391-obchodni-centrum-laso-ostrava-moravska-ostrava.html","1808"
"11","Pošta","Pošta Ostrava 12 - Česká pošta, s.p.","https://www.firmy.cz/detail/433413-posta-ostrava-12-ostrava-muglinov.html","35"
"12","Školka","MŠ Slezská Ostrava, Komerční","https://www.firmy.cz/detail/12903070-ms-slezska-ostrava-komercni-ostrava-muglinov.html","381"
"13","Lékárna","LÉKÁRNA MODRÝ PAVILON","https://www.firmy.cz/detail/659837-lekarna-modry-pavilon-ostrava-slezska-ostrava.html","772"
"14","Tram","Křižíkova","https://mapy.cz/zakladni?x=18.2803131619&y=49.8460895872&z=17&source=pubt&id=15202710","1802"
"15","Bankomat","Bankomat Komerční banky","https://www.firmy.cz/detail/12956874-bankomat-komercni-banky-ostrava.html","1378"
"16","Lékař","MUDr. Petra Šugarková","https://www.firmy.cz/detail/2221686-mudr-petra-sugarkova-ostrava-slezska-ostrava.html","424"
"17","Škola","ZŠ Ostrava-Muglinov, Pěší","https://www.firmy.cz/detail/358693-zs-ostrava-muglinov-pesi-ostrava-muglinov.html","259"
"18","Vlak","Ostrava-Stodolní","https://mapy.cz/zakladni?x=18.2809778624&y=49.8344412946&z=17&source=pubt&id=15213504","2493"
"19","Restaurace","Restaurace a pivnice Parlament","https://www.firmy.cz/detail/13333732-restaurace-a-pivnice-parlament-ostrava-muglinov.html","74"
