"","facility_type","facility_name","facility_iri","facility_distance"
"0","Cukrárna","Cukrárna a pekárna BEAS","https://www.firmy.cz/detail/13029560-cukrarna-a-pekarna-beas-rychnov-nad-kneznou.html","610"
"1","Kino","Městské kino Rychnov nad Kněžnou","https://www.firmy.cz/detail/12723414-mestske-kino-rychnov-nad-kneznou-rychnov-nad-kneznou.html","754"
"2","Hřiště","Dětské hřiště Na Drahách","","450"
"3","Večerka","BILLA","https://www.firmy.cz/detail/450533-billa-rychnov-nad-kneznou.html","142"
"4","Hospoda","Pivnice Klondike","https://www.firmy.cz/detail/13111587-pivnice-klondike-rychnov-nad-kneznou.html","669"
"5","Divadlo","Pelclovo divadlo","https://www.firmy.cz/detail/661454-pelclovo-divadlo-rychnov-nad-kneznou.html","825"
"6","Veterinář","SPOVET, v.o.s.","https://www.firmy.cz/detail/688885-spovet-rychnov-nad-kneznou.html","362"
"7","Lékárna","Dr.Max LÉKÁRNA","https://www.firmy.cz/detail/12888719-dr-max-lekarna-rychnov-nad-kneznou.html","390"
"8","Restaurace","Restaurace Draha","https://www.firmy.cz/detail/2628342-restaurace-draha-rychnov-nad-kneznou.html","390"
"9","Pošta","Pošta Depo Rychnov nad Kněžnou 70","https://www.firmy.cz/detail/13162850-posta-depo-rychnov-nad-kneznou-70-rychnov-nad-kneznou.html","681"
"10","Školka","MŠ Klíček, Rychnov nad Kněžnou","https://www.firmy.cz/detail/2321684-ms-klicek-rychnov-nad-kneznou-rychnov-nad-kneznou.html","455"
"11","Sportoviště","Katastrofa Rychnov nad Kněžnou","https://www.firmy.cz/detail/1041920-katastrofa-rychnov-nad-kneznou-rychnov-nad-kneznou.html","131"
"12","Škola","ZŠ Rychnov nad Kněžnou, Javornická","https://www.firmy.cz/detail/396295-zs-rychnov-nad-kneznou-javornicka-rychnov-nad-kneznou.html","491"
"13","Vlak","Rychnov nad Kněžnou","","717"
"14","Bus MHD","Rychnov nad Kněžnou, Mírová","","91"
"15","Lékař","MUDr. Hana Rathouská","https://www.firmy.cz/detail/12979707-mudr-hana-rathouska-rychnov-nad-kneznou.html","461"
"16","Obchod","Tesco","https://www.firmy.cz/detail/1696264-tesco-rychnov-nad-kneznou.html","630"
"17","Bankomat","Bankomat Fio banky","https://www.firmy.cz/detail/13089770-bankomat-fio-banky-rychnov-nad-kneznou.html","367"
