"","facility_type","facility_name","facility_iri","facility_distance"
"0","Cukrárna","Sweet Secret of raw","https://www.firmy.cz/detail/13048909-sweet-secret-of-raw-ostrava-moravska-ostrava.html","13"
"1","Kino","Cinema City Ostrava","https://www.firmy.cz/detail/12766782-cinema-city-ostrava-ostrava-moravska-ostrava.html","176"
"2","Hřiště","Dětské hřiště","","82"
"3","Přírodní zajímavost","Zábřežský bludný balvan","","4262"
"4","Večerka","NÁKUPNÍ CENTRUM GLOBAL","https://www.firmy.cz/detail/264258-nakupni-centrum-global-ostrava-moravska-ostrava.html","365"
"5","Hospoda","U Zrzavé Mary","https://www.firmy.cz/detail/574097-u-zrzave-mary-ostrava-moravska-ostrava.html","466"
"6","Divadlo","Divadlo Antonína Dvořáka","https://www.firmy.cz/detail/397048-divadlo-antonina-dvoraka-ostrava-moravska-ostrava.html","388"
"7","Veterinář","Veterinární ordinace - MVDr. Richard Saviola","https://www.firmy.cz/detail/477150-veterinarni-ordinace-mvdr-richard-saviola-ostrava-moravska-ostrava.html","866"
"8","Školka","MŠ Ostrava, Poděbradova","https://www.firmy.cz/detail/2322511-ms-ostrava-podebradova-ostrava-moravska-ostrava.html","528"
"9","Vlak","Ostrava střed","","313"
"10","Lékárna","Lékárna Rezidence Nová Karolína","https://www.firmy.cz/detail/199468-lekarna-rezidence-nova-karolina-ostrava-moravska-ostrava.html","85"
"11","Pošta","Pošta Ostrava 39 - Česká pošta, s.p.","https://www.firmy.cz/detail/433389-posta-ostrava-39-ostrava-moravska-ostrava.html","437"
"12","Tram","Karolina","","273"
"13","Bankomat","Bankomat MONETA Money Bank","https://www.firmy.cz/detail/12728599-bankomat-moneta-money-bank-ostrava-moravska-ostrava.html","33"
"14","Bus MHD","Hotel Palace","","189"
"15","Škola","NEWPORT INTERNATIONAL UNIVERSITY, s.r.o.","https://www.firmy.cz/detail/586886-newport-international-university-ostrava-moravska-ostrava.html","672"
"16","Obchod","Forum Nová Karolina","https://www.firmy.cz/detail/13040093-forum-nova-karolina-ostrava-moravska-ostrava.html","107"
"17","Lékař","MUDr. Jarmila Fialová","https://www.firmy.cz/detail/370609-mudr-jarmila-fialova-ostrava-moravska-ostrava.html","577"
"18","Sportoviště","Trojhalí Karolina","https://www.firmy.cz/detail/12973615-trojhali-karolina-ostrava-moravska-ostrava.html","197"
"19","Restaurace","Frankie's Pub","https://www.firmy.cz/detail/13272925-frankie-s-pub-ostrava-moravska-ostrava.html","13"
