"","facility_type","facility_name","facility_iri","facility_distance"
"0","Cukrárna","Cukrárna ve Zdibech","https://www.firmy.cz/detail/12788601-cukrarna-ve-zdibech-zdiby-veltez.html","1042"
"1","Kino","Cinema City Letňany","https://www.firmy.cz/detail/2679833-cinema-city-letnany-praha-letnany.html","4607"
"2","Hřiště","Dětské hřiště Veltěž","","758"
"3","Večerka","Můjobchod - Potraviny Kříž","https://www.firmy.cz/detail/2230058-mujobchod-potraviny-kriz-zdiby-veltez.html","940"
"4","Hospoda","U Řeháků","https://www.firmy.cz/detail/13037755-u-rehaku-zdiby-veltez.html","940"
"5","Divadlo","DIVOCH","https://www.firmy.cz/detail/13026405-divoch-praha-dolni-chabry.html","1784"
"6","Veterinář","Veterinární ordinace MVDr. František Břeň","https://www.firmy.cz/detail/639079-veterinarni-ordinace-mvdr-frantisek-bren-praha-dablice.html","3154"
"7","Bankomat","Bankomat MONETA Money Bank","https://www.firmy.cz/detail/13047022-bankomat-moneta-money-bank-zdiby.html","1470"
"8","Restaurace","Restaurace Na Celnici","https://www.firmy.cz/detail/13138053-restaurace-na-celnici-zdiby.html","0"
"9","Lékař","VE ZDRAVÍ, s.r.o.","https://www.firmy.cz/detail/13292189-ve-zdravi-zdiby-veltez.html","1177"
"10","Tram","Vozovna Kobylisy","","3252"
"11","Školka","ZŠ Zdiby","https://www.firmy.cz/detail/442771-zs-zdiby-zdiby-veltez.html","1216"
"12","Pošta","Pošta Zdiby - Česká pošta, s.p.","https://www.firmy.cz/detail/216805-posta-zdiby-zdiby-veltez.html","822"
"13","Sportoviště","Koupaliště Zdiby","https://www.firmy.cz/detail/13249586-koupaliste-zdiby-zdiby.html","1189"
"14","Lékárna","OOVL - L Kbely","https://www.firmy.cz/detail/2663530-oovl-l-kbely-praha-dolni-chabry.html","1745"
"15","Obchod","Nákupní centrum ODRA","https://www.firmy.cz/detail/221986-nakupni-centrum-odra-praha-bohnice.html","4018"
"16","Bus MHD","Zdiby, U celnice","","99"
"17","Vlak","Roztoky u Prahy","","3791"
"18","Metro","Ládví","","4127"
"19","Škola","ZŠ Zdiby","https://www.firmy.cz/detail/360197-zs-zdiby-zdiby-veltez.html","1177"
