"","facility_type","facility_name","facility_iri","facility_distance"
"0","Cukrárna","Lahůdky na Starém náměstí","https://www.firmy.cz/detail/13123261-lahudky-na-starem-namesti-ceska-trebova.html","58"
"1","Kino","Kino Svět","https://www.firmy.cz/detail/396476-kino-svet-ceska-trebova.html","304"
"2","Hřiště","Dětské hřiště Trávník","","471"
"3","Večerka","KONZUM, obchodní družstvo v Ústí nad Orlicí - COOP","https://www.firmy.cz/detail/2133792-konzum-obchodni-druzstvo-v-usti-nad-orlici-coop-ceska-trebova.html","243"
"4","Hospoda","Hospůdka U Gregarů","https://www.firmy.cz/detail/13111215-hospudka-u-gregaru-ceska-trebova.html","159"
"5","Veterinář","MVDr. Hana Nováková","https://www.firmy.cz/detail/475817-mvdr-hana-novakova-ceska-trebova.html","53"
"6","Sportoviště","Orel jednota Česká Třebová","https://www.firmy.cz/detail/1960549-orel-jednota-ceska-trebova-ceska-trebova.html","433"
"7","Škola","Základní škola Česká Třebová, Nádražní ulice","https://www.firmy.cz/detail/356725-zakladni-skola-ceska-trebova-nadrazni-ulice-ceska-trebova.html","189"
"8","Bankomat","Bankomat UniCredit Bank Czech Republic","https://www.firmy.cz/detail/12963625-bankomat-unicredit-bank-czech-republic-ceska-trebova.html","60"
"9","Bus MHD","Česká Třebová, na Zámostí","","212"
"10","Školka","MŠ Česká Třebová, Habrmanova","https://www.firmy.cz/detail/2152731-ms-ceska-trebova-habrmanova-ceska-trebova.html","320"
"11","Pošta","Pošta Partner Česká Třebová","https://www.firmy.cz/detail/13207549-posta-partner-ceska-trebova-ceska-trebova.html","243"
"12","Lékař","POLIKLINIKA AGEL","https://www.firmy.cz/detail/477686-poliklinika-agel-ceska-trebova.html","438"
"13","Vlak","Česká Třebová","","520"
"14","Lékárna","Lékárna Anna, s.r.o.","https://www.firmy.cz/detail/13035467-lekarna-anna-ceska-trebova.html","266"
"15","Restaurace","Restaurace Bravo","https://www.firmy.cz/detail/1695965-restaurace-bravo-ceska-trebova.html","12"
"16","Obchod","Kaufland","https://www.firmy.cz/detail/12700904-kaufland-ceska-trebova-parnik.html","1243"
