"","facility_type","facility_name","facility_iri","facility_distance"
"0","Cukrárna","Výroba cukroví a studená kuchyně Kuncovi","https://www.firmy.cz/detail/680011-vyroba-cukrovi-a-studena-kuchyne-kuncovi-brno-malomerice.html","396"
"1","Kino","Kino Art","https://www.firmy.cz/detail/451540-kino-art-brno-veveri.html","3532"
"2","Přírodní zajímavost","Cesta rákosím","","2403"
"3","Hřiště","Dětské hřiště Cacovický mlýn","","214"
"4","Večerka","BILLA","https://www.firmy.cz/detail/13183975-billa-brno.html","171"
"5","Hospoda","Hospůdka U Koudelků","https://www.firmy.cz/detail/13112301-hospudka-u-koudelku-brno-lesna.html","1045"
"6","Veterinář","MVDr. Jana Králová","https://www.firmy.cz/detail/2608020-mvdr-jana-kralova-brno-malomerice.html","598"
"7","Divadlo","Kuk & Cuk","https://www.firmy.cz/detail/2569671-kuk-cuk-brno-lesna.html","979"
"8","Tram","Obřanská - u školy","","246"
"9","Škola","ZŠ Brno, Hamry","https://www.firmy.cz/detail/356489-zs-brno-hamry-brno-malomerice.html","235"
"10","Pošta","Pošta Brno 22 - Česká pošta, s.p.","https://www.firmy.cz/detail/431924-posta-brno-22-brno-obrany.html","878"
"11","Školka","Mezinárodní Montessori Mateřská škola Perlička, s.r.o.","https://www.firmy.cz/detail/680111-mezinarodni-montessori-materska-skola-perlicka-brno-obrany.html","766"
"12","Sportoviště","Tělocvičná jednota Sokol Brno - Obřany - Maloměřice","https://www.firmy.cz/detail/2139108-telocvicna-jednota-sokol-brno-obrany-malomerice-brno-malomerice.html","222"
"13","Bus MHD","Obřanský most","","678"
"14","Vlak","Brno-Lesná","","1172"
"15","Bankomat","Bankomat Komerční banky","https://www.firmy.cz/detail/13285273-bankomat-komercni-banky-brno-lesna.html","1183"
"16","Restaurace","Pohádková Pizzerie","https://www.firmy.cz/detail/12774584-pohadkova-pizzerie-brno-malomerice.html","537"
"17","Lékárna","Lékárna Selská","https://www.firmy.cz/detail/13210345-lekarna-selska-brno-malomerice.html","357"
"18","Obchod","Kaufland","https://www.firmy.cz/detail/1352864-kaufland-brno-zidenice.html","2353"
"19","Lékař","MUDr. Marcela Suchá","https://www.firmy.cz/detail/388741-mudr-marcela-sucha-brno-malomerice.html","647"
