"","facility_type","facility_name","facility_iri","facility_distance"
"0","Cukrárna","NM DESSERTS","https://www.firmy.cz/detail/13274778-nm-desserts-olomouc-neredin.html","682"
"1","Kino","Kino METROPOL","https://www.firmy.cz/detail/12773593-kino-metropol-olomouc.html","1117"
"2","Hřiště","Dětské hřiště Balbínova","","644"
"3","Večerka","Potraviny U Renči","https://www.firmy.cz/detail/13113867-potraviny-u-renci-olomouc-nova-ulice.html","182"
"4","Hospoda","Hospůdka U Kuděje","https://www.firmy.cz/detail/13124006-hospudka-u-kudeje-olomouc-nova-ulice.html","810"
"5","Divadlo","Divadlo Tramtarie","https://www.firmy.cz/detail/594401-divadlo-tramtarie-olomouc-nova-ulice.html","643"
"6","Veterinář","Veterinární klinika MVDr. Michael Mazoch, s.r.o.","https://www.firmy.cz/detail/12906915-veterinarni-klinika-mvdr-michael-mazoch-s-r-o-olomouc-neredin.html","615"
"7","Vlak","Olomouc-Hejčín","","340"
"8","Škola","Gymnázium, Olomouc - Hejčín","https://www.firmy.cz/detail/360956-gymnazium-olomouc-hejcin-olomouc-hejcin.html","353"
"9","Restaurace","Hostinec U Anči","https://www.firmy.cz/detail/13250002-hostinec-u-anci-olomouc-hejcin.html","308"
"10","Školka","MŠ Sedmikráska Olomouc","https://www.firmy.cz/detail/407205-ms-sedmikraska-olomouc-olomouc-nova-ulice.html","425"
"11","Obchod","OD TIMPO, s.r.o.","https://www.firmy.cz/detail/642623-od-timpo-olomouc-nova-ulice.html","913"
"12","Sportoviště","Česká asociace pohybem ke zdraví z.s.","https://www.firmy.cz/detail/12929537-ceska-asociace-pohybem-ke-zdravi-z-s-olomouc-hejcin.html","353"
"13","Bus MHD","Gymnázium Hejčín","","158"
"14","Lékárna","Lékárna V Ušáku","https://www.firmy.cz/detail/2603991-lekarna-v-usaku-olomouc-nova-ulice.html","553"
"15","Tram","Šibeník","","301"
"16","Lékař","MUDr. Olga Smékalová","https://www.firmy.cz/detail/390216-mudr-olga-smekalova-olomouc-nova-ulice.html","553"
"17","Bankomat","Bankomat Komerční banky","https://www.firmy.cz/detail/594311-bankomat-komercni-banky-olomouc-nova-ulice.html","279"
"18","Pošta","Pošta Olomouc 9 - Česká pošta, s.p.","https://www.firmy.cz/detail/432298-posta-olomouc-9-olomouc-hejcin.html","403"
