"","facility_type","facility_name","facility_iri","facility_distance"
"0","Hřiště","Dětské hřiště Jurkovičova","https://mapy.cz/zakladni?x=14.5285249198&y=50.0270667905&z=17&source=base&id=1926439","229"
"1","Večerka","NORMA","https://www.firmy.cz/detail/2182172-norma-praha-haje.html","458"
"2","Hospoda","Hospoda Severka","https://www.firmy.cz/detail/13240896-hospoda-severka-praha-chodov.html","702"
"3","Cukrárna","Cukrárna Amarilis","https://www.firmy.cz/detail/2570922-cukrarna-amarilis-praha-haje.html","759"
"4","Veterinář","Veterinární ambulance AA-Vet","https://www.firmy.cz/detail/646998-veterinarni-ambulance-aa-vet-praha-chodov.html","531"
"5","Kino","Cinema City Chodov","https://www.firmy.cz/detail/13098016-cinema-city-chodov-praha-chodov.html","2793"
"6","Divadlo","SKAZKA, spol. s r.o.","https://www.firmy.cz/detail/2048564-skazka-praha-hostivar.html","2314"
"7","Přírodní zajímavost","Mokřad Triangl","https://mapy.cz/zakladni?x=14.5188041667&y=50.0615525&z=17&source=base&id=1981356","4124"
"8","Bus MHD","Milíčov","https://mapy.cz/zakladni?x=14.5306804336&y=50.0269711961&z=17&source=pubt&id=15301478","260"
"9","Lékař","MUDr. Vladimíra Sladká","https://www.firmy.cz/detail/383552-mudr-vladimira-sladka-praha-chodov.html","521"
"10","Škola","SOŠ multimediální a propagační tvorby, s.r.o.","https://www.firmy.cz/detail/149327-sos-multimedialni-a-propagacni-tvorby-praha-chodov.html","199"
"11","Sportoviště","Hřiště na pétanque","https://mapy.cz/zakladni?x=14.5269141667&y=50.0286511111&z=17&source=base&id=2131776","424"
"12","Školka","MŠ Praha 4, Sulanského","https://www.firmy.cz/detail/2265592-ms-praha-4-sulanskeho-praha-haje.html","359"
"13","Restaurace","Šenkýrna Pražanka","https://www.firmy.cz/detail/2384585-senkyrna-prazanka-praha-chodov.html","316"
"14","Obchod","Obchodní centrum Háje","https://www.firmy.cz/detail/13272506-obchodni-centrum-haje-praha-haje.html","729"
"15","Pošta","Pošta Praha 419 - Česká pošta, s.p.","https://www.firmy.cz/detail/217471-posta-praha-419-praha-haje.html","750"
"16","Tram","Hostivařská","https://mapy.cz/zakladni?x=14.5303773820023&y=50.0526771965596&z=17&source=pubt&id=15303105","3079"
"17","Vlak","Praha-Hostivař","https://mapy.cz/zakladni?x=14.5382405134&y=50.0550223431&z=17&source=pubt&id=15212564","3406"
"18","Metro","Háje","https://mapy.cz/zakladni?x=14.5266157644&y=50.0305410696&z=17&source=pubt&id=15206915","633"
"19","Bankomat","Bankomat České spořitelny","https://www.firmy.cz/detail/2464015-bankomat-ceske-sporitelny-praha-haje.html","631"
"20","Lékárna","Magistra Lékárna Opatov","https://www.firmy.cz/detail/12925684-magistra-lekarna-opatov-praha-chodov.html","532"
