"","facility_type","facility_name","facility_iri","facility_distance"
"0","Cukrárna","Helen's coffee Hůrka","https://www.firmy.cz/detail/13278629-helen-s-coffee-hurka-praha-stodulky.html","114"
"1","Přírodní zajímavost","Kovářovic mez","","1429"
"2","Kino","Cinema City Zličín","https://www.firmy.cz/detail/436222-cinema-city-zlicin-praha-trebonice.html","4016"
"3","Hřiště","Dětské hřiště Petržílkova","","139"
"4","Večerka","Potraviny Lotus","https://www.firmy.cz/detail/13056951-potraviny-lotus-praha-stodulky.html","103"
"5","Hospoda","TENET Marketing, s.r.o.","https://www.firmy.cz/detail/13159642-tenet-marketing-praha-stodulky.html","236"
"6","Divadlo","Divadlo Glans","https://www.firmy.cz/detail/2343652-divadlo-glans-praha-stodulky.html","308"
"7","Veterinář","Veterinární klinika Na Vyhlídce, s.r.o.","https://www.firmy.cz/detail/13012801-veterinarni-klinika-na-vyhlidce-praha-stodulky.html","344"
"8","Školka","MŠ Praha 13, Mezi Školami","https://www.firmy.cz/detail/1974344-ms-praha-13-mezi-skolami-praha-stodulky.html","189"
"9","Lékař","DIONA s.r.o.","https://www.firmy.cz/detail/13046936-diona-s-r-o-praha-stodulky.html","0"
"10","Lékárna","Lékárna Poliklinika Hůrka, s.r.o.","https://www.firmy.cz/detail/13293068-lekarna-poliklinika-hurka-praha-stodulky.html","0"
"11","Škola","Fakultní ZŠ Pedagogické fakulty UK, Praha, Mezi Školami","https://www.firmy.cz/detail/396312-fakultni-zs-pedagogicke-fakulty-uk-praha-mezi-skolami-praha-stodulky.html","259"
"12","Bus MHD","Hůrka","","136"
"13","Metro","Hůrka","","135"
"14","Bankomat","Bankomat ČSOB","https://www.firmy.cz/detail/599623-bankomat-csob-praha-stodulky.html","51"
"15","Pošta","Pošta Praha 58 - Česká pošta, s.p.","https://www.firmy.cz/detail/216735-posta-praha-58-praha-stodulky.html","185"
"16","Sportoviště","Discgolf Stodůlky","","732"
"17","Restaurace","Restaurace Na Výsluní","https://www.firmy.cz/detail/2072247-restaurace-na-vysluni-praha-stodulky.html","76"
"18","Obchod","Kaufland","https://www.firmy.cz/detail/1356298-kaufland-praha-stodulky.html","598"
"19","Tram","Vozovna Motol","","1960"
"20","Vlak","Praha-Stodůlky","","1336"
