"","facility_type","facility_name","facility_iri","facility_distance"
"0","Cukrárna","Café Coffee Day","https://www.firmy.cz/detail/650529-cafe-coffee-day-praha-smichov.html","486"
"1","Kino","CineStar Anděl","https://www.firmy.cz/detail/2537565-cinestar-andel-praha-smichov.html","505"
"2","Hřiště","Dětské hřiště park Sacré Coeur","","284"
"3","Přírodní zajímavost","Kovářovic mez","","4071"
"4","Večerka","Tuyen Le Thi - OVOCE ZELENINA","https://www.firmy.cz/detail/2464821-tuyen-le-thi-ovoce-zelenina-praha-kosire.html","481"
"5","Hospoda","Hospůdka Knoflík","https://www.firmy.cz/detail/2253647-hospudka-knoflik-praha-smichov.html","750"
"6","Divadlo","Divadlo Orfeus","https://www.firmy.cz/detail/413053-divadlo-orfeus-praha-kosire.html","471"
"7","Veterinář","MVDr. Jana Lukešová","https://www.firmy.cz/detail/473617-mvdr-jana-lukesova-praha-smichov.html","672"
"8","Sportoviště","MaxLasergame, s.r.o.","https://www.firmy.cz/detail/12740237-maxlasergame-praha-smichov.html","246"
"9","Bus MHD","Holečkova","","104"
"10","Pošta","Pošta Praha 53 - Česká pošta, s.p.","https://www.firmy.cz/detail/431282-posta-praha-53-praha-smichov.html","602"
"11","Škola","ZŠ a MŠ Praha 5, Grafická","https://www.firmy.cz/detail/356194-zs-a-ms-praha-5-graficka-praha-smichov.html","35"
"12","Restaurace","Ristorante Il Giardino Toscano","https://www.firmy.cz/detail/329762-ristorante-il-giardino-toscano-praha-smichov.html","373"
"13","Vlak","Praha-Smíchov severní nást.","","1342"
"14","Obchod","Tesco","https://www.firmy.cz/detail/733908-tesco-praha-smichov.html","489"
"15","Školka","Střední škola, ZŠ a MŠ pro sluchově postižené Praha 5","https://www.firmy.cz/detail/2196419-stredni-skola-zs-a-ms-pro-sluchove-postizene-praha-5-praha-smichov.html","368"
"16","Lékař","Program Health Plus","https://www.firmy.cz/detail/2549537-program-health-plus-praha-smichov.html","422"
"17","Metro","Anděl","","684"
"18","Tram","Bertramka","","180"
"19","Lékárna","EUC Lékárna Kartouzská","https://www.firmy.cz/detail/13162323-euc-lekarna-kartouzska-praha-smichov.html","467"
"20","Bankomat","Bankomat ČSOB","https://www.firmy.cz/detail/636703-bankomat-csob-praha-smichov.html","523"
