"","facility_type","facility_name","facility_iri","facility_distance"
"0","Cukrárna","Cukrárna Snídejte šampaňské","https://www.firmy.cz/detail/2628551-cukrarna-snidejte-sampanske-praha-modrany.html","1415"
"1","Kino","Modřanský biograf","https://www.firmy.cz/detail/13272765-modransky-biograf-praha-modrany.html","1421"
"2","Hřiště","Dětské hřiště U Vlečky","","26"
"3","Večerka","Mini Market","https://www.firmy.cz/detail/2470806-mini-market-praha-komorany.html","119"
"4","Hospoda","Komořanská Pivnice","https://www.firmy.cz/detail/13316727-komoranska-pivnice-praha-modrany.html","56"
"5","Divadlo","Divadlo Jana Kašky","https://www.firmy.cz/detail/12978086-divadlo-jana-kasky-praha-zbraslav.html","1943"
"6","Veterinář","Vethope s.r.o. - veterinární klinika","https://www.firmy.cz/detail/12949094-vethope-s-r-o-veterinarni-klinika-praha-modrany.html","1050"
"7","Bankomat","Bankomat Komerční banky","https://www.firmy.cz/detail/13244119-bankomat-komercni-banky-praha-modrany.html","182"
"8","Bus MHD","Komořany","","136"
"9","Obchod","Obchodní pasáž Sofie","https://www.firmy.cz/detail/217785-obchodni-pasaz-sofie-praha-modrany.html","1752"
"10","Restaurace","Restaurace U Bukačů","https://www.firmy.cz/detail/13048466-restaurace-u-bukacu-praha-komorany.html","140"
"11","Školka","Mateřská škola Dolinka - ZŠ a MŠ Praha 12, K Dolům","https://www.firmy.cz/detail/2258628-materska-skola-dolinka-praha-komorany.html","474"
"12","Lékárna","Lékárna Vltava","https://www.firmy.cz/detail/2510909-lekarna-vltava-praha-modrany.html","1353"
"13","Škola","Soukromá základní umělecká škola Music Art, v.o.s.","https://www.firmy.cz/detail/12840117-soukroma-zakladni-umelecka-skola-music-art-praha-modrany.html","1235"
"14","Vlak","Praha-Komořany","","332"
"15","Pošta","Pošta Praha 412 - Česká pošta, s.p.","https://www.firmy.cz/detail/217477-posta-praha-412-praha-modrany.html","1709"
"16","Tram","Čechova čtvrť","","1237"
"17","Sportoviště","Sportovní klub LTC Modřany 2005 o.s.","https://www.firmy.cz/detail/1946008-sportovni-klub-ltc-modrany-2005-o-s-praha.html","611"
"18","Lékař","ARNICA centre, s.r.o.","https://www.firmy.cz/detail/2688025-arnica-centre-praha-modrany.html","231"
