"","facility_type","facility_name","facility_iri","facility_distance"
"0","Hřiště","Dětské hřiště","https://mapy.cz/zakladni?x=14.000872082872775&y=50.68510004762396&z=17&source=base&id=2339079","30"
"1","Hospoda","Hospoda Junior","https://www.firmy.cz/detail/13272261-hospoda-junior-usti-nad-labem-bukov.html","188"
"2","Večerka","Potraviny Alenka","https://www.firmy.cz/detail/13060798-potraviny-alenka-usti-nad-labem-bukov.html","152"
"3","Veterinář","VETERINÁRNÍ ORDINACE TUMA MVDr. & KRÁL MVDr.","https://www.firmy.cz/detail/2136940-veterinarni-ordinace-tuma-mvdr-kral-mvdr-usti-nad-labem-bukov.html","720"
"4","Cukrárna","Cukrářství DUO","https://www.firmy.cz/detail/12771026-cukrarstvi-duo-usti-nad-labem-vseborice.html","362"
"5","Divadlo","Severočeské divadlo, s.r.o.","https://www.firmy.cz/detail/12720983-severoceske-divadlo-usti-nad-labem-centrum.html","3620"
"6","Kino","Letní kino Ústí nad Labem","https://www.firmy.cz/detail/2556284-letni-kino-usti-nad-labem-usti-nad-labem.html","3354"
"7","Restaurace","Restaurace Union","https://www.firmy.cz/detail/13117843-restaurace-union-usti-nad-labem-bukov.html","152"
"8","Lékař","MEDIVEL, s.r.o.","https://www.firmy.cz/detail/12889584-medivel-usti-nad-labem-bukov.html","398"
"9","Škola","ZŠ Ústí nad Labem, Vojnovičova","https://www.firmy.cz/detail/359877-zs-usti-nad-labem-vojnovicova-usti-nad-labem-bukov.html","153"
"10","Školka","MŠ Sluníčko","https://www.firmy.cz/detail/155725-ms-slunicko-usti-nad-labem-bukov.html","210"
"11","Bus MHD","Dukelských hrdinů","https://mapy.cz/zakladni?x=13.99979867445909&y=50.68461495942306&z=17&source=pubt&id=15203408","111"
"12","Sportoviště","TJ Lokomotiva Ústí nad Labem, o.s.","https://www.firmy.cz/detail/2402893-tj-lokomotiva-usti-nad-labem-o-s-usti-nad-labem.html","508"
"13","Vlak","Ústí nad Labem západ","https://mapy.cz/zakladni?x=14.0297086211&y=50.6581488023&z=17&source=pubt&id=15213133","3595"
"14","Obchod","Kaufland","https://www.firmy.cz/detail/12700918-kaufland-usti-nad-labem-vseborice.html","478"
"15","Lékárna","Dr. Max LÉKÁRNA","https://www.firmy.cz/detail/12884305-dr-max-lekarna-usti-nad-labem-vseborice.html","478"
"16","Pošta","Pošta Ústí nad Labem 10 - Česká pošta, s.p.","https://www.firmy.cz/detail/215932-posta-usti-nad-labem-10-usti-nad-labem-vseborice.html","478"
"17","Bankomat","Bankomat MONETA Money Bank","https://www.firmy.cz/detail/2696977-bankomat-moneta-money-bank-usti-nad-labem-vseborice.html","450"
