"","facility_type","facility_name","facility_iri","facility_distance"
"0","Cukrárna","Falknow CAFE","https://www.firmy.cz/detail/13299570-falknow-cafe-sokolov.html","4809"
"1","Přírodní zajímavost","Kamenné pařezy","","2372"
"2","Hřiště","Dětské hřiště u ZŠ","","382"
"3","Večerka","Můjobchod - Potraviny U Niky","https://www.firmy.cz/detail/12997987-mujobchod-potraviny-u-niky-bukovany.html","245"
"4","Hospoda","Pivnice U Hřbitova","https://www.firmy.cz/detail/2136270-pivnice-u-hrbitova-citice.html","2404"
"5","Divadlo","Loutkové divadélko Kahánek","https://www.firmy.cz/detail/2288094-loutkove-divadelko-kahanek-habartov.html","3226"
"6","Veterinář","MVDr. Jan Kubát","https://www.firmy.cz/detail/1975333-mvdr-jan-kubat-habartov.html","2877"
"7","Lékař","VILÍM - PRAKTICKÝ LÉKAŘ, s.r.o.","https://www.firmy.cz/detail/13037267-vilim-prakticky-lekar-bukovany.html","336"
"8","Pošta","Pošta Bukovany u Sokolova - Česká pošta, s.p.","https://www.firmy.cz/detail/216413-posta-bukovany-u-sokolova-bukovany.html","204"
"9","Sportoviště","Tenisový klub Habartov z.s.","https://www.firmy.cz/detail/12760682-tenisovy-klub-habartov-z-s-habartov.html","2682"
"10","Škola","ZŠ Bukovany","https://www.firmy.cz/detail/356617-zs-bukovany-bukovany.html","354"
"11","Bus MHD","Bukovany, sídliště","","179"
"12","Školka","Mateřská škola Bukovany, okres Sokolov","https://www.firmy.cz/detail/12928625-materska-skola-bukovany-okres-sokolov-bukovany.html","299"
"13","Restaurace","Restaurant Bena","https://www.firmy.cz/detail/2272264-restaurant-bena-bukovany.html","193"
"14","Vlak","Hlavno","","2375"
"15","Bankomat","Bankomat České spořitelny","https://www.firmy.cz/detail/592105-bankomat-ceske-sporitelny-habartov.html","2875"
"16","Lékárna","U zámku","https://www.firmy.cz/detail/211581-u-zamku-sokolov.html","4818"
