"","facility_type","facility_name","facility_iri","facility_distance"
"0","Hřiště","Dětské hřiště Vlnařská","https://mapy.cz/zakladni?x=15.0710983774&y=50.7622253496&z=17&source=base&id=1928160","377"
"1","Hospoda","Hostinec u Vávrů","https://www.firmy.cz/detail/12964344-hostinec-u-vavru-liberec-vii-horni-ruzodol.html","572"
"2","Cukrárna","Káva a zmrzlina U Bláhů","https://www.firmy.cz/detail/13154039-kava-a-zmrzlina-u-blahu-liberec-iv-perstyn.html","877"
"3","Veterinář","MVDr. Jiří Jiroudek - Veterina Oblačná","https://www.firmy.cz/detail/2135004-mvdr-jiri-jiroudek-veterina-oblacna-liberec-v-kristianov.html","541"
"4","Kino","Cinema City Liberec","https://www.firmy.cz/detail/2679906-cinema-city-liberec-liberec-iv-perstyn.html","1013"
"5","Večerka","Pramen","https://www.firmy.cz/detail/12812260-pramen-liberec-vi-rochlice.html","277"
"6","Divadlo","Naivní divadlo Liberec","https://www.firmy.cz/detail/230860-naivni-divadlo-liberec-liberec-iv-perstyn.html","980"
"7","Přírodní zajímavost","Opičák","https://mapy.cz/zakladni?x=15.0248686111&y=50.7720466667&z=17&source=base&id=1978555","3173"
"8","Sportoviště","TJ PROVAS Liberec","https://www.firmy.cz/detail/2652889-tj-provas-liberec-liberec-vi-rochlice.html","339"
"9","Restaurace","Chicago Bar & Grill","https://www.firmy.cz/detail/12983476-chicago-bar-grill-liberec-iv-perstyn.html","748"
"10","Školka","MŠ Motýlek Liberec","https://www.firmy.cz/detail/407380-ms-motylek-liberec-liberec-vi-rochlice.html","101"
"11","Vlak","Liberec","https://mapy.cz/zakladni?x=15.0462577517&y=50.7615013305&z=17&source=pubt&id=15211938","1412"
"12","Škola","Střední odborná škola obchodní, s.r.o.","https://www.firmy.cz/detail/164108-stredni-odborna-skola-obchodni-liberec-vi-rochlice.html","97"
"13","Tram","Mlýnská","https://mapy.cz/zakladni?x=15.063413862289792&y=50.76417800635915&z=17&source=pubt&id=15204063","433"
"14","Bankomat","Bankomat České spořitelny","https://www.firmy.cz/detail/593142-bankomat-ceske-sporitelny-liberec-vi-rochlice.html","286"
"15","Obchod","Obchodní centrum LBC","https://www.firmy.cz/detail/12975672-obchodni-centrum-lbc-liberec-iv-perstyn.html","869"
"16","Bus MHD","Plátenická","https://mapy.cz/zakladni?x=15.066878744974817&y=50.76022951689742&z=17&source=pubt&id=15204105","70"
"17","Lékař","MUDr. Vlastimil Vindyš","https://www.firmy.cz/detail/385899-mudr-vlastimil-vindys-liberec-vi-rochlice.html","287"
"18","Pošta","Pošta Liberec 6 - Česká pošta, s.p.","https://www.firmy.cz/detail/215742-posta-liberec-6-liberec-vi-rochlice.html","989"
"19","Lékárna","BENU Lékárna","https://www.firmy.cz/detail/13003192-benu-lekarna-liberec-iv-perstyn.html","851"
