"","facility_type","facility_name","facility_iri","facility_distance"
"0","Cukrárna","Helen's coffee Hůrka","https://www.firmy.cz/detail/13278629-helen-s-coffee-hurka-praha-stodulky.html","44"
"1","Kino","Cinema City Zličín","https://www.firmy.cz/detail/436222-cinema-city-zlicin-praha-trebonice.html","3936"
"2","Přírodní zajímavost","Kovářovic mez","","1495"
"3","Hřiště","Dětské hřiště Petržílkova","","142"
"4","Večerka","Albert Supermarket","https://www.firmy.cz/detail/447083-albert-supermarket-praha-stodulky.html","111"
"5","Divadlo","Divadlo Glans","https://www.firmy.cz/detail/2343652-divadlo-glans-praha-stodulky.html","373"
"6","Hospoda","TENET Marketing, s.r.o.","https://www.firmy.cz/detail/13159642-tenet-marketing-praha-stodulky.html","304"
"7","Veterinář","Veterinární klinika Na Vyhlídce, s.r.o.","https://www.firmy.cz/detail/13012801-veterinarni-klinika-na-vyhlidce-praha-stodulky.html","355"
"8","Bankomat","Bankomat ČSOB","https://www.firmy.cz/detail/599623-bankomat-csob-praha-stodulky.html","61"
"9","Metro","Hůrka","","57"
"10","Restaurace","Restaurace Na Výsluní","https://www.firmy.cz/detail/2072247-restaurace-na-vysluni-praha-stodulky.html","6"
"11","Lékárna","Dr. Max LÉKÁRNA","https://www.firmy.cz/detail/13323876-dr-max-lekarna-praha-stodulky.html","33"
"12","Školka","Mateřská škola HAVAJ, Praha 13, Mezi Školami 2482","https://www.firmy.cz/detail/198367-materska-skola-havaj-praha-13-mezi-skolami-2482-praha-stodulky.html","187"
"13","Pošta","Pošta Praha 58 - Česká pošta, s.p.","https://www.firmy.cz/detail/216735-posta-praha-58-praha-stodulky.html","108"
"14","Bus MHD","Hůrka","","76"
"15","Sportoviště","Discgolf Stodůlky","","656"
"16","Lékař","DIONA s.r.o.","https://www.firmy.cz/detail/13046936-diona-s-r-o-praha-stodulky.html","82"
"17","Tram","Vozovna Motol","","1965"
"18","Škola","Gymnázium Jaroslava Heyrovského Praha 5","https://www.firmy.cz/detail/362262-gymnazium-jaroslava-heyrovskeho-praha-5-praha-stodulky.html","277"
"19","Vlak","Praha-Stodůlky","","1358"
"20","Obchod","Kaufland","https://www.firmy.cz/detail/1356298-kaufland-praha-stodulky.html","526"
