"","facility_type","facility_name","facility_iri","facility_distance"
"0","Hřiště","Dětské hřiště Poštovská","https://mapy.cz/zakladni?x=14.5088629933&y=50.1095915847&z=17&source=base&id=1926991","97"
"1","Přírodní zajímavost","Meandry Rokytky","https://mapy.cz/zakladni?x=14.517104002655032&y=50.098337103299386&z=17&source=base&id=2338360","1458"
"2","Večerka","DELMART FÉNIX","https://www.firmy.cz/detail/13210057-delmart-fenix-praha-vysocany.html","576"
"3","Veterinář","VETERINÁRNÍ KLINIKA VET-PET","https://www.firmy.cz/detail/12900541-veterinarni-klinika-vet-pet-praha-prosek.html","1408"
"4","Cukrárna","Kavárna Creperie","https://www.firmy.cz/detail/2037440-kavarna-creperie-praha-vysocany.html","560"
"5","Hospoda","Hospoda U Zdi","https://www.firmy.cz/detail/13217099-hospoda-u-zdi-praha-liben.html","1529"
"6","Kino","Cinema City Letňany","https://www.firmy.cz/detail/2679833-cinema-city-letnany-praha-letnany.html","2972"
"7","Divadlo","Divadlo Gong","https://www.firmy.cz/detail/230751-divadlo-gong-praha-liben.html","1526"
"8","Bus MHD","Ke Klíčovu","https://mapy.cz/zakladni?x=14.5075130305&y=50.1131400463&z=17&source=pubt&id=15303765","325"
"9","Metro","Kolbenova","https://mapy.cz/zakladni?x=14.5152075718&y=50.1103396175&z=17&source=pubt&id=15200161","427"
"10","Obchod","Nákupní Centrum Fénix Vysočanská","https://www.firmy.cz/detail/613133-nakupni-centrum-fenix-vysocanska-praha-vysocany.html","545"
"11","Sportoviště","TJ Sokol Vysočany","https://www.firmy.cz/detail/267450-tj-sokol-vysocany-praha-vysocany.html","348"
"12","Školka","Mateřská škola U Vysočanského pivovaru","https://www.firmy.cz/detail/13045497-materska-skola-u-vysocanskeho-pivovaru-praha-vysocany.html","443"
"13","Pošta","Pošta Praha 93 - Česká pošta, s.p.","https://www.firmy.cz/detail/217419-posta-praha-93-praha-vysocany.html","600"
"14","Vlak","Praha-Vysočany","https://mapy.cz/zakladni?x=14.4975508502&y=50.1123429996&z=17&source=pubt&id=15698647","859"
"15","Škola","ZŠ Špitálská","https://www.firmy.cz/detail/359024-zs-spitalska-praha-vysocany.html","330"
"16","Restaurace","RADEGASTOVNA kolbenka","https://www.firmy.cz/detail/13105308-radegastovna-kolbenka-praha-vysocany.html","196"
"17","Lékař","Hodis s.r.o.","https://www.firmy.cz/detail/2643290-hodis-s-r-o-praha-vysocany.html","233"
"18","Lékárna","Lékárna Fenix","https://www.firmy.cz/detail/642631-lekarna-fenix-praha-vysocany.html","592"
"19","Tram","Poštovská","https://mapy.cz/zakladni?x=14.5091968278&y=50.1105557974&z=17&source=pubt&id=15303580","14"
"20","Bankomat","Bankomat České spořitelny","https://www.firmy.cz/detail/12837506-bankomat-ceske-sporitelny-praha-vysocany.html","398"
