"","facility_type","facility_name","facility_iri","facility_distance"
"0","Cukrárna","Karmelka","https://www.firmy.cz/detail/12747425-karmelka-mlada-boleslav-ii.html","189"
"1","Kino","CineStar Mladá Boleslav","https://www.firmy.cz/detail/2109584-cinestar-mlada-boleslav-mlada-boleslav-ii.html","560"
"2","Přírodní zajímavost","Syslí kolonie","","1312"
"3","Hřiště","Dětské hřiště Pod výstavištěm","","447"
"4","Večerka","Můjobchod U Tomíků","https://www.firmy.cz/detail/13332977-mujobchod-u-tomiku-mlada-boleslav-ii.html","236"
"5","Hospoda","Pivnice Bingo u kolejí","https://www.firmy.cz/detail/2465415-pivnice-bingo-u-koleji-mlada-boleslav-ii.html","419"
"6","Divadlo","Městské divadlo Mladá Boleslav","https://www.firmy.cz/detail/401491-mestske-divadlo-mlada-boleslav-mlada-boleslav-ii.html","728"
"7","Veterinář","Veterinární ordinace MBvet","https://www.firmy.cz/detail/1328851-veterinarni-ordinace-mbvet-mlada-boleslav-ii.html","368"
"8","Škola","ZŠ Mladá Boleslav, Václavkova","https://www.firmy.cz/detail/358262-zs-mlada-boleslav-vaclavkova-mlada-boleslav-ii.html","419"
"9","Bankomat","Bankomat Komerční banky","https://www.firmy.cz/detail/596292-bankomat-komercni-banky-mlada-boleslav-ii.html","345"
"10","Lékař","Ambulance praktického lékaře pro dospělé - Klaudiánova nemocnice","https://www.firmy.cz/detail/13072370-ambulance-praktickeho-lekare-pro-dospele-klaudianova-nemocnice-mlada-boleslav-ii.html","419"
"11","Restaurace","Restaurace U Měšťáků","https://www.firmy.cz/detail/12893746-restaurace-u-mestaku-mlada-boleslav-ii.html","257"
"12","Vlak","Mladá Boleslav město","","646"
"13","Obchod","Kaufland","https://www.firmy.cz/detail/738635-kaufland-mlada-boleslav-ii.html","443"
"14","Lékárna","Dr.Max","https://www.firmy.cz/detail/2007104-dr-max-mlada-boleslav-ii.html","353"
"15","Pošta","Pošta Mladá Boleslav 3 - Česká pošta, s.p.","https://www.firmy.cz/detail/217184-posta-mlada-boleslav-3-mlada-boleslav-ii.html","456"
"16","Bus MHD","Metoděje Vlacha","","43"
"17","Školka","MŠ Pampeliška Mladá Boleslav, Nerudova","https://www.firmy.cz/detail/2116458-ms-pampeliska-mlada-boleslav-nerudova-mlada-boleslav-ii.html","153"
"18","Sportoviště","hřiště Astonka Mladá Boleslav","https://www.firmy.cz/detail/13000249-hriste-astonka-mlada-boleslav-mlada-boleslav.html","318"
