"","facility_type","facility_name","facility_iri","facility_distance"
"0","Cukrárna","Shothouse","https://www.firmy.cz/detail/13286217-shothouse-havirov-mesto.html","687"
"1","Kino","Kino Centrum","https://www.firmy.cz/detail/12780436-kino-centrum-havirov-mesto.html","759"
"2","Hřiště","Dětské hřiště Lučina","","347"
"3","Večerka","COOP Beskydy - Tuty","https://www.firmy.cz/detail/1940412-coop-beskydy-tuty-havirov-mesto.html","259"
"4","Hospoda","Hospůdka u Lenina","https://www.firmy.cz/detail/13169583-hospudka-u-lenina-havirov-mesto.html","358"
"5","Veterinář","Veterina Na Nábřeží","https://www.firmy.cz/detail/1947067-veterina-na-nabrezi-havirov-mesto.html","896"
"6","Lékař","MUDr. Lucie Šebestová s.r.o.","https://www.firmy.cz/detail/12862656-mudr-lucie-sebestova-s-r-o-havirov-mesto.html","566"
"7","Restaurace","Restaurace Dlouhá třída 1510","https://www.firmy.cz/detail/13146730-restaurace-dlouha-trida-1510-havirov-mesto.html","359"
"8","Lékárna","Lékárna U Elišky","https://www.firmy.cz/detail/421095-lekarna-u-elisky-havirov-mesto.html","363"
"9","Školka","MŠ Havířov, Lípová","https://www.firmy.cz/detail/12871692-ms-havirov-lipova-havirov-mesto.html","179"
"10","Vlak","Havířov-střed","","1536"
"11","Bankomat","Bankomat MONETA Money Bank","https://www.firmy.cz/detail/603413-bankomat-moneta-money-bank-havirov-podlesi.html","459"
"12","Škola","ZŠ Havířov, 1. máje","https://www.firmy.cz/detail/357049-zs-havirov-1-maje-havirov-mesto.html","230"
"13","Obchod","Kaufland","https://www.firmy.cz/detail/1545096-kaufland-havirov-podlesi.html","459"
"14","Pošta","Pošta Havířov 21 - Česká pošta, s.p.","https://www.firmy.cz/detail/2378876-posta-havirov-21-havirov-podlesi.html","788"
"15","Bus MHD","Havířov, Město, Tolstého","","169"
"16","Sportoviště","Lezecká stěna Evžena Rošického","","124"
