"","facility_type","facility_name","facility_iri","facility_distance"
"0","Cukrárna","Kavárna Galerie Reistna","https://www.firmy.cz/detail/13136614-kavarna-galerie-reistna-valtice.html","122"
"1","Hřiště","Dětské hřiště Valtice","","95"
"2","Večerka","COOP - Jednota, spotřební družstvo v Mikulově","https://www.firmy.cz/detail/2350587-coop-jednota-spotrebni-druzstvo-v-mikulove-valtice.html","116"
"3","Divadlo","Laienbühne Schrattenberg","","3316"
"4","Veterinář","MVDr. Dušan Kočí","https://www.firmy.cz/detail/477113-mvdr-dusan-koci-valtice.html","804"
"5","Školka","MŠ Valtice","https://www.firmy.cz/detail/2282468-ms-valtice-valtice.html","278"
"6","Pošta","Pošta Valtice - Česká pošta, s.p.","https://www.firmy.cz/detail/432606-posta-valtice-valtice.html","246"
"7","Sportoviště","Sporthala Valtice","https://www.firmy.cz/detail/12760827-sporthala-valtice-valtice.html","289"
"8","Lékárna","Lékárna U RAKA","https://www.firmy.cz/detail/13210724-lekarna-u-raka-valtice.html","86"
"9","Vlak","Valtice město","","659"
"10","Bankomat","Bankomat Euronet","https://www.firmy.cz/detail/12857417-bankomat-euronet-valtice.html","198"
"11","Bus MHD","Valtice, nemocnice","","225"
"12","Restaurace","Restaurace Besední dům","https://www.firmy.cz/detail/13264684-restaurace-besedni-dum-valtice.html","101"
"13","Lékař","Nemocnice Valtice s.r.o. - Praktický lékař pro dospělé","https://www.firmy.cz/detail/13243341-nemocnice-valtice-s-r-o-prakticky-lekar-pro-dospele-valtice.html","118"
"14","Škola","ZŠ Valtice","https://www.firmy.cz/detail/359911-zs-valtice-valtice.html","405"
