"","facility_type","facility_name","facility_iri","facility_distance"
"0","Hřiště","Dětské hřiště Podměstí","https://mapy.cz/zakladni?x=13.5363778&y=50.3304778&z=17&source=base&id=2120397","438"
"1","Hospoda","Hospoda Sládkova 2382","https://www.firmy.cz/detail/13145759-hospoda-sladkova-2382-zatec.html","87"
"2","Divadlo","Městské divadlo Žatec","https://www.firmy.cz/detail/325218-mestske-divadlo-zatec-zatec.html","680"
"3","Kino","Kino Žatec","https://www.firmy.cz/detail/12846605-kino-zatec-zatec.html","680"
"4","Večerka","Potraviny Svatováclavská","https://www.firmy.cz/detail/13340654-potraviny-svatovaclavska-zatec.html","493"
"5","Veterinář","MVDr. Břetislav Frýba","https://www.firmy.cz/detail/203866-mvdr-bretislav-fryba-zatec.html","792"
"6","Cukrárna","Cukrárna Květa","https://www.firmy.cz/detail/2033539-cukrarna-kveta-zatec.html","797"
"7","Sportoviště","Badminton Makra Court","https://www.firmy.cz/detail/12853227-badminton-makra-court-zatec.html","131"
"8","Bus MHD","Žatec, Příkrá","https://mapy.cz/zakladni?x=13.5349449703482&y=50.3267661719632&z=17&source=pubt&id=15332524","73"
"9","Škola","ZŠ Žatec, náměstí 28. října","https://www.firmy.cz/detail/360270-zs-zatec-namesti-28-rijna-zatec.html","316"
"10","Pošta","Pošta Žatec 3 - Česká pošta, s.p.","https://www.firmy.cz/detail/215301-posta-zatec-3-zatec.html","387"
"11","Školka","MŠ Žatec, U Jezu","https://www.firmy.cz/detail/731395-ms-zatec-u-jezu-zatec.html","392"
"12","Restaurace","Restaurace Čáp","https://www.firmy.cz/detail/2354359-restaurace-cap-zatec.html","362"
"13","Lékař","Ordinace praktického lékaře MUDr.Veronika Škramlíková","https://www.firmy.cz/detail/387473-ordinace-praktickeho-lekare-mudr-veronika-skramlikova-zatec.html","812"
"14","Vlak","Žatec západ","https://mapy.cz/zakladni?x=13.5350010342&y=50.338078055&z=17&source=pubt&id=15213417","1249"
"15","Bankomat","Bankomat České spořitelny","https://www.firmy.cz/detail/2302672-bankomat-ceske-sporitelny-zatec.html","474"
"16","Lékárna","Dr. Max","https://www.firmy.cz/detail/2007265-dr-max-zatec.html","502"
"17","Obchod","Kaufland","https://www.firmy.cz/detail/1457849-kaufland-zatec.html","506"
