"","facility_type","facility_name","facility_iri","facility_distance"
"0","Cukrárna","Shothouse","https://www.firmy.cz/detail/13286217-shothouse-havirov-mesto.html","733"
"1","Kino","Kino Centrum","https://www.firmy.cz/detail/12780436-kino-centrum-havirov-mesto.html","785"
"2","Hřiště","Dětské hřiště Lučina","","343"
"3","Večerka","HRUŠKA","https://www.firmy.cz/detail/12820027-hruska-havirov-mesto.html","253"
"4","Hospoda","Hospůdka u Lenina","https://www.firmy.cz/detail/13169583-hospudka-u-lenina-havirov-mesto.html","433"
"5","Veterinář","Veterina Na Nábřeží","https://www.firmy.cz/detail/1947067-veterina-na-nabrezi-havirov-mesto.html","906"
"6","Restaurace","Restaurace Nelli","https://www.firmy.cz/detail/13119376-restaurace-nelli-havirov-mesto.html","391"
"7","Obchod","Kaufland","https://www.firmy.cz/detail/1545096-kaufland-havirov-podlesi.html","437"
"8","Sportoviště","Lezecká stěna Evžena Rošického","","104"
"9","Bus MHD","Havířov, Město, Tolstého","","177"
"10","Lékař","MUDr. Lucie Šebestová s.r.o.","https://www.firmy.cz/detail/12862656-mudr-lucie-sebestova-s-r-o-havirov-mesto.html","586"
"11","Školka","MŠ Havířov, Lípová","https://www.firmy.cz/detail/12871692-ms-havirov-lipova-havirov-mesto.html","104"
"12","Pošta","Pošta Havířov 21 - Česká pošta, s.p.","https://www.firmy.cz/detail/2378876-posta-havirov-21-havirov-podlesi.html","825"
"13","Lékárna","Lékárna U Elišky","https://www.firmy.cz/detail/421095-lekarna-u-elisky-havirov-mesto.html","439"
"14","Vlak","Havířov-střed","","1607"
"15","Škola","ZŠ Havířov, 1. máje","https://www.firmy.cz/detail/357049-zs-havirov-1-maje-havirov-mesto.html","305"
"16","Bankomat","Bankomat MONETA Money Bank","https://www.firmy.cz/detail/603413-bankomat-moneta-money-bank-havirov-podlesi.html","437"
