"","facility_type","facility_name","facility_iri","facility_distance"
"0","Hřiště","Dětské hřiště Špindlerův Mlýn","","56"
"1","Večerka","Potraviny ENAPO","https://www.firmy.cz/detail/13269519-potraviny-enapo-spindleruv-mlyn.html","1001"
"2","Hospoda","Wifi Club","https://www.firmy.cz/detail/12999228-wifi-club-spindleruv-mlyn-bedrichov.html","1284"
"3","Sportoviště","Adventure park Špindlerův Mlýn","","628"
"4","Bankomat","Bankomat Euronet","https://www.firmy.cz/detail/13055952-bankomat-euronet-spindleruv-mlyn.html","159"
"5","Bus MHD","Špindlerův Mlýn, parkoviště Medvědín","","31"
"6","Školka","ZŠ a MŠ Špindlerův Mlýn","https://www.firmy.cz/detail/1994933-zs-a-ms-spindleruv-mlyn-spindleruv-mlyn.html","975"
"7","Škola","ZŠ a MŠ Špindlerův Mlýn","https://www.firmy.cz/detail/1994924-zs-a-ms-spindleruv-mlyn-spindleruv-mlyn.html","975"
"8","Lékárna","Krakonošova lékárna","https://www.firmy.cz/detail/658402-krakonosova-lekarna-spindleruv-mlyn-bedrichov.html","1046"
"9","Pošta","Pošta Špindlerův Mlýn - Česká pošta, s.p.","https://www.firmy.cz/detail/433233-posta-spindleruv-mlyn-spindleruv-mlyn.html","1121"
"10","Restaurace","Restaurace Aquapark","https://www.firmy.cz/detail/2537439-restaurace-aquapark-spindleruv-mlyn.html","159"
