"","facility_type","facility_name","facility_iri","facility_distance"
"0","Cukrárna","Kavárna Atrium","https://www.firmy.cz/detail/2651565-kavarna-atrium-pardubice-zelene-predmesti.html","108"
"1","Kino","Cinema City Pardubice","https://www.firmy.cz/detail/2319456-cinema-city-pardubice-pardubice-zelene-predmesti.html","421"
"2","Hřiště","Dětské hřiště Karlovina","","301"
"3","Večerka","Smíšené zboží Smilova","https://www.firmy.cz/detail/13335058-smisene-zbozi-smilova-pardubice-zelene-predmesti.html","66"
"4","Hospoda","Pivní ambasáda","https://www.firmy.cz/detail/12975663-pivni-ambasada-pardubice-zelene-predmesti.html","48"
"5","Divadlo","Malá scéna ve dvoře","https://www.firmy.cz/detail/13210535-mala-scena-ve-dvore-pardubice-zelene-predmesti.html","464"
"6","Veterinář","Veterinární ordinace MVDr. Monika Klimplová","https://www.firmy.cz/detail/1889479-veterinarni-ordinace-mvdr-monika-klimplova-pardubice-zelene-predmesti.html","846"
"7","Bankomat","Bankomat Sberbank CZ","https://www.firmy.cz/detail/12950120-bankomat-sberbank-cz-pardubice-zelene-predmesti.html","115"
"8","Pošta","Pošta Pardubice 1 - Česká pošta, s.p.","https://www.firmy.cz/detail/452739-posta-pardubice-1-pardubice-zelene-predmesti.html","341"
"9","Škola","Základní škola Pardubice, Bratranců Veverkových 866","https://www.firmy.cz/detail/358769-zakladni-skola-pardubice-bratrancu-veverkovych-866-pardubice-zelene-predmesti.html","66"
"10","Restaurace","Restaurace Podkova","https://www.firmy.cz/detail/333607-restaurace-podkova-pardubice-zelene-predmesti.html","48"
"11","Bus MHD","17.listopadu","","191"
"12","Lékař","MOJE AMBULANCE","https://www.firmy.cz/detail/13093870-moje-ambulance-pardubice-zelene-predmesti.html","290"
"13","Lékárna","Lékárna ve Smilovce","https://www.firmy.cz/detail/13204550-lekarna-ve-smilovce-pardubice-zelene-predmesti.html","132"
"14","Obchod","OC Atrium Palác Pardubice","https://www.firmy.cz/detail/12940305-oc-atrium-palac-pardubice-pardubice-zelene-predmesti.html","339"
"15","Sportoviště","Tenisový klub Pernštýn 1897 Pardubice","https://www.firmy.cz/detail/159736-tenisovy-klub-pernstyn-1897-pardubice-pardubice-zelene-predmesti.html","719"
"16","Vlak","Pardubice hlavní nádraží","","1151"
"17","Školka","MŠ Pardubice, K Polabinám","https://www.firmy.cz/detail/1880709-ms-pardubice-k-polabinam-pardubice-zelene-predmesti.html","591"
