"","facility_type","facility_name","facility_iri","facility_distance"
"0","Cukrárna","Cukrárna Amádo","https://www.firmy.cz/detail/634174-cukrarna-amado-most.html","284"
"1","Kino","Kino Kosmos","https://www.firmy.cz/detail/401279-kino-kosmos-most.html","1835"
"2","Hřiště","Dětské hřiště Lomená","","190"
"3","Večerka","Špajz","https://www.firmy.cz/detail/13134992-spajz-most.html","542"
"4","Divadlo","Městské divadlo v Mostě, spol. s r.o.","https://www.firmy.cz/detail/1336052-mestske-divadlo-v-moste-most.html","1436"
"5","Hospoda","Hostinec na Náměstíčku","https://www.firmy.cz/detail/13112193-hostinec-na-namesticku-most.html","42"
"6","Veterinář","VETERINA-MOST","https://www.firmy.cz/detail/12832535-veterina-most-most.html","984"
"7","Školka","MŠ Most, Antonína Dvořáka","https://www.firmy.cz/detail/2281897-ms-most-antonina-dvoraka-most.html","668"
"8","Restaurace","Restaurace Slovenského národního povstání 24","https://www.firmy.cz/detail/12955079-restaurace-slovenskeho-narodniho-povstani-24-most.html","361"
"9","Tram","Most, Sportovní hala","","936"
"10","Lékař","Iatri Cauti, s.r.o.","https://www.firmy.cz/detail/13286521-iatri-cauti-most.html","487"
"11","Sportoviště","Tělovýchovná jednota B. Šmerala Most","https://www.firmy.cz/detail/2648773-telovychovna-jednota-b-smerala-most-most.html","295"
"12","Škola","SŠDVS s.r.o.","https://www.firmy.cz/detail/2497103-ssdvs-s-r-o-most.html","401"
"13","Obchod","PRIOR ČESKÁ REPUBLIKA s.r.o.","https://www.firmy.cz/detail/1957029-prior-ceska-republika-s-r-o-most.html","1125"
"14","Pošta","Pošta Most 3 - Česká pošta, s.p.","https://www.firmy.cz/detail/216964-posta-most-3-most.html","409"
"15","Bus MHD","Most, Široký vrch","","200"
"16","Lékárna","BENU Lékárna","https://www.firmy.cz/detail/12794131-benu-lekarna-most.html","472"
"17","Bankomat","Bankomat Fio banky","https://www.firmy.cz/detail/13233479-bankomat-fio-banky-most.html","564"
"18","Vlak","Most","","1996"
