"","facility_type","facility_name","facility_iri","facility_distance"
"0","Cukrárna","HappyCoffee","https://www.firmy.cz/detail/12996476-happycoffee-vimperk-ii.html","939"
"1","Kino","Kino Šumava","https://www.firmy.cz/detail/324372-kino-sumava-vimperk-ii.html","840"
"2","Přírodní zajímavost","Velká Homolka","","985"
"3","Hřiště","Dětské hřiště Mírová","","182"
"4","Večerka","Tesco Supermarket","https://www.firmy.cz/detail/12741958-tesco-supermarket-vimperk-ii.html","533"
"5","Hospoda","Hospoda Palackého 11","https://www.firmy.cz/detail/13114086-hospoda-palackeho-11-vimperk-ii.html","379"
"6","Veterinář","Veterina Vimperk","https://www.firmy.cz/detail/2009902-veterina-vimperk-vimperk-ii.html","738"
"7","Vlak","Vimperk","","1213"
"8","Bankomat","Bankomat MONETA Money Bank","https://www.firmy.cz/detail/603064-bankomat-moneta-money-bank-vimperk-ii.html","604"
"9","Škola","ZŠ Vimperk, Smetanova","https://www.firmy.cz/detail/360026-zs-vimperk-smetanova-vimperk-ii.html","323"
"10","Lékař","MUDr. Jitka Suková","https://www.firmy.cz/detail/381579-mudr-jitka-sukova-vimperk-ii.html","516"
"11","Restaurace","Restaurant Café Skalka","https://www.firmy.cz/detail/250419-restaurant-cafe-skalka-vimperk-ii.html","420"
"12","Bus MHD","Vimperk, Luční","","135"
"13","Školka","MŠ Vimperk, Mírová","https://www.firmy.cz/detail/2664763-ms-vimperk-mirova-vimperk-ii.html","272"
"14","Lékárna","Lékárna Poliklinika","https://www.firmy.cz/detail/13210227-lekarna-poliklinika-vimperk-ii.html","475"
"15","Pošta","Pošta Vimperk - Česká pošta, s.p.","https://www.firmy.cz/detail/217008-posta-vimperk-vimperk-ii.html","1079"
"16","Sportoviště","Městské koupaliště Vimperk","https://www.firmy.cz/detail/13272086-mestske-koupaliste-vimperk-vimperk.html","557"
