"","facility_type","facility_name","facility_iri","facility_distance"
"0","Cukrárna","Cukrárna Crystal","https://www.firmy.cz/detail/13272890-cukrarna-crystal-plzen-jizni-predmesti.html","353"
"1","Kino","Kino Beseda","https://www.firmy.cz/detail/12773769-kino-beseda-plzen-jizni-predmesti.html","1159"
"2","Hřiště","Dětské hřiště Přeštická","","303"
"3","Večerka","Můjobchod - Potraviny Bezovka","https://www.firmy.cz/detail/12997759-mujobchod-potraviny-bezovka-plzen-jizni-predmesti.html","214"
"4","Divadlo","Divadlo pod lampou, o.p.s.","https://www.firmy.cz/detail/2418226-divadlo-pod-lampou-plzen-jizni-predmesti.html","531"
"5","Hospoda","Pivnice U Korbele","https://www.firmy.cz/detail/13123461-pivnice-u-korbele-plzen-jizni-predmesti.html","116"
"6","Veterinář","Psí salón BELLA","https://www.firmy.cz/detail/12759736-psi-salon-bella-plzen-jizni-predmesti.html","527"
"7","Restaurace","Restaurace U Čížků","https://www.firmy.cz/detail/13309823-restaurace-u-cizku-plzen-jizni-predmesti.html","51"
"8","Tram","Dobrovského","","184"
"9","Lékárna","Lékárna FN Plzeň Bory","https://www.firmy.cz/detail/13296501-lekarna-fn-plzen-bory-plzen-jizni-predmesti.html","184"
"10","Škola","10. ZŠ Plzeň","https://www.firmy.cz/detail/356113-10-zs-plzen-plzen-jizni-predmesti.html","207"
"11","Sportoviště","Tenisová škola TALLENT","https://www.firmy.cz/detail/722814-tenisova-skola-tallent-plzen-jizni-predmesti.html","623"
"12","Bankomat","Bankomat České spořitelny","https://www.firmy.cz/detail/593961-bankomat-ceske-sporitelny-plzen-jizni-predmesti.html","153"
"13","Bus MHD","Dobrovského","","127"
"14","Lékař","Praktik Bory s.r.o.","https://www.firmy.cz/detail/13290678-praktik-bory-s-r-o-plzen-jizni-predmesti.html","158"
"15","Pošta","Pošta Plzeň 13 - Česká pošta, s.p.","https://www.firmy.cz/detail/216649-posta-plzen-13-plzen-jizni-predmesti.html","214"
"16","Školka","22. MŠ Plzeň","https://www.firmy.cz/detail/1893123-22-ms-plzen-plzen-jizni-predmesti.html","297"
"17","Vlak","Plzeň zastávka","","305"
"18","Obchod","Kaufland","https://www.firmy.cz/detail/2616232-kaufland-plzen-jizni-predmesti.html","1023"
