"","facility_type","facility_name","facility_iri","facility_distance"
"0","Cukrárna","Polina Cake","https://www.firmy.cz/detail/13292664-polina-cake-praha-vokovice.html","535"
"1","Kino","Kino Dlabačov","https://www.firmy.cz/detail/13024517-kino-dlabacov-praha-brevnov.html","2448"
"2","Hřiště","Dětské hřiště Šumberova","","265"
"3","Večerka","Obchod - potraviny","https://www.firmy.cz/detail/13169516-obchod-potraviny-praha-vokovice.html","311"
"4","Hospoda","Plzeňská Pivnice Petřiny","https://www.firmy.cz/detail/13333379-plzenska-pivnice-petriny-praha-brevnov.html","633"
"5","Divadlo","Divadlo Tineola","https://www.firmy.cz/detail/401473-divadlo-tineola-praha-vokovice.html","362"
"6","Veterinář","MVDr. Petr Slavík","https://www.firmy.cz/detail/12825800-mvdr-petr-slavik-praha-veleslavin.html","90"
"7","Metro","Nádraží Veleslavín","","142"
"8","Školka","ZŠ a MŠ Červený vrch","https://www.firmy.cz/detail/2644942-zs-a-ms-cerveny-vrch-praha-vokovice.html","243"
"9","Lékárna","BENU Lékárna","https://www.firmy.cz/detail/13196722-benu-lekarna-praha-vokovice.html","133"
"10","Sportoviště","Sportovní oddíl VOK","https://www.firmy.cz/detail/2652240-sportovni-oddil-vok-praha-vokovice.html","260"
"11","Bankomat","Bankomat Euronet","https://www.firmy.cz/detail/13056224-bankomat-euronet-praha-veleslavin.html","224"
"12","Obchod","Obchodní dům Čílova","https://www.firmy.cz/detail/13157318-obchodni-dum-cilova-praha-veleslavin.html","636"
"13","Restaurace","Mamut Pizza Bistro","https://www.firmy.cz/detail/13200543-mamut-pizza-bistro-praha-veleslavin.html","49"
"14","Bus MHD","Nádraží Veleslavín","","145"
"15","Lékař","Canadian Medical - AFI","https://www.firmy.cz/detail/13262475-canadian-medical-afi-praha-vokovice.html","132"
"16","Tram","Nádraží Veleslavín","","172"
"17","Škola","Základní škola speciální a Praktická škola, Praha 6, Rooseveltova 8","https://www.firmy.cz/detail/2587525-zakladni-skola-specialni-a-prakticka-skola-praha-6-rooseveltova-8-praha-vokovice.html","243"
"18","Pošta","Pošta Praha 616 - Česká pošta, s.p.","https://www.firmy.cz/detail/431331-posta-praha-616-praha-veleslavin.html","557"
"19","Vlak","Praha-Veleslavín","","184"
