"","facility_type","facility_name","facility_iri","facility_distance"
"0","Cukrárna","Karlovarské cukrářství","https://www.firmy.cz/detail/13152065-karlovarske-cukrarstvi-praha-kobylisy.html","223"
"1","Kino","Cinema City Letňany","https://www.firmy.cz/detail/2679833-cinema-city-letnany-praha-letnany.html","2698"
"2","Přírodní zajímavost","Meandry Rokytky","","4881"
"3","Hřiště","Dětské hřiště Hrubého","","111"
"4","Večerka","Iceland","https://www.firmy.cz/detail/12892874-iceland-praha-kobylisy.html","149"
"5","Hospoda","Restaurace Pod Hájem","https://www.firmy.cz/detail/13021295-restaurace-pod-hajem-praha-liben.html","465"
"6","Divadlo","Divadlo Karla Hackera","https://www.firmy.cz/detail/2030639-divadlo-karla-hackera-praha-kobylisy.html","937"
"7","Veterinář","Veterinární ordinace MVDr.Martin Otáhal","https://www.firmy.cz/detail/473620-veterinarni-ordinace-mvdr-martin-otahal-praha-kobylisy.html","133"
"8","Škola","Heřmánek Praha, základní škola a gymnázium","https://www.firmy.cz/detail/13107086-hermanek-praha-zakladni-skola-a-gymnazium-praha-kobylisy.html","83"
"9","Lékař","MUDr. Luděk Dvořák","https://www.firmy.cz/detail/12809138-mudr-ludek-dvorak-praha.html","50"
"10","Metro","Ládví","","233"
"11","Pošta","Pošta Praha 82 - Česká pošta, s.p.","https://www.firmy.cz/detail/431384-posta-praha-82-praha-kobylisy.html","170"
"12","Školka","Heřmánek - mateřská škola","https://www.firmy.cz/detail/2624903-hermanek-materska-skola-praha-kobylisy.html","50"
"13","Bus MHD","Ládví","","270"
"14","Lékárna","BENU Lékárna","https://www.firmy.cz/detail/13163128-benu-lekarna-praha-kobylisy.html","151"
"15","Sportoviště","Koupaliště Ládví","https://www.firmy.cz/detail/12901187-koupaliste-ladvi-praha-kobylisy.html","285"
"16","Bankomat","Raiffeisenbank - bankomat","https://www.firmy.cz/detail/12717052-raiffeisenbank-bankomat-praha-kobylisy.html","141"
"17","Obchod","Obchodní dům Ládví","https://www.firmy.cz/detail/13187057-obchodni-dum-ladvi-praha-kobylisy.html","185"
"18","Tram","Ládví","","300"
"19","Restaurace","KFC","https://www.firmy.cz/detail/13229115-kfc-praha-kobylisy.html","207"
"20","Vlak","Praha-Holešovice","","2795"
