"","facility_type","facility_name","facility_iri","facility_distance"
"0","Hřiště","Dětské hřiště Grébovka","https://mapy.cz/zakladni?x=14.4482036&y=50.0687608&z=17&source=base&id=2087110","368"
"1","Hospoda","Hostinec U Parku","https://www.firmy.cz/detail/337032-hostinec-u-parku-praha-nusle.html","729"
"2","Večerka","Lidl","https://www.firmy.cz/detail/1899459-lidl-praha-vrsovice.html","431"
"3","Cukrárna","Cukrárna Pralinka","https://www.firmy.cz/detail/626458-cukrarna-pralinka-praha-vrsovice.html","96"
"4","Divadlo","Divadlo bez hranic","https://www.firmy.cz/detail/636343-divadlo-bez-hranic-praha-nusle.html","823"
"5","Veterinář","MVDr. Linda Kadlečková","https://www.firmy.cz/detail/2160158-mvdr-linda-kadleckova-praha-vrsovice.html","153"
"6","Kino","HopeTV","https://www.firmy.cz/detail/672889-hopetv-praha-vinohrady.html","1397"
"7","Sportoviště","Tenisová škola RETURN","https://www.firmy.cz/detail/2160295-tenisova-skola-return-praha-vrsovice.html","312"
"8","Vlak","Praha-Vršovice","https://mapy.cz/zakladni?x=14.44775903480322&y=50.06465689836381&z=17&source=pubt&id=15212586","240"
"9","Metro","Jiřího z Poděbrad","https://mapy.cz/zakladni?x=14.4488562687&y=50.0770073365&z=17&source=pubt&id=15200273","1249"
"10","Tram","Nádraží Vršovice","https://mapy.cz/zakladni?x=14.4484549448&y=50.0660001288&z=17&source=pubt&id=15304345","153"
"11","Bankomat","Bankomat České spořitelny","https://www.firmy.cz/detail/594418-bankomat-ceske-sporitelny-praha-vrsovice.html","424"
"12","Školka","MŠ U Vršovického nádraží, Praha 10","https://www.firmy.cz/detail/407256-ms-u-vrsovickeho-nadrazi-praha-10-praha-vrsovice.html","293"
"13","Lékař","MUDr. Natalie Brožová","https://www.firmy.cz/detail/387367-mudr-natalie-brozova-praha-vrsovice.html","73"
"14","Restaurace","Restaurant & Music Bar Waikiki","https://www.firmy.cz/detail/645613-restaurant-music-bar-waikiki-praha-vrsovice.html","359"
"15","Škola","Základní škola, Praha 10, U Vršovického nádraží 1/950","https://www.firmy.cz/detail/358953-zakladni-skola-praha-10-u-vrsovickeho-nadrazi-1-950-praha-vrsovice.html","221"
"16","Lékárna","Lékárna Lemon","https://www.firmy.cz/detail/423012-lekarna-lemon-praha-vrsovice.html","527"
"17","Bus MHD","Ukrajinská","https://mapy.cz/zakladni?x=14.4523999442&y=50.0654330702&z=17&source=pubt&id=15304176","137"
"18","Pošta","Pošta Praha 101 - Česká pošta, s.p.","https://www.firmy.cz/detail/431434-posta-praha-101-praha-vrsovice.html","352"
"19","Obchod","Tesco Extra","https://www.firmy.cz/detail/733906-tesco-extra-praha-vrsovice.html","1293"
