"","facility_type","facility_name","facility_iri","facility_distance"
"0","Cukrárna","Cukrárna U Zámku - Ivana Korecká","https://www.firmy.cz/detail/2432279-cukrarna-u-zamku-praha.html","410"
"1","Kino","Letní Kino Kamínka","https://www.firmy.cz/detail/13066174-letni-kino-kaminka-praha-zbraslav.html","1000"
"2","Hřiště","Dětské hřiště Městská zahrada","","360"
"3","Večerka","Potraviny U Stromečku","https://www.firmy.cz/detail/269345-potraviny-u-stromecku-praha-zbraslav.html","109"
"4","Hospoda","Komořanská Pivnice","https://www.firmy.cz/detail/13316727-komoranska-pivnice-praha-modrany.html","2367"
"5","Divadlo","Divadlo Jana Kašky","https://www.firmy.cz/detail/12978086-divadlo-jana-kasky-praha-zbraslav.html","426"
"6","Veterinář","MVDr. Kateřina Hýková","https://www.firmy.cz/detail/2137638-mvdr-katerina-hykova-praha-zbraslav.html","378"
"7","Bus MHD","Most Závodu míru","","161"
"8","Restaurace","Pho Family","https://www.firmy.cz/detail/13242487-pho-family-praha-zbraslav.html","40"
"9","Pošta","Pošta Praha 516 - Česká pošta, s.p.","https://www.firmy.cz/detail/216727-posta-praha-516-praha-zbraslav.html","1041"
"10","Sportoviště","Bowling Zbraslav - Tenis","https://www.firmy.cz/detail/12976741-bowling-zbraslav-tenis-praha-zbraslav.html","65"
"11","Škola","ZŠ Vladislava Vančury, Praha - Zbraslav","https://www.firmy.cz/detail/356202-zs-vladislava-vancury-praha-zbraslav-praha-zbraslav.html","216"
"12","Bankomat","Bankomat MONETA Money Bank","https://www.firmy.cz/detail/13041481-bankomat-moneta-money-bank-praha-zbraslav.html","302"
"13","Lékař","MUDr. Pavel Stanka","https://www.firmy.cz/detail/12839243-mudr-pavel-stanka-praha-zbraslav.html","237"
"14","Tram","Čechova čtvrť","","3504"
"15","Školka","Julinka - mateřská škola logopedická","https://www.firmy.cz/detail/12928873-julinka-materska-skola-logopedicka-praha-zbraslav.html","176"
"16","Lékárna","Magistraliter pharma","https://www.firmy.cz/detail/13044594-magistraliter-pharma-praha-zbraslav.html","242"
"17","Vlak","Praha-Zbraslav","","555"
"18","Obchod","Obchodní pasáž Sofie","https://www.firmy.cz/detail/217785-obchodni-pasaz-sofie-praha-modrany.html","4103"
