"","facility_type","facility_name","facility_iri","facility_distance"
"0","Cukrárna","Caffe Zatti – Julius Meinl","https://www.firmy.cz/detail/12877656-caffe-zatti-julius-meinl-brno-trnita.html","251"
"1","Kino","5D cinema Maxim","https://www.firmy.cz/detail/12734839-5d-cinema-maxim-brno-mesto.html","357"
"2","Přírodní zajímavost","Přírodní zahrada U Smrku","","4745"
"3","Hřiště","Dětské hřiště Zderadova","","822"
"4","Večerka","Tesco","https://www.firmy.cz/detail/218191-tesco-brno-trnita.html","237"
"5","Hospoda","Pivnice U kocourka","https://www.firmy.cz/detail/13123894-pivnice-u-kocourka-brno-trnita.html","132"
"6","Divadlo","Malá Amerika","https://www.firmy.cz/detail/12926234-mala-amerika-brno-stare-brno.html","558"
"7","Veterinář","Veterinární klinika Gabrid","https://www.firmy.cz/detail/477125-veterinarni-klinika-gabrid-brno-trnita.html","464"
"8","Obchod","Albert Hypermarket","https://www.firmy.cz/detail/12922456-albert-hypermarket-brno-trnita.html","169"
"9","Sportoviště","Gym&Joy - squash","https://www.firmy.cz/detail/13248950-gym-joy-squash-brno-trnita.html","432"
"10","Pošta","Pošta Brno 2 - Česká pošta, s.p.","https://www.firmy.cz/detail/216013-posta-brno-2-brno-mesto.html","358"
"11","Restaurace","Los Capolitos","https://www.firmy.cz/detail/13290900-los-capolitos-brno-trnita.html","16"
"12","Lékař","MUDr. Jaroslava Veselá","https://www.firmy.cz/detail/387633-mudr-jaroslava-vesela-brno-mesto.html","412"
"13","Lékárna","BENU Lékárna","https://www.firmy.cz/detail/13163104-benu-lekarna-brno-trnita.html","237"
"14","Školka","ZŠ a MŠ Brno, Křenová","https://www.firmy.cz/detail/725953-zs-a-ms-brno-krenova-brno-trnita.html","228"
"15","Bankomat","Bankomat Komerční banky","https://www.firmy.cz/detail/591999-bankomat-komercni-banky-brno-trnita.html","167"
"16","Bus MHD","Úzká","","92"
"17","Vlak","Brno hlavní nádraží","","264"
"18","Tram","Úzká","","113"
"19","Škola","Základní škola BASIC","https://www.firmy.cz/detail/2203059-zakladni-skola-basic-brno-trnita.html","311"
