"","facility_type","facility_name","facility_iri","facility_distance"
"0","Hřiště","Dětské hřiště K Lukám","https://mapy.cz/zakladni?x=14.4651102888&y=50.0076524038&z=17&source=base&id=1927288","298"
"1","Večerka","Albert Supermarket","https://www.firmy.cz/detail/229744-albert-supermarket-praha-kamyk.html","577"
"2","Hospoda","Občerstvení U Báti","https://www.firmy.cz/detail/2175877-obcerstveni-u-bati-praha-libus.html","154"
"3","Veterinář","Veterinární nemocnice Libuš","https://www.firmy.cz/detail/601292-veterinarni-nemocnice-libus-praha-libus.html","285"
"4","Cukrárna","Cukrárna Na Musilech 349/26","https://www.firmy.cz/detail/276302-cukrarna-na-musilech-349-26-praha-libus.html","250"
"5","Divadlo","Loutkové divadlo Zvoneček","https://www.firmy.cz/detail/397112-loutkove-divadlo-zvonecek-praha-lhotka.html","2863"
"6","Kino","Cinema City Chodov","https://www.firmy.cz/detail/13098016-cinema-city-chodov-praha-chodov.html","3373"
"7","Bankomat","Bankomat Komerční banky","https://www.firmy.cz/detail/2423286-bankomat-komercni-banky-praha-libus.html","396"
"8","Bus MHD","Jirčanská","https://mapy.cz/zakladni?x=14.459595265&y=50.0059159456&z=17&source=pubt&id=15305536","141"
"9","Restaurace","Asia Restaurant Libuš","https://www.firmy.cz/detail/13148683-asia-restaurant-libus-praha-libus.html","44"
"10","Sportoviště","Tělocvičná jednota Sokol Libuš","https://www.firmy.cz/detail/637910-telocvicna-jednota-sokol-libus-praha-libus.html","305"
"11","Školka","Mateřská škola Mezi Domy","https://www.firmy.cz/detail/2265072-materska-skola-mezi-domy-praha-pisnice.html","380"
"12","Lékárna","Písnická lékárna","https://www.firmy.cz/detail/13272782-pisnicka-lekarna-praha-pisnice.html","678"
"13","Vlak","Praha-Krč","https://mapy.cz/zakladni?x=14.4459680257&y=50.0341635187&z=17&source=pubt&id=15212570","3270"
"14","Pošta","Pošta Praha 413 - Česká pošta, s.p.","https://www.firmy.cz/detail/217476-posta-praha-413-praha-libus.html","317"
"15","Tram","Levského","https://mapy.cz/zakladni?x=14.4360799568&y=50.0051219&z=17&source=pubt&id=15300415","1813"
"16","Lékař","Praktická lékařka - MUDr. Andrea Trčková","https://www.firmy.cz/detail/387802-prakticka-lekarka-mudr-andrea-trckova-praha-libus.html","135"
"17","Metro","Chodov","https://mapy.cz/zakladni?x=14.4913169&y=50.0309086&z=17&source=pubt&id=15200211","3459"
"18","Obchod","OC Kunratice","https://www.firmy.cz/detail/13045926-oc-kunratice-praha-kunratice.html","1152"
"19","Škola","ZŠ Meteorologická","https://www.firmy.cz/detail/399008-zs-meteorologicka-praha-libus.html","426"
