"","facility_type","facility_name","facility_iri","facility_distance"
"0","Cukrárna","Karlovarské cukrářství","https://www.firmy.cz/detail/13152065-karlovarske-cukrarstvi-praha-kobylisy.html","354"
"1","Kino","Cinema City Letňany","https://www.firmy.cz/detail/2679833-cinema-city-letnany-praha-letnany.html","2822"
"2","Přírodní zajímavost","Meandry Rokytky","","4864"
"3","Hřiště","Dětské hřiště Kyselova","","76"
"4","Večerka","Iceland","https://www.firmy.cz/detail/12892874-iceland-praha-kobylisy.html","137"
"5","Hospoda","Restaurace Pod Hájem","https://www.firmy.cz/detail/13021295-restaurace-pod-hajem-praha-liben.html","494"
"6","Divadlo","Divadlo Karla Hackera","https://www.firmy.cz/detail/2030639-divadlo-karla-hackera-praha-kobylisy.html","803"
"7","Veterinář","Veterinární ordinace MVDr.Martin Otáhal","https://www.firmy.cz/detail/473620-veterinarni-ordinace-mvdr-martin-otahal-praha-kobylisy.html","183"
"8","Obchod","Kaufland","https://www.firmy.cz/detail/1457859-kaufland-praha-liben.html","1128"
"9","Bankomat","Raiffeisenbank - bankomat","https://www.firmy.cz/detail/12717052-raiffeisenbank-bankomat-praha-kobylisy.html","133"
"10","Škola","Heřmánek Praha, základní škola a gymnázium","https://www.firmy.cz/detail/13107086-hermanek-praha-zakladni-skola-a-gymnazium-praha-kobylisy.html","231"
"11","Bus MHD","Ládví","","225"
"12","Metro","Ládví","","213"
"13","Školka","Heřmánek - mateřská škola","https://www.firmy.cz/detail/2624903-hermanek-materska-skola-praha-kobylisy.html","197"
"14","Sportoviště","Koupaliště Ládví","https://www.firmy.cz/detail/12901187-koupaliste-ladvi-praha-kobylisy.html","260"
"15","Tram","Kyselova","","209"
"16","Pošta","Pošta Praha 82 - Česká pošta, s.p.","https://www.firmy.cz/detail/431384-posta-praha-82-praha-kobylisy.html","259"
"17","Lékárna","BENU Lékárna","https://www.firmy.cz/detail/13163128-benu-lekarna-praha-kobylisy.html","254"
"18","Restaurace","KFC","https://www.firmy.cz/detail/13229115-kfc-praha-kobylisy.html","233"
"19","Vlak","Praha-Holešovice","","2648"
"20","Lékař","MUDr. Zuzana Jedličková","https://www.firmy.cz/detail/2490501-mudr-zuzana-jedlickova-praha-kobylisy.html","197"
