"","facility_type","facility_name","facility_iri","facility_distance"
"0","Cukrárna","JEDNO KAFE s.r.o., s.r.o.","https://www.firmy.cz/detail/13144478-jedno-kafe-s-r-o-praha-hloubetin.html","496"
"1","Kino","CineStar Černý Most","https://www.firmy.cz/detail/2537569-cinestar-cerny-most-praha-cerny-most.html","2451"
"2","Přírodní zajímavost","Meandry Rokytky","","2555"
"3","Hřiště","Dětské hřiště Chvaletická","","105"
"4","Večerka","Penny Market","https://www.firmy.cz/detail/12859596-penny-market-praha-hloubetin.html","520"
"5","Hospoda","Šenk Na Rajské","https://www.firmy.cz/detail/12814379-senk-na-rajske-praha.html","763"
"6","Divadlo","Přírodní divadlo Dády Stoklasy","https://www.firmy.cz/detail/13159295-prirodni-divadlo-dady-stoklasy-praha-horni-pocernice.html","3876"
"7","Veterinář","MetropoleVet","https://www.firmy.cz/detail/12988353-metropolevet-praha-kyje.html","820"
"8","Metro","Rajská zahrada","","654"
"9","Bus MHD","Žárská","","168"
"10","Lékárna","Dr.Max LÉKÁRNA","https://www.firmy.cz/detail/12804581-dr-max-lekarna-praha-kyje.html","346"
"11","Sportoviště","Tělocvičná jednota Sokol Hloubětín","https://www.firmy.cz/detail/2128183-telocvicna-jednota-sokol-hloubetin-praha-hloubetin.html","279"
"12","Pošta","Pošta Praha 98 - Česká pošta, s.p.","https://www.firmy.cz/detail/431412-posta-praha-98-praha-cerny-most.html","536"
"13","Lékař","MUDr. Riegerová Lenka, MediClinic a.s.","https://www.firmy.cz/detail/12761103-mudr-riegerova-lenka-mediclinic-a-s-praha-kyje.html","344"
"14","Škola","ZŠ, Praha 9, Chvaletická","https://www.firmy.cz/detail/356260-zs-praha-9-chvaleticka-praha-hloubetin.html","154"
"15","Bankomat","Bankomat ČSOB","https://www.firmy.cz/detail/13252880-bankomat-csob-praha.html","726"
"16","Restaurace","Restaurace TONG","https://www.firmy.cz/detail/13308565-restaurace-tong-praha-kyje.html","225"
"17","Školka","MŠ Praha 9, Chvaletická","https://www.firmy.cz/detail/2146267-ms-praha-9-chvaleticka-praha-hloubetin.html","183"
"18","Vlak","Praha-Kyje","","966"
"19","Obchod","Kaufland","https://www.firmy.cz/detail/13180341-kaufland-praha-hloubetin.html","706"
"20","Tram","Lehovec","","382"
