"","facility_type","facility_name","facility_iri","facility_distance"
"0","Hřiště","Dětské hřiště","https://mapy.cz/zakladni?x=18.395484172900893&y=49.79790490640173&z=17&source=base&id=2363162","633"
"1","Večerka","HRUŠKA","https://www.firmy.cz/detail/12892231-hruska-havirov-sumbark.html","273"
"2","Veterinář","Veterinární klinika ANIVET - MVDr. Zbyněk Horák","https://www.firmy.cz/detail/1969639-veterinarni-klinika-anivet-mvdr-zbynek-horak-havirov-sumbark.html","508"
"3","Hospoda","Hospůdka na hřišti","https://www.firmy.cz/detail/13128587-hospudka-na-hristi-havirov-sumbark.html","830"
"4","Kino","Letní kino - Městské kulturní středisko Havířov","https://www.firmy.cz/detail/13072791-letni-kino-havirov.html","1516"
"5","Cukrárna","Cukrárna Lada","https://www.firmy.cz/detail/12915655-cukrarna-lada-havirov-sumbark.html","1708"
"6","Školka","MŠ Havířov","https://www.firmy.cz/detail/2333584-ms-havirov-havirov-sumbark.html","238"
"7","Sportoviště","Sportovní Centrum ProCE TRADE","https://www.firmy.cz/detail/708439-sportovni-centrum-proce-trade-havirov-sumbark.html","434"
"8","Bankomat","Bankomat České spořitelny","https://www.firmy.cz/detail/2464983-bankomat-ceske-sporitelny-havirov-sumbark.html","635"
"9","Lékař","MUDr. René Turčínek","https://www.firmy.cz/detail/387379-mudr-rene-turcinek-havirov-sumbark.html","533"
"10","Restaurace","Restaurace Marie Pujmanové 	1118","https://www.firmy.cz/detail/13139774-restaurace-marie-pujmanove-1118-havirov-sumbark.html","330"
"11","Bus MHD","Havířov, Šumbark, mateřská škola","https://mapy.cz/zakladni?x=18.4034014729&y=49.7925229013&z=17&source=pubt&id=15330884","207"
"12","Vlak","Havířov","https://mapy.cz/zakladni?x=18.4125438808&y=49.7917388734&z=17&source=pubt&id=15211361","859"
"13","Škola","ZŠ Havířov - Šumbark","https://www.firmy.cz/detail/357060-zs-havirov-sumbark-havirov-sumbark.html","522"
"14","Lékárna","LÉKÁRNA ŠUMBARK","https://www.firmy.cz/detail/13204260-lekarna-sumbark-havirov-sumbark.html","503"
"15","Pošta","Pošta Havířov 3 - Česká pošta, s.p.","https://www.firmy.cz/detail/431629-posta-havirov-3-havirov-sumbark.html","370"
"16","Obchod","Tesco","https://www.firmy.cz/detail/218205-tesco-havirov-mesto.html","1376"
