"","facility_type","facility_name","facility_iri","facility_distance"
"0","Cukrárna","Shothouse","https://www.firmy.cz/detail/13286217-shothouse-havirov-mesto.html","371"
"1","Kino","Kino Centrum","https://www.firmy.cz/detail/12780436-kino-centrum-havirov-mesto.html","593"
"2","Hřiště","Dětské hřiště Mánesova","","189"
"3","Večerka","HRUŠKA","https://www.firmy.cz/detail/12863532-hruska-havirov-mesto.html","199"
"4","Hospoda","Autobar","https://www.firmy.cz/detail/13277623-autobar-havirov-mesto.html","144"
"5","Veterinář","Veterinární ordinace u Nemocnice","https://www.firmy.cz/detail/13319420-veterinarni-ordinace-u-nemocnice-havirov-mesto.html","467"
"6","Škola","Střední průmyslová škola elektrotechnická, Havířov","https://www.firmy.cz/detail/362589-stredni-prumyslova-skola-elektrotechnicka-havirov-havirov-mesto.html","111"
"7","Bankomat","Bankomat ČSOB","https://www.firmy.cz/detail/13252641-bankomat-csob-havirov-mesto.html","447"
"8","Obchod","Obchodní centrum Elan","https://www.firmy.cz/detail/2181587-obchodni-centrum-elan-havirov-mesto.html","560"
"9","Sportoviště","Tenisové kurty Paulát","https://www.firmy.cz/detail/13095949-tenisove-kurty-paulat-havirov-mesto.html","64"
"10","Školka","MŠ Havířov, Resslova","https://www.firmy.cz/detail/407410-ms-havirov-resslova-havirov-mesto.html","114"
"11","Lékárna","Lékárna U Elišky","https://www.firmy.cz/detail/421095-lekarna-u-elisky-havirov-mesto.html","392"
"12","Pošta","Pošta Havířov 1 - Česká pošta, s.p.","https://www.firmy.cz/detail/431627-posta-havirov-1-havirov-mesto.html","472"
"13","Lékař","DOKTOR MONTAG, s.r.o.","https://www.firmy.cz/detail/2669657-doktor-montag-havirov-mesto.html","476"
"14","Vlak","Havířov-střed","","876"
"15","Restaurace","Vegan House","https://www.firmy.cz/detail/13309606-vegan-house-havirov-mesto.html","204"
"16","Bus MHD","Havířov, Město, Mozartova","","183"
