"","facility_type","facility_name","facility_iri","facility_distance"
"0","Cukrárna","Vanille.","https://www.firmy.cz/detail/2218301-vanille-praha-vinohrady.html","157"
"1","Kino","HopeTV","https://www.firmy.cz/detail/672889-hopetv-praha-vinohrady.html","369"
"2","Hřiště","Dětské hřiště Riegrovy sady","","700"
"3","Večerka","Potraviny Eso Market","https://www.firmy.cz/detail/2341949-potraviny-eso-market-praha-vinohrady.html","268"
"4","Hospoda","Hospoda Pohoda","https://www.firmy.cz/detail/569598-hospoda-pohoda-praha-nusle.html","1215"
"5","Divadlo","Divadlo na Vinohradech","https://www.firmy.cz/detail/230745-divadlo-na-vinohradech-praha-vinohrady.html","38"
"6","Veterinář","Veterinární ambulance Help","https://www.firmy.cz/detail/178079-veterinarni-ambulance-help-praha-vinohrady.html","266"
"7","Sportoviště","Tenisová škola Vinohrady – Jiří Brázda","https://www.firmy.cz/detail/433988-tenisova-skola-vinohrady-jiri-brazda-praha-vinohrady.html","236"
"8","Lékárna","U svaté Ludmily","https://www.firmy.cz/detail/374313-u-svate-ludmily-praha-vinohrady.html","234"
"9","Školka","MŠ Čtyřlístek, Praha 2, Římská","https://www.firmy.cz/detail/671299-ms-ctyrlistek-praha-2-rimska-praha-vinohrady.html","108"
"10","Bus MHD","Římská","","88"
"11","Lékař","MUDr. Olga Horáková","https://www.firmy.cz/detail/386966-mudr-olga-horakova-praha-vinohrady.html","113"
"12","Obchod","PAVILON, a.s.","https://www.firmy.cz/detail/451685-pavilon-praha-vinohrady.html","417"
"13","Tram","Náměstí Míru","","145"
"14","Pošta","Pošta Praha 24 - Česká pošta, s.p.","https://www.firmy.cz/detail/431217-posta-praha-24-praha-vinohrady.html","114"
"15","Bankomat","Bankomat Komerční banky","https://www.firmy.cz/detail/595958-bankomat-komercni-banky-praha-vinohrady.html","94"
"16","Restaurace","Restaurace a bistro Aromi","https://www.firmy.cz/detail/649866-restaurace-a-bistro-aromi-praha-vinohrady.html","17"
"17","Metro","Náměstí Míru","","131"
"18","Vlak","Praha hlavní nádraží","","749"
"19","Škola","Arcibiskupské Gymnázium Praha, Vinohrady","https://www.firmy.cz/detail/361803-arcibiskupske-gymnazium-praha-vinohrady-praha-vinohrady.html","173"
