"","facility_type","facility_name","facility_iri","facility_distance"
"0","Cukrárna","Café Na půl cesty","https://www.firmy.cz/detail/610739-cafe-na-pul-cesty-praha.html","201"
"1","Hřiště","Dětské hřiště park Na Pankráci","","170"
"2","Kino","HopeTV","https://www.firmy.cz/detail/672889-hopetv-praha-vinohrady.html","2733"
"3","Večerka","NORMA","https://www.firmy.cz/detail/2182167-norma-praha-krc.html","463"
"4","Hospoda","Hostinec U Procházků","https://www.firmy.cz/detail/573112-hostinec-u-prochazku-praha-krc.html","866"
"5","Divadlo","TotO Divadlo","https://www.firmy.cz/detail/2262258-toto-divadlo-praha-nusle.html","1222"
"6","Veterinář","MVDr. Lucie Boháčová","https://www.firmy.cz/detail/2646562-mvdr-lucie-bohacova-praha-podoli.html","1017"
"7","Lékař","MUDr. Karel Netolický","https://www.firmy.cz/detail/386894-mudr-karel-netolicky-praha-nusle.html","459"
"8","Lékárna","Lékárna U sv. Pankráce","https://www.firmy.cz/detail/422787-lekarna-u-sv-pankrace-praha-nusle.html","884"
"9","Bankomat","Raiffeisenbank - bankomat","https://www.firmy.cz/detail/631182-raiffeisenbank-bankomat-praha-podoli.html","293"
"10","Školka","Škola Kavčí hory - MŠ, ZŠ a Střední odborná škola služeb Praha 4","https://www.firmy.cz/detail/662769-skola-kavci-hory-ms-zs-a-stredni-odborna-skola-sluzeb-praha-4-praha-podoli.html","308"
"11","Obchod","Arkády Pankrác","https://www.firmy.cz/detail/2245240-arkady-pankrac-praha-nusle.html","638"
"12","Pošta","Pošta Praha 4 - Česká pošta, s.p.","https://www.firmy.cz/detail/216681-posta-praha-4-praha-krc.html","898"
"13","Škola","Škola Kavčí hory - MŠ, ZŠ a Střední odborná škola služeb Praha 4","https://www.firmy.cz/detail/356149-skola-kavci-hory-ms-zs-a-stredni-odborna-skola-sluzeb-praha-4-praha-podoli.html","365"
"14","Bus MHD","Kavčí hory","","37"
"15","Metro","Pankrác","","796"
"16","Vlak","Praha-Žvahov","","1946"
"17","Restaurace","Restaurace Na Pekařce","https://www.firmy.cz/detail/12767245-restaurace-na-pekarce-praha-podoli.html","189"
"18","Sportoviště","Pétanque park Na Pankráci","","233"
"19","Tram","Pankrác","","802"
