"","facility_type","facility_name","facility_iri","facility_distance"
"0","Cukrárna","La Terra Coffee","https://www.firmy.cz/detail/12898977-la-terra-coffee-praha-krc.html","515"
"1","Kino","Kino Pilotů","https://www.firmy.cz/detail/12984004-kino-pilotu-praha-vrsovice.html","3505"
"2","Hřiště","Dětské hřiště U Strže","","219"
"3","Večerka","Albert Supermarket","https://www.firmy.cz/detail/12924281-albert-supermarket-praha-krc.html","111"
"4","Hospoda","Hostinec U Procházků","https://www.firmy.cz/detail/573112-hostinec-u-prochazku-praha-krc.html","863"
"5","Divadlo","Divadlo Dobeška","https://www.firmy.cz/detail/197707-divadlo-dobeska-praha-branik.html","1679"
"6","Veterinář","Veterinární klinika zelená liška","https://www.firmy.cz/detail/655752-veterinarni-klinika-zelena-liska-praha-krc.html","711"
"7","Bankomat","Bankomat České spořitelny","https://www.firmy.cz/detail/12738326-bankomat-ceske-sporitelny-praha-krc.html","83"
"8","Restaurace","Mattes restaurant","https://www.firmy.cz/detail/2628391-mattes-restaurant-praha-krc.html","130"
"9","Lékárna","Dr. Max","https://www.firmy.cz/detail/12856952-dr-max-praha-krc.html","295"
"10","Škola","ZŠ Praha 4, Na planině","https://www.firmy.cz/detail/356169-zs-praha-4-na-planine-praha-krc.html","450"
"11","Obchod","OC DBK Budějovická","https://www.firmy.cz/detail/169885-oc-dbk-budejovicka-praha-krc.html","845"
"12","Sportoviště","Hit tenis, s.r.o.","https://www.firmy.cz/detail/157528-hit-tenis-praha-krc.html","507"
"13","Pošta","Pošta Praha 42 - Česká pošta, s.p.","https://www.firmy.cz/detail/217484-posta-praha-42-praha-krc.html","382"
"14","Vlak","Praha-Krč","","851"
"15","Školka","MŠ Praha, Matěchova","https://www.firmy.cz/detail/406906-ms-praha-matechova-praha-krc.html","218"
"16","Tram","Pankrác","","1325"
"17","Lékař","MUDR. JIŘÍ BROŽ, PRAKTICKÝ LÉKAŘ","https://www.firmy.cz/detail/387599-mudr-jiri-broz-prakticky-lekar-praha-krc.html","295"
"18","Bus MHD","Ryšánka","","74"
"19","Metro","Budějovická","","801"
