"","facility_type","facility_name","facility_iri","facility_distance"
"0","Hřiště","Dětské hřiště","https://mapy.cz/zakladni?x=14.3103190244&y=48.9047278758&z=17&source=base&id=2193686","221"
"1","Veterinář","Jan Kovář MVDr.","https://www.firmy.cz/detail/12864006-jan-kovar-mvdr-kremze.html","708"
"2","Večerka","Supermarket COOP","https://www.firmy.cz/detail/2117937-supermarket-coop-kremze.html","316"
"3","Hospoda","Chmelenská hospoda","https://www.firmy.cz/detail/13139735-chmelenska-hospoda-kremze-chmelna.html","3788"
"4","Sportoviště","TJ Sokol Křemže - tělovýchovná jednota","https://www.firmy.cz/detail/2650089-tj-sokol-kremze-telovychovna-jednota-kremze.html","301"
"5","Pošta","Pošta Křemže - Česká pošta, s.p.","https://www.firmy.cz/detail/217039-posta-kremze-kremze.html","240"
"6","Škola","ZŠ a MŠ Křemže","https://www.firmy.cz/detail/357863-zs-a-ms-kremze-kremze.html","265"
"7","Lékař","MUDr. Monika Buštová","https://www.firmy.cz/detail/13267038-mudr-monika-bustova-kremze.html","128"
"8","Restaurace","Restaurace v Háji","https://www.firmy.cz/detail/13321485-restaurace-v-haji-kremze.html","361"
"9","Bus MHD","Křemže","https://mapy.cz/zakladni?x=14.3047967499&y=48.9052269708&z=17&source=pubt&id=17671184","283"
"10","Školka","ZŠ a MŠ Křemže","https://www.firmy.cz/detail/434044-zs-a-ms-kremze-kremze.html","226"
"11","Vlak","Křemže","https://mapy.cz/zakladni?x=14.3313080786&y=48.9046089215&z=17&source=pubt&id=15211854","1688"
"12","Bankomat","Bankomat České spořitelny","https://www.firmy.cz/detail/593082-bankomat-ceske-sporitelny-kremze.html","216"
