"","facility_type","facility_name","facility_iri","facility_distance"
"0","Hřiště","Dětské hřiště Zdislavická","https://mapy.cz/zakladni?x=14.4455262424&y=50.0182023032&z=17&source=base&id=1926760","52"
"1","Večerka","Albert Supermarket","https://www.firmy.cz/detail/229748-albert-supermarket-praha-kamyk.html","230"
"2","Hospoda","Pivnice Jasná","https://www.firmy.cz/detail/13002565-pivnice-jasna-praha-kamyk.html","227"
"3","Kino","AutoKino Ledárny","https://www.firmy.cz/detail/13312696-autokino-ledarny-praha.html","3277"
"4","Cukrárna","Cukrárna Hájek&Hájková","https://www.firmy.cz/detail/13339931-cukrarna-hajek-hajkova-praha-krc.html","723"
"5","Veterinář","MVDr. Jan Chvátal","https://www.firmy.cz/detail/2138976-mvdr-jan-chvatal-praha-kamyk.html","61"
"6","Divadlo","Loutkové divadlo Zvoneček","https://www.firmy.cz/detail/397112-loutkove-divadlo-zvonecek-praha-lhotka.html","1199"
"7","Školka","MŠ Oáza Praha 12","https://www.firmy.cz/detail/161483-ms-oaza-praha-12-praha-kamyk.html","263"
"8","Restaurace","Hostinec Na Kamýku","https://www.firmy.cz/detail/13024465-hostinec-na-kamyku-praha-kamyk.html","292"
"9","Sportoviště","Veřejné hřiště na míčové hry Novodvorská","https://mapy.cz/zakladni?x=14.4434275509&y=50.0203858504&z=17&source=base&id=2263161","335"
"10","Tram","Levského","https://mapy.cz/zakladni?x=14.4360799568&y=50.0051219&z=17&source=pubt&id=15300415","1590"
"11","Obchod","OC Novo Plaza","https://www.firmy.cz/detail/2135100-oc-novo-plaza-praha-branik.html","1341"
"12","Lékař","DIPTE, spol. s r.o.","https://www.firmy.cz/detail/395207-dipte-praha-kamyk.html","121"
"13","Metro","Budějovická","https://mapy.cz/zakladni?x=14.4501600237&y=50.0431959578&z=17&source=pubt&id=15200208","2828"
"14","Pošta","Pošta Praha 411 - Česká pošta, s.p.","https://www.firmy.cz/detail/217478-posta-praha-411-praha-lhotka.html","449"
"15","Vlak","Praha-Krč","https://mapy.cz/zakladni?x=14.4459680257&y=50.0341635187&z=17&source=pubt&id=15212570","1809"
"16","Lékárna","Dr. Max","https://www.firmy.cz/detail/12856949-dr-max-praha-kamyk.html","227"
"17","Bankomat","Bankomat České spořitelny","https://www.firmy.cz/detail/594800-bankomat-ceske-sporitelny-praha-kamyk.html","203"
"18","Bus MHD","Nové Dvory","https://mapy.cz/zakladni?x=14.446599819&y=50.0174301127&z=17&source=pubt&id=15300228","64"
"19","Škola","ZŠ Praha 12, Písnická","https://www.firmy.cz/detail/356179-zs-praha-12-pisnicka-praha-kamyk.html","362"
