"","facility_type","facility_name","facility_iri","facility_distance"
"0","Hřiště","Dětské hřiště Sídliště Skalka","https://mapy.cz/zakladni?x=14.5119012859&y=50.0663056075&z=17&source=base&id=1926546","496"
"1","Přírodní zajímavost","Mokřad Triangl","https://mapy.cz/zakladni?x=14.5188041667&y=50.0615525&z=17&source=base&id=1981356","929"
"2","Večerka","Albert Supermarket","https://www.firmy.cz/detail/229768-albert-supermarket-praha-strasnice.html","489"
"3","Divadlo","Divadélko Beze Jména","https://www.firmy.cz/detail/12986402-divadelko-beze-jmena-praha-strasnice.html","1388"
"4","Cukrárna","ZELA, s.r.o.","https://www.firmy.cz/detail/12984529-zela-praha-zabehlice.html","763"
"5","Hospoda","Hospoda Švehlovka","https://www.firmy.cz/detail/13118966-hospoda-svehlovka-praha-zabehlice.html","856"
"6","Veterinář","Veterinární ambulance - MVDr. Renáta Kvapilová","https://www.firmy.cz/detail/473616-veterinarni-ambulance-mvdr-renata-kvapilova-praha-strasnice.html","686"
"7","Kino","Multikino - Premiere Cinemas Praha Hostivař","https://www.firmy.cz/detail/12745547-multikino-premiere-cinemas-praha-hostivar-praha-hostivar.html","1428"
"8","Lékař","MUDr. Naděžda Havránková","https://www.firmy.cz/detail/387315-mudr-nadezda-havrankova-praha-strasnice.html","583"
"9","Restaurace","Restaurace Shi Wei Tian","https://www.firmy.cz/detail/12794499-restaurace-shi-wei-tian-praha-strasnice.html","383"
"10","Vlak","Praha-Zahradní Město","https://mapy.cz/zakladni?x=14.5040304234491&y=50.0621435968105&z=17&source=pubt&id=19190316","235"
"11","Tram","Nádraží Zahradní Město","https://mapy.cz/zakladni?x=14.50424&y=50.0623&z=17&source=pubt&id=20812876","212"
"12","Bus MHD","Na Padesátém","https://mapy.cz/zakladni?x=14.5053128396&y=50.0645014004&z=17&source=pubt&id=15302074","109"
"13","Školka","Anglická školka a jazyková škola Kryštof","https://www.firmy.cz/detail/12868414-anglicka-skolka-a-jazykova-skola-krystof-praha-strasnice.html","318"
"14","Pošta","Pošta Praha 106 - Česká pošta, s.p.","https://www.firmy.cz/detail/431448-posta-praha-106-praha-zabehlice.html","767"
"15","Sportoviště","Veřejné hřiště na míčové hry Aldašínská","https://mapy.cz/zakladni?x=14.5111020935&y=50.0666777327&z=17&source=base&id=2136673","479"
"16","Obchod","Tesco Extra Skalka","https://www.firmy.cz/detail/653533-tesco-extra-skalka-praha-strasnice.html","850"
"17","Škola","ZUŠ Praha 10, Olešská","https://www.firmy.cz/detail/399205-zus-praha-10-olesska-praha-strasnice.html","326"
"18","Metro","Skalka","https://mapy.cz/zakladni?x=14.5079324576&y=50.0677616201&z=17&source=pubt&id=15206931","465"
"19","Lékárna","BENU Lékárna","https://www.firmy.cz/detail/2024741-benu-lekarna-praha-strasnice.html","538"
"20","Bankomat","Bankomat ČSOB","https://www.firmy.cz/detail/599563-bankomat-csob-praha-zabehlice.html","372"
