"","facility_type","facility_name","facility_iri","facility_distance"
"0","Hřiště","Dětské hřiště Vojtěšský obvod","https://mapy.cz/zakladni?x=14.4130060351&y=50.0778978389&z=17&source=base&id=1926387","274"
"1","Cukrárna","Cukrárna Studánka","https://www.firmy.cz/detail/335042-cukrarna-studanka-praha-nove-mesto.html","89"
"2","Veterinář","Veterinární klinika Na Hrádku - MVDr. Ľubica Nečasová","https://www.firmy.cz/detail/633528-veterinarni-klinika-na-hradku-mvdr-lubica-necasova-praha-nove-mesto.html","561"
"3","Hospoda","Hostinec U Suchý Dásně","https://www.firmy.cz/detail/679683-hostinec-u-suchy-dasne-praha-nove-mesto.html","579"
"4","Večerka","BILLA","https://www.firmy.cz/detail/689169-billa-praha-nove-mesto.html","217"
"5","Divadlo","Minor","https://www.firmy.cz/detail/230743-minor-praha-nove-mesto.html","553"
"6","Kino","Kino Mat","https://www.firmy.cz/detail/1974792-kino-mat-praha-nove-mesto.html","361"
"7","Přírodní zajímavost","Kovářovic mez","https://mapy.cz/zakladni?x=14.36107759920759&y=50.04395254566995&z=17&source=base&id=2339664","5249"
"8","Bus MHD","Jiráskovo náměstí","https://mapy.cz/zakladni?x=14.414489624879565&y=50.07557205823159&z=17&source=pubt&id=15303124","64"
"9","Lékař","online24, s.r.o.","https://www.firmy.cz/detail/579737-online24-praha-nove-mesto.html","318"
"10","Metro","Karlovo náměstí","https://mapy.cz/zakladni?x=14.4175483399639&y=50.0745659494574&z=17&source=pubt&id=19829471","221"
"11","Škola","ČAO, Resslova 5, Praha 2","https://www.firmy.cz/detail/362411-cao-resslova-5-praha-2-praha-nove-mesto.html","50"
"12","Vlak","Praha-Smíchov severní nást.","https://mapy.cz/zakladni?x=14.4065580233&y=50.0636913993&z=17&source=pubt&id=15694558","1491"
"13","Bankomat","Raiffeisenbank - bankomat","https://www.firmy.cz/detail/631176-raiffeisenbank-bankomat-praha-nove-mesto.html","248"
"14","Obchod","Quadrio","https://www.firmy.cz/detail/2042979-quadrio-praha-nove-mesto.html","700"
"15","Pošta","Pošta Praha 5 - Česká pošta, s.p.","https://www.firmy.cz/detail/217457-posta-praha-5-praha-smichov.html","649"
"16","Restaurace","Potrefená husa","https://www.firmy.cz/detail/671385-potrefena-husa-praha-nove-mesto.html","23"
"17","Sportoviště","VŠTJ Technika Praha strojní fakulta","https://www.firmy.cz/detail/2648614-vstj-technika-praha-strojni-fakulta-praha-nove-mesto.html","274"
"18","Lékárna","LÉKÁRNA MORÁŇ","https://www.firmy.cz/detail/658422-lekarna-moran-praha-nove-mesto.html","277"
"19","Tram","Jiráskovo náměstí","https://mapy.cz/zakladni?x=14.414141199679163&y=50.076209999865&z=17&source=pubt&id=15305467","85"
"20","Školka","ZŠ a MŠ Praha 2, Resslova","https://www.firmy.cz/detail/770593-zs-a-ms-praha-2-resslova-praha-nove-mesto.html","232"
