"","facility_type","facility_name","facility_iri","facility_distance"
"0","Cukrárna","Cukrárna Máslové Trubičky","https://www.firmy.cz/detail/13031591-cukrarna-maslove-trubicky-brno-styrice.html","636"
"1","Kino","5D cinema Maxim","https://www.firmy.cz/detail/12734839-5d-cinema-maxim-brno-mesto.html","2561"
"2","Hřiště","Dětské hřiště Pšeník","","346"
"3","Přírodní zajímavost","Koniklecová louka","","3617"
"4","Večerka","JIP Cash & Carry","https://www.firmy.cz/detail/12922900-jip-cash-carry-brno-styrice.html","705"
"5","Divadlo","Malá Amerika","https://www.firmy.cz/detail/12926234-mala-amerika-brno-stare-brno.html","2093"
"6","Hospoda","Kalinka - Pivnice U Toudyho","https://www.firmy.cz/detail/13329489-kalinka-pivnice-u-toudyho-brno-bohunice.html","1162"
"7","Veterinář","Veterinární klinika - VetPark,  MVDr. Dominik Vlach","https://www.firmy.cz/detail/13025797-veterinarni-klinika-vetpark-mvdr-dominik-vlach-brno-styrice.html","488"
"8","Bankomat","Bankomat Fio banky","https://www.firmy.cz/detail/13288058-bankomat-fio-banky-brno-styrice.html","44"
"9","Lékař","MOJE AMBULANCE","https://www.firmy.cz/detail/2141122-moje-ambulance-brno-styrice.html","44"
"10","Sportoviště","In Motion Academy - parkourová hala","https://www.firmy.cz/detail/13077134-in-motion-academy-parkourova-hala-brno-styrice.html","276"
"11","Škola","Střední škola polytechnická, Brno","https://www.firmy.cz/detail/360977-stredni-skola-polytechnicka-brno-brno-styrice.html","730"
"12","Bus MHD","Ústřední hřbitov","","18"
"13","Školka","MŠ Na kopečku u zvonečku, Brno","https://www.firmy.cz/detail/2280412-ms-na-kopecku-u-zvonecku-brno-brno-styrice.html","1036"
"14","Lékárna","Dr. Max","https://www.firmy.cz/detail/13072167-dr-max-brno-styrice.html","44"
"15","Pošta","Pošta Brno 8 - Česká pošta, s.p.","https://www.firmy.cz/detail/1534358-posta-brno-8-brno-styrice.html","876"
"16","Obchod","Albert Hypermarket","https://www.firmy.cz/detail/12926968-albert-hypermarket-brno-styrice.html","630"
"17","Restaurace","Táckárna","https://www.firmy.cz/detail/13297685-tackarna-brno-styrice.html","102"
"18","Vlak","Brno-Horní Heršpice","","766"
"19","Tram","Ústřední hřbitov","","47"
