"","facility_type","facility_name","facility_iri","facility_distance"
"0","Cukrárna","Kavárna Rektorát","https://www.firmy.cz/detail/1276542-kavarna-rektorat-olomouc.html","393"
"1","Kino","Letní kino Olomouc","https://www.firmy.cz/detail/13157654-letni-kino-olomouc-olomouc.html","121"
"2","Hřiště","Dětské hřiště Park Pod Dómem","","303"
"3","Večerka","Obchůdek u Evy","https://www.firmy.cz/detail/12800838-obchudek-u-evy-olomouc.html","189"
"4","Divadlo","Divadlo hudby","https://www.firmy.cz/detail/12933426-divadlo-hudby-olomouc.html","349"
"5","Hospoda","Hospoda U DVOU STRAŠIDEL","https://www.firmy.cz/detail/13319047-hospoda-u-dvou-strasidel-olomouc.html","314"
"6","Veterinář","MVDr. Ivo Lohrer","https://www.firmy.cz/detail/277109-mvdr-ivo-lohrer-olomouc-lazce.html","395"
"7","Bankomat","Bankomat Komerční banky","https://www.firmy.cz/detail/594325-bankomat-komercni-banky-olomouc.html","327"
"8","Obchod","Galerie Moritz, a.s.","https://www.firmy.cz/detail/616507-galerie-moritz-olomouc.html","754"
"9","Pošta","Pošta Olomouc 1 - Česká pošta, s.p.","https://www.firmy.cz/detail/215882-posta-olomouc-1-olomouc.html","311"
"10","Sportoviště","Laser Aréna Olomouc","https://www.firmy.cz/detail/13006485-laser-arena-olomouc-olomouc.html","189"
"11","Školka","Kopretinka Olomouc","https://www.firmy.cz/detail/12914667-kopretinka-olomouc-olomouc.html","307"
"12","Bus MHD","Olomouc, Dlouhá","","252"
"13","Tram","U Dómu","","234"
"14","Lékař","Praktikcentrum s.r.o.","https://www.firmy.cz/detail/12829925-praktikcentrum-s-r-o-olomouc-lazce.html","383"
"15","Lékárna","Lékárna Na Letné","https://www.firmy.cz/detail/422126-lekarna-na-letne-olomouc-lazce.html","383"
"16","Škola","Caritas - Vyšší odborná škola sociální Olomouc","https://www.firmy.cz/detail/362663-caritas-vyssi-odborna-skola-socialni-olomouc-olomouc.html","340"
"17","Vlak","Olomouc město","","1385"
"18","Restaurace","Bistro U Pana Lilka","https://www.firmy.cz/detail/13112820-bistro-u-pana-lilka-olomouc.html","206"
