"","facility_type","facility_name","facility_iri","facility_distance"
"0","Cukrárna","Ovocná cukrárna","https://www.firmy.cz/detail/12722437-ovocna-cukrarna-praha-bubenec.html","1553"
"1","Kino","Bio Oko","https://www.firmy.cz/detail/2586117-bio-oko-praha-holesovice.html","2178"
"2","Hřiště","Dětské hřiště u tučňáků","","147"
"3","Večerka","ESO Potraviny","https://www.firmy.cz/detail/12801408-eso-potraviny-praha-bubenec.html","1399"
"4","Divadlo","Dejvické divadlo, o.p.s.","https://www.firmy.cz/detail/396832-dejvicke-divadlo-praha-dejvice.html","1462"
"5","Hospoda","U Pošty","https://www.firmy.cz/detail/573057-u-posty-praha-dejvice.html","1995"
"6","Veterinář","MVDr. Michaela Riedlová","https://www.firmy.cz/detail/473621-mvdr-michaela-riedlova-praha-dejvice.html","1325"
"7","Škola","Euroškola Praha","https://www.firmy.cz/detail/648448-euroskola-praha-praha-troja.html","900"
"8","Bankomat","Bankomat Komerční banky","https://www.firmy.cz/detail/594678-bankomat-komercni-banky-praha-troja.html","245"
"9","Školka","Ekoškolka Rozárka Praha 7","https://www.firmy.cz/detail/12846108-ekoskolka-rozarka-praha-7-praha-troja.html","520"
"10","Bus MHD","Zoologická zahrada","","232"
"11","Obchod","Kaufland","https://www.firmy.cz/detail/12720219-kaufland-praha-dejvice.html","1263"
"12","Pošta","Pošta Praha 71 - Česká pošta, s.p.","https://www.firmy.cz/detail/431350-posta-praha-71-praha-troja.html","900"
"13","Lékař","MUDr. Alena Vodáková","https://www.firmy.cz/detail/388100-mudr-alena-vodakova-praha-troja.html","1411"
"14","Vlak","Praha-Podbaba","","1064"
"15","Tram","Nádraží Podbaba","","1169"
"16","Sportoviště","Nikola Bendlová","https://www.firmy.cz/detail/12730891-nikola-bendlova-praha.html","430"
"17","Restaurace","Club Restaurant","https://www.firmy.cz/detail/2640321-club-restaurant-praha-bubenec.html","490"
"18","Metro","Dejvická","","1908"
"19","Lékárna","Dr.Max LÉKÁRNA","https://www.firmy.cz/detail/12726492-dr-max-lekarna-praha-dejvice.html","1263"
