"","facility_type","facility_name","facility_iri","facility_distance"
"0","Cukrárna","Cukrárna Edith","https://www.firmy.cz/detail/13285229-cukrarna-edith-hradec-kralove-novy-hradec-kralove.html","186"
"1","Kino","CineStar Hradec Králové","https://www.firmy.cz/detail/396569-cinestar-hradec-kralove-hradec-kralove-novy-hradec-kralove.html","991"
"2","Přírodní zajímavost","Smiřická hráz","","1557"
"3","Hřiště","Dětské hřiště Emy Destinnové","","257"
"4","Večerka","AN Supermarket potraviny","https://www.firmy.cz/detail/13059492-an-supermarket-potraviny-hradec-kralove-novy-hradec-kralove.html","447"
"5","Hospoda","Palma","https://www.firmy.cz/detail/13118104-palma-hradec-kralove-novy-hradec-kralove.html","447"
"6","Divadlo","Divadlo Drak","https://www.firmy.cz/detail/230884-divadlo-drak-hradec-kralove.html","2096"
"7","Veterinář","HKvet veterinární klinika","https://www.firmy.cz/detail/402422-hkvet-veterinarni-klinika-hradec-kralove-novy-hradec-kralove.html","718"
"8","Sportoviště","SK Tenis Hradec Králové","https://www.firmy.cz/detail/1943214-sk-tenis-hradec-kralove-hradec-kralove-novy-hradec-kralove.html","278"
"9","Restaurace","Restaurace Aquarium","https://www.firmy.cz/detail/12725781-restaurace-aquarium-hradec-kralove-novy-hradec-kralove.html","188"
"10","Pošta","Pošta Hradec Králové 9 - Česká pošta, s.p.","https://www.firmy.cz/detail/215981-posta-hradec-kralove-9-hradec-kralove-novy-hradec-kralove.html","501"
"11","Bankomat","Bankomat ČSOB","https://www.firmy.cz/detail/12768409-bankomat-csob-hradec-kralove-novy-hradec-kralove.html","488"
"12","Lékárna","BENU Lékárna","https://www.firmy.cz/detail/658206-benu-lekarna-hradec-kralove-novy-hradec-kralove.html","855"
"13","Lékař","MUDr. Jana Šmídová","https://www.firmy.cz/detail/12958001-mudr-jana-smidova-hradec-kralove-novy-hradec-kralove.html","693"
"14","Bus MHD","Na Občinách","","143"
"15","Obchod","Tesco","https://www.firmy.cz/detail/429303-tesco-hradec-kralove-novy-hradec-kralove.html","808"
"16","Škola","ZŠ Hradec Králové, Štefcova","https://www.firmy.cz/detail/357253-zs-hradec-kralove-stefcova-hradec-kralove-novy-hradec-kralove.html","611"
"17","Vlak","Hradec Králové-Slezské Předměstí","","2904"
"18","Školka","Mateřská škola Zvoneček, Hradec Králové, Čajkovského 1093","https://www.firmy.cz/detail/2576021-materska-skola-zvonecek-hradec-kralove-cajkovskeho-1093-hradec-kralove-novy-hradec-kralove.html","306"
