"","facility_type","facility_name","facility_iri","facility_distance"
"0","Hřiště","Dětské hřiště V Kuťatech","https://mapy.cz/zakladni?x=14.6088727778&y=50.0277216667&z=17&source=base&id=1933102","302"
"1","Večerka","Penny Market, s.r.o.","https://www.firmy.cz/detail/13104026-penny-market-praha.html","543"
"2","Hospoda","Lipanská hospůdka U Klingra","https://www.firmy.cz/detail/12981882-lipanska-hospudka-u-klingra-praha-lipany.html","3023"
"3","Veterinář","MVDr. Jiří Hatina","https://www.firmy.cz/detail/612211-mvdr-jiri-hatina-praha-uhrineves.html","938"
"4","Cukrárna","Cukrárna Křešínská 131/8","https://www.firmy.cz/detail/162378-cukrarna-kresinska-131-8-praha-uhrineves.html","1197"
"5","Kino","ÚČKO Kino","https://www.firmy.cz/detail/12965466-ucko-kino-praha-uhrineves.html","545"
"6","Divadlo","Divadlo U22","https://www.firmy.cz/detail/12903111-divadlo-u22-praha-uhrineves.html","545"
"7","Vlak","Praha-Kolovraty","https://mapy.cz/zakladni?x=14.625681259&y=50.0140097902&z=17&source=pubt&id=15698396","1655"
"8","Restaurace","PMU CZ, a.s., a.s.","https://www.firmy.cz/detail/13149870-pmu-cz-a-s-praha-uhrineves.html","551"
"9","Školka","MŠ Sluneční","https://www.firmy.cz/detail/12982165-ms-slunecni-praha-uhrineves.html","235"
"10","Sportoviště","Tenisové haly Uhříněves","https://www.firmy.cz/detail/637957-tenisove-haly-uhrineves-praha-uhrineves.html","498"
"11","Škola","ZŠ, Praha 10, nám. Bratří Jandusů","https://www.firmy.cz/detail/356140-zs-praha-10-nam-bratri-jandusu-praha-uhrineves.html","724"
"12","Lékař","MUDr. Jitka Havlová","https://www.firmy.cz/detail/13273480-mudr-jitka-havlova-praha-uhrineves.html","923"
"13","Pošta","Pošta Praha 114 - Česká pošta, s.p.","https://www.firmy.cz/detail/2376643-posta-praha-114-praha-uhrineves.html","1100"
"14","Lékárna","Lékárna U krále Jiřího","https://www.firmy.cz/detail/13194659-lekarna-u-krale-jiriho-praha-uhrineves.html","1177"
"15","Bankomat","Bankomat České spořitelny","https://www.firmy.cz/detail/594487-bankomat-ceske-sporitelny-praha-uhrineves.html","1069"
"16","Obchod","MAKRO Cash & Carry","https://www.firmy.cz/detail/325611-makro-cash-carry-cestlice.html","3507"
"17","Bus MHD","Venušina","https://mapy.cz/zakladni?x=14.608713298763965&y=50.02593053070253&z=17&source=pubt&id=15305219","262"
