"","facility_type","facility_name","facility_iri","facility_distance"
"0","Cukrárna","Kinokavárna","https://www.firmy.cz/detail/13136086-kinokavarna-bechyne.html","734"
"1","Kino","Městské kino Bechyně","https://www.firmy.cz/detail/13073819-mestske-kino-bechyne-bechyne.html","734"
"2","Hřiště","Dětské hřiště","","262"
"3","Večerka","Supermarket Terno","https://www.firmy.cz/detail/2170155-supermarket-terno-bechyne.html","185"
"4","Hospoda","Pivnice Hermína","https://www.firmy.cz/detail/13114773-pivnice-hermina-bechyne.html","180"
"5","Veterinář","MVDr. Eva Rouseková","https://www.firmy.cz/detail/471528-mvdr-eva-rousekova-bechyne.html","418"
"6","Bankomat","Bankomat Komerční banky","https://www.firmy.cz/detail/591949-bankomat-komercni-banky-bechyne.html","576"
"7","Škola","Střední uměleckoprůmyslová škola, Bechyně","https://www.firmy.cz/detail/307802-stredni-umeleckoprumyslova-skola-bechyne-bechyne.html","615"
"8","Lékař","MUDr. Karel Zeiner","https://www.firmy.cz/detail/2108526-mudr-karel-zeiner-bechyne.html","918"
"9","Pošta","Pošta Bechyně - Česká pošta, s.p.","https://www.firmy.cz/detail/216932-posta-bechyne-bechyne.html","1033"
"10","Restaurace","Restaurace Kameňák","https://www.firmy.cz/detail/12772950-restaurace-kamenak-sudomerice-u-bechyne-bezerovice.html","851"
"11","Vlak","Bechyně","","262"
"12","Sportoviště","Šachový spolek Bechyně","https://www.firmy.cz/detail/2649294-sachovy-spolek-bechyne-bechyne.html","659"
"13","Lékárna","Libušina lékárna","https://www.firmy.cz/detail/13010681-libusina-lekarna-bechyne.html","829"
"14","Bus MHD","Bechyně, žel.st.","","287"
"15","Školka","MŠ Jahůdka Bechyně","https://www.firmy.cz/detail/2384086-ms-jahudka-bechyne-bechyne.html","232"
