"","facility_type","facility_name","facility_iri","facility_distance"
"0","Cukrárna","Cukrárna Magnolie","https://www.firmy.cz/detail/1963341-cukrarna-magnolie-orlova-lutyne.html","219"
"1","Kino","Kino O","https://www.firmy.cz/detail/12958491-kino-o-orlova-lutyne.html","534"
"2","Hřiště","Rákosníčkovo dětské hřiště","","188"
"3","Večerka","HRUŠKA","https://www.firmy.cz/detail/12863517-hruska-orlova-lutyne.html","211"
"4","Hospoda","Pivnice Centrum","https://www.firmy.cz/detail/12840796-pivnice-centrum-orlova-lutyne.html","246"
"5","Veterinář","Veterinární klinika ANIVET - MVDr. Zbyněk Horák","https://www.firmy.cz/detail/2631495-veterinarni-klinika-anivet-mvdr-zbynek-horak-orlova-lutyne.html","344"
"6","Lékař","AK Medipraktik, s.r.o.","https://www.firmy.cz/detail/13291451-ak-medipraktik-orlova-lutyne.html","301"
"7","Vlak","Dětmarovice","","4749"
"8","Bus MHD","Orlová, Lutyně, věžáky","","113"
"9","Školka","Mateřská škola Orlová - Lutyně Ke Studánce 1033 okres Karviná","https://www.firmy.cz/detail/13232631-materska-skola-orlova-lutyne-ke-studance-1033-okres-karvina-orlova-lutyne.html","68"
"10","Obchod","Albert Hypermarket","https://www.firmy.cz/detail/652973-albert-hypermarket-orlova-lutyne.html","372"
"11","Škola","Základní škola Mládí, Orlová","https://www.firmy.cz/detail/358635-zakladni-skola-mladi-orlova-orlova-lutyne.html","307"
"12","Restaurace","STARÁ ARÉNA","https://www.firmy.cz/detail/13109394-stara-arena-orlova-lutyne.html","139"
"13","Pošta","Pošta Orlová 4 - Česká pošta, s.p.","https://www.firmy.cz/detail/431478-posta-orlova-4-orlova-lutyne.html","477"
"14","Bankomat","Bankomat ČSOB","https://www.firmy.cz/detail/599400-bankomat-csob-orlova-lutyne.html","311"
"15","Sportoviště","Koulovna","https://www.firmy.cz/detail/13298197-koulovna-orlova-lutyne.html","534"
"16","Lékárna","Lékárna Salvátor","https://www.firmy.cz/detail/13266185-lekarna-salvator-orlova-lutyne.html","301"
