"","facility_type","facility_name","facility_iri","facility_distance"
"0","Hřiště","Dětské hřiště Vestecká","https://mapy.cz/zakladni?x=14.5062023723&y=49.9811381991&z=17&source=base&id=1927353","183"
"1","Večerka","BILLA","https://www.firmy.cz/detail/12914501-billa-vestec.html","618"
"2","Cukrárna","Vestecká cukrárna H&H","https://www.firmy.cz/detail/12923203-vestecka-cukrarna-h-h-vestec.html","322"
"3","Veterinář","Veterinární klinika Jesenice","https://www.firmy.cz/detail/2142462-veterinarni-klinika-jesenice-jesenice.html","1018"
"4","Hospoda","Hostinec Chmelová","https://www.firmy.cz/detail/1328053-hostinec-chmelova-vestec.html","400"
"5","Školka","Mateřská škola Vestec","https://www.firmy.cz/detail/13015772-materska-skola-vestec-vestec.html","372"
"6","Restaurace","Hospoda Na Hřišti","https://www.firmy.cz/detail/13151773-hospoda-na-hristi-vestec.html","281"
"7","Lékař","MUDr. Simona Kovandová","https://www.firmy.cz/detail/385955-mudr-simona-kovandova-jesenice.html","1761"
"8","Sportoviště","Tělovýchovná jednota Viktoria Vestec","https://www.firmy.cz/detail/12911366-telovychovna-jednota-viktoria-vestec-vestec.html","289"
"9","Pošta","Pošta Partner Vestec","https://www.firmy.cz/detail/13097005-posta-partner-vestec-vestec.html","260"
"10","Bus MHD","Vestec, U Klimešů","https://mapy.cz/zakladni?x=14.507121016603758&y=49.980712410066545&z=17&source=pubt&id=15305489","261"
"11","Bankomat","Bankomat Komerční banky","https://www.firmy.cz/detail/2423210-bankomat-komercni-banky-vestec.html","514"
"12","Obchod","Albert Hypermarket","https://www.firmy.cz/detail/652996-albert-hypermarket-vestec.html","496"
"13","Lékárna","Dr. Max","https://www.firmy.cz/detail/13190313-dr-max-vestec.html","644"
"14","Škola","Základní škola Zdiměřice","https://www.firmy.cz/detail/13330175-zakladni-skola-zdimerice-jesenice-zdimerice.html","1465"
