"","facility_type","facility_name","facility_iri","facility_distance"
"0","Cukrárna","Shothouse","https://www.firmy.cz/detail/13286217-shothouse-havirov-mesto.html","305"
"1","Kino","Kino Centrum","https://www.firmy.cz/detail/12780436-kino-centrum-havirov-mesto.html","493"
"2","Hřiště","Dětské hřiště E. F. Buriana","","169"
"3","Večerka","HRUŠKA","https://www.firmy.cz/detail/12863532-hruska-havirov-mesto.html","0"
"4","Hospoda","Bagetérie Lexi","https://www.firmy.cz/detail/12954140-bageterie-lexi-havirov-mesto.html","156"
"5","Veterinář","Veterinární ordinace u Nemocnice","https://www.firmy.cz/detail/13319420-veterinarni-ordinace-u-nemocnice-havirov-mesto.html","615"
"6","Lékař","MUDr. Lucie Šebestová s.r.o.","https://www.firmy.cz/detail/12862656-mudr-lucie-sebestova-s-r-o-havirov-mesto.html","413"
"7","Škola","Střední průmyslová škola elektrotechnická, Havířov","https://www.firmy.cz/detail/362589-stredni-prumyslova-skola-elektrotechnicka-havirov-havirov-mesto.html","132"
"8","Bankomat","Bankomat ČSOB","https://www.firmy.cz/detail/13252641-bankomat-csob-havirov-mesto.html","396"
"9","Bus MHD","Havířov, Město, střed","","191"
"10","Pošta","Pošta Havířov 1 - Česká pošta, s.p.","https://www.firmy.cz/detail/431627-posta-havirov-1-havirov-mesto.html","439"
"11","Obchod","Obchodní centrum Elan","https://www.firmy.cz/detail/2181587-obchodni-centrum-elan-havirov-mesto.html","541"
"12","Restaurace","Dr.Grill","https://www.firmy.cz/detail/13261031-dr-grill-havirov-mesto.html","99"
"13","Lékárna","Lékárna U Elišky","https://www.firmy.cz/detail/421095-lekarna-u-elisky-havirov-mesto.html","308"
"14","Sportoviště","Tenisové kurty Paulát","https://www.firmy.cz/detail/13095949-tenisove-kurty-paulat-havirov-mesto.html","203"
"15","Školka","MŠ Havířov, Resslova","https://www.firmy.cz/detail/407410-ms-havirov-resslova-havirov-mesto.html","101"
"16","Vlak","Havířov-střed","","1066"
