"","facility_type","facility_name","facility_iri","facility_distance"
"0","Cukrárna","Cukrárna Magnolie","https://www.firmy.cz/detail/1963341-cukrarna-magnolie-orlova-lutyne.html","1215"
"1","Kino","Kino O","https://www.firmy.cz/detail/12958491-kino-o-orlova-lutyne.html","877"
"2","Přírodní zajímavost","Lužní les v Lyngu","","4777"
"3","Hřiště","Dětské hřiště Olmovec","","170"
"4","Večerka","Lidl","https://www.firmy.cz/detail/12794347-lidl-orlova-lutyne.html","104"
"5","Hospoda","Hospůdka GOOL","https://www.firmy.cz/detail/13108387-hospudka-gool-orlova-lutyne.html","419"
"6","Veterinář","MVDr. Marian Konieczny","https://www.firmy.cz/detail/1958343-mvdr-marian-konieczny-orlova-lutyne.html","417"
"7","Restaurace","Pivnice Orlík","https://www.firmy.cz/detail/13011142-pivnice-orlik-orlova-lutyne.html","83"
"8","Bankomat","Bankomat MONETA Money Bank","https://www.firmy.cz/detail/1691513-bankomat-moneta-money-bank-orlova-lutyne.html","133"
"9","Lékař","PL pro D ZZ a ambulance, s.r.o.","https://www.firmy.cz/detail/13107931-pl-pro-d-zz-a-ambulance-orlova-lutyne.html","256"
"10","Školka","MŠ 1. Máje Orlová","https://www.firmy.cz/detail/2381669-ms-1-maje-orlova-orlova-lutyne.html","134"
"11","Vlak","Dětmarovice","","3417"
"12","Sportoviště","Koulovna","https://www.firmy.cz/detail/13298197-koulovna-orlova-lutyne.html","877"
"13","Bus MHD","Orlová, Lutyně, nákup.stř.","","128"
"14","Pošta","Pošta Orlová 6 - Česká pošta, s.p.","https://www.firmy.cz/detail/431480-posta-orlova-6-orlova-lutyne.html","120"
"15","Škola","ZŠ Orlová - Lutyně, K. Dvořáčka","https://www.firmy.cz/detail/358631-zs-orlova-lutyne-k-dvoracka-orlova-lutyne.html","275"
"16","Obchod","OC Fastmall","https://www.firmy.cz/detail/13262255-oc-fastmall-orlova-lutyne.html","524"
"17","Lékárna","Dr. Max LÉKÁRNA","https://www.firmy.cz/detail/12856742-dr-max-lekarna-orlova-lutyne.html","125"
