"","facility_type","facility_name","facility_iri","facility_distance"
"0","Cukrárna","Café Rybka","https://www.firmy.cz/detail/328648-cafe-rybka-praha-nove-mesto.html","160"
"1","Kino","Rock Café","https://www.firmy.cz/detail/275548-rock-cafe-praha-nove-mesto.html","372"
"2","Přírodní zajímavost","Kovářovic mez","","5521"
"3","Hřiště","Dětské hřiště Vojtěšský obvod","","235"
"4","Večerka","MANNI MINI MARKET","https://www.firmy.cz/detail/2609033-manni-mini-market-praha-nove-mesto.html","309"
"5","Divadlo","Národní divadlo","https://www.firmy.cz/detail/230553-narodni-divadlo-praha-nove-mesto.html","188"
"6","Hospoda","Prague Beer Museum","https://www.firmy.cz/detail/12720695-prague-beer-museum-praha-stare-mesto.html","597"
"7","Veterinář","MVDr. Katka Sviták Novozámská","https://www.firmy.cz/detail/2137713-mvdr-katka-svitak-novozamska-praha-stare-mesto.html","613"
"8","Sportoviště","Tenisová škola TALLENT","https://www.firmy.cz/detail/722748-tenisova-skola-tallent-praha-nove-mesto.html","90"
"9","Lékař","TeamPrevent-Santé, s.r.o.","https://www.firmy.cz/detail/313672-teamprevent-sante-s-r-o-praha-nove-mesto.html","72"
"10","Restaurace","Restaurace U Zpěváčků","https://www.firmy.cz/detail/494358-restaurace-u-zpevacku-praha-nove-mesto.html","15"
"11","Obchod","palác metro","https://www.firmy.cz/detail/143339-palac-metro-praha-stare-mesto.html","372"
"12","Bus MHD","Jiráskovo náměstí","","443"
"13","Lékárna","BENU Lékárna","https://www.firmy.cz/detail/12864634-benu-lekarna-praha-stare-mesto.html","238"
"14","Tram","Národní divadlo","","72"
"15","Školka","MŠ sv. Voršily v Praze","https://www.firmy.cz/detail/406704-ms-sv-vorsily-v-praze-praha-nove-mesto.html","128"
"16","Bankomat","Raiffeisenbank - bankomat","https://www.firmy.cz/detail/631173-raiffeisenbank-bankomat-praha-stare-mesto.html","235"
"17","Vlak","Praha hlavní nádraží","","1625"
"18","Pošta","Pošta Praha 51 - Česká pošta, s.p.","https://www.firmy.cz/detail/431281-posta-praha-51-praha-mala-strana.html","765"
"19","Metro","Národní třída","","382"
"20","Škola","ZŠ sv. Voršily, Praha 1","https://www.firmy.cz/detail/178063-zs-sv-vorsily-praha-1-praha-nove-mesto.html","90"
