"","facility_type","facility_name","facility_iri","facility_distance"
"0","Cukrárna","MaMa's Caffé","https://www.firmy.cz/detail/13155978-mama-s-caffe-plzen-vychodni-predmesti.html","106"
"1","Kino","Kino Beseda","https://www.firmy.cz/detail/12773769-kino-beseda-plzen-jizni-predmesti.html","1090"
"2","Hřiště","Dětské hřiště","","254"
"3","Večerka","Večerka MP","https://www.firmy.cz/detail/12960334-vecerka-mp-plzen-vychodni-predmesti.html","179"
"4","Hospoda","Hostinec U Křelovců","https://www.firmy.cz/detail/12832748-hostinec-u-krelovcu-plzen.html","64"
"5","Divadlo","Divadlo Dialog","https://www.firmy.cz/detail/401465-divadlo-dialog-plzen-jizni-predmesti.html","1263"
"6","Veterinář","Veterinární ordinace Slovany","https://www.firmy.cz/detail/470912-veterinarni-ordinace-slovany-plzen-vychodni-predmesti.html","677"
"7","Bankomat","Bankomat České spořitelny","https://www.firmy.cz/detail/593970-bankomat-ceske-sporitelny-plzen-vychodni-predmesti.html","308"
"8","Lékař","LV - praktický lékař s.r.o.","https://www.firmy.cz/detail/13283322-lv-prakticky-lekar-s-r-o-plzen-vychodni-predmesti.html","268"
"9","Lékárna","Na Slovanské","https://www.firmy.cz/detail/376043-na-slovanske-plzen-vychodni-predmesti.html","181"
"10","Restaurace","Masala Ghar","https://www.firmy.cz/detail/13096006-masala-ghar-plzen-vychodni-predmesti.html","40"
"11","Škola","Církevní gymnázium Plzeň","https://www.firmy.cz/detail/361766-cirkevni-gymnazium-plzen-plzen-vychodni-predmesti.html","124"
"12","Školka","Centrum cvrček s.r.o.","https://www.firmy.cz/detail/12889345-centrum-cvrcek-s-r-o-plzen-vychodni-predmesti.html","168"
"13","Tram","Mikulášské náměstí","","77"
"14","Sportoviště","Bowling U Papírny","https://www.firmy.cz/detail/2418837-bowling-u-papirny-plzen-vychodni-predmesti.html","225"
"15","Vlak","Plzeň hlavní nádraží","","576"
"16","Obchod","Galerie Slovany, s.r.o.","https://www.firmy.cz/detail/2301407-galerie-slovany-plzen-vychodni-predmesti.html","1135"
"17","Pošta","Pošta Plzeň 27 - Česká pošta, s.p.","https://www.firmy.cz/detail/216636-posta-plzen-27-plzen-vychodni-predmesti.html","473"
"18","Bus MHD","Mikulášská","","243"
