"","facility_type","facility_name","facility_iri","facility_distance"
"0","Cukrárna","Cukrárna La Amália","https://www.firmy.cz/detail/13167375-cukrarna-la-amalia-frydek-mistek-frydek.html","545"
"1","Kino","5D cinema Maxim","https://www.firmy.cz/detail/12950607-5d-cinema-maxim-frydek-mistek-frydek.html","992"
"2","Přírodní zajímavost","Bludné balvany ve Frýdeckém lese","","2562"
"3","Hřiště","Dětské hřiště Pekařská","","207"
"4","Večerka","Tesco Supermarket","https://www.firmy.cz/detail/2195841-tesco-supermarket-frydek-mistek-frydek.html","75"
"5","Hospoda","Nevada Bar","https://www.firmy.cz/detail/13204654-nevada-bar-frydek-mistek-frydek.html","186"
"6","Divadlo","Divadlo Čtyřlístek","https://www.firmy.cz/detail/661532-divadlo-ctyrlistek-frydek-mistek-frydek.html","350"
"7","Veterinář","Klinika Lískovka","https://www.firmy.cz/detail/12868316-klinika-liskovka-frydek-mistek-frydek.html","495"
"8","Bankomat","Bankomat MONETA Money Bank","https://www.firmy.cz/detail/13131835-bankomat-moneta-money-bank-frydek-mistek-frydek.html","75"
"9","Sportoviště","Lion Cross Arena","https://www.firmy.cz/detail/13014779-lion-cross-arena-frydek-mistek-frydek.html","114"
"10","Vlak","Frýdek-Místek","","512"
"11","Lékárna","BENU Lékárna","https://www.firmy.cz/detail/2628203-benu-lekarna-frydek-mistek-frydek.html","162"
"12","Obchod","Albert Hypermarket","https://www.firmy.cz/detail/12919668-albert-hypermarket-frydek-mistek-frydek.html","595"
"13","Restaurace","Kovárna Pub","https://www.firmy.cz/detail/13122132-kovarna-pub-frydek-mistek-frydek.html","177"
"14","Bus MHD","Frýdek-Místek, Frýdek, Slezská","","219"
"15","Lékař","SPECIMA s.r.o.","https://www.firmy.cz/detail/13267986-specima-s-r-o-frydek-mistek-frydek.html","162"
"16","Pošta","Pošta Frýdek-Místek 1 - Česká pošta, s.p.","https://www.firmy.cz/detail/215628-posta-frydek-mistek-1-frydek-mistek-frydek.html","485"
"17","Škola","Základní škola a mateřská škola Frýdek-Místek, Jana Čapka 2555","https://www.firmy.cz/detail/356998-zakladni-skola-a-materska-skola-frydek-mistek-jana-capka-2555-frydek-mistek-frydek.html","241"
"18","Školka","MŠ Mateřídouška Frýdek-Místek","https://www.firmy.cz/detail/2287362-ms-materidouska-frydek-mistek-frydek-mistek-frydek.html","91"
