"","facility_type","facility_name","facility_iri","facility_distance"
"0","Cukrárna","Cukrárna Mocca","https://www.firmy.cz/detail/12947216-cukrarna-mocca-teplice.html","217"
"1","Kino","Multikino - Premiere Cinemas Teplice","https://www.firmy.cz/detail/12861055-multikino-premiere-cinemas-teplice-teplice.html","119"
"2","Přírodní zajímavost","Porcelanity u Strak","","2912"
"3","Hřiště","Dětské hřiště Zámecká zahrada","","520"
"4","Večerka","Lidl","https://www.firmy.cz/detail/13341158-lidl-teplice.html","108"
"5","Hospoda","Hospůdka Vyšehrad Teplice","https://www.firmy.cz/detail/13121903-hospudka-vysehrad-teplice-teplice.html","700"
"6","Divadlo","Krušnohorské divadlo","https://www.firmy.cz/detail/435271-krusnohorske-divadlo-teplice.html","435"
"7","Veterinář","MVDr. Věra Hánová","https://www.firmy.cz/detail/2030919-mvdr-vera-hanova-teplice.html","571"
"8","Vlak","Teplice zámecká zahrada","","805"
"9","Bus MHD","Teplice, Alejní","","87"
"10","Restaurace","Restaurant Prince de Ligne","https://www.firmy.cz/detail/12722844-restaurant-prince-de-ligne-teplice.html","150"
"11","Školka","MŠ Čtyřlístek Teplice","https://www.firmy.cz/detail/770536-ms-ctyrlistek-teplice-teplice.html","94"
"12","Lékárna","BENU Lékárna","https://www.firmy.cz/detail/12933595-benu-lekarna-teplice.html","140"
"13","Sportoviště","RELAX sport klub","https://www.firmy.cz/detail/2686164-relax-sport-klub-teplice.html","114"
"14","Bankomat","Bankomat Komerční banky","https://www.firmy.cz/detail/13203660-bankomat-komercni-banky-teplice.html","175"
"15","Škola","Gymnázium Teplice","https://www.firmy.cz/detail/362446-gymnazium-teplice-teplice.html","59"
"16","Obchod","Galerie Teplice","https://www.firmy.cz/detail/12734057-galerie-teplice-teplice.html","175"
"17","Lékař","MUDr. Julie Rauchová","https://www.firmy.cz/detail/2453678-mudr-julie-rauchova-teplice.html","381"
"18","Pošta","Pošta Teplice 1 - Česká pošta, s.p.","https://www.firmy.cz/detail/215426-posta-teplice-1-teplice.html","350"
