"","facility_type","facility_name","facility_iri","facility_distance"
"0","Cukrárna","Kavárna a pekárnička ""U Koláčků""","https://www.firmy.cz/detail/13233938-kavarna-a-pekarnicka-u-kolacku-prostejov.html","192"
"1","Kino","Kino Metro 70","https://www.firmy.cz/detail/13118959-kino-metro-70-prostejov.html","821"
"2","Hřiště","Dětské hřiště Libušinka","","114"
"3","Večerka","Potraviny CBA","https://www.firmy.cz/detail/13320741-potraviny-cba-prostejov.html","192"
"4","Hospoda","Hostinec U Anděla","https://www.firmy.cz/detail/12958636-hostinec-u-andela-prostejov.html","192"
"5","Veterinář","MVDr. Michaela Hejlková - Veterinární ordinace","https://www.firmy.cz/detail/2676025-mvdr-michaela-hejlkova-veterinarni-ordinace-prostejov.html","676"
"6","Divadlo","Městské divadlo v Prostějově","https://www.firmy.cz/detail/396947-mestske-divadlo-v-prostejove-prostejov.html","758"
"7","Lékárna","Dr. Max","https://www.firmy.cz/detail/2007409-dr-max-prostejov.html","493"
"8","Bus MHD","Prostějov, Brněnská křiž.Krokova","","236"
"9","Škola","Střední škola, ZŠ a MŠ Jistota, Prostějov, o.p.s.","https://www.firmy.cz/detail/647976-stredni-skola-zs-a-ms-jistota-prostejov-prostejov.html","157"
"10","Školka","Mateřská škola Prostějov - Libušinka","https://www.firmy.cz/detail/12887019-materska-skola-prostejov-libusinka-prostejov.html","100"
"11","Vlak","Prostějov hlavní nádraží","","1278"
"12","Bankomat","Bankomat Komerční banky","https://www.firmy.cz/detail/594337-bankomat-komercni-banky-prostejov.html","423"
"13","Lékař","Ordinace praktického lékaře MUDr. Irena Pachtová, s.r.o.","https://www.firmy.cz/detail/12860778-ordinace-praktickeho-lekare-mudr-irena-pachtova-prostejov.html","290"
"14","Obchod","Kaufland","https://www.firmy.cz/detail/1532041-kaufland-prostejov.html","551"
"15","Sportoviště","Hřiště nám. Spojenců","https://www.firmy.cz/detail/13342551-hriste-nam-spojencu-prostejov.html","1018"
"16","Restaurace","Na Zastávce","https://www.firmy.cz/detail/13166385-na-zastavce-prostejov.html","204"
"17","Pošta","Pošta Prostějov 8 - Česká pošta, s.p.","https://www.firmy.cz/detail/431301-posta-prostejov-8-prostejov.html","424"
