"","facility_type","facility_name","facility_iri","facility_distance"
"0","Přírodní zajímavost","Soutok Moravy a Hané","","4836"
"1","Hřiště","Dětské hřiště 6. května","","249"
"2","Večerka","Enapo","https://www.firmy.cz/detail/12929832-enapo-kojetin-i-mesto.html","82"
"3","Hospoda","Ba Ha Nguyen","https://www.firmy.cz/detail/13139101-ba-ha-nguyen-kojetin-i-mesto.html","485"
"4","Veterinář","MVDr. Zuzana Odložilíková - veterinární lékař","https://www.firmy.cz/detail/310602-mvdr-zuzana-odlozilikova-veterinarni-lekar-kojetin-i-mesto.html","816"
"5","Školka","Mateřská škola sv. Josefa v Kojetíně","https://www.firmy.cz/detail/12852498-materska-skola-sv-josefa-v-kojetine-kojetin-i-mesto.html","420"
"6","Bankomat","Bankomat České spořitelny","https://www.firmy.cz/detail/593027-bankomat-ceske-sporitelny-kojetin-i-mesto.html","487"
"7","Bus MHD","Kojetín, žel.st.","","267"
"8","Restaurace","Restaurace Morava","https://www.firmy.cz/detail/1967901-restaurace-morava-kojetin-i-mesto.html","108"
"9","Pošta","Pošta Kojetín - Česká pošta, s.p.","https://www.firmy.cz/detail/431536-posta-kojetin-kojetin-i-mesto.html","643"
"10","Lékárna","Lékárna U Radnice","https://www.firmy.cz/detail/12984942-lekarna-u-radnice-kojetin-i-mesto.html","533"
"11","Sportoviště","Sportovní hala Kojetín","https://www.firmy.cz/detail/13090350-sportovni-hala-kojetin-kojetin-i-mesto.html","386"
"12","Vlak","Kojetín","","314"
"13","Škola","Gymnázium Kojetín","https://www.firmy.cz/detail/362742-gymnazium-kojetin-kojetin-i-mesto.html","358"
"14","Lékař","MUDr. Josef ROH, praktický lékař, s.r.o.","https://www.firmy.cz/detail/12860873-mudr-josef-roh-prakticky-lekar-kojetin-i-mesto.html","222"
