"","facility_type","facility_name","facility_iri","facility_distance"
"0","Cukrárna","Cukrárna Ollies","https://www.firmy.cz/detail/12720535-cukrarna-ollies-ostrava-poruba.html","560"
"1","Kino","Retrostar kino Polanka","https://www.firmy.cz/detail/12892972-retrostar-kino-polanka-ostrava-polanka-nad-odrou.html","4109"
"2","Přírodní zajímavost","Polanský bludný balvan","","4129"
"3","Hřiště","Dětské hřiště Dělnická","","447"
"4","Večerka","HRUŠKA","https://www.firmy.cz/detail/12820006-hruska-ostrava-poruba.html","191"
"5","Divadlo","Porubské divadlo","https://www.firmy.cz/detail/2543038-porubske-divadlo-ostrava-poruba.html","1802"
"6","Hospoda","Pivnice U Oblouku","https://www.firmy.cz/detail/13148786-pivnice-u-oblouku-ostrava-poruba.html","368"
"7","Veterinář","Veterinární klinika Yorika","https://www.firmy.cz/detail/712067-veterinarni-klinika-yorika-ostrava-poruba.html","550"
"8","Lékárna","Lékárna Ve Věžičkách","https://www.firmy.cz/detail/13210853-lekarna-ve-vezickach-ostrava-poruba.html","286"
"9","Restaurace","Agiu Georgiu - Řecká taverna","https://www.firmy.cz/detail/13015439-agiu-georgiu-recka-taverna-ostrava-poruba.html","331"
"10","Lékař","Ambulance Věžičky","https://www.firmy.cz/detail/12805989-ambulance-vezicky-ostrava-poruba.html","351"
"11","Obchod","Albert Hypermarket","https://www.firmy.cz/detail/12928419-albert-hypermarket-ostrava-poruba.html","1328"
"12","Bankomat","Bankomat České spořitelny","https://www.firmy.cz/detail/13170013-bankomat-ceske-sporitelny-ostrava-poruba.html","323"
"13","Sportoviště","Sportovní areál Poruba","https://www.firmy.cz/detail/703484-sportovni-areal-poruba-ostrava-poruba.html","620"
"14","Tram","Fakultní nemocnice","","597"
"15","Pošta","Pošta Ostrava 35 - Česká pošta, s.p.","https://www.firmy.cz/detail/433347-posta-ostrava-35-ostrava-poruba.html","361"
"16","Škola","Gymnázium Hello","https://www.firmy.cz/detail/12968749-gymnazium-hello-ostrava-poruba.html","65"
"17","Školka","Školka Exilu","https://www.firmy.cz/detail/1948074-skolka-exilu-ostrava-poruba.html","156"
"18","Bus MHD","Nábřeží SPB","","192"
"19","Vlak","Ostrava-Třebovice","","2642"
