"","facility_type","facility_name","facility_iri","facility_distance"
"0","Cukrárna","Cukroví,  Dorty a Zákusky od Kuny - Kuna, s.r.o.","https://www.firmy.cz/detail/13181120-cukrovi-dorty-a-zakusky-od-kuny-jihlava.html","64"
"1","Kino","Kino Dukla","https://www.firmy.cz/detail/12792238-kino-dukla-jihlava.html","144"
"2","Přírodní zajímavost","Pístovské mokřady","","2947"
"3","Hřiště","Dětské hřiště U Pivovaru","","149"
"4","Večerka","Pramen","https://www.firmy.cz/detail/12845143-pramen-jihlava.html","236"
"5","Divadlo","Divadlo otevřených dveří Diod","https://www.firmy.cz/detail/2698388-divadlo-otevrenych-dveri-diod-jihlava.html","240"
"6","Hospoda","Hospůdka Plechovka","https://www.firmy.cz/detail/2034991-hospudka-plechovka-jihlava.html","77"
"7","Veterinář","Veterinární ordinace Jihlava - MVDr. Marcela Cecchinato","https://www.firmy.cz/detail/12871130-veterinarni-ordinace-jihlava-mvdr-marcela-cecchinato-jihlava.html","338"
"8","Vlak","Jihlava město","","829"
"9","Restaurace","Steak house Jack","https://www.firmy.cz/detail/12711486-steak-house-jack-jihlava.html","80"
"10","Bus MHD","Fibichova","","193"
"11","Lékař","MUDr. VOSÁHLOVÁ s.r.o.","https://www.firmy.cz/detail/13169378-mudr-vosahlova-s-r-o-jihlava.html","182"
"12","Bankomat","Bankomat Komerční banky","https://www.firmy.cz/detail/596449-bankomat-komercni-banky-jihlava.html","210"
"13","Lékárna","Lékárna Tilia","https://www.firmy.cz/detail/658480-lekarna-tilia-jihlava.html","182"
"14","Pošta","Pošta Jihlava 1 - Česká pošta, s.p.","https://www.firmy.cz/detail/215534-posta-jihlava-1-jihlava.html","364"
"15","Sportoviště","Krajský volejbalový svaz Vysočina","https://www.firmy.cz/detail/13077065-krajsky-volejbalovy-svaz-vysocina-jihlava.html","140"
"16","Škola","Manažerská akademie - střední odborná škola, s.r.o.","https://www.firmy.cz/detail/270788-manazerska-akademie-stredni-odborna-skola-s-r-o-jihlava.html","116"
"17","Obchod","PRIOR ČESKÁ REPUBLIKA s.r.o.","https://www.firmy.cz/detail/1956976-prior-ceska-republika-s-r-o-jihlava.html","467"
"18","Školka","Mateřská škola Zvoněnka, Dvořákova 11","https://www.firmy.cz/detail/1889501-materska-skola-zvonenka-dvorakova-11-jihlava.html","78"
