"","facility_type","facility_name","facility_iri","facility_distance"
"0","Cukrárna","Cukroví,  Dorty a Zákusky od Kuny - Kuna, s.r.o.","https://www.firmy.cz/detail/13181120-cukrovi-dorty-a-zakusky-od-kuny-jihlava.html","666"
"1","Kino","Kino Dukla","https://www.firmy.cz/detail/12792238-kino-dukla-jihlava.html","539"
"2","Přírodní zajímavost","Pístovské mokřady","","3501"
"3","Hřiště","Dětské hřiště U řeky","","557"
"4","Večerka","BILLA","https://www.firmy.cz/detail/437740-billa-jihlava.html","307"
"5","Divadlo","Divadlo otevřených dveří Diod","https://www.firmy.cz/detail/2698388-divadlo-otevrenych-dveri-diod-jihlava.html","388"
"6","Hospoda","Pivnice Posilovna","https://www.firmy.cz/detail/13188207-pivnice-posilovna-jihlava.html","456"
"7","Veterinář","Veterinární ordinace Jihlava - MVDr. Marcela Cecchinato","https://www.firmy.cz/detail/12871130-veterinarni-ordinace-jihlava-mvdr-marcela-cecchinato-jihlava.html","586"
"8","Restaurace","Smíchovská restaurace","https://www.firmy.cz/detail/266180-smichovska-restaurace-jihlava.html","0"
"9","Obchod","Kaufland","https://www.firmy.cz/detail/1690957-kaufland-jihlava.html","498"
"10","Školka","MŠ - Meruzalka montessori","https://www.firmy.cz/detail/13033309-ms-meruzalka-montessori-jihlava.html","315"
"11","Lékař","MUDr. Jarmila Slavíčková, s.r.o.","https://www.firmy.cz/detail/13294850-mudr-jarmila-slavickova-jihlava.html","332"
"12","Lékárna","Dr.Max","https://www.firmy.cz/detail/2007210-dr-max-jihlava.html","449"
"13","Vlak","Jihlava město","","205"
"14","Bankomat","Bankomat MONETA Money Bank","https://www.firmy.cz/detail/603305-bankomat-moneta-money-bank-jihlava.html","466"
"15","Sportoviště","Prime Laser Aréna - Zdeněk Hajn","https://www.firmy.cz/detail/13006509-prime-laser-arena-jihlava.html","281"
"16","Bus MHD","Fritzova","","127"
"17","Škola","ZŠ - Meruzalka montessori","https://www.firmy.cz/detail/13033313-zs-meruzalka-montessori-jihlava.html","275"
"18","Pošta","Pošta Jihlava 4 - Česká pošta, s.p.","https://www.firmy.cz/detail/217352-posta-jihlava-4-jihlava.html","685"
