"","facility_type","facility_name","facility_iri","facility_distance"
"0","Hřiště","Dětské hřiště Pod Hotelem","https://mapy.cz/zakladni?x=14.4943909708&y=50.0761114725&z=17&source=base&id=1926541","165"
"1","Přírodní zajímavost","Mokřad Triangl","https://mapy.cz/zakladni?x=14.5188041667&y=50.0615525&z=17&source=base&id=1981356","2441"
"2","Cukrárna","Dolce Carosello","https://www.firmy.cz/detail/12910081-dolce-carosello-praha.html","581"
"3","Večerka","BILLA","https://www.firmy.cz/detail/450513-billa-praha-strasnice.html","463"
"4","Veterinář","PET-MEDIC","https://www.firmy.cz/detail/590477-pet-medic-praha-strasnice.html","310"
"5","Hospoda","Hospůdka U Kladiva","https://www.firmy.cz/detail/625166-hospudka-u-kladiva-praha-strasnice.html","692"
"6","Divadlo","Divadelní studio Neklid, o.p.s. - Divadlo Neklid","https://www.firmy.cz/detail/12794645-divadelni-studio-neklid-o-p-s-divadlo-neklid-praha-vrsovice.html","2345"
"7","Kino","Kino Aero","https://www.firmy.cz/detail/399435-kino-aero-praha-zizkov.html","2206"
"8","Bus MHD","Vinice","https://mapy.cz/zakladni?x=14.48825&y=50.07683&z=17&source=pubt&id=19117184","329"
"9","Sportoviště","Tělocvičná jednota SOKOL Praha - Strašnice z.s.","https://www.firmy.cz/detail/743951-telocvicna-jednota-sokol-praha-strasnice-z-s-praha-strasnice.html","115"
"10","Školka","MŠ Praha 10, Dvouletky","https://www.firmy.cz/detail/2242825-ms-praha-10-dvouletky-praha-strasnice.html","339"
"11","Bankomat","Bankomat ČSOB","https://www.firmy.cz/detail/599555-bankomat-csob-praha-strasnice.html","124"
"12","Pošta","Pošta Praha 10 - Česká pošta, s.p.","https://www.firmy.cz/detail/431425-posta-praha-10-praha-strasnice.html","124"
"13","Škola","ŽS speciální Praha, Starostrašnická","https://www.firmy.cz/detail/1897430-zs-specialni-praha-starostrasnicka-praha-strasnice.html","183"
"14","Lékař","MUDr. Hana Březinová","https://www.firmy.cz/detail/390314-mudr-hana-brezinova-praha-vinohrady.html","589"
"15","Obchod","Tesco Extra Skalka","https://www.firmy.cz/detail/653533-tesco-extra-skalka-praha-strasnice.html","1424"
"16","Tram","Vozovna Strašnice","https://mapy.cz/zakladni?x=14.48982921214201&y=50.07542770601113&z=17&source=pubt&id=15300263","178"
"17","Vlak","Praha-Zahradní Město","https://mapy.cz/zakladni?x=14.5040304234491&y=50.0621435968105&z=17&source=pubt&id=19190316","1698"
"18","Lékárna","Lékárna U Metra Strašnická","https://www.firmy.cz/detail/2682986-lekarna-u-metra-strasnicka-praha-strasnice.html","179"
"19","Restaurace","Restaurace Sabroso","https://www.firmy.cz/detail/12870959-restaurace-sabroso-praha-strasnice.html","125"
"20","Metro","Strašnická","https://mapy.cz/zakladni?x=14.4913917797&y=50.0728776198&z=17&source=pubt&id=15206984","293"
