"","facility_type","facility_name","facility_iri","facility_distance"
"0","Cukrárna","Cukrárna Bali","https://www.firmy.cz/detail/457305-cukrarna-bali-brno-zabovresky.html","205"
"1","Kino","Kino Lucerna","https://www.firmy.cz/detail/638240-kino-lucerna-brno-zabovresky.html","437"
"2","Přírodní zajímavost","Přírodní zahrada U Smrku","","1847"
"3","Hřiště","Dětské hřiště Zborovská","","165"
"4","Večerka","Smíšené zboží Šmejkalova 2103","https://www.firmy.cz/detail/2195379-smisene-zbozi-smejkalova-2103-brno-zabovresky.html","318"
"5","Hospoda","Hospůdka u Štýblů","https://www.firmy.cz/detail/13310839-hospudka-u-styblu-brno-kralovo-pole.html","929"
"6","Divadlo","Divadlo Strom","https://www.firmy.cz/detail/12762146-divadlo-strom-brno-zabovresky.html","325"
"7","Veterinář","Veterinární ordinace Eden","https://www.firmy.cz/detail/2595235-veterinarni-ordinace-eden-brno-kralovo-pole.html","671"
"8","Sportoviště","Tenisová sportovní akademie Masters Brno","https://www.firmy.cz/detail/1272258-tenisova-sportovni-akademie-masters-brno-brno-zabovresky.html","518"
"9","Škola","ZŠ Brno, Sirotkova","https://www.firmy.cz/detail/356540-zs-brno-sirotkova-brno-zabovresky.html","274"
"10","Bus MHD","Jindřichova","","242"
"11","Restaurace","Pablo EscoBar","https://www.firmy.cz/detail/13028504-pablo-escobar-brno-zabovresky.html","30"
"12","Lékárna","Dr. Max","https://www.firmy.cz/detail/12856511-dr-max-brno-zabovresky.html","357"
"13","Bankomat","Bankomat Komerční banky","https://www.firmy.cz/detail/592137-bankomat-komercni-banky-brno-zabovresky.html","269"
"14","Školka","Mateřská škola, Brno, nám. Svornosti 8","https://www.firmy.cz/detail/1448846-materska-skola-brno-nam-svornosti-8-brno-zabovresky.html","233"
"15","Tram","Burianovo náměstí","","86"
"16","Pošta","Pošta Brno 16 - Česká pošta, s.p.","https://www.firmy.cz/detail/216028-posta-brno-16-brno-zabovresky.html","357"
"17","Lékař","MUDr. Martin Pospíšil","https://www.firmy.cz/detail/389555-mudr-martin-pospisil-brno-zabovresky.html","313"
"18","Obchod","OC Perla, a.s.","https://www.firmy.cz/detail/12875818-oc-perla-brno-zabovresky.html","357"
"19","Vlak","Brno-Královo Pole","","2404"
