"","facility_type","facility_name","facility_iri","facility_distance"
"0","Cukrárna","Gelato","https://www.firmy.cz/detail/13317632-gelato-karlovy-vary-rybare.html","319"
"1","Kino","Areál Rolava","https://www.firmy.cz/detail/13071200-areal-rolava-karlovy-vary-rybare.html","1044"
"2","Přírodní zajímavost","Karlův hvozd","","2579"
"3","Hřiště","Dětské hřiště Jana Opletala","","254"
"4","Večerka","Potraviny Montino","https://www.firmy.cz/detail/13288886-potraviny-montino-karlovy-vary-rybare.html","83"
"5","Hospoda","Pivnice Černá Plzeň","https://www.firmy.cz/detail/1356108-pivnice-cerna-plzen-karlovy-vary.html","700"
"6","Divadlo","Divadlo Kapsa","https://www.firmy.cz/detail/2276352-divadlo-kapsa-karlovy-vary-rybare.html","815"
"7","Veterinář","MVDr. Eva Tichá","https://www.firmy.cz/detail/2656349-mvdr-eva-ticha-karlovy-vary-rybare.html","471"
"8","Škola","Základní škola a Základní umělecká škola Karlovy Vary, Šmeralova 336/15, příspěvková organizace","https://www.firmy.cz/detail/306529-zakladni-skola-a-zakladni-umelecka-skola-karlovy-vary-smeralova-336-15-prispevkova-organizace-karlovy-vary-rybare.html","150"
"9","Restaurace","Restaurace Borecká 972","https://www.firmy.cz/detail/13134176-restaurace-borecka-972-karlovy-vary-rybare.html","55"
"10","Pošta","Pošta Karlovy Vary 5 - Česká pošta, s.p.","https://www.firmy.cz/detail/216562-posta-karlovy-vary-5-karlovy-vary-rybare.html","264"
"11","Sportoviště","Mgr. Zdeněk Poula","https://www.firmy.cz/detail/801016-mgr-zdenek-poula-karlovy-vary-rybare.html","569"
"12","Bus MHD","Krematorium","","172"
"13","Školka","2. MŠ Karlovy Vary - Mládežnická","https://www.firmy.cz/detail/2072249-2-ms-karlovy-vary-mladeznicka-karlovy-vary-rybare.html","553"
"14","Bankomat","Bankomat Air Bank","https://www.firmy.cz/detail/13100741-bankomat-air-bank-karlovy-vary-rybare.html","142"
"15","Vlak","Karlovy Vary dolní nádraží","","518"
"16","Lékař","MUDr. Lubor Špidla - Ordinace praktického lékaře","https://www.firmy.cz/detail/388467-mudr-lubor-spidla-ordinace-praktickeho-lekare-karlovy-vary-rybare.html","256"
"17","Obchod","Obchodní centrum Perla","https://www.firmy.cz/detail/13219298-obchodni-centrum-perla-karlovy-vary.html","1045"
"18","Lékárna","LÉKÁRNA ipc Na Růžovém vrchu","https://www.firmy.cz/detail/657990-lekarna-ipc-na-ruzovem-vrchu-karlovy-vary-rybare.html","485"
