"","facility_type","facility_name","facility_iri","facility_distance"
"0","Cukrárna","Baloon café - rodinná kavárna s dětskou hernou","https://www.firmy.cz/detail/13145645-baloon-cafe-rodinna-kavarna-s-detskou-hernou-pardubice-zelene-predmesti.html","170"
"1","Kino","CineStar Pardubice","https://www.firmy.cz/detail/2109581-cinestar-pardubice-pardubice-zelene-predmesti.html","562"
"2","Hřiště","Dětské hřiště","","68"
"3","Večerka","Iceland","https://www.firmy.cz/detail/13206892-iceland-pardubice-zelene-predmesti.html","162"
"4","Hospoda","Hospoda Ponorka","https://www.firmy.cz/detail/1981674-hospoda-ponorka-pardubice-zelene-predmesti.html","255"
"5","Divadlo","Malá scéna ve dvoře","https://www.firmy.cz/detail/13210535-mala-scena-ve-dvore-pardubice-zelene-predmesti.html","277"
"6","Veterinář","Veterinární klinika Štrossovka, s.r.o.","https://www.firmy.cz/detail/13079344-veterinarni-klinika-strossovka-pardubice-bile-predmesti.html","607"
"7","Vlak","Pardubice-Pardubičky","","702"
"8","Bus MHD","Karla IV.","","168"
"9","Lékárna","Dr. Max","https://www.firmy.cz/detail/2525730-dr-max-pardubice-zelene-predmesti.html","137"
"10","Restaurace","St. Patrick - Original Irish Pub","https://www.firmy.cz/detail/2566941-st-patrick-original-irish-pub-pardubice-zelene-predmesti.html","15"
"11","Škola","Základní škola V Pohybu","https://www.firmy.cz/detail/13079242-zakladni-skola-v-pohybu-pardubice-zelene-predmesti.html","196"
"12","Pošta","Pošta Pardubice 1 - Česká pošta, s.p.","https://www.firmy.cz/detail/452739-posta-pardubice-1-pardubice-zelene-predmesti.html","586"
"13","Lékař","Knittel, s.r.o.","https://www.firmy.cz/detail/13221072-knittel-pardubice-zelene-predmesti.html","80"
"14","Bankomat","Bankomat MONETA Money Bank","https://www.firmy.cz/detail/603276-bankomat-moneta-money-bank-pardubice-zelene-predmesti.html","442"
"15","Školka","MŠ Koníček Pardubice","https://www.firmy.cz/detail/1880630-ms-konicek-pardubice-pardubice-bile-predmesti.html","461"
"16","Obchod","OC Grand Pardubice","https://www.firmy.cz/detail/13057413-oc-grand-pardubice-pardubice-zelene-predmesti.html","540"
"17","Sportoviště","Laser game club Pardubice z.s.","https://www.firmy.cz/detail/13155798-laser-game-club-pardubice-z-s-pardubice-zelene-predmesti.html","137"
