"","facility_type","facility_name","facility_iri","facility_distance"
"0","Cukrárna","Café Bar Twins","https://www.firmy.cz/detail/13295335-cafe-bar-twins-karvina-hranice.html","1314"
"1","Kino","Kino Ex","https://www.firmy.cz/detail/396409-kino-ex-karvina-nove-mesto.html","770"
"2","Hřiště","Dětské hřiště U Bažantnice","","102"
"3","Večerka","Potraviny Levňáček","https://www.firmy.cz/detail/13304149-potraviny-levnacek-karvina-nove-mesto.html","276"
"4","Hospoda","Hospůdka U Binga","https://www.firmy.cz/detail/13113548-hospudka-u-binga-karvina-nove-mesto.html","98"
"5","Veterinář","Veterinární ordinace TRIAS","https://www.firmy.cz/detail/2331003-veterinarni-ordinace-trias-karvina-nove-mesto.html","1318"
"6","Bus MHD","Karviná, Nové Město, úřad práce","","62"
"7","Lékař","MUDr. Ludmila Tesařová","https://www.firmy.cz/detail/390358-mudr-ludmila-tesarova-karvina-nove-mesto.html","267"
"8","Lékárna","Lékárna U sv. Františka","https://www.firmy.cz/detail/375442-lekarna-u-sv-frantiska-karvina-nove-mesto.html","325"
"9","Školka","Základní škola a Mateřská škola Dělnická - U Vilíka","https://www.firmy.cz/detail/12854839-zakladni-skola-a-materska-skola-delnicka-u-vilika-karvina-nove-mesto.html","307"
"10","Restaurace","Beskydská řízkárna","https://www.firmy.cz/detail/13278469-beskydska-rizkarna-karvina-nove-mesto.html","104"
"11","Sportoviště","STaRS Karviná, s.r.o.","https://www.firmy.cz/detail/721386-stars-karvina-karvina-nove-mesto.html","721"
"12","Bankomat","Bankomat České spořitelny","https://www.firmy.cz/detail/592981-bankomat-ceske-sporitelny-karvina-nove-mesto.html","307"
"13","Škola","Střední škola techniky a služeb Karviná","https://www.firmy.cz/detail/254665-stredni-skola-techniky-a-sluzeb-karvina-karvina-nove-mesto.html","241"
"14","Obchod","Albert Hypermarket","https://www.firmy.cz/detail/449318-albert-hypermarket-karvina-frystat.html","1402"
"15","Vlak","Karviná hlavní nádraží","","1663"
"16","Pošta","Pošta Karviná 6 - Česká pošta, s.p.","https://www.firmy.cz/detail/431463-posta-karvina-6-karvina-nove-mesto.html","309"
