"","facility_type","facility_name","facility_iri","facility_distance"
"0","Cukrárna","Kavárna Monopol","https://www.firmy.cz/detail/12946700-kavarna-monopol-teplice.html","46"
"1","Přírodní zajímavost","Porcelanity u Strak","","3531"
"2","Kino","Kino Květen","https://www.firmy.cz/detail/435268-kino-kveten-teplice.html","390"
"3","Hřiště","Dětské hřiště Šanovské sady","","512"
"4","Večerka","Potraviny z Východních Zemí - Liudmyla Tokar","https://www.firmy.cz/detail/12996837-potraviny-z-vychodnich-zemi-teplice.html","34"
"5","Hospoda","Hospůdka Vyšehrad Teplice","https://www.firmy.cz/detail/13121903-hospudka-vysehrad-teplice-teplice.html","322"
"6","Divadlo","Krušnohorské divadlo","https://www.firmy.cz/detail/435271-krusnohorske-divadlo-teplice.html","308"
"7","Veterinář","MVDr. Jaroslava Radoušová","https://www.firmy.cz/detail/2621440-mvdr-jaroslava-radousova-teplice.html","91"
"8","Bus MHD","Teplice, Hotel de Saxe","","83"
"9","Škola","Konzervatoř Teplice","https://www.firmy.cz/detail/210524-konzervator-teplice-teplice.html","90"
"10","Restaurace","Restaurace Monopol","https://www.firmy.cz/detail/12946698-restaurace-monopol-teplice.html","46"
"11","Sportoviště","LTK Teplice, z.s.","https://www.firmy.cz/detail/2570573-ltk-teplice-z-s-teplice.html","601"
"12","Obchod","Nákupní centrum Fontána Teplice","https://www.firmy.cz/detail/12866624-nakupni-centrum-fontana-teplice-teplice.html","416"
"13","Školka","PROFI ŠKOLKA","https://www.firmy.cz/detail/13176880-profi-skolka-teplice.html","341"
"14","Lékárna","BENU Lékárna","https://www.firmy.cz/detail/13189279-benu-lekarna-teplice.html","170"
"15","Lékař","Praktik TEPLICE, s.r.o.","https://www.firmy.cz/detail/13107476-praktik-teplice-teplice.html","328"
"16","Bankomat","Vkladomat mBank","https://www.firmy.cz/detail/13133127-vkladomat-mbank-teplice.html","163"
"17","Pošta","Pošta Teplice 8 - Česká pošta, s.p.","https://www.firmy.cz/detail/215425-posta-teplice-8-teplice.html","388"
"18","Vlak","Teplice v Čechách","","410"
