"","facility_type","facility_name","facility_iri","facility_distance"
"0","Hřiště","Dětské hřiště Mikuláškovo náměstí","https://mapy.cz/zakladni?x=16.5577187353&y=49.1689512839&z=17&source=base&id=1927865","126"
"1","Přírodní zajímavost","Koniklecová louka","https://mapy.cz/zakladni?x=16.5518474579&y=49.1834285644&z=17&source=base&id=1921318","1655"
"2","Večerka","RYNEK","https://www.firmy.cz/detail/13163129-rynek-brno-stary-liskovec.html","284"
"3","Cukrárna","Julius Meinl","https://www.firmy.cz/detail/13209053-julius-meinl-brno-bohunice.html","991"
"4","Hospoda","Pivnice DON","https://www.firmy.cz/detail/13153350-pivnice-don-brno-stary-liskovec.html","334"
"5","Divadlo","Malá Amerika","https://www.firmy.cz/detail/12926234-mala-amerika-brno-stare-brno.html","4166"
"6","Veterinář","ABClinic veterinární klinika","https://www.firmy.cz/detail/477132-abclinic-veterinarni-klinika-brno-stary-liskovec.html","247"
"7","Kino","Brno Autokino","https://www.firmy.cz/detail/13328637-brno-autokino-brno-pisarky.html","2589"
"8","Škola","ZŠ, Brno, Labská","https://www.firmy.cz/detail/356518-zs-brno-labska-brno-stary-liskovec.html","177"
"9","Tram","Dunajská","https://mapy.cz/zakladni?x=16.5567773385&y=49.1689428411&z=17&source=pubt&id=15205849","191"
"10","Bankomat","Bankomat ČSOB","https://www.firmy.cz/detail/599305-bankomat-csob-brno-stary-liskovec.html","383"
"11","Sportoviště","Orel jednota Náklo - Mezice","https://www.firmy.cz/detail/1961002-orel-jednota-naklo-mezice-brno-stary-liskovec.html","311"
"12","Restaurace","Potrefená husa","https://www.firmy.cz/detail/13239725-potrefena-husa-brno-stary-liskovec.html","79"
"13","Lékař","MUDr. Helena Jandíková","https://www.firmy.cz/detail/390594-mudr-helena-jandikova-brno-stary-liskovec.html","334"
"14","Školka","MŠ Kosmonautů, Brno","https://www.firmy.cz/detail/13045386-ms-kosmonautu-brno-brno-stary-liskovec.html","222"
"15","Obchod","OC Kavkaz","https://www.firmy.cz/detail/13171080-oc-kavkaz-brno-bohunice.html","927"
"16","Bus MHD","Dunajská","https://mapy.cz/zakladni?x=16.559323&y=49.167927&z=17&source=pubt&id=17096933","161"
"17","Vlak","Brno-Starý Lískovec","https://mapy.cz/zakladni?x=16.5704169685367&y=49.1622125914653&z=17&source=pubt&id=21973577","1133"
"18","Pošta","Pošta Brno 25 - Česká pošta, s.p.","https://www.firmy.cz/detail/216043-posta-brno-25-brno-stary-liskovec.html","383"
"19","Lékárna","Lékárna Jemelkova","https://www.firmy.cz/detail/2593688-lekarna-jemelkova-brno-stary-liskovec.html","240"
