"","facility_type","facility_name","facility_iri","facility_distance"
"0","Hřiště","Dětské hřiště Dlouhá","https://mapy.cz/zakladni?x=14.043404&y=50.661054&z=17&source=base&id=2060696","100"
"1","Večerka","POTRAVINY - Thuan Luu Duc","https://www.firmy.cz/detail/2220125-potraviny-thuan-luu-duc-usti-nad-labem-centrum.html","64"
"2","Veterinář","MVDr. Václav Poživil","https://www.firmy.cz/detail/639726-mvdr-vaclav-pozivil-usti-nad-labem-strekov.html","913"
"3","Hospoda","Ústecká pivotéka","https://www.firmy.cz/detail/13189615-ustecka-pivoteka-usti-nad-labem-centrum.html","534"
"4","Cukrárna","Cukrárna Barborka","https://www.firmy.cz/detail/686742-cukrarna-barborka-usti-nad-labem-centrum.html","68"
"5","Kino","Cinema City Ústí nad Labem","https://www.firmy.cz/detail/2679909-cinema-city-usti-nad-labem-usti-nad-labem-centrum.html","388"
"6","Divadlo","Činoherní studio města Ústí nad Labem","https://www.firmy.cz/detail/13085276-cinoherni-studio-mesta-usti-nad-labem-usti-nad-labem-strekov.html","526"
"7","Bankomat","Bankomat České spořitelny","https://www.firmy.cz/detail/12836760-bankomat-ceske-sporitelny-usti-nad-labem-centrum.html","74"
"8","Obchod","Obchodní centrum Sever","https://www.firmy.cz/detail/13265743-obchodni-centrum-sever-usti-nad-labem-centrum.html","184"
"9","Pošta","Pošta Ústí nad Labem 3 - Česká pošta, s.p.","https://www.firmy.cz/detail/215952-posta-usti-nad-labem-3-usti-nad-labem-strekov.html","585"
"10","Restaurace","LA CASITA DE ESPAŇA - španělská restaurace","https://www.firmy.cz/detail/12991862-la-casita-de-espana-spanelska-restaurace-usti-nad-labem-centrum.html","51"
"11","Škola","Střední škola obchodu a služeb, s.r.o.","https://www.firmy.cz/detail/361422-stredni-skola-obchodu-a-sluzeb-usti-nad-labem-centrum.html","344"
"12","Lékař","MOJE AMBULANCE","https://www.firmy.cz/detail/12846250-moje-ambulance-usti-nad-labem-centrum.html","235"
"13","Lékárna","BENU Lékárna","https://www.firmy.cz/detail/12933541-benu-lekarna-usti-nad-labem-centrum.html","203"
"14","Vlak","Ústí nad Labem hlavní nádraží","https://mapy.cz/zakladni?x=14.0445763365&y=50.6594875336&z=17&source=pubt&id=15213131","110"
"15","Sportoviště","Areál Větruše","https://www.firmy.cz/detail/2327755-areal-vetruse-usti-nad-labem-centrum.html","627"
"16","Školka","MŠ Centrum Ústí nad Labem","https://www.firmy.cz/detail/1270692-ms-centrum-usti-nad-labem-usti-nad-labem-centrum.html","279"
"17","Bus MHD","Mírové náměstí","https://mapy.cz/zakladni?x=14.0432578326&y=50.6605607092&z=17&source=pubt&id=17218027","47"
