"","facility_type","facility_name","facility_iri","facility_distance"
"0","Cukrárna","Cukrářství Pudilovi","https://www.firmy.cz/detail/753209-cukrarstvi-pudilovi-kladno.html","50"
"1","Kino","Kino Sokol Kladno","https://www.firmy.cz/detail/13179300-kino-sokol-kladno-kladno.html","323"
"2","Přírodní zajímavost","Vodní park Čabárna","","4699"
"3","Hřiště","Dětské hřiště Zádušní","","203"
"4","Večerka","Žabka","https://www.firmy.cz/detail/12976674-zabka-kladno.html","19"
"5","Hospoda","Klub Moo","https://www.firmy.cz/detail/13095802-klub-moo-kladno.html","335"
"6","Divadlo","Loutkové divadlo Lampion","https://www.firmy.cz/detail/733471-loutkove-divadlo-lampion-kladno.html","214"
"7","Veterinář","Zvířecí doktor, s.r.o.","https://www.firmy.cz/detail/2361316-zvireci-doktor-kladno.html","469"
"8","Restaurace","Indická restaurace Suraja","https://www.firmy.cz/detail/13281702-indicka-restaurace-suraja-kladno.html","9"
"9","Vlak","Kladno-Ostrovec","","997"
"10","Škola","ZŠ a MŠ Montessori Slaný","https://www.firmy.cz/detail/13278779-zs-a-ms-montessori-slany-kladno.html","129"
"11","Lékárna","Lékárna FORMICA","https://www.firmy.cz/detail/685341-lekarna-formica-kladno.html","41"
"12","Obchod","Central Kladno","https://www.firmy.cz/detail/12966933-central-kladno-kladno.html","344"
"13","Sportoviště","Diamond Angels Academy","https://www.firmy.cz/detail/12740434-diamond-angels-academy-kladno.html","209"
"14","Bankomat","Bankomat MONETA Money Bank","https://www.firmy.cz/detail/1625493-bankomat-moneta-money-bank-kladno.html","59"
"15","Bus MHD","Kladno, Zádušní","","214"
"16","Školka","Mateřská škola Duhový svět","https://www.firmy.cz/detail/12746593-materska-skola-duhovy-svet-kladno.html","616"
"17","Lékař","MOJE AMBULANCE","https://www.firmy.cz/detail/13221255-moje-ambulance-kladno.html","217"
"18","Pošta","Pošta Kladno 1 - Česká pošta, s.p.","https://www.firmy.cz/detail/216828-posta-kladno-1-kladno.html","314"
