"","facility_type","facility_name","facility_iri","facility_distance"
"0","Hřiště","Dětské hřiště Husova","https://mapy.cz/zakladni?x=14.844035276986943&y=50.854814019136676&z=17&source=base&id=2321800","391"
"1","Večerka","JIP Potraviny","https://www.firmy.cz/detail/12809971-jip-potraviny-hradek-nad-nisou.html","307"
"2","Cukrárna","Čertes Cukrárna kavárna","https://www.firmy.cz/detail/13097854-certes-cukrarna-kavarna-hradek-nad-nisou.html","610"
"3","Hospoda","Pivnice Národní dům","https://www.firmy.cz/detail/13197472-pivnice-narodni-dum-hradek-nad-nisou.html","281"
"4","Veterinář","MVDr. Andrea Šebestová, s.r.o.","https://www.firmy.cz/detail/2000661-mvdr-andrea-sebestova-hradek-nad-nisou.html","1033"
"5","Kino","Schauburg","https://mapy.cz/zakladni?x=14.808982040863178&y=50.89328851403566&z=17&source=osm&id=1054703132","4832"
"6","Lékař","MUDr. Ivana Pavlová","https://www.firmy.cz/detail/386519-mudr-ivana-pavlova-hradek-nad-nisou.html","501"
"7","Sportoviště","Tenis North Point","https://www.firmy.cz/detail/13068728-tenis-north-point-hradek-nad-nisou.html","162"
"8","Pošta","Pošta Hrádek nad Nisou - Česká pošta, s.p.","https://www.firmy.cz/detail/432037-posta-hradek-nad-nisou-hradek-nad-nisou.html","393"
"9","Školka","ZŠ praktická a MŠ Hrádek Nad Nisou","https://www.firmy.cz/detail/1325382-zs-prakticka-a-ms-hradek-nad-nisou-hradek-nad-nisou-loucna.html","593"
"10","Bus MHD","Hrádek nad Nisou, pošta","https://mapy.cz/zakladni?x=14.8432098698&y=50.8556508235&z=17&source=pubt&id=15334497","369"
"11","Vlak","Hrádek nad Nisou","https://mapy.cz/zakladni?x=14.8469912937&y=50.8558102922&z=17&source=pubt&id=15211491","621"
"12","Bankomat","Bankomat České spořitelny","https://www.firmy.cz/detail/592364-bankomat-ceske-sporitelny-hradek-nad-nisou.html","356"
"13","Lékárna","BENU Lékárna","https://www.firmy.cz/detail/2303179-benu-lekarna-hradek-nad-nisou.html","228"
"14","Škola","ZŠ T.G.Masaryka Hrádek nad Nisou","https://www.firmy.cz/detail/357275-zs-t-g-masaryka-hradek-nad-nisou-hradek-nad-nisou.html","406"
"15","Obchod","Pasaż Porajów","https://mapy.cz/zakladni?x=14.826679324173018&y=50.876177487356316&z=17&source=osm&id=129591530","2598"
"16","Restaurace","Restaurace Panda","https://www.firmy.cz/detail/12887281-restaurace-panda-hradek-nad-nisou.html","239"
