"","facility_type","facility_name","facility_iri","facility_distance"
"0","Hřiště","Dětské hřiště Augustinova","https://mapy.cz/zakladni?x=14.4792498851&y=50.0329954987&z=17&source=base&id=1926478","121"
"1","Veterinář","Veterinární ordinace u gymnázia","https://www.firmy.cz/detail/727266-veterinarni-ordinace-u-gymnazia-praha-zabehlice.html","1481"
"2","Cukrárna","Costa Coffee","https://www.firmy.cz/detail/2663493-costa-coffee-praha-chodov.html","594"
"3","Večerka","Albert Supermarket","https://www.firmy.cz/detail/452357-albert-supermarket-praha-chodov.html","247"
"4","Divadlo","SKAZKA, spol. s r.o.","https://www.firmy.cz/detail/2048564-skazka-praha-hostivar.html","3115"
"5","Hospoda","Hospoda Donovalská 	1725","https://www.firmy.cz/detail/13158304-hospoda-donovalska-1725-praha-chodov.html","1499"
"6","Kino","Cinema City Chodov","https://www.firmy.cz/detail/13098016-cinema-city-chodov-praha-chodov.html","889"
"7","Přírodní zajímavost","Mokřad Triangl","https://mapy.cz/zakladni?x=14.5188041667&y=50.0615525&z=17&source=base&id=1981356","4150"
"8","Bankomat","Bankomat Fio banky","https://www.firmy.cz/detail/2678026-bankomat-fio-banky-praha-chodov.html","252"
"9","Lékař","MUDr. Ludmila Eleková","https://www.firmy.cz/detail/387352-mudr-ludmila-elekova-praha-chodov.html","545"
"10","Lékárna","Lékárna Medicentrum Praha","https://www.firmy.cz/detail/13217013-lekarna-medicentrum-praha-praha-chodov.html","413"
"11","Obchod","Albert Hypermarket","https://www.firmy.cz/detail/648971-albert-hypermarket-praha-chodov.html","805"
"12","Metro","Roztyly","https://mapy.cz/zakladni?x=14.4776926007&y=50.0372161602&z=17&source=pubt&id=15206949","371"
"13","Vlak","Praha-Kačerov","https://mapy.cz/zakladni?x=14.4622595787&y=50.0418756233&z=17&source=pubt&id=15699933","1504"
"14","Sportoviště","Aerobic Monika","https://www.firmy.cz/detail/460949-aerobic-monika-praha-chodov.html","252"
"15","Tram","Spořilov","https://mapy.cz/zakladni?x=14.482064454&y=50.0504244015&z=17&source=pubt&id=15305185","1827"
"16","Školka","International Montessori School of Prague, mateřská škola a základní škola, s.r.o.","https://www.firmy.cz/detail/638068-international-montessori-school-of-prague-materska-skola-a-zakladni-skola-praha-chodov.html","148"
"17","Bus MHD","Dědinova","https://mapy.cz/zakladni?x=14.48340646351971&y=50.03405783596722&z=17&source=pubt&id=15301239","281"
"18","Pošta","Pošta Praha 414 - Česká pošta, s.p.","https://www.firmy.cz/detail/217475-posta-praha-414-praha-chodov.html","812"
"19","Restaurace","Restaurace Maják","https://www.firmy.cz/detail/13095220-restaurace-majak-praha-chodov.html","252"
"20","Škola","ZŠ, Praha 4, Pošepného náměstí","https://www.firmy.cz/detail/401424-zs-praha-4-posepneho-namesti-praha-chodov.html","317"
