"","facility_type","facility_name","facility_iri","facility_distance"
"0","Hřiště","Dětské hřiště Karmelitánská","https://mapy.cz/zakladni?x=15.0046700191&y=49.4739538863&z=17&source=base&id=1928773","71"
"1","Hospoda","Rodinný minipivovar Pacov","https://www.firmy.cz/detail/12974176-rodinny-minipivovar-pacov-pacov.html","285"
"2","Veterinář","MVDr. Ing. Jitka Šťástková","https://www.firmy.cz/detail/2659905-mvdr-ing-jitka-stastkova-pacov.html","185"
"3","Večerka","Potraviny za babku","https://www.firmy.cz/detail/12822258-potraviny-za-babku-pacov.html","76"
"4","Sportoviště","TJ Slavoj Pacov","https://www.firmy.cz/detail/13077570-tj-slavoj-pacov-pacov.html","339"
"5","Školka","Církevní mateřská škola a Středisko volného času Pacov","https://www.firmy.cz/detail/718266-cirkevni-materska-skola-a-stredisko-volneho-casu-pacov-pacov.html","382"
"6","Pošta","Pošta Pacov - Česká pošta, s.p.","https://www.firmy.cz/detail/215164-posta-pacov-pacov.html","411"
"7","Lékař","MUDr. Jan Konečný","https://www.firmy.cz/detail/391041-mudr-jan-konecny-pacov.html","427"
"8","Restaurace","Restaurace a pizzerie Na náměstí","https://www.firmy.cz/detail/725493-restaurace-a-pizzerie-na-namesti-pacov.html","234"
"9","Bus MHD","Pacov, Poláček","https://mapy.cz/zakladni?x=15.0060666181106&y=49.474204153484&z=17&source=pubt&id=15235880","124"
"10","Škola","ZŠ Pacov","https://www.firmy.cz/detail/12925075-zs-pacov-pacov.html","159"
"11","Bankomat","Bankomat Komerční banky","https://www.firmy.cz/detail/597706-bankomat-komercni-banky-pacov.html","223"
"12","Lékárna","Lékárna Pacov","https://www.firmy.cz/detail/376577-lekarna-pacov-pacov.html","427"
"13","Vlak","Pacov","https://mapy.cz/zakladni?x=15.0171664995&y=49.4599029698&z=17&source=pubt&id=15212404","1735"
