"","facility_type","facility_name","facility_iri","facility_distance"
"0","Cukrárna","Dolce Carosello","https://www.firmy.cz/detail/12910081-dolce-carosello-praha.html","432"
"1","Kino","Kino Aero","https://www.firmy.cz/detail/399435-kino-aero-praha-zizkov.html","2779"
"2","Přírodní zajímavost","Mokřad Triangl","","2035"
"3","Hřiště","Dětské hřiště Černická","","68"
"4","Večerka","Řeznictví Blahuta","https://www.firmy.cz/detail/2668761-reznictvi-blahuta-praha-strasnice.html","39"
"5","Hospoda","Oáza","https://www.firmy.cz/detail/13149424-oaza-praha-malesice.html","611"
"6","Divadlo","Divadélko Beze Jména","https://www.firmy.cz/detail/12986402-divadelko-beze-jmena-praha-strasnice.html","526"
"7","Veterinář","MVDr. Martina Načeradská","https://www.firmy.cz/detail/751855-mvdr-martina-naceradska-praha-strasnice.html","246"
"8","Bankomat","Bankomat České spořitelny","https://www.firmy.cz/detail/594491-bankomat-ceske-sporitelny-praha-malesice.html","544"
"9","Obchod","Tesco Extra Skalka","https://www.firmy.cz/detail/653533-tesco-extra-skalka-praha-strasnice.html","867"
"10","Škola","Střední průmyslová škola elektrotechnická Praha 10 V Úžlabině 320","https://www.firmy.cz/detail/362402-stredni-prumyslova-skola-elektrotechnicka-praha-10-v-uzlabine-320-praha-malesice.html","318"
"11","Restaurace","Pizzeria & Mexicana Carosello","https://www.firmy.cz/detail/576895-pizzeria-mexicana-carosello-praha-strasnice.html","48"
"12","Tram","Limuzská","","25"
"13","Lékař","MUDr. Zdeňka Brejchová","https://www.firmy.cz/detail/386076-mudr-zdenka-brejchova-praha-malesice.html","413"
"14","Pošta","Pošta Praha 108 - Česká pošta, s.p.","https://www.firmy.cz/detail/217464-posta-praha-108-praha-malesice.html","604"
"15","Školka","MŠ Praha 10, Tuchorazská","https://www.firmy.cz/detail/618365-ms-praha-10-tuchorazska-praha-malesice.html","347"
"16","Sportoviště","Badminton Aréna Skalka","https://www.firmy.cz/detail/12986321-badminton-arena-skalka-praha-strasnice.html","899"
"17","Lékárna","EUC Lékárna Malešice","https://www.firmy.cz/detail/13162320-euc-lekarna-malesice-praha-malesice.html","413"
"18","Bus MHD","Limuzská","","196"
"19","Vlak","Praha-Zahradní Město","","1740"
"20","Metro","Depo Hostivař","","745"
