"","facility_type","facility_name","facility_iri","facility_distance"
"0","Cukrárna","Cukrárna a pekárna BEAS","https://www.firmy.cz/detail/13029561-cukrarna-a-pekarna-beas-hradec-kralove-vekose.html","994"
"1","Přírodní zajímavost","Slepé rameno Orlice u loděnice","","2391"
"2","Kino","Bio Central","https://www.firmy.cz/detail/12816930-bio-central-hradec-kralove.html","1963"
"3","Hřiště","Dětské hřiště Věkoše","","236"
"4","Večerka","Potraviny Kubík – Hradec Králové, Věkoše","https://www.firmy.cz/detail/225042-potraviny-kubik-hradec-kralove-vekose-hradec-kralove-vekose.html","292"
"5","Hospoda","V Konírně","https://www.firmy.cz/detail/13141015-v-konirne-hradec-kralove-vekose.html","837"
"6","Divadlo","Divadlo Jesličky","https://www.firmy.cz/detail/397007-divadlo-jeslicky-hradec-kralove-slezske-predmesti.html","1479"
"7","Veterinář","Veterinární ordinace - Věkoše","https://www.firmy.cz/detail/663376-veterinarni-ordinace-vekose-hradec-kralove-vekose.html","693"
"8","Bankomat","Bankomat České spořitelny","https://www.firmy.cz/detail/2289316-bankomat-ceske-sporitelny-hradec-kralove-vekose.html","994"
"9","Bus MHD","Věkoše, Slávie","","148"
"10","Školka","Mateřská škola, Hradec Králové - Věkoše, K Sokolovně 349","https://www.firmy.cz/detail/1555325-materska-skola-hradec-kralove-vekose-k-sokolovne-349-hradec-kralove-vekose.html","97"
"11","Škola","ZŠ Hradec Králové - Pouchov, K Sokolovně","https://www.firmy.cz/detail/357259-zs-hradec-kralove-pouchov-k-sokolovne-hradec-kralove-pouchov.html","216"
"12","Pošta","Pošta Hradec Králové 7 - Česká pošta, s.p.","https://www.firmy.cz/detail/12748457-posta-hradec-kralove-7-hradec-kralove-vekose.html","226"
"13","Vlak","Hradec Králové zast.","","425"
"14","Restaurace","Monika Salabová","https://www.firmy.cz/detail/13113237-monika-salabova-hradec-kralove-vekose.html","280"
"15","Obchod","Kaufland","https://www.firmy.cz/detail/738634-kaufland-hradec-kralove-vekose.html","994"
"16","Lékař","MUDr. Michal Korol","https://www.firmy.cz/detail/385846-mudr-michal-korol-hradec-kralove-slezske-predmesti.html","1078"
"17","Sportoviště","Laser Game Hradec Králové","https://www.firmy.cz/detail/13276596-laser-game-hradec-kralove-hradec-kralove.html","1290"
"18","Lékárna","LÉKÁRNA ipc Věkoše","https://www.firmy.cz/detail/374902-lekarna-ipc-vekose-hradec-kralove-vekose.html","280"
