"","facility_type","facility_name","facility_iri","facility_distance"
"0","Cukrárna","Cukrárna U Cahů","https://www.firmy.cz/detail/2237460-cukrarna-u-cahu-trebic-jejkov.html","152"
"1","Kino","Kino Pasáž","https://www.firmy.cz/detail/661363-kino-pasaz-trebic-horka-domky.html","397"
"2","Hřiště","Dětské hřiště u řeky","","188"
"3","Večerka","Večerka Robin","https://www.firmy.cz/detail/13299835-vecerka-robin-trebic-vnitrni-mesto.html","161"
"4","Hospoda","Hospoda Pod Skalou","https://www.firmy.cz/detail/13220870-hospoda-pod-skalou-trebic-nove-dvory.html","211"
"5","Divadlo","Divadlo Pasáž","https://www.firmy.cz/detail/13182085-divadlo-pasaz-trebic-horka-domky.html","397"
"6","Veterinář","Veterinární ordinace - MVDr Sylva Kobylarzová, MVDr Šárka Kounková","https://www.firmy.cz/detail/2136648-veterinarni-ordinace-mvdr-sylva-kobylarzova-mvdr-sarka-kounkova-trebic-horka-domky.html","292"
"7","Restaurace","JAK JINAK PUB","https://www.firmy.cz/detail/13290093-jak-jinak-pub-trebic-jejkov.html","35"
"8","Lékárna","Lékárna U Černíků, s.r.o.","https://www.firmy.cz/detail/2242843-lekarna-u-cerniku-trebic-jejkov.html","123"
"9","Bus MHD","Třebíč, Hlavní pošta","","45"
"10","Bankomat","Raiffeisenbank - bankomat","https://www.firmy.cz/detail/12956929-raiffeisenbank-bankomat-trebic-vnitrni-mesto.html","191"
"11","Obchod","Kaufland","https://www.firmy.cz/detail/1354402-kaufland-trebic-nove-mesto.html","725"
"12","Vlak","Třebíč","","371"
"13","Pošta","Pošta Třebíč 1 - Česká pošta, s.p.","https://www.firmy.cz/detail/216304-posta-trebic-1-trebic-jejkov.html","139"
"14","Škola","Katolické gymnázium Třebíč","https://www.firmy.cz/detail/361788-katolicke-gymnazium-trebic-trebic-jejkov.html","109"
"15","Sportoviště","Bowling Znojemka","https://www.firmy.cz/detail/675763-bowling-znojemka-trebic-horka-domky.html","305"
"16","Školka","MŠ Cyrilometodějská, Třebíč","https://www.firmy.cz/detail/13072536-ms-cyrilometodejska-trebic-trebic-nove-dvory.html","360"
"17","Lékař","MUDr. Veronika Kvapilová, s.r.o.","https://www.firmy.cz/detail/13267001-mudr-veronika-kvapilova-trebic-jejkov.html","487"
