"","facility_type","facility_name","facility_iri","facility_distance"
"0","Hřiště","Dětské hřiště Matěje Kopeckého","https://mapy.cz/zakladni?x=18.1650021025&y=49.8284922756&z=17&source=base&id=2224505","123"
"1","Cukrárna","Kafé Nejenpro","https://www.firmy.cz/detail/13208266-kafe-nejenpro-ostrava-poruba.html","162"
"2","Hospoda","Pivnice U Dudáka","https://www.firmy.cz/detail/12880519-pivnice-u-dudaka-ostrava-poruba.html","78"
"3","Večerka","HRUŠKA","https://www.firmy.cz/detail/12820398-hruska-ostrava-poruba.html","107"
"4","Veterinář","Veterinární klinika Yorika","https://www.firmy.cz/detail/712067-veterinarni-klinika-yorika-ostrava-poruba.html","327"
"5","Kino","Kino Panorama","https://www.firmy.cz/detail/456494-kino-panorama-klimkovice.html","5079"
"6","Divadlo","Porubské divadlo","https://www.firmy.cz/detail/2543038-porubske-divadlo-ostrava-poruba.html","2176"
"7","Restaurace","Restaurace Babylon","https://www.firmy.cz/detail/2603671-restaurace-babylon-ostrava-poruba.html","100"
"8","Bus MHD","Fakultní nemocnice","https://mapy.cz/zakladni?x=18.1629777821&y=49.8291733143&z=17&source=pubt&id=15201967","173"
"9","Školka","MŠ, Ostrava-Poruba, Dvorní","https://www.firmy.cz/detail/2619238-ms-ostrava-poruba-dvorni-ostrava-poruba.html","294"
"10","Bankomat","Bankomat Fio banky","https://www.firmy.cz/detail/12857714-bankomat-fio-banky-ostrava-poruba.html","150"
"11","Lékař","MUDr. Olga Tkáčová","https://www.firmy.cz/detail/387453-mudr-olga-tkacova-ostrava-poruba.html","398"
"12","Tram","Hlavní třída","https://mapy.cz/zakladni?x=18.1639962647414&y=49.83050730886519&z=17&source=pubt&id=15201824","140"
"13","Sportoviště","Sportovní a rekreační zařízení města Ostravy","https://www.firmy.cz/detail/423310-sportovni-a-rekreacni-zarizeni-mesta-ostravy-ostrava-poruba.html","734"
"14","Pošta","Pošta Ostrava 33 - Česká pošta, s.p.","https://www.firmy.cz/detail/433341-posta-ostrava-33-ostrava-poruba.html","163"
"15","Obchod","REKTOR, s.r.o.","https://www.firmy.cz/detail/12978812-rektor-ostrava-poruba.html","1042"
"16","Škola","ZŠ Ostrava-Poruba, Komenského","https://www.firmy.cz/detail/358706-zs-ostrava-poruba-komenskeho-ostrava-poruba.html","350"
"17","Lékárna","Dr. Max LÉKÁRNA","https://www.firmy.cz/detail/13001292-dr-max-lekarna-ostrava-poruba.html","319"
"18","Vlak","Ostrava-Třebovice","https://mapy.cz/zakladni?x=18.1956703177&y=49.8420594647&z=17&source=pubt&id=15212381","2583"
