"","facility_type","facility_name","facility_iri","facility_distance"
"0","Cukrárna","Lahůdky a cukrárna U přátel","https://www.firmy.cz/detail/13169133-lahudky-a-cukrarna-u-pratel-praha-kobylisy.html","359"
"1","Kino","Cinema City Letňany","https://www.firmy.cz/detail/2679833-cinema-city-letnany-praha-letnany.html","2107"
"2","Přírodní zajímavost","Meandry Rokytky","","5189"
"3","Hřiště","Dětské hřiště Havránkova","","72"
"4","Večerka","NORMA","https://www.firmy.cz/detail/13205438-norma-praha-kobylisy.html","383"
"5","Hospoda","Pivnice Chabařovická","https://www.firmy.cz/detail/13323263-pivnice-chabarovicka-praha-kobylisy.html","631"
"6","Divadlo","Divadlo Karla Hackera","https://www.firmy.cz/detail/2030639-divadlo-karla-hackera-praha-kobylisy.html","1778"
"7","Veterinář","Veterinární ordinace MVDr.Martin Otáhal","https://www.firmy.cz/detail/473620-veterinarni-ordinace-mvdr-martin-otahal-praha-kobylisy.html","917"
"8","Pošta","Pošta Praha 82 - Česká pošta, s.p.","https://www.firmy.cz/detail/431384-posta-praha-82-praha-kobylisy.html","887"
"9","Školka","MŠ, Praha 8, Šimůnkova","https://www.firmy.cz/detail/2265830-ms-praha-8-simunkova-praha-kobylisy.html","218"
"10","Sportoviště","Beachklub Ládví","https://www.firmy.cz/detail/2573721-beachklub-ladvi-praha-kobylisy.html","383"
"11","Bus MHD","Domov seniorů Ďáblice","","46"
"12","Lékárna","BENU Lékárna","https://www.firmy.cz/detail/13163128-benu-lekarna-praha-kobylisy.html","867"
"13","Bankomat","Bankomat ČSOB","https://www.firmy.cz/detail/1424172-bankomat-csob-praha-kobylisy.html","887"
"14","Restaurace","Restaurace Na Mělnické","https://www.firmy.cz/detail/1973940-restaurace-na-melnicke-praha-kobylisy.html","330"
"15","Škola","Základní škola, Praha 8, Žernosecká 3","https://www.firmy.cz/detail/359013-zakladni-skola-praha-8-zernosecka-3-praha-kobylisy.html","456"
"16","Metro","Ládví","","1017"
"17","Lékař","MUDr. Irena Chalupová, s.r.o.","https://www.firmy.cz/detail/13283118-mudr-irena-chalupova-praha-kobylisy.html","170"
"18","Obchod","Obchodní dům Ládví","https://www.firmy.cz/detail/13187057-obchodni-dum-ladvi-praha-kobylisy.html","997"
"19","Tram","Sídliště Ďáblice","","557"
"20","Vlak","Praha-Vysočany","","3111"
