"","facility_type","facility_name","facility_iri","facility_distance"
"0","Hřiště","Dětské hřiště Praskačka","","156"
"1","Večerka","HRUŠKA","https://www.firmy.cz/detail/12820320-hruska-praskacka.html","212"
"2","Hospoda","Hospoda Na Hřišti","https://www.firmy.cz/detail/13119313-hospoda-na-hristi-urbanice.html","707"
"3","Veterinář","Veterinární ordinace Čeperka","https://www.firmy.cz/detail/1319083-veterinarni-ordinace-ceperka-ceperka.html","4919"
"4","Škola","ZŠ a MŠ Praskačka","https://www.firmy.cz/detail/359030-zs-a-ms-praskacka-praskacka.html","404"
"5","Školka","ZŠ a MŠ Praskačka","https://www.firmy.cz/detail/726394-zs-a-ms-praskacka-praskacka.html","404"
"6","Vlak","Praskačka","","418"
"7","Bus MHD","Praskačka, křiž.","","300"
"8","Pošta","Pošta Praskačka - Česká pošta, s.p.","https://www.firmy.cz/detail/215759-posta-praskacka-praskacka.html","679"
"9","Lékárna","Výdejna Libčany","https://www.firmy.cz/detail/375104-vydejna-libcany-libcany.html","3703"
"10","Sportoviště","Tělocvičná jednota Sokol Těchlovice","https://www.firmy.cz/detail/1293078-telocvicna-jednota-sokol-techlovice-techlovice.html","4137"
"11","Bankomat","Bankomat České spořitelny","https://www.firmy.cz/detail/592344-bankomat-ceske-sporitelny-hradec-kralove-placice.html","4178"
"12","Obchod","Albert Hypermarket","https://www.firmy.cz/detail/446884-albert-hypermarket-hradec-kralove-placice.html","4207"
"13","Restaurace","U KLETEČKŮ","https://www.firmy.cz/detail/13112052-u-kletecku-praskacka.html","397"
"14","Lékař","MUDr. Petr Šubrt","https://www.firmy.cz/detail/387772-mudr-petr-subrt-lhota-pod-libcany.html","2901"
