"","facility_type","facility_name","facility_iri","facility_distance"
"0","Cukrárna","Kavárna a cukrárna MIX","https://www.firmy.cz/detail/12862009-kavarna-a-cukrarna-mix-karlovy-vary.html","223"
"1","Přírodní zajímavost","Karlův hvozd","","1134"
"2","Kino","Kino Čas","https://www.firmy.cz/detail/13125984-kino-cas-karlovy-vary.html","413"
"3","Hřiště","Dětské hřiště Tylova","","808"
"4","Večerka","Večerka Amethyst","https://www.firmy.cz/detail/13325177-vecerka-amethyst-karlovy-vary.html","379"
"5","Hospoda","John Jameson Pub","https://www.firmy.cz/detail/654285-john-jameson-pub-karlovy-vary.html","757"
"6","Divadlo","Karlovarské městské divadlo, o.p.s.","https://www.firmy.cz/detail/12756821-karlovarske-mestske-divadlo-o-p-s-karlovy-vary.html","672"
"7","Veterinář","MVDr. Eva Tichá","https://www.firmy.cz/detail/2656349-mvdr-eva-ticha-karlovy-vary-rybare.html","1483"
"8","Bankomat","Bankomat Fio banky","https://www.firmy.cz/detail/2678097-bankomat-fio-banky-karlovy-vary.html","130"
"9","Lékárna","St.Maria Lékárna","https://www.firmy.cz/detail/13198461-st-maria-lekarna-karlovy-vary.html","459"
"10","Sportoviště","Bazén Thermal","https://www.firmy.cz/detail/1351355-bazen-thermal-karlovy-vary.html","383"
"11","Škola","SZŠ a VOŠZ Karlovy Vary, příspěvková organizace","https://www.firmy.cz/detail/361040-szs-a-vosz-karlovy-vary-prispevkova-organizace-karlovy-vary.html","118"
"12","Restaurace","Restaurace Iris","https://www.firmy.cz/detail/13108536-restaurace-iris-karlovy-vary.html","52"
"13","Školka","ZŠ a MŠ při zdravotnických zařízeních Karlovy Vary","https://www.firmy.cz/detail/12736566-zs-a-ms-pri-zdravotnickych-zarizenich-karlovy-vary-karlovy-vary.html","913"
"14","Vlak","Karlovy Vary dolní nádraží","","1022"
"15","Pošta","Pošta Karlovy Vary 1 - Česká pošta, s.p.","https://www.firmy.cz/detail/217581-posta-karlovy-vary-1-karlovy-vary.html","389"
"16","Obchod","Obchodní centrum Perla","https://www.firmy.cz/detail/13219298-obchodni-centrum-perla-karlovy-vary.html","503"
"17","Bus MHD","Krále Jiřího","","75"
"18","Lékař","SPAMEDICON, s.r.o.","https://www.firmy.cz/detail/13292942-spamedicon-karlovy-vary.html","502"
