"","facility_type","facility_name","facility_iri","facility_distance"
"0","Cukrárna","Cheecup","https://www.firmy.cz/detail/12725253-cheecup-praha-podoli.html","91"
"1","Kino","HopeTV","https://www.firmy.cz/detail/672889-hopetv-praha-vinohrady.html","2063"
"2","Přírodní zajímavost","Kovářovic mez","","4585"
"3","Hřiště","Dětské hřiště Nedvědovo náměstí","","80"
"4","Večerka","FEBAJ maloobchod","https://www.firmy.cz/detail/2676948-febaj-maloobchod-praha-podoli.html","128"
"5","Hospoda","BEER BAR Na Veseli","https://www.firmy.cz/detail/2553652-beer-bar-na-veseli-praha-nusle.html","1376"
"6","Divadlo","TotO Divadlo","https://www.firmy.cz/detail/2262258-toto-divadlo-praha-nusle.html","733"
"7","Veterinář","MVDr. Lucie Boháčová","https://www.firmy.cz/detail/2646562-mvdr-lucie-bohacova-praha-podoli.html","220"
"8","Sportoviště","Wellness club MIDA","https://www.firmy.cz/detail/2196943-wellness-club-mida-praha-podoli.html","229"
"9","Vlak","Praha-Smíchov","","1153"
"10","Škola","ZŠ Praha 4, Nedvědovo náměstí","https://www.firmy.cz/detail/401410-zs-praha-4-nedvedovo-namesti-praha-podoli.html","133"
"11","Tram","Podolská vodárna","","308"
"12","Školka","MŠ Praha 4, Voráčovská","https://www.firmy.cz/detail/628792-ms-praha-4-voracovska-praha-podoli.html","280"
"13","Bus MHD","Doliny","","145"
"14","Restaurace","Restaurace U Dragouna","https://www.firmy.cz/detail/335878-restaurace-u-dragouna-praha-podoli.html","95"
"15","Obchod","Arkády Pankrác","https://www.firmy.cz/detail/2245240-arkady-pankrac-praha-nusle.html","1253"
"16","Pošta","Pošta Praha 49 - Česká pošta, s.p.","https://www.firmy.cz/detail/217479-posta-praha-49-praha-podoli.html","251"
"17","Bankomat","Bankomat Komerční banky","https://www.firmy.cz/detail/1348730-bankomat-komercni-banky-praha-podoli.html","229"
"18","Lékárna","Lékárna v Podolí, s.r.o.","https://www.firmy.cz/detail/269503-lekarna-v-podoli-praha-podoli.html","347"
"19","Lékař","MUDr. Marcela Cesarová","https://www.firmy.cz/detail/379326-mudr-marcela-cesarova-praha-podoli.html","343"
"20","Metro","Pražského povstání","","819"
