"","facility_type","facility_name","facility_iri","facility_distance"
"0","Cukrárna","Cukrárna V Uličce","https://www.firmy.cz/detail/12826592-cukrarna-v-ulicce-chocen.html","839"
"1","Kino","Kino Máj","https://www.firmy.cz/detail/452980-kino-maj-chocen.html","790"
"2","Hřiště","Dětské hřiště Kaštanová","","416"
"3","Večerka","Konzum Market","https://www.firmy.cz/detail/2133371-konzum-market-chocen.html","145"
"4","Hospoda","Pohostinství u Borové šišky","https://www.firmy.cz/detail/13325305-pohostinstvi-u-borove-sisky-chocen.html","153"
"5","Veterinář","MVDr. Iva Šírová","https://www.firmy.cz/detail/12825890-mvdr-iva-sirova-chocen.html","1057"
"6","Sportoviště","Město Choceň - Tenis","https://www.firmy.cz/detail/13082843-mesto-chocen-tenis-chocen.html","528"
"7","Lékárna","Lékárna Choceň","https://www.firmy.cz/detail/13295220-lekarna-chocen-chocen.html","514"
"8","Restaurace","2. provozovna ŠJ Choceň","https://www.firmy.cz/detail/2423769-2-provozovna-sj-chocen-chocen.html","244"
"9","Škola","ZŠ Sv. Čecha Choceň","https://www.firmy.cz/detail/357351-zs-sv-cecha-chocen-chocen.html","530"
"10","Bankomat","Platbomat České spořitelny","https://www.firmy.cz/detail/13239194-platbomat-ceske-sporitelny-chocen.html","860"
"11","Bus MHD","Choceň, rozc.ČKD 0.3","","629"
"12","Lékař","Primcare s.r.o.","https://www.firmy.cz/detail/13293719-primcare-s-r-o-chocen.html","560"
"13","Pošta","Pošta Choceň 1 - Česká pošta, s.p.","https://www.firmy.cz/detail/215905-posta-chocen-1-chocen.html","789"
"14","Vlak","Choceň","","795"
"15","Školka","Mateřská škola Stromovka, Choceň","https://www.firmy.cz/detail/1973785-materska-skola-stromovka-chocen-chocen.html","352"
