"","facility_type","facility_name","facility_iri","facility_distance"
"0","Cukrárna","Učňovská cukrárna","https://www.firmy.cz/detail/12819209-ucnovska-cukrarna-kladno-krocehlavy.html","339"
"1","Kino","Kino Hutník","https://www.firmy.cz/detail/396729-kino-hutnik-kladno-krocehlavy.html","1200"
"2","Hřiště","Dětské hřiště Italská","","367"
"3","Večerka","Smíšené zboží Italská 2423","https://www.firmy.cz/detail/12819213-smisene-zbozi-italska-2423-kladno-krocehlavy.html","357"
"4","Hospoda","Na základně","https://www.firmy.cz/detail/570154-na-zakladne-kladno-krocehlavy.html","338"
"5","Divadlo","Městské divadlo Kladno","https://www.firmy.cz/detail/1970001-mestske-divadlo-kladno-kladno.html","1561"
"6","Veterinář","MVDr. Petr Prokeš","https://www.firmy.cz/detail/592518-mvdr-petr-prokes-kladno-krocehlavy.html","302"
"7","Školka","ZŠ a MŠ Kladno, Jaroslava Foglara","https://www.firmy.cz/detail/12737425-zs-a-ms-kladno-jaroslava-foglara-kladno-krocehlavy.html","68"
"8","Lékárna","Dr.Max LÉKÁRNA","https://www.firmy.cz/detail/13280015-dr-max-lekarna-kladno-krocehlavy.html","203"
"9","Vlak","Kladno","","699"
"10","Sportoviště","Bowling Flóra Kladno","https://www.firmy.cz/detail/13282965-bowling-flora-kladno-kladno-krocehlavy.html","147"
"11","Bus MHD","Kladno, Vodárenská","","163"
"12","Lékař","Ordinace v Anglické s.r.o.","https://www.firmy.cz/detail/13290598-ordinace-v-anglicke-s-r-o-kladno-krocehlavy.html","102"
"13","Bankomat","Bankomat MONETA Money Bank","https://www.firmy.cz/detail/659133-bankomat-moneta-money-bank-kladno-krocehlavy.html","244"
"14","Restaurace","Kevin Sushi bar","https://www.firmy.cz/detail/12973226-kevin-sushi-bar-kladno-krocehlavy.html","59"
"15","Pošta","Pošta Kladno 6 - Česká pošta, s.p.","https://www.firmy.cz/detail/216841-posta-kladno-6-kladno-krocehlavy.html","153"
"16","Škola","Základní škola Kladno, Vodárenská 2116","https://www.firmy.cz/detail/356089-zakladni-skola-kladno-vodarenska-2116-kladno-krocehlavy.html","200"
"17","Obchod","Kaufland","https://www.firmy.cz/detail/1406115-kaufland-kladno-krocehlavy.html","259"
