"","facility_type","facility_name","facility_iri","facility_distance"
"0","Cukrárna","Cukrárna Anna Bella","https://www.firmy.cz/detail/2615912-cukrarna-anna-bella-jesenice.html","696"
"1","Hřiště","Dětské hřiště Za Rybníkem","","304"
"2","Večerka","Žabka","https://www.firmy.cz/detail/12976673-zabka-jesenice.html","571"
"3","Hospoda","Hostinec Chmelová","https://www.firmy.cz/detail/1328053-hostinec-chmelova-vestec.html","1450"
"4","Veterinář","MVDr. Jan Šimr","https://www.firmy.cz/detail/2124513-mvdr-jan-simr-jesenice.html","595"
"5","Bankomat","Bankomat České spořitelny","https://www.firmy.cz/detail/592916-bankomat-ceske-sporitelny-jesenice.html","536"
"6","Sportoviště","YC PanCzech","https://www.firmy.cz/detail/13013210-yc-panczech-jesenice.html","349"
"7","Škola","Základní škola Zdiměřice","https://www.firmy.cz/detail/13330175-zakladni-skola-zdimerice-jesenice-zdimerice.html","1500"
"8","Lékárna","Lékárna Cedr","https://www.firmy.cz/detail/2438822-lekarna-cedr-jesenice.html","536"
"9","Pošta","Pošta Jesenice u Prahy - Česká pošta, s.p.","https://www.firmy.cz/detail/431695-posta-jesenice-u-prahy-jesenice.html","500"
"10","Lékař","MUDr. Simona Kovandová","https://www.firmy.cz/detail/385955-mudr-simona-kovandova-jesenice.html","603"
"11","Školka","Mateřská škola Jesenice","https://www.firmy.cz/detail/13050461-materska-skola-jesenice-jesenice.html","301"
"12","Bus MHD","Jesenice, bytovky","","517"
"13","Obchod","Albert Hypermarket","https://www.firmy.cz/detail/652996-albert-hypermarket-vestec.html","1648"
"14","Restaurace","STREET FOOD BISTRO","https://www.firmy.cz/detail/13252337-street-food-bistro-jesenice.html","447"
