"","facility_type","facility_name","facility_iri","facility_distance"
"0","Cukrárna","Duhový ráj","https://www.firmy.cz/detail/2512136-duhovy-raj-brno-lesna.html","617"
"1","Kino","Kino Art","https://www.firmy.cz/detail/451540-kino-art-brno-veveri.html","3019"
"2","Hřiště","Dětské hřiště Arbesova","","32"
"3","Přírodní zajímavost","Přírodní zahrada U Smrku","","2902"
"4","Večerka","Albert Supermarket","https://www.firmy.cz/detail/446708-albert-supermarket-brno-lesna.html","373"
"5","Hospoda","Hospůdka U Koudelků","https://www.firmy.cz/detail/13112301-hospudka-u-koudelku-brno-lesna.html","144"
"6","Divadlo","Kuk & Cuk","https://www.firmy.cz/detail/2569671-kuk-cuk-brno-lesna.html","310"
"7","Veterinář","Veterinární klinika SamVet, s.r.o.","https://www.firmy.cz/detail/13075167-veterinarni-klinika-samvet-brno-lesna.html","650"
"8","Školka","Mateřská škola a základní škola Sluníčko - Montessori, s.r.o.","https://www.firmy.cz/detail/180233-materska-skola-a-zakladni-skola-slunicko-montessori-brno-lesna.html","166"
"9","Restaurace","Pool Grill","https://www.firmy.cz/detail/13127045-pool-grill-brno-lesna.html","422"
"10","Škola","Taneční konzervatoř Brno","https://www.firmy.cz/detail/232062-tanecni-konzervator-brno-brno-lesna.html","125"
"11","Bankomat","Bankomat České spořitelny","https://www.firmy.cz/detail/591627-bankomat-ceske-sporitelny-brno-lesna.html","368"
"12","Sportoviště","Lanové centrum Proud","","300"
"13","Lékař","MUDr. Milana Grublová - Auxilio MG s.r.o.","https://www.firmy.cz/detail/13284147-mudr-milana-grublova-auxilio-mg-s-r-o-brno-lesna.html","372"
"14","Tram","Čertova rokle","","281"
"15","Pošta","Řídící depo Brno 73 - Česká pošta, s.p.","https://www.firmy.cz/detail/13342922-ridici-depo-brno-73-brno-lesna.html","557"
"16","Lékárna","Lékárna Halasovo náměstí","https://www.firmy.cz/detail/2640015-lekarna-halasovo-namesti-brno-lesna.html","399"
"17","Bus MHD","Arbesova","","228"
"18","Vlak","Brno-Lesná","","640"
"19","Obchod","Nákupní centrum Královo Pole","https://www.firmy.cz/detail/671101-nakupni-centrum-kralovo-pole-brno-ponava.html","1745"
