"","facility_type","facility_name","facility_iri","facility_distance"
"0","Cukrárna","ZigZag Caffé Music Bar","https://www.firmy.cz/detail/13121055-zigzag-caffe-music-bar-karlovy-vary.html","185"
"1","Kino","Kino Čas","https://www.firmy.cz/detail/13125984-kino-cas-karlovy-vary.html","397"
"2","Přírodní zajímavost","Karlův hvozd","","1674"
"3","Hřiště","Dětské hřiště Moskevská","","745"
"4","Večerka","Mini Market Moskevská","https://www.firmy.cz/detail/13319532-mini-market-moskevska-karlovy-vary.html","147"
"5","Hospoda","John Jameson Pub","https://www.firmy.cz/detail/654285-john-jameson-pub-karlovy-vary.html","135"
"6","Divadlo","Karlovarské městské divadlo, o.p.s.","https://www.firmy.cz/detail/12756821-karlovarske-mestske-divadlo-o-p-s-karlovy-vary.html","1265"
"7","Veterinář","MVDr. Eva Tichá","https://www.firmy.cz/detail/2656349-mvdr-eva-ticha-karlovy-vary-rybare.html","993"
"8","Lékař","Praktická lékařka MUDr. Jaroslava Švandrlíková","https://www.firmy.cz/detail/387625-prakticka-lekarka-mudr-jaroslava-svandrlikova-karlovy-vary.html","86"
"9","Obchod","Obchodní centrum Perla","https://www.firmy.cz/detail/13219298-obchodni-centrum-perla-karlovy-vary.html","323"
"10","Lékárna","Lékárna Moskevská","https://www.firmy.cz/detail/420918-lekarna-moskevska-karlovy-vary.html","86"
"11","Školka","ZŠ a MŠ při zdravotnických zařízeních Karlovy Vary","https://www.firmy.cz/detail/12736566-zs-a-ms-pri-zdravotnickych-zarizenich-karlovy-vary-karlovy-vary.html","815"
"12","Škola","Základní škola a střední škola Karlovy Vary","https://www.firmy.cz/detail/2659825-zakladni-skola-a-stredni-skola-karlovy-vary-karlovy-vary.html","28"
"13","Bankomat","Bankomat Komerční banky","https://www.firmy.cz/detail/592265-bankomat-komercni-banky-karlovy-vary.html","106"
"14","Pošta","Pošta Karlovy Vary 1 - Česká pošta, s.p.","https://www.firmy.cz/detail/217581-posta-karlovy-vary-1-karlovy-vary.html","436"
"15","Bus MHD","Svahová","","132"
"16","Vlak","Karlovy Vary dolní nádraží","","396"
"17","Restaurace","Saffron Indická Restaurace","https://www.firmy.cz/detail/13235341-saffron-indicka-restaurace-karlovy-vary.html","72"
"18","Sportoviště","Bazén Thermal","https://www.firmy.cz/detail/1351355-bazen-thermal-karlovy-vary.html","783"
