"","facility_type","facility_name","facility_iri","facility_distance"
"0","Hřiště","Dětské hřiště Zahradní","","1433"
"1","Večerka","Smíšené zboží Podbořanská 52","https://www.firmy.cz/detail/2456149-smisene-zbozi-podboranska-52-lubenec.html","1518"
"2","Hospoda","Káčko","https://www.firmy.cz/detail/13123635-kacko-lubenec.html","1617"
"3","Lékárna","Lubenecká lékárna","https://www.firmy.cz/detail/12891359-lubenecka-lekarna-lubenec.html","1608"
"4","Školka","MŠ Lubenec","https://www.firmy.cz/detail/12893877-ms-lubenec-lubenec.html","1870"
"5","Pošta","Pošta Lubenec - Česká pošta, s.p.","https://www.firmy.cz/detail/215321-posta-lubenec-lubenec.html","1496"
"6","Škola","ZŠ Lubenec, Masarykova","https://www.firmy.cz/detail/358130-zs-lubenec-masarykova-lubenec.html","1625"
"7","Restaurace","Hostinec Včelín","https://www.firmy.cz/detail/574076-hostinec-vcelin-lubenec.html","1575"
"8","Bus MHD","Lubenec, Libyně","","206"
"9","Lékař","MUDr. Petr Ráliš","https://www.firmy.cz/detail/1310620-mudr-petr-ralis-lubenec.html","1608"
"10","Vlak","Lubenec zastávka","","1900"
