"","facility_type","facility_name","facility_iri","facility_distance"
"0","Cukrárna","Kavárna V sedmém nebi","https://www.firmy.cz/detail/1953924-kavarna-v-sedmem-nebi-praha-mala-strana.html","253"
"1","Kino","Cinema City Nový Smíchov","https://www.firmy.cz/detail/2679838-cinema-city-novy-smichov-praha-smichov.html","608"
"2","Přírodní zajímavost","Kovářovic mez","","5010"
"3","Hřiště","Dětské hřiště Rošických","","58"
"4","Večerka","Tesco Expres","https://www.firmy.cz/detail/2414024-tesco-expres-praha-smichov.html","304"
"5","Divadlo","Švandovo divadlo na Smíchově","https://www.firmy.cz/detail/230741-svandovo-divadlo-na-smichove-praha-smichov.html","188"
"6","Hospoda","Hospůdka Knoflík","https://www.firmy.cz/detail/2253647-hospudka-knoflik-praha-smichov.html","1025"
"7","Veterinář","MVDr. Katka Sviták Novozámská","https://www.firmy.cz/detail/2137713-mvdr-katka-svitak-novozamska-praha-stare-mesto.html","1069"
"8","Bankomat","Bankomat ČSOB","https://www.firmy.cz/detail/599633-bankomat-csob-praha-smichov.html","365"
"9","Restaurace","The Beer Spot","https://www.firmy.cz/detail/1967193-the-beer-spot-praha-mala-strana.html","168"
"10","Školka","MŠ Praha 1, Hellichova","https://www.firmy.cz/detail/406822-ms-praha-1-hellichova-praha-mala-strana.html","518"
"11","Pošta","Pošta Praha 51 - Česká pošta, s.p.","https://www.firmy.cz/detail/431281-posta-praha-51-praha-mala-strana.html","136"
"12","Obchod","Obchodní centrum Nový Smíchov","https://www.firmy.cz/detail/579116-obchodni-centrum-novy-smichov-praha-smichov.html","749"
"13","Tram","Švandovo divadlo","","107"
"14","Vlak","Praha-Smíchov severní nást.","","1765"
"15","Metro","Anděl","","946"
"16","Lékárna","EUC Lékárna Kartouzská","https://www.firmy.cz/detail/13162323-euc-lekarna-kartouzska-praha-smichov.html","610"
"17","Škola","Gymnázium Christiana Dopplera","https://www.firmy.cz/detail/362406-gymnazium-christiana-dopplera-praha-mala-strana.html","211"
"18","Bus MHD","Švandovo divadlo","","95"
"19","Lékař","MUDr. Ludmila Šustová","https://www.firmy.cz/detail/390750-mudr-ludmila-sustova-praha-mala-strana.html","396"
"20","Sportoviště","Tělocvičná jednota Sokol Malá Strana","https://www.firmy.cz/detail/2128278-telocvicna-jednota-sokol-mala-strana-praha-mala-strana.html","305"
