"","facility_type","facility_name","facility_iri","facility_distance"
"0","Cukrárna","Kavárna V sedmém nebi","https://www.firmy.cz/detail/1953924-kavarna-v-sedmem-nebi-praha-mala-strana.html","264"
"1","Kino","Cinema City Nový Smíchov","https://www.firmy.cz/detail/2679838-cinema-city-novy-smichov-praha-smichov.html","613"
"2","Přírodní zajímavost","Kovářovic mez","","5005"
"3","Hřiště","Dětské hřiště Rošických","","42"
"4","Večerka","Tesco Expres","https://www.firmy.cz/detail/2414024-tesco-expres-praha-smichov.html","313"
"5","Hospoda","Hospůdka Knoflík","https://www.firmy.cz/detail/2253647-hospudka-knoflik-praha-smichov.html","1034"
"6","Divadlo","Švandovo divadlo na Smíchově","https://www.firmy.cz/detail/230741-svandovo-divadlo-na-smichove-praha-smichov.html","196"
"7","Veterinář","MVDr. Katka Sviták Novozámská","https://www.firmy.cz/detail/2137713-mvdr-katka-svitak-novozamska-praha-stare-mesto.html","1080"
"8","Tram","Švandovo divadlo","","116"
"9","Školka","MŠ Praha 1, Hellichova","https://www.firmy.cz/detail/406822-ms-praha-1-hellichova-praha-mala-strana.html","507"
"10","Obchod","Obchodní centrum Nový Smíchov","https://www.firmy.cz/detail/579116-obchodni-centrum-novy-smichov-praha-smichov.html","753"
"11","Restaurace","The Beer Spot","https://www.firmy.cz/detail/1967193-the-beer-spot-praha-mala-strana.html","178"
"12","Lékárna","EUC Lékárna Kartouzská","https://www.firmy.cz/detail/13162323-euc-lekarna-kartouzska-praha-smichov.html","612"
"13","Vlak","Praha-Smíchov severní nást.","","1775"
"14","Sportoviště","Tělocvičná jednota Sokol Malá Strana","https://www.firmy.cz/detail/2128278-telocvicna-jednota-sokol-mala-strana-praha-mala-strana.html","293"
"15","Lékař","MUDr. Ludmila Šustová","https://www.firmy.cz/detail/390750-mudr-ludmila-sustova-praha-mala-strana.html","390"
"16","Škola","Gymnázium Christiana Dopplera","https://www.firmy.cz/detail/362406-gymnazium-christiana-dopplera-praha-mala-strana.html","224"
"17","Bus MHD","Švandovo divadlo","","109"
"18","Metro","Anděl","","954"
"19","Bankomat","Bankomat ČSOB","https://www.firmy.cz/detail/599633-bankomat-csob-praha-smichov.html","374"
"20","Pošta","Pošta Praha 51 - Česká pošta, s.p.","https://www.firmy.cz/detail/431281-posta-praha-51-praha-mala-strana.html","129"
