"","facility_type","facility_name","facility_iri","facility_distance"
"0","Cukrárna","Domeček u Rondelu","https://www.firmy.cz/detail/13332211-domecek-u-rondelu-usti-nad-labem-bukov.html","774"
"1","Kino","Letní kino Ústí nad Labem","https://www.firmy.cz/detail/2556284-letni-kino-usti-nad-labem-usti-nad-labem.html","3334"
"2","Hřiště","Dětské hřiště","","508"
"3","Večerka","Večerka Skorotice","https://www.firmy.cz/detail/13268298-vecerka-skorotice-usti-nad-labem-skorotice.html","190"
"4","Hospoda","Hospoda U dvou kanců","https://www.firmy.cz/detail/12889301-hospoda-u-dvou-kancu-usti-nad-labem.html","277"
"5","Divadlo","Severočeské divadlo, s.r.o.","https://www.firmy.cz/detail/12720983-severoceske-divadlo-usti-nad-labem-centrum.html","3659"
"6","Veterinář","VETERINÁRNÍ ORDINACE TUMA MVDr. & KRÁL MVDr.","https://www.firmy.cz/detail/2136940-veterinarni-ordinace-tuma-mvdr-kral-mvdr-usti-nad-labem-bukov.html","711"
"7","Sportoviště","Dům dětí a mládeže Ústí nad Labem - STADION MLÁDEŽE","https://www.firmy.cz/detail/686220-dum-deti-a-mladeze-usti-nad-labem-stadion-mladeze-usti-nad-labem-bukov.html","681"
"8","Lékař","MEDIVEL, s.r.o.","https://www.firmy.cz/detail/12889584-medivel-usti-nad-labem-bukov.html","676"
"9","Vlak","Ústí nad Labem západ","","3689"
"10","Škola","ZŠ Ústí nad Labem, Školní","https://www.firmy.cz/detail/12849533-zs-usti-nad-labem-skolni-usti-nad-labem-bukov.html","306"
"11","Restaurace","Hostinec Pod Kaštany","https://www.firmy.cz/detail/13121182-hostinec-pod-kastany-usti-nad-labem-skorotice.html","186"
"12","Školka","MŠ Ústí nad Labem, 5. května","https://www.firmy.cz/detail/1548516-ms-usti-nad-labem-5-kvetna-usti-nad-labem-skorotice.html","125"
"13","Bus MHD","Skorotice","","156"
"14","Lékárna","Dr. Max LÉKÁRNA","https://www.firmy.cz/detail/12884305-dr-max-lekarna-usti-nad-labem-vseborice.html","941"
"15","Bankomat","Bankomat MONETA Money Bank","https://www.firmy.cz/detail/2696977-bankomat-moneta-money-bank-usti-nad-labem-vseborice.html","920"
"16","Pošta","Pošta Ústí nad Labem 10 - Česká pošta, s.p.","https://www.firmy.cz/detail/215932-posta-usti-nad-labem-10-usti-nad-labem-vseborice.html","941"
"17","Obchod","Kaufland","https://www.firmy.cz/detail/12700918-kaufland-usti-nad-labem-vseborice.html","941"
