"","facility_type","facility_name","facility_iri","facility_distance"
"0","Cukrárna","Cukrárna Dánská 2373 - SPV - středisko praktického vyučování, s.r.o.","https://www.firmy.cz/detail/203309-cukrarna-danska-2373-kladno-krocehlavy.html","450"
"1","Kino","Kino Hutník","https://www.firmy.cz/detail/396729-kino-hutnik-kladno-krocehlavy.html","1516"
"2","Hřiště","Dětské hřiště Švédská","","176"
"3","Večerka","Penny Market","https://www.firmy.cz/detail/207849-penny-market-kladno-krocehlavy.html","221"
"4","Hospoda","Hospůdka Bajkal","https://www.firmy.cz/detail/13111540-hospudka-bajkal-kladno-krocehlavy.html","274"
"5","Divadlo","Městské divadlo Kladno","https://www.firmy.cz/detail/1970001-mestske-divadlo-kladno-kladno.html","2116"
"6","Veterinář","MVDr. Alice Franková - veterinární ordinace","https://www.firmy.cz/detail/169405-mvdr-alice-frankova-veterinarni-ordinace-kladno-krocehlavy.html","290"
"7","Škola","1. Kladenská soukromá střední odborná škola (1.KŠPA), s.r.o.","https://www.firmy.cz/detail/361480-1-kladenska-soukroma-stredni-odborna-skola-1-kspa-kladno-krocehlavy.html","140"
"8","Sportoviště","Víceúčelový sportovní areál Norská","https://www.firmy.cz/detail/13219361-viceucelovy-sportovni-areal-norska-kladno-krocehlavy.html","403"
"9","Bus MHD","Kladno, Tesco","","83"
"10","Bankomat","Bankomat Komerční banky","https://www.firmy.cz/detail/596122-bankomat-komercni-banky-kladno-krocehlavy.html","120"
"11","Restaurace","Panda","https://www.firmy.cz/detail/13138496-panda-kladno-krocehlavy.html","113"
"12","Lékárna","BENU Lékárna","https://www.firmy.cz/detail/2677938-benu-lekarna-kladno-krocehlavy.html","156"
"13","Vlak","Kladno","","500"
"14","Pošta","Pošta Kladno 6 - Česká pošta, s.p.","https://www.firmy.cz/detail/216841-posta-kladno-6-kladno-krocehlavy.html","614"
"15","Školka","MŠ Čtyřlístek Kladno, Dánská","https://www.firmy.cz/detail/2378525-ms-ctyrlistek-kladno-danska-kladno-krocehlavy.html","450"
"16","Obchod","Tesco","https://www.firmy.cz/detail/649010-tesco-kladno-krocehlavy.html","131"
"17","Lékař","MUDr. Olga Šustová","https://www.firmy.cz/detail/387840-mudr-olga-sustova-kladno-krocehlavy.html","495"
