"","facility_type","facility_name","facility_iri","facility_distance"
"0","Cukrárna","Cloud Café","https://www.firmy.cz/detail/13150385-cloud-cafe-pisek-prazske-predmesti.html","196"
"1","Kino","Kino Portyč","https://www.firmy.cz/detail/13061398-kino-portyc-pisek-prazske-predmesti.html","367"
"2","Hřiště","Dětské hřiště Na Pěníku","","263"
"3","Večerka","Jednota, spotřební družstvo v Milevsku, okres Písek - prodejna COOP TUTY","https://www.firmy.cz/detail/2121329-jednota-spotrebni-druzstvo-v-milevsku-okres-pisek-prodejna-coop-tuty-pisek-prazske-predmesti.html","254"
"4","Hospoda","Pivnice Platan","https://www.firmy.cz/detail/2235236-pivnice-platan-pisek-prazske-predmesti.html","246"
"5","Divadlo","Divadlo Pod čarou","https://www.firmy.cz/detail/397064-divadlo-pod-carou-pisek-budejovicke-predmesti.html","740"
"6","Veterinář","MVDr. Lenka Zajíčková","https://www.firmy.cz/detail/12808562-mvdr-lenka-zajickova-pisek.html","69"
"7","Škola","Střední zemědělská škola, Písek, Čelakovského 200","https://www.firmy.cz/detail/362342-stredni-zemedelska-skola-pisek-celakovskeho-200-pisek-prazske-predmesti.html","328"
"8","Vlak","Písek zast.","","312"
"9","Bus MHD","Písek, Pražská","","24"
"10","Obchod","Galerie Písek","https://www.firmy.cz/detail/13061127-galerie-pisek-pisek-budejovicke-predmesti.html","1150"
"11","Restaurace","VINÁRNA U ZLATÉ HUSY","https://www.firmy.cz/detail/13153667-vinarna-u-zlate-husy-pisek-prazske-predmesti.html","331"
"12","Bankomat","Bankomat Komerční banky","https://www.firmy.cz/detail/1351871-bankomat-komercni-banky-pisek-prazske-predmesti.html","531"
"13","Lékárna","Lékárna U sv. Anny","https://www.firmy.cz/detail/12776518-lekarna-u-sv-anny-pisek-vnitrni-mesto.html","803"
"14","Školka","ZŠ T.G. Masaryka a MŠ Písek, Pražská","https://www.firmy.cz/detail/727264-zs-t-g-masaryka-a-ms-pisek-prazska-pisek-prazske-predmesti.html","242"
"15","Lékař","MUDr. Ivo Dokulil","https://www.firmy.cz/detail/2099168-mudr-ivo-dokulil-pisek-prazske-predmesti.html","182"
"16","Pošta","Pošta Písek 4 - Česká pošta, s.p.","https://www.firmy.cz/detail/216888-posta-pisek-4-pisek-budejovicke-predmesti.html","430"
"17","Sportoviště","Béčka","https://www.firmy.cz/detail/2651300-becka-pisek-prazske-predmesti.html","169"
