"","facility_type","facility_name","facility_iri","facility_distance"
"0","Cukrárna","Cukrárna a Kavárna Na Míráku","https://www.firmy.cz/detail/12846155-cukrarna-a-kavarna-na-miraku-mlada-boleslav.html","381"
"1","Kino","CineStar Mladá Boleslav","https://www.firmy.cz/detail/2109584-cinestar-mlada-boleslav-mlada-boleslav-ii.html","1425"
"2","Přírodní zajímavost","Syslí kolonie","","2596"
"3","Hřiště","Dětské hřiště Komenského náměstí","","394"
"4","Večerka","Potraviny Miloš Matoušek","https://www.firmy.cz/detail/2116234-potraviny-milos-matousek-mlada-boleslav-ii.html","174"
"5","Divadlo","Městské divadlo Mladá Boleslav","https://www.firmy.cz/detail/401491-mestske-divadlo-mlada-boleslav-mlada-boleslav-ii.html","637"
"6","Hospoda","KUFR Hospůdka","https://www.firmy.cz/detail/13185314-kufr-hospudka-mlada-boleslav-i.html","152"
"7","Veterinář","CHOVATEL L +  L  s. r. o.","https://www.firmy.cz/detail/13161784-chovatel-l-l-s-r-o-mlada-boleslav-ii.html","206"
"8","Bankomat","Bankomat ČSOB","https://www.firmy.cz/detail/597871-bankomat-csob-mlada-boleslav-ii.html","205"
"9","Lékárna","Lékárna Centrálka","https://www.firmy.cz/detail/375306-lekarna-centralka-mlada-boleslav-ii.html","299"
"10","Škola","ZŠ T. G. Masaryka a MŠ Mladá Boleslav","https://www.firmy.cz/detail/358260-zs-t-g-masaryka-a-ms-mlada-boleslav-mlada-boleslav-iii.html","197"
"11","Bus MHD","Staroměstské náměstí","","166"
"12","Restaurace","eMBe pivovar","https://www.firmy.cz/detail/13195115-embe-pivovar-mlada-boleslav-iii.html","36"
"13","Lékař","RESO MB - MUDr. Oldřich Šlégl","https://www.firmy.cz/detail/12890023-reso-mb-mudr-oldrich-slegl-mlada-boleslav-ii.html","261"
"14","Pošta","Pošta Mladá Boleslav 1 - Česká pošta, s.p.","https://www.firmy.cz/detail/217182-posta-mlada-boleslav-1-mlada-boleslav-ii.html","331"
"15","Školka","ZŠ T. G. Masaryka a MŠ Mladá Boleslav","https://www.firmy.cz/detail/433886-zs-t-g-masaryka-a-ms-mlada-boleslav-mlada-boleslav-iii.html","197"
"16","Sportoviště","LTC Mladá Boleslav, o.s.","https://www.firmy.cz/detail/1695052-ltc-mlada-boleslav-o-s-mlada-boleslav-iii.html","529"
"17","Vlak","Mladá Boleslav hl.nádr.","","1297"
"18","Obchod","BONDY CENTRUM","https://www.firmy.cz/detail/13215694-bondy-centrum-mlada-boleslav-ii.html","1372"
