"","facility_type","facility_name","facility_iri","facility_distance"
"0","Hřiště","Dětské hřiště","https://mapy.cz/zakladni?x=14.4690096&y=48.9911363&z=17&source=base&id=2261914","158"
"1","Hospoda","Restaurace U Kozla","https://www.firmy.cz/detail/2658055-restaurace-u-kozla-ceske-budejovice-3.html","1024"
"2","Večerka","Pramen","https://www.firmy.cz/detail/13145921-pramen-ceske-budejovice-3.html","202"
"3","Veterinář","BUDvet, s.r.o.","https://www.firmy.cz/detail/13029573-budvet-ceske-budejovice-3.html","293"
"4","Cukrárna","Sweet Donut","https://www.firmy.cz/detail/13261397-sweet-donut-ceske-budejovice-3.html","645"
"5","Kino","CineStar IGY Centrum","https://www.firmy.cz/detail/13096583-cinestar-igy-centrum-ceske-budejovice-3.html","652"
"6","Divadlo","Jihočeské divadlo - Malé divadlo","https://www.firmy.cz/detail/2351551-jihoceske-divadlo-male-divadlo-ceske-budejovice-1.html","1472"
"7","Bus MHD","Strakonická - Obchodní Zóna","https://mapy.cz/zakladni?x=14.472088299456773&y=48.99025737237789&z=17&source=pubt&id=15206709","165"
"8","Restaurace","Restaurace Čéčovka","https://www.firmy.cz/detail/13000180-restaurace-cecovka-ceske-budejovice-3.html","153"
"9","Pošta","Pošta České Budějovice 4 - Česká pošta, s.p.","https://www.firmy.cz/detail/215235-posta-ceske-budejovice-4-ceske-budejovice-3.html","610"
"10","Školka","Mateřská škola, Čéčova 40/1, České Budějovice","https://www.firmy.cz/detail/1696412-materska-skola-cecova-40-1-ceske-budejovice-ceske-budejovice-3.html","316"
"11","Lékař","MUDr. Jiří Vobůrka","https://www.firmy.cz/detail/2099160-mudr-jiri-voburka-ceske-budejovice-3.html","618"
"12","Škola","Střední škola obchodní, České Budějovice, Husova 9","https://www.firmy.cz/detail/13191064-stredni-skola-obchodni-ceske-budejovice-husova-9-ceske-budejovice-3.html","209"
"13","Sportoviště","Spolek Sportovní klub Royal České Budějovice","https://www.firmy.cz/detail/737845-spolek-sportovni-klub-royal-ceske-budejovice-ceske-budejovice-3.html","311"
"14","Obchod","Albert Hypermarket","https://www.firmy.cz/detail/12926967-albert-hypermarket-ceske-budejovice-3.html","437"
"15","Lékárna","Lékárna v Ternu s.r.o.","https://www.firmy.cz/detail/13211025-lekarna-v-ternu-s-r-o-ceske-budejovice-3.html","495"
"16","Bankomat","Bankomat ČSOB","https://www.firmy.cz/detail/12768352-bankomat-csob-ceske-budejovice-3.html","320"
"17","Vlak","České Budějovice severní zastávka","https://mapy.cz/zakladni?x=14.4793767822&y=48.9947847331&z=17&source=pubt&id=15211181","882"
