"","facility_type","facility_name","facility_iri","facility_distance"
"0","Cukrárna","Cukrárna Jemnická","https://www.firmy.cz/detail/1997780-cukrarna-jemnicka-praha-michle.html","175"
"1","Kino","HopeTV","https://www.firmy.cz/detail/672889-hopetv-praha-vinohrady.html","3044"
"2","Přírodní zajímavost","Mokřad Triangl","","4429"
"3","Hřiště","Dětské hřiště Tigridova","","357"
"4","Večerka","Gourmet-partners.cz","https://www.firmy.cz/detail/12820917-gourmet-partners-cz-praha-michle.html","351"
"5","Hospoda","Hostinec U Parku","https://www.firmy.cz/detail/337032-hostinec-u-parku-praha-nusle.html","1257"
"6","Divadlo","Divadlo Na Jezerce","https://www.firmy.cz/detail/496550-divadlo-na-jezerce-praha-nusle.html","1317"
"7","Veterinář","Veterinární klinika Michle - MVDr. David Jíra","https://www.firmy.cz/detail/12771982-veterinarni-klinika-michle-mvdr-david-jira-praha-michle.html","360"
"8","Pošta","Pošta Praha 46 - Česká pošta, s.p.","https://www.firmy.cz/detail/2374016-posta-praha-46-praha-michle.html","453"
"9","Sportoviště","Pétanque Baarův park","","285"
"10","Škola","Vyšší odborná škola herecká - Vyšší odborná škola herecká, s.r.o.","https://www.firmy.cz/detail/361708-vyssi-odborna-skola-herecka-praha-michle.html","188"
"11","Lékárna","BB Centrum","https://www.firmy.cz/detail/658593-bb-centrum-praha-michle.html","384"
"12","Bankomat","Bankomat UniCredit Bank Czech Republic","https://www.firmy.cz/detail/1964714-bankomat-unicredit-bank-czech-republic-praha-michle.html","459"
"13","Vlak","Praha-Kačerov","","1008"
"14","Lékař","TeamPrevent-Santé, s.r.o.","https://www.firmy.cz/detail/658659-teamprevent-sante-s-r-o-praha-michle.html","313"
"15","Restaurace","Restaurace U Ztracenejch","https://www.firmy.cz/detail/12925679-restaurace-u-ztracenejch-praha-michle.html","33"
"16","Školka","MŠ Praha 4, Na Lánech","https://www.firmy.cz/detail/2489321-ms-praha-4-na-lanech-praha-michle.html","488"
"17","Tram","Michelská","","601"
"18","Bus MHD","Jemnická","","133"
"19","Metro","Kačerov","","991"
"20","Obchod","Kaufland","https://www.firmy.cz/detail/221320-kaufland-praha-michle.html","987"
