"","facility_type","facility_name","facility_iri","facility_distance"
"0","Cukrárna","Café KÖNIG - prádelna","https://www.firmy.cz/detail/13191053-cafe-konig-pradelna-plzen-lobzy.html","369"
"1","Kino","Kino Beseda","https://www.firmy.cz/detail/12773769-kino-beseda-plzen-jizni-predmesti.html","2344"
"2","Hřiště","Dětské hřiště Partyzánská II.","","321"
"3","Večerka","Potraviny Dlouhá 2a","https://www.firmy.cz/detail/12844247-potraviny-dlouha-2a-plzen-lobzy.html","272"
"4","Hospoda","Pivnice U Pietasu","https://www.firmy.cz/detail/288596-pivnice-u-pietasu-plzen-lobzy.html","355"
"5","Divadlo","Divadlo Alfa","https://www.firmy.cz/detail/231293-divadlo-alfa-plzen-lobzy.html","262"
"6","Veterinář","MVDr. Gabriela Lejčková - VETKVAM.cz","https://www.firmy.cz/detail/13029603-mvdr-gabriela-lejckova-vetkvam-cz-plzen-lobzy.html","181"
"7","Obchod","Obchodní dům AAA","https://www.firmy.cz/detail/649915-obchodni-dum-aaa-plzen-lobzy.html","333"
"8","Školka","6. MŠ Plzeň","https://www.firmy.cz/detail/360440-6-ms-plzen-plzen-lobzy.html","167"
"9","Lékárna","BENU Lékárna","https://www.firmy.cz/detail/13207337-benu-lekarna-plzen-vychodni-predmesti.html","610"
"10","Pošta","Pošta Plzeň 12 - Česká pošta, s.p.","https://www.firmy.cz/detail/216650-posta-plzen-12-plzen-lobzy.html","543"
"11","Škola","28. ZŠ Plzeň","https://www.firmy.cz/detail/358865-28-zs-plzen-plzen-lobzy.html","182"
"12","Restaurace","Restaurace Tunel","https://www.firmy.cz/detail/12922109-restaurace-tunel-plzen-lobzy.html","175"
"13","Sportoviště","Tělocvičná jednota Sokol Plzeň Letná","https://www.firmy.cz/detail/2118832-telocvicna-jednota-sokol-plzen-letna-plzen-lobzy.html","175"
"14","Bankomat","Bankomat České spořitelny","https://www.firmy.cz/detail/593984-bankomat-ceske-sporitelny-plzen-lobzy.html","476"
"15","Lékař","MUDr. Irena Kaslová","https://www.firmy.cz/detail/388038-mudr-irena-kaslova-plzen-doubravka.html","1052"
"16","Bus MHD","Letná","","197"
"17","Vlak","Plzeň-Doubravka","","1417"
"18","Tram","Bazén Slovany","","1429"
