"","facility_type","facility_name","facility_iri","facility_distance"
"0","Hřiště","Dětské hřiště Strašice","","309"
"1","Večerka","BILLA","https://www.firmy.cz/detail/13296502-billa-strasice.html","634"
"2","Hospoda","Klubová hospoda Spartak Strašice","https://www.firmy.cz/detail/13119841-klubova-hospoda-spartak-strasice-strasice.html","473"
"3","Restaurace","Restaurace Společenský dům","https://www.firmy.cz/detail/13205094-restaurace-spolecensky-dum-strasice.html","283"
"4","Školka","Mateřská škola Strašice","https://www.firmy.cz/detail/12902083-materska-skola-strasice-strasice.html","622"
"5","Škola","ZŠ Karla Vokáče Strašice","https://www.firmy.cz/detail/359483-zs-karla-vokace-strasice-strasice.html","592"
"6","Bus MHD","Strašice, ObÚ","","510"
"7","Pošta","Pošta Strašice - Česká pošta, s.p.","https://www.firmy.cz/detail/1357641-posta-strasice-strasice.html","709"
"8","Lékař","MUDr. Bohumila Krejčíková","https://www.firmy.cz/detail/389759-mudr-bohumila-krejcikova-strasice.html","671"
"9","Bankomat","Bankomat České spořitelny","https://www.firmy.cz/detail/12837052-bankomat-ceske-sporitelny-strasice.html","501"
"10","Sportoviště","TJ Spartak Strašice, z.s.","https://www.firmy.cz/detail/13083510-tj-spartak-strasice-z-s-strasice.html","466"
