"","facility_type","facility_name","facility_iri","facility_distance"
"0","Cukrárna","Kafé Letná","https://www.firmy.cz/detail/13259753-kafe-letna-liberec-xii-stare-pavlovice.html","406"
"1","Kino","LETNÍ KINO Stráž nad Nisou","https://www.firmy.cz/detail/13320769-letni-kino-straz-nad-nisou-straz-nad-nisou.html","1475"
"2","Přírodní zajímavost","Opičák","","1233"
"3","Hřiště","Dětské hřiště Jabloňová","","523"
"4","Večerka","Penny Market","https://www.firmy.cz/detail/207748-penny-market-liberec-xii-stare-pavlovice.html","294"
"5","Hospoda","Club bar Opera","https://www.firmy.cz/detail/13114497-club-bar-opera-liberec-ii-nove-mesto.html","1448"
"6","Divadlo","Malé divadlo","https://www.firmy.cz/detail/397046-male-divadlo-liberec-i-stare-mesto.html","1279"
"7","Veterinář","Martin Kareš ATOMSCOPE CR","https://www.firmy.cz/detail/631519-martin-kares-atomscope-cr-liberec-xi-ruzodol-i.html","795"
"8","Lékař","PraktiDok s.r.o.","https://www.firmy.cz/detail/13261472-praktidok-s-r-o-liberec-xi-ruzodol-i.html","650"
"9","Bankomat","Bankomat České spořitelny","https://www.firmy.cz/detail/12736967-bankomat-ceske-sporitelny-liberec-xii-stare-pavlovice.html","265"
"10","Restaurace","Restaurace Valdštejn","https://www.firmy.cz/detail/12933583-restaurace-valdstejn-liberec-xi-ruzodol-i.html","417"
"11","Pošta","Pošta Liberec 11 - Česká pošta, s.p.","https://www.firmy.cz/detail/2378983-posta-liberec-11-liberec-xi-ruzodol-i.html","710"
"12","Sportoviště","VTJ RAPID LIBEREC","https://www.firmy.cz/detail/13198443-vtj-rapid-liberec-liberec-xii-stare-pavlovice-liberec-12.html","469"
"13","Lékárna","Dr. Max","https://www.firmy.cz/detail/2007275-dr-max-liberec-xii-stare-pavlovice.html","329"
"14","Obchod","Kaufland","https://www.firmy.cz/detail/1446598-kaufland-liberec-xii-stare-pavlovice.html","345"
"15","Školka","Mateřská škola Světýlko","https://www.firmy.cz/detail/2449176-materska-skola-svetylko-liberec-xi-ruzodol-i.html","596"
"16","Škola","ZŠ a ZUŠ Liberec, Jabloňová","https://www.firmy.cz/detail/357991-zs-a-zus-liberec-jablonova-liberec-xii-stare-pavlovice.html","434"
"17","Bus MHD","Stračí","","166"
"18","Tram","Viadukt","","1681"
"19","Vlak","Stráž nad Nisou","","1263"
