"","facility_type","facility_name","facility_iri","facility_distance"
"0","Cukrárna","Cukrárna Ovo Bar Kamilka","https://www.firmy.cz/detail/13058476-cukrarna-ovo-bar-kamilka-karlovy-vary.html","496"
"1","Kino","Kino Drahomíra z.s.","https://www.firmy.cz/detail/13126576-kino-drahomira-z-s-karlovy-vary-drahovice.html","475"
"2","Přírodní zajímavost","Karlův hvozd","","2085"
"3","Hřiště","Dětské hřiště","","622"
"4","Večerka","Lidl","https://www.firmy.cz/detail/2374133-lidl-karlovy-vary.html","147"
"5","Hospoda","Pivnice Tequila Bar","https://www.firmy.cz/detail/13148877-pivnice-tequila-bar-karlovy-vary.html","65"
"6","Divadlo","Divadlo Dagmar","https://www.firmy.cz/detail/396851-divadlo-dagmar-karlovy-vary-drahovice.html","1223"
"7","Veterinář","MVDr. Eva Tichá","https://www.firmy.cz/detail/2656349-mvdr-eva-ticha-karlovy-vary-rybare.html","650"
"8","Sportoviště","Sportovní unie Karlovarska z.s.","https://www.firmy.cz/detail/404208-sportovni-unie-karlovarska-z-s-karlovy-vary.html","554"
"9","Restaurace","Restaurace La Hospoda","https://www.firmy.cz/detail/13207200-restaurace-la-hospoda-karlovy-vary.html","113"
"10","Pošta","Pošta Depo Karlovy Vary 70","https://www.firmy.cz/detail/216592-posta-depo-karlovy-vary-70-karlovy-vary-rybare.html","498"
"11","Školka","ZŠ a MŠ při zdravotnických zařízeních Karlovy Vary","https://www.firmy.cz/detail/12736566-zs-a-ms-pri-zdravotnickych-zarizenich-karlovy-vary-karlovy-vary.html","188"
"12","Lékárna","Ústavní lékárna","https://www.firmy.cz/detail/420995-ustavni-lekarna-karlovy-vary.html","299"
"13","Bus MHD","Vítězná","","79"
"14","Obchod","Obchodní centrum Perla","https://www.firmy.cz/detail/13219298-obchodni-centrum-perla-karlovy-vary.html","508"
"15","Lékař","MEDICANT, s.r.o.","https://www.firmy.cz/detail/12840273-medicant-karlovy-vary.html","384"
"16","Škola","ZŠ a MŠ při zdravotnických zařízeních Karlovy Vary","https://www.firmy.cz/detail/12736564-zs-a-ms-pri-zdravotnickych-zarizenich-karlovy-vary-karlovy-vary.html","299"
"17","Vlak","Karlovy Vary","","425"
"18","Bankomat","Bankomat České spořitelny","https://www.firmy.cz/detail/592966-bankomat-ceske-sporitelny-karlovy-vary.html","321"
