"","facility_type","facility_name","facility_iri","facility_distance"
"0","Hřiště","Dětské hřiště Podměstí","https://mapy.cz/zakladni?x=13.5363778&y=50.3304778&z=17&source=base&id=2120397","179"
"1","Hospoda","Pivnice Lucerna","https://www.firmy.cz/detail/2467771-pivnice-lucerna-zatec.html","343"
"2","Divadlo","Městské divadlo Žatec","https://www.firmy.cz/detail/325218-mestske-divadlo-zatec-zatec.html","573"
"3","Kino","Kino Žatec","https://www.firmy.cz/detail/12846605-kino-zatec-zatec.html","573"
"4","Večerka","Potraviny Svatováclavská","https://www.firmy.cz/detail/13340654-potraviny-svatovaclavska-zatec.html","141"
"5","Veterinář","MVDr. Břetislav Frýba","https://www.firmy.cz/detail/203866-mvdr-bretislav-fryba-zatec.html","904"
"6","Cukrárna","Cukrárna Amélie","https://www.firmy.cz/detail/13113416-cukrarna-amelie-zatec.html","523"
"7","Restaurace","Restaurace Moskva","https://www.firmy.cz/detail/430838-restaurace-moskva-zatec.html","59"
"8","Bus MHD","Žatec, Havlíčkovo nám.","https://mapy.cz/zakladni?x=13.53909845232539&y=50.3307222679969&z=17&source=pubt&id=15240198","80"
"9","Sportoviště","TJ Sever Žatec","https://www.firmy.cz/detail/176458-tj-sever-zatec-zatec.html","346"
"10","Obchod","Kaufland","https://www.firmy.cz/detail/1457849-kaufland-zatec.html","1097"
"11","Vlak","Žatec západ","https://mapy.cz/zakladni?x=13.5350010342&y=50.338078055&z=17&source=pubt&id=15213417","790"
"12","Bankomat","Bankomat ČSOB","https://www.firmy.cz/detail/597427-bankomat-csob-zatec.html","613"
"13","Pošta","Pošta Žatec 3 - Česká pošta, s.p.","https://www.firmy.cz/detail/215301-posta-zatec-3-zatec.html","220"
"14","Škola","Střední průmyslová škola elektrotechnická a zařízení pro další vzdělávání pedagogických pracovníků, spol. s r.o.","https://www.firmy.cz/detail/361484-stredni-prumyslova-skola-elektrotechnicka-a-zarizeni-pro-dalsi-vzdelavani-pedagogickych-pracovniku-zatec.html","124"
"15","Lékárna","Lékárna Na náměstí","https://www.firmy.cz/detail/12822918-lekarna-na-namesti-zatec.html","582"
"16","Školka","ZŠ a MŠ, Žatec, Dvořákova","https://www.firmy.cz/detail/12823108-zs-a-ms-zatec-dvorakova-zatec.html","231"
"17","Lékař","TH AMBULANCE, s.r.o.","https://www.firmy.cz/detail/12768933-th-ambulance-zatec.html","582"
