"","facility_type","facility_name","facility_iri","facility_distance"
"0","Cukrárna","Julius Meinl","https://www.firmy.cz/detail/13209053-julius-meinl-brno-bohunice.html","1556"
"1","Kino","Brno Autokino","https://www.firmy.cz/detail/13328637-brno-autokino-brno-pisarky.html","3012"
"2","Přírodní zajímavost","Koniklecová louka","","2597"
"3","Hřiště","Dětské hřiště Souhrady","","293"
"4","Večerka","BILLA","https://www.firmy.cz/detail/13161180-billa-brno-bohunice.html","585"
"5","Hospoda","Bohunická Rychta","https://www.firmy.cz/detail/13302567-bohunicka-rychta-brno-bohunice.html","747"
"6","Divadlo","Malá Amerika","https://www.firmy.cz/detail/12926234-mala-amerika-brno-stare-brno.html","3919"
"7","Veterinář","1.veterina Lískovec, s.r.o.","https://www.firmy.cz/detail/2667729-1-veterina-liskovec-brno-stary-liskovec.html","914"
"8","Lékárna","BENU Lékárna","https://www.firmy.cz/detail/13163105-benu-lekarna-brno-stary-liskovec.html","653"
"9","Bus MHD","Svah","","255"
"10","Škola","ZŠ a MŠ Brno, Elišky Přemyslovny","https://www.firmy.cz/detail/356487-zs-a-ms-brno-elisky-premyslovny-brno-stary-liskovec.html","206"
"11","Restaurace","Pizzeria Ristorante La Patas","https://www.firmy.cz/detail/13101878-pizzeria-ristorante-la-patas-brno-stary-liskovec.html","186"
"12","Pošta","Pošta Brno 25 - Česká pošta, s.p.","https://www.firmy.cz/detail/216043-posta-brno-25-brno-stary-liskovec.html","677"
"13","Obchod","OC Kavkaz","https://www.firmy.cz/detail/13171080-oc-kavkaz-brno-bohunice.html","580"
"14","Školka","Daycare Centre, z.s.","https://www.firmy.cz/detail/13212475-daycare-centre-z-s-brno-stary-liskovec.html","130"
"15","Vlak","Brno-Starý Lískovec","","142"
"16","Lékař","Praktik Křídlovická s.r.o.","https://www.firmy.cz/detail/13208121-praktik-kridlovicka-s-r-o-brno-bohunice.html","538"
"17","Bankomat","Bankomat MONETA Money Bank","https://www.firmy.cz/detail/13159015-bankomat-moneta-money-bank-brno-bohunice.html","579"
"18","Tram","Osová","","649"
"19","Sportoviště","Tělocvičná jednota Sokol Brno - Starý Lískovec","https://www.firmy.cz/detail/2139536-telocvicna-jednota-sokol-brno-stary-liskovec-brno-stary-liskovec.html","527"
