"","facility_type","facility_name","facility_iri","facility_distance"
"0","Cukrárna","Cukrárna Maria","https://www.firmy.cz/detail/847502-cukrarna-maria-ostrava-moravska-ostrava.html","222"
"1","Kino","Minikino","https://www.firmy.cz/detail/669940-minikino-ostrava-moravska-ostrava.html","317"
"2","Přírodní zajímavost","Uhelná sloj v Landeku","","3590"
"3","Hřiště","Dětské hřiště Husův sad","","201"
"4","Večerka","BILLA","https://www.firmy.cz/detail/437757-billa-ostrava-moravska-ostrava.html","196"
"5","Hospoda","MIRROR PUB & BILBOVA NORA","https://www.firmy.cz/detail/12939950-mirror-pub-bilbova-nora-ostrava-moravska-ostrava.html","192"
"6","Divadlo","Komorní scéna Aréna","https://www.firmy.cz/detail/396926-komorni-scena-arena-ostrava-moravska-ostrava.html","267"
"7","Veterinář","VETPARK Ostrava, s.r.o.","https://www.firmy.cz/detail/13308555-vetpark-ostrava-ostrava-moravska-ostrava.html","1197"
"8","Sportoviště","Tělocvičná jednota Sokol Moravská Ostrava 1","https://www.firmy.cz/detail/12782738-telocvicna-jednota-sokol-moravska-ostrava-1-ostrava-moravska-ostrava.html","370"
"9","Restaurace","Nepálská a indická restaurace Makalu","https://www.firmy.cz/detail/13070772-nepalska-a-indicka-restaurace-makalu-ostrava-moravska-ostrava.html","53"
"10","Pošta","Pošta Ostrava 1 - Česká pošta, s.p.","https://www.firmy.cz/detail/452777-posta-ostrava-1-ostrava-moravska-ostrava.html","199"
"11","Školka","MŠ Ostrava, Dvořákova","https://www.firmy.cz/detail/2333638-ms-ostrava-dvorakova-ostrava-moravska-ostrava.html","256"
"12","Obchod","Obchodní centrum LASO","https://www.firmy.cz/detail/2071391-obchodni-centrum-laso-ostrava-moravska-ostrava.html","221"
"13","Vlak","Ostrava-Stodolní","","896"
"14","Tram","Stodolní","","463"
"15","Lékárna","BENU Lékárna","https://www.firmy.cz/detail/2234016-benu-lekarna-ostrava-moravska-ostrava.html","191"
"16","Lékař","MUDr. Petr Kuběna","https://www.firmy.cz/detail/13005403-mudr-petr-kubena-ostrava-moravska-ostrava.html","231"
"17","Bus MHD","Most Pionýrů","","214"
"18","Škola","Matiční gymnázium Ostrava","https://www.firmy.cz/detail/361098-maticni-gymnazium-ostrava-ostrava-moravska-ostrava.html","90"
"19","Bankomat","Bankomat ČSOB","https://www.firmy.cz/detail/2409942-bankomat-csob-ostrava-moravska-ostrava.html","221"
