"","facility_type","facility_name","facility_iri","facility_distance"
"0","Cukrárna","Kavárna Creperie","https://www.firmy.cz/detail/2037440-kavarna-creperie-praha-vysocany.html","1175"
"1","Kino","Cinema City Letňany","https://www.firmy.cz/detail/2679833-cinema-city-letnany-praha-letnany.html","3381"
"2","Přírodní zajímavost","Meandry Rokytky","","1068"
"3","Hřiště","Dětské hřiště Svatošových","","63"
"4","Večerka","Best Price Mall","https://www.firmy.cz/detail/13325553-best-price-mall-praha-vysocany.html","333"
"5","Divadlo","Divadlo Gong","https://www.firmy.cz/detail/230751-divadlo-gong-praha-liben.html","2072"
"6","Hospoda","Hospoda U Zdi","https://www.firmy.cz/detail/13217099-hospoda-u-zdi-praha-liben.html","2016"
"7","Veterinář","Veterinární klinika Poděbradská","https://www.firmy.cz/detail/166978-veterinarni-klinika-podebradska-praha-hloubetin.html","757"
"8","Lékař","Poliklinika Kolbenova","https://www.firmy.cz/detail/12837303-poliklinika-kolbenova-praha-vysocany.html","415"
"9","Školka","Dětská skupina MONTE KIDS Vysočany","https://www.firmy.cz/detail/13329782-detska-skupina-monte-kids-vysocany-praha-vysocany.html","914"
"10","Lékárna","Lékárna Poděbradská","https://www.firmy.cz/detail/13317284-lekarna-podebradska-praha-vysocany.html","589"
"11","Sportoviště","Discgolf Rokytka","","260"
"12","Obchod","Nákupní Centrum Fénix Vysočanská","https://www.firmy.cz/detail/613133-nakupni-centrum-fenix-vysocanska-praha-vysocany.html","1167"
"13","Pošta","Pošta Praha 93 - Česká pošta, s.p.","https://www.firmy.cz/detail/217419-posta-praha-93-praha-vysocany.html","1197"
"14","Škola","Střední odborná škola uměleckořemeslná, s.r.o.","https://www.firmy.cz/detail/272164-stredni-odborna-skola-umeleckoremeslna-praha-vysocany.html","581"
"15","Tram","Kolbenova","","310"
"16","Bankomat","Bankomat České spořitelny","https://www.firmy.cz/detail/595007-bankomat-ceske-sporitelny-praha-vysocany.html","321"
"17","Vlak","Praha-Libeň","","1389"
"18","Metro","Kolbenova","","314"
"19","Bus MHD","Pod Krocínkou","","779"
"20","Restaurace","Stazione Felicita","https://www.firmy.cz/detail/13310141-stazione-felicita-praha-vysocany.html","299"
