"","facility_type","facility_name","facility_iri","facility_distance"
"0","Cukrárna","Anniny dorty","https://www.firmy.cz/detail/13307017-anniny-dorty-plzen-jizni-predmesti.html","540"
"1","Kino","Kino Beseda","https://www.firmy.cz/detail/12773769-kino-beseda-plzen-jizni-predmesti.html","2174"
"2","Hřiště","Dětské hřiště U Borských kasáren","","82"
"3","Večerka","Žabka","https://www.firmy.cz/detail/12976651-zabka-plzen-jizni-predmesti.html","383"
"4","Divadlo","Divadlo pod lampou, o.p.s.","https://www.firmy.cz/detail/2418226-divadlo-pod-lampou-plzen-jizni-predmesti.html","1366"
"5","Hospoda","Pivnice Slavia","https://www.firmy.cz/detail/12766272-pivnice-slavia-plzen-jizni-predmesti.html","752"
"6","Veterinář","RPVET - VETERINÁRNÍ KLINIKA A POHOTOVOST MVDr. RADEK PROTIVA a kol.","https://www.firmy.cz/detail/13318056-rpvet-veterinarni-klinika-a-pohotovost-mvdr-radek-protiva-a-kol-plzen-jizni-predmesti.html","532"
"7","Bus MHD","Bory","","133"
"8","Restaurace","WOK & SUSHI","https://www.firmy.cz/detail/749212-wok-sushi-plzen-jizni-predmesti.html","118"
"9","Sportoviště","Tělovýchovná jednota Slavia VŠ Plzeň","https://www.firmy.cz/detail/13080612-telovychovna-jednota-slavia-vs-plzen-plzen-jizni-predmesti.html","674"
"10","Bankomat","Bankomat MONETA Money Bank","https://www.firmy.cz/detail/2697174-bankomat-moneta-money-bank-plzen-jizni-predmesti.html","77"
"11","Lékař","MUDr. Danuše Vovsíková","https://www.firmy.cz/detail/390304-mudr-danuse-vovsikova-plzen-jizni-predmesti.html","416"
"12","Pošta","Pošta Plzeň 20 - Česká pošta, s.p.","https://www.firmy.cz/detail/216643-posta-plzen-20-plzen-jizni-predmesti.html","435"
"13","Tram","Bory","","140"
"14","Vlak","Plzeň zastávka","","1400"
"15","Školka","Školka Dráčkova Sluj","https://www.firmy.cz/detail/13321700-skolka-drackova-sluj-plzen-jizni-predmesti.html","257"
"16","Škola","Střední škola informatiky a finančních služeb Plzeň","https://www.firmy.cz/detail/360887-stredni-skola-informatiky-a-financnich-sluzeb-plzen-plzen-jizni-predmesti.html","254"
"17","Obchod","Kaufland","https://www.firmy.cz/detail/2616232-kaufland-plzen-jizni-predmesti.html","83"
"18","Lékárna","Dr. Max LÉKÁRNA","https://www.firmy.cz/detail/2570158-dr-max-lekarna-plzen-jizni-predmesti.html","83"
