"","facility_type","facility_name","facility_iri","facility_distance"
"0","Cukrárna","Cukrářství Duo","https://www.firmy.cz/detail/1963308-cukrarstvi-duo-usti-nad-labem-krasne-brezno.html","666"
"1","Kino","Letní kino Ústí nad Labem","https://www.firmy.cz/detail/2556284-letni-kino-usti-nad-labem-usti-nad-labem.html","2748"
"2","Hřiště","Dětské hřiště Krásné Březno","","131"
"3","Večerka","Potraviny LG","https://www.firmy.cz/detail/13060507-potraviny-lg-usti-nad-labem-krasne-brezno.html","238"
"4","Hospoda","Hospoda Žíža","https://www.firmy.cz/detail/13111191-hospoda-ziza-usti-nad-labem-krasne-brezno.html","142"
"5","Divadlo","Činoherní studio města Ústí nad Labem","https://www.firmy.cz/detail/13085276-cinoherni-studio-mesta-usti-nad-labem-usti-nad-labem-strekov.html","2411"
"6","Veterinář","MVDr. Lubomír Vojtek","https://www.firmy.cz/detail/274104-mvdr-lubomir-vojtek-usti-nad-labem-krasne-brezno.html","1088"
"7","Škola","ZŠ Ústí nad Labem, Anežky České","https://www.firmy.cz/detail/359857-zs-usti-nad-labem-anezky-ceske-usti-nad-labem-krasne-brezno.html","220"
"8","Vlak","Ústí nad Labem sever","","819"
"9","Bus MHD","Prior","","183"
"10","Školka","Mateřská škola Pomněnka, Ústí nad Labem, Přemyslovců 652/14, příspěvková organizace","https://www.firmy.cz/detail/1599974-materska-skola-pomnenka-usti-nad-labem-premyslovcu-652-14-prispevkova-organizace-usti-nad-labem-krasne-brezno.html","425"
"11","Restaurace","Restaurace U Pivovarské zahrady","https://www.firmy.cz/detail/13121963-restaurace-u-pivovarske-zahrady-usti-nad-labem-krasne-brezno.html","238"
"12","Lékárna","Lékárna REMEDIUM","https://www.firmy.cz/detail/227558-lekarna-remedium-usti-nad-labem-krasne-brezno.html","324"
"13","Bankomat","Bankomat České spořitelny","https://www.firmy.cz/detail/2291342-bankomat-ceske-sporitelny-usti-nad-labem-krasne-brezno.html","325"
"14","Pošta","Pošta Ústí nad Labem 7 - Česká pošta, s.p.","https://www.firmy.cz/detail/215960-posta-usti-nad-labem-7-usti-nad-labem-krasne-brezno.html","285"
"15","Lékař","MUDr. Martina Hrtánková","https://www.firmy.cz/detail/387082-mudr-martina-hrtankova-usti-nad-labem-krasne-brezno.html","324"
"16","Obchod","Obchodní centrum Sever","https://www.firmy.cz/detail/13265743-obchodni-centrum-sever-usti-nad-labem-centrum.html","2635"
"17","Sportoviště","TJ Chemička Ústí nad Labem - oddíl házená","https://www.firmy.cz/detail/211276-tj-chemicka-usti-nad-labem-oddil-hazena-usti-nad-labem-krasne-brezno.html","436"
