"","facility_type","facility_name","facility_iri","facility_distance"
"0","Hřiště","Dětské hřiště Na Výtoni","https://mapy.cz/zakladni?x=14.4160259115&y=50.0679171136&z=17&source=base&id=1927240","74"
"1","Cukrárna","Locál café & bar","https://www.firmy.cz/detail/475963-local-cafe-bar-praha-nove-mesto.html","620"
"2","Hospoda","Hostinec U Suchý Dásně","https://www.firmy.cz/detail/679683-hostinec-u-suchy-dasne-praha-nove-mesto.html","296"
"3","Večerka","Lidl","https://www.firmy.cz/detail/2374462-lidl-praha-nove-mesto.html","591"
"4","Veterinář","Veterinární klinika Na Hrádku - MVDr. Ľubica Nečasová","https://www.firmy.cz/detail/633528-veterinarni-klinika-na-hradku-mvdr-lubica-necasova-praha-nove-mesto.html","499"
"5","Divadlo","Minor","https://www.firmy.cz/detail/230743-minor-praha-nove-mesto.html","1230"
"6","Kino","CineStar Anděl","https://www.firmy.cz/detail/2537565-cinestar-andel-praha-smichov.html","1033"
"7","Přírodní zajímavost","Kovářovic mez","https://mapy.cz/zakladni?x=14.36107759920759&y=50.04395254566995&z=17&source=base&id=2339664","4716"
"8","Lékař","MUDr. Kateřina Mašková","https://www.firmy.cz/detail/389115-mudr-katerina-maskova-praha-nove-mesto.html","245"
"9","Tram","Výtoň","https://mapy.cz/zakladni?x=14.4149739894&y=50.0680678632&z=17&source=pubt&id=15301839","29"
"10","Škola","Vyšší odborná škola ekonomických studií a Střední průmyslová škola potravinářských technologií, Praha 2","https://www.firmy.cz/detail/2015548-vyssi-odborna-skola-ekonomickych-studii-a-stredni-prumyslova-skola-potravinarskych-technologii-praha-2-praha-nove-mesto.html","158"
"11","Bus MHD","Praha, Na Knížecí","https://mapy.cz/zakladni?x=14.4054230796&y=50.0685811508&z=17&source=pubt&id=17311842","697"
"12","Metro","Karlovo náměstí","https://mapy.cz/zakladni?x=14.4151461049&y=50.0727298844&z=17&source=pubt&id=15200236","493"
"13","Školka","MŠ Praha 2, Na Děkance","https://www.firmy.cz/detail/176415-ms-praha-2-na-dekance-praha-vysehrad.html","267"
"14","Restaurace","Restaurace U Libuše","https://www.firmy.cz/detail/324211-restaurace-u-libuse-praha-nove-mesto.html","115"
"15","Sportoviště","Tělocvičná jednota Sokol Vyšehrad","https://www.firmy.cz/detail/159398-telocvicna-jednota-sokol-vysehrad-praha-vysehrad.html","236"
"16","Lékárna","Nemocniční lékárna VFN v Praze","https://www.firmy.cz/detail/422805-nemocnicni-lekarna-vfn-v-praze-praha-nove-mesto.html","720"
"17","Vlak","Praha-Smíchov severní nást.","https://mapy.cz/zakladni?x=14.4065580233&y=50.0636913993&z=17&source=pubt&id=15694558","800"
"18","Obchod","Tesco","https://www.firmy.cz/detail/733908-tesco-praha-smichov.html","1053"
"19","Pošta","Pošta Praha 5 - Česká pošta, s.p.","https://www.firmy.cz/detail/217457-posta-praha-5-praha-smichov.html","1031"
"20","Bankomat","Bankomat České spořitelny","https://www.firmy.cz/detail/2463972-bankomat-ceske-sporitelny-praha-nove-mesto.html","559"
