"","facility_type","facility_name","facility_iri","facility_distance"
"0","Hřiště","Dětské hřiště Rumburských hrdinů","https://mapy.cz/zakladni?x=14.5628375075&y=50.7615806181&z=17&source=base&id=1928290","68"
"1","Večerka","Potraviny Rumburských hrdinů 820","https://www.firmy.cz/detail/13055045-potraviny-rumburskych-hrdinu-820-novy-bor-arnultovice.html","118"
"2","Hospoda","Krušovická hospůdka","https://www.firmy.cz/detail/13022258-krusovicka-hospudka-novy-bor.html","702"
"3","Cukrárna","Cafe Cukrárna","https://www.firmy.cz/detail/2466910-cafe-cukrarna-novy-bor.html","419"
"4","Přírodní zajímavost","Skalní průrva","https://mapy.cz/zakladni?x=14.5927922&y=50.7463047&z=17&source=base&id=2060840","2664"
"5","Veterinář","MVDr. Tomáš Mohyla","https://www.firmy.cz/detail/471337-mvdr-tomas-mohyla-novy-bor.html","632"
"6","Kino","Městské kino Nový Bor","https://www.firmy.cz/detail/451871-mestske-kino-novy-bor-novy-bor.html","734"
"7","Divadlo","Městské divadlo Nový Bor","https://www.firmy.cz/detail/397078-mestske-divadlo-novy-bor-novy-bor-arnultovice.html","957"
"8","Lékař","MUDr. Jana Kahounová","https://www.firmy.cz/detail/386423-mudr-jana-kahounova-novy-bor.html","404"
"9","Bankomat","Bankomat MONETA Money Bank","https://www.firmy.cz/detail/603128-bankomat-moneta-money-bank-novy-bor.html","467"
"10","Školka","MŠ Kopretina Nový Bor, Kalinova","https://www.firmy.cz/detail/2642583-ms-kopretina-novy-bor-kalinova-novy-bor.html","301"
"11","Restaurace","La Plaza Restaurant","https://www.firmy.cz/detail/12750994-la-plaza-restaurant-novy-bor.html","370"
"12","Bus MHD","Nový Bor, Lesní hřbitov","https://mapy.cz/zakladni?x=14.5633422159313&y=50.7605199947693&z=17&source=pubt&id=15332093","61"
"13","Pošta","Pošta Nový Bor - Česká pošta, s.p.","https://www.firmy.cz/detail/431831-posta-novy-bor-novy-bor.html","542"
"14","Sportoviště","Pétanque Nový Bor","https://mapy.cz/zakladni?x=14.5612166667&y=50.7587727778&z=17&source=base&id=2083491","269"
"15","Škola","ZŠ praktická Nový Bor, náměstí Míru","https://www.firmy.cz/detail/358480-zs-prakticka-novy-bor-namesti-miru-novy-bor.html","385"
"16","Lékárna","Pilulka Lékárna Nový Bor","https://www.firmy.cz/detail/13273670-pilulka-lekarna-novy-bor-novy-bor.html","478"
"17","Obchod","Kaufland","https://www.firmy.cz/detail/12787193-kaufland-novy-bor-arnultovice.html","1399"
"18","Vlak","Nový Bor","https://mapy.cz/zakladni?x=14.5473514739&y=50.7607013898&z=17&source=pubt&id=15212297","1089"
