"","facility_type","facility_name","facility_iri","facility_distance"
"0","Cukrárna","Designové a luxusní dorty a cukrárna GULJARDO","https://www.firmy.cz/detail/13271004-designove-a-luxusni-dorty-a-cukrarna-guljardo-praha-kunratice.html","60"
"1","Kino","Cinema City Chodov","https://www.firmy.cz/detail/13098016-cinema-city-chodov-praha-chodov.html","2101"
"2","Přírodní zajímavost","Mokřad Triangl","","5919"
"3","Hřiště","Dětské hřiště Velké Kunratické","","128"
"4","Večerka","Vic Family Market","https://www.firmy.cz/detail/13311314-vic-family-market-praha-krc.html","319"
"5","Hospoda","Hostinec Ve Mlýně","https://www.firmy.cz/detail/13079723-hostinec-ve-mlyne-praha-krc.html","795"
"6","Divadlo","Loutkové divadlo Zvoneček","https://www.firmy.cz/detail/397112-loutkove-divadlo-zvonecek-praha-lhotka.html","2294"
"7","Veterinář","Vetix - veterinární ordinace Krč","https://www.firmy.cz/detail/13332976-vetix-veterinarni-ordinace-krc-praha-krc.html","765"
"8","Školka","MATEŘSKÁ ŠKOLA ZEMĚKOULE","https://www.firmy.cz/detail/2148675-materska-skola-zemekoule-praha-kunratice.html","756"
"9","Lékař","MUDr. Jitka Steppanová","https://www.firmy.cz/detail/390592-mudr-jitka-steppanova-praha-krc.html","449"
"10","Lékárna","Institut Klinické a Experimentální medicíny - Ústavní lékárna","https://www.firmy.cz/detail/422719-institut-klinicke-a-experimentalni-mediciny-ustavni-lekarna-praha-krc.html","215"
"11","Pošta","Pošta Praha 411 - Česká pošta, s.p.","https://www.firmy.cz/detail/217478-posta-praha-411-praha-lhotka.html","938"
"12","Restaurace","Restaurace Na Tý louce zelený","https://www.firmy.cz/detail/12721753-restaurace-na-ty-louce-zeleny-praha-kunratice.html","320"
"13","Bankomat","Bankomat ČSOB","https://www.firmy.cz/detail/599593-bankomat-csob-praha-krc.html","215"
"14","Bus MHD","IKEM","","113"
"15","Obchod","OC Kunratice","https://www.firmy.cz/detail/13045926-oc-kunratice-praha-kunratice.html","1368"
"16","Vlak","Praha-Krč","","1969"
"17","Škola","ZŠ U Krčského lesa, Praha 4","https://www.firmy.cz/detail/356168-zs-u-krcskeho-lesa-praha-4-praha-krc.html","416"
"18","Metro","Roztyly","","2007"
"19","Tram","Levského","","2719"
"20","Sportoviště","TJ Mládí Krč","https://www.firmy.cz/detail/2648767-tj-mladi-krc-praha-krc.html","857"
