"","facility_type","facility_name","facility_iri","facility_distance"
"0","Cukrárna","Cukrářství DUO","https://www.firmy.cz/detail/12771026-cukrarstvi-duo-usti-nad-labem-vseborice.html","1277"
"1","Kino","Kino Chlumec","https://www.firmy.cz/detail/12895394-kino-chlumec-chlumec.html","3460"
"2","Přírodní zajímavost","Stradovský mokřad","","3984"
"3","Hřiště","Dětské hřiště Zahradní","","848"
"4","Večerka","TAMDA FOODS, s.r.o.","https://www.firmy.cz/detail/13199486-tamda-foods-usti-nad-labem-vseborice.html","134"
"5","Hospoda","Pivnice Na Růžku","https://www.firmy.cz/detail/13136353-pivnice-na-ruzku-usti-nad-labem-vseborice.html","803"
"6","Divadlo","Severočeské divadlo, s.r.o.","https://www.firmy.cz/detail/12720983-severoceske-divadlo-usti-nad-labem-centrum.html","4942"
"7","Veterinář","VETERINÁRNÍ ORDINACE TUMA MVDr. & KRÁL MVDr.","https://www.firmy.cz/detail/2136940-veterinarni-ordinace-tuma-mvdr-kral-mvdr-usti-nad-labem-bukov.html","2138"
"8","Školka","Mateřská škola Kytička","https://www.firmy.cz/detail/195408-materska-skola-kyticka-usti-nad-labem-vseborice.html","1123"
"9","Vlak","Ústí nad Labem západ","","4862"
"10","Lékař","MEDIVEL, s.r.o.","https://www.firmy.cz/detail/12889584-medivel-usti-nad-labem-bukov.html","1769"
"11","Škola","ZŠ Ústí nad Labem, Pod vodojemem","https://www.firmy.cz/detail/359869-zs-usti-nad-labem-pod-vodojemem-usti-nad-labem-vseborice.html","1231"
"12","Lékárna","Dr. Max LÉKÁRNA","https://www.firmy.cz/detail/12884305-dr-max-lekarna-usti-nad-labem-vseborice.html","1069"
"13","Restaurace","Chuť HÀNỘI","https://www.firmy.cz/detail/13263164-chut-hanoi-usti-nad-labem-vseborice.html","134"
"14","Bus MHD","Všebořice, obch. centrum","","135"
"15","Pošta","Pošta Ústí nad Labem 10 - Česká pošta, s.p.","https://www.firmy.cz/detail/215932-posta-usti-nad-labem-10-usti-nad-labem-vseborice.html","1069"
"16","Sportoviště","Golf Resort Ústí nad Labem","https://www.firmy.cz/detail/13005112-golf-resort-usti-nad-labem-usti-nad-labem-vseborice.html","1187"
"17","Obchod","Obchodní Centrum Tamda","https://www.firmy.cz/detail/13265748-obchodni-centrum-tamda-usti-nad-labem-vseborice.html","134"
"18","Bankomat","Bankomat ČSOB","https://www.firmy.cz/detail/13252099-bankomat-csob-usti-nad-labem-vseborice.html","134"
