"","facility_type","facility_name","facility_iri","facility_distance"
"0","Cukrárna","Čokoládovna ČO-XO","https://www.firmy.cz/detail/12709444-cokoladovna-co-xo-praha-holesovice.html","1306"
"1","Kino","Bio Oko","https://www.firmy.cz/detail/2586117-bio-oko-praha-holesovice.html","1673"
"2","Hřiště","Dětské hřiště Ortenovo náměstí","","222"
"3","Večerka","P&M potraviny","https://www.firmy.cz/detail/2355954-p-m-potraviny-praha-holesovice.html","245"
"4","Hospoda","Pivnice U Pivoje","https://www.firmy.cz/detail/2231875-pivnice-u-pivoje-praha-holesovice.html","1702"
"5","Divadlo","La Fabrika","https://www.firmy.cz/detail/2118310-la-fabrika-praha-holesovice.html","428"
"6","Veterinář","Pet Care Clinic - MVDr. Anna Goldsbrough Tvrdá","https://www.firmy.cz/detail/2666686-pet-care-clinic-mvdr-anna-goldsbrough-tvrda-praha-holesovice.html","716"
"7","Lékárna","LÉKÁRNA ipc Osadní","https://www.firmy.cz/detail/2234657-lekarna-ipc-osadni-praha-holesovice.html","445"
"8","Škola","Gymnázium Duhovka, s.r.o.","https://www.firmy.cz/detail/147708-gymnazium-duhovka-praha-holesovice.html","166"
"9","Sportoviště","Hong Long Hong Jia Quan o.s.","https://www.firmy.cz/detail/619262-hong-long-hong-jia-quan-o-s-praha-holesovice.html","166"
"10","Bus MHD","V Přístavu","","247"
"11","Lékař","MUDr. Ludmila Čapková - Holečková","https://www.firmy.cz/detail/388951-mudr-ludmila-capkova-holeckova-praha-holesovice.html","561"
"12","Restaurace","7 Tacos Steak & Grill","https://www.firmy.cz/detail/2107180-7-tacos-steak-grill-praha-holesovice.html","41"
"13","Pošta","Pošta Praha 74 - Česká pošta, s.p.","https://www.firmy.cz/detail/431348-posta-praha-74-praha-holesovice.html","620"
"14","Metro","Nádraží Holešovice","","696"
"15","Tram","Ortenovo náměstí","","138"
"16","Školka","Katolická MŠ sv. Klimenta Praha 7","https://www.firmy.cz/detail/2397909-katolicka-ms-sv-klimenta-praha-7-praha-holesovice.html","105"
"17","Bankomat","Bankomat Fio banky","https://www.firmy.cz/detail/2678123-bankomat-fio-banky-praha-holesovice.html","210"
"18","Obchod","Kaufland","https://www.firmy.cz/detail/1545721-kaufland-praha-liben.html","1387"
"19","Vlak","Praha-Holešovice","","844"
