"","facility_type","facility_name","facility_iri","facility_distance"
"0","Cukrárna","KIDS & caffe","https://www.firmy.cz/detail/13052197-kids-caffe-ostrava-moravska-ostrava.html","0"
"1","Kino","Kino vesmír","https://www.firmy.cz/detail/12980428-kino-vesmir-ostrava-moravska-ostrava.html","218"
"2","Přírodní zajímavost","Uhelná sloj v Landeku","","3416"
"3","Hřiště","Dětské hřiště Husův sad","","193"
"4","Večerka","VEGA PROVITA","https://www.firmy.cz/detail/649689-vega-provita-ostrava-moravska-ostrava.html","77"
"5","Hospoda","Hobit club","https://www.firmy.cz/detail/1989230-hobit-club-ostrava-moravska-ostrava.html","221"
"6","Divadlo","Divadlo 12","https://www.firmy.cz/detail/13216354-divadlo-12-ostrava-moravska-ostrava.html","275"
"7","Veterinář","VETPARK Ostrava, s.r.o.","https://www.firmy.cz/detail/13308555-vetpark-ostrava-ostrava-moravska-ostrava.html","1170"
"8","Lékárna","Lékárna AGEL","https://www.firmy.cz/detail/2582964-lekarna-agel-ostrava-moravska-ostrava.html","173"
"9","Lékař","POLIKLINIKA AGEL","https://www.firmy.cz/detail/477707-poliklinika-agel-ostrava-moravska-ostrava.html","173"
"10","Pošta","Pošta Ostrava 1 - Česká pošta, s.p.","https://www.firmy.cz/detail/452777-posta-ostrava-1-ostrava-moravska-ostrava.html","212"
"11","Sportoviště","Tělocvičná jednota Sokol Moravská Ostrava 1","https://www.firmy.cz/detail/12782738-telocvicna-jednota-sokol-moravska-ostrava-1-ostrava-moravska-ostrava.html","264"
"12","Tram","Stodolní","","201"
"13","Obchod","Obchodní centrum LASO","https://www.firmy.cz/detail/2071391-obchodni-centrum-laso-ostrava-moravska-ostrava.html","520"
"14","Bus MHD","Husův sad","","99"
"15","Škola","Janáčkova konzervatoř v Ostravě","https://www.firmy.cz/detail/360963-janackova-konzervator-v-ostrave-ostrava-moravska-ostrava.html","246"
"16","Školka","MŠ Ostrava, Dvořákova","https://www.firmy.cz/detail/2333638-ms-ostrava-dvorakova-ostrava-moravska-ostrava.html","156"
"17","Vlak","Ostrava-Stodolní","","602"
"18","Restaurace","Restaurace Baník","https://www.firmy.cz/detail/13101967-restaurace-banik-ostrava-moravska-ostrava.html","0"
"19","Bankomat","Vkladomat mBank","https://www.firmy.cz/detail/13133145-vkladomat-mbank-ostrava-moravska-ostrava.html","136"
