"","facility_type","facility_name","facility_iri","facility_distance"
"0","Cukrárna","Kafíčko Polabiny","https://www.firmy.cz/detail/13199989-kaficko-polabiny-pardubice-polabiny.html","473"
"1","Kino","Letní kino Pardubice","https://www.firmy.cz/detail/13332119-letni-kino-pardubice-pardubice.html","1453"
"2","Hřiště","Dětské hřiště Jožky Jabůrkové","","138"
"3","Večerka","JEDNOTA, spotřební družstvo v Pardubicích - COOP","https://www.firmy.cz/detail/2343604-jednota-spotrebni-druzstvo-v-pardubicich-coop-pardubice-polabiny.html","437"
"4","Hospoda","Hramat Club Polabiny","https://www.firmy.cz/detail/13112057-hramat-club-polabiny-pardubice-polabiny.html","647"
"5","Divadlo","Divadlo 29","https://www.firmy.cz/detail/13236989-divadlo-29-pardubice-stare-mesto.html","2381"
"6","Veterinář","MVDr. Martin Plecháček","https://www.firmy.cz/detail/308056-mvdr-martin-plechacek-pardubice-trnova.html","202"
"7","Školka","Lentilka - integrační školka a rehabilitační centrum","https://www.firmy.cz/detail/13280189-lentilka-integracni-skolka-a-rehabilitacni-centrum-pardubice-polabiny.html","360"
"8","Bankomat","Bankomat ČSOB","https://www.firmy.cz/detail/2409948-bankomat-csob-pardubice-polabiny.html","490"
"9","Lékárna","EUC Lékárna Pardubice","https://www.firmy.cz/detail/12964409-euc-lekarna-pardubice-pardubice-trnova.html","467"
"10","Bus MHD","Polabiny, Jiřího Potůčka","","198"
"11","Obchod","Kaufland","https://www.firmy.cz/detail/1350832-kaufland-pardubice-rosice.html","572"
"12","Škola","ZŠ Pardubice-Polabiny, Prodloužená","https://www.firmy.cz/detail/358785-zs-pardubice-polabiny-prodlouzena-pardubice-polabiny.html","381"
"13","Lékař","MUDr. Pavel Josef Dufek","https://www.firmy.cz/detail/387229-mudr-pavel-josef-dufek-pardubice-trnova.html","467"
"14","Restaurace","Restaurace a pivnice Na Palubě","https://www.firmy.cz/detail/13021240-restaurace-a-pivnice-na-palube-pardubice-polabiny.html","424"
"15","Sportoviště","Hřiště na petanque","","292"
"16","Vlak","Pardubice-Rosice nad Labem","","1039"
"17","Pošta","Pošta Pardubice 9 - Česká pošta, s.p.","https://www.firmy.cz/detail/215336-posta-pardubice-9-pardubice-polabiny.html","509"
