"","facility_type","facility_name","facility_iri","facility_distance"
"0","Cukrárna","Café Coffee Day","https://www.firmy.cz/detail/650529-cafe-coffee-day-praha-smichov.html","469"
"1","Kino","Cinema City Nový Smíchov","https://www.firmy.cz/detail/2679838-cinema-city-novy-smichov-praha-smichov.html","507"
"2","Přírodní zajímavost","Kovářovic mez","","4190"
"3","Hřiště","Dětské hřiště park Sacré Coeur","","221"
"4","Večerka","Cukrárna - lahůdky 21","https://www.firmy.cz/detail/2450631-cukrarna-lahudky-21-praha-smichov.html","567"
"5","Hospoda","Hospůdka Knoflík","https://www.firmy.cz/detail/2253647-hospudka-knoflik-praha-smichov.html","780"
"6","Divadlo","Divadlo Orfeus","https://www.firmy.cz/detail/413053-divadlo-orfeus-praha-kosire.html","554"
"7","Veterinář","MVDr. Jana Lukešová","https://www.firmy.cz/detail/473617-mvdr-jana-lukesova-praha-smichov.html","761"
"8","Pošta","Pošta Praha 53 - Česká pošta, s.p.","https://www.firmy.cz/detail/431282-posta-praha-53-praha-smichov.html","692"
"9","Vlak","Praha-Smíchov severní nást.","","1419"
"10","Škola","ZŠ a MŠ Praha 5, Grafická","https://www.firmy.cz/detail/356194-zs-a-ms-praha-5-graficka-praha-smichov.html","160"
"11","Bankomat","Bankomat ČSOB","https://www.firmy.cz/detail/636703-bankomat-csob-praha-smichov.html","490"
"12","Restaurace","KFC","https://www.firmy.cz/detail/566060-kfc-praha-smichov.html","480"
"13","Bus MHD","Holečkova","","12"
"14","Sportoviště","Tělocvičná jednota Sokol I. Smíchov","https://www.firmy.cz/detail/737131-telocvicna-jednota-sokol-i-smichov-praha-smichov.html","244"
"15","Lékárna","EUC Lékárna Kartouzská","https://www.firmy.cz/detail/13162323-euc-lekarna-kartouzska-praha-smichov.html","417"
"16","Obchod","Obchodní centrum Nový Smíchov","https://www.firmy.cz/detail/579116-obchodni-centrum-novy-smichov-praha-smichov.html","482"
"17","Tram","Bertramka","","295"
"18","Lékař","MUDr. Lucie Jordáková","https://www.firmy.cz/detail/387284-mudr-lucie-jordakova-praha-smichov.html","381"
"19","Školka","Střední škola, ZŠ a MŠ pro sluchově postižené Praha 5","https://www.firmy.cz/detail/2196419-stredni-skola-zs-a-ms-pro-sluchove-postizene-praha-5-praha-smichov.html","244"
"20","Metro","Anděl","","706"
