"","facility_type","facility_name","facility_iri","facility_distance"
"0","Cukrárna","Hranická džungle","https://www.firmy.cz/detail/12919720-hranicka-dzungle-hranice-i-mesto.html","632"
"1","Kino","Letní kino Hranice","https://www.firmy.cz/detail/13071117-letni-kino-hranice-hranice-i-mesto.html","1671"
"2","Hřiště","Dětské hřiště Jaselská","","200"
"3","Večerka","HRUŠKA","https://www.firmy.cz/detail/12819735-hruska-hranice-i-mesto.html","246"
"4","Divadlo","Divadlo Stará Střelnice","https://www.firmy.cz/detail/13157587-divadlo-stara-strelnice-hranice-i-mesto.html","2095"
"5","Hospoda","Hranický ŠENK","https://www.firmy.cz/detail/13273380-hranicky-senk-hranice-i-mesto.html","49"
"6","Veterinář","Veterinární klinika Hranice","https://www.firmy.cz/detail/2028805-veterinarni-klinika-hranice-hranice-i-mesto.html","606"
"7","Lékař","MUDr. Zdeněk Vindiš","https://www.firmy.cz/detail/390234-mudr-zdenek-vindis-hranice-i-mesto.html","306"
"8","Lékárna","Dr. Max","https://www.firmy.cz/detail/2007399-dr-max-hranice-i-mesto.html","510"
"9","Sportoviště","HC Cement, s.r.o.","https://www.firmy.cz/detail/684554-hc-cement-hranice-i-mesto.html","1976"
"10","Pošta","Pošta Hranice 1 - Česká pošta, s.p.","https://www.firmy.cz/detail/658849-posta-hranice-1-hranice-i-mesto.html","803"
"11","Škola","Střední odborná škola Hranice","https://www.firmy.cz/detail/361659-stredni-odborna-skola-hranice-hranice-i-mesto.html","108"
"12","Bankomat","Bankomat ČSOB","https://www.firmy.cz/detail/2409817-bankomat-csob-hranice-i-mesto.html","501"
"13","Vlak","Hranice na Moravě","","766"
"14","Bus MHD","Hranice, Slávie","","31"
"15","Školka","Mateřská škola Míček, Hranice","https://www.firmy.cz/detail/13074772-materska-skola-micek-hranice-hranice-i-mesto.html","571"
"16","Restaurace","Restaurace Na Zastávce","https://www.firmy.cz/detail/13111631-restaurace-na-zastavce-hranice-i-mesto.html","186"
"17","Obchod","Kaufland","https://www.firmy.cz/detail/1534397-kaufland-hranice-i-mesto.html","526"
