"","facility_type","facility_name","facility_iri","facility_distance"
"0","Hřiště","Dětské hřiště Kytínská","https://mapy.cz/zakladni?x=14.5437645104&y=50.0531142984&z=17&source=base&id=2192045","180"
"1","Večerka","NORMA","https://www.firmy.cz/detail/13254751-norma-praha-hostivar.html","61"
"2","Veterinář","MVDr. Lukáš Naxera - veterinární klinika","https://www.firmy.cz/detail/657788-mvdr-lukas-naxera-veterinarni-klinika-praha-dolni-mecholupy.html","808"
"3","Cukrárna","InKafe","https://www.firmy.cz/detail/13123842-inkafe-praha-hostivar.html","161"
"4","Hospoda","Občerstvení Horolezecká 867/1","https://www.firmy.cz/detail/2457833-obcerstveni-horolezecka-867-1-praha-hostivar.html","49"
"5","Přírodní zajímavost","Mokřad Triangl","https://mapy.cz/zakladni?x=14.5188041667&y=50.0615525&z=17&source=base&id=1981356","2033"
"6","Divadlo","Loutkové divadlo Frydolín","https://www.firmy.cz/detail/397086-loutkove-divadlo-frydolin-praha-hostivar.html","708"
"7","Kino","Multikino - Premiere Cinemas Praha Hostivař","https://www.firmy.cz/detail/12745547-multikino-premiere-cinemas-praha-hostivar-praha-hostivar.html","1825"
"8","Sportoviště","Sportovní centrum - Univerzita Karlova v Praze","https://www.firmy.cz/detail/2202187-sportovni-centrum-univerzita-karlova-v-praze-praha-hostivar.html","295"
"9","Školka","MŠ Praha 10, Horolezecká","https://www.firmy.cz/detail/1968803-ms-praha-10-horolezecka-praha-hostivar.html","123"
"10","Restaurace","Restaurace Harmony","https://www.firmy.cz/detail/2219129-restaurace-harmony-praha-hostivar.html","154"
"11","Lékárna","Hostivařská lékárna s.r.o.","https://www.firmy.cz/detail/13208850-hostivarska-lekarna-s-r-o-praha-hostivar.html","302"
"12","Tram","Nádraží Hostivař","https://mapy.cz/zakladni?x=14.5376025825&y=50.0532368518&z=17&source=pubt&id=15302633","407"
"13","Vlak","Praha-Hostivař","https://mapy.cz/zakladni?x=14.5382405134&y=50.0550223431&z=17&source=pubt&id=15212564","495"
"14","Bus MHD","Gercenova","https://mapy.cz/zakladni?x=14.54352133134867&y=50.05035296155804&z=17&source=pubt&id=15303064","153"
"15","Bankomat","Bankomat Air Bank","https://www.firmy.cz/detail/13339777-bankomat-air-bank-praha-hostivar.html","181"
"16","Obchod","Nákupní centrum Košík","https://www.firmy.cz/detail/221987-nakupni-centrum-kosik-praha-hostivar.html","1769"
"17","Lékař","Ordinace Hostivař MuDr. Taťána Tomaňová","https://www.firmy.cz/detail/13193457-ordinace-hostivar-mudr-tatana-tomanova-praha-hostivar.html","161"
"18","Pošta","Pošta Praha 102 - Česká pošta, s.p.","https://www.firmy.cz/detail/431437-posta-praha-102-praha-hostivar.html","181"
"19","Škola","Střední škola automobilní a informatiky","https://www.firmy.cz/detail/360786-stredni-skola-automobilni-a-informatiky-praha-hostivar.html","161"
"20","Metro","Háje","https://mapy.cz/zakladni?x=14.5281272&y=50.0309847&z=17&source=pubt&id=15200216","2522"
