"","facility_type","facility_name","facility_iri","facility_distance"
"0","Cukrárna","Cukrárna a Kavárna Na Míráku","https://www.firmy.cz/detail/12846155-cukrarna-a-kavarna-na-miraku-mlada-boleslav.html","285"
"1","Kino","CineStar Mladá Boleslav","https://www.firmy.cz/detail/2109584-cinestar-mlada-boleslav-mlada-boleslav-ii.html","1190"
"2","Přírodní zajímavost","Syslí kolonie","","2180"
"3","Hřiště","Dětské hřiště Komenského náměstí","","74"
"4","Večerka","Žabka","https://www.firmy.cz/detail/12976683-zabka-mlada-boleslav-ii.html","199"
"5","Hospoda","KUFR Hospůdka","https://www.firmy.cz/detail/13185314-kufr-hospudka-mlada-boleslav-i.html","280"
"6","Divadlo","Městské divadlo Mladá Boleslav","https://www.firmy.cz/detail/401491-mestske-divadlo-mlada-boleslav-mlada-boleslav-ii.html","342"
"7","Veterinář","CHOVATEL L +  L  s. r. o.","https://www.firmy.cz/detail/13161784-chovatel-l-l-s-r-o-mlada-boleslav-ii.html","278"
"8","Bus MHD","Komenského nám.","","94"
"9","Pošta","Pošta Mladá Boleslav 1 - Česká pošta, s.p.","https://www.firmy.cz/detail/217182-posta-mlada-boleslav-1-mlada-boleslav-ii.html","128"
"10","Škola","ZŠ Mladá Boleslav, Komenského náměstí","https://www.firmy.cz/detail/358257-zs-mlada-boleslav-komenskeho-namesti-mlada-boleslav-ii.html","65"
"11","Sportoviště","Sokolská župa Fügnerova","https://www.firmy.cz/detail/303049-sokolska-zupa-fugnerova-mlada-boleslav-ii.html","426"
"12","Lékař","RESO MB - MUDr. Oldřich Šlégl","https://www.firmy.cz/detail/12890023-reso-mb-mudr-oldrich-slegl-mlada-boleslav-ii.html","308"
"13","Bankomat","Bankomat UniCredit Bank Czech Republic","https://www.firmy.cz/detail/2399424-bankomat-unicredit-bank-czech-republic-mlada-boleslav-ii.html","155"
"14","Lékárna","Lékárna Centrálka","https://www.firmy.cz/detail/375306-lekarna-centralka-mlada-boleslav-ii.html","318"
"15","Restaurace","Restaurace The Royal Maharaja","https://www.firmy.cz/detail/13149114-restaurace-the-royal-maharaja-mlada-boleslav-ii.html","138"
"16","Obchod","BONDY CENTRUM","https://www.firmy.cz/detail/13215694-bondy-centrum-mlada-boleslav-ii.html","1139"
"17","Školka","ZŠ T. G. Masaryka a MŠ Mladá Boleslav","https://www.firmy.cz/detail/433886-zs-t-g-masaryka-a-ms-mlada-boleslav-mlada-boleslav-iii.html","615"
"18","Vlak","Mladá Boleslav město","","1115"
