"","facility_type","facility_name","facility_iri","facility_distance"
"0","Cukrárna","Shothouse","https://www.firmy.cz/detail/13286217-shothouse-havirov-mesto.html","737"
"1","Kino","Kino Centrum","https://www.firmy.cz/detail/12780436-kino-centrum-havirov-mesto.html","826"
"2","Hřiště","Dětské hřiště Hakenova","","425"
"3","Hospoda","Hospůdka u Lenina","https://www.firmy.cz/detail/13169583-hospudka-u-lenina-havirov-mesto.html","344"
"4","Večerka","COOP Beskydy - Tuty","https://www.firmy.cz/detail/1940412-coop-beskydy-tuty-havirov-mesto.html","180"
"5","Veterinář","Veterina Na Nábřeží","https://www.firmy.cz/detail/1947067-veterina-na-nabrezi-havirov-mesto.html","973"
"6","Bankomat","Bankomat MONETA Money Bank","https://www.firmy.cz/detail/603413-bankomat-moneta-money-bank-havirov-podlesi.html","402"
"7","Pošta","Pošta Havířov 21 - Česká pošta, s.p.","https://www.firmy.cz/detail/2378876-posta-havirov-21-havirov-podlesi.html","702"
"8","Lékárna","Lékárna U Elišky","https://www.firmy.cz/detail/421095-lekarna-u-elisky-havirov-mesto.html","330"
"9","Lékař","MUDr. Simona Janáčková, s.r.o.","https://www.firmy.cz/detail/12862462-mudr-simona-janackova-havirov-podlesi.html","609"
"10","Obchod","Kaufland","https://www.firmy.cz/detail/1545096-kaufland-havirov-podlesi.html","402"
"11","Bus MHD","Havířov, Město, Tolstého","","103"
"12","Restaurace","Restaurace Dlouhá třída 1510","https://www.firmy.cz/detail/13146730-restaurace-dlouha-trida-1510-havirov-mesto.html","333"
"13","Škola","ZŠ Havířov, 1. máje","https://www.firmy.cz/detail/357049-zs-havirov-1-maje-havirov-mesto.html","216"
"14","Školka","MŠ Havířov, Lípová","https://www.firmy.cz/detail/12871692-ms-havirov-lipova-havirov-mesto.html","220"
"15","Sportoviště","Horolezecký oddíl Tatran Havířov","https://www.firmy.cz/detail/2325561-horolezecky-oddil-tatran-havirov-havirov-mesto.html","160"
"16","Vlak","Havířov-střed","","1537"
