"","facility_type","facility_name","facility_iri","facility_distance"
"0","Cukrárna","Eiscafe Delikana","https://www.firmy.cz/detail/13294607-eiscafe-delikana-karvina-frystat.html","1369"
"1","Kino","Kino Ex","https://www.firmy.cz/detail/396409-kino-ex-karvina-nove-mesto.html","836"
"2","Hřiště","Dětské hřiště U Bažantnice","","385"
"3","Večerka","Smíšené zboží nám. Budovatelů 15","https://www.firmy.cz/detail/12905799-smisene-zbozi-nam-budovatelu-15-karvina-nove-mesto.html","403"
"4","Hospoda","COUNTRY CLUB","https://www.firmy.cz/detail/13138293-country-club-karvina-nove-mesto.html","282"
"5","Veterinář","Veterinární ordinace TRIAS","https://www.firmy.cz/detail/2331003-veterinarni-ordinace-trias-karvina-nove-mesto.html","1499"
"6","Bus MHD","Karviná, Nové Město, U Bažantnice","","42"
"7","Obchod","Albert Hypermarket","https://www.firmy.cz/detail/449318-albert-hypermarket-karvina-frystat.html","1180"
"8","Lékař","MUDr. Ludmila Tesařová","https://www.firmy.cz/detail/390358-mudr-ludmila-tesarova-karvina-nove-mesto.html","303"
"9","Pošta","Pošta Karviná 6 - Česká pošta, s.p.","https://www.firmy.cz/detail/431463-posta-karvina-6-karvina-nove-mesto.html","358"
"10","Restaurace","Restaurace RVM Primaspol","https://www.firmy.cz/detail/13151530-restaurace-rvm-primaspol-karvina-nove-mesto.html","383"
"11","Sportoviště","STaRS Karviná, s.r.o.","https://www.firmy.cz/detail/721386-stars-karvina-karvina-nove-mesto.html","582"
"12","Vlak","Karviná hlavní nádraží","","1392"
"13","Školka","Základní škola a Mateřská škola Dělnická - U Vilíka","https://www.firmy.cz/detail/12854839-zakladni-skola-a-materska-skola-delnicka-u-vilika-karvina-nove-mesto.html","709"
"14","Bankomat","Bankomat České spořitelny","https://www.firmy.cz/detail/592981-bankomat-ceske-sporitelny-karvina-nove-mesto.html","359"
"15","Lékárna","Lékárna U sv. Františka","https://www.firmy.cz/detail/375442-lekarna-u-sv-frantiska-karvina-nove-mesto.html","458"
"16","Škola","ZŠ Karviná, tř. Družby","https://www.firmy.cz/detail/357628-zs-karvina-tr-druzby-karvina-nove-mesto.html","125"
