"","facility_type","facility_name","facility_iri","facility_distance"
"0","Cukrárna","Deli by Lagarto","https://www.firmy.cz/detail/13152015-deli-by-lagarto-most.html","262"
"1","Kino","Kino Kosmos","https://www.firmy.cz/detail/401279-kino-kosmos-most.html","922"
"2","Hřiště","Dětské hřiště M. G. Dobnera","","185"
"3","Večerka","Gut alimentari","https://www.firmy.cz/detail/12953825-gut-alimentari-most.html","217"
"4","Hospoda","Hospůdka U Cibicha","https://www.firmy.cz/detail/12875459-hospudka-u-cibicha-most.html","246"
"5","Divadlo","Městské divadlo v Mostě, spol. s r.o.","https://www.firmy.cz/detail/1336052-mestske-divadlo-v-moste-most.html","478"
"6","Veterinář","VETERINA-MOST","https://www.firmy.cz/detail/12832535-veterina-most-most.html","411"
"7","Škola","8.ZŠ Most","https://www.firmy.cz/detail/358334-8-zs-most-most.html","405"
"8","Bankomat","Bankomat MONETA Money Bank","https://www.firmy.cz/detail/13219326-bankomat-moneta-money-bank-most.html","87"
"9","Restaurace","Pivnice U Jeptišek","https://www.firmy.cz/detail/13116433-pivnice-u-jeptisek-most.html","82"
"10","Obchod","PRIOR ČESKÁ REPUBLIKA s.r.o.","https://www.firmy.cz/detail/1957029-prior-ceska-republika-s-r-o-most.html","209"
"11","Vlak","Most","","1564"
"12","Bus MHD","Most, Obchodní dům PRIOR","","127"
"13","Školka","MŠ Most, Marie Pujmanové","https://www.firmy.cz/detail/2281905-ms-most-marie-pujmanove-most.html","168"
"14","Lékárna","Mgr. Jaroslava Němečková, s.r.o.","https://www.firmy.cz/detail/13209831-mgr-jaroslava-nemeckova-most.html","87"
"15","Lékař","MUDr. Alena Dalecká","https://www.firmy.cz/detail/164738-mudr-alena-dalecka-most.html","220"
"16","Tram","Most, Obchodní dům PRIOR","","153"
"17","Pošta","Pošta Most 1 - Česká pošta, s.p.","https://www.firmy.cz/detail/216966-posta-most-1-most.html","360"
"18","Sportoviště","2VSYSTEMS","https://www.firmy.cz/detail/2676910-2vsystems-most.html","501"
