"","facility_type","facility_name","facility_iri","facility_distance"
"0","Hřiště","Dětské hřiště Jiránkova","https://mapy.cz/zakladni?x=14.3089563709&y=50.0638933615&z=17&source=base&id=1926586","147"
"1","Večerka","BILLA","https://www.firmy.cz/detail/212082-billa-praha-repy.html","218"
"2","Hospoda","Pivní bar","https://www.firmy.cz/detail/13148067-pivni-bar-praha-repy.html","0"
"3","Cukrárna","OVOCNÝ SVĚTOZOR","https://www.firmy.cz/detail/13151180-ovocny-svetozor-praha-stodulky.html","256"
"4","Veterinář","Veterinární klinika Delta MVDr.Michael Růžička, s.r.o.","https://www.firmy.cz/detail/12957413-veterinarni-klinika-delta-mvdr-michael-ruzicka-praha-repy.html","307"
"5","Divadlo","MEZINÁRODNÍ CENTRUM TANCE","https://www.firmy.cz/detail/2465676-mezinarodni-centrum-tance-praha-stodulky.html","2689"
"6","Přírodní zajímavost","Kovářovic mez","https://mapy.cz/zakladni?x=14.36107759920759&y=50.04395254566995&z=17&source=base&id=2339664","4185"
"7","Kino","Cinema City Zličín","https://www.firmy.cz/detail/436222-cinema-city-zlicin-praha-trebonice.html","1914"
"8","Obchod","OC Řepy","https://www.firmy.cz/detail/13328774-oc-repy-praha-repy.html","222"
"9","Tram","Slánská","https://mapy.cz/zakladni?x=14.3094573024&y=50.0644751107&z=17&source=pubt&id=15300243","163"
"10","Bankomat","Bankomat Komerční banky","https://www.firmy.cz/detail/13082923-bankomat-komercni-banky-praha-repy.html","220"
"11","Školka","MŠ Praha 6, Laudova","https://www.firmy.cz/detail/473941-ms-praha-6-laudova-praha-repy.html","369"
"12","Škola","ZŠ generálporučíka Františka Peřiny Praha 6","https://www.firmy.cz/detail/356218-zs-generalporucika-frantiska-periny-praha-6-praha-repy.html","378"
"13","Restaurace","McDonald's","https://www.firmy.cz/detail/430303-mcdonald-s-praha.html","150"
"14","Lékař","MUDr. David DRESLER - praktický lékař a homeopatie","https://www.firmy.cz/detail/391068-mudr-david-dresler-prakticky-lekar-a-homeopatie-praha-repy.html","600"
"15","Sportoviště","Tenisová škola TALLENT","https://www.firmy.cz/detail/722768-tenisova-skola-tallent-praha-repy.html","378"
"16","Metro","Zličín","https://mapy.cz/zakladni?x=14.2906764069&y=50.0537241139&z=17&source=pubt&id=15200255","1785"
"17","Pošta","Pošta Praha 618 - Česká pošta, s.p.","https://www.firmy.cz/detail/431332-posta-praha-618-praha-repy.html","222"
"18","Lékárna","Dr. Max LÉKÁRNA","https://www.firmy.cz/detail/12726490-dr-max-lekarna-praha-repy.html","259"
"19","Bus MHD","Slánská","https://mapy.cz/zakladni?x=14.3092053196&y=50.0643870435&z=17&source=pubt&id=15302078","167"
"20","Vlak","Praha-Zličín","https://mapy.cz/zakladni?x=14.2977438277&y=50.0641750381&z=17&source=pubt&id=15212589","935"
