"","facility_type","facility_name","facility_iri","facility_distance"
"0","Cukrárna","Cukrárna Bruno","https://www.firmy.cz/detail/13008710-cukrarna-bruno-davle.html","4989"
"1","Hřiště","Dětské hřiště Bojov","","809"
"2","Večerka","Smíšené zboží","https://www.firmy.cz/detail/13306358-smisene-zbozi-cisovice.html","1306"
"3","Hospoda","Hostinec U Součků","https://www.firmy.cz/detail/13216124-hostinec-u-soucku-cisovice-bojov.html","1634"
"4","Veterinář","MVDr. Miroslav Trunda","https://www.firmy.cz/detail/12763299-mvdr-miroslav-trunda-lisnice.html","2442"
"5","Školka","ZŠ a MŠ Čisovice","https://www.firmy.cz/detail/442271-zs-a-ms-cisovice-cisovice.html","1412"
"6","Vlak","Bojanovice","","439"
"7","Sportoviště","Petanque Líšnice","","2769"
"8","Škola","ZŠ a MŠ Čisovice","https://www.firmy.cz/detail/356779-zs-a-ms-cisovice-cisovice.html","1418"
"9","Bus MHD","Čisovice, Bojov, višňovka","","34"
"10","Lékárna","Lékárna Zamzam","https://www.firmy.cz/detail/13265243-lekarna-zamzam-davle.html","4916"
"11","Restaurace","Hospůdka na hřišti","https://www.firmy.cz/detail/13283582-hospudka-na-hristi-cisovice.html","1774"
"12","Pošta","Pošta Partner Čisovice","https://www.firmy.cz/detail/2346074-posta-partner-cisovice-cisovice.html","1751"
"13","Lékař","Hodis s.r.o.","https://www.firmy.cz/detail/12779240-hodis-s-r-o-klinec.html","4031"
"14","Bankomat","Bankomat České spořitelny","https://www.firmy.cz/detail/595032-bankomat-ceske-sporitelny-davle.html","5110"
