"","facility_type","facility_name","facility_iri","facility_distance"
"0","Cukrárna","Cukrárna Ovo Bar Kamilka","https://www.firmy.cz/detail/13058476-cukrarna-ovo-bar-kamilka-karlovy-vary.html","1045"
"1","Kino","Kino Drahomíra z.s.","https://www.firmy.cz/detail/13126576-kino-drahomira-z-s-karlovy-vary-drahovice.html","435"
"2","Přírodní zajímavost","Karlův hvozd","","2450"
"3","Hřiště","Dětské hřiště Vilová","","110"
"4","Večerka","Potraviny Mattoniho nábřeží 	314","https://www.firmy.cz/detail/13057546-potraviny-mattoniho-nabrezi-314-karlovy-vary-drahovice.html","284"
"5","Hospoda","Pivnice Drahomíra","https://www.firmy.cz/detail/668384-pivnice-drahomira-karlovy-vary-drahovice.html","361"
"6","Divadlo","Divadlo Dagmar","https://www.firmy.cz/detail/396851-divadlo-dagmar-karlovy-vary-drahovice.html","892"
"7","Veterinář","MVDr. Jaroslav Štekl","https://www.firmy.cz/detail/625301-mvdr-jaroslav-stekl-dalovice.html","590"
"8","Restaurace","Australian Pub","https://www.firmy.cz/detail/677180-australian-pub-karlovy-vary-drahovice.html","392"
"9","Bankomat","Bankomat Euronet","https://www.firmy.cz/detail/13055646-bankomat-euronet-karlovy-vary.html","555"
"10","Školka","2. MŠ Karlovy Vary - Vilová","https://www.firmy.cz/detail/2072245-2-ms-karlovy-vary-vilova-karlovy-vary-bohatice.html","251"
"11","Sportoviště","Multifunkční sportovní areál ZŠ Jana Amose Komenského","https://www.firmy.cz/detail/2623753-multifunkcni-sportovni-areal-zs-jana-amose-komenskeho-karlovy-vary-drahovice.html","415"
"12","Obchod","Obchodní centrum Perla","https://www.firmy.cz/detail/13219298-obchodni-centrum-perla-karlovy-vary.html","1215"
"13","Pošta","Pošta Karlovy Vary 9 - Česká pošta, s.p.","https://www.firmy.cz/detail/216327-posta-karlovy-vary-9-karlovy-vary-drahovice.html","328"
"14","Lékař","Ordinace PL MUDr. Markéta Grundlerová","https://www.firmy.cz/detail/13248207-ordinace-pl-mudr-marketa-grundlerova-karlovy-vary-drahovice.html","328"
"15","Bus MHD","Bohatice, most","","154"
"16","Škola","ZUŠ Antonína Dvořáka Karlovy Vary","https://www.firmy.cz/detail/2645654-zus-antonina-dvoraka-karlovy-vary-karlovy-vary-drahovice.html","378"
"17","Lékárna","Lékárna U Gymnázia","https://www.firmy.cz/detail/420968-lekarna-u-gymnazia-karlovy-vary-drahovice.html","483"
"18","Vlak","Karlovy Vary","","1095"
