"","facility_type","facility_name","facility_iri","facility_distance"
"0","Cukrárna","JEDNO KAFE s.r.o., s.r.o.","https://www.firmy.cz/detail/13144478-jedno-kafe-s-r-o-praha-hloubetin.html","225"
"1","Kino","CineStar Černý Most","https://www.firmy.cz/detail/2537569-cinestar-cerny-most-praha-cerny-most.html","2769"
"2","Přírodní zajímavost","Meandry Rokytky","","2331"
"3","Hřiště","Dětské hřiště Krylovecká","","190"
"4","Večerka","Penny Market","https://www.firmy.cz/detail/12859596-penny-market-praha-hloubetin.html","54"
"5","Hospoda","U Lachtana","https://www.firmy.cz/detail/13209482-u-lachtana-praha-kyje.html","1048"
"6","Divadlo","Divadlo Pohádka","https://www.firmy.cz/detail/636143-divadlo-pohadka-praha-letnany.html","3896"
"7","Veterinář","MetropoleVet","https://www.firmy.cz/detail/12988353-metropolevet-praha-kyje.html","1094"
"8","Bus MHD","Lehovec","","76"
"9","Bankomat","Bankomat ČSOB","https://www.firmy.cz/detail/13252880-bankomat-csob-praha.html","223"
"10","Tram","Lehovec","","84"
"11","Metro","Hloubětín","","625"
"12","Lékař","MUDr. Irena Jiráková","https://www.firmy.cz/detail/387661-mudr-irena-jirakova-praha-hloubetin.html","661"
"13","Obchod","Kaufland","https://www.firmy.cz/detail/13180341-kaufland-praha-hloubetin.html","206"
"14","Pošta","Pošta Praha 94 - Česká pošta, s.p.","https://www.firmy.cz/detail/431410-posta-praha-94-praha-hloubetin.html","629"
"15","Lékárna","BENU Lékárna","https://www.firmy.cz/detail/13314759-benu-lekarna-praha-hloubetin.html","206"
"16","Vlak","Praha-Kyje","","1128"
"17","Škola","Střední škola ARCUS","https://www.firmy.cz/detail/272046-stredni-skola-arcus-praha-hloubetin.html","239"
"18","Restaurace","U Matěje","https://www.firmy.cz/detail/13202895-u-mateje-praha-hloubetin.html","186"
"19","Školka","MŠ Praha 9, Zelenečská","https://www.firmy.cz/detail/12830196-ms-praha-9-zelenecska-praha-hloubetin.html","312"
"20","Sportoviště","MTV Fitness & Squash","https://www.firmy.cz/detail/13097776-mtv-fitness-squash-praha-kyje.html","738"
