"","facility_type","facility_name","facility_iri","facility_distance"
"0","Hřiště","Dětské hřiště","https://mapy.cz/zakladni?x=14.454134294386165&y=48.79240475628728&z=17&source=base&id=2340338","1206"
"1","Večerka","Smíšené zboží náměstí J. V. Kamarýta 4","https://www.firmy.cz/detail/2457890-smisene-zbozi-namesti-j-v-kamaryta-4-velesin.html","3250"
"2","Hospoda","Hostinec Velešín","https://www.firmy.cz/detail/13143491-hostinec-velesin-velesin.html","2398"
"3","Cukrárna","Kavárna na rohu","https://www.firmy.cz/detail/12796248-kavarna-na-rohu-velesin.html","3055"
"4","Kino","Kulturní a informační centrum města Velešín","https://www.firmy.cz/detail/12881919-kulturni-a-informacni-centrum-mesta-velesin-velesin.html","3135"
"5","Restaurace","Restaurace U Hamerníků","https://www.firmy.cz/detail/2698698-restaurace-u-hamerniku-velesin.html","2256"
"6","Pošta","Pošta Velešín - Česká pošta, s.p.","https://www.firmy.cz/detail/216072-posta-velesin-velesin.html","3135"
"7","Lékárna","Lékárna Velešín","https://www.firmy.cz/detail/13204481-lekarna-velesin-velesin.html","3359"
"8","Lékař","MUDr. Petr Petlan","https://www.firmy.cz/detail/12980105-mudr-petr-petlan-zubcice.html","3094"
"9","Vlak","Velešín","https://mapy.cz/zakladni?x=14.4363836485&y=48.8199792418&z=17&source=pubt&id=15213169","2125"
"10","Bankomat","Bankomat České spořitelny","https://www.firmy.cz/detail/596636-bankomat-ceske-sporitelny-velesin.html","3157"
"11","Škola","ZŠ Velešín","https://www.firmy.cz/detail/359928-zs-velesin-velesin.html","3079"
"12","Školka","MŠ Netřebice","https://www.firmy.cz/detail/1905824-ms-netrebice-netrebice.html","1246"
"13","Bus MHD","Zvíkov, rozc.0.5","https://mapy.cz/zakladni?x=14.4577373029033&y=48.8040378143645&z=17&source=pubt&id=15294785","788"
"14","Sportoviště","Koupaliště Na Skalkách","https://www.firmy.cz/detail/2251025-koupaliste-na-skalkach-velesin.html","2640"
