"","facility_type","facility_name","facility_iri","facility_distance"
"0","Přírodní zajímavost","Louky pod Čepičkou","https://mapy.cz/zakladni?x=16.3898161&y=49.3515731&z=17&source=base&id=1854191","2958"
"1","Hřiště","Dětské hřiště Dlouhá","https://mapy.cz/zakladni?x=16.430884983&y=49.3534287842&z=17&source=base&id=1927616","51"
"2","Hospoda","Hostinec U Sokola","https://www.firmy.cz/detail/13115381-hostinec-u-sokola-lomnicka.html","1503"
"3","Večerka","Můjobchod - Květnická Potraviny","https://www.firmy.cz/detail/13259809-mujobchod-kvetnicka-potraviny-tisnov.html","442"
"4","Cukrárna","Cukrářství Velvet","https://www.firmy.cz/detail/13239581-cukrarstvi-velvet-tisnov.html","781"
"5","Veterinář","MVDr. Jiří Oharek","https://www.firmy.cz/detail/2075159-mvdr-jiri-oharek-tisnov.html","352"
"6","Kino","Kino Svratka","https://www.firmy.cz/detail/451604-kino-svratka-tisnov.html","839"
"7","Lékař","MUDr. Jana Jeřábková, s.r.o.","https://www.firmy.cz/detail/12804766-mudr-jana-jerabkova-tisnov.html","445"
"8","Sportoviště","Tělocvičná jednota Sokol Tišnov","https://www.firmy.cz/detail/669786-telocvicna-jednota-sokol-tisnov-tisnov.html","463"
"9","Pošta","Pošta Tišnov 1 - Česká pošta, s.p.","https://www.firmy.cz/detail/216143-posta-tisnov-1-tisnov.html","629"
"10","Bus MHD","Tišnov, Lomnická","https://mapy.cz/zakladni?x=16.4286341678752&y=49.3553043009995&z=17&source=pubt&id=15271074","292"
"11","Restaurace","Podhorácká restaurace","https://www.firmy.cz/detail/2294804-podhoracka-restaurace-tisnov.html","257"
"12","Školka","MŠ Tišnov, Květnická","https://www.firmy.cz/detail/2643520-ms-tisnov-kvetnicka-tisnov.html","459"
"13","Bankomat","Bankomat MONETA Money Bank","https://www.firmy.cz/detail/603496-bankomat-moneta-money-bank-tisnov.html","781"
"14","Lékárna","Lékárna ARNICA","https://www.firmy.cz/detail/195237-lekarna-arnica-tisnov.html","499"
"15","Vlak","Tišnov","https://mapy.cz/zakladni?x=16.4184080509&y=49.3469367955&z=17&source=pubt&id=15213041","1112"
"16","Škola","Gymnázium Tišnov","https://www.firmy.cz/detail/195061-gymnazium-tisnov-tisnov.html","540"
