"","facility_type","facility_name","facility_iri","facility_distance"
"0","Cukrárna","ZVIČINA s.r.o.","https://www.firmy.cz/detail/660668-zvicina-s-r-o-jaromer-prazske-predmesti.html","1865"
"1","Přírodní zajímavost","Ptačí park Josefovské louky","","2150"
"2","Hřiště","Dětské hřiště Na Valech","","129"
"3","Večerka","Potraviny nám. Československé armády 59","https://www.firmy.cz/detail/12794936-potraviny-nam-ceskoslovenske-armady-59-jaromer.html","128"
"4","Hospoda","Hostinec v Pevnosti Josefov","https://www.firmy.cz/detail/13116519-hostinec-v-pevnosti-josefov-jaromer-josefov.html","1831"
"5","Divadlo","Boučkovo loutkové divadlo BOĎI Bauerovi","https://www.firmy.cz/detail/397084-bouckovo-loutkove-divadlo-bodi-bauerovi-jaromer-prazske-predmesti.html","313"
"6","Veterinář","Veterinární středisko Jaroměř","https://www.firmy.cz/detail/2679301-veterinarni-stredisko-jaromer-jaromer-prazske-predmesti.html","459"
"7","Sportoviště","Bowling centrum - Jaroměř","https://www.firmy.cz/detail/2604195-bowling-centrum-jaromer-jaromer-prazske-predmesti.html","306"
"8","Školka","MŠ Jaroměř, Knappova","https://www.firmy.cz/detail/2665985-ms-jaromer-knappova-jaromer-prazske-predmesti.html","249"
"9","Restaurace","Pizzerie 28","https://www.firmy.cz/detail/13230010-pizzerie-28-jaromer.html","23"
"10","Lékárna","Lékárna 050506","https://www.firmy.cz/detail/374754-lekarna-050506-jaromer-prazske-predmesti.html","240"
"11","Vlak","Jaroměř zastávka","","524"
"12","Lékař","MUDr. Petra Mrázová","https://www.firmy.cz/detail/12844199-mudr-petra-mrazova-jaromer-jakubske-predmesti.html","199"
"13","Bankomat","Bankomat Komerční banky","https://www.firmy.cz/detail/2420271-bankomat-komercni-banky-jaromer.html","65"
"14","Obchod","Tesco","https://www.firmy.cz/detail/12741942-tesco-jaromer-prazske-predmesti.html","377"
"15","Škola","ZŠ Jaroměř, Na Ostrově","https://www.firmy.cz/detail/357474-zs-jaromer-na-ostrove-jaromer-prazske-predmesti.html","173"
"16","Pošta","Pošta Jaroměř 1 - Česká pošta, s.p.","https://www.firmy.cz/detail/215670-posta-jaromer-1-jaromer.html","115"
"17","Bus MHD","Jaroměř, Husova","","214"
