"","facility_type","facility_name","facility_iri","facility_distance"
"0","Cukrárna","Kokino","https://www.firmy.cz/detail/13136137-kokino-ceska-lipa.html","175"
"1","Kino","Kino Crystal","https://www.firmy.cz/detail/399410-kino-crystal-ceska-lipa.html","1374"
"2","Přírodní zajímavost","Ptačí park Mnišské louky","","4100"
"3","Hřiště","Dětské hřiště Vladimirská","","233"
"4","Večerka","BILLA stop & shop","https://www.firmy.cz/detail/13102020-billa-stop-shop-ceska-lipa.html","179"
"5","Hospoda","Chmelnice u Pepy","https://www.firmy.cz/detail/13147590-chmelnice-u-pepy-ceska-lipa.html","425"
"6","Divadlo","Jiráskovo divadlo","https://www.firmy.cz/detail/2352914-jiraskovo-divadlo-ceska-lipa.html","999"
"7","Veterinář","MVDr. Jaroslav Šeps","https://www.firmy.cz/detail/2118796-mvdr-jaroslav-seps-ceska-lipa-stara-lipa.html","907"
"8","Obchod","Albert Hypermarket","https://www.firmy.cz/detail/12928958-albert-hypermarket-ceska-lipa.html","711"
"9","Restaurace","Restaurace Pod Poštou","https://www.firmy.cz/detail/13122930-restaurace-pod-postou-ceska-lipa.html","197"
"10","Lékař","MUDr. Marie Uková","https://www.firmy.cz/detail/385528-mudr-marie-ukova-ceska-lipa.html","394"
"11","Škola","Gymnázium Česká Lípa","https://www.firmy.cz/detail/362578-gymnazium-ceska-lipa-ceska-lipa.html","232"
"12","Bankomat","Bankomat České spořitelny","https://www.firmy.cz/detail/591918-bankomat-ceske-sporitelny-ceska-lipa.html","224"
"13","Bus MHD","Česká Lípa, Žitavská","","142"
"14","Sportoviště","Centrál Bowling Bar","https://www.firmy.cz/detail/13293038-central-bowling-bar-ceska-lipa.html","278"
"15","Lékárna","Lékárna Špičák","https://www.firmy.cz/detail/12972635-lekarna-spicak-ceska-lipa.html","394"
"16","Pošta","Pošta Česká Lípa 6 - Česká pošta, s.p.","https://www.firmy.cz/detail/215487-posta-ceska-lipa-6-ceska-lipa.html","226"
"17","Školka","MŠ Špičák Česká Lípa","https://www.firmy.cz/detail/1975257-ms-spicak-ceska-lipa-ceska-lipa.html","119"
"18","Vlak","Česká Lípa střelnice","","1092"
