"","facility_type","facility_name","facility_iri","facility_distance"
"0","Cukrárna","Kavárna Globe","https://www.firmy.cz/detail/329022-kavarna-globe-praha-nove-mesto.html","190"
"1","Kino","Kino Mat","https://www.firmy.cz/detail/1974792-kino-mat-praha-nove-mesto.html","49"
"2","Přírodní zajímavost","Kovářovic mez","","5559"
"3","Hřiště","Dětské hřiště Karlovo náměstí","","376"
"4","Večerka","MANNI MINI MARKET","https://www.firmy.cz/detail/2609033-manni-mini-market-praha-nove-mesto.html","73"
"5","Divadlo","Minor","https://www.firmy.cz/detail/230743-minor-praha-nove-mesto.html","241"
"6","Hospoda","Batalion Café & Music Bar","https://www.firmy.cz/detail/457689-batalion-cafe-music-bar-praha-stare-mesto.html","699"
"7","Veterinář","Veterinární klinika Na Hrádku - MVDr. Ľubica Nečasová","https://www.firmy.cz/detail/633528-veterinarni-klinika-na-hradku-mvdr-lubica-necasova-praha-nove-mesto.html","642"
"8","Školka","ZŠ a MŠ Praha 2, Resslova","https://www.firmy.cz/detail/770593-zs-a-ms-praha-2-resslova-praha-nove-mesto.html","100"
"9","Bus MHD","Karlovo náměstí","","243"
"10","Vlak","Praha hlavní nádraží","","1432"
"11","Restaurace","Plzeňská restaurace U Sedlerů","https://www.firmy.cz/detail/2589014-plzenska-restaurace-u-sedleru-praha-nove-mesto.html","42"
"12","Škola","Masarykova střední škola chemická, Praha 1","https://www.firmy.cz/detail/362752-masarykova-stredni-skola-chemicka-praha-1-praha-nove-mesto.html","208"
"13","Tram","Novoměstská radnice","","55"
"14","Obchod","Quadrio","https://www.firmy.cz/detail/2042979-quadrio-praha-nove-mesto.html","449"
"15","Metro","Karlovo náměstí","","165"
"16","Bankomat","Bankomat MONETA Money Bank","https://www.firmy.cz/detail/602933-bankomat-moneta-money-bank-praha-nove-mesto.html","49"
"17","Lékárna","Nemocniční lékárna VFN v Praze,odd.výdeje pro veřejnost III","https://www.firmy.cz/detail/2650769-nemocnicni-lekarna-vfn-v-praze-odd-vydeje-pro-verejnost-iii-praha-nove-mesto.html","200"
"18","Lékař","Zubní praxe MAZUR & PŠENIČNÝ","https://www.firmy.cz/detail/305118-zubni-praxe-mazur-psenicny-praha-nove-mesto.html","181"
"19","Pošta","Pošta Praha 1 - Česká pošta, s.p.","https://www.firmy.cz/detail/216682-posta-praha-1-praha-nove-mesto.html","910"
"20","Sportoviště","VŠTJ Technika Praha strojní fakulta","https://www.firmy.cz/detail/2648614-vstj-technika-praha-strojni-fakulta-praha-nove-mesto.html","139"
