"","facility_type","facility_name","facility_iri","facility_distance"
"0","Cukrárna","Cukrárna Jemnická","https://www.firmy.cz/detail/1997780-cukrarna-jemnicka-praha-michle.html","1230"
"1","Kino","Cinema City Flora","https://www.firmy.cz/detail/660712-cinema-city-flora-praha-zizkov.html","2572"
"2","Přírodní zajímavost","Mokřad Triangl","","3483"
"3","Hřiště","Dětské hřiště U Plynárny","","149"
"4","Večerka","Gourmet-partners.cz","https://www.firmy.cz/detail/12820917-gourmet-partners-cz-praha-michle.html","963"
"5","Hospoda","Hostinec U Parku","https://www.firmy.cz/detail/337032-hostinec-u-parku-praha-nusle.html","1629"
"6","Divadlo","Divadlo Na Jezerce","https://www.firmy.cz/detail/496550-divadlo-na-jezerce-praha-nusle.html","1848"
"7","Veterinář","MVDr. Pavlína Hájková","https://www.firmy.cz/detail/2138944-mvdr-pavlina-hajkova-praha.html","596"
"8","Lékař","MUDr. Judita Mrňáková","https://www.firmy.cz/detail/390369-mudr-judita-mrnakova-praha-michle.html","417"
"9","Tram","Chodovská","","93"
"10","Školka","Montessori školka Jonáš, Praha 10 - Michle","https://www.firmy.cz/detail/12827746-montessori-skolka-jonas-praha-10-michle-praha-michle.html","401"
"11","Sportoviště","Tělovýchovná jednota Montáže Praha","https://www.firmy.cz/detail/2246370-telovychovna-jednota-montaze-praha-praha-michle.html","1039"
"12","Obchod","Kaufland","https://www.firmy.cz/detail/221320-kaufland-praha-michle.html","139"
"13","Lékárna","Dr.Max LÉKÁRNA","https://www.firmy.cz/detail/2007125-dr-max-lekarna-praha-michle.html","96"
"14","Bankomat","Bankomat ČSOB","https://www.firmy.cz/detail/599598-bankomat-csob-praha-michle.html","139"
"15","Bus MHD","Chodovská","","120"
"16","Škola","Vyšší odborná škola herecká - Vyšší odborná škola herecká, s.r.o.","https://www.firmy.cz/detail/361708-vyssi-odborna-skola-herecka-praha-michle.html","898"
"17","Metro","Kačerov","","1844"
"18","Pošta","Pošta Praha 100 - Česká pošta, s.p.","https://www.firmy.cz/detail/2591025-posta-praha-100-praha-vrsovice.html","1159"
"19","Vlak","Praha-Eden","","963"
"20","Restaurace","Pizza Fresh","https://www.firmy.cz/detail/13342838-pizza-fresh-praha-zabehlice.html","799"
