"","facility_type","facility_name","facility_iri","facility_distance"
"0","Cukrárna","Kavárna Sauro","https://www.firmy.cz/detail/249182-kavarna-sauro-novy-jicin.html","4005"
"1","Kino","Městské kulturní středisko Nový Jičín - Letní kino","https://www.firmy.cz/detail/13070482-mestske-kulturni-stredisko-novy-jicin-letni-kino-novy-jicin.html","3776"
"2","Přírodní zajímavost","Pikritový lom u Straníku","","3168"
"3","Hřiště","Dětské hřiště Starý Jičín u koupaliště","","347"
"4","Večerka","Jednota, spotřební družstvo v Hodoníně - COOP","https://www.firmy.cz/detail/12890114-jednota-spotrebni-druzstvo-v-hodonine-coop-stary-jicin.html","117"
"5","Hospoda","Hospoda na zimáku","https://www.firmy.cz/detail/12961740-hospoda-na-zimaku-novy-jicin.html","3245"
"6","Divadlo","Beskydské divadlo","https://www.firmy.cz/detail/643853-beskydske-divadlo-novy-jicin.html","3782"
"7","Veterinář","MVDr. Tomáš Malina","https://www.firmy.cz/detail/197502-mvdr-tomas-malina-senov-u-noveho-jicina.html","3775"
"8","Lékař","MUDr. Iveta Havlíková","https://www.firmy.cz/detail/2023783-mudr-iveta-havlikova-stary-jicin-vlcnov.html","290"
"9","Lékárna","BENU Lékárna","https://www.firmy.cz/detail/13330127-benu-lekarna-novy-jicin.html","3106"
"10","Restaurace","Starojická Pizza","https://www.firmy.cz/detail/2306857-starojicka-pizza-stary-jicin.html","97"
"11","Pošta","Pošta Starý Jičín - Česká pošta, s.p.","https://www.firmy.cz/detail/433614-posta-stary-jicin-stary-jicin.html","131"
"12","Vlak","Nový Jičín město","","4188"
"13","Škola","ZŠ Starý Jičín","https://www.firmy.cz/detail/359456-zs-stary-jicin-stary-jicin.html","239"
"14","Školka","MŠ Starý Jičín","https://www.firmy.cz/detail/2333532-ms-stary-jicin-stary-jicin.html","170"
"15","Bus MHD","Starý Jičín, nám.","","95"
"16","Bankomat","Bankomat Komerční banky","https://www.firmy.cz/detail/2685928-bankomat-komercni-banky-novy-jicin.html","3106"
"17","Sportoviště","Orel jednota Starý Jičín - Vlčnov","https://www.firmy.cz/detail/1964594-orel-jednota-stary-jicin-vlcnov-stary-jicin.html","36"
"18","Obchod","Kaufland","https://www.firmy.cz/detail/1507041-kaufland-novy-jicin.html","3106"
