"","facility_type","facility_name","facility_iri","facility_distance"
"0","Hřiště","Dětské hřiště U Tesly","https://mapy.cz/zakladni?x=18.399349801914155&y=49.799687754043575&z=17&source=base&id=2357374","920"
"1","Cukrárna","Cukrárna Lada","https://www.firmy.cz/detail/12915655-cukrarna-lada-havirov-sumbark.html","1315"
"2","Hospoda","Restaurace Přístav","https://www.firmy.cz/detail/13109183-restaurace-pristav-havirov-sumbark.html","359"
"3","Večerka","Potraviny nám. T. G. Masaryka 	811","https://www.firmy.cz/detail/13056879-potraviny-nam-t-g-masaryka-811-havirov-sumbark.html","253"
"4","Veterinář","Veterinární klinika ANIVET - MVDr. Zbyněk Horák","https://www.firmy.cz/detail/1969639-veterinarni-klinika-anivet-mvdr-zbynek-horak-havirov-sumbark.html","310"
"5","Kino","Letní kino - Městské kulturní středisko Havířov","https://www.firmy.cz/detail/13072791-letni-kino-havirov.html","1185"
"6","Lékárna","Lékárna Léčebné centrum","https://www.firmy.cz/detail/2202513-lekarna-lecebne-centrum-havirov-sumbark.html","257"
"7","Školka","MŠ Havířov","https://www.firmy.cz/detail/2333584-ms-havirov-havirov-sumbark.html","267"
"8","Bus MHD","Havířov, Šumbark, Obránců míru","https://mapy.cz/zakladni?x=18.4062374061614&y=49.7946122629392&z=17&source=pubt&id=15285257","170"
"9","Pošta","Pošta Havířov 3 - Česká pošta, s.p.","https://www.firmy.cz/detail/431629-posta-havirov-3-havirov-sumbark.html","297"
"10","Restaurace","GURMÁN","https://www.firmy.cz/detail/12907330-gurman-havirov.html","488"
"11","Sportoviště","Tenisový klub Havířov, z.s.","https://www.firmy.cz/detail/721336-tenisovy-klub-havirov-z-s-havirov-sumbark.html","349"
"12","Vlak","Havířov","https://mapy.cz/zakladni?x=18.4125438808&y=49.7917388734&z=17&source=pubt&id=15211361","395"
"13","Bankomat","Bankomat Komerční banky","https://www.firmy.cz/detail/13312525-bankomat-komercni-banky-havirov-sumbark.html","317"
"14","Obchod","Tesco","https://www.firmy.cz/detail/218205-tesco-havirov-mesto.html","896"
"15","Lékař","MUDr. René Turčínek","https://www.firmy.cz/detail/387379-mudr-rene-turcinek-havirov-sumbark.html","257"
"16","Škola","Střední škola polytechnická, Havířov-Šumbark","https://www.firmy.cz/detail/361233-stredni-skola-polytechnicka-havirov-sumbark-havirov-sumbark.html","219"
