"","facility_type","facility_name","facility_iri","facility_distance"
"0","Cukrárna","Cafe Girolami","https://www.firmy.cz/detail/12935599-cafe-girolami-horin.html","709"
"1","Kino","Kino Vltavan","https://www.firmy.cz/detail/2607351-kino-vltavan-luzec-nad-vltavou.html","5058"
"2","Hřiště","Dětské hřiště Hořín","","628"
"3","Večerka","Žabka","https://www.firmy.cz/detail/12976681-zabka-melnik.html","1356"
"4","Hospoda","Posezení u Milouše","https://www.firmy.cz/detail/13010509-posezeni-u-milouse-melnik.html","1969"
"5","Veterinář","MVDr. Mojmír Dvořák","https://www.firmy.cz/detail/275836-mvdr-mojmir-dvorak-melnik.html","1427"
"6","Bus MHD","Hořín, Brozánky","","71"
"7","Škola","ZŠ a MŠ Hořín","https://www.firmy.cz/detail/358197-zs-a-ms-horin-horin.html","603"
"8","Lékař","MUDr. Kateřina Hartlová, s.r.o.","https://www.firmy.cz/detail/13277035-mudr-katerina-hartlova-melnik.html","1458"
"9","Vlak","Mělník","","2459"
"10","Bankomat","Bankomat České spořitelny","https://www.firmy.cz/detail/593264-bankomat-ceske-sporitelny-melnik.html","1192"
"11","Pošta","Pošta Mělník 1 - Česká pošta, s.p.","https://www.firmy.cz/detail/216775-posta-melnik-1-melnik.html","1350"
"12","Restaurace","U Sv. Václava","https://www.firmy.cz/detail/2316140-u-sv-vaclava-melnik.html","1129"
"13","Obchod","Obchodní centrum u Fajtů","https://www.firmy.cz/detail/414504-obchodni-centrum-u-fajtu-melnik.html","1227"
"14","Lékárna","Lékárna Centrum","https://www.firmy.cz/detail/658684-lekarna-centrum-melnik.html","1375"
"15","Školka","Mateřská škola Hořín, okres Mělník","https://www.firmy.cz/detail/13078628-materska-skola-horin-okres-melnik-horin.html","641"
"16","Sportoviště","Sokol Mělník - Tělocvičná jednota Sokol na Mělníce","https://www.firmy.cz/detail/2128800-sokol-melnik-melnik.html","1273"
