"","facility_type","facility_name","facility_iri","facility_distance"
"0","Cukrárna","Cukrárna Na Pěšině","https://www.firmy.cz/detail/12953017-cukrarna-na-pesine-praha-dolni-chabry.html","614"
"1","Kino","Cinema City Letňany","https://www.firmy.cz/detail/2679833-cinema-city-letnany-praha-letnany.html","3916"
"2","Hřiště","Dětské hřiště K Beranovu","","178"
"3","Večerka","BILLA","https://www.firmy.cz/detail/12955687-billa-praha-dolni-chabry.html","685"
"4","Hospoda","Hospůdka Na zápraží","https://www.firmy.cz/detail/12993678-hospudka-na-zaprazi-praha-kobylisy.html","1138"
"5","Divadlo","DIVOCH","https://www.firmy.cz/detail/13026405-divoch-praha-dolni-chabry.html","684"
"6","Veterinář","Veterinární klinika Sokolníky","https://www.firmy.cz/detail/178895-veterinarni-klinika-sokolniky-praha-kobylisy.html","1493"
"7","Tram","Vozovna Kobylisy","","940"
"8","Obchod","Nákupní centrum ODRA","https://www.firmy.cz/detail/221986-nakupni-centrum-odra-praha-bohnice.html","2085"
"9","Lékař","MUDr. Vladimíra Víznerová","https://www.firmy.cz/detail/390469-mudr-vladimira-viznerova-praha-dolni-chabry.html","324"
"10","Školka","Mateřská škola Beranov","https://www.firmy.cz/detail/13075374-materska-skola-beranov-praha-dolni-chabry.html","141"
"11","Škola","ZŠ Praha-Dolní Chabry","https://www.firmy.cz/detail/356232-zs-praha-dolni-chabry-praha-dolni-chabry.html","637"
"12","Bankomat","Bankomat ČSOB","https://www.firmy.cz/detail/13035416-bankomat-csob-praha-cimice.html","465"
"13","Pošta","Pošta Praha 84 - Česká pošta, s.p.","https://www.firmy.cz/detail/216708-posta-praha-84-praha-dolni-chabry.html","679"
"14","Bus MHD","Počeradská","","284"
"15","Vlak","Praha-Holešovice","","3378"
"16","Restaurace","Bistro Genius","https://www.firmy.cz/detail/12889858-bistro-genius-praha-dolni-chabry.html","357"
"17","Metro","Kobylisy","","1843"
"18","Lékárna","OOVL - L Kbely","https://www.firmy.cz/detail/2663530-oovl-l-kbely-praha-dolni-chabry.html","672"
"19","Sportoviště","SK Dolní Chabry","https://www.firmy.cz/detail/2652363-sk-dolni-chabry-praha-dolni-chabry.html","796"
