"","facility_type","facility_name","facility_iri","facility_distance"
"0","Hřiště","Dětské hřiště Zderadova","https://mapy.cz/zakladni?x=16.6274506131&y=49.1902229956&z=17&source=base&id=2139338","65"
"1","Večerka","Žabka","https://www.firmy.cz/detail/13184090-zabka-brno-trnita.html","133"
"2","Cukrárna","Prostějovská cukrárna, s.r.o.","https://www.firmy.cz/detail/13298394-prostejovska-cukrarna-brno-trnita.html","264"
"3","Veterinář","MVDr. Slavomír Hladík","https://www.firmy.cz/detail/277462-mvdr-slavomir-hladik-brno-cernovice.html","332"
"4","Hospoda","Pivnice U Papáji","https://www.firmy.cz/detail/13111641-pivnice-u-papaji-brno-trnita.html","108"
"5","Divadlo","Divadlo Neslyším","https://www.firmy.cz/detail/406578-divadlo-neslysim-brno-zabrdovice.html","1017"
"6","Přírodní zajímavost","Cesta rákosím","https://mapy.cz/zakladni?x=16.6729975&y=49.2165883333&z=17&source=base&id=2112597","4446"
"7","Kino","5D cinema Maxim","https://www.firmy.cz/detail/12734839-5d-cinema-maxim-brno-mesto.html","1041"
"8","Bus MHD","Masná","https://mapy.cz/zakladni?x=16.62604&y=49.190977&z=17&source=pubt&id=15727805","71"
"9","Vlak","Brno-Černovice","https://mapy.cz/zakladni?x=16.6312067531&y=49.1889655555&z=17&source=pubt&id=15698461","372"
"10","Bankomat","Bankomat Komerční banky","https://www.firmy.cz/detail/13229592-bankomat-komercni-banky-brno-trnita.html","401"
"11","Sportoviště","Gym&Joy - squash","https://www.firmy.cz/detail/13248950-gym-joy-squash-brno-trnita.html","470"
"12","Obchod","Albert Hypermarket","https://www.firmy.cz/detail/12922456-albert-hypermarket-brno-trnita.html","875"
"13","Restaurace","Pivnice Masný růžek","https://www.firmy.cz/detail/13264070-pivnice-masny-ruzek-brno-trnita.html","96"
"14","Pošta","Pošta Brno 1 - Česká pošta, s.p.","https://www.firmy.cz/detail/216017-posta-brno-1-brno-mesto.html","1051"
"15","Lékárna","Lékárna Hornmed","https://www.firmy.cz/detail/13137595-lekarna-hornmed-brno-cernovice.html","431"
"16","Škola","Základní škola Didaktis","https://www.firmy.cz/detail/13016960-zakladni-skola-didaktis-brno-trnita.html","368"
"17","Školka","Mateřská škola Didaktis","https://www.firmy.cz/detail/12847931-materska-skola-didaktis-brno-trnita.html","368"
"18","Lékař","MUDr. Libuše Gottvaldová","https://www.firmy.cz/detail/387634-mudr-libuse-gottvaldova-brno-trnita.html","259"
"19","Tram","Masná","https://mapy.cz/zakladni?x=16.6257875071&y=49.1912257291&z=17&source=pubt&id=15205092","104"
