"","facility_type","facility_name","facility_iri","facility_distance"
"0","Cukrárna","Deli by Lagarto","https://www.firmy.cz/detail/13152015-deli-by-lagarto-most.html","350"
"1","Kino","Kino Kosmos","https://www.firmy.cz/detail/401279-kino-kosmos-most.html","1010"
"2","Hřiště","Dětské hřiště M. G. Dobnera","","259"
"3","Večerka","Potraviny Houšková","https://www.firmy.cz/detail/13001803-potraviny-houskova-most.html","231"
"4","Hospoda","Hospůdka U Cibicha","https://www.firmy.cz/detail/12875459-hospudka-u-cibicha-most.html","244"
"5","Divadlo","Městské divadlo v Mostě, spol. s r.o.","https://www.firmy.cz/detail/1336052-mestske-divadlo-v-moste-most.html","568"
"6","Veterinář","VETERINA-MOST","https://www.firmy.cz/detail/12832535-veterina-most-most.html","426"
"7","Lékař","MUDr. Alena Dalecká","https://www.firmy.cz/detail/164738-mudr-alena-dalecka-most.html","156"
"8","Restaurace","Pivnice U Jeptišek","https://www.firmy.cz/detail/13116433-pivnice-u-jeptisek-most.html","137"
"9","Lékárna","Mgr. Jaroslava Němečková, s.r.o.","https://www.firmy.cz/detail/13209831-mgr-jaroslava-nemeckova-most.html","161"
"10","Tram","Most, Obchodní dům PRIOR","","199"
"11","Školka","MŠ Most, Marie Pujmanové","https://www.firmy.cz/detail/2281905-ms-most-marie-pujmanove-most.html","170"
"12","Škola","7. ZŠ Most","https://www.firmy.cz/detail/358326-7-zs-most-most.html","366"
"13","Bus MHD","Most, J.Skupy","","112"
"14","Obchod","PRIOR ČESKÁ REPUBLIKA s.r.o.","https://www.firmy.cz/detail/1957029-prior-ceska-republika-s-r-o-most.html","273"
"15","Sportoviště","2VSYSTEMS","https://www.firmy.cz/detail/2676910-2vsystems-most.html","427"
"16","Bankomat","Bankomat UniCredit Bank Czech Republic","https://www.firmy.cz/detail/12768315-bankomat-unicredit-bank-czech-republic-most.html","137"
"17","Pošta","Pošta Most 1 - Česká pošta, s.p.","https://www.firmy.cz/detail/216966-posta-most-1-most.html","421"
"18","Vlak","Most","","1567"
