"","facility_type","facility_name","facility_iri","facility_distance"
"0","Cukrárna","Kavárna pro všechny Puntík","https://www.firmy.cz/detail/13291980-kavarna-pro-vsechny-puntik-dobris.html","0"
"1","Hřiště","Dětské hřiště Boženy Němcové","","148"
"2","Večerka","Penny Market","https://www.firmy.cz/detail/207850-penny-market-dobris.html","159"
"3","Hospoda","Pivnice Kuklík","https://www.firmy.cz/detail/13118746-pivnice-kuklik-dobris.html","261"
"4","Veterinář","MVDr. Josef Sýkora","https://www.firmy.cz/detail/2124265-mvdr-josef-sykora-dobris.html","41"
"5","Sportoviště","Orel jednota Dobříš","https://www.firmy.cz/detail/1960631-orel-jednota-dobris-dobris.html","234"
"6","Bankomat","Bankomat UniCredit Bank Czech Republic","https://www.firmy.cz/detail/12768080-bankomat-unicredit-bank-czech-republic-dobris.html","84"
"7","Restaurace","Restaurace Na Růžku","https://www.firmy.cz/detail/13143243-restaurace-na-ruzku-dobris.html","30"
"8","Bus MHD","Dobříš, nám.","","180"
"9","Lékárna","LEGE ARTIS","https://www.firmy.cz/detail/658187-lege-artis-dobris.html","307"
"10","Školka","2. MŠ Dobříš","https://www.firmy.cz/detail/2136529-2-ms-dobris-dobris.html","272"
"11","Škola","ZŠ Dobříš, Lidická","https://www.firmy.cz/detail/356856-zs-dobris-lidicka-dobris.html","268"
"12","Lékař","MUDr. Jiřina Kovaříková","https://www.firmy.cz/detail/389187-mudr-jirina-kovarikova-dobris.html","393"
"13","Vlak","Dobříš","","1127"
"14","Pošta","Pošta Dobříš - Česká pošta, s.p.","https://www.firmy.cz/detail/216879-posta-dobris-dobris.html","312"
