"","facility_type","facility_name","facility_iri","facility_distance"
"0","Hřiště","Dětské hřiště Sezemínská","https://mapy.cz/zakladni?x=14.3268233359&y=50.0457619646&z=17&source=base&id=1926717","24"
"1","Večerka","Tesco Supermarket","https://www.firmy.cz/detail/1547451-tesco-supermarket-praha-stodulky.html","295"
"2","Cukrárna","Helen ́s coffee, s.r.o.","https://www.firmy.cz/detail/13196122-helen-s-coffee-praha-stodulky.html","619"
"3","Hospoda","Bernard Pub U Jezera","https://www.firmy.cz/detail/13020276-bernard-pub-u-jezera-praha-stodulky.html","187"
"4","Veterinář","Veterinární klinika Na Hůrce","https://www.firmy.cz/detail/473619-veterinarni-klinika-na-hurce-praha-stodulky.html","1120"
"5","Divadlo","MEZINÁRODNÍ CENTRUM TANCE","https://www.firmy.cz/detail/2465676-mezinarodni-centrum-tance-praha-stodulky.html","768"
"6","Kino","Cinema City Zličín","https://www.firmy.cz/detail/436222-cinema-city-zlicin-praha-trebonice.html","2957"
"7","Přírodní zajímavost","Kovářovic mez","https://mapy.cz/zakladni?x=14.36107759920759&y=50.04395254566995&z=17&source=base&id=2339664","2439"
"8","Školka","Maxíkova jazyková školka a jesle","https://www.firmy.cz/detail/12947492-maxikova-jazykova-skolka-a-jesle-praha-stodulky.html","136"
"9","Lékárna","BENU Lékárna","https://www.firmy.cz/detail/12933395-benu-lekarna-praha-stodulky.html","319"
"10","Vlak","Praha-Řeporyje","https://mapy.cz/zakladni?x=14.30978173483885&y=50.032250840754294&z=17&source=pubt&id=15212576","1958"
"11","Obchod","Obchodní Pasáž Luka Living","https://www.firmy.cz/detail/13206790-obchodni-pasaz-luka-living-praha-stodulky.html","346"
"12","Bus MHD","Luka","https://mapy.cz/zakladni?x=14.3214030567&y=50.0451992988&z=17&source=pubt&id=15301321","412"
"13","Tram","Hlušičkova","https://mapy.cz/zakladni?x=14.315602485022483&y=50.06367730589851&z=17&source=pubt&id=15303218","2137"
"14","Pošta","Česká pošta Praha 54 - Česká pošta, s.p.","https://www.firmy.cz/detail/13030020-ceska-posta-praha-54-praha-stodulky.html","455"
"15","Škola","ZŠ s rozšířenou výukou jazyků Praha 13, Bronzová","https://www.firmy.cz/detail/473664-zs-s-rozsirenou-vyukou-jazyku-praha-13-bronzova-praha-stodulky.html","112"
"16","Lékař","MUDr. Anna Erbenová","https://www.firmy.cz/detail/373112-mudr-anna-erbenova-praha-stodulky.html","205"
"17","Restaurace","Baluka restaurace & gurmánský svět","https://www.firmy.cz/detail/13332098-baluka-restaurace-gurmansky-svet-praha-stodulky.html","347"
"18","Sportoviště","KINGKOM, s.r.o.","https://www.firmy.cz/detail/12776299-kingkom-praha-stodulky.html","352"
"19","Bankomat","Bankomat České spořitelny","https://www.firmy.cz/detail/594886-bankomat-ceske-sporitelny-praha-stodulky.html","279"
"20","Metro","Lužiny","https://mapy.cz/zakladni?x=14.3315259748&y=50.0446554396&z=17&source=pubt&id=15200252","349"
