"","facility_type","facility_name","facility_iri","facility_distance"
"0","Cukrárna","Pekařství a kavárna DéKáčko","https://www.firmy.cz/detail/13152270-pekarstvi-a-kavarna-dekacko-ceske-budejovice-2.html","796"
"1","Kino","CineStar České Budějovice","https://www.firmy.cz/detail/604502-cinestar-ceske-budejovice-ceske-budejovice-2.html","826"
"2","Hřiště","Dětské hřiště","","286"
"3","Večerka","Večerka Dlouhá","https://www.firmy.cz/detail/13281891-vecerka-dlouha-ceske-budejovice-2.html","291"
"4","Hospoda","Klub malých pivovarů","https://www.firmy.cz/detail/12821224-klub-malych-pivovaru-ceske-budejovice-2.html","717"
"5","Divadlo","Jihočeské divadlo - Malé divadlo","https://www.firmy.cz/detail/2351551-jihoceske-divadlo-male-divadlo-ceske-budejovice-1.html","2239"
"6","Veterinář","MVDr. Ladislav Lapáček","https://www.firmy.cz/detail/202036-mvdr-ladislav-lapacek-ceske-budejovice-2.html","657"
"7","Lékař","MUDr. Věra Boušková","https://www.firmy.cz/detail/386209-mudr-vera-bouskova-ceske-budejovice-2.html","164"
"8","Pošta","Pošta České Budějovice 11 - Česká pošta, s.p.","https://www.firmy.cz/detail/215233-posta-ceske-budejovice-11-ceske-budejovice-2.html","417"
"9","Školka","MŠ České Budějovice, Františka Ondříčka","https://www.firmy.cz/detail/2581201-ms-ceske-budejovice-frantiska-ondricka-ceske-budejovice-2.html","205"
"10","Bankomat","Bankomat České spořitelny","https://www.firmy.cz/detail/2288976-bankomat-ceske-sporitelny-ceske-budejovice-2.html","661"
"11","Obchod","Tesco","https://www.firmy.cz/detail/429292-tesco-ceske-budejovice-2.html","683"
"12","Bus MHD","U Výměníku","","168"
"13","Lékárna","Lékárna Zahradní","https://www.firmy.cz/detail/1776602-lekarna-zahradni-ceske-budejovice-2.html","580"
"14","Restaurace","Bistro Magdalene","https://www.firmy.cz/detail/12834277-bistro-magdalene-ceske-budejovice-2.html","428"
"15","Vlak","České Budějovice severní zastávka","","2253"
"16","Sportoviště","Hokejová akademie Jaroslava Pouzara","https://www.firmy.cz/detail/479753-hokejova-akademie-jaroslava-pouzara-ceske-budejovice-2.html","427"
"17","Škola","ZŠ České Budějovice, O. Nedbala","https://www.firmy.cz/detail/356744-zs-ceske-budejovice-o-nedbala-ceske-budejovice-2.html","330"
