"","facility_type","facility_name","facility_iri","facility_distance"
"0","Cukrárna","Pekařství a kavárna DéKáčko","https://www.firmy.cz/detail/12890208-pekarstvi-a-kavarna-dekacko-ceske-budejovice-6.html","340"
"1","Kino","Kino Kotva","https://www.firmy.cz/detail/2525705-kino-kotva-ceske-budejovice-7.html","1356"
"2","Hřiště","Dětské hřiště","","484"
"3","Večerka","PONT Market","https://www.firmy.cz/detail/13102643-pont-market-ceske-budejovice-6.html","363"
"4","Hospoda","Pivnice Paluba","https://www.firmy.cz/detail/13134427-pivnice-paluba-ceske-budejovice-6.html","362"
"5","Divadlo","SUD - studentské universitní divadlo","https://www.firmy.cz/detail/661256-sud-studentske-universitni-divadlo-ceske-budejovice-1.html","1209"
"6","Veterinář","MVDr. Dana Čermáková","https://www.firmy.cz/detail/256096-mvdr-dana-cermakova-ceske-budejovice-5.html","899"
"7","Restaurace","KFC","https://www.firmy.cz/detail/13023539-kfc-ceske-budejovice-6.html","349"
"8","Lékař","MUDr. Jan Tuna","https://www.firmy.cz/detail/2621704-mudr-jan-tuna-ceske-budejovice-6.html","212"
"9","Bus MHD","Pětidomí","","130"
"10","Vlak","České Budějovice","","347"
"11","Obchod","DOC Mercury, a.s.","https://www.firmy.cz/detail/13307767-doc-mercury-ceske-budejovice-6.html","353"
"12","Pošta","Pošta České Budějovice 2 - Česká pošta, s.p.","https://www.firmy.cz/detail/215225-posta-ceske-budejovice-2-ceske-budejovice-6.html","478"
"13","Škola","Centrum BAZALKA - Základní škola speciální a Mateřská škola speciální, o.p.s.","https://www.firmy.cz/detail/2429944-centrum-bazalka-zakladni-skola-specialni-a-materska-skola-specialni-ceske-budejovice-4.html","559"
"14","Bankomat","Bankomat ČSOB","https://www.firmy.cz/detail/12966216-bankomat-csob-ceske-budejovice-6.html","333"
"15","Sportoviště","Tenisový kurt Sokolský ostrov","https://www.firmy.cz/detail/13245154-tenisovy-kurt-sokolsky-ostrov-ceske-budejovice.html","1549"
"16","Lékárna","Teta lékárna","https://www.firmy.cz/detail/13204254-teta-lekarna-ceske-budejovice-6.html","386"
"17","Školka","Mateřská školka FORMELO s.r.o.","https://www.firmy.cz/detail/12816883-materska-skolka-formelo-s-r-o-ceske-budejovice-4.html","409"
