"","facility_type","facility_name","facility_iri","facility_distance"
"0","Cukrárna","Kavárna Viola","https://www.firmy.cz/detail/12915023-kavarna-viola-podebrady-iii.html","219"
"1","Kino","Zámecký biograf","https://www.firmy.cz/detail/2697562-zamecky-biograf-podebrady-i.html","549"
"2","Hřiště","Dětské hřiště u Žižkova pramene","","472"
"3","Večerka","JEDNOTA, spotřební družstvo v Nymburce - COOP","https://www.firmy.cz/detail/726889-jednota-spotrebni-druzstvo-v-nymburce-coop-podebrady-iii.html","258"
"4","Hospoda","Pivnice U Čiháků","https://www.firmy.cz/detail/13085939-pivnice-u-cihaku-podebrady-iii.html","215"
"5","Divadlo","Divadlo Na Kovárně","https://www.firmy.cz/detail/2697557-divadlo-na-kovarne-podebrady-i.html","498"
"6","Veterinář","Veterinární lékař MVDr. Jan Bartoněk","https://www.firmy.cz/detail/273418-veterinarni-lekar-mvdr-jan-bartonek-podebrady-iii.html","541"
"7","Restaurace","la MAMMA Cucina","https://www.firmy.cz/detail/13154710-la-mamma-cucina-podebrady-iii.html","106"
"8","Sportoviště","Monika Sobotková","https://www.firmy.cz/detail/412261-monika-sobotkova-podebrady-iii.html","83"
"9","Vlak","Poděbrady","","413"
"10","Škola","ZŠ a MŠ při Léčebně dr. L. Filipa","https://www.firmy.cz/detail/13063535-zs-a-ms-pri-lecebne-dr-l-filipa-podebrady-ii.html","252"
"11","Lékař","Medicentrum Amadeus, s.r.o.","https://www.firmy.cz/detail/12740501-medicentrum-amadeus-podebrady-iii.html","121"
"12","Obchod","Tesco","https://www.firmy.cz/detail/12750637-tesco-podebrady-kluk.html","2150"
"13","Pošta","Pošta Poděbrady 1 - Česká pošta, s.p.","https://www.firmy.cz/detail/1357087-posta-podebrady-1-podebrady-iii.html","288"
"14","Školka","MŠ Poděbrady, Proftova","https://www.firmy.cz/detail/2622624-ms-podebrady-proftova-podebrady-iii.html","162"
"15","Lékárna","Dr.Max","https://www.firmy.cz/detail/2646474-dr-max-podebrady-iii.html","304"
"16","Bankomat","Bankomat UniCredit Bank Czech Republic","https://www.firmy.cz/detail/12768076-bankomat-unicredit-bank-czech-republic-podebrady-iii.html","210"
"17","Bus MHD","Poděbrady, žel.st.","","285"
