"","facility_type","facility_name","facility_iri","facility_distance"
"0","Cukrárna","CrossCafe Gočárova","https://www.firmy.cz/detail/13273636-crosscafe-gocarova-hradec-kralove.html","395"
"1","Kino","Bio Central","https://www.firmy.cz/detail/12816930-bio-central-hradec-kralove.html","705"
"2","Přírodní zajímavost","Slepé rameno Orlice u loděnice","","3531"
"3","Hřiště","Dětské hřiště Pražské Předměstí","","216"
"4","Večerka","Víno Kovacs, s.r.o.","https://www.firmy.cz/detail/2356939-vino-kovacs-hradec-kralove-prazske-predmesti.html","180"
"5","Hospoda","U Žoldnéře","https://www.firmy.cz/detail/13243873-u-zoldnere-hradec-kralove-prazske-predmesti.html","128"
"6","Divadlo","Zora Ulbertová","https://www.firmy.cz/detail/657739-zora-ulbertova-hradec-kralove-prazske-predmesti.html","574"
"7","Veterinář","Canine Centrum - Rehabilitace a fyzioterapie malých zvířat","https://www.firmy.cz/detail/13103220-canine-centrum-rehabilitace-a-fyzioterapie-malych-zvirat-hradec-kralove-kukleny.html","799"
"8","Bankomat","Bankomat Sberbank CZ","https://www.firmy.cz/detail/658896-bankomat-sberbank-cz-hradec-kralove.html","353"
"9","Lékárna","Lékárna V Lipkách","https://www.firmy.cz/detail/376135-lekarna-v-lipkach-hradec-kralove.html","302"
"10","Restaurace","Čínská restaurace Avion","https://www.firmy.cz/detail/2671411-cinska-restaurace-avion-hradec-kralove-prazske-predmesti.html","255"
"11","Obchod","AUPARK Hradec Králové, s.r.o.","https://www.firmy.cz/detail/13342517-aupark-hradec-kralove-hradec-kralove-prazske-predmesti.html","385"
"12","Škola","Mateřská škola, základní škola a střední škola Daneta, s.r.o.","https://www.firmy.cz/detail/647961-materska-skola-zakladni-skola-a-stredni-skola-daneta-s-r-o-hradec-kralove-prazske-predmesti.html","82"
"13","Sportoviště","Fly zone park s.r.o.","https://www.firmy.cz/detail/13091340-fly-zone-park-s-r-o-hradec-kralove-prazske-predmesti.html","445"
"14","Školka","MŠ Hradec Králové, Kampanova","https://www.firmy.cz/detail/1555339-ms-hradec-kralove-kampanova-hradec-kralove-prazske-predmesti.html","504"
"15","Lékař","Mudr Eva Špačková s.r.o.","https://www.firmy.cz/detail/12899913-mudr-eva-spackova-s-r-o-hradec-kralove.html","206"
"16","Bus MHD","Gočárova třída","","215"
"17","Pošta","Pošta Hradec Králové 5 - Česká pošta, s.p.","https://www.firmy.cz/detail/217221-posta-hradec-kralove-5-hradec-kralove-prazske-predmesti.html","357"
"18","Vlak","Hradec Králové hlavní nádraží","","644"
