"","facility_type","facility_name","facility_iri","facility_distance"
"0","Hřiště","Dětské hřiště Národní","https://mapy.cz/zakladni?x=14.6246702778&y=50.9091947222&z=17&source=base&id=2081487","603"
"1","Večerka","Lidl","https://www.firmy.cz/detail/2374505-lidl-varnsdorf.html","109"
"2","Hospoda","Pivnice Saigon","https://www.firmy.cz/detail/13122007-pivnice-saigon-varnsdorf.html","203"
"3","Kino","Centrum Panorama","https://www.firmy.cz/detail/674750-centrum-panorama-varnsdorf.html","955"
"4","Veterinář","MVDr. Václav Žáček","https://www.firmy.cz/detail/2477946-mvdr-vaclav-zacek-varnsdorf.html","727"
"5","Divadlo","Městské divadlo Varnsdorf","https://www.firmy.cz/detail/2365375-mestske-divadlo-varnsdorf-varnsdorf.html","1130"
"6","Cukrárna","Café Dlask","https://www.firmy.cz/detail/577111-cafe-dlask-varnsdorf.html","701"
"7","Škola","Vyšší odborná škola, Střední průmyslová škola a Střední odborná škola, Varnsdorf,  p.o.","https://www.firmy.cz/detail/12792491-vyssi-odborna-skola-stredni-prumyslova-skola-a-stredni-odborna-skola-varnsdorf-p-o-varnsdorf.html","149"
"8","Vlak","Varnsdorf staré nádr.","https://mapy.cz/zakladni?x=14.6125570536443&y=50.9094499176753&z=17&source=pubt&id=15698411","455"
"9","Lékař","MUDr. Jiří  Flusek","https://www.firmy.cz/detail/387750-mudr-jiri-flusek-varnsdorf.html","64"
"10","Sportoviště","Město Varnsdorf - Volejbal","https://www.firmy.cz/detail/13076467-mesto-varnsdorf-volejbal-varnsdorf.html","321"
"11","Bankomat","Bankomat ČSOB","https://www.firmy.cz/detail/1443741-bankomat-csob-varnsdorf.html","96"
"12","Lékárna","Tercia","https://www.firmy.cz/detail/421540-tercia-varnsdorf.html","118"
"13","Obchod","Albert Hypermarket","https://www.firmy.cz/detail/1357323-albert-hypermarket-varnsdorf.html","512"
"14","Restaurace","Restaurace & Pizzerie Kristiano","https://www.firmy.cz/detail/13107449-restaurace-pizzerie-kristiano-varnsdorf.html","123"
"15","Bus MHD","Varnsdorf, Horská","https://mapy.cz/zakladni?x=14.619602118256&y=50.9042106648035&z=17&source=pubt&id=15240389","313"
"16","Školka","MŠ Varnsdorf, Pražská","https://www.firmy.cz/detail/1995927-ms-varnsdorf-prazska-varnsdorf.html","194"
"17","Pošta","Pošta Varnsdorf 1 - Česká pošta, s.p.","https://www.firmy.cz/detail/215406-posta-varnsdorf-1-varnsdorf.html","747"
