"","facility_type","facility_name","facility_iri","facility_distance"
"0","Cukrárna","MaMa's Caffé","https://www.firmy.cz/detail/13155978-mama-s-caffe-plzen-vychodni-predmesti.html","344"
"1","Kino","Kino Beseda","https://www.firmy.cz/detail/12773769-kino-beseda-plzen-jizni-predmesti.html","1396"
"2","Hřiště","Dětské hřiště Zahradní","","177"
"3","Večerka","Potraviny za pár kaček - Petr Ziegler","https://www.firmy.cz/detail/12958976-potraviny-za-par-kacek-plzen-vychodni-predmesti.html","21"
"4","Divadlo","Divadlo pod lampou, o.p.s.","https://www.firmy.cz/detail/2418226-divadlo-pod-lampou-plzen-jizni-predmesti.html","1519"
"5","Hospoda","Hemingway Pub","https://www.firmy.cz/detail/2456163-hemingway-pub-plzen-vychodni-predmesti.html","324"
"6","Veterinář","Veterinární ordinace Slovany","https://www.firmy.cz/detail/470912-veterinarni-ordinace-slovany-plzen-vychodni-predmesti.html","401"
"7","Tram","Jedlová","","22"
"8","Škola","Masarykova ZŠ Plzeň","https://www.firmy.cz/detail/356112-masarykova-zs-plzen-plzen-vychodni-predmesti.html","197"
"9","Restaurace","Pomodori","https://www.firmy.cz/detail/13241033-pomodori-plzen-vychodni-predmesti.html","148"
"10","Lékárna","Na Slovanské","https://www.firmy.cz/detail/376043-na-slovanske-plzen-vychodni-predmesti.html","171"
"11","Obchod","Galerie Slovany, s.r.o.","https://www.firmy.cz/detail/2301407-galerie-slovany-plzen-vychodni-predmesti.html","868"
"12","Sportoviště","Bowling U Papírny","https://www.firmy.cz/detail/2418837-bowling-u-papirny-plzen-vychodni-predmesti.html","285"
"13","Pošta","Pošta Plzeň 8 - Česká pošta, s.p.","https://www.firmy.cz/detail/216660-posta-plzen-8-plzen-vychodni-predmesti.html","410"
"14","Bus MHD","U Duhy","","501"
"15","Vlak","Plzeň hlavní nádraží","","913"
"16","Bankomat","Bankomat České spořitelny","https://www.firmy.cz/detail/593970-bankomat-ceske-sporitelny-plzen-vychodni-predmesti.html","482"
"17","Lékař","MUDr. Kopřivová s.r.o.","https://www.firmy.cz/detail/12840477-mudr-koprivova-s-r-o-plzen-vychodni-predmesti.html","1"
"18","Školka","89. mateřská škola Plzeň, Habrová 8","https://www.firmy.cz/detail/1345329-89-materska-skola-plzen-habrova-8-plzen-vychodni-predmesti.html","380"
