"","facility_type","facility_name","facility_iri","facility_distance"
"0","Hřiště","Dětské hřiště Vratěnín","","333"
"1","Večerka","Flop","https://www.firmy.cz/detail/2604273-flop-vratenin.html","147"
"2","Veterinář","MVDr. Vojtěch Frkal","https://www.firmy.cz/detail/477109-mvdr-vojtech-frkal-uhercice.html","2372"
"3","Bus MHD","Vratěnín","","27"
"4","Restaurace","Restaurace Na Kolářce","https://www.firmy.cz/detail/13286998-restaurace-na-kolarce-uhercice.html","2880"
"5","Pošta","Pošta Vratěnín - Česká pošta, s.p.","https://www.firmy.cz/detail/216364-posta-vratenin-vratenin.html","64"
"6","Sportoviště","Golfclub Thayatal-Drosendorf","","3196"
"7","Lékárna","Zum Erlöser","","4295"
"8","Vlak","Drosendorf","","4828"
"9","Škola","ZŠ Lubnice","https://www.firmy.cz/detail/359812-zs-lubnice-lubnice.html","4398"
"10","Školka","Mateřská škola, Uherčice, okres Znojmo","https://www.firmy.cz/detail/2369826-materska-skola-uhercice-okres-znojmo-uhercice.html","2597"
