"","facility_type","facility_name","facility_iri","facility_distance"
"0","Hřiště","Dětské hřiště Pod Nouzovem","https://mapy.cz/zakladni?x=14.5497041485&y=50.1392805556&z=17&source=base&id=1926923","150"
"1","Divadlo","Divadlo Pohádka","https://www.firmy.cz/detail/636143-divadlo-pohadka-praha-letnany.html","3617"
"2","Hospoda","Pivnice U Marešů","https://www.firmy.cz/detail/13118950-pivnice-u-maresu-praha-kbely.html","789"
"3","Večerka","Můjobchod - Potraviny Katusická","https://www.firmy.cz/detail/13162832-mujobchod-potraviny-katusicka-praha.html","553"
"4","Cukrárna","Cukrárna Avanti","https://www.firmy.cz/detail/2332636-cukrarna-avanti-praha-kbely.html","1050"
"5","Veterinář","MVDr. Ondřej Čapek","https://www.firmy.cz/detail/634744-mvdr-ondrej-capek-praha-kbely.html","610"
"6","Kino","Cinema City Letňany","https://www.firmy.cz/detail/2679833-cinema-city-letnany-praha-letnany.html","3246"
"7","Vlak","Praha-Kbely","https://mapy.cz/zakladni?x=14.55582306945507&y=50.13482516104943&z=17&source=pubt&id=15698516","809"
"8","Bus MHD","Zamašská","https://mapy.cz/zakladni?x=14.5469305842&y=50.1403137337&z=17&source=pubt&id=15304270","85"
"9","Školka","Lesní klub CESTIČKA Kbely","https://www.firmy.cz/detail/12762354-lesni-klub-cesticka-kbely-praha-kbely.html","482"
"10","Bankomat","Bankomat České spořitelny","https://www.firmy.cz/detail/595011-bankomat-ceske-sporitelny-praha-kbely.html","609"
"11","Lékař","MUDr. Petr Bouzek","https://www.firmy.cz/detail/2512276-mudr-petr-bouzek-praha-kbely.html","664"
"12","Sportoviště","SK WADO-KAI Kbely o.s.","https://www.firmy.cz/detail/2652485-sk-wado-kai-kbely-o-s-praha-kbely.html","595"
"13","Lékárna","Lékárna Kbely","https://www.firmy.cz/detail/2617760-lekarna-kbely-praha-kbely.html","838"
"14","Obchod","IMPERA obchodní centrum","https://www.firmy.cz/detail/13323703-impera-obchodni-centrum-praha.html","2549"
"15","Metro","Letňany","https://mapy.cz/zakladni?x=14.5168495445&y=50.1252046063798&z=17&source=pubt&id=15200286","2779"
"16","Škola","ZŠ Praha 9, Albrechtická","https://www.firmy.cz/detail/359020-zs-praha-9-albrechticka-praha-kbely.html","670"
"17","Restaurace","Restaurace Delta - KETER, s.r.o.","https://www.firmy.cz/detail/13149045-restaurace-delta-praha-kbely.html","558"
"18","Pošta","Pošta Praha 97 - Česká pošta, s.p.","https://www.firmy.cz/detail/216697-posta-praha-97-praha-kbely.html","661"
"19","Tram","Nový Hloubětín","https://mapy.cz/zakladni?x=14.52819&y=50.10986&z=17&source=pubt&id=17090444","3655"
