"","facility_type","facility_name","facility_iri","facility_distance"
"0","Cukrárna","Level One","https://www.firmy.cz/detail/12828315-level-one-jablonec-nad-nisou.html","736"
"1","Kino","Kino Junior","https://www.firmy.cz/detail/13333340-kino-junior-jablonec-nad-nisou.html","702"
"2","Hřiště","Dětské hřiště Tyršovy sady","","390"
"3","Večerka","Potraviny Nová Pasířská 	4118/1","https://www.firmy.cz/detail/13055460-potraviny-nova-pasirska-4118-1-jablonec-nad-nisou.html","490"
"4","Hospoda","Pivnice Pod lampou","https://www.firmy.cz/detail/13111455-pivnice-pod-lampou-jablonec-nad-nisou.html","777"
"5","Divadlo","Městské divadlo Jablonec nad Nisou, o.p.s.","https://www.firmy.cz/detail/396944-mestske-divadlo-jablonec-nad-nisou-jablonec-nad-nisou.html","719"
"6","Veterinář","MVDr. Jaromír BAUDYŠ - veterinární ošetřovna","https://www.firmy.cz/detail/2118786-mvdr-jaromir-baudys-veterinarni-osetrovna-jablonec-nad-nisou.html","678"
"7","Bankomat","Bankomat ČSOB","https://www.firmy.cz/detail/12768489-bankomat-csob-jablonec-nad-nisou.html","613"
"8","Restaurace","Bistro VEGIT-POINT","https://www.firmy.cz/detail/13183716-bistro-vegit-point-jablonec-nad-nisou.html","147"
"9","Školka","MŠ Jablonec nad Nisou, Střelecká","https://www.firmy.cz/detail/2549217-ms-jablonec-nad-nisou-strelecka-jablonec-nad-nisou.html","48"
"10","Vlak","Jablonec nad Nisou","","431"
"11","Bus MHD","Turnovská","","188"
"12","Obchod","Nákupní centrum VENDO PARK","https://www.firmy.cz/detail/13261999-nakupni-centrum-vendo-park-jablonec-nad-nisou.html","469"
"13","Lékárna","BENU Lékárna","https://www.firmy.cz/detail/12847639-benu-lekarna-jablonec-nad-nisou.html","288"
"14","Škola","ZŠ Jablonec nad Nisou, Pivovarská","https://www.firmy.cz/detail/357445-zs-jablonec-nad-nisou-pivovarska-jablonec-nad-nisou.html","233"
"15","Sportoviště","Superfitness","https://www.firmy.cz/detail/13088222-superfitness-jablonec-nad-nisou.html","378"
"16","Lékař","MUDr. ŠNAJDR, s.r.o.","https://www.firmy.cz/detail/13295791-mudr-snajdr-jablonec-nad-nisou.html","308"
"17","Tram","Vratislavice nad Nisou, výhybna","","5094"
"18","Pošta","Pošta Jablonec nad Nisou 1 - Česká pošta, s.p.","https://www.firmy.cz/detail/215524-posta-jablonec-nad-nisou-1-jablonec-nad-nisou.html","775"
