"","facility_type","facility_name","facility_iri","facility_distance"
"0","Cukrárna","Cukrárna Mocca","https://www.firmy.cz/detail/13300588-cukrarna-mocca-most.html","291"
"1","Kino","Kino Kosmos","https://www.firmy.cz/detail/401279-kino-kosmos-most.html","1856"
"2","Hřiště","Dětské hřiště U Stadionu","","383"
"3","Večerka","BILLA","https://www.firmy.cz/detail/437708-billa-most.html","232"
"4","Hospoda","Restaurace Irish Pub","https://www.firmy.cz/detail/13302390-restaurace-irish-pub-most.html","413"
"5","Divadlo","Městské divadlo v Mostě, spol. s r.o.","https://www.firmy.cz/detail/1336052-mestske-divadlo-v-moste-most.html","1347"
"6","Veterinář","VeterinaMost, s.r.o.","https://www.firmy.cz/detail/13175144-veterinamost-most.html","900"
"7","Tram","Most, Zimní stadion","","127"
"8","Lékárna","Dr. Max LÉKÁRNA","https://www.firmy.cz/detail/2007246-dr-max-lekarna-most.html","347"
"9","Restaurace","El Toro Most","https://www.firmy.cz/detail/13185370-el-toro-most-most.html","289"
"10","Školka","MŠ Most, Antonína Dvořáka","https://www.firmy.cz/detail/2281897-ms-most-antonina-dvoraka-most.html","505"
"11","Sportoviště","SPORTOVNÍ HALA MOST, a.s.","https://www.firmy.cz/detail/2282639-sportovni-hala-most-most.html","458"
"12","Vlak","Most","","1065"
"13","Obchod","Kaufland","https://www.firmy.cz/detail/1452577-kaufland-most.html","291"
"14","Škola","Podkrušnohorské gymnázium, Most","https://www.firmy.cz/detail/362149-podkrusnohorske-gymnazium-most-most.html","496"
"15","Pošta","Pošta Most 6 - Česká pošta, s.p.","https://www.firmy.cz/detail/215390-posta-most-6-most.html","686"
"16","Lékař","MEDIFA Radka Válková s.r.o.","https://www.firmy.cz/detail/13204945-medifa-radka-valkova-s-r-o-most.html","426"
"17","Bankomat","Bankomat ČSOB","https://www.firmy.cz/detail/597366-bankomat-csob-most.html","222"
"18","Bus MHD","Most, Zimní stadion","","257"
