"","facility_type","facility_name","facility_iri","facility_distance"
"0","Cukrárna","OVOCNÝ SVĚTOZOR","https://www.firmy.cz/detail/13309948-ovocny-svetozor-cestlice.html","1919"
"1","Kino","Cinema City Chodov","https://www.firmy.cz/detail/13098016-cinema-city-chodov-praha-chodov.html","4585"
"2","Hřiště","Dětské hřiště u tenisového klubu","","164"
"3","Večerka","Potraviny Formanská","https://www.firmy.cz/detail/13335349-potraviny-formanska-praha-ujezd-u-pruhonic.html","216"
"4","Hospoda","U 2 dubů","https://www.firmy.cz/detail/13016552-u-2-dubu-praha-kreslice.html","1887"
"5","Divadlo","SKAZKA, spol. s r.o.","https://www.firmy.cz/detail/2048564-skazka-praha-hostivar.html","4267"
"6","Veterinář","Veterinární klinika Průhonice - MVDr. Vítězslav Motl","https://www.firmy.cz/detail/402408-veterinarni-klinika-pruhonice-mvdr-vitezslav-motl-pruhonice.html","1975"
"7","Sportoviště","SK Újezd Praha 4, z.s.","https://www.firmy.cz/detail/12906236-sk-ujezd-praha-4-z-s-praha-ujezd.html","227"
"8","Bus MHD","Újezd u Průhonic","","182"
"9","Školka","MŠ Formanská","https://www.firmy.cz/detail/12997874-ms-formanska-praha.html","637"
"10","Vlak","Praha-Uhříněves","","4066"
"11","Bankomat","Bankomat ČSOB","https://www.firmy.cz/detail/12774857-bankomat-csob-pruhonice.html","1399"
"12","Lékárna","OOVL - L U Bílého lva Jarov","https://www.firmy.cz/detail/13103498-oovl-l-u-bileho-lva-jarov-pruhonice.html","1461"
"13","Škola","Základní školy Formanská, příspěvková organizace","https://www.firmy.cz/detail/13231400-zakladni-skoly-formanska-prispevkova-organizace-praha-ujezd-u-pruhonic.html","649"
"14","Obchod","OC Spektrum","https://www.firmy.cz/detail/592572-oc-spektrum-cestlice.html","1919"
"15","Metro","Háje","","2611"
"16","Lékař","MUDr. Lubomír Ondráček","https://www.firmy.cz/detail/387682-mudr-lubomir-ondracek-pruhonice.html","1436"
"17","Pošta","Pošta Průhonice - Česká pošta, s.p.","https://www.firmy.cz/detail/431703-posta-pruhonice-pruhonice.html","1530"
"18","Restaurace","Hospůdka U Vendyse","https://www.firmy.cz/detail/13099735-hospudka-u-vendyse-praha-ujezd-u-pruhonic.html","224"
