"","facility_type","facility_name","facility_iri","facility_distance"
"0","Cukrárna","Zmrzlina Štarnov","https://www.firmy.cz/detail/2158863-zmrzlina-starnov-starnov.html","3006"
"1","Kino","Kino Bohuňovice","https://www.firmy.cz/detail/12839783-kino-bohunovice-bohunovice.html","496"
"2","Hřiště","Dětské hřiště Pod Lipami","","257"
"3","Večerka","HRUŠKA","https://www.firmy.cz/detail/13201422-hruska-bohunovice.html","109"
"4","Hospoda","Sport Klub","https://www.firmy.cz/detail/13192805-sport-klub-bohunovice.html","293"
"5","Veterinář","MVDr. Jan Horký","https://www.firmy.cz/detail/1971135-mvdr-jan-horky-dolany.html","4149"
"6","Vlak","Bohuňovice","","281"
"7","Restaurace","Restaurace U Borovice","https://www.firmy.cz/detail/13117408-restaurace-u-borovice-bohunovice.html","0"
"8","Sportoviště","Tělovýchovná jednota Sokol Bohuňovice","https://www.firmy.cz/detail/1326141-telovychovna-jednota-sokol-bohunovice-bohunovice.html","209"
"9","Škola","ZŠ a MŠ Bohuňovice","https://www.firmy.cz/detail/356409-zs-a-ms-bohunovice-bohunovice.html","387"
"10","Školka","ZŠ a MŠ Bohuňovice","https://www.firmy.cz/detail/725468-zs-a-ms-bohunovice-bohunovice.html","305"
"11","Pošta","Pošta Bohuňovice - Česká pošta, s.p.","https://www.firmy.cz/detail/432318-posta-bohunovice-bohunovice.html","507"
"12","Lékař","MUDr. Jitka Pírková","https://www.firmy.cz/detail/390389-mudr-jitka-pirkova-bohunovice.html","252"
"13","Bus MHD","Bohuňovice","","242"
"14","Lékárna","Na středisku","https://www.firmy.cz/detail/421954-na-stredisku-bohunovice.html","639"
"15","Bankomat","Bankomat České spořitelny","https://www.firmy.cz/detail/2280648-bankomat-ceske-sporitelny-bohunovice.html","171"
