"","facility_type","facility_name","facility_iri","facility_distance"
"0","Hřiště","Dětské hřiště Třískalova","https://mapy.cz/zakladni?x=16.6173644613&y=49.2249467758&z=17&source=base&id=2138273","289"
"1","Přírodní zajímavost","Přírodní zahrada U Smrku","https://mapy.cz/zakladni?x=16.58765420430356&y=49.22807918152045&z=17&source=base&id=2324158","2040"
"2","Večerka","Albert Supermarket","https://www.firmy.cz/detail/446708-albert-supermarket-brno-lesna.html","702"
"3","Veterinář","Veterina Lesná","https://www.firmy.cz/detail/12712122-veterina-lesna-brno-lesna.html","1219"
"4","Hospoda","Hospůdka U Koudelků","https://www.firmy.cz/detail/13112301-hospudka-u-koudelku-brno-lesna.html","895"
"5","Cukrárna","CUKRÁRNA DIAM","https://www.firmy.cz/detail/2585030-cukrarna-diam-brno-lesna.html","1078"
"6","Divadlo","Kuk & Cuk","https://www.firmy.cz/detail/2569671-kuk-cuk-brno-lesna.html","1001"
"7","Kino","Kino Art","https://www.firmy.cz/detail/451540-kino-art-brno-veveri.html","2708"
"8","Školka","MŠ Slavíčkova, Brno","https://www.firmy.cz/detail/407212-ms-slavickova-brno-brno-lesna.html","404"
"9","Bankomat","Bankomat Air Bank","https://www.firmy.cz/detail/13286049-bankomat-air-bank-brno-lesna.html","702"
"10","Tram","Čertova rokle","https://mapy.cz/zakladni?x=16.6228964096&y=49.2263950543&z=17&source=pubt&id=15205386","531"
"11","Lékař","MUDr. Bronislava Karasová","https://www.firmy.cz/detail/386464-mudr-bronislava-karasova-brno-kralovo-pole.html","460"
"12","Vlak","Brno-Lesná","https://mapy.cz/zakladni?x=16.6264546944&y=49.22077435&z=17&source=pubt&id=15698556","1066"
"13","Sportoviště","Discgolf Milénova","https://mapy.cz/zakladni?x=16.6221233333&y=49.2298422222&z=17&source=base&id=1982481","543"
"14","Škola","Střední škola pro tělesně postižené GEMINI, Brno","https://www.firmy.cz/detail/362015-stredni-skola-pro-telesne-postizene-gemini-brno-brno-lesna.html","429"
"15","Bus MHD","Fillova","https://mapy.cz/zakladni?x=16.616838167485&y=49.2290978023949&z=17&source=pubt&id=15205389","214"
"16","Restaurace","U Divošky","https://www.firmy.cz/detail/13188911-u-divosky-brno-lesna.html","178"
"17","Obchod","Nákupní centrum Královo Pole","https://www.firmy.cz/detail/671101-nakupni-centrum-kralovo-pole-brno-ponava.html","1270"
"18","Lékárna","Dr. Max","https://www.firmy.cz/detail/13275130-dr-max-brno-lesna.html","624"
"19","Pošta","Pošta Brno 38 - Česká pošta, s.p.","https://www.firmy.cz/detail/431946-posta-brno-38-brno-lesna.html","976"
