"","facility_type","facility_name","facility_iri","facility_distance"
"0","Cukrárna","Zámecká Cukrárna","https://www.firmy.cz/detail/13143000-zamecka-cukrarna-frydek-mistek-frydek.html","1449"
"1","Kino","5D cinema Maxim","https://www.firmy.cz/detail/12950607-5d-cinema-maxim-frydek-mistek-frydek.html","1757"
"2","Přírodní zajímavost","Bludné balvany ve Frýdeckém lese","","1237"
"3","Hřiště","Dětské hřiště Třanovského","","554"
"4","Večerka","Inva potraviny 64","https://www.firmy.cz/detail/12901773-inva-potraviny-64-frydek-mistek-frydek.html","723"
"5","Hospoda","Hospůdka U Soudku","https://www.firmy.cz/detail/13081541-hospudka-u-soudku-frydek-mistek-frydek.html","502"
"6","Divadlo","Divadlo Čtyřlístek","https://www.firmy.cz/detail/661532-divadlo-ctyrlistek-frydek-mistek-frydek.html","1139"
"7","Veterinář","AlfaVet","https://www.firmy.cz/detail/13188059-alfavet-frydek-mistek-frydek.html","414"
"8","Škola","Gymnázium a Střední odborná škola, Frýdek-Místek","https://www.firmy.cz/detail/361149-gymnazium-a-stredni-odborna-skola-frydek-mistek-frydek-mistek-frydek.html","700"
"9","Obchod","Paráda Shopping","https://www.firmy.cz/detail/13094517-parada-shopping-frydek-mistek-frydek.html","1186"
"10","Pošta","Pošta Frýdek-Místek 1 - Česká pošta, s.p.","https://www.firmy.cz/detail/215628-posta-frydek-mistek-1-frydek-mistek-frydek.html","1224"
"11","Bankomat","Bankomat ČSOB","https://www.firmy.cz/detail/599372-bankomat-csob-frydek-mistek-frydek.html","1138"
"12","Sportoviště","Orel - Jednota Frýdek-Místek","https://www.firmy.cz/detail/1963199-orel-jednota-frydek-mistek-frydek-mistek-frydek.html","945"
"13","Lékař","MUDr. Jaroslava Horská","https://www.firmy.cz/detail/390520-mudr-jaroslava-horska-frydek-mistek-frydek.html","764"
"14","Lékárna","Lékárna nemocnice","https://www.firmy.cz/detail/421520-lekarna-nemocnice-frydek-mistek-frydek.html","797"
"15","Restaurace","Plackárna U Lichny","https://www.firmy.cz/detail/2201228-plackarna-u-lichny-frydek-mistek-frydek.html","348"
"16","Bus MHD","Frýdek-Místek, Frýdek, Na Vyhlídce","","93"
"17","Vlak","Frýdek-Místek","","1700"
"18","Školka","MŠ Pohádka Frýdek-Místek, Třanovského","https://www.firmy.cz/detail/2333590-ms-pohadka-frydek-mistek-tranovskeho-frydek-mistek-frydek.html","614"
