"","facility_type","facility_name","facility_iri","facility_distance"
"0","Cukrárna","Kavárna Jasmínka","https://www.firmy.cz/detail/13019391-kavarna-jasminka-praha-zabehlice.html","227"
"1","Kino","Multikino - Premiere Cinemas Praha Hostivař","https://www.firmy.cz/detail/12745547-multikino-premiere-cinemas-praha-hostivar-praha-hostivar.html","536"
"2","Přírodní zajímavost","Mokřad Triangl","","1068"
"3","Hřiště","Dětské hřiště Jasmínová","","85"
"4","Večerka","Albert Supermarket","https://www.firmy.cz/detail/209466-albert-supermarket-praha-zabehlice.html","378"
"5","Hospoda","Pivní bar Zvonková","https://www.firmy.cz/detail/13135278-pivni-bar-zvonkova-praha-zabehlice.html","439"
"6","Divadlo","SKAZKA, spol. s r.o.","https://www.firmy.cz/detail/2048564-skazka-praha-hostivar.html","1207"
"7","Veterinář","Veterinární nemocnice AA-Vet","https://www.firmy.cz/detail/173794-veterinarni-nemocnice-aa-vet-praha-zabehlice.html","1076"
"8","Tram","Sídliště Zahradní Město","","408"
"9","Bus MHD","Práčská","","52"
"10","Lékárna","Dr. Max","https://www.firmy.cz/detail/12973160-dr-max-praha-hostivar.html","571"
"11","Pošta","Pošta Praha 107 - Česká pošta, s.p.","https://www.firmy.cz/detail/658873-posta-praha-107-praha-hostivar.html","550"
"12","Vlak","Praha-Zahradní Město","","1013"
"13","Obchod","OC Cíl","https://www.firmy.cz/detail/13160630-oc-cil-praha-zabehlice.html","397"
"14","Školka","ZŠ a MŠ logopedická Praha 10","https://www.firmy.cz/detail/647985-zs-a-ms-logopedicka-praha-10-praha-zabehlice.html","144"
"15","Lékař","MOJE AMBULANCE","https://www.firmy.cz/detail/2697902-moje-ambulance-praha-hostivar.html","509"
"16","Bankomat","Vkladomat České spořitelny","https://www.firmy.cz/detail/13238697-vkladomat-ceske-sporitelny-praha-zabehlice.html","382"
"17","Škola","Jahodovka - Vyšší odborná škola sociálně právní","https://www.firmy.cz/detail/362401-jahodovka-vyssi-odborna-skola-socialne-pravni-praha-zabehlice.html","354"
"18","Sportoviště","Veřejné hřiště na míčové hry Topolová","","213"
"19","Metro","Skalka","","1554"
"20","Restaurace","Restaurace Kotelna","https://www.firmy.cz/detail/13073836-restaurace-kotelna-praha-zabehlice.html","352"
