"","facility_type","facility_name","facility_iri","facility_distance"
"0","Cukrárna","Za-Kúsek Cukrárna & Kavárna","https://www.firmy.cz/detail/13292289-za-kusek-cukrarna-kavarna-valasske-mezirici.html","1007"
"1","Kino","Kino Valmez","https://www.firmy.cz/detail/452944-kino-valmez-valasske-mezirici.html","1411"
"2","Přírodní zajímavost","Bražiska","","2237"
"3","Hřiště","Dětské hřiště Luční","","72"
"4","Večerka","COOP JEDNOTA","https://www.firmy.cz/detail/2347905-coop-jednota-valasske-mezirici.html","265"
"5","Hospoda","Nový Olymp","https://www.firmy.cz/detail/13304971-novy-olymp-valasske-mezirici.html","234"
"6","Divadlo","Divadlo Schod","https://www.firmy.cz/detail/397015-divadlo-schod-valasske-mezirici.html","1349"
"7","Veterinář","Veterinární ordinace Šoman","https://www.firmy.cz/detail/2194278-veterinarni-ordinace-soman-valasske-mezirici.html","979"
"8","Bankomat","Bankomat Fio banky","https://www.firmy.cz/detail/13203819-bankomat-fio-banky-valasske-mezirici.html","301"
"9","Bus MHD","Valašské Meziříčí, Na Štěpánově samoobsluha","","279"
"10","Obchod","Retail Park Valašské Meziříčí","https://www.firmy.cz/detail/13265732-retail-park-valasske-mezirici-valasske-mezirici-krasno-nad-becvou.html","1749"
"11","Vlak","Krhová","","1809"
"12","Škola","ZŠ a MŠ Valašské Meziříčí, U Nemocnice","https://www.firmy.cz/detail/1951851-zs-a-ms-valasske-mezirici-u-nemocnice-valasske-mezirici.html","301"
"13","Sportoviště","Discgolf Kasárna Valašské Meziříčí","","629"
"14","Lékař","MUDr. Jana Kozielová","https://www.firmy.cz/detail/390350-mudr-jana-kozielova-valasske-mezirici.html","301"
"15","Pošta","Pošta Valašské Meziříčí 4 - Česká pošta, s.p.","https://www.firmy.cz/detail/659001-posta-valasske-mezirici-4-valasske-mezirici.html","709"
"16","Školka","MŠ Valašské Meziříčí, Štěpánov","https://www.firmy.cz/detail/2695792-ms-valasske-mezirici-stepanov-valasske-mezirici.html","413"
"17","Lékárna","Lékárna AGEL - Nemocnice Valašské Meziříčí","https://www.firmy.cz/detail/658799-lekarna-agel-nemocnice-valasske-mezirici-valasske-mezirici.html","301"
"18","Restaurace","Restaurace Štěpánov","https://www.firmy.cz/detail/13235551-restaurace-stepanov-valasske-mezirici.html","282"
