"","facility_type","facility_name","facility_iri","facility_distance"
"0","Cukrárna","Cukrárna - kavárna U Zlaté konvice Kadaň","https://www.firmy.cz/detail/12815599-cukrarna-kavarna-u-zlate-konvice-kadan-kadan.html","1521"
"1","Kino","Kino Hvězda","https://www.firmy.cz/detail/2344098-kino-hvezda-kadan.html","848"
"2","Hřiště","Dětské hřiště Chomutovská","","27"
"3","Večerka","Sonyshop, s.r.o.","https://www.firmy.cz/detail/13248753-sonyshop-kadan.html","125"
"4","Hospoda","Pub Česká hospoda","https://www.firmy.cz/detail/2539992-pub-ceska-hospoda-kadan.html","365"
"5","Veterinář","MVDr. Michaela Čuprová","https://www.firmy.cz/detail/12935192-mvdr-michaela-cuprova-kadan.html","1417"
"6","Obchod","Kaufland","https://www.firmy.cz/detail/1452573-kaufland-kadan.html","786"
"7","Školka","ZŠ a MŠ při nemocnici, Kadaň","https://www.firmy.cz/detail/1311224-zs-a-ms-pri-nemocnici-kadan-kadan.html","216"
"8","Sportoviště","Pavel Špelda","https://www.firmy.cz/detail/644554-pavel-spelda-kadan.html","124"
"9","Lékárna","Lékárna U pelikána","https://www.firmy.cz/detail/2628439-lekarna-u-pelikana-kadan.html","252"
"10","Lékař","MUDr. Hana Beranová","https://www.firmy.cz/detail/386529-mudr-hana-beranova-kadan.html","252"
"11","Bankomat","Bankomat České spořitelny","https://www.firmy.cz/detail/12987532-bankomat-ceske-sporitelny-kadan.html","643"
"12","Pošta","Pošta Kadaň 1 - Česká pošta, s.p.","https://www.firmy.cz/detail/215307-posta-kadan-1-kadan.html","932"
"13","Škola","ZŠ a MŠ při nemocnici, Kadaň","https://www.firmy.cz/detail/357575-zs-a-ms-pri-nemocnici-kadan-kadan.html","216"
"14","Bus MHD","Kadaň, nemocnice, poliklinika","","159"
"15","Vlak","Kadaň-Bystřice","","670"
"16","Restaurace","Labyrint klub bowling","https://www.firmy.cz/detail/431862-labyrint-klub-bowling-kadan.html","403"
