"","facility_type","facility_name","facility_iri","facility_distance"
"0","Hřiště","Dětské hřiště Na Lysině","https://mapy.cz/zakladni?x=14.4259977778&y=50.0539419444&z=17&source=base&id=2179338","282"
"1","Přírodní zajímavost","Kovářovic mez","https://mapy.cz/zakladni?x=14.36107759920759&y=50.04395254566995&z=17&source=base&id=2339664","4490"
"2","Cukrárna","Cheecup","https://www.firmy.cz/detail/12725253-cheecup-praha-podoli.html","436"
"3","Večerka","Koloniál - lahůdky","https://www.firmy.cz/detail/2455523-kolonial-lahudky-praha-podoli.html","265"
"4","Kino","HopeTV","https://www.firmy.cz/detail/672889-hopetv-praha-vinohrady.html","2418"
"5","Hospoda","BEER BAR Na Veseli","https://www.firmy.cz/detail/2553652-beer-bar-na-veseli-praha-nusle.html","1438"
"6","Veterinář","MVDr. Lucie Boháčová","https://www.firmy.cz/detail/2646562-mvdr-lucie-bohacova-praha-podoli.html","545"
"7","Divadlo","TotO Divadlo","https://www.firmy.cz/detail/2262258-toto-divadlo-praha-nusle.html","985"
"8","Tram","Kublov","https://mapy.cz/zakladni?x=14.4181207493&y=50.0544116157&z=17&source=pubt&id=15303290","349"
"9","Pošta","Pošta Praha 49 - Česká pošta, s.p.","https://www.firmy.cz/detail/217479-posta-praha-49-praha-podoli.html","630"
"10","Školka","MŠ Praha 4, Voráčovská","https://www.firmy.cz/detail/628792-ms-praha-4-voracovska-praha-podoli.html","310"
"11","Vlak","Praha-Smíchov","https://mapy.cz/zakladni?x=14.4080585658&y=50.061288517&z=17&source=pubt&id=15212579","1385"
"12","Sportoviště","Wellness club MIDA","https://www.firmy.cz/detail/2196943-wellness-club-mida-praha-podoli.html","162"
"13","Bus MHD","Na Hřebenech","https://mapy.cz/zakladni?x=14.428486963894741&y=50.05182898747793&z=17&source=pubt&id=15301806","450"
"14","Obchod","Arkády Pankrác","https://www.firmy.cz/detail/2245240-arkady-pankrac-praha-nusle.html","1106"
"15","Lékař","MUDr. Marcela Cesarová","https://www.firmy.cz/detail/379326-mudr-marcela-cesarova-praha-podoli.html","412"
"16","Restaurace","Hostinec Na Staré Sokolovně","https://www.firmy.cz/detail/2037269-hostinec-na-stare-sokolovne-praha-podoli.html","295"
"17","Škola","ZŠ Praha 4, Nedvědovo náměstí","https://www.firmy.cz/detail/401410-zs-praha-4-nedvedovo-namesti-praha-podoli.html","513"
"18","Lékárna","Lékárna v Podolí, s.r.o.","https://www.firmy.cz/detail/269503-lekarna-v-podoli-praha-podoli.html","726"
"19","Bankomat","Bankomat České spořitelny","https://www.firmy.cz/detail/594780-bankomat-ceske-sporitelny-praha-podoli.html","358"
"20","Metro","Pražského povstání","https://mapy.cz/zakladni?x=14.43377195&y=50.0564598411&z=17&source=pubt&id=15206933","903"
