"","facility_type","facility_name","facility_iri","facility_distance"
"0","Hřiště","Dětské hřiště Na Spravedlnosti","https://mapy.cz/zakladni?x=13.7459720573&y=50.1002526121&z=17&source=base&id=2095513","356"
"1","Hospoda","Hostinec Zelený Strom","https://www.firmy.cz/detail/13109478-hostinec-zeleny-strom-rakovnik-i.html","1093"
"2","Cukrárna","Bertíkova cukrárna","https://www.firmy.cz/detail/13151033-bertikova-cukrarna-rakovnik-ii.html","834"
"3","Večerka","JEDNOTA, spotřební družstvo v Rakovníku","https://www.firmy.cz/detail/2549639-jednota-spotrebni-druzstvo-v-rakovniku-rakovnik-ii.html","663"
"4","Veterinář","Veterinární ordinace u Vysoké brány","https://www.firmy.cz/detail/2137608-veterinarni-ordinace-u-vysoke-brany-rakovnik-ii.html","880"
"5","Divadlo","Loutkářský spolek Před branou Rakovník","https://www.firmy.cz/detail/2109364-loutkarsky-spolek-pred-branou-rakovnik-rakovnik-i.html","735"
"6","Kino","Kino Tylovo Divadlo","https://www.firmy.cz/detail/457904-kino-tylovo-divadlo-rakovnik.html","1089"
"7","Lékárna","Dr.Max LÉKÁRNA","https://www.firmy.cz/detail/13269566-dr-max-lekarna-rakovnik-ii.html","816"
"8","Restaurace","Restaurace Bezděkov","https://www.firmy.cz/detail/13198394-restaurace-bezdekov-rakovnik-ii.html","152"
"9","Školka","Střední škola, ZŠ a MŠ Rakovník","https://www.firmy.cz/detail/2187396-stredni-skola-zs-a-ms-rakovnik-rakovnik-ii.html","427"
"10","Bankomat","Bankomat České spořitelny","https://www.firmy.cz/detail/595613-bankomat-ceske-sporitelny-rakovnik-ii.html","653"
"11","Pošta","Pošta Rakovník 2 - Česká pošta, s.p.","https://www.firmy.cz/detail/217293-posta-rakovnik-2-rakovnik-ii.html","682"
"12","Bus MHD","Rakovník, Autostop","https://mapy.cz/zakladni?x=13.744152467382&y=50.1041412759058&z=17&source=pubt&id=15326265","97"
"13","Vlak","Rakovník zastávka","https://mapy.cz/zakladni?x=13.7500537323&y=50.1054796705&z=17&source=pubt&id=15212665","476"
"14","Sportoviště","Okresní unie sportu Rakovník, z.s.","https://www.firmy.cz/detail/745540-okresni-unie-sportu-rakovnik-z-s-rakovnik-ii.html","701"
"15","Škola","Církevní základní škola mistra Jana Husa","https://www.firmy.cz/detail/13320710-cirkevni-zakladni-skola-mistra-jana-husa-rakovnik-ii.html","330"
"16","Lékař","MUDr. Milena Štrosová","https://www.firmy.cz/detail/386873-mudr-milena-strosova-rakovnik-i.html","915"
"17","Obchod","Shopping Park Rakovník","https://www.firmy.cz/detail/13269550-shopping-park-rakovnik-rakovnik.html","935"
