"","facility_type","facility_name","facility_iri","facility_distance"
"0","Hřiště","Dětské hřiště","https://mapy.cz/zakladni?x=14.4253019444&y=50.1319944444&z=17&source=base&id=2005911","186"
"1","Večerka","Penny Market","https://www.firmy.cz/detail/2412991-penny-market-praha-bohnice.html","165"
"2","Cukrárna","Cukrárna U Myslivce","https://www.firmy.cz/detail/13304969-cukrarna-u-myslivce-praha-bohnice.html","533"
"3","Hospoda","Pivnice V Solu","https://www.firmy.cz/detail/13093708-pivnice-v-solu-praha-troja.html","489"
"4","Veterinář","Veterinární ordinace Prima-vet","https://www.firmy.cz/detail/12739483-veterinarni-ordinace-prima-vet-praha-bohnice.html","215"
"5","Divadlo","Divadlo Za plotem","https://www.firmy.cz/detail/396897-divadlo-za-plotem-praha-bohnice.html","383"
"6","Kino","Bio Oko","https://www.firmy.cz/detail/2586117-bio-oko-praha-holesovice.html","3578"
"7","Bus MHD","Odra","https://mapy.cz/zakladni?x=14.423348555247042&y=50.13102377144154&z=17&source=pubt&id=15300682","106"
"8","Restaurace","Weranda restaurant","https://www.firmy.cz/detail/13206864-weranda-restaurant-praha-bohnice.html","496"
"9","Sportoviště","Pavel Brosinger","https://www.firmy.cz/detail/429137-pavel-brosinger-praha-bohnice.html","219"
"10","Obchod","Nákupní centrum ODRA","https://www.firmy.cz/detail/221986-nakupni-centrum-odra-praha-bohnice.html","131"
"11","Škola","Gymnázium, Praha 8, Ústavní 400","https://www.firmy.cz/detail/362277-gymnazium-praha-8-ustavni-400-praha-bohnice.html","108"
"12","Lékař","MUDr. Alena Vodáková","https://www.firmy.cz/detail/388100-mudr-alena-vodakova-praha-troja.html","760"
"13","Lékárna","Dr. Max","https://www.firmy.cz/detail/13001326-dr-max-praha-bohnice.html","131"
"14","Bankomat","Bankomat ČSOB","https://www.firmy.cz/detail/12979652-bankomat-csob-praha-bohnice.html","97"
"15","Tram","Nad Trojou","https://mapy.cz/zakladni?x=14.4388853634&y=50.1203273974&z=17&source=pubt&id=15693620","1726"
"16","Školka","Základní škola a mateřská škola Ústavní, Praha 8, Hlivická 1","https://www.firmy.cz/detail/2151214-zakladni-skola-a-materska-skola-ustavni-praha-8-hlivicka-1-praha-bohnice.html","188"
"17","Pošta","Pošta Praha 81","https://www.firmy.cz/detail/431382-posta-praha-81-praha-troja.html","580"
"18","Metro","Kobylisy","https://mapy.cz/zakladni?x=14.4518189735&y=50.1241205333&z=17&source=pubt&id=15200181","2248"
"19","Vlak","Praha-Sedlec","https://mapy.cz/zakladni?x=14.3944937428&y=50.1319715403&z=17&source=pubt&id=15212578","2011"
