"","facility_type","facility_name","facility_iri","facility_distance"
"0","Cukrárna","BeFeLeMe Coffee Bar","https://www.firmy.cz/detail/2690386-befeleme-coffee-bar-teplice.html","27"
"1","Kino","Multikino - Premiere Cinemas Teplice","https://www.firmy.cz/detail/12861055-multikino-premiere-cinemas-teplice-teplice.html","192"
"2","Přírodní zajímavost","Porcelanity u Strak","","2939"
"3","Hřiště","Dětské hřiště Zámecká zahrada","","411"
"4","Večerka","Lidl","https://www.firmy.cz/detail/13341158-lidl-teplice.html","208"
"5","Hospoda","Hospůdka Vyšehrad Teplice","https://www.firmy.cz/detail/13121903-hospudka-vysehrad-teplice-teplice.html","713"
"6","Divadlo","Krušnohorské divadlo","https://www.firmy.cz/detail/435271-krusnohorske-divadlo-teplice.html","293"
"7","Veterinář","MVDr. Jaroslava Radoušová","https://www.firmy.cz/detail/2621440-mvdr-jaroslava-radousova-teplice.html","556"
"8","Pošta","Pošta Teplice 8 - Česká pošta, s.p.","https://www.firmy.cz/detail/215425-posta-teplice-8-teplice.html","419"
"9","Škola","Gymnázium Teplice","https://www.firmy.cz/detail/362446-gymnazium-teplice-teplice.html","215"
"10","Lékař","MUDr. Simona Srpová","https://www.firmy.cz/detail/12842563-mudr-simona-srpova-teplice.html","470"
"11","Lékárna","BENU Lékárna","https://www.firmy.cz/detail/12933595-benu-lekarna-teplice.html","163"
"12","Bankomat","Bankomat Komerční banky","https://www.firmy.cz/detail/13203660-bankomat-komercni-banky-teplice.html","226"
"13","Restaurace","Restaurace u Zámku","https://www.firmy.cz/detail/2692359-restaurace-u-zamku-teplice.html","17"
"14","Sportoviště","RELAX sport klub","https://www.firmy.cz/detail/2686164-relax-sport-klub-teplice.html","281"
"15","Obchod","Galerie Teplice","https://www.firmy.cz/detail/12734057-galerie-teplice-teplice.html","226"
"16","Vlak","Teplice zámecká zahrada","","972"
"17","Školka","MŠ Čtyřlístek Teplice","https://www.firmy.cz/detail/770536-ms-ctyrlistek-teplice-teplice.html","134"
"18","Bus MHD","Teplice, Zámecké náměstí","","58"
