"","facility_type","facility_name","facility_iri","facility_distance"
"0","Cukrárna","Coffee cukrárna","https://www.firmy.cz/detail/13120911-coffee-cukrarna-hronov.html","480"
"1","Přírodní zajímavost","Araukarit","","1575"
"2","Hřiště","Dětské hřiště Farní","","881"
"3","Večerka","Penny Market","https://www.firmy.cz/detail/2413699-penny-market-hronov.html","403"
"4","Hospoda","Hospoda u Foxe","https://www.firmy.cz/detail/12891257-hospoda-u-foxe-hronov.html","632"
"5","Divadlo","Jiráskovo divadlo","https://www.firmy.cz/detail/13208530-jiraskovo-divadlo-hronov.html","1297"
"6","Veterinář","MVDr. Daniel Štěpánek","https://www.firmy.cz/detail/316318-mvdr-daniel-stepanek-velke-porici.html","747"
"7","Škola","Střední průmyslová škola Otty Wichterleho (centrum propagační tvorby a polygrafie)","https://www.firmy.cz/detail/13256010-stredni-prumyslova-skola-otty-wichterleho-centrum-propagacni-tvorby-a-polygrafie-velke-porici.html","530"
"8","Vlak","Velké Poříčí","","570"
"9","Restaurace","Staročeská hospůdka","https://www.firmy.cz/detail/302717-staroceska-hospudka-velke-porici.html","355"
"10","Pošta","Pošta Velké Poříčí - Česká pošta, s.p.","https://www.firmy.cz/detail/215658-posta-velke-porici-velke-porici.html","839"
"11","Lékař","MUDr. Pavel Maršík","https://www.firmy.cz/detail/386585-mudr-pavel-marsik-hronov.html","743"
"12","Bus MHD","Velké Poříčí, hornické domy","","217"
"13","Lékárna","OOVL - L Hronov","https://www.firmy.cz/detail/13210002-oovl-l-hronov-velke-porici.html","565"
"14","Sportoviště","TJ Velké Poříčí, z.s.","https://www.firmy.cz/detail/2651991-tj-velke-porici-z-s-velke-porici.html","839"
"15","Školka","MATEŘSKÁ ŠKOLA VELKÉ POŘÍČÍ","https://www.firmy.cz/detail/13064672-materska-skola-velke-porici-velke-porici.html","676"
"16","Bankomat","Bankomat ČSOB","https://www.firmy.cz/detail/599181-bankomat-csob-hronov.html","1237"
"17","Obchod","Obchodní dům, nákupní centrum","","5140"
