"","facility_type","facility_name","facility_iri","facility_distance"
"0","Cukrárna","Cukrárna Lada","https://www.firmy.cz/detail/12908208-cukrarna-lada-havirov.html","572"
"1","Kino","Letní kino - Městské kulturní středisko Havířov","https://www.firmy.cz/detail/13072791-letni-kino-havirov.html","426"
"2","Hřiště","Dětské hřiště Jilemnického","","336"
"3","Večerka","PEKAŘI a spol.","https://www.firmy.cz/detail/2608288-pekari-a-spol-havirov-mesto.html","468"
"4","Hospoda","Malá Jamajka","https://www.firmy.cz/detail/13121947-mala-jamajka-havirov-mesto.html","474"
"5","Veterinář","Veterinární ordinace Terra Vet","https://www.firmy.cz/detail/13330221-veterinarni-ordinace-terra-vet-havirov-mesto.html","607"
"6","Školka","Základní škola a Mateřská škola Havířov - Město Na Nábřeží, příspěvková organizace","https://www.firmy.cz/detail/1278268-zakladni-skola-a-materska-skola-havirov-mesto-na-nabrezi-prispevkova-organizace-havirov-mesto.html","256"
"7","Vlak","Havířov","","857"
"8","Lékárna","BENU Lékárna","https://www.firmy.cz/detail/12875767-benu-lekarna-havirov-mesto.html","1001"
"9","Pošta","Pošta Havířov 11 - Česká pošta, s.p.","https://www.firmy.cz/detail/431631-posta-havirov-11-havirov-mesto.html","297"
"10","Bus MHD","Havířov, Město, u podloubí","","160"
"11","Škola","Gymnázium, Havířov-Město","https://www.firmy.cz/detail/362587-gymnazium-havirov-mesto-havirov-mesto.html","277"
"12","Sportoviště","Letní koupaliště Jindřich","https://www.firmy.cz/detail/703103-letni-koupaliste-jindrich-havirov-mesto.html","551"
"13","Lékař","Mgr. Zdeňka Obtulovičová","https://www.firmy.cz/detail/368798-mgr-zdenka-obtulovicova-havirov-mesto.html","338"
"14","Bankomat","Bankomat ČSOB","https://www.firmy.cz/detail/636843-bankomat-csob-havirov-mesto.html","426"
"15","Restaurace","Pizzerie Boršičanka","https://www.firmy.cz/detail/13335617-pizzerie-borsicanka-havirov-mesto.html","64"
"16","Obchod","Tesco","https://www.firmy.cz/detail/218205-tesco-havirov-mesto.html","530"
