"","facility_type","facility_name","facility_iri","facility_distance"
"0","Hřiště","Dětské hřiště Na Trávníku","https://mapy.cz/zakladni?x=17.2937263889&y=49.6153083333&z=17&source=base&id=1978410","850"
"1","Hospoda","U Nás","https://www.firmy.cz/detail/13118393-u-nas-olomouc-cernovir.html","3011"
"2","Veterinář","Vetmedical, s.r.o.","https://www.firmy.cz/detail/669012-vetmedical-olomouc-chvalkovice.html","1089"
"3","Cukrárna","Sladká Andulka","https://www.firmy.cz/detail/13281687-sladka-andulka-olomouc-hodolany.html","3314"
"4","Večerka","HRUŠKA","https://www.firmy.cz/detail/12820542-hruska-olomouc-chvalkovice.html","1567"
"5","Divadlo","Divadlo hudby","https://www.firmy.cz/detail/12933426-divadlo-hudby-olomouc.html","4061"
"6","Kino","Letní kino Olomouc","https://www.firmy.cz/detail/13157654-letni-kino-olomouc-olomouc.html","3652"
"7","Sportoviště","TJ Sokol Týneček","https://www.firmy.cz/detail/1336102-tj-sokol-tynecek-olomouc-tynecek.html","187"
"8","Tram","Pavlovická","https://mapy.cz/zakladni?x=17.2777933182849&y=49.6020504255873&z=17&source=pubt&id=15210306","2616"
"9","Bankomat","Bankomat ČSOB","https://www.firmy.cz/detail/13035019-bankomat-csob-olomouc-belidla.html","2607"
"10","Restaurace","Restaurace V Týnečku","https://www.firmy.cz/detail/13313762-restaurace-v-tynecku-olomouc-tynecek.html","45"
"11","Vlak","Hlušovice","https://mapy.cz/zakladni?x=17.28118602958617&y=49.63905526432183&z=17&source=pubt&id=15698486","2034"
"12","Lékař","MUDr. Marie Terrichová, s.r.o.","https://www.firmy.cz/detail/13294855-mudr-marie-terrichova-olomouc-chvalkovice.html","691"
"13","Bus MHD","Týneček","https://mapy.cz/zakladni?x=17.295223615727643&y=49.622507638404805&z=17&source=pubt&id=15209787","69"
"14","Školka","MŠ Týneček","https://www.firmy.cz/detail/2533594-ms-tynecek-olomouc-tynecek.html","222"
"15","Lékárna","Dr.Max LÉKÁRNA","https://www.firmy.cz/detail/2007026-dr-max-lekarna-olomouc-belidla.html","2655"
"16","Obchod","Forest UP","https://www.firmy.cz/detail/13233249-forest-up-olomouc-chvalkovice.html","1852"
"17","Pošta","Pošta Olomouc 3 - Česká pošta, s.p.","https://www.firmy.cz/detail/432294-posta-olomouc-3-olomouc-pavlovicky.html","2324"
"18","Škola","ZŠ a MŠ Olomouc, Gorkého","https://www.firmy.cz/detail/356103-zs-a-ms-olomouc-gorkeho-olomouc-pavlovicky.html","2068"
