"","facility_type","facility_name","facility_iri","facility_distance"
"0","Cukrárna","Cukrárna u Lidušky","https://www.firmy.cz/detail/13298785-cukrarna-u-lidusky-stochov.html","4048"
"1","Kino","Kino Stochov","https://www.firmy.cz/detail/677735-kino-stochov-stochov.html","4025"
"2","Hřiště","Dětské hřiště Rakovnická","","469"
"3","Večerka","Javor Potraviny","https://www.firmy.cz/detail/13068911-javor-potraviny-nove-straseci.html","69"
"4","Hospoda","Pivárium","https://www.firmy.cz/detail/12728677-pivarium-nove-straseci.html","102"
"5","Divadlo","Spolek pro kulturní činnost NoStraDivadlo","https://www.firmy.cz/detail/2380044-spolek-pro-kulturni-cinnost-nostradivadlo-nove-straseci.html","299"
"6","Školka","MŠ Na Kocourku - Základní škola a mateřská škola J. A. Komenského v Novém Strašecí","https://www.firmy.cz/detail/358471-ms-na-kocourku-nove-straseci.html","302"
"7","Pošta","Pošta Nové Strašecí - Česká pošta, s.p.","https://www.firmy.cz/detail/431752-posta-nove-straseci-nove-straseci.html","94"
"8","Lékař","MUDr. Zdeňka Stehlíková","https://www.firmy.cz/detail/387477-mudr-zdenka-stehlikova-nove-straseci.html","26"
"9","Sportoviště","Sportoviště Kocourek","https://www.firmy.cz/detail/2643352-sportoviste-kocourek-nove-straseci.html","223"
"10","Bankomat","Bankomat MONETA Money Bank","https://www.firmy.cz/detail/13082272-bankomat-moneta-money-bank-nove-straseci.html","60"
"11","Bus MHD","Nové Strašecí, Palackého","","73"
"12","Restaurace","Asia Dragon Restaurace","https://www.firmy.cz/detail/13230633-asia-dragon-restaurace-nove-straseci.html","29"
"13","Lékárna","Lékárna U České koruny","https://www.firmy.cz/detail/375008-lekarna-u-ceske-koruny-nove-straseci.html","89"
"14","Škola","Základní škola a mateřská škola J. A. Komenského v Novém Strašecí","https://www.firmy.cz/detail/296274-zakladni-skola-a-materska-skola-j-a-komenskeho-v-novem-straseci-nove-straseci.html","60"
"15","Vlak","Nové Strašecí","","1325"
