"","facility_type","facility_name","facility_iri","facility_distance"
"0","Cukrárna","Cukrárna Oáza","https://www.firmy.cz/detail/278585-cukrarna-oaza-krnov-pod-bezrucovym-vrchem.html","1189"
"1","Kino","Kino Mír 70","https://www.firmy.cz/detail/2585148-kino-mir-70-krnov-pod-cvilinem.html","828"
"2","Přírodní zajímavost","Bývalá pískovna Cvilín","","2768"
"3","Hřiště","Dětské hřiště Bruntálská","","859"
"4","Večerka","HRUŠKA","https://www.firmy.cz/detail/12820537-hruska-krnov-pod-bezrucovym-vrchem.html","313"
"5","Divadlo","Městské divadlo Krnov","https://www.firmy.cz/detail/661546-mestske-divadlo-krnov-krnov-pod-bezrucovym-vrchem.html","763"
"6","Hospoda","Pivnice U Prezidenta","https://www.firmy.cz/detail/2456065-pivnice-u-prezidenta-krnov-pod-bezrucovym-vrchem.html","316"
"7","Veterinář","Veterinární ordinace Žeryk","https://www.firmy.cz/detail/2096453-veterinarni-ordinace-zeryk-krnov-pod-bezrucovym-vrchem.html","492"
"8","Pošta","Pošta Krnov 2 - Česká pošta, s.p.","https://www.firmy.cz/detail/432339-posta-krnov-2-krnov-pod-bezrucovym-vrchem.html","444"
"9","Restaurace","Villa Cafe","https://www.firmy.cz/detail/13105204-villa-cafe-krnov-pod-bezrucovym-vrchem.html","324"
"10","Škola","Střední odborná škola dopravy a cestovního ruchu Krnov","https://www.firmy.cz/detail/255951-stredni-odborna-skola-dopravy-a-cestovniho-ruchu-krnov-krnov-pod-bezrucovym-vrchem.html","352"
"11","Sportoviště","TJ Lokomotiva Krnov","https://www.firmy.cz/detail/13083733-tj-lokomotiva-krnov-krnov-pod-bezrucovym-vrchem.html","534"
"12","Obchod","Albert Hypermarket","https://www.firmy.cz/detail/446932-albert-hypermarket-krnov-pod-bezrucovym-vrchem.html","640"
"13","Školka","MŠ Krnov, Karla Čapka","https://www.firmy.cz/detail/407501-ms-krnov-karla-capka-krnov-pod-bezrucovym-vrchem.html","428"
"14","Lékárna","Dr. Max LÉKÁRNA","https://www.firmy.cz/detail/13280183-dr-max-lekarna-krnov-pod-bezrucovym-vrchem.html","638"
"15","Vlak","Krnov","","514"
"16","Bus MHD","Krnov, Slévárna","","300"
"17","Lékař","MUDr. Petr Mylek","https://www.firmy.cz/detail/13017533-mudr-petr-mylek-krnov-pod-bezrucovym-vrchem.html","554"
"18","Bankomat","Bankomat České spořitelny","https://www.firmy.cz/detail/593072-bankomat-ceske-sporitelny-krnov-pod-bezrucovym-vrchem.html","638"
