"","facility_type","facility_name","facility_iri","facility_distance"
"0","Cukrárna","Cukrárna Přílepy","https://www.firmy.cz/detail/13298704-cukrarna-prilepy-velke-prilepy.html","2360"
"1","Kino","Kino Velké Přílepy","https://www.firmy.cz/detail/12895760-kino-velke-prilepy-velke-prilepy.html","2337"
"2","Hřiště","Dětské hřiště Za Roklí","","303"
"3","Večerka","Lidl","https://www.firmy.cz/detail/12716470-lidl-horomerice.html","902"
"4","Divadlo","Loutkové divadélko Manetka","https://www.firmy.cz/detail/13228024-loutkove-divadelko-manetka-uholicky.html","1498"
"5","Hospoda","Hostinec Sokolovna","https://www.firmy.cz/detail/13064937-hostinec-sokolovna-unetice.html","1026"
"6","Veterinář","MVDr. Eva Černochová","https://www.firmy.cz/detail/2138935-mvdr-eva-cernochova-statenice-cerny-vul.html","575"
"7","Sportoviště","Sportovní centrum Markéta Wright","https://www.firmy.cz/detail/13194099-sportovni-centrum-marketa-wright-statenice-cerny-vul.html","395"
"8","Škola","Základní škola Hnízdo v Úněticích","https://www.firmy.cz/detail/13047169-zakladni-skola-hnizdo-v-uneticich-unetice.html","1010"
"9","Bus MHD","Statenice, Černý Vůl, hospoda","","456"
"10","Restaurace","Restaurace Ve mlejně","https://www.firmy.cz/detail/13117862-restaurace-ve-mlejne-statenice.html","69"
"11","Lékař","MUDr. Lenka Fejfarová","https://www.firmy.cz/detail/13285056-mudr-lenka-fejfarova-uholicky.html","1027"
"12","Bankomat","Bankomat Komerční banky","https://www.firmy.cz/detail/13033824-bankomat-komercni-banky-horomerice.html","1887"
"13","Školka","Mateřská škola Hnízdo v Úněticích","https://www.firmy.cz/detail/13047172-materska-skola-hnizdo-v-uneticich-unetice.html","1010"
"14","Obchod","POP Airport","https://www.firmy.cz/detail/13309037-pop-airport-tuchomerice.html","4836"
"15","Vlak","Úholičky","","2548"
"16","Tram","Nádraží Podbaba","","5676"
"17","Pošta","Pošta Horoměřice - Česká pošta, s.p.","https://www.firmy.cz/detail/216674-posta-horomerice-horomerice.html","1978"
"18","Lékárna","Lékárna Horoměřice","https://www.firmy.cz/detail/422550-lekarna-horomerice-horomerice.html","1866"
